{
    "Average_holding_time": 0,
    "Average_travel_time_passengers": 6460.69212965392,
    "Average_speed_busses": 0.030708333333333334,
    "Average_experienced_crowding": 618.1038593034069,
    "Average_covariation_headway": 2.2925195850643725,
    "Average_covariation_headway_stops": {
        "C": 2.1629905092168342,
        "G": 2.1472653774399184,
        "H": 2.1551525336997943,
        "I": 2.1680742326900453,
        "J": 2.177465035992995,
        "L": 2.1705051619825144,
        "K": 2.1648213654882915,
        "D": 2.1549571785677952,
        "A": 2.169881184198698,
        "E": 2.142859455160625,
        "B": 2.151205383710271,
        "F": 2.1469166537730255
    },
    "Average_excess_waiting_time": {
        "C": 2284.6570042210724,
        "G": 2318.910212327144,
        "H": 2321.5258899598575,
        "I": 2328.871423617984,
        "J": 2333.941999519001,
        "L": 2331.569874218435,
        "K": 2334.2074496209343,
        "D": 2297.662700612752,
        "A": 2285.732882331714,
        "E": 2300.331698075299,
        "B": 2276.6012008727757,
        "F": 2332.7700418729055
    },
    "Holding_per_stop": {
        "J": 0,
        "G": 0,
        "C": 0,
        "H": 0,
        "L": 0,
        "I": 0,
        "K": 0,
        "D": 0,
        "A": 0,
        "B": 0,
        "E": 0,
        "F": 0
    },
    "Load_per_bus_per_stop": {
        "bus0": {
            "C": 574.9,
            "D": 579.2,
            "E": 591.9,
            "F": 594.3,
            "G": 607.9,
            "H": 616.9,
            "I": 625.9,
            "J": 633.5,
            "K": 640.5,
            "L": 648.2,
            "A": 625,
            "B": 634.1111111111111
        },
        "bus1": {
            "G": 9.181818181818182,
            "H": 9.272727272727273,
            "I": 10,
            "J": 9.818181818181818,
            "K": 10.181818181818182,
            "L": 10.727272727272727,
            "A": 10.9,
            "B": 11,
            "C": 11.2,
            "D": 11.1,
            "E": 11.5,
            "F": 11.3
        },
        "bus2": {
            "H": 5.909090909090909,
            "I": 6.909090909090909,
            "J": 7.636363636363637,
            "K": 7.545454545454546,
            "L": 7.909090909090909,
            "A": 8.7,
            "B": 8.5,
            "C": 8.8,
            "D": 9,
            "E": 8.3,
            "F": 7.4,
            "G": 7
        },
        "bus3": {
            "I": 8.727272727272727,
            "J": 9,
            "K": 9.727272727272727,
            "L": 9.727272727272727,
            "A": 9.3,
            "B": 9.4,
            "C": 8.9,
            "D": 9.1,
            "E": 9.4,
            "F": 9.7,
            "G": 9.4,
            "H": 9.3
        },
        "bus4": {
            "J": 7.909090909090909,
            "K": 7.909090909090909,
            "L": 8,
            "A": 8.9,
            "B": 9.2,
            "C": 9.1,
            "D": 10,
            "E": 9.6,
            "F": 10.1,
            "G": 10.2,
            "H": 10.1,
            "I": 9.1
        },
        "bus5": {
            "L": 40.81818181818182,
            "A": 42.6,
            "B": 42.8,
            "C": 43.7,
            "D": 45.6,
            "E": 46.8,
            "F": 48.1,
            "G": 47.1,
            "H": 48.5,
            "I": 47.4,
            "J": 47.7,
            "K": 46.5
        }
    }
}