{
    "Average_holding_time": 0,
    "Average_travel_time_passengers": 6051.588809216544,
    "Average_speed_busses": 0.0315,
    "Average_experienced_crowding": 576.2311439869486,
    "Average_covariation_headway": 2.1951619753875877,
    "Average_covariation_headway_stops": {
        "E": 2.116800756591101,
        "G": 2.1146444226505308,
        "H": 2.1205040296677193,
        "I": 2.1293103219999825,
        "L": 2.119370187836168,
        "A": 2.132024519109052,
        "J": 2.1066903194583393,
        "B": 2.118906985935403,
        "F": 2.1025514874617,
        "C": 2.1121726379929044,
        "K": 2.1038631948514452,
        "D": 2.10332044637613
    },
    "Average_excess_waiting_time": {
        "E": 2156.9888626591746,
        "G": 2163.8009351623514,
        "H": 2161.9810243243537,
        "I": 2165.1957198235677,
        "L": 2183.1334796361543,
        "A": 2194.1747396540295,
        "J": 2148.463400845336,
        "B": 2195.7715408051854,
        "F": 2155.148966281283,
        "C": 2135.633410861815,
        "K": 2166.5096755445884,
        "D": 2145.592848057897
    },
    "Holding_per_stop": {
        "I": 0,
        "A": 0,
        "E": 0,
        "H": 0,
        "G": 0,
        "L": 0,
        "B": 0,
        "J": 0,
        "F": 0,
        "C": 0,
        "K": 0,
        "D": 0
    },
    "Load_per_bus_per_stop": {
        "bus0": {
            "E": 34.63636363636363,
            "F": 33.54545454545455,
            "G": 34.27272727272727,
            "H": 34.27272727272727,
            "I": 33.81818181818182,
            "J": 33.27272727272727,
            "K": 33,
            "L": 33.54545454545455,
            "A": 33.27272727272727,
            "B": 35.36363636363637,
            "C": 38.9,
            "D": 37.4
        },
        "bus1": {
            "G": 6.909090909090909,
            "H": 6.909090909090909,
            "I": 6.090909090909091,
            "J": 6.2727272727272725,
            "K": 6.181818181818182,
            "L": 5.818181818181818,
            "A": 5.454545454545454,
            "B": 5.818181818181818,
            "C": 5.8,
            "D": 6.2,
            "E": 6.5,
            "F": 6.7
        },
        "bus2": {
            "H": 3.727272727272727,
            "I": 3.8181818181818183,
            "J": 4.181818181818182,
            "K": 4.181818181818182,
            "L": 4.363636363636363,
            "A": 4.636363636363637,
            "B": 4.909090909090909,
            "C": 5.5,
            "D": 5.6,
            "E": 4.7,
            "F": 4.2,
            "G": 3.8
        },
        "bus3": {
            "I": 25.181818181818183,
            "J": 25.636363636363637,
            "K": 25.454545454545453,
            "L": 26.09090909090909,
            "A": 25.636363636363637,
            "B": 25.454545454545453,
            "C": 28,
            "D": 28.8,
            "E": 27.9,
            "F": 25.9,
            "G": 25.9,
            "H": 27.2
        },
        "bus4": {
            "L": 31,
            "A": 32.63636363636363,
            "B": 33.81818181818182,
            "C": 32.1,
            "D": 32.7,
            "E": 31.7,
            "F": 32.5,
            "G": 33.5,
            "H": 35.2,
            "I": 35.7,
            "J": 35.4,
            "K": 35.1
        },
        "bus5": {
            "A": 552.4545454545455,
            "B": 560.7272727272727,
            "C": 531.1,
            "D": 542.7,
            "E": 551.7,
            "F": 560.4,
            "G": 567.4,
            "H": 571.8,
            "I": 575.3,
            "J": 585.4,
            "K": 595.1,
            "L": 601.1
        }
    }
}