{
    "Average_holding_time": 0,
    "Average_travel_time_passengers": 6177.07798150062,
    "Average_speed_busses": 0.031625,
    "Average_experienced_crowding": 583.7691415533484,
    "Average_covariation_headway": 2.2221537712886192,
    "Average_covariation_headway_stops": {
        "C": 2.1258393201922536,
        "D": 2.1366400644036294,
        "E": 2.15301788230565,
        "H": 2.140718133675142,
        "L": 2.1249282908789997,
        "A": 2.1290600998821283,
        "I": 2.130992367917415,
        "F": 2.1330615536336586,
        "B": 2.118851122860559,
        "G": 2.1390756922592002,
        "J": 2.039127957798335,
        "K": 2.1096876918213168
    },
    "Average_excess_waiting_time": {
        "C": 2165.55256544694,
        "D": 2173.9891241982405,
        "E": 2192.353001516134,
        "H": 2207.58763709674,
        "L": 2165.3916072544553,
        "A": 2160.3065445449247,
        "I": 2214.2433600610057,
        "F": 2182.278462056798,
        "B": 2168.1843318637866,
        "G": 2216.1431855620913,
        "J": 2236.951471557698,
        "K": 2151.200213176877
    },
    "Holding_per_stop": {
        "H": 0,
        "D": 0,
        "E": 0,
        "C": 0,
        "L": 0,
        "A": 0,
        "F": 0,
        "I": 0,
        "B": 0,
        "G": 0,
        "J": 0,
        "K": 0
    },
    "Load_per_bus_per_stop": {
        "bus0": {
            "C": 6.090909090909091,
            "D": 7.181818181818182,
            "E": 8.181818181818182,
            "F": 8.181818181818182,
            "G": 8.454545454545455,
            "H": 8.090909090909092,
            "I": 7.7272727272727275,
            "J": 8.2,
            "K": 8.3,
            "L": 7.6,
            "A": 7.7,
            "B": 7.6
        },
        "bus1": {
            "D": 4.363636363636363,
            "E": 5.545454545454546,
            "F": 5.7272727272727275,
            "G": 6.2727272727272725,
            "H": 6.454545454545454,
            "I": 5.909090909090909,
            "J": 6.4,
            "K": 5.8,
            "L": 5.2,
            "A": 5.5,
            "B": 5.2,
            "C": 5
        },
        "bus2": {
            "E": 45.54545454545455,
            "F": 46.54545454545455,
            "G": 46.09090909090909,
            "H": 45.81818181818182,
            "I": 46.18181818181818,
            "J": 47,
            "K": 48,
            "L": 47.8,
            "A": 49.3,
            "B": 49.5,
            "C": 49.8,
            "D": 50
        },
        "bus3": {
            "H": 552.8181818181819,
            "I": 560.5454545454545,
            "J": 568.9090909090909,
            "K": 548.8,
            "L": 555.3,
            "A": 559.5,
            "B": 569.1,
            "C": 577.3,
            "D": 584.3,
            "E": 587.5,
            "F": 601.4,
            "G": 602.4
        },
        "bus4": {
            "L": 4.2727272727272725,
            "A": 4.545454545454546,
            "B": 4.7272727272727275,
            "C": 5.090909090909091,
            "D": 5.2727272727272725,
            "E": 4.818181818181818,
            "F": 5.090909090909091,
            "G": 5.090909090909091,
            "H": 4.545454545454546,
            "I": 4.818181818181818,
            "J": 4.9,
            "K": 4.4
        },
        "bus5": {
            "A": 33.63636363636363,
            "B": 34.90909090909091,
            "C": 34.90909090909091,
            "D": 34.90909090909091,
            "E": 34.36363636363637,
            "F": 34.54545454545455,
            "G": 34.90909090909091,
            "H": 35.27272727272727,
            "I": 34.90909090909091,
            "J": 38.2,
            "K": 36.2,
            "L": 35.8
        }
    }
}