{
    "Average_holding_time": 56.370217166494314,
    "Average_holding_actions": [
        565,
        38,
        42,
        34,
        43,
        203
    ],
    "Average_travel_time_passengers": 2352.165387127899,
    "Average_passenger_waiting_time": 383.3575469367075,
    "Average_passenger_in_vehicle_time": 1968.8078401911755,
    "Average_speed_busses": 0.04029166666666667,
    "Average_experienced_crowding": 95.6419932878063,
    "Average_covariation_headway": 0.35402894123248807,
    "Average_covariation_headway_stops": {
        "G": 0.25869236380385896,
        "J": 0.24553973926686054,
        "K": 0.2364560684977575,
        "B": 0.23190670773523386,
        "D": 0.2515850630577101,
        "H": 0.25400214892541617,
        "C": 0.22397496510589607,
        "L": 0.23700341564486332,
        "E": 0.24587231020320316,
        "F": 0.21746509818168847,
        "A": 0.24246949847262697,
        "I": 0.22276334108205134
    },
    "Average_excess_waiting_time": {
        "G": 115.24065339286557,
        "J": 115.2669968631987,
        "K": 110.6478480872222,
        "B": 112.99617798964135,
        "D": 112.2098052410638,
        "H": 117.19118496708387,
        "C": 110.25619465587778,
        "L": 113.2969166450116,
        "E": 115.16076166618404,
        "F": 111.13795090082317,
        "A": 116.7551038149025,
        "I": 114.03925861675441
    },
    "Holding_per_stop": {
        "K": 52.96296296296296,
        "G": 62.22222222222222,
        "D": 52.592592592592595,
        "J": 61.851851851851855,
        "B": 59.625,
        "C": 56.2962962962963,
        "L": 48.888888888888886,
        "E": 51.111111111111114,
        "H": 61.125,
        "A": 51.75,
        "F": 59.25,
        "I": 58.875
    },
    "Actions_tfl_edges": {
        "CD": [
            82,
            0,
            0
        ],
        "FG": [
            81,
            0,
            0
        ],
        "JK": [
            82,
            0,
            0
        ],
        "GH": [
            81,
            0,
            0
        ],
        "HI": [
            80,
            0,
            0
        ]
    },
    "Load_per_bus_per_stop": {
        "bus3": {
            "G": 109.21428571428571,
            "H": 117.5,
            "I": 117.5,
            "J": 109.78571428571429,
            "K": 98.71428571428571,
            "L": 83.85714285714286,
            "A": 72.3076923076923,
            "B": 62.46153846153846,
            "C": 57.38461538461539,
            "D": 53.23076923076923,
            "E": 49.30769230769231,
            "F": 78.07692307692308
        },
        "bus4": {
            "J": 110.71428571428571,
            "K": 102.35714285714286,
            "L": 91.57142857142857,
            "A": 80.14285714285714,
            "B": 66.85714285714286,
            "C": 57,
            "D": 53.76923076923077,
            "E": 52.46153846153846,
            "F": 84.84615384615384,
            "G": 124.92307692307692,
            "H": 135.3846153846154,
            "I": 127.84615384615384
        },
        "bus5": {
            "K": 93.21428571428571,
            "L": 81.78571428571429,
            "A": 71.78571428571429,
            "B": 63.857142857142854,
            "C": 56.714285714285715,
            "D": 53,
            "E": 51.23076923076923,
            "F": 74.84615384615384,
            "G": 113.84615384615384,
            "H": 124.53846153846153,
            "I": 120.76923076923077,
            "J": 111.07692307692308
        },
        "bus0": {
            "B": 63.07142857142857,
            "C": 57.07142857142857,
            "D": 55.214285714285715,
            "E": 54.57142857142857,
            "F": 84,
            "G": 121.38461538461539,
            "H": 129.92307692307693,
            "I": 126.53846153846153,
            "J": 115.84615384615384,
            "K": 102.84615384615384,
            "L": 91.61538461538461,
            "A": 79.92307692307692
        },
        "bus2": {
            "D": 50.214285714285715,
            "E": 48.642857142857146,
            "F": 77.21428571428571,
            "G": 114.42857142857143,
            "H": 123.21428571428571,
            "I": 120.42857142857143,
            "J": 114.28571428571429,
            "K": 106.61538461538461,
            "L": 93.76923076923077,
            "A": 80,
            "B": 68.3076923076923,
            "C": 58.07692307692308
        },
        "bus1": {
            "C": 58.714285714285715,
            "D": 55.214285714285715,
            "E": 55.785714285714285,
            "F": 79.07142857142857,
            "G": 116.85714285714286,
            "H": 123.28571428571429,
            "I": 117.23076923076923,
            "J": 108.3076923076923,
            "K": 97.15384615384616,
            "L": 90,
            "A": 79.53846153846153,
            "B": 68.61538461538461
        }
    },
    "Obs_and_actions_busses": {
        "6": 292.09710423105815,
        "3": 92.84488469004091,
        "0": -209.44958452771036,
        "4": 121.71356674400542,
        "1": 29.37517181690949,
        "2": 60.25763669080457,
        "5": 151.06799806840388
    },
    "Obs_and_actions_tfls": {
        "0": 67.47193642606814
    }
}