{
    "Average_holding_time": 78.25413223140495,
    "Average_holding_actions": [
        0,
        34,
        337,
        8,
        9,
        0
    ],
    "Average_travel_time_passengers": 2389.5286455327637,
    "Average_passenger_waiting_time": 369.1507440612387,
    "Average_passenger_in_vehicle_time": 2020.3779014714514,
    "Average_speed_busses": 0.04033333333333333,
    "Average_experienced_crowding": 67.53989999498228,
    "Average_covariation_headway": 0.11336219909315612,
    "Average_covariation_headway_stops": {
        "E": 0.1342651818256329,
        "G": 0.11690046458433784,
        "H": 0.12374570210286934,
        "I": 0.1272975175015926,
        "J": 0.13415485680499667,
        "A": 0.1159892862048362,
        "K": 0.1070154754353598,
        "B": 0.08736966302153899,
        "F": 0.09875360226191772,
        "C": 0.07806085931468996,
        "L": 0.09229488697124824,
        "D": 0.10045141323999938
    },
    "Average_excess_waiting_time": {
        "E": 113.19818647952638,
        "G": 111.39937628662199,
        "H": 109.6856056669597,
        "I": 107.77708163030326,
        "J": 106.15569848342648,
        "A": 106.80784848156276,
        "K": 106.25936731247725,
        "B": 107.18589244099775,
        "F": 112.5362270417047,
        "C": 108.98183786160877,
        "L": 107.4891873918096,
        "D": 112.71759299550735
    },
    "Holding_per_stop": {
        "J": 78.29268292682927,
        "A": 76.66666666666667,
        "I": 81.11111111111111,
        "H": 79.25925925925925,
        "G": 78.375,
        "E": 79.125,
        "B": 77.4074074074074,
        "K": 78.14814814814815,
        "F": 79.125,
        "C": 77.625,
        "L": 77.03703703703704,
        "D": 76.875
    },
    "Actions_tfl_edges": {},
    "Load_per_bus_per_stop": {
        "bus0": {
            "E": 64.07142857142857,
            "F": 65.21428571428571,
            "G": 67.57142857142857,
            "H": 69.07142857142857,
            "I": 69.61538461538461,
            "J": 67.07692307692308,
            "K": 66.61538461538461,
            "L": 68.84615384615384,
            "A": 69.61538461538461,
            "B": 68.07692307692308,
            "C": 69.53846153846153,
            "D": 69.07692307692308
        },
        "bus1": {
            "G": 61.92857142857143,
            "H": 62.42857142857143,
            "I": 62.714285714285715,
            "J": 64,
            "K": 61.92307692307692,
            "L": 63.61538461538461,
            "A": 64.6923076923077,
            "B": 67.46153846153847,
            "C": 66.46153846153847,
            "D": 68.61538461538461,
            "E": 68.15384615384616,
            "F": 66.07692307692308
        },
        "bus2": {
            "H": 65.78571428571429,
            "I": 68.57142857142857,
            "J": 68.64285714285714,
            "K": 68.35714285714286,
            "L": 66.35714285714286,
            "A": 65,
            "B": 65.38461538461539,
            "C": 67.53846153846153,
            "D": 66.15384615384616,
            "E": 66,
            "F": 68.3076923076923,
            "G": 68
        },
        "bus3": {
            "I": 63.857142857142854,
            "J": 63.57142857142857,
            "K": 63.07142857142857,
            "L": 62.785714285714285,
            "A": 63.92857142857143,
            "B": 64.85714285714286,
            "C": 62.92307692307692,
            "D": 63.30769230769231,
            "E": 63.30769230769231,
            "F": 63.61538461538461,
            "G": 65.07692307692308,
            "H": 67.6923076923077
        },
        "bus4": {
            "J": 64,
            "K": 63.92857142857143,
            "L": 65.5,
            "A": 65.78571428571429,
            "B": 66.64285714285714,
            "C": 67.14285714285714,
            "D": 67.64285714285714,
            "E": 70.84615384615384,
            "F": 72.15384615384616,
            "G": 71.38461538461539,
            "H": 70.07692307692308,
            "I": 68.23076923076923
        },
        "bus5": {
            "A": 67.92857142857143,
            "B": 65.92857142857143,
            "C": 65.14285714285714,
            "D": 63.857142857142854,
            "E": 66.07142857142857,
            "F": 64.85714285714286,
            "G": 69.15384615384616,
            "H": 70.92307692307692,
            "I": 69,
            "J": 69.07692307692308,
            "K": 69.3076923076923,
            "L": 72.76923076923077
        }
    },
    "Obs_and_actions_busses": {
        "4": 217.0906883115035,
        "5": 404.2816804915114,
        "3": 26.37068965534485,
        "2": -43.0344477671786,
        "1": -282.87659501110136
    },
    "Obs_and_actions_tfls": {}
}