{
    "Average_holding_time": 78.80041365046536,
    "Average_holding_actions": [
        0,
        28,
        322,
        5,
        6,
        0
    ],
    "Average_travel_time_passengers": 2364.911924705494,
    "Average_passenger_waiting_time": 365.87369141151527,
    "Average_passenger_in_vehicle_time": 1999.0382332938964,
    "Average_speed_busses": 0.04029166666666667,
    "Average_experienced_crowding": 66.47384539459402,
    "Average_covariation_headway": 0.10474710920920703,
    "Average_covariation_headway_stops": {
        "C": 0.09745033800325494,
        "G": 0.11915363758818848,
        "H": 0.12105086906892608,
        "J": 0.0949206842565912,
        "L": 0.09224146254191741,
        "A": 0.10710684869697185,
        "B": 0.07532123107430266,
        "I": 0.07750858006060897,
        "D": 0.0653843462843402,
        "K": 0.05846215151126506,
        "E": 0.05757141601442762,
        "F": 0.08053114543531854
    },
    "Average_excess_waiting_time": {
        "C": 105.9260317895081,
        "G": 112.13261354967148,
        "H": 109.87159388299966,
        "J": 107.87978915448184,
        "L": 107.62254411359271,
        "A": 106.47245358202548,
        "B": 106.51613049816973,
        "I": 108.93152131809177,
        "D": 106.36067800841255,
        "K": 107.9646215315172,
        "E": 108.03965425349742,
        "F": 111.61611808764667
    },
    "Holding_per_stop": {
        "A": 77.77777777777777,
        "H": 77.4074074074074,
        "C": 79.25925925925925,
        "J": 78.88888888888889,
        "L": 81.48148148148148,
        "G": 78.75,
        "I": 78.75,
        "B": 79.62962962962963,
        "D": 80,
        "K": 78,
        "E": 78,
        "F": 77.625
    },
    "Actions_tfl_edges": {},
    "Load_per_bus_per_stop": {
        "bus0": {
            "C": 65.42857142857143,
            "D": 65.71428571428571,
            "E": 64.78571428571429,
            "F": 65.28571428571429,
            "G": 65.57142857142857,
            "H": 66,
            "I": 68.23076923076923,
            "J": 66.6923076923077,
            "K": 65,
            "L": 63.92307692307692,
            "A": 65.53846153846153,
            "B": 68.23076923076923
        },
        "bus1": {
            "G": 57.785714285714285,
            "H": 60.142857142857146,
            "I": 61.357142857142854,
            "J": 63.642857142857146,
            "K": 63,
            "L": 64.84615384615384,
            "A": 65.15384615384616,
            "B": 65.3076923076923,
            "C": 66.84615384615384,
            "D": 65.76923076923077,
            "E": 63.92307692307692,
            "F": 62.53846153846154
        },
        "bus2": {
            "H": 62.285714285714285,
            "I": 62.214285714285715,
            "J": 64.64285714285714,
            "K": 64.5,
            "L": 64.85714285714286,
            "A": 67.15384615384616,
            "B": 66.53846153846153,
            "C": 66.76923076923077,
            "D": 65.84615384615384,
            "E": 65,
            "F": 64,
            "G": 66.61538461538461
        },
        "bus3": {
            "J": 64.14285714285714,
            "K": 64.71428571428571,
            "L": 63.92857142857143,
            "A": 62.857142857142854,
            "B": 64.5,
            "C": 64.53846153846153,
            "D": 64.84615384615384,
            "E": 65.61538461538461,
            "F": 67,
            "G": 67.46153846153847,
            "H": 69.07692307692308,
            "I": 68.61538461538461
        },
        "bus4": {
            "L": 63.57142857142857,
            "A": 65.07142857142857,
            "B": 65.78571428571429,
            "C": 66.35714285714286,
            "D": 67.42857142857143,
            "E": 67.92307692307692,
            "F": 68,
            "G": 68.15384615384616,
            "H": 68.76923076923077,
            "I": 68.61538461538461,
            "J": 69.38461538461539,
            "K": 67.76923076923077
        },
        "bus5": {
            "A": 64.07142857142857,
            "B": 64.71428571428571,
            "C": 64.78571428571429,
            "D": 67.71428571428571,
            "E": 68.5,
            "F": 67.64285714285714,
            "G": 67.53846153846153,
            "H": 66.46153846153847,
            "I": 65.53846153846153,
            "J": 66.23076923076923,
            "K": 65.76923076923077,
            "L": 66.46153846153847
        }
    },
    "Obs_and_actions_busses": {
        "1": -263.8243025217286,
        "3": 22.297029703399424,
        "4": 222.00000000200006,
        "2": -44.864288230964384,
        "5": 531.5252060815285
    },
    "Obs_and_actions_tfls": {}
}