{
    "Average_holding_time": 78.6024844720497,
    "Average_holding_actions": [
        0,
        40,
        313,
        6,
        10,
        0
    ],
    "Average_travel_time_passengers": 2392.103248491082,
    "Average_passenger_waiting_time": 372.0384689993761,
    "Average_passenger_in_vehicle_time": 2020.0647794916306,
    "Average_speed_busses": 0.04025,
    "Average_experienced_crowding": 67.44398746737848,
    "Average_covariation_headway": 0.11075426354886778,
    "Average_covariation_headway_stops": {
        "E": 0.12955546346794047,
        "F": 0.12910700878618803,
        "I": 0.10034040143211943,
        "J": 0.10789779113915617,
        "K": 0.11826973089570679,
        "A": 0.10921119559404993,
        "G": 0.09009386302891931,
        "B": 0.07334068310707098,
        "L": 0.08690256417681977,
        "H": 0.06801130143394701,
        "C": 0.05981731018790979,
        "D": 0.0848133716507918
    },
    "Average_excess_waiting_time": {
        "E": 112.15894135147772,
        "F": 109.78944742320027,
        "I": 109.74255077771772,
        "J": 108.31346624301813,
        "K": 106.71191332193183,
        "A": 105.88767790940125,
        "G": 109.01693432812823,
        "B": 106.03664998200225,
        "L": 107.1376172988218,
        "H": 110.0265977521754,
        "C": 107.6783337416714,
        "D": 111.34834040592813
    },
    "Holding_per_stop": {
        "F": 79.62962962962963,
        "A": 77.03703703703704,
        "K": 77.4074074074074,
        "J": 79.62962962962963,
        "I": 79.875,
        "E": 79.875,
        "G": 77.25,
        "L": 77.77777777777777,
        "B": 78.51851851851852,
        "H": 80.25,
        "C": 77.625,
        "D": 78.375
    },
    "Actions_tfl_edges": {},
    "Load_per_bus_per_stop": {
        "bus0": {
            "E": 66.64285714285714,
            "F": 66.71428571428571,
            "G": 66.07142857142857,
            "H": 68.57142857142857,
            "I": 68.28571428571429,
            "J": 69.38461538461539,
            "K": 67,
            "L": 68.38461538461539,
            "A": 68.23076923076923,
            "B": 69.92307692307692,
            "C": 69.53846153846153,
            "D": 71
        },
        "bus1": {
            "F": 64.64285714285714,
            "G": 64.64285714285714,
            "H": 65.85714285714286,
            "I": 65.14285714285714,
            "J": 66.71428571428571,
            "K": 69.57142857142857,
            "L": 68.3076923076923,
            "A": 68.92307692307692,
            "B": 68.23076923076923,
            "C": 67.92307692307692,
            "D": 67.92307692307692,
            "E": 69.38461538461539
        },
        "bus2": {
            "I": 64.64285714285714,
            "J": 62.92857142857143,
            "K": 63.07142857142857,
            "L": 63.214285714285715,
            "A": 62,
            "B": 61.69230769230769,
            "C": 60.92307692307692,
            "D": 63.46153846153846,
            "E": 68.53846153846153,
            "F": 69.6923076923077,
            "G": 71.3076923076923,
            "H": 70.46153846153847
        },
        "bus3": {
            "J": 63.92857142857143,
            "K": 66.78571428571429,
            "L": 66.07142857142857,
            "A": 66.42857142857143,
            "B": 65.71428571428571,
            "C": 65.6923076923077,
            "D": 63.69230769230769,
            "E": 63.76923076923077,
            "F": 65.15384615384616,
            "G": 65.3076923076923,
            "H": 66,
            "I": 65.15384615384616
        },
        "bus4": {
            "K": 61.357142857142854,
            "L": 62.5,
            "A": 60.285714285714285,
            "B": 63.42857142857143,
            "C": 63.5,
            "D": 64.21428571428571,
            "E": 65,
            "F": 66.84615384615384,
            "G": 66.92307692307692,
            "H": 68.61538461538461,
            "I": 64.61538461538461,
            "J": 63.61538461538461
        },
        "bus5": {
            "A": 62.642857142857146,
            "B": 64.42857142857143,
            "C": 66.5,
            "D": 67.71428571428571,
            "E": 67.71428571428571,
            "F": 70.14285714285714,
            "G": 71.14285714285714,
            "H": 72.38461538461539,
            "I": 71.53846153846153,
            "J": 69.38461538461539,
            "K": 68.46153846153847,
            "L": 67.15384615384616
        }
    },
    "Obs_and_actions_busses": {
        "1": -273.51652629302976,
        "2": -45.958466453258715,
        "3": 23.068458365984412,
        "4": 229.95597501889267,
        "5": 509.09964696038713
    },
    "Obs_and_actions_tfls": {}
}