{
    "Average_holding_time": 78.48297213622291,
    "Average_holding_actions": [
        0,
        33,
        340,
        14,
        10,
        0
    ],
    "Average_travel_time_passengers": 2393.3434602237407,
    "Average_passenger_waiting_time": 371.2016658196951,
    "Average_passenger_in_vehicle_time": 2022.1417944039458,
    "Average_speed_busses": 0.040375,
    "Average_experienced_crowding": 66.73976755073087,
    "Average_covariation_headway": 0.1303303750894915,
    "Average_covariation_headway_stops": {
        "B": 0.12921016245759143,
        "C": 0.13542052087976467,
        "H": 0.17837351988870684,
        "I": 0.17456659681784736,
        "K": 0.14865993149366802,
        "L": 0.15326079849175162,
        "A": 0.1222501435919828,
        "D": 0.10719419492307025,
        "J": 0.1431612662074359,
        "E": 0.0996251554627172,
        "F": 0.11560629458497927,
        "G": 0.1485934279285876
    },
    "Average_excess_waiting_time": {
        "B": 108.11125111553565,
        "C": 106.54521570814438,
        "H": 118.41883553725762,
        "I": 115.65527630078412,
        "K": 112.43689124101456,
        "L": 110.45378080953088,
        "A": 109.78987937347154,
        "D": 106.2669673758362,
        "J": 114.10138236435347,
        "E": 107.79533888063185,
        "F": 111.77058568764909,
        "G": 117.26143446952909
    },
    "Holding_per_stop": {
        "L": 80,
        "C": 77.5609756097561,
        "I": 78.14814814814815,
        "K": 79.62962962962963,
        "B": 77.77777777777777,
        "H": 78,
        "J": 77.625,
        "A": 79.25925925925925,
        "D": 78.88888888888889,
        "E": 78.51851851851852,
        "F": 78,
        "G": 78.375
    },
    "Actions_tfl_edges": {},
    "Load_per_bus_per_stop": {
        "bus0": {
            "B": 62.214285714285715,
            "C": 61.714285714285715,
            "D": 62.142857142857146,
            "E": 62.92857142857143,
            "F": 63.57142857142857,
            "G": 66.28571428571429,
            "H": 67.07692307692308,
            "I": 65.3076923076923,
            "J": 63.76923076923077,
            "K": 63.61538461538461,
            "L": 65.61538461538461,
            "A": 65.76923076923077
        },
        "bus1": {
            "C": 64.5,
            "D": 65.71428571428571,
            "E": 70.14285714285714,
            "F": 69.85714285714286,
            "G": 69.21428571428571,
            "H": 72,
            "I": 71.57142857142857,
            "J": 72.84615384615384,
            "K": 72,
            "L": 70.3076923076923,
            "A": 72.07692307692308,
            "B": 70.53846153846153
        },
        "bus2": {
            "H": 65.85714285714286,
            "I": 65.5,
            "J": 65.14285714285714,
            "K": 65.21428571428571,
            "L": 65.76923076923077,
            "A": 66.07692307692308,
            "B": 66.3076923076923,
            "C": 67.23076923076923,
            "D": 68.3076923076923,
            "E": 70.3076923076923,
            "F": 70.23076923076923,
            "G": 70.53846153846153
        },
        "bus3": {
            "I": 62.5,
            "J": 62.92857142857143,
            "K": 63.285714285714285,
            "L": 63.714285714285715,
            "A": 63.642857142857146,
            "B": 62.84615384615385,
            "C": 62.30769230769231,
            "D": 65,
            "E": 65.38461538461539,
            "F": 66.84615384615384,
            "G": 67.07692307692308,
            "H": 67.92307692307692
        },
        "bus4": {
            "K": 61.142857142857146,
            "L": 63.07142857142857,
            "A": 63.5,
            "B": 64.28571428571429,
            "C": 62.642857142857146,
            "D": 62.46153846153846,
            "E": 60.76923076923077,
            "F": 61.76923076923077,
            "G": 62.69230769230769,
            "H": 63.61538461538461,
            "I": 65.92307692307692,
            "J": 67.3076923076923
        },
        "bus5": {
            "L": 60.07142857142857,
            "A": 59.5,
            "B": 61.142857142857146,
            "C": 63.5,
            "D": 64.21428571428571,
            "E": 64.5,
            "F": 63.30769230769231,
            "G": 64.84615384615384,
            "H": 62.69230769230769,
            "I": 63.46153846153846,
            "J": 62,
            "K": 63.92307692307692
        }
    },
    "Obs_and_actions_busses": {
        "4": 226.97470185962436,
        "2": -44.76342431175472,
        "3": 27.290209790227287,
        "1": -488.8194887494622,
        "5": 693.1129040790986
    },
    "Obs_and_actions_tfls": {}
}": 454.0053444144134
    },
    "Obs_and_actions_tfls": {}
}
    },
    "Obs_and_actions_tfls": {}
}