{
    "Average_holding_time": 78.54037267080746,
    "Average_holding_actions": [
        0,
        6,
        357,
        0,
        0,
        0
    ],
    "Average_travel_time_passengers": 2402.889707967705,
    "Average_passenger_waiting_time": 367.28617991162275,
    "Average_passenger_in_vehicle_time": 2035.603528056023,
    "Average_speed_busses": 0.04025,
    "Average_experienced_crowding": 68.47405643099165,
    "Average_covariation_headway": 0.08368866164468979,
    "Average_covariation_headway_stops": {
        "B": 0.08614203204219606,
        "D": 0.08763784147414312,
        "F": 0.08780278755512863,
        "H": 0.08559075543361518,
        "J": 0.08362970978226295,
        "L": 0.08372433844859666,
        "C": 0.050692561163320576,
        "E": 0.05288490847685621,
        "A": 0.04286990858912581,
        "K": 0.043966731699087,
        "I": 0.04482373562370344,
        "G": 0.0445395971566103
    },
    "Average_excess_waiting_time": {
        "B": 107.33845763750668,
        "D": 107.37711983771129,
        "F": 107.32545564218145,
        "H": 107.51538455652548,
        "J": 107.05886075215699,
        "L": 107.10191800192041,
        "C": 107.91732624597711,
        "E": 107.9503739316848,
        "A": 107.51771746578254,
        "K": 107.35221438891244,
        "I": 107.73075947525348,
        "G": 107.97194701776652
    },
    "Holding_per_stop": {
        "B": 79.25925925925925,
        "D": 77.4074074074074,
        "L": 78.14814814814815,
        "J": 78.88888888888889,
        "H": 79.62962962962963,
        "F": 77.4074074074074,
        "A": 79.5,
        "C": 77.625,
        "I": 80.25,
        "K": 77.625,
        "G": 77.25,
        "E": 79.5
    },
    "Actions_tfl_edges": {},
    "Load_per_bus_per_stop": {
        "bus0": {
            "B": 64.07142857142857,
            "C": 67.28571428571429,
            "D": 67.28571428571429,
            "E": 68.42857142857143,
            "F": 67.35714285714286,
            "G": 70.53846153846153,
            "H": 70.76923076923077,
            "I": 67.38461538461539,
            "J": 67.6923076923077,
            "K": 67.61538461538461,
            "L": 68.3076923076923,
            "A": 69.46153846153847
        },
        "bus1": {
            "D": 62.57142857142857,
            "E": 63.07142857142857,
            "F": 66.85714285714286,
            "G": 68.21428571428571,
            "H": 69.85714285714286,
            "I": 69.46153846153847,
            "J": 68.38461538461539,
            "K": 67,
            "L": 64.6923076923077,
            "A": 65.07692307692308,
            "B": 64.6923076923077,
            "C": 66.15384615384616
        },
        "bus2": {
            "F": 64.5,
            "G": 65.28571428571429,
            "H": 67.92857142857143,
            "I": 68.07142857142857,
            "J": 70.71428571428571,
            "K": 70.46153846153847,
            "L": 71.46153846153847,
            "A": 70.53846153846153,
            "B": 72.76923076923077,
            "C": 71.3076923076923,
            "D": 71.6923076923077,
            "E": 71.6923076923077
        },
        "bus3": {
            "H": 63.5,
            "I": 64.5,
            "J": 67.07142857142857,
            "K": 68.14285714285714,
            "L": 65.21428571428571,
            "A": 68.6923076923077,
            "B": 70.07692307692308,
            "C": 68.38461538461539,
            "D": 68.07692307692308,
            "E": 66.15384615384616,
            "F": 66,
            "G": 65.76923076923077
        },
        "bus4": {
            "J": 65.14285714285714,
            "K": 63.57142857142857,
            "L": 64.07142857142857,
            "A": 65.21428571428571,
            "B": 65.5,
            "C": 68.6923076923077,
            "D": 71.46153846153847,
            "E": 70.38461538461539,
            "F": 70.84615384615384,
            "G": 71.23076923076923,
            "H": 70.61538461538461,
            "I": 71.38461538461539
        },
        "bus5": {
            "L": 65.92857142857143,
            "A": 66.64285714285714,
            "B": 68.5,
            "C": 67.92857142857143,
            "D": 68.42857142857143,
            "E": 68.46153846153847,
            "F": 67.38461538461539,
            "G": 66,
            "H": 66.53846153846153,
            "I": 68.92307692307692,
            "J": 68.92307692307692,
            "K": 69.38461538461539
        }
    },
    "Obs_and_actions_busses": {
        "2": -42.63279851149165,
        "3": 23.202920605721648,
        "1": -118.00000000000243
    },
    "Obs_and_actions_tfls": {}
}