{
    "Average_holding_time": 79.26348547717842,
    "Average_holding_actions": [
        0,
        54,
        317,
        42,
        19,
        0
    ],
    "Average_travel_time_passengers": 2410.863833925146,
    "Average_passenger_waiting_time": 381.2479232057682,
    "Average_passenger_in_vehicle_time": 2029.6159107192946,
    "Average_speed_busses": 0.04016666666666667,
    "Average_experienced_crowding": 69.96220208514026,
    "Average_covariation_headway": 0.19010018960690064,
    "Average_covariation_headway_stops": {
        "B": 0.22665471642018734,
        "C": 0.22195141352532535,
        "I": 0.2538499071869318,
        "K": 0.24254847197039103,
        "L": 0.23412111701486335,
        "A": 0.23134631507896175,
        "D": 0.20332854022118818,
        "J": 0.23681578947029694,
        "E": 0.18769313568608537,
        "F": 0.18218728674171203,
        "G": 0.1979656909158786,
        "H": 0.2229872039789386
    },
    "Average_excess_waiting_time": {
        "B": 120.29828109068603,
        "C": 117.16374588303205,
        "I": 132.3638667828301,
        "K": 130.213491621554,
        "L": 126.2327301619934,
        "A": 123.34932895420258,
        "D": 116.54784449287718,
        "J": 131.85178916858604,
        "E": 116.84964144016527,
        "F": 118.28970356557505,
        "G": 122.94911738054515,
        "H": 129.32200443173895
    },
    "Holding_per_stop": {
        "C": 77.92682926829268,
        "B": 78.14814814814815,
        "L": 79.875,
        "A": 81.11111111111111,
        "K": 79.125,
        "I": 79.875,
        "D": 79.25925925925925,
        "J": 79.36708860759494,
        "E": 79.25925925925925,
        "F": 79.875,
        "G": 78.375,
        "H": 78.9873417721519
    },
    "Actions_tfl_edges": {},
    "Load_per_bus_per_stop": {
        "bus0": {
            "B": 59.785714285714285,
            "C": 58,
            "D": 57.357142857142854,
            "E": 60.07142857142857,
            "F": 58.714285714285715,
            "G": 59.142857142857146,
            "H": 61.57142857142857,
            "I": 61.84615384615385,
            "J": 62.07692307692308,
            "K": 62.92307692307692,
            "L": 62.92307692307692,
            "A": 64.76923076923077
        },
        "bus1": {
            "C": 72.07142857142857,
            "D": 72.5,
            "E": 72.28571428571429,
            "F": 72.21428571428571,
            "G": 70.42857142857143,
            "H": 74.35714285714286,
            "I": 75.92857142857143,
            "J": 78.76923076923077,
            "K": 78.3076923076923,
            "L": 78.84615384615384,
            "A": 80.07692307692308,
            "B": 78.84615384615384
        },
        "bus2": {
            "I": 67.21428571428571,
            "J": 66.71428571428571,
            "K": 66.21428571428571,
            "L": 66,
            "A": 65.61538461538461,
            "B": 67.23076923076923,
            "C": 67.76923076923077,
            "D": 67.23076923076923,
            "E": 65.61538461538461,
            "F": 67.53846153846153,
            "G": 69.61538461538461,
            "H": 71.6923076923077
        },
        "bus3": {
            "K": 65.07142857142857,
            "L": 65.14285714285714,
            "A": 63.642857142857146,
            "B": 64.71428571428571,
            "C": 65.15384615384616,
            "D": 64.92307692307692,
            "E": 65.15384615384616,
            "F": 63.69230769230769,
            "G": 65.46153846153847,
            "H": 66.46153846153847,
            "I": 68.76923076923077,
            "J": 68.53846153846153
        },
        "bus4": {
            "L": 68.78571428571429,
            "A": 68.92857142857143,
            "B": 69.92857142857143,
            "C": 71.71428571428571,
            "D": 70.71428571428571,
            "E": 68.23076923076923,
            "F": 67.92307692307692,
            "G": 67.92307692307692,
            "H": 66.23076923076923,
            "I": 65.38461538461539,
            "J": 67.84615384615384,
            "K": 67.6923076923077
        },
        "bus5": {
            "A": 59.714285714285715,
            "B": 60.57142857142857,
            "C": 62.285714285714285,
            "D": 62.42857142857143,
            "E": 62.42857142857143,
            "F": 61.92857142857143,
            "G": 64.92307692307692,
            "H": 65.61538461538461,
            "I": 65.53846153846153,
            "J": 64.3076923076923,
            "K": 64.76923076923077,
            "L": 63.84615384615385
        }
    },
    "Obs_and_actions_busses": {
        "3": 32.39238341125454,
        "2": -47.37539431999973,
        "1": -599.7279743620251,
        "4": 221.02380952809523,
        "5": 712.306648658903
    },
    "Obs_and_actions_tfls": {}
}