{
    "Average_holding_time": 77.8202479338843,
    "Average_holding_actions": [
        0,
        33,
        337,
        2,
        4,
        0
    ],
    "Average_travel_time_passengers": 2376.2216977298285,
    "Average_passenger_waiting_time": 368.2460250203809,
    "Average_passenger_in_vehicle_time": 2007.9756727093663,
    "Average_speed_busses": 0.04033333333333333,
    "Average_experienced_crowding": 67.4243456018545,
    "Average_covariation_headway": 0.10017574858782213,
    "Average_covariation_headway_stops": {
        "D": 0.09297379112944612,
        "G": 0.09943719057084927,
        "H": 0.10723219546240248,
        "I": 0.11963654512973665,
        "K": 0.10104236357574489,
        "A": 0.09479929402881576,
        "J": 0.08125675412988852,
        "B": 0.06249874591779645,
        "L": 0.06316055334943385,
        "E": 0.05754645351870386,
        "C": 0.05098293445282487,
        "F": 0.05742122992966895
    },
    "Average_excess_waiting_time": {
        "D": 107.4851460963049,
        "G": 110.16899842610479,
        "H": 108.49240143401988,
        "I": 107.27495158564795,
        "K": 105.85364441393261,
        "A": 105.25580087848022,
        "J": 106.57473589745968,
        "B": 105.76151613140843,
        "L": 105.83514952095186,
        "E": 107.73762091799307,
        "C": 107.55217922743822,
        "F": 110.12135667006646
    },
    "Holding_per_stop": {
        "I": 77.4074074074074,
        "A": 77.77777777777777,
        "K": 77.4074074074074,
        "H": 79.25925925925925,
        "D": 78.14814814814815,
        "G": 79.125,
        "B": 78.14814814814815,
        "J": 78.14814814814815,
        "E": 77.25,
        "L": 77.77777777777777,
        "C": 78.75,
        "F": 74.625
    },
    "Actions_tfl_edges": {},
    "Load_per_bus_per_stop": {
        "bus0": {
            "D": 66.57142857142857,
            "E": 67.92857142857143,
            "F": 66.92857142857143,
            "G": 66.28571428571429,
            "H": 65.92857142857143,
            "I": 67.3076923076923,
            "J": 66.23076923076923,
            "K": 66.15384615384616,
            "L": 69.61538461538461,
            "A": 71.3076923076923,
            "B": 71.61538461538461,
            "C": 72.46153846153847
        },
        "bus1": {
            "G": 64.92857142857143,
            "H": 63.142857142857146,
            "I": 64,
            "J": 64.71428571428571,
            "K": 65.6923076923077,
            "L": 65.46153846153847,
            "A": 67.38461538461539,
            "B": 66.6923076923077,
            "C": 67.61538461538461,
            "D": 68.61538461538461,
            "E": 68.61538461538461,
            "F": 68.53846153846153
        },
        "bus2": {
            "H": 63.142857142857146,
            "I": 65.42857142857143,
            "J": 64.35714285714286,
            "K": 64.64285714285714,
            "L": 66.35714285714286,
            "A": 67.07692307692308,
            "B": 69.76923076923077,
            "C": 68.61538461538461,
            "D": 68.23076923076923,
            "E": 68.61538461538461,
            "F": 66.76923076923077,
            "G": 66.23076923076923
        },
        "bus3": {
            "I": 65,
            "J": 65.14285714285714,
            "K": 65.21428571428571,
            "L": 64.21428571428571,
            "A": 65.07142857142857,
            "B": 64.92857142857143,
            "C": 66.23076923076923,
            "D": 66.53846153846153,
            "E": 68.61538461538461,
            "F": 68.92307692307692,
            "G": 69.46153846153847,
            "H": 70.92307692307692
        },
        "bus4": {
            "K": 64.14285714285714,
            "L": 63.5,
            "A": 63.57142857142857,
            "B": 62.42857142857143,
            "C": 61.5,
            "D": 62.92857142857143,
            "E": 61.92307692307692,
            "F": 63.92307692307692,
            "G": 65.23076923076923,
            "H": 66.76923076923077,
            "I": 67.53846153846153,
            "J": 67.23076923076923
        },
        "bus5": {
            "A": 65.78571428571429,
            "B": 62.5,
            "C": 63.92857142857143,
            "D": 66.42857142857143,
            "E": 66.21428571428571,
            "F": 68.92857142857143,
            "G": 69.84615384615384,
            "H": 68.92307692307692,
            "I": 70.3076923076923,
            "J": 71.23076923076923,
            "K": 71.84615384615384,
            "L": 71.6923076923077
        }
    },
    "Obs_and_actions_busses": {
        "5": 425.5528182250189,
        "4": 210.00000002000036,
        "3": 24.71131621866519,
        "2": -44.940652819228525,
        "1": -167.948152592806
    },
    "Obs_and_actions_tfls": {}
}