{
    "Average_holding_time": 77.5979381443299,
    "Average_holding_actions": [
        0,
        40,
        333,
        4,
        4,
        0
    ],
    "Average_travel_time_passengers": 2391.9911100270706,
    "Average_passenger_waiting_time": 364.68476556150705,
    "Average_passenger_in_vehicle_time": 2027.3063444655033,
    "Average_speed_busses": 0.04041666666666666,
    "Average_experienced_crowding": 67.92826270161011,
    "Average_covariation_headway": 0.09398595884808024,
    "Average_covariation_headway_stops": {
        "D": 0.09301488338436868,
        "E": 0.10075212428070231,
        "G": 0.0927062808049466,
        "J": 0.09801963969295649,
        "K": 0.10397002984705941,
        "A": 0.09016917543848749,
        "F": 0.0679164512063399,
        "H": 0.058372956603839295,
        "L": 0.061405586645048325,
        "B": 0.059116016602099405,
        "C": 0.05417021984918356,
        "I": 0.04586107734045156
    },
    "Average_excess_waiting_time": {
        "D": 107.8614615705581,
        "E": 105.8761070749004,
        "G": 105.64930723411004,
        "J": 108.18469461881864,
        "K": 106.20171352114875,
        "A": 105.11422377486463,
        "F": 106.25418605862762,
        "H": 105.982684114915,
        "L": 105.90431300621208,
        "B": 105.85342994162062,
        "C": 108.16374495045523,
        "I": 107.66501475720116
    },
    "Holding_per_stop": {
        "E": 77.4074074074074,
        "G": 77.4074074074074,
        "K": 77.4074074074074,
        "A": 78.51851851851852,
        "J": 77.4074074074074,
        "D": 77.4074074074074,
        "F": 78.51851851851852,
        "L": 77.77777777777777,
        "B": 77.77777777777777,
        "H": 77.77777777777777,
        "C": 76.5,
        "I": 77.25
    },
    "Actions_tfl_edges": {},
    "Load_per_bus_per_stop": {
        "bus0": {
            "D": 62,
            "E": 66.85714285714286,
            "F": 70.35714285714286,
            "G": 71.64285714285714,
            "H": 71,
            "I": 71.23076923076923,
            "J": 71.07692307692308,
            "K": 67.15384615384616,
            "L": 65.76923076923077,
            "A": 65.92307692307692,
            "B": 65.6923076923077,
            "C": 64.38461538461539
        },
        "bus1": {
            "E": 66.78571428571429,
            "F": 67.28571428571429,
            "G": 67.64285714285714,
            "H": 67.21428571428571,
            "I": 65.85714285714286,
            "J": 65.57142857142857,
            "K": 65.61538461538461,
            "L": 66.53846153846153,
            "A": 68.07692307692308,
            "B": 68.23076923076923,
            "C": 69.07692307692308,
            "D": 70.76923076923077
        },
        "bus2": {
            "G": 64,
            "H": 65.42857142857143,
            "I": 68.07142857142857,
            "J": 70.21428571428571,
            "K": 70.78571428571429,
            "L": 72.21428571428571,
            "A": 74.84615384615384,
            "B": 72.76923076923077,
            "C": 71.76923076923077,
            "D": 69.46153846153847,
            "E": 69,
            "F": 67.92307692307692
        },
        "bus3": {
            "J": 63.642857142857146,
            "K": 65.92857142857143,
            "L": 66.57142857142857,
            "A": 66.85714285714286,
            "B": 67.28571428571429,
            "C": 68.23076923076923,
            "D": 69.23076923076923,
            "E": 68.38461538461539,
            "F": 66,
            "G": 64.15384615384616,
            "H": 65.38461538461539,
            "I": 68.23076923076923
        },
        "bus4": {
            "K": 60.285714285714285,
            "L": 60.357142857142854,
            "A": 60.57142857142857,
            "B": 61.07142857142857,
            "C": 63.42857142857143,
            "D": 65.07142857142857,
            "E": 64.3076923076923,
            "F": 67.15384615384616,
            "G": 68.46153846153847,
            "H": 67.61538461538461,
            "I": 67.07692307692308,
            "J": 65.92307692307692
        },
        "bus5": {
            "A": 62,
            "B": 63.5,
            "C": 64,
            "D": 63.785714285714285,
            "E": 65,
            "F": 65.5,
            "G": 69.23076923076923,
            "H": 69.6923076923077,
            "I": 70.15384615384616,
            "J": 69.15384615384616,
            "K": 66.23076923076923,
            "L": 67.15384615384616
        }
    },
    "Obs_and_actions_busses": {
        "1": -182.8617767211016,
        "2": -43.70570570615626,
        "3": 25.23537597963418,
        "5": 470.9699048635162,
        "4": 199.96624112734037
    },
    "Obs_and_actions_tfls": {}
}