{
    "Average_holding_time": 78.04953560371517,
    "Average_holding_actions": [
        0,
        35,
        342,
        12,
        7,
        0
    ],
    "Average_travel_time_passengers": 2378.3329842974654,
    "Average_passenger_waiting_time": 366.85725608778995,
    "Average_passenger_in_vehicle_time": 2011.4757282096043,
    "Average_speed_busses": 0.040375,
    "Average_experienced_crowding": 66.78838640861295,
    "Average_covariation_headway": 0.11479397238254656,
    "Average_covariation_headway_stops": {
        "D": 0.13428602792826536,
        "G": 0.13096615391720415,
        "H": 0.1343301286881625,
        "I": 0.13780689217347541,
        "K": 0.11782752264288593,
        "L": 0.12298318634004317,
        "A": 0.08932843088072911,
        "J": 0.10508453410989207,
        "E": 0.10457405669446491,
        "B": 0.07934399772867426,
        "F": 0.09744971763154389,
        "C": 0.10411876454039011
    },
    "Average_excess_waiting_time": {
        "D": 110.58645265905255,
        "G": 112.58559867782424,
        "H": 110.82322399652412,
        "I": 108.92231034231827,
        "K": 107.05079557632257,
        "L": 105.42075698551236,
        "A": 104.78590170004941,
        "J": 108.22045180311437,
        "E": 110.28713152604598,
        "B": 106.56241452840919,
        "F": 112.22121095906908,
        "C": 110.42294509501329
    },
    "Holding_per_stop": {
        "L": 77.92682926829268,
        "I": 77.77777777777777,
        "H": 80.37037037037037,
        "K": 77.77777777777777,
        "D": 77.77777777777777,
        "G": 78,
        "A": 76.66666666666667,
        "J": 79.25925925925925,
        "E": 76.5,
        "B": 78.88888888888889,
        "F": 76.5,
        "C": 79.125
    },
    "Actions_tfl_edges": {},
    "Load_per_bus_per_stop": {
        "bus0": {
            "D": 60.57142857142857,
            "E": 61.642857142857146,
            "F": 62.714285714285715,
            "G": 65.35714285714286,
            "H": 65.71428571428571,
            "I": 67.76923076923077,
            "J": 67.53846153846153,
            "K": 67.92307692307692,
            "L": 67.6923076923077,
            "A": 67.84615384615384,
            "B": 67.76923076923077,
            "C": 67.61538461538461
        },
        "bus1": {
            "G": 70.64285714285714,
            "H": 71.07142857142857,
            "I": 68.85714285714286,
            "J": 69.28571428571429,
            "K": 66.6923076923077,
            "L": 68,
            "A": 68.76923076923077,
            "B": 68.53846153846153,
            "C": 71.15384615384616,
            "D": 70.23076923076923,
            "E": 72.23076923076923,
            "F": 74.07692307692308
        },
        "bus2": {
            "H": 65.35714285714286,
            "I": 65,
            "J": 63.714285714285715,
            "K": 65.85714285714286,
            "L": 65.07142857142857,
            "A": 65.3076923076923,
            "B": 67.46153846153847,
            "C": 67.61538461538461,
            "D": 67.46153846153847,
            "E": 68.3076923076923,
            "F": 67,
            "G": 69.15384615384616
        },
        "bus3": {
            "I": 60.285714285714285,
            "J": 61.5,
            "K": 60.714285714285715,
            "L": 61.07142857142857,
            "A": 61.07142857142857,
            "B": 63.714285714285715,
            "C": 65.84615384615384,
            "D": 65.92307692307692,
            "E": 66.46153846153847,
            "F": 63.53846153846154,
            "G": 63.07692307692308,
            "H": 63.23076923076923
        },
        "bus4": {
            "K": 56.642857142857146,
            "L": 55.92857142857143,
            "A": 56.357142857142854,
            "B": 57.642857142857146,
            "C": 59.92857142857143,
            "D": 62.5,
            "E": 64.76923076923077,
            "F": 65.07692307692308,
            "G": 66.84615384615384,
            "H": 65.07692307692308,
            "I": 63.84615384615385,
            "J": 62.92307692307692
        },
        "bus5": {
            "L": 62.714285714285715,
            "A": 62.714285714285715,
            "B": 62.5,
            "C": 65.85714285714286,
            "D": 68.57142857142857,
            "E": 69.42857142857143,
            "F": 69.28571428571429,
            "G": 71,
            "H": 73.07692307692308,
            "I": 72.6923076923077,
            "J": 70.92307692307692,
            "K": 70.15384615384616
        }
    },
    "Obs_and_actions_busses": {
        "4": 201.50948909861376,
        "3": 26.096737042158242,
        "2": -42.62865497046775,
        "1": -309.7837867277192,
        "5": 553.2862788861701
    },
    "Obs_and_actions_tfls": {}
}