{
    "Average_holding_time": 77.69628099173553,
    "Average_holding_actions": [
        15,
        38,
        295,
        3,
        8,
        0
    ],
    "Average_travel_time_passengers": 2386.537777835212,
    "Average_passenger_waiting_time": 369.57101805292575,
    "Average_passenger_in_vehicle_time": 2016.966759782199,
    "Average_speed_busses": 0.04033333333333333,
    "Average_experienced_crowding": 66.81469874750702,
    "Average_covariation_headway": 0.10962529520680633,
    "Average_covariation_headway_stops": {
        "C": 0.12489921574109714,
        "D": 0.12623396955716906,
        "E": 0.12629592254363403,
        "H": 0.10187035839072715,
        "I": 0.10317763410416173,
        "K": 0.09463159652899353,
        "F": 0.09097762585402566,
        "J": 0.06853793155178044,
        "L": 0.062485746235466724,
        "G": 0.07658013902952748,
        "A": 0.0601972069692348,
        "B": 0.08673274344144385
    },
    "Average_excess_waiting_time": {
        "C": 111.87084012595943,
        "D": 109.3098309831588,
        "E": 107.12361622445212,
        "H": 107.28634647153325,
        "I": 105.18436003911381,
        "K": 104.80190315856339,
        "F": 106.69811821513912,
        "J": 105.34243143723137,
        "L": 104.93057482283893,
        "G": 108.05715483943851,
        "A": 107.11459577201879,
        "B": 111.14210564623272
    },
    "Holding_per_stop": {
        "E": 80,
        "I": 75.92592592592592,
        "K": 75.92592592592592,
        "D": 80.74074074074075,
        "C": 77.25,
        "H": 79.25925925925925,
        "J": 76.66666666666667,
        "F": 77.77777777777777,
        "L": 76.29629629629629,
        "G": 78.375,
        "A": 76.875,
        "B": 77.25
    },
    "Actions_tfl_edges": {},
    "Load_per_bus_per_stop": {
        "bus0": {
            "C": 70.21428571428571,
            "D": 68.71428571428571,
            "E": 67.35714285714286,
            "F": 67.07142857142857,
            "G": 66,
            "H": 65.23076923076923,
            "I": 66,
            "J": 68.15384615384616,
            "K": 67.61538461538461,
            "L": 70.76923076923077,
            "A": 73.53846153846153,
            "B": 75.23076923076923
        },
        "bus1": {
            "D": 63.42857142857143,
            "E": 63.92857142857143,
            "F": 63.357142857142854,
            "G": 65,
            "H": 67.42857142857143,
            "I": 66.64285714285714,
            "J": 67.76923076923077,
            "K": 69.61538461538461,
            "L": 66.07692307692308,
            "A": 65.84615384615384,
            "B": 66.53846153846153,
            "C": 66.84615384615384
        },
        "bus2": {
            "E": 61.357142857142854,
            "F": 61.357142857142854,
            "G": 63.714285714285715,
            "H": 64.85714285714286,
            "I": 67.14285714285714,
            "J": 67.64285714285714,
            "K": 67.28571428571429,
            "L": 66.46153846153847,
            "A": 66.61538461538461,
            "B": 65.3076923076923,
            "C": 64.3076923076923,
            "D": 65.38461538461539
        },
        "bus3": {
            "H": 59.714285714285715,
            "I": 63.07142857142857,
            "J": 64.57142857142857,
            "K": 66.21428571428571,
            "L": 66.21428571428571,
            "A": 67.21428571428571,
            "B": 67.23076923076923,
            "C": 67.53846153846153,
            "D": 64.76923076923077,
            "E": 65.61538461538461,
            "F": 65.23076923076923,
            "G": 63.38461538461539
        },
        "bus4": {
            "I": 61.57142857142857,
            "J": 62.642857142857146,
            "K": 62.642857142857146,
            "L": 64,
            "A": 66.35714285714286,
            "B": 66.5,
            "C": 65.28571428571429,
            "D": 62.53846153846154,
            "E": 63.38461538461539,
            "F": 65.3076923076923,
            "G": 66,
            "H": 65
        },
        "bus5": {
            "K": 63.857142857142854,
            "L": 64.35714285714286,
            "A": 64.64285714285714,
            "B": 65.07142857142857,
            "C": 66,
            "D": 66.64285714285714,
            "E": 69.21428571428571,
            "F": 70.46153846153847,
            "G": 70.38461538461539,
            "H": 68.76923076923077,
            "I": 67.6923076923077,
            "J": 69
        }
    },
    "Obs_and_actions_busses": {
        "5": 617.3405592121032,
        "4": 241.85297234300975,
        "3": 23.255156255485577,
        "2": -46.70508474549162,
        "1": -284.2954571370303,
        "0": -22.066666668666098
    },
    "Obs_and_actions_tfls": {}
}