{
    "Average_holding_time": 78.38509316770187,
    "Average_holding_actions": [
        0,
        34,
        325,
        7,
        6,
        0
    ],
    "Average_travel_time_passengers": 2385.6860003104407,
    "Average_passenger_waiting_time": 367.38774709370523,
    "Average_passenger_in_vehicle_time": 2018.2982532166511,
    "Average_speed_busses": 0.04025,
    "Average_experienced_crowding": 67.67664725982064,
    "Average_covariation_headway": 0.10923544503987878,
    "Average_covariation_headway_stops": {
        "B": 0.09641057749693349,
        "C": 0.10907257962349069,
        "G": 0.1262866606810548,
        "H": 0.12831700476179875,
        "J": 0.10587817691602548,
        "L": 0.0953038688502697,
        "I": 0.08871954833073381,
        "D": 0.07883672554196669,
        "K": 0.07096608581377566,
        "A": 0.05717701590573144,
        "E": 0.059547509943137185,
        "F": 0.08382312152553223
    },
    "Average_excess_waiting_time": {
        "B": 107.41667893399944,
        "C": 105.97520139700839,
        "G": 112.0734917035154,
        "H": 109.71558722048673,
        "J": 107.90062547034711,
        "L": 107.28973138608904,
        "I": 108.94578288194128,
        "D": 106.66986556467333,
        "K": 108.00267308882576,
        "A": 107.65941168606531,
        "E": 107.79826501919706,
        "F": 111.26170791639271
    },
    "Holding_per_stop": {
        "H": 79.62962962962963,
        "C": 78.14814814814815,
        "J": 79.25925925925925,
        "L": 78.51851851851852,
        "B": 77.03703703703704,
        "G": 80.625,
        "I": 77.625,
        "D": 77.03703703703704,
        "K": 80.625,
        "A": 76.875,
        "E": 76.875,
        "F": 78.375
    },
    "Actions_tfl_edges": {},
    "Load_per_bus_per_stop": {
        "bus0": {
            "B": 59.357142857142854,
            "C": 60.142857142857146,
            "D": 62.857142857142854,
            "E": 62.57142857142857,
            "F": 64.92857142857143,
            "G": 62.714285714285715,
            "H": 63.84615384615385,
            "I": 65.46153846153847,
            "J": 66.15384615384616,
            "K": 66.92307692307692,
            "L": 65,
            "A": 64.76923076923077
        },
        "bus1": {
            "C": 64.28571428571429,
            "D": 65.85714285714286,
            "E": 66.14285714285714,
            "F": 64.64285714285714,
            "G": 66,
            "H": 65.35714285714286,
            "I": 65.85714285714286,
            "J": 66.46153846153847,
            "K": 66.53846153846153,
            "L": 67.92307692307692,
            "A": 68.76923076923077,
            "B": 69.92307692307692
        },
        "bus2": {
            "G": 65.64285714285714,
            "H": 66,
            "I": 64.92857142857143,
            "J": 66.57142857142857,
            "K": 65.5,
            "L": 66.92307692307692,
            "A": 67.76923076923077,
            "B": 68,
            "C": 68.92307692307692,
            "D": 69.23076923076923,
            "E": 69,
            "F": 70.3076923076923
        },
        "bus3": {
            "H": 65.28571428571429,
            "I": 67.92857142857143,
            "J": 66.42857142857143,
            "K": 66.71428571428571,
            "L": 67.42857142857143,
            "A": 66.15384615384616,
            "B": 68.07692307692308,
            "C": 68.53846153846153,
            "D": 67.92307692307692,
            "E": 66.23076923076923,
            "F": 68.46153846153847,
            "G": 68.3076923076923
        },
        "bus4": {
            "J": 65.42857142857143,
            "K": 66.21428571428571,
            "L": 66,
            "A": 65.64285714285714,
            "B": 66.71428571428571,
            "C": 68.07142857142857,
            "D": 69.6923076923077,
            "E": 68.84615384615384,
            "F": 67.84615384615384,
            "G": 69.61538461538461,
            "H": 69.07692307692308,
            "I": 68.6923076923077
        },
        "bus5": {
            "L": 63.785714285714285,
            "A": 65.57142857142857,
            "B": 65,
            "C": 66.85714285714286,
            "D": 69.57142857142857,
            "E": 70.6923076923077,
            "F": 69.76923076923077,
            "G": 67.07692307692308,
            "H": 67.92307692307692,
            "I": 70,
            "J": 69.53846153846153,
            "K": 68.92307692307692
        }
    },
    "Obs_and_actions_busses": {
        "4": 215.21181050005234,
        "3": 24.97742834856552,
        "2": -45.53328193533736,
        "1": -282.7619712792203,
        "5": 570.5293574077576
    },
    "Obs_and_actions_tfls": {}
}ions_tfls": {}
}