{
    "Average_holding_time": 78.95553257497414,
    "Average_holding_actions": [
        0,
        13,
        334,
        4,
        0,
        0
    ],
    "Average_travel_time_passengers": 2382.648845881645,
    "Average_passenger_waiting_time": 367.17138237904425,
    "Average_passenger_in_vehicle_time": 2015.477463502494,
    "Average_speed_busses": 0.04029166666666667,
    "Average_experienced_crowding": 67.17550637068719,
    "Average_covariation_headway": 0.08591933191075767,
    "Average_covariation_headway_stops": {
        "C": 0.09090823817808281,
        "E": 0.08825739443079045,
        "G": 0.0849424244334934,
        "I": 0.08679014443019602,
        "K": 0.08605121724710514,
        "L": 0.10236940904673478,
        "A": 0.06555457977395,
        "F": 0.047328751996970765,
        "J": 0.04156252117281094,
        "H": 0.048367300395809075,
        "D": 0.051379794139369675,
        "B": 0.04530555580724472
    },
    "Average_excess_waiting_time": {
        "C": 108.05019790322007,
        "E": 107.93307710153533,
        "G": 107.41915694244256,
        "I": 107.59692007468072,
        "K": 107.6001375952352,
        "L": 106.35665005809693,
        "A": 106.51757400042789,
        "F": 107.85917579947153,
        "J": 107.91554023580227,
        "H": 107.90185423535263,
        "D": 108.31273477932598,
        "B": 108.00343804041734
    },
    "Holding_per_stop": {
        "L": 80,
        "E": 77.4074074074074,
        "I": 79.25925925925925,
        "G": 79.25925925925925,
        "C": 79.62962962962963,
        "K": 80,
        "A": 77.77777777777777,
        "H": 81.375,
        "J": 77.625,
        "F": 77.625,
        "D": 78.75,
        "B": 78.75
    },
    "Actions_tfl_edges": {},
    "Load_per_bus_per_stop": {
        "bus0": {
            "C": 64.28571428571429,
            "D": 62.92857142857143,
            "E": 66.64285714285714,
            "F": 68.14285714285714,
            "G": 70.21428571428571,
            "H": 71.53846153846153,
            "I": 70.53846153846153,
            "J": 71.76923076923077,
            "K": 70.23076923076923,
            "L": 69.23076923076923,
            "A": 67,
            "B": 67.92307692307692
        },
        "bus1": {
            "E": 60.214285714285715,
            "F": 63.07142857142857,
            "G": 63.642857142857146,
            "H": 65.21428571428571,
            "I": 67.07142857142857,
            "J": 68.07692307692308,
            "K": 68.53846153846153,
            "L": 67.15384615384616,
            "A": 68.46153846153847,
            "B": 68.07692307692308,
            "C": 67.38461538461539,
            "D": 66.46153846153847
        },
        "bus2": {
            "G": 64.14285714285714,
            "H": 66,
            "I": 67,
            "J": 68.35714285714286,
            "K": 69.07142857142857,
            "L": 70.76923076923077,
            "A": 70.53846153846153,
            "B": 68.6923076923077,
            "C": 68.3076923076923,
            "D": 67.92307692307692,
            "E": 69.76923076923077,
            "F": 68.61538461538461
        },
        "bus3": {
            "I": 61.857142857142854,
            "J": 63.42857142857143,
            "K": 65.5,
            "L": 65.64285714285714,
            "A": 65.42857142857143,
            "B": 63.38461538461539,
            "C": 65,
            "D": 66.6923076923077,
            "E": 68.07692307692308,
            "F": 69.76923076923077,
            "G": 69,
            "H": 67.23076923076923
        },
        "bus4": {
            "K": 62.714285714285715,
            "L": 62.57142857142857,
            "A": 64.14285714285714,
            "B": 64.71428571428571,
            "C": 65,
            "D": 65.15384615384616,
            "E": 65.92307692307692,
            "F": 65.23076923076923,
            "G": 65.38461538461539,
            "H": 64.6923076923077,
            "I": 66.6923076923077,
            "J": 66.76923076923077
        },
        "bus5": {
            "L": 65.21428571428571,
            "A": 63.357142857142854,
            "B": 64.78571428571429,
            "C": 65.28571428571429,
            "D": 65.71428571428571,
            "E": 67.5,
            "F": 68.15384615384616,
            "G": 66.92307692307692,
            "H": 68.15384615384616,
            "I": 66.76923076923077,
            "J": 68.46153846153847,
            "K": 69.53846153846153
        }
    },
    "Obs_and_actions_busses": {
        "4": 262.3402214693383,
        "3": 22.33500839026724,
        "2": -43.14970059889276,
        "1": -241.60387830569545
    },
    "Obs_and_actions_tfls": {}
}