{
    "Average_holding_time": 26.07734806629834,
    "Average_holding_actions": [
        723,
        0,
        237,
        0,
        46,
        0
    ],
    "Average_travel_time_passengers": 2144.1944687341534,
    "Average_passenger_waiting_time": 341.4857807771747,
    "Average_passenger_in_vehicle_time": 1802.7086879569983,
    "Average_speed_busses": 0.04525,
    "Average_experienced_crowding": 62.18074434971593,
    "Average_covariation_headway": 0.323978925977853,
    "Average_covariation_headway_stops": {
        "L": 0.24662172545927077,
        "G": 0.22099978452297783,
        "A": 0.2629397762513765,
        "K": 0.2607131975047489,
        "J": 0.24762628219823657,
        "D": 0.24890392445521553,
        "B": 0.2585027944551605,
        "H": 0.23281451366715372,
        "E": 0.23718391732652905,
        "C": 0.25287506231569923,
        "I": 0.24010770685758154,
        "F": 0.2088281114737284
    },
    "Average_excess_waiting_time": {
        "L": 69.90819900540771,
        "G": 69.30886484136778,
        "A": 71.33650671939154,
        "K": 75.18419471834204,
        "J": 75.06786516021361,
        "D": 71.06507022264964,
        "B": 72.01267812833589,
        "H": 73.47894695529533,
        "E": 71.8790789564498,
        "C": 72.89925105620932,
        "I": 75.76188953191223,
        "F": 70.23988553756357
    },
    "Holding_per_stop": {
        "G": 21,
        "L": 26.703296703296704,
        "A": 25.434782608695652,
        "K": 24.065934065934066,
        "D": 30.32967032967033,
        "J": 20.666666666666668,
        "B": 33.2967032967033,
        "H": 22.666666666666668,
        "E": 28,
        "C": 29.34065934065934,
        "F": 29,
        "I": 22.247191011235955
    },
    "Actions_tfl_edges": {
        "CD": [
            60,
            26,
            6
        ],
        "FG": [
            57,
            30,
            4
        ],
        "IJ": [
            64,
            22,
            4
        ],
        "JK": [
            65,
            22,
            4
        ],
        "KL": [
            69,
            19,
            4
        ],
        "LA": [
            66,
            21,
            5
        ],
        "GH": [
            70,
            18,
            2
        ],
        "AB": [
            63,
            23,
            6
        ],
        "DE": [
            64,
            24,
            3
        ],
        "BC": [
            65,
            22,
            4
        ],
        "HI": [
            68,
            17,
            5
        ],
        "EF": [
            62,
            25,
            3
        ]
    },
    "Load_per_bus_per_stop": {
        "bus4": {
            "L": 57.75,
            "A": 57.375,
            "B": 57.8,
            "C": 55.666666666666664,
            "D": 57.8,
            "E": 59.2,
            "F": 59.46666666666667,
            "G": 59.93333333333333,
            "H": 60.86666666666667,
            "I": 60.46666666666667,
            "J": 61.86666666666667,
            "K": 61.53333333333333
        },
        "bus1": {
            "G": 58.13333333333333,
            "H": 57.2,
            "I": 57.666666666666664,
            "J": 59.8,
            "K": 62.06666666666667,
            "L": 62.333333333333336,
            "A": 63.2,
            "B": 63.666666666666664,
            "C": 64.06666666666666,
            "D": 65.06666666666666,
            "E": 65.33333333333333,
            "F": 66.26666666666667
        },
        "bus5": {
            "A": 53.5625,
            "B": 54.6875,
            "C": 55.75,
            "D": 55.06666666666667,
            "E": 56.06666666666667,
            "F": 55.8,
            "G": 57.06666666666667,
            "H": 55.93333333333333,
            "I": 56.93333333333333,
            "J": 55.8,
            "K": 55.733333333333334,
            "L": 56.4
        },
        "bus3": {
            "K": 60.6875,
            "L": 59.666666666666664,
            "A": 60.266666666666666,
            "B": 60.266666666666666,
            "C": 60.13333333333333,
            "D": 59.266666666666666,
            "E": 59.733333333333334,
            "F": 60,
            "G": 60.86666666666667,
            "H": 60.733333333333334,
            "I": 62.06666666666667,
            "J": 63.46666666666667
        },
        "bus2": {
            "J": 61.53333333333333,
            "K": 60,
            "L": 60.266666666666666,
            "A": 62.4,
            "B": 62.666666666666664,
            "C": 66.26666666666667,
            "D": 64.33333333333333,
            "E": 65.06666666666666,
            "F": 63.93333333333333,
            "G": 64.93333333333334,
            "H": 64.2,
            "I": 67.35714285714286
        },
        "bus0": {
            "D": 53.9375,
            "E": 55.0625,
            "F": 57.2,
            "G": 58.733333333333334,
            "H": 56.13333333333333,
            "I": 56.2,
            "J": 55.333333333333336,
            "K": 55.8,
            "L": 56.266666666666666,
            "A": 56.333333333333336,
            "B": 57.53333333333333,
            "C": 57.86666666666667
        }
    },
    "Obs_and_actions_busses": {
        "0": -119.53760752979589,
        "2": 186.11343375581808,
        "3": 100.66096611660447,
        "5": 362.4462418539669
    },
    "Obs_and_actions_tfls": {
        "1": -77.17925128298675,
        "2": -326.398154082566,
        "0": 239.65624767265422
    }
}