{
    "Average_holding_time": 24.954545454545453,
    "Average_holding_actions": [
        737,
        0,
        272,
        0,
        49,
        0
    ],
    "Average_travel_time_passengers": 2103.8647958455845,
    "Average_passenger_waiting_time": 337.12544394576014,
    "Average_passenger_in_vehicle_time": 1766.7393518998042,
    "Average_speed_busses": 0.04583333333333333,
    "Average_experienced_crowding": 61.65620291420453,
    "Average_covariation_headway": 0.3301693023633201,
    "Average_covariation_headway_stops": {
        "F": 0.23962930341542787,
        "A": 0.23825963424378077,
        "B": 0.25633924024799876,
        "G": 0.22391294211057883,
        "L": 0.245455626150182,
        "J": 0.25845963161712326,
        "C": 0.23635725480078437,
        "H": 0.22481824414561205,
        "K": 0.26175368435215013,
        "D": 0.23095017271543375,
        "I": 0.2381515453444293,
        "E": 0.22889156200532598
    },
    "Average_excess_waiting_time": {
        "F": 67.14690820109013,
        "A": 66.07469715432632,
        "B": 66.81125040485131,
        "G": 63.09199398043012,
        "L": 67.54038734878424,
        "J": 69.95584727954423,
        "C": 67.62010362398718,
        "H": 65.2266435107324,
        "K": 72.03423455566264,
        "D": 67.10720961292037,
        "I": 68.72568720243083,
        "E": 68.68167930799484
    },
    "Holding_per_stop": {
        "A": 27.717391304347824,
        "B": 23.548387096774192,
        "G": 22.17391304347826,
        "J": 20.869565217391305,
        "L": 26.73913043478261,
        "F": 27.36263736263736,
        "C": 25.434782608695652,
        "H": 24.130434782608695,
        "K": 26.703296703296704,
        "D": 26.043956043956044,
        "I": 26.373626373626372,
        "E": 22.417582417582416
    },
    "Actions_tfl_edges": {
        "AB": [
            63,
            25,
            5
        ],
        "EF": [
            63,
            23,
            6
        ],
        "FG": [
            64,
            24,
            4
        ],
        "IJ": [
            62,
            25,
            5
        ],
        "KL": [
            68,
            21,
            3
        ],
        "LA": [
            64,
            25,
            4
        ],
        "BC": [
            68,
            15,
            10
        ],
        "GH": [
            62,
            27,
            3
        ],
        "JK": [
            60,
            24,
            8
        ],
        "CD": [
            64,
            18,
            10
        ],
        "HI": [
            65,
            23,
            4
        ],
        "DE": [
            66,
            20,
            5
        ]
    },
    "Load_per_bus_per_stop": {
        "bus1": {
            "F": 58.125,
            "G": 58.5,
            "H": 60.0625,
            "I": 61.666666666666664,
            "J": 60.13333333333333,
            "K": 61.93333333333333,
            "L": 63.2,
            "A": 64.8,
            "B": 64.8,
            "C": 64.8,
            "D": 63.6,
            "E": 62.8
        },
        "bus5": {
            "A": 56.4375,
            "B": 58.125,
            "C": 58.25,
            "D": 55.6,
            "E": 56.86666666666667,
            "F": 54.8,
            "G": 55,
            "H": 55.06666666666667,
            "I": 56.4,
            "J": 57.13333333333333,
            "K": 56.86666666666667,
            "L": 57.333333333333336
        },
        "bus0": {
            "B": 52.125,
            "C": 53.8125,
            "D": 54.5625,
            "E": 57.6875,
            "F": 58.46666666666667,
            "G": 62.733333333333334,
            "H": 61.333333333333336,
            "I": 60.86666666666667,
            "J": 58.93333333333333,
            "K": 57.86666666666667,
            "L": 58.13333333333333,
            "A": 56.53333333333333
        },
        "bus2": {
            "G": 56.625,
            "H": 56.625,
            "I": 58.9375,
            "J": 59.6875,
            "K": 58.46666666666667,
            "L": 57.4,
            "A": 57.46666666666667,
            "B": 56.86666666666667,
            "C": 60,
            "D": 60.06666666666667,
            "E": 61.93333333333333,
            "F": 61.46666666666667
        },
        "bus4": {
            "L": 54.8125,
            "A": 55,
            "B": 53.8125,
            "C": 59.8,
            "D": 61.333333333333336,
            "E": 59.733333333333334,
            "F": 59.86666666666667,
            "G": 58.93333333333333,
            "H": 60.333333333333336,
            "I": 59.86666666666667,
            "J": 60.6,
            "K": 59.733333333333334
        },
        "bus3": {
            "J": 57.625,
            "K": 57.5,
            "L": 57.5,
            "A": 60.666666666666664,
            "B": 61.06666666666667,
            "C": 60.46666666666667,
            "D": 62.46666666666667,
            "E": 63.4,
            "F": 63.2,
            "G": 65.06666666666666,
            "H": 64.66666666666667,
            "I": 64.2
        }
    },
    "Obs_and_actions_busses": {
        "5": 382.4555489812668,
        "0": -126.24508367858019,
        "2": 197.87572605412143,
        "3": 105.78425245845517
    },
    "Obs_and_actions_tfls": {
        "2": -333.57400340368935,
        "0": 245.15000632484663,
        "1": -74.6783354363354
    }
}