{
    "Average_holding_time": 27.681818181818183,
    "Average_holding_actions": [
        715,
        0,
        260,
        0,
        60,
        0
    ],
    "Average_travel_time_passengers": 2125.2646696658358,
    "Average_passenger_waiting_time": 342.248449779115,
    "Average_passenger_in_vehicle_time": 1783.0162198867083,
    "Average_speed_busses": 0.04583333333333333,
    "Average_experienced_crowding": 62.51079813849696,
    "Average_covariation_headway": 0.3439095225249154,
    "Average_covariation_headway_stops": {
        "G": 0.2817388484815659,
        "J": 0.2761346453368151,
        "F": 0.2761728566353342,
        "I": 0.2648943187880495,
        "D": 0.3026810948004839,
        "H": 0.2602558330458572,
        "K": 0.2698155641162942,
        "E": 0.2760039000892454,
        "L": 0.2696441925792935,
        "A": 0.27619345672557377,
        "B": 0.26720784518233676,
        "C": 0.2834417232601374
    },
    "Average_excess_waiting_time": {
        "G": 75.32777334635563,
        "J": 68.33016983185422,
        "F": 75.52518219833416,
        "I": 67.51954819583602,
        "D": 79.2280732972946,
        "H": 70.46347476617302,
        "K": 69.55832298787402,
        "E": 76.50378285544747,
        "L": 70.93236233029046,
        "A": 73.83430166141187,
        "B": 73.15443108837337,
        "C": 77.94013563693221
    },
    "Holding_per_stop": {
        "J": 28.06451612903226,
        "G": 22.5,
        "I": 25.76086956521739,
        "H": 23.152173913043477,
        "F": 25.714285714285715,
        "D": 26.703296703296704,
        "K": 28.043478260869566,
        "L": 29.67391304347826,
        "E": 25.714285714285715,
        "A": 34.23913043478261,
        "B": 32.637362637362635,
        "C": 30
    },
    "Actions_tfl_edges": {
        "CD": [
            60,
            25,
            7
        ],
        "EF": [
            62,
            25,
            5
        ],
        "FG": [
            64,
            23,
            5
        ],
        "GH": [
            70,
            17,
            6
        ],
        "HI": [
            63,
            26,
            4
        ],
        "IJ": [
            65,
            23,
            5
        ],
        "JK": [
            64,
            21,
            8
        ],
        "DE": [
            62,
            25,
            4
        ],
        "KL": [
            69,
            17,
            6
        ],
        "LA": [
            67,
            19,
            6
        ],
        "AB": [
            57,
            27,
            8
        ],
        "BC": [
            58,
            28,
            5
        ]
    },
    "Load_per_bus_per_stop": {
        "bus2": {
            "G": 59.6875,
            "H": 58.6875,
            "I": 57.06666666666667,
            "J": 57.46666666666667,
            "K": 58.06666666666667,
            "L": 58.333333333333336,
            "A": 60.13333333333333,
            "B": 62.13333333333333,
            "C": 63.6,
            "D": 65.4,
            "E": 63.333333333333336,
            "F": 63.46666666666667
        },
        "bus5": {
            "J": 58.3125,
            "K": 58,
            "L": 57.125,
            "A": 57.125,
            "B": 57.625,
            "C": 59.625,
            "D": 61.53333333333333,
            "E": 58.666666666666664,
            "F": 58.733333333333334,
            "G": 60.46666666666667,
            "H": 59.733333333333334,
            "I": 60.06666666666667
        },
        "bus1": {
            "F": 61,
            "G": 59.625,
            "H": 61.4,
            "I": 59,
            "J": 58.86666666666667,
            "K": 57.8,
            "L": 57.4,
            "A": 56.53333333333333,
            "B": 58.666666666666664,
            "C": 61.13333333333333,
            "D": 62.266666666666666,
            "E": 63.8
        },
        "bus4": {
            "I": 55.4375,
            "J": 57.4375,
            "K": 56.625,
            "L": 54.9375,
            "A": 53.875,
            "B": 52.86666666666667,
            "C": 52.733333333333334,
            "D": 53.4,
            "E": 53.53333333333333,
            "F": 55.266666666666666,
            "G": 55.46666666666667,
            "H": 57.6
        },
        "bus0": {
            "D": 58.8125,
            "E": 60.625,
            "F": 59.46666666666667,
            "G": 59,
            "H": 59.266666666666666,
            "I": 60.6,
            "J": 61.86666666666667,
            "K": 61.93333333333333,
            "L": 61.4,
            "A": 61.8,
            "B": 62.333333333333336,
            "C": 62.06666666666667
        },
        "bus3": {
            "H": 60.375,
            "I": 60.125,
            "J": 58.375,
            "K": 58.9375,
            "L": 60.4,
            "A": 59,
            "B": 59.6,
            "C": 60.333333333333336,
            "D": 60.8,
            "E": 63,
            "F": 64,
            "G": 64.66666666666667
        }
    },
    "Obs_and_actions_busses": {
        "5": 390.0411116167052,
        "2": 183.51526045330772,
        "0": -136.16788268918918,
        "3": 103.64054208795059
    },
    "Obs_and_actions_tfls": {
        "0": 249.90248163940043,
        "2": -447.4530927614742,
        "1": -77.34233008385041
    }
}