{
    "Average_holding_time": 25.57377049180328,
    "Average_holding_actions": [
        732,
        0,
        298,
        0,
        68,
        0
    ],
    "Average_travel_time_passengers": 2118.134725100364,
    "Average_passenger_waiting_time": 344.97295775602475,
    "Average_passenger_in_vehicle_time": 1773.1617673443682,
    "Average_speed_busses": 0.04575,
    "Average_experienced_crowding": 61.2716361478934,
    "Average_covariation_headway": 0.3498889649619732,
    "Average_covariation_headway_stops": {
        "H": 0.25878602222156105,
        "J": 0.2573094827468019,
        "F": 0.28014167819494784,
        "G": 0.29525390217535075,
        "C": 0.27176891918628787,
        "B": 0.29692373176027925,
        "K": 0.24582838701511045,
        "I": 0.25512560369021486,
        "D": 0.2450997394505758,
        "L": 0.26258802552053057,
        "E": 0.27007962477198855,
        "A": 0.28264102567951693
    },
    "Average_excess_waiting_time": {
        "H": 67.77015126082091,
        "J": 68.13932784589804,
        "F": 76.10022386260215,
        "G": 76.82984812525126,
        "C": 72.39323224589901,
        "B": 79.20223121442262,
        "K": 67.94670404186616,
        "I": 70.25220324411515,
        "D": 69.32017976985577,
        "L": 72.77630872790621,
        "E": 75.42095878375335,
        "A": 78.51680944066828
    },
    "Holding_per_stop": {
        "H": 27.065217391304348,
        "J": 23.47826086956522,
        "G": 28.695652173913043,
        "C": 25.76086956521739,
        "F": 24.725274725274726,
        "K": 18.58695652173913,
        "B": 30.98901098901099,
        "I": 27.391304347826086,
        "D": 26.373626373626372,
        "L": 25.054945054945055,
        "E": 23.406593406593405,
        "A": 25.384615384615383
    },
    "Actions_tfl_edges": {
        "AB": [
            57,
            29,
            6
        ],
        "BC": [
            60,
            26,
            6
        ],
        "EF": [
            67,
            19,
            6
        ],
        "FG": [
            65,
            22,
            5
        ],
        "GH": [
            62,
            27,
            4
        ],
        "IJ": [
            61,
            23,
            9
        ],
        "HI": [
            59,
            32,
            1
        ],
        "JK": [
            59,
            27,
            6
        ],
        "CD": [
            61,
            25,
            6
        ],
        "KL": [
            70,
            16,
            6
        ],
        "DE": [
            63,
            19,
            9
        ],
        "LA": [
            60,
            24,
            7
        ]
    },
    "Load_per_bus_per_stop": {
        "bus4": {
            "H": 58.1875,
            "I": 57.875,
            "J": 57.4375,
            "K": 54.875,
            "L": 54.53333333333333,
            "A": 53.6,
            "B": 54.8,
            "C": 57.666666666666664,
            "D": 60.4,
            "E": 64.06666666666666,
            "F": 63.666666666666664,
            "G": 61.53333333333333
        },
        "bus5": {
            "J": 52.9375,
            "K": 56.125,
            "L": 58.5625,
            "A": 60,
            "B": 60.6,
            "C": 61.6,
            "D": 60.86666666666667,
            "E": 58.93333333333333,
            "F": 57.666666666666664,
            "G": 57.8,
            "H": 55.53333333333333,
            "I": 55.8
        },
        "bus2": {
            "F": 62.8125,
            "G": 64.5,
            "H": 63.53333333333333,
            "I": 62.733333333333334,
            "J": 62,
            "K": 58.93333333333333,
            "L": 59.86666666666667,
            "A": 60.06666666666667,
            "B": 60.46666666666667,
            "C": 63,
            "D": 65.06666666666666,
            "E": 66.66666666666667
        },
        "bus3": {
            "G": 47.75,
            "H": 49.4375,
            "I": 52.3125,
            "J": 53.53333333333333,
            "K": 55,
            "L": 57.2,
            "A": 58.2,
            "B": 58.2,
            "C": 59.266666666666666,
            "D": 58.06666666666667,
            "E": 55.06666666666667,
            "F": 52.333333333333336
        },
        "bus1": {
            "C": 61.8125,
            "D": 62.875,
            "E": 63.5,
            "F": 63.93333333333333,
            "G": 65.13333333333334,
            "H": 68.2,
            "I": 67.06666666666666,
            "J": 65.93333333333334,
            "K": 67.4,
            "L": 66,
            "A": 65.66666666666667,
            "B": 65.6
        },
        "bus0": {
            "B": 51.875,
            "C": 52.125,
            "D": 52.13333333333333,
            "E": 52.733333333333334,
            "F": 54.93333333333333,
            "G": 55,
            "H": 54.93333333333333,
            "I": 54.333333333333336,
            "J": 54.86666666666667,
            "K": 53.93333333333333,
            "L": 53.13333333333333,
            "A": 55.06666666666667
        }
    },
    "Obs_and_actions_busses": {
        "0": -139.7419190355114,
        "2": 185.55192258581775,
        "5": 400.98215098482996
    },
    "Obs_and_actions_tfls": {
        "0": 259.7793532452063,
        "2": -323.36182596721073,
        "1": -66.5470247765401
    }
}