{
    "Average_holding_time": 27.034120734908136,
    "Average_holding_actions": [
        128,
        1010,
        0,
        5,
        0,
        0
    ],
    "Average_travel_time_passengers": 2019.7378137693277,
    "Average_passenger_waiting_time": 308.7520140785319,
    "Average_passenger_in_vehicle_time": 1710.9857996907238,
    "Average_speed_busses": 0.047625,
    "Average_experienced_crowding": 57.14276582510702,
    "Average_covariation_headway": 0.11485010664281564,
    "Average_covariation_headway_stops": {
        "D": 0.09007752522702198,
        "F": 0.08361469037258247,
        "G": 0.09361101099482036,
        "I": 0.08520224403087687,
        "L": 0.09027101030370904,
        "A": 0.096768772706516,
        "J": 0.05950008273988415,
        "B": 0.06901961950620898,
        "H": 0.06528484227128967,
        "E": 0.05219600731180211,
        "C": 0.06844759110915193,
        "K": 0.06226653804589443
    },
    "Average_excess_waiting_time": {
        "D": 50.67127087006742,
        "F": 50.32313158738327,
        "G": 49.620055862732386,
        "I": 49.414473305054116,
        "L": 51.45136017835472,
        "A": 50.241321407827,
        "J": 50.03497710615727,
        "B": 49.959037485310375,
        "H": 49.82000594342338,
        "E": 50.637293485747364,
        "C": 51.60030464047469,
        "K": 51.89863742507322
    },
    "Holding_per_stop": {
        "I": 26.5625,
        "A": 25.625,
        "G": 25.625,
        "D": 26.526315789473685,
        "F": 28.736842105263158,
        "L": 29.05263157894737,
        "B": 26.210526315789473,
        "H": 26.842105263157894,
        "J": 27.157894736842106,
        "E": 27.789473684210527,
        "C": 28.105263157894736,
        "K": 26.210526315789473
    },
    "Actions_tfl_edges": {},
    "Load_per_bus_per_stop": {
        "bus0": {
            "D": 55.4375,
            "E": 56.5625,
            "F": 56.3125,
            "G": 57.3125,
            "H": 58.125,
            "I": 59.875,
            "J": 59.75,
            "K": 59.25,
            "L": 60.3125,
            "A": 61.1875,
            "B": 60.333333333333336,
            "C": 58.53333333333333
        },
        "bus1": {
            "F": 55.625,
            "G": 56.875,
            "H": 59.1875,
            "I": 57.6875,
            "J": 57.8125,
            "K": 58.3125,
            "L": 58.625,
            "A": 57.4375,
            "B": 54.8125,
            "C": 56.375,
            "D": 56.93333333333333,
            "E": 58.333333333333336
        },
        "bus2": {
            "G": 50.75,
            "H": 51,
            "I": 51.125,
            "J": 51.5,
            "K": 50.625,
            "L": 51.25,
            "A": 53.75,
            "B": 54.25,
            "C": 54.5,
            "D": 53.4375,
            "E": 53,
            "F": 52.9375
        },
        "bus3": {
            "I": 56.1875,
            "J": 56.25,
            "K": 54.0625,
            "L": 54.375,
            "A": 54.1875,
            "B": 56.75,
            "C": 58.75,
            "D": 59.625,
            "E": 59.25,
            "F": 57.8125,
            "G": 58.8125,
            "H": 58.5625
        },
        "bus4": {
            "L": 54.3125,
            "A": 56.0625,
            "B": 54.6875,
            "C": 56.3125,
            "D": 54.625,
            "E": 55.0625,
            "F": 55.375,
            "G": 55.5625,
            "H": 55.25,
            "I": 55,
            "J": 54.8,
            "K": 56.13333333333333
        },
        "bus5": {
            "A": 54.5625,
            "B": 56.125,
            "C": 55.8125,
            "D": 56.875,
            "E": 56.5625,
            "F": 56.625,
            "G": 57.8125,
            "H": 56.8125,
            "I": 56.125,
            "J": 57.3125,
            "K": 56.6875,
            "L": 56.46666666666667
        }
    },
    "Obs_and_actions_busses": {
        "4": 378.2524326625639,
        "1": 8.531150889926083,
        "0": -104.47094042658233
    },
    "Obs_and_actions_tfls": {}
}