{
    "Average_holding_time": 27.611548556430446,
    "Average_holding_actions": [
        136,
        992,
        0,
        15,
        0,
        0
    ],
    "Average_travel_time_passengers": 2037.1018834785507,
    "Average_passenger_waiting_time": 317.30765298980697,
    "Average_passenger_in_vehicle_time": 1719.794230488678,
    "Average_speed_busses": 0.047625,
    "Average_experienced_crowding": 57.514513780354626,
    "Average_covariation_headway": 0.17005312790437202,
    "Average_covariation_headway_stops": {
        "B": 0.13757454107157166,
        "G": 0.17689788956243566,
        "H": 0.17493076322607928,
        "J": 0.14511248036580252,
        "K": 0.14086713892333483,
        "A": 0.12702573538674553,
        "C": 0.12014123470729876,
        "I": 0.14720670596493812,
        "L": 0.11782802246590478,
        "D": 0.1078378074739242,
        "E": 0.12498496363049841,
        "F": 0.15481950203531042
    },
    "Average_excess_waiting_time": {
        "B": 51.6117533677637,
        "G": 60.87464072643229,
        "H": 58.66878650620845,
        "J": 55.50736889359865,
        "K": 53.464760367485894,
        "A": 52.031286928099064,
        "C": 51.755786977193,
        "I": 57.65919551562837,
        "L": 53.040203086301005,
        "D": 52.800414859677005,
        "E": 55.67300357897267,
        "F": 60.22507580799072
    },
    "Holding_per_stop": {
        "B": 26.5625,
        "H": 26.210526315789473,
        "K": 26.875,
        "G": 27.473684210526315,
        "A": 28.4375,
        "J": 29.36842105263158,
        "C": 26.875,
        "I": 28.736842105263158,
        "L": 28.105263157894736,
        "D": 27.473684210526315,
        "E": 29.05263157894737,
        "F": 26.170212765957448
    },
    "Actions_tfl_edges": {},
    "Load_per_bus_per_stop": {
        "bus0": {
            "B": 58.375,
            "C": 58.3125,
            "D": 58.6875,
            "E": 61.1875,
            "F": 62.1875,
            "G": 63.3125,
            "H": 62,
            "I": 61.6875,
            "J": 60.6875,
            "K": 60.5625,
            "L": 59.75,
            "A": 61.6875
        },
        "bus1": {
            "G": 54.25,
            "H": 55.0625,
            "I": 56.25,
            "J": 56,
            "K": 55.8125,
            "L": 56.125,
            "A": 56.75,
            "B": 58.625,
            "C": 57.8125,
            "D": 60.86666666666667,
            "E": 59.53333333333333,
            "F": 60.06666666666667
        },
        "bus2": {
            "H": 51.5625,
            "I": 52.625,
            "J": 54.3125,
            "K": 55.9375,
            "L": 55.75,
            "A": 57.1875,
            "B": 55.25,
            "C": 55.6875,
            "D": 54.9375,
            "E": 55.1875,
            "F": 56.4,
            "G": 55
        },
        "bus3": {
            "J": 53.0625,
            "K": 51.6875,
            "L": 53.1875,
            "A": 54.0625,
            "B": 55.375,
            "C": 55.8125,
            "D": 54.5625,
            "E": 55.5,
            "F": 56.5,
            "G": 58.5625,
            "H": 57.8,
            "I": 55.2
        },
        "bus4": {
            "K": 51.75,
            "L": 52.875,
            "A": 53.3125,
            "B": 54.4375,
            "C": 56.875,
            "D": 55.8125,
            "E": 53.875,
            "F": 53.9375,
            "G": 54.625,
            "H": 55.3125,
            "I": 55.5625,
            "J": 54.6
        },
        "bus5": {
            "A": 53.6875,
            "B": 54.6875,
            "C": 54.9375,
            "D": 55.8125,
            "E": 54.9375,
            "F": 54.1875,
            "G": 54.0625,
            "H": 53.5625,
            "I": 53.6875,
            "J": 55.0625,
            "K": 56,
            "L": 55.8
        }
    },
    "Obs_and_actions_busses": {
        "0": -172.92768567244082,
        "1": 11.392137097378981,
        "4": 511.86432282979007
    },
    "Obs_and_actions_tfls": {}
}