{
    "Average_holding_time": 28.391915641476274,
    "Average_holding_actions": [
        175,
        926,
        0,
        34,
        3,
        0
    ],
    "Average_travel_time_passengers": 2046.164480341317,
    "Average_passenger_waiting_time": 325.19202302549843,
    "Average_passenger_in_vehicle_time": 1720.9724573157412,
    "Average_speed_busses": 0.04741666666666667,
    "Average_experienced_crowding": 59.479501563625796,
    "Average_covariation_headway": 0.24199781803092701,
    "Average_covariation_headway_stops": {
        "C": 0.24329134351002332,
        "D": 0.2343308636505951,
        "E": 0.23123888101872503,
        "F": 0.22686371103297032,
        "G": 0.22051381417327756,
        "A": 0.25872771901453223,
        "H": 0.19687044256459915,
        "B": 0.24358619836586143,
        "I": 0.1922350288527702,
        "J": 0.19630652304870524,
        "K": 0.2082492368976096,
        "L": 0.237613134375144
    },
    "Average_excess_waiting_time": {
        "C": 70.37170740736428,
        "D": 67.3452010653138,
        "E": 65.55095609043588,
        "F": 63.09853578154673,
        "G": 60.63501952014002,
        "A": 73.16207557905841,
        "H": 59.297712447979166,
        "B": 72.52271355730096,
        "I": 60.408499037949696,
        "J": 62.63587252648779,
        "K": 66.0371454294609,
        "L": 71.71993180508844
    },
    "Holding_per_stop": {
        "G": 27.5,
        "D": 27.473684210526315,
        "E": 30,
        "F": 29.6875,
        "C": 30.638297872340427,
        "A": 28.404255319148938,
        "H": 27.5,
        "I": 26.842105263157894,
        "B": 27.4468085106383,
        "J": 28.105263157894736,
        "K": 28.72340425531915,
        "L": 28.404255319148938
    },
    "Actions_tfl_edges": {},
    "Load_per_bus_per_stop": {
        "bus0": {
            "C": 57.4375,
            "D": 58.0625,
            "E": 58.5625,
            "F": 58.5625,
            "G": 58.5625,
            "H": 55.4375,
            "I": 54.875,
            "J": 55.25,
            "K": 57.6,
            "L": 58.333333333333336,
            "A": 59.2,
            "B": 61.13333333333333
        },
        "bus1": {
            "D": 56.8125,
            "E": 58.625,
            "F": 60,
            "G": 58.4375,
            "H": 59.4375,
            "I": 60.25,
            "J": 59.875,
            "K": 59.25,
            "L": 58.9375,
            "A": 60.4,
            "B": 59,
            "C": 59.8
        },
        "bus2": {
            "E": 54.9375,
            "F": 56.75,
            "G": 55.875,
            "H": 57.25,
            "I": 57.25,
            "J": 54.75,
            "K": 53.6875,
            "L": 53.5625,
            "A": 53.375,
            "B": 55.9375,
            "C": 55.93333333333333,
            "D": 58.4
        },
        "bus3": {
            "F": 45.1875,
            "G": 44.5625,
            "H": 46,
            "I": 46.875,
            "J": 48.75,
            "K": 50.125,
            "L": 48.75,
            "A": 47.875,
            "B": 46.125,
            "C": 47.6875,
            "D": 47.0625,
            "E": 48.2
        },
        "bus4": {
            "G": 57.375,
            "H": 57.6875,
            "I": 59.75,
            "J": 59.25,
            "K": 59.75,
            "L": 59.75,
            "A": 62.25,
            "B": 62.9375,
            "C": 65.125,
            "D": 63.5625,
            "E": 63.1875,
            "F": 62.6875
        },
        "bus5": {
            "A": 56.75,
            "B": 56.8125,
            "C": 58.25,
            "D": 59.6875,
            "E": 59.6875,
            "F": 60.375,
            "G": 59.625,
            "H": 59.625,
            "I": 59.266666666666666,
            "J": 60.266666666666666,
            "K": 59.06666666666667,
            "L": 60.8
        }
    },
    "Obs_and_actions_busses": {
        "0": -217.21471527798656,
        "1": 18.382472582743766,
        "5": 1028.4214983515992,
        "4": 350.70344834805655
    },
    "Obs_and_actions_tfls": {}
}