{
    "Average_holding_time": 27.322834645669293,
    "Average_holding_actions": [
        144,
        985,
        0,
        14,
        0,
        0
    ],
    "Average_travel_time_passengers": 2012.7345388522929,
    "Average_passenger_waiting_time": 310.4254700002796,
    "Average_passenger_in_vehicle_time": 1702.3090688519574,
    "Average_speed_busses": 0.047625,
    "Average_experienced_crowding": 57.26851995121342,
    "Average_covariation_headway": 0.1690170057047544,
    "Average_covariation_headway_stops": {
        "C": 0.13595223617956886,
        "D": 0.13432404043502388,
        "E": 0.1323420672204756,
        "F": 0.13644715356196002,
        "J": 0.13996036878621265,
        "K": 0.13722373043669336,
        "L": 0.10785455179926094,
        "G": 0.11354841620467285,
        "H": 0.1133420260760285,
        "A": 0.10125865106907002,
        "I": 0.12254195293047236,
        "B": 0.11338878682573793
    },
    "Average_excess_waiting_time": {
        "C": 56.237481395133045,
        "D": 54.659482092831865,
        "E": 52.83193230880107,
        "F": 51.644346564223156,
        "J": 54.99887524578975,
        "K": 53.11545556941593,
        "L": 52.27448404685566,
        "G": 51.56600656059419,
        "H": 52.86854173402702,
        "A": 53.448046177985645,
        "I": 55.190869589085594,
        "B": 56.161466878618796
    },
    "Holding_per_stop": {
        "K": 27.8125,
        "F": 26.875,
        "E": 26.875,
        "D": 26.842105263157894,
        "J": 28.736842105263158,
        "C": 26.526315789473685,
        "G": 26.875,
        "L": 27.789473684210527,
        "H": 26.526315789473685,
        "A": 28.105263157894736,
        "B": 27.127659574468087,
        "I": 27.789473684210527
    },
    "Actions_tfl_edges": {},
    "Load_per_bus_per_stop": {
        "bus0": {
            "C": 55.125,
            "D": 55.375,
            "E": 55.5,
            "F": 54.75,
            "G": 55.625,
            "H": 56.6875,
            "I": 57.8125,
            "J": 58.375,
            "K": 58.8125,
            "L": 58.266666666666666,
            "A": 59.06666666666667,
            "B": 57.6
        },
        "bus1": {
            "D": 54.0625,
            "E": 54.625,
            "F": 56.1875,
            "G": 55.375,
            "H": 55.25,
            "I": 54.8125,
            "J": 55.625,
            "K": 54.875,
            "L": 55.5,
            "A": 57.4375,
            "B": 56.53333333333333,
            "C": 55.46666666666667
        },
        "bus2": {
            "E": 48.6875,
            "F": 49.0625,
            "G": 49.25,
            "H": 49.8125,
            "I": 48.75,
            "J": 51.375,
            "K": 51.625,
            "L": 53.25,
            "A": 53.9375,
            "B": 53.5,
            "C": 52.25,
            "D": 52.333333333333336
        },
        "bus3": {
            "F": 52.625,
            "G": 51.0625,
            "H": 52.75,
            "I": 54.5,
            "J": 55.3125,
            "K": 55.6875,
            "L": 55.75,
            "A": 54.0625,
            "B": 53.625,
            "C": 54.3125,
            "D": 55.0625,
            "E": 56.6875
        },
        "bus4": {
            "J": 55.125,
            "K": 56,
            "L": 54.9375,
            "A": 56.5,
            "B": 56.5,
            "C": 57.75,
            "D": 59.125,
            "E": 59.375,
            "F": 60.3125,
            "G": 57.6875,
            "H": 57.4,
            "I": 57.46666666666667
        },
        "bus5": {
            "K": 59,
            "L": 59.1875,
            "A": 59.625,
            "B": 59.9375,
            "C": 61.3125,
            "D": 60.125,
            "E": 60.1875,
            "F": 61.3125,
            "G": 61.75,
            "H": 62.0625,
            "I": 61.125,
            "J": 61.333333333333336
        }
    },
    "Obs_and_actions_busses": {
        "1": 12.044956423592485,
        "4": 494.31205393969844,
        "0": -157.73644785210394
    },
    "Obs_and_actions_tfls": {}
}