{
    "Average_holding_time": 26.20418848167539,
    "Average_holding_actions": [
        169,
        969,
        0,
        8,
        0,
        0
    ],
    "Average_travel_time_passengers": 2024.0677451262643,
    "Average_passenger_waiting_time": 312.34946790516597,
    "Average_passenger_in_vehicle_time": 1711.718277221044,
    "Average_speed_busses": 0.04775,
    "Average_experienced_crowding": 57.90899494415298,
    "Average_covariation_headway": 0.160355696326275,
    "Average_covariation_headway_stops": {
        "B": 0.13544847918066474,
        "D": 0.1205400230472775,
        "E": 0.123288489160159,
        "G": 0.11582353548427306,
        "H": 0.12008012296252377,
        "J": 0.11152467541592245,
        "F": 0.10026192528872123,
        "I": 0.1041443715408787,
        "K": 0.08469843018100559,
        "C": 0.10437719617409896,
        "L": 0.08486839011101358,
        "A": 0.1083563926133428
    },
    "Average_excess_waiting_time": {
        "B": 54.58196944322907,
        "D": 53.395071005389866,
        "E": 51.96008206326405,
        "G": 51.13583484044267,
        "H": 49.749139744332865,
        "J": 49.137323646231664,
        "F": 51.76435945939107,
        "I": 50.37677104381714,
        "K": 49.27271820218982,
        "C": 53.9666439102906,
        "L": 50.903955321062085,
        "A": 53.95326208699976
    },
    "Holding_per_stop": {
        "E": 26.25,
        "H": 26.25,
        "J": 25,
        "D": 26.210526315789473,
        "G": 28.4375,
        "B": 25.57894736842105,
        "F": 25.263157894736842,
        "I": 27.1875,
        "K": 25,
        "C": 26.842105263157894,
        "L": 26.842105263157894,
        "A": 25.57894736842105
    },
    "Actions_tfl_edges": {},
    "Load_per_bus_per_stop": {
        "bus0": {
            "B": 55.25,
            "C": 56.3125,
            "D": 57.25,
            "E": 57.25,
            "F": 59.25,
            "G": 58.3125,
            "H": 57.3125,
            "I": 57.9375,
            "J": 60.875,
            "K": 59.75,
            "L": 59,
            "A": 58.266666666666666
        },
        "bus1": {
            "D": 53.125,
            "E": 53.4375,
            "F": 54.6875,
            "G": 55,
            "H": 54.4375,
            "I": 54.75,
            "J": 56.1875,
            "K": 56.9375,
            "L": 59.25,
            "A": 59.25,
            "B": 57.2,
            "C": 57.06666666666667
        },
        "bus2": {
            "E": 50.6875,
            "F": 51.4375,
            "G": 53.375,
            "H": 55.4375,
            "I": 55.9375,
            "J": 57.125,
            "K": 57.1875,
            "L": 58.125,
            "A": 58.5625,
            "B": 58.5,
            "C": 57.125,
            "D": 55.6
        },
        "bus3": {
            "G": 55.1875,
            "H": 54.625,
            "I": 54.6875,
            "J": 55.0625,
            "K": 56.1875,
            "L": 55.6875,
            "A": 57.8125,
            "B": 58.375,
            "C": 59.25,
            "D": 59,
            "E": 58.375,
            "F": 58.53333333333333
        },
        "bus4": {
            "H": 53.4375,
            "I": 53.875,
            "J": 53.8125,
            "K": 54.625,
            "L": 54.4375,
            "A": 57.25,
            "B": 56.875,
            "C": 56.75,
            "D": 57.875,
            "E": 57.1875,
            "F": 57.25,
            "G": 57.0625
        },
        "bus5": {
            "J": 55.5625,
            "K": 56.5,
            "L": 57.125,
            "A": 57.375,
            "B": 57.8125,
            "C": 58.625,
            "D": 57.3125,
            "E": 57.3125,
            "F": 58.125,
            "G": 58.1875,
            "H": 58.625,
            "I": 58.8125
        }
    },
    "Obs_and_actions_busses": {
        "4": 339.8217388870601,
        "1": 14.571796277853798,
        "0": -117.47813651005166
    },
    "Obs_and_actions_tfls": {}
}