{
    "Average_holding_time": 26.37075718015666,
    "Average_holding_actions": [
        145,
        1002,
        0,
        2,
        0,
        0
    ],
    "Average_travel_time_passengers": 2031.9336250471345,
    "Average_passenger_waiting_time": 309.4815534701149,
    "Average_passenger_in_vehicle_time": 1722.4520715769554,
    "Average_speed_busses": 0.047875,
    "Average_experienced_crowding": 57.034633754761614,
    "Average_covariation_headway": 0.1486990062574002,
    "Average_covariation_headway_stops": {
        "B": 0.09664245557506751,
        "E": 0.10467755125078274,
        "G": 0.10021879373138094,
        "I": 0.09589864370426363,
        "J": 0.10563770875204517,
        "L": 0.09984698936295835,
        "K": 0.08155810919888722,
        "C": 0.07729339084256023,
        "H": 0.07767036972170327,
        "A": 0.07492978690873703,
        "F": 0.07847286128231515,
        "D": 0.0789225770349949
    },
    "Average_excess_waiting_time": {
        "B": 48.69364796116662,
        "E": 51.00069897498366,
        "G": 50.8136604278298,
        "I": 50.767799504430684,
        "J": 49.609595195533075,
        "L": 48.67104966595781,
        "K": 49.95606854108246,
        "C": 49.43786516781336,
        "H": 51.44207492639117,
        "A": 49.01792589138262,
        "F": 51.29561898927642,
        "D": 51.158699587293086
    },
    "Holding_per_stop": {
        "J": 24.6875,
        "B": 26.875,
        "G": 25.625,
        "L": 25.9375,
        "E": 26.875,
        "I": 27.1875,
        "K": 26.5625,
        "C": 25.9375,
        "A": 27.8125,
        "H": 25.57894736842105,
        "F": 26.210526315789473,
        "D": 27.157894736842106
    },
    "Actions_tfl_edges": {},
    "Load_per_bus_per_stop": {
        "bus0": {
            "B": 56.0625,
            "C": 55.625,
            "D": 54.75,
            "E": 56.0625,
            "F": 55.25,
            "G": 57.5625,
            "H": 57.875,
            "I": 59.875,
            "J": 59.9375,
            "K": 59.9375,
            "L": 59.75,
            "A": 58.5625
        },
        "bus1": {
            "E": 56.625,
            "F": 57.4375,
            "G": 55.3125,
            "H": 55.5,
            "I": 55.5625,
            "J": 54.9375,
            "K": 56.625,
            "L": 56.5625,
            "A": 57.625,
            "B": 59.875,
            "C": 59.1875,
            "D": 60.266666666666666
        },
        "bus2": {
            "G": 52.375,
            "H": 54.375,
            "I": 56.375,
            "J": 58.8125,
            "K": 57.5625,
            "L": 57.1875,
            "A": 57,
            "B": 54.4375,
            "C": 53.25,
            "D": 53.0625,
            "E": 53.1875,
            "F": 53.53333333333333
        },
        "bus3": {
            "I": 57.125,
            "J": 58.5,
            "K": 57.5625,
            "L": 57.625,
            "A": 59.6875,
            "B": 60.25,
            "C": 61.125,
            "D": 60.4375,
            "E": 60.3125,
            "F": 58.5,
            "G": 58.5625,
            "H": 59.06666666666667
        },
        "bus4": {
            "J": 51.3125,
            "K": 50.5,
            "L": 51.3125,
            "A": 53.625,
            "B": 53.75,
            "C": 55.4375,
            "D": 54.625,
            "E": 53.1875,
            "F": 53.5,
            "G": 52.6875,
            "H": 54.3125,
            "I": 53.875
        },
        "bus5": {
            "L": 52.0625,
            "A": 52.3125,
            "B": 54.5625,
            "C": 53.9375,
            "D": 54.9375,
            "E": 54.8125,
            "F": 54.1875,
            "G": 53.1875,
            "H": 54.25,
            "I": 55.375,
            "J": 57,
            "K": 56.375
        }
    },
    "Obs_and_actions_busses": {
        "0": -93.78056203916975,
        "1": 10.672528819921185,
        "4": 287.2102921775276
    },
    "Obs_and_actions_tfls": {}
}