{
    "Average_holding_time": 27.08916083916084,
    "Average_holding_actions": [
        141,
        993,
        0,
        10,
        0,
        0
    ],
    "Average_travel_time_passengers": 2020.569430940776,
    "Average_passenger_waiting_time": 311.3179536530858,
    "Average_passenger_in_vehicle_time": 1709.2514772876023,
    "Average_speed_busses": 0.04766666666666667,
    "Average_experienced_crowding": 57.07933123967093,
    "Average_covariation_headway": 0.1690750314810502,
    "Average_covariation_headway_stops": {
        "C": 0.1520935137739453,
        "F": 0.1561290467720841,
        "G": 0.14868154162203392,
        "I": 0.12913890941058548,
        "J": 0.13523659087251766,
        "K": 0.14040621905629377,
        "L": 0.1233544695991894,
        "H": 0.1311326970893713,
        "D": 0.13683714245735243,
        "A": 0.12192926682092693,
        "E": 0.14136398433144695,
        "B": 0.13530094627111125
    },
    "Average_excess_waiting_time": {
        "C": 55.442356419763996,
        "F": 57.413689183709266,
        "G": 55.029414240019776,
        "I": 53.20912348605174,
        "J": 51.91996068778235,
        "K": 50.70491961516791,
        "L": 51.17736763416764,
        "H": 55.082204923958955,
        "D": 55.96951245617595,
        "A": 52.7664272381611,
        "E": 57.95503681965306,
        "B": 55.54484830166342
    },
    "Holding_per_stop": {
        "K": 26.288659793814432,
        "G": 26.526315789473685,
        "J": 27.1875,
        "C": 27.789473684210527,
        "I": 28.125,
        "F": 27.473684210526315,
        "H": 28.105263157894736,
        "L": 27.5,
        "D": 27.157894736842106,
        "A": 25.263157894736842,
        "E": 26.170212765957448,
        "B": 27.473684210526315
    },
    "Actions_tfl_edges": {},
    "Load_per_bus_per_stop": {
        "bus0": {
            "C": 53.375,
            "D": 54,
            "E": 54.0625,
            "F": 54.375,
            "G": 55.3125,
            "H": 55.75,
            "I": 55.9375,
            "J": 57.875,
            "K": 57.75,
            "L": 57.625,
            "A": 57.5,
            "B": 58.53333333333333
        },
        "bus1": {
            "F": 55.5,
            "G": 54.625,
            "H": 54.5625,
            "I": 54.75,
            "J": 56.25,
            "K": 55.625,
            "L": 55.25,
            "A": 56.6875,
            "B": 58.625,
            "C": 60.3125,
            "D": 60.8,
            "E": 60.06666666666667
        },
        "bus2": {
            "G": 55.5625,
            "H": 55.625,
            "I": 56.1875,
            "J": 56.8125,
            "K": 55.625,
            "L": 56.5625,
            "A": 57.5625,
            "B": 59.25,
            "C": 59,
            "D": 59.25,
            "E": 59.625,
            "F": 60.2
        },
        "bus3": {
            "I": 54.875,
            "J": 54.875,
            "K": 54.625,
            "L": 54.0625,
            "A": 55.25,
            "B": 54.5,
            "C": 55.625,
            "D": 55.8125,
            "E": 56.4375,
            "F": 57.625,
            "G": 59.125,
            "H": 59
        },
        "bus4": {
            "J": 50,
            "K": 51.6875,
            "L": 51.625,
            "A": 52.375,
            "B": 54.3125,
            "C": 55.1875,
            "D": 57.5,
            "E": 56.6875,
            "F": 55.8125,
            "G": 54.375,
            "H": 54.375,
            "I": 54.625
        },
        "bus5": {
            "K": 51.64705882352941,
            "L": 51.9375,
            "A": 51.125,
            "B": 52.75,
            "C": 53.25,
            "D": 55.4375,
            "E": 56.75,
            "F": 55.875,
            "G": 56.375,
            "H": 55.125,
            "I": 55.5625,
            "J": 55.5
        }
    },
    "Obs_and_actions_busses": {
        "4": 327.953796917711,
        "1": 14.746956862042088,
        "0": -158.919161090397
    },
    "Obs_and_actions_tfls": {}
}