{
    "Average_holding_time": 27.554776511831726,
    "Average_holding_actions": [
        154,
        967,
        0,
        19,
        1,
        0
    ],
    "Average_travel_time_passengers": 2045.3814859538247,
    "Average_passenger_waiting_time": 317.86612841806567,
    "Average_passenger_in_vehicle_time": 1727.5153575356699,
    "Average_speed_busses": 0.04754166666666667,
    "Average_experienced_crowding": 59.10970121468247,
    "Average_covariation_headway": 0.19787782277230773,
    "Average_covariation_headway_stops": {
        "C": 0.19512548949678793,
        "D": 0.1903831736823945,
        "G": 0.1608526018826151,
        "H": 0.16032743827751791,
        "I": 0.16393572775983423,
        "J": 0.17551555578303285,
        "K": 0.15435129171515605,
        "E": 0.16724180151664847,
        "L": 0.14690769947308688,
        "F": 0.15521425488746649,
        "A": 0.15216622688624842,
        "B": 0.1732847826160233
    },
    "Average_excess_waiting_time": {
        "C": 62.66671721519913,
        "D": 60.1999896445829,
        "G": 58.353659862299025,
        "H": 56.606539147266176,
        "I": 55.32635981970736,
        "J": 55.130100543064486,
        "K": 54.62193343281609,
        "E": 59.24356725684942,
        "L": 55.78798004674792,
        "F": 59.47376413505009,
        "A": 57.98184331834449,
        "B": 61.849588654274896
    },
    "Holding_per_stop": {
        "J": 27.8125,
        "D": 26.210526315789473,
        "I": 26.875,
        "H": 28.42105263157895,
        "G": 26.842105263157894,
        "C": 28.736842105263158,
        "K": 26.25,
        "E": 28.42105263157895,
        "F": 28.085106382978722,
        "L": 27.157894736842106,
        "A": 28.105263157894736,
        "B": 27.76595744680851
    },
    "Actions_tfl_edges": {},
    "Load_per_bus_per_stop": {
        "bus0": {
            "C": 56.4375,
            "D": 56.625,
            "E": 58.625,
            "F": 59.0625,
            "G": 58.5625,
            "H": 58.6875,
            "I": 59.5,
            "J": 59.8125,
            "K": 59.5,
            "L": 61.666666666666664,
            "A": 59.8,
            "B": 58.8
        },
        "bus1": {
            "D": 58.0625,
            "E": 56.25,
            "F": 56.6875,
            "G": 57.0625,
            "H": 55.9375,
            "I": 57.0625,
            "J": 58.8125,
            "K": 60.8125,
            "L": 59.75,
            "A": 59.0625,
            "B": 59.666666666666664,
            "C": 61.8
        },
        "bus2": {
            "G": 56.375,
            "H": 56.375,
            "I": 57.75,
            "J": 58.3125,
            "K": 57.125,
            "L": 58.5625,
            "A": 59.625,
            "B": 60.875,
            "C": 61.1875,
            "D": 61.333333333333336,
            "E": 61.8,
            "F": 59.333333333333336
        },
        "bus3": {
            "H": 58,
            "I": 56.4375,
            "J": 54.4375,
            "K": 56.875,
            "L": 56.875,
            "A": 57.8125,
            "B": 58.1875,
            "C": 58.25,
            "D": 58.0625,
            "E": 58.1875,
            "F": 59.86666666666667,
            "G": 59.4
        },
        "bus4": {
            "I": 46.6875,
            "J": 46.375,
            "K": 47.75,
            "L": 46.4375,
            "A": 47.6875,
            "B": 46.625,
            "C": 47.4375,
            "D": 51.0625,
            "E": 50.375,
            "F": 50.5,
            "G": 50.0625,
            "H": 50.266666666666666
        },
        "bus5": {
            "J": 56.875,
            "K": 58.4375,
            "L": 58.0625,
            "A": 58.375,
            "B": 59.4375,
            "C": 61.5,
            "D": 62.625,
            "E": 62,
            "F": 62.3125,
            "G": 61.4375,
            "H": 60.75,
            "I": 60.6875
        }
    },
    "Obs_and_actions_busses": {
        "0": -182.93746807253194,
        "1": 15.44099924535352,
        "4": 378.66687104900444,
        "5": 853.8417644959659
    },
    "Obs_and_actions_tfls": {}
}