{
    "Average_holding_time": 26.387434554973822,
    "Average_holding_actions": [
        156,
        984,
        0,
        6,
        0,
        0
    ],
    "Average_travel_time_passengers": 2010.7646304751515,
    "Average_passenger_waiting_time": 308.21797183355085,
    "Average_passenger_in_vehicle_time": 1702.5466586415255,
    "Average_speed_busses": 0.04775,
    "Average_experienced_crowding": 57.136225912858606,
    "Average_covariation_headway": 0.140923623503449,
    "Average_covariation_headway_stops": {
        "B": 0.11053285979774109,
        "C": 0.12235414996625345,
        "E": 0.1119264432013813,
        "H": 0.10670358891727506,
        "K": 0.11281923521276871,
        "A": 0.10556092614004813,
        "D": 0.09068043060102957,
        "F": 0.08823432994309043,
        "I": 0.08522205171548478,
        "L": 0.08318398412119991,
        "G": 0.08917732048602123,
        "J": 0.08780616317113245
    },
    "Average_excess_waiting_time": {
        "B": 50.68819810033449,
        "C": 50.0923178546509,
        "E": 49.428449047841355,
        "H": 50.843076932608824,
        "K": 52.272345734771875,
        "A": 51.8425681088338,
        "D": 49.6481613382868,
        "F": 49.60264842891456,
        "I": 51.04448829535323,
        "L": 52.146477943686875,
        "G": 51.51259768361416,
        "J": 52.837504369147894
    },
    "Holding_per_stop": {
        "C": 26.875,
        "E": 27.5,
        "H": 25.9375,
        "B": 25.9375,
        "A": 26.842105263157894,
        "K": 28.42105263157895,
        "D": 26.875,
        "F": 25.3125,
        "I": 24.31578947368421,
        "L": 26.526315789473685,
        "G": 24.63157894736842,
        "J": 27.473684210526315
    },
    "Actions_tfl_edges": {},
    "Load_per_bus_per_stop": {
        "bus0": {
            "B": 56.375,
            "C": 55.875,
            "D": 56.3125,
            "E": 57.3125,
            "F": 57.3125,
            "G": 56.125,
            "H": 54.625,
            "I": 53.5,
            "J": 54.75,
            "K": 54.9375,
            "L": 55,
            "A": 56.6875
        },
        "bus1": {
            "C": 54.125,
            "D": 54.125,
            "E": 54.5,
            "F": 54.75,
            "G": 55.5,
            "H": 57.5,
            "I": 59.5625,
            "J": 60.625,
            "K": 60,
            "L": 60,
            "A": 58.5625,
            "B": 58.5
        },
        "bus2": {
            "E": 52.8125,
            "F": 51.125,
            "G": 52.4375,
            "H": 54.5,
            "I": 56.8125,
            "J": 57.75,
            "K": 58,
            "L": 57.375,
            "A": 57.3125,
            "B": 58.0625,
            "C": 57.5625,
            "D": 56.375
        },
        "bus3": {
            "H": 55.4375,
            "I": 57.125,
            "J": 57.9375,
            "K": 59,
            "L": 60.6875,
            "A": 59.1875,
            "B": 59.3125,
            "C": 58.375,
            "D": 59.375,
            "E": 59.125,
            "F": 59,
            "G": 59.2
        },
        "bus4": {
            "K": 54.6875,
            "L": 56.8125,
            "A": 58.375,
            "B": 56.3125,
            "C": 54.3125,
            "D": 54.3125,
            "E": 54.625,
            "F": 56.4375,
            "G": 58.4375,
            "H": 59.125,
            "I": 59.6,
            "J": 59.13333333333333
        },
        "bus5": {
            "A": 51.125,
            "B": 50.1875,
            "C": 48.9375,
            "D": 47.6875,
            "E": 49.8125,
            "F": 50.375,
            "G": 52.125,
            "H": 54.25,
            "I": 55.125,
            "J": 55.875,
            "K": 53.13333333333333,
            "L": 54.6
        }
    },
    "Obs_and_actions_busses": {
        "0": -103.17879050519187,
        "1": 11.634173365664738,
        "4": 280.1888136435715
    },
    "Obs_and_actions_tfls": {}
}