{
    "Average_holding_time": 18.005390835579515,
    "Average_travel_time_passengers": 2755.168837983992,
    "Average_speed_busses": 0.046375,
    "Average_experienced_crowding": 82.08076814397464,
    "Average_covariation_headway": 0.29316578869134025,
    "Average_covariation_headway_stops": {
        "I": 0.21984208534420221,
        "E": 0.22021935765519834,
        "D": 0.22190611719738987,
        "G": 0.2267227658395081,
        "A": 0.20725610584327672,
        "F": 0.2180997834501484,
        "J": 0.20560428597052297,
        "H": 0.22278717612945526,
        "B": 0.20015791929129642,
        "K": 0.21370606852214416,
        "C": 0.20598196075208994,
        "L": 0.21711105428720015
    },
    "Average_excess_waiting_time": {
        "I": 57.48222770883956,
        "E": 61.299896685854094,
        "D": 63.78502647028239,
        "G": 57.97924020700009,
        "A": 59.03309914312973,
        "F": 58.469580132442616,
        "J": 56.6022938822677,
        "H": 59.57689786554721,
        "B": 61.35090604862097,
        "K": 59.18831444974268,
        "C": 63.631391461984094,
        "L": 62.00490565261833
    },
    "Holding_per_stop": {
        "I": 21.70212765957447,
        "E": 18.387096774193548,
        "G": 15.319148936170214,
        "A": 9.35483870967742,
        "F": 16.451612903225808,
        "D": 18.58695652173913,
        "J": 19.032258064516128,
        "H": 20.322580645161292,
        "B": 8.478260869565217,
        "K": 27.096774193548388,
        "L": 15.326086956521738,
        "C": 26.043956043956044
    },
    "Actions_tfl_edges": {
        "CD": [
            52,
            40,
            0
        ],
        "DE": [
            53,
            40,
            0
        ],
        "EF": [
            43,
            51,
            0
        ],
        "FG": [
            40,
            54,
            0
        ],
        "HI": [
            53,
            41,
            0
        ],
        "LA": [
            49,
            44,
            0
        ],
        "IJ": [
            53,
            41,
            0
        ],
        "GH": [
            44,
            50,
            0
        ],
        "AB": [
            42,
            51,
            0
        ],
        "JK": [
            45,
            48,
            0
        ],
        "BC": [
            49,
            43,
            0
        ],
        "KL": [
            51,
            42,
            0
        ]
    },
    "Load_per_bus_per_stop": {
        "bus4": {
            "I": 73.6875,
            "J": 73.875,
            "K": 74.6875,
            "L": 76.4375,
            "A": 76.625,
            "B": 76.75,
            "C": 76.46666666666667,
            "D": 76.8,
            "E": 78.53333333333333,
            "F": 80.4,
            "G": 81.4,
            "H": 79.73333333333333
        },
        "bus1": {
            "E": 75.6875,
            "F": 76.4375,
            "G": 80,
            "H": 78.75,
            "I": 80,
            "J": 81.4,
            "K": 80.26666666666667,
            "L": 83.13333333333334,
            "A": 82.46666666666667,
            "B": 80.93333333333334,
            "C": 80.86666666666666,
            "D": 80.46666666666667
        },
        "bus0": {
            "D": 81.6875,
            "E": 81.625,
            "F": 81.3125,
            "G": 82.5,
            "H": 82.26666666666667,
            "I": 80.66666666666667,
            "J": 80.66666666666667,
            "K": 81,
            "L": 83.26666666666667,
            "A": 84.8,
            "B": 88,
            "C": 89.46666666666667
        },
        "bus3": {
            "G": 78.5625,
            "H": 79.75,
            "I": 79.25,
            "J": 80.0625,
            "K": 81.375,
            "L": 82.375,
            "A": 83.3125,
            "B": 84.66666666666667,
            "C": 85.46666666666667,
            "D": 83.4,
            "E": 84.33333333333333,
            "F": 83.73333333333333
        },
        "bus5": {
            "A": 70.5625,
            "B": 71.9375,
            "C": 73.0625,
            "D": 74.1875,
            "E": 76.375,
            "F": 75.46666666666667,
            "G": 75.2,
            "H": 73.13333333333334,
            "I": 72.33333333333333,
            "J": 73.2,
            "K": 72.8,
            "L": 74.2
        },
        "bus2": {
            "F": 80.4375,
            "G": 80.4375,
            "H": 81.75,
            "I": 83,
            "J": 82.1875,
            "K": 81.125,
            "L": 83.93333333333334,
            "A": 87.8,
            "B": 87.93333333333334,
            "C": 87.2,
            "D": 86.26666666666667,
            "E": 86.26666666666667
        }
    }
}