{
    "Average_holding_time": 15.720164609053498,
    "Average_travel_time_passengers": 6030.271106519225,
    "Average_speed_busses": 0.030375,
    "Average_experienced_crowding": 560.3066972035986,
    "Average_covariation_headway": 2.1924050152200274,
    "Average_covariation_headway_stops": {
        "H": 1.9836435550898395,
        "G": 2.066106563178152,
        "F": 2.049407976082265,
        "E": 2.039815416610241,
        "D": 2.0306660192754022,
        "I": 2.0573554779377528,
        "J": 2.0501084504694287,
        "K": 2.0499091981038364,
        "L": 2.0329996626045514,
        "A": 2.015164209043569,
        "B": 2.021840414065127,
        "C": 2.014577538768321
    },
    "Average_excess_waiting_time": {
        "H": 2144.441403335795,
        "G": 2143.5444125426984,
        "F": 2122.19763019515,
        "E": 2113.8256310406346,
        "D": 2107.745718645094,
        "I": 2022.0809226225408,
        "J": 2036.9151083036188,
        "K": 2060.354657943675,
        "L": 2054.4085485393116,
        "A": 2047.5077944847055,
        "B": 2079.9737953446397,
        "C": 2089.2829700042153
    },
    "Holding_per_stop": {
        "G": 14.53125,
        "F": 14.761904761904763,
        "H": 15.76271186440678,
        "E": 14.516129032258064,
        "I": 15.5,
        "D": 16.721311475409838,
        "J": 16,
        "K": 16.5,
        "L": 16.5,
        "A": 16,
        "B": 16,
        "C": 16
    },
    "Actions_tfl_edges": {
        "CD": [
            34,
            17,
            10
        ],
        "DE": [
            33,
            17,
            12
        ],
        "EF": [
            36,
            17,
            10
        ],
        "FG": [
            37,
            16,
            11
        ],
        "GH": [
            35,
            18,
            12
        ],
        "HI": [
            32,
            17,
            11
        ],
        "IJ": [
            32,
            16,
            12
        ],
        "JK": [
            31,
            17,
            12
        ],
        "KL": [
            32,
            16,
            12
        ],
        "LA": [
            33,
            16,
            11
        ],
        "AB": [
            30,
            18,
            12
        ],
        "BC": [
            33,
            17,
            10
        ]
    },
    "Load_per_bus_per_stop": {
        "bus4": {
            "H": 29.8,
            "I": 30.9,
            "J": 32.3,
            "K": 32.6,
            "L": 32.9,
            "A": 31.9,
            "B": 31,
            "C": 32.6,
            "D": 33.7,
            "E": 32.4,
            "F": 32.5,
            "G": 32.9
        },
        "bus3": {
            "G": 6.2727272727272725,
            "H": 6.6,
            "I": 7.1,
            "J": 7.8,
            "K": 8.4,
            "L": 8.8,
            "A": 9.1,
            "B": 8.7,
            "C": 9.4,
            "D": 8.9,
            "E": 8.8,
            "F": 7.7
        },
        "bus2": {
            "F": 4.636363636363637,
            "G": 4.818181818181818,
            "H": 4.9,
            "I": 5.5,
            "J": 6.1,
            "K": 5.8,
            "L": 5.4,
            "A": 5.6,
            "B": 5.6,
            "C": 5.4,
            "D": 5.5,
            "E": 5.2
        },
        "bus1": {
            "E": 12.727272727272727,
            "F": 13.454545454545455,
            "G": 13.272727272727273,
            "H": 14.5,
            "I": 14.5,
            "J": 14.7,
            "K": 14.3,
            "L": 15.4,
            "A": 15.3,
            "B": 14.5,
            "C": 15,
            "D": 14.1
        },
        "bus0": {
            "D": 46.36363636363637,
            "E": 45.63636363636363,
            "F": 45.09090909090909,
            "G": 45.63636363636363,
            "H": 52.5,
            "I": 52.3,
            "J": 50.1,
            "K": 50.7,
            "L": 50.6,
            "A": 49.9,
            "B": 49.5,
            "C": 50.6
        },
        "bus5": {
            "I": 530.7,
            "J": 535.4,
            "K": 535.4,
            "L": 545.7,
            "A": 559.1,
            "B": 569.2,
            "C": 584.4,
            "D": 591.3,
            "E": 600.6,
            "F": 607,
            "G": 608.9,
            "H": 614.2
        }
    }
}