{
    "Average_holding_time": 13.785211267605634,
    "Average_travel_time_passengers": 2741.651823069157,
    "Average_speed_busses": 0.04733333333333333,
    "Average_experienced_crowding": 86.00709506725438,
    "Average_covariation_headway": 0.4122808215184151,
    "Average_covariation_headway_stops": {
        "A": 0.3316028312929361,
        "H": 0.33478982992944806,
        "F": 0.3509292216325216,
        "L": 0.3351384916556854,
        "J": 0.3188321128913052,
        "K": 0.33305607513674645,
        "B": 0.32318300172609865,
        "G": 0.34919758977706805,
        "I": 0.3144864692605938,
        "C": 0.32094766371070893,
        "D": 0.3210487087021372,
        "E": 0.3374694793144409
    },
    "Average_excess_waiting_time": {
        "A": 67.68240051644142,
        "H": 75.02661318288204,
        "F": 78.07941206222841,
        "L": 71.12599144972216,
        "J": 71.44516292508126,
        "K": 72.75337110742834,
        "B": 67.91893521243179,
        "G": 80.78743881859566,
        "I": 72.34124775565186,
        "C": 69.3586112025339,
        "D": 71.17062379303411,
        "E": 76.99913995969172
    },
    "Holding_per_stop": {
        "A": 10.9375,
        "H": 16.27659574468085,
        "L": 16.736842105263158,
        "J": 15,
        "K": 16.42105263157895,
        "F": 12.76595744680851,
        "B": 11.25,
        "I": 12.446808510638299,
        "G": 15,
        "C": 12.631578947368421,
        "D": 11.368421052631579,
        "E": 14.680851063829786
    },
    "Actions_tfl_edges": {
        "EF": [
            23,
            56,
            16
        ],
        "GH": [
            28,
            50,
            17
        ],
        "IJ": [
            23,
            53,
            19
        ],
        "JK": [
            25,
            56,
            14
        ],
        "KL": [
            30,
            53,
            13
        ],
        "LA": [
            25,
            55,
            16
        ],
        "AB": [
            23,
            56,
            17
        ],
        "HI": [
            28,
            53,
            13
        ],
        "FG": [
            33,
            48,
            13
        ],
        "BC": [
            27,
            55,
            14
        ],
        "CD": [
            31,
            51,
            13
        ],
        "DE": [
            26,
            52,
            17
        ]
    },
    "Load_per_bus_per_stop": {
        "bus5": {
            "A": 81.5625,
            "B": 81.5625,
            "C": 80.1875,
            "D": 80.625,
            "E": 80.5,
            "F": 79.3125,
            "G": 80.375,
            "H": 82,
            "I": 82.375,
            "J": 84.625,
            "K": 85.9375,
            "L": 86.8125
        },
        "bus1": {
            "H": 65.25,
            "I": 66,
            "J": 67.9375,
            "K": 68.75,
            "L": 70.375,
            "A": 70.0625,
            "B": 70.0625,
            "C": 68.4375,
            "D": 67.125,
            "E": 67,
            "F": 68.73333333333333,
            "G": 68.93333333333334
        },
        "bus0": {
            "F": 73.5625,
            "G": 75.375,
            "H": 75.625,
            "I": 77.625,
            "J": 76.75,
            "K": 75.0625,
            "L": 75,
            "A": 74.875,
            "B": 74.25,
            "C": 76.8,
            "D": 78.2,
            "E": 76.26666666666667
        },
        "bus4": {
            "L": 77,
            "A": 76.375,
            "B": 76.9375,
            "C": 77.625,
            "D": 79.3125,
            "E": 78.875,
            "F": 79,
            "G": 79.6875,
            "H": 78.625,
            "I": 76.9375,
            "J": 78.8125,
            "K": 80.6
        },
        "bus2": {
            "J": 88.75,
            "K": 90.9375,
            "L": 91.375,
            "A": 92.3125,
            "B": 92.1875,
            "C": 91,
            "D": 90.0625,
            "E": 90.5,
            "F": 94.1875,
            "G": 94.66666666666667,
            "H": 98.13333333333334,
            "I": 97.4
        },
        "bus3": {
            "K": 74.6875,
            "L": 75.9375,
            "A": 77.4375,
            "B": 77.6875,
            "C": 78.9375,
            "D": 78.4375,
            "E": 79.625,
            "F": 79.6875,
            "G": 81.3125,
            "H": 80.53333333333333,
            "I": 78.86666666666666,
            "J": 80
        }
    }
}33333333333,
            "J": 78.8,
            "K": 76.86666666666666,
            "L": 77.73333333333333
        }
    }
}