{
    "Average_holding_time": 15.335720680393912,
    "Average_travel_time_passengers": 2725.5735408401583,
    "Average_speed_busses": 0.04654166666666667,
    "Average_experienced_crowding": 81.02725006607369,
    "Average_covariation_headway": 0.24301136130336257,
    "Average_covariation_headway_stops": {
        "A": 0.17958022241054974,
        "H": 0.19402849954517057,
        "B": 0.18853953124589615,
        "C": 0.20349052434225776,
        "L": 0.1736535461641763,
        "G": 0.18264959017687368,
        "I": 0.15997560495153398,
        "D": 0.1769649632944728,
        "E": 0.18118494624878598,
        "J": 0.14996810340448277,
        "K": 0.16830272748970537,
        "F": 0.192073076963383
    },
    "Average_excess_waiting_time": {
        "A": 54.67693665503634,
        "H": 54.35249262160545,
        "B": 54.13447458222811,
        "C": 54.17896779930447,
        "L": 55.936154404556135,
        "G": 54.95739496291071,
        "I": 52.82627688095221,
        "D": 52.54516359506158,
        "E": 54.6914221209268,
        "J": 53.41850286943753,
        "K": 56.95065913928158,
        "F": 57.68842335026386
    },
    "Holding_per_stop": {
        "A": 9.03225806451613,
        "H": 18.19148936170213,
        "B": 10.32258064516129,
        "C": 18.51063829787234,
        "L": 16.956521739130434,
        "G": 12.903225806451612,
        "I": 14.838709677419354,
        "D": 11.170212765957446,
        "E": 18.387096774193548,
        "J": 17.419354838709676,
        "K": 17.934782608695652,
        "F": 18.387096774193548
    },
    "Actions_tfl_edges": {
        "AB": [
            34,
            60,
            0
        ],
        "BC": [
            41,
            53,
            0
        ],
        "FG": [
            39,
            55,
            0
        ],
        "GH": [
            44,
            50,
            0
        ],
        "KL": [
            43,
            50,
            0
        ],
        "LA": [
            51,
            42,
            0
        ],
        "HI": [
            39,
            55,
            0
        ],
        "CD": [
            42,
            52,
            0
        ],
        "IJ": [
            44,
            49,
            0
        ],
        "DE": [
            48,
            46,
            0
        ],
        "EF": [
            45,
            48,
            0
        ],
        "JK": [
            38,
            54,
            0
        ]
    },
    "Load_per_bus_per_stop": {
        "bus5": {
            "A": 70.9375,
            "B": 72.9375,
            "C": 74.3125,
            "D": 76.3125,
            "E": 77.1875,
            "F": 76.5625,
            "G": 74.2,
            "H": 75.26666666666667,
            "I": 76.46666666666667,
            "J": 77.13333333333334,
            "K": 78.66666666666667,
            "L": 76.86666666666666
        },
        "bus3": {
            "H": 77.625,
            "I": 79,
            "J": 79.9375,
            "K": 82.1875,
            "L": 82,
            "A": 81.75,
            "B": 82.75,
            "C": 85.13333333333334,
            "D": 83.33333333333333,
            "E": 82.8,
            "F": 84.06666666666666,
            "G": 83.2
        },
        "bus0": {
            "B": 73.3125,
            "C": 72.375,
            "D": 72.5625,
            "E": 72,
            "F": 71.25,
            "G": 71,
            "H": 71.375,
            "I": 75,
            "J": 77.73333333333333,
            "K": 78.2,
            "L": 78,
            "A": 78.4
        },
        "bus1": {
            "C": 83.625,
            "D": 84.875,
            "E": 83.8125,
            "F": 85.75,
            "G": 86.375,
            "H": 87.375,
            "I": 88,
            "J": 87.9375,
            "K": 87.2,
            "L": 88.13333333333334,
            "A": 88.53333333333333,
            "B": 89.8
        },
        "bus4": {
            "L": 79.25,
            "A": 79.5,
            "B": 78.9375,
            "C": 79.1875,
            "D": 79.625,
            "E": 79.26666666666667,
            "F": 79.6,
            "G": 80,
            "H": 81.73333333333333,
            "I": 81.26666666666667,
            "J": 82.13333333333334,
            "K": 83.66666666666667
        },
        "bus2": {
            "G": 74.8125,
            "H": 75.25,
            "I": 76.4375,
            "J": 77.4375,
            "K": 79.25,
            "L": 80.6,
            "A": 79.93333333333334,
            "B": 81.53333333333333,
            "C": 80.86666666666666,
            "D": 80.93333333333334,
            "E": 79.93333333333334,
            "F": 80.6
        }
    }
}