{
    "Average_holding_time": 17.069431920649233,
    "Average_travel_time_passengers": 2721.2031338340526,
    "Average_speed_busses": 0.04620833333333333,
    "Average_experienced_crowding": 80.67511906437227,
    "Average_covariation_headway": 0.2478848058354747,
    "Average_covariation_headway_stops": {
        "H": 0.21120114950848157,
        "D": 0.1878291691776923,
        "I": 0.19497029112920053,
        "C": 0.18692112745748302,
        "E": 0.18300033868418858,
        "L": 0.17156111362110366,
        "J": 0.1546796161638075,
        "A": 0.16600664854585045,
        "F": 0.18690035685294648,
        "B": 0.1718303062822214,
        "K": 0.15559476045671916,
        "G": 0.1990270066422246
    },
    "Average_excess_waiting_time": {
        "H": 60.50860564474499,
        "D": 57.10270633551659,
        "I": 56.648823649941335,
        "C": 58.93579018511451,
        "E": 55.471436317905386,
        "L": 55.44137945324866,
        "J": 54.22836954666616,
        "A": 56.78782907775769,
        "F": 57.19488851771678,
        "B": 58.99593321738905,
        "K": 55.76842183359582,
        "G": 60.817331389889546
    },
    "Holding_per_stop": {
        "I": 18.70967741935484,
        "D": 15.161290322580646,
        "E": 16.451612903225808,
        "L": 19.677419354838708,
        "H": 22.5,
        "C": 17.934782608695652,
        "J": 16.304347826086957,
        "A": 9.782608695652174,
        "F": 19.35483870967742,
        "B": 12.391304347826088,
        "K": 17.608695652173914,
        "G": 18.91304347826087
    },
    "Actions_tfl_edges": {
        "BC": [
            19,
            67,
            7
        ],
        "CD": [
            18,
            67,
            8
        ],
        "DE": [
            16,
            70,
            8
        ],
        "GH": [
            12,
            70,
            11
        ],
        "HI": [
            12,
            72,
            9
        ],
        "KL": [
            12,
            74,
            7
        ],
        "IJ": [
            13,
            72,
            8
        ],
        "EF": [
            18,
            65,
            10
        ],
        "LA": [
            16,
            67,
            9
        ],
        "JK": [
            15,
            71,
            6
        ],
        "AB": [
            18,
            66,
            8
        ],
        "FG": [
            19,
            64,
            10
        ]
    },
    "Load_per_bus_per_stop": {
        "bus3": {
            "H": 75.75,
            "I": 75.5,
            "J": 77.0625,
            "K": 77.75,
            "L": 77.5,
            "A": 75.53333333333333,
            "B": 76.73333333333333,
            "C": 74.93333333333334,
            "D": 74.53333333333333,
            "E": 75.33333333333333,
            "F": 77.13333333333334,
            "G": 80
        },
        "bus1": {
            "D": 80.0625,
            "E": 78.5625,
            "F": 77.0625,
            "G": 76.125,
            "H": 78.625,
            "I": 78.93333333333334,
            "J": 82.06666666666666,
            "K": 83.6,
            "L": 84.06666666666666,
            "A": 84.73333333333333,
            "B": 85.26666666666667,
            "C": 86.66666666666667
        },
        "bus4": {
            "I": 78.0625,
            "J": 78.25,
            "K": 77.9375,
            "L": 77.8125,
            "A": 80.0625,
            "B": 82.375,
            "C": 83.93333333333334,
            "D": 83.26666666666667,
            "E": 84.66666666666667,
            "F": 85.8,
            "G": 86.26666666666667,
            "H": 85.2
        },
        "bus0": {
            "C": 79.8125,
            "D": 80.3125,
            "E": 80.3125,
            "F": 81,
            "G": 81.4,
            "H": 81.86666666666666,
            "I": 83,
            "J": 82.6,
            "K": 81.73333333333333,
            "L": 81.33333333333333,
            "A": 82.4,
            "B": 82.4
        },
        "bus2": {
            "E": 71.6875,
            "F": 70.8125,
            "G": 69.9375,
            "H": 71.4375,
            "I": 72.1875,
            "J": 72.53333333333333,
            "K": 73.6,
            "L": 72.66666666666667,
            "A": 74,
            "B": 73.8,
            "C": 73.93333333333334,
            "D": 75.26666666666667
        },
        "bus5": {
            "L": 82.375,
            "A": 81.875,
            "B": 80.5625,
            "C": 82.4375,
            "D": 83.5,
            "E": 82.53333333333333,
            "F": 83.73333333333333,
            "G": 84.93333333333334,
            "H": 88.2,
            "I": 88.33333333333333,
            "J": 86.8,
            "K": 87.06666666666666
        }
    }
}