{
    "Average_holding_time": 16.75044883303411,
    "Average_travel_time_passengers": 2756.0234199165307,
    "Average_speed_busses": 0.04641666666666667,
    "Average_experienced_crowding": 81.51689837945506,
    "Average_covariation_headway": 0.25397411128555786,
    "Average_covariation_headway_stops": {
        "J": 0.17510536728289522,
        "E": 0.19373770658232584,
        "K": 0.17824403756681845,
        "D": 0.20171010945358492,
        "H": 0.17557602000928207,
        "L": 0.19031861188988244,
        "F": 0.15348420117387185,
        "I": 0.1727642936206627,
        "A": 0.17961731988696775,
        "G": 0.15836216597053243,
        "B": 0.1863977805480622,
        "C": 0.20386149516711244
    },
    "Average_excess_waiting_time": {
        "J": 54.52251871012561,
        "E": 55.51050150668971,
        "K": 52.387153427309045,
        "D": 58.26165570384859,
        "H": 54.99031031590175,
        "L": 53.15905401848897,
        "F": 52.6328914776463,
        "I": 56.034759297527216,
        "A": 53.008266079254724,
        "G": 55.16829537450383,
        "B": 55.4323825921939,
        "C": 59.57031174808549
    },
    "Holding_per_stop": {
        "E": 20.64516129032258,
        "K": 19.032258064516128,
        "J": 18.06451612903226,
        "L": 18.51063829787234,
        "H": 17.741935483870968,
        "D": 15.806451612903226,
        "F": 17.096774193548388,
        "A": 10.32258064516129,
        "I": 16.630434782608695,
        "G": 14.347826086956522,
        "B": 13.548387096774194,
        "C": 19.23913043478261
    },
    "Actions_tfl_edges": {
        "CD": [
            15,
            70,
            8
        ],
        "DE": [
            16,
            69,
            9
        ],
        "GH": [
            11,
            74,
            8
        ],
        "IJ": [
            14,
            71,
            8
        ],
        "JK": [
            14,
            76,
            4
        ],
        "KL": [
            17,
            69,
            8
        ],
        "EF": [
            19,
            65,
            9
        ],
        "LA": [
            14,
            73,
            7
        ],
        "HI": [
            9,
            73,
            11
        ],
        "FG": [
            18,
            67,
            8
        ],
        "AB": [
            14,
            67,
            12
        ],
        "BC": [
            21,
            66,
            6
        ]
    },
    "Load_per_bus_per_stop": {
        "bus3": {
            "J": 72.9375,
            "K": 72.25,
            "L": 74.0625,
            "A": 75.875,
            "B": 74.625,
            "C": 74.125,
            "D": 72,
            "E": 73,
            "F": 73.6,
            "G": 74.46666666666667,
            "H": 75.06666666666666,
            "I": 76.86666666666666
        },
        "bus1": {
            "E": 83.9375,
            "F": 85.0625,
            "G": 84.25,
            "H": 86.9375,
            "I": 89.0625,
            "J": 89,
            "K": 89.46666666666667,
            "L": 90.06666666666666,
            "A": 89.33333333333333,
            "B": 90.13333333333334,
            "C": 89.4,
            "D": 89.4
        },
        "bus4": {
            "K": 67.625,
            "L": 67.8125,
            "A": 67.4375,
            "B": 70.1875,
            "C": 70.5625,
            "D": 70.625,
            "E": 72.8,
            "F": 72.26666666666667,
            "G": 72.53333333333333,
            "H": 71.86666666666666,
            "I": 71.86666666666666,
            "J": 72.6
        },
        "bus0": {
            "D": 83.125,
            "E": 81.9375,
            "F": 83.6875,
            "G": 83.875,
            "H": 83.5,
            "I": 81.2,
            "J": 81.66666666666667,
            "K": 81.8,
            "L": 81.46666666666667,
            "A": 81.26666666666667,
            "B": 83.2,
            "C": 85.73333333333333
        },
        "bus2": {
            "H": 75.8125,
            "I": 77.5625,
            "J": 79.1875,
            "K": 79.9375,
            "L": 80.125,
            "A": 80.2,
            "B": 80.06666666666666,
            "C": 78.53333333333333,
            "D": 79.13333333333334,
            "E": 80.33333333333333,
            "F": 81,
            "G": 80.73333333333333
        },
        "bus5": {
            "L": 77.3125,
            "A": 81.875,
            "B": 82.9375,
            "C": 85,
            "D": 85.875,
            "E": 86.3125,
            "F": 86.5,
            "G": 84.86666666666666,
            "H": 85.2,
            "I": 82.93333333333334,
            "J": 80.8,
            "K": 82.13333333333334
        }
    }
}