{
    "Average_holding_time": 10.55603822762815,
    "Average_travel_time_passengers": 2637.5358265048576,
    "Average_speed_busses": 0.04795833333333333,
    "Average_experienced_crowding": 79.37994620127972,
    "Average_covariation_headway": 0.32081268499162807,
    "Average_covariation_headway_stops": {
        "C": 0.2407712617584582,
        "E": 0.2382127151661272,
        "A": 0.23904025278566352,
        "L": 0.2259827357472105,
        "I": 0.23410755318855037,
        "H": 0.21839259236535033,
        "F": 0.22135729643228913,
        "B": 0.21683327890389226,
        "D": 0.23538480308172652,
        "J": 0.21475189443113227,
        "G": 0.20183092125351415,
        "K": 0.2241438957270172
    },
    "Average_excess_waiting_time": {
        "C": 50.47952288790083,
        "E": 50.37298973846799,
        "A": 50.204239371262986,
        "L": 50.259917519025976,
        "I": 50.17708196554196,
        "H": 49.79011956380907,
        "F": 49.733402778698746,
        "B": 48.63539069007277,
        "D": 51.04785617124048,
        "J": 49.184638794631155,
        "G": 48.71277514703473,
        "K": 51.71848648191411
    },
    "Holding_per_stop": {
        "C": 12.371134020618557,
        "A": 10.9375,
        "E": 6.875,
        "L": 19.375,
        "I": 10,
        "H": 11.5625,
        "D": 7.8125,
        "F": 10.3125,
        "B": 8.4375,
        "J": 9.0625,
        "G": 9.157894736842104,
        "K": 10.736842105263158
    },
    "Actions_tfl_edges": {
        "BC": [
            29,
            55,
            13
        ],
        "DE": [
            25,
            57,
            15
        ],
        "GH": [
            30,
            53,
            13
        ],
        "HI": [
            29,
            56,
            12
        ],
        "KL": [
            26,
            61,
            9
        ],
        "LA": [
            31,
            55,
            11
        ],
        "CD": [
            26,
            57,
            14
        ],
        "AB": [
            29,
            55,
            12
        ],
        "EF": [
            29,
            50,
            17
        ],
        "IJ": [
            34,
            49,
            13
        ],
        "FG": [
            29,
            53,
            14
        ],
        "JK": [
            30,
            55,
            11
        ]
    },
    "Load_per_bus_per_stop": {
        "bus0": {
            "C": 73.3529411764706,
            "D": 74.5,
            "E": 74.6875,
            "F": 74.25,
            "G": 74.625,
            "H": 75.9375,
            "I": 77.125,
            "J": 77.75,
            "K": 77.9375,
            "L": 78.75,
            "A": 78.25,
            "B": 79.375
        },
        "bus1": {
            "E": 77.23529411764706,
            "F": 78.6875,
            "G": 78.3125,
            "H": 77.4375,
            "I": 77,
            "J": 77.6875,
            "K": 78.3125,
            "L": 77.6875,
            "A": 77.625,
            "B": 78.9375,
            "C": 79.4375,
            "D": 79.25
        },
        "bus5": {
            "A": 77.625,
            "B": 77.6875,
            "C": 79.1875,
            "D": 79.75,
            "E": 79.8125,
            "F": 81.6875,
            "G": 82.8125,
            "H": 81.0625,
            "I": 80.8125,
            "J": 81.5625,
            "K": 83.5625,
            "L": 82.25
        },
        "bus4": {
            "L": 72.625,
            "A": 70.9375,
            "B": 71.6875,
            "C": 72.875,
            "D": 73.6875,
            "E": 73.4375,
            "F": 73.5,
            "G": 73.9375,
            "H": 73.9375,
            "I": 75.1875,
            "J": 76.25,
            "K": 75.8
        },
        "bus3": {
            "I": 73.6875,
            "J": 76.125,
            "K": 76.4375,
            "L": 78.4375,
            "A": 78,
            "B": 78.25,
            "C": 79.1875,
            "D": 79.625,
            "E": 81.1875,
            "F": 80.75,
            "G": 82.125,
            "H": 79.9375
        },
        "bus2": {
            "H": 71.375,
            "I": 70.625,
            "J": 72.125,
            "K": 72.875,
            "L": 73.875,
            "A": 72.875,
            "B": 71.9375,
            "C": 73,
            "D": 70.4375,
            "E": 70.25,
            "F": 72.5625,
            "G": 72.5
        }
    }
}