{
    "Average_holding_time": 17.246636771300448,
    "Average_travel_time_passengers": 2736.7851049830383,
    "Average_speed_busses": 0.04645833333333333,
    "Average_experienced_crowding": 82.80344837380747,
    "Average_covariation_headway": 0.30219284275762603,
    "Average_covariation_headway_stops": {
        "A": 0.27373856712906675,
        "L": 0.289895912131352,
        "C": 0.25889371668514405,
        "F": 0.22333444706666822,
        "K": 0.2686304106301739,
        "B": 0.2622877454453719,
        "D": 0.22426727471150093,
        "G": 0.21799681894015313,
        "E": 0.22628592944776668,
        "H": 0.22133328008042666,
        "I": 0.23305988820716153,
        "J": 0.2444786051018019
    },
    "Average_excess_waiting_time": {
        "A": 68.1475103352953,
        "L": 72.77700803206318,
        "C": 61.73844420597675,
        "F": 57.89025737957155,
        "K": 71.44970799352825,
        "B": 64.08971261153448,
        "D": 58.468480354603514,
        "G": 59.557676177337214,
        "E": 60.641357944819276,
        "H": 61.72756127189035,
        "I": 65.75769364194934,
        "J": 69.31388279633654
    },
    "Holding_per_stop": {
        "C": 16.27659574468085,
        "A": 11.290322580645162,
        "F": 15.957446808510639,
        "K": 20.217391304347824,
        "L": 20.543478260869566,
        "B": 13.404255319148936,
        "D": 13.085106382978724,
        "G": 21.29032258064516,
        "E": 21.93548387096774,
        "H": 18.70967741935484,
        "I": 16.304347826086957,
        "J": 18.13186813186813
    },
    "Actions_tfl_edges": {
        "AB": [
            15,
            64,
            15
        ],
        "BC": [
            15,
            68,
            12
        ],
        "EF": [
            14,
            72,
            8
        ],
        "JK": [
            18,
            65,
            9
        ],
        "KL": [
            14,
            67,
            12
        ],
        "LA": [
            11,
            66,
            16
        ],
        "CD": [
            21,
            62,
            11
        ],
        "FG": [
            16,
            69,
            9
        ],
        "DE": [
            21,
            65,
            8
        ],
        "GH": [
            17,
            65,
            11
        ],
        "HI": [
            13,
            68,
            12
        ],
        "IJ": [
            8,
            73,
            11
        ]
    },
    "Load_per_bus_per_stop": {
        "bus5": {
            "A": 73.875,
            "B": 73.6875,
            "C": 73.6875,
            "D": 74.1875,
            "E": 76,
            "F": 77.8125,
            "G": 79.93333333333334,
            "H": 80.53333333333333,
            "I": 81,
            "J": 80.4,
            "K": 79.6,
            "L": 78.06666666666666
        },
        "bus4": {
            "L": 74.125,
            "A": 72.875,
            "B": 74.9375,
            "C": 75.8125,
            "D": 75.625,
            "E": 76.26666666666667,
            "F": 78,
            "G": 77.73333333333333,
            "H": 77.93333333333334,
            "I": 79.93333333333334,
            "J": 79.26666666666667,
            "K": 79.2
        },
        "bus1": {
            "C": 79.1875,
            "D": 79.875,
            "E": 81.75,
            "F": 82.1875,
            "G": 83.1875,
            "H": 84.4375,
            "I": 84.0625,
            "J": 83.9375,
            "K": 82.13333333333334,
            "L": 83.13333333333334,
            "A": 83.26666666666667,
            "B": 82.6
        },
        "bus2": {
            "F": 78.9375,
            "G": 79.3125,
            "H": 79.5,
            "I": 81.75,
            "J": 82.5625,
            "K": 84.8125,
            "L": 86.33333333333333,
            "A": 87.26666666666667,
            "B": 85.33333333333333,
            "C": 83.66666666666667,
            "D": 84.93333333333334,
            "E": 84.66666666666667
        },
        "bus3": {
            "K": 79,
            "L": 79.25,
            "A": 80.1875,
            "B": 79.125,
            "C": 79.93333333333334,
            "D": 79.4,
            "E": 79.2,
            "F": 82.06666666666666,
            "G": 80.46666666666667,
            "H": 82.26666666666667,
            "I": 84.6,
            "J": 82.33333333333333
        },
        "bus0": {
            "B": 75.5,
            "C": 72.6875,
            "D": 73.0625,
            "E": 73.9375,
            "F": 73.3125,
            "G": 73.8125,
            "H": 75.6875,
            "I": 79.53333333333333,
            "J": 79.33333333333333,
            "K": 80.86666666666666,
            "L": 79.93333333333334,
            "A": 80.06666666666666
        }
    }
}