{
    "Average_holding_time": 9.956559513466551,
    "Average_travel_time_passengers": 2680.7530221416996,
    "Average_speed_busses": 0.04795833333333333,
    "Average_experienced_crowding": 80.43636817540883,
    "Average_covariation_headway": 0.293950409551456,
    "Average_covariation_headway_stops": {
        "H": 0.2129521907383712,
        "D": 0.19600701665035355,
        "F": 0.21501193839644908,
        "K": 0.22239150211373807,
        "I": 0.21710708802182593,
        "A": 0.1978727058695524,
        "G": 0.2017575782499208,
        "B": 0.19218698038300827,
        "J": 0.21680015244144848,
        "E": 0.1981981646632833,
        "L": 0.21043904098197527,
        "C": 0.19507119149840382
    },
    "Average_excess_waiting_time": {
        "H": 47.93920149756855,
        "D": 45.515773798200144,
        "F": 48.281432475381166,
        "K": 48.631911993387575,
        "I": 47.20899778808558,
        "A": 45.7499004237597,
        "G": 48.24598584227607,
        "B": 47.33700526549569,
        "J": 49.39892808598711,
        "E": 47.98657738474975,
        "L": 48.67152103638779,
        "C": 46.82783316178296
    },
    "Holding_per_stop": {
        "F": 10.9375,
        "K": 15.625,
        "I": 6.804123711340206,
        "A": 6.875,
        "H": 9.6875,
        "D": 8.125,
        "B": 8.4375,
        "J": 12.5,
        "G": 9.0625,
        "E": 9.157894736842104,
        "L": 12.8125,
        "C": 9.473684210526315
    },
    "Actions_tfl_edges": {
        "CD": [
            32,
            52,
            12
        ],
        "EF": [
            35,
            45,
            16
        ],
        "GH": [
            33,
            51,
            13
        ],
        "HI": [
            28,
            51,
            18
        ],
        "JK": [
            38,
            44,
            15
        ],
        "LA": [
            35,
            46,
            16
        ],
        "FG": [
            30,
            56,
            10
        ],
        "KL": [
            35,
            49,
            12
        ],
        "IJ": [
            32,
            51,
            14
        ],
        "AB": [
            26,
            52,
            18
        ],
        "DE": [
            36,
            47,
            13
        ],
        "BC": [
            33,
            52,
            11
        ]
    },
    "Load_per_bus_per_stop": {
        "bus2": {
            "H": 71.125,
            "I": 70.9375,
            "J": 72.125,
            "K": 72.8125,
            "L": 72.5,
            "A": 73.125,
            "B": 73.3125,
            "C": 74.6875,
            "D": 75.6875,
            "E": 76.875,
            "F": 76,
            "G": 74.6875
        },
        "bus0": {
            "D": 85.25,
            "E": 86.3125,
            "F": 84.75,
            "G": 84.125,
            "H": 84.4375,
            "I": 84.5,
            "J": 84.6875,
            "K": 85.5625,
            "L": 86.0625,
            "A": 86.8125,
            "B": 87.6875,
            "C": 86.6
        },
        "bus1": {
            "F": 72.125,
            "G": 73.4375,
            "H": 74.4375,
            "I": 74.0625,
            "J": 73.8125,
            "K": 75.625,
            "L": 75.875,
            "A": 76,
            "B": 77.25,
            "C": 78.0625,
            "D": 78.875,
            "E": 77.3125
        },
        "bus4": {
            "K": 74.1875,
            "L": 73.6875,
            "A": 71.6875,
            "B": 73,
            "C": 75.125,
            "D": 75.625,
            "E": 74.9375,
            "F": 76.375,
            "G": 77.0625,
            "H": 77.4375,
            "I": 80.75,
            "J": 82.6875
        },
        "bus3": {
            "I": 70.11764705882354,
            "J": 70.5,
            "K": 69.25,
            "L": 69,
            "A": 69.9375,
            "B": 70.125,
            "C": 69.5625,
            "D": 69.6875,
            "E": 71.5,
            "F": 72.875,
            "G": 74.875,
            "H": 75.4375
        },
        "bus5": {
            "A": 82.8125,
            "B": 82.9375,
            "C": 87.4375,
            "D": 87.9375,
            "E": 87.375,
            "F": 87.9375,
            "G": 87,
            "H": 87.5625,
            "I": 87.875,
            "J": 89.0625,
            "K": 91.4375,
            "L": 90.6875
        }
    }
}