{
    "Average_holding_time": 17.605760576057605,
    "Average_travel_time_passengers": 2760.0738658239816,
    "Average_speed_busses": 0.04629166666666667,
    "Average_experienced_crowding": 84.73350401235122,
    "Average_covariation_headway": 0.3362821132298878,
    "Average_covariation_headway_stops": {
        "I": 0.2535607581457264,
        "J": 0.2535060997860683,
        "H": 0.26356847492206237,
        "F": 0.25886625547656006,
        "B": 0.23824257265574114,
        "L": 0.24432856727728922,
        "K": 0.24180830043739934,
        "C": 0.23971080508920037,
        "G": 0.24570349447113563,
        "A": 0.22673221616205624,
        "D": 0.2651357409322991,
        "E": 0.26163483382134345
    },
    "Average_excess_waiting_time": {
        "I": 66.12208226357177,
        "J": 64.09327110829156,
        "H": 69.42729197317095,
        "F": 68.38244171017169,
        "B": 61.50286051048465,
        "L": 62.77221503940018,
        "K": 63.873521245206234,
        "C": 63.8779253018572,
        "G": 67.8716738053588,
        "A": 62.34610115304764,
        "D": 69.39566351358206,
        "E": 70.86307603491036
    },
    "Holding_per_stop": {
        "I": 17.419354838709676,
        "J": 16.774193548387096,
        "B": 14.838709677419354,
        "L": 23.225806451612904,
        "H": 16.630434782608695,
        "F": 19.891304347826086,
        "K": 21.93548387096774,
        "C": 20.322580645161292,
        "A": 9.67741935483871,
        "D": 14.347826086956522,
        "G": 18.26086956521739,
        "E": 17.934782608695652
    },
    "Actions_tfl_edges": {
        "AB": [
            24,
            56,
            14
        ],
        "EF": [
            19,
            64,
            10
        ],
        "GH": [
            23,
            59,
            11
        ],
        "HI": [
            13,
            70,
            10
        ],
        "IJ": [
            14,
            68,
            12
        ],
        "KL": [
            22,
            63,
            9
        ],
        "JK": [
            19,
            67,
            7
        ],
        "BC": [
            26,
            55,
            12
        ],
        "LA": [
            16,
            69,
            8
        ],
        "FG": [
            16,
            64,
            12
        ],
        "CD": [
            21,
            61,
            11
        ],
        "DE": [
            19,
            60,
            13
        ]
    },
    "Load_per_bus_per_stop": {
        "bus3": {
            "I": 86,
            "J": 86.9375,
            "K": 88,
            "L": 86.375,
            "A": 87.25,
            "B": 88.4,
            "C": 88.53333333333333,
            "D": 87.8,
            "E": 89.53333333333333,
            "F": 88.26666666666667,
            "G": 89,
            "H": 92.33333333333333
        },
        "bus4": {
            "J": 85.5625,
            "K": 86.1875,
            "L": 86.3125,
            "A": 87.1875,
            "B": 88.5,
            "C": 89.0625,
            "D": 88.6,
            "E": 89.6,
            "F": 90.2,
            "G": 91.6,
            "H": 91.66666666666667,
            "I": 90.53333333333333
        },
        "bus2": {
            "H": 74.0625,
            "I": 74.0625,
            "J": 75.375,
            "K": 76.625,
            "L": 77.8,
            "A": 77.46666666666667,
            "B": 76.13333333333334,
            "C": 77.73333333333333,
            "D": 78.86666666666666,
            "E": 80.4,
            "F": 78.66666666666667,
            "G": 79
        },
        "bus1": {
            "F": 68.5625,
            "G": 69.9375,
            "H": 68.6875,
            "I": 68.1875,
            "J": 68.8,
            "K": 69.66666666666667,
            "L": 68.46666666666667,
            "A": 68.06666666666666,
            "B": 70.53333333333333,
            "C": 72.13333333333334,
            "D": 72.2,
            "E": 72.4
        },
        "bus0": {
            "B": 73.625,
            "C": 73.125,
            "D": 74.5,
            "E": 73.4375,
            "F": 73.25,
            "G": 73,
            "H": 73.26666666666667,
            "I": 76.66666666666667,
            "J": 77.73333333333333,
            "K": 79.06666666666666,
            "L": 79,
            "A": 79.86666666666666
        },
        "bus5": {
            "L": 82.5625,
            "A": 82.1875,
            "B": 82.6875,
            "C": 82.0625,
            "D": 84.0625,
            "E": 85.0625,
            "F": 85.8,
            "G": 87.13333333333334,
            "H": 86.6,
            "I": 87.33333333333333,
            "J": 87.93333333333334,
            "K": 87.4
        }
    }
}