{
    "Average_holding_time": 19.226666666666667,
    "Average_travel_time_passengers": 2748.4216088056032,
    "Average_speed_busses": 0.046875,
    "Average_experienced_crowding": 84.64673590763262,
    "Average_covariation_headway": 0.38576473735894,
    "Average_covariation_headway_stops": {
        "H": 0.29286377477130404,
        "F": 0.3393820513667432,
        "G": 0.3048464983139509,
        "B": 0.315059973199366,
        "C": 0.3206634946425892,
        "E": 0.3355970989316692,
        "I": 0.2722236083234909,
        "D": 0.31745101964702394,
        "J": 0.2534969051851216,
        "K": 0.26195075865729706,
        "L": 0.2757824370847633,
        "A": 0.2979736913515736
    },
    "Average_excess_waiting_time": {
        "H": 65.49141056878466,
        "F": 76.04756954069393,
        "G": 68.54006689689726,
        "B": 74.52215640267656,
        "C": 73.61740416839456,
        "E": 78.06376111220538,
        "I": 62.05093091302746,
        "D": 76.12275778155089,
        "J": 61.33170769284084,
        "K": 64.5638766330361,
        "L": 67.33869249680345,
        "A": 73.80981236433212
    },
    "Holding_per_stop": {
        "H": 18,
        "F": 23.93617021276596,
        "G": 18,
        "C": 25.851063829787233,
        "B": 18.06451612903226,
        "I": 20.425531914893618,
        "E": 22.340425531914892,
        "D": 22.258064516129032,
        "J": 19.78723404255319,
        "K": 15.806451612903226,
        "L": 17.419354838709676,
        "A": 8.709677419354838
    },
    "Actions_tfl_edges": {
        "AB": [
            47,
            46,
            1
        ],
        "BC": [
            51,
            42,
            1
        ],
        "DE": [
            52,
            41,
            1
        ],
        "EF": [
            52,
            42,
            1
        ],
        "FG": [
            47,
            47,
            1
        ],
        "GH": [
            55,
            39,
            1
        ],
        "HI": [
            57,
            37,
            1
        ],
        "CD": [
            52,
            41,
            1
        ],
        "IJ": [
            50,
            44,
            0
        ],
        "JK": [
            60,
            34,
            0
        ],
        "KL": [
            48,
            45,
            0
        ],
        "LA": [
            47,
            45,
            1
        ]
    },
    "Load_per_bus_per_stop": {
        "bus5": {
            "H": 83,
            "I": 82.8125,
            "J": 83.1875,
            "K": 82.125,
            "L": 83.5625,
            "A": 83.875,
            "B": 83.5625,
            "C": 84.875,
            "D": 85.1875,
            "E": 85,
            "F": 86.8,
            "G": 87.6
        },
        "bus3": {
            "F": 70.5625,
            "G": 72.4375,
            "H": 73.625,
            "I": 75.75,
            "J": 76.1875,
            "K": 75.5625,
            "L": 74.125,
            "A": 76.3125,
            "B": 77.53333333333333,
            "C": 75.86666666666666,
            "D": 74.6,
            "E": 74.13333333333334
        },
        "bus4": {
            "G": 71.0625,
            "H": 71.5,
            "I": 74.375,
            "J": 77.4375,
            "K": 76.3125,
            "L": 78.25,
            "A": 78.375,
            "B": 77,
            "C": 76.5625,
            "D": 74.2,
            "E": 75.33333333333333,
            "F": 74.2
        },
        "bus0": {
            "B": 78.1875,
            "C": 77,
            "D": 76.1875,
            "E": 77.1875,
            "F": 76.3125,
            "G": 77,
            "H": 79.2,
            "I": 77.53333333333333,
            "J": 76.86666666666666,
            "K": 79.53333333333333,
            "L": 81,
            "A": 82.93333333333334
        },
        "bus1": {
            "C": 80.75,
            "D": 78.8125,
            "E": 80.8125,
            "F": 80.75,
            "G": 82,
            "H": 84.625,
            "I": 84,
            "J": 86.13333333333334,
            "K": 85.73333333333333,
            "L": 87.46666666666667,
            "A": 88.46666666666667,
            "B": 87.26666666666667
        },
        "bus2": {
            "E": 80.4375,
            "F": 80.75,
            "G": 82.375,
            "H": 83.1875,
            "I": 82.1875,
            "J": 82.4375,
            "K": 83.4375,
            "L": 82.66666666666667,
            "A": 84.26666666666667,
            "B": 83.66666666666667,
            "C": 83.8,
            "D": 82.73333333333333
        }
    }
}      "F": 73.8
        }
    }
}