{
    "Average_holding_time": 11.181581233709817,
    "Average_travel_time_passengers": 2656.8732784144636,
    "Average_speed_busses": 0.04795833333333333,
    "Average_experienced_crowding": 79.99529184202075,
    "Average_covariation_headway": 0.32496654068834147,
    "Average_covariation_headway_stops": {
        "E": 0.23727766506786566,
        "J": 0.2425708630670111,
        "G": 0.23745232907455976,
        "C": 0.24104787218865792,
        "I": 0.21868931881457312,
        "B": 0.2448055338149137,
        "K": 0.24605991194519478,
        "F": 0.21394457867460584,
        "D": 0.2387510121082213,
        "H": 0.2147235948501956,
        "L": 0.23358736468647476,
        "A": 0.2399214118659879
    },
    "Average_excess_waiting_time": {
        "E": 51.34970535124478,
        "J": 50.46911197023701,
        "G": 51.316384980218004,
        "C": 52.241563212573794,
        "I": 48.72264213451558,
        "B": 54.69645243887868,
        "K": 52.928492226547405,
        "F": 50.05324554810704,
        "D": 53.28804359463783,
        "H": 49.69825329651064,
        "L": 52.68136655290755,
        "A": 55.80023760251328
    },
    "Holding_per_stop": {
        "J": 9.896907216494846,
        "E": 11.5625,
        "C": 10.625,
        "G": 12.1875,
        "I": 9.6875,
        "B": 7.2631578947368425,
        "K": 15.625,
        "D": 13.4375,
        "F": 10.9375,
        "H": 9.6875,
        "L": 14.375,
        "A": 8.842105263157896
    },
    "Actions_tfl_edges": {
        "AB": [
            29,
            51,
            16
        ],
        "BC": [
            26,
            56,
            14
        ],
        "DE": [
            23,
            58,
            16
        ],
        "FG": [
            31,
            54,
            12
        ],
        "HI": [
            25,
            56,
            16
        ],
        "IJ": [
            32,
            51,
            14
        ],
        "JK": [
            36,
            47,
            14
        ],
        "EF": [
            31,
            51,
            14
        ],
        "CD": [
            32,
            52,
            12
        ],
        "GH": [
            26,
            54,
            16
        ],
        "KL": [
            33,
            52,
            11
        ],
        "LA": [
            33,
            49,
            14
        ]
    },
    "Load_per_bus_per_stop": {
        "bus2": {
            "E": 74.875,
            "F": 75.8125,
            "G": 76.0625,
            "H": 76.125,
            "I": 77.375,
            "J": 79.3125,
            "K": 81.125,
            "L": 81.1875,
            "A": 81.75,
            "B": 83.1875,
            "C": 83,
            "D": 82.375
        },
        "bus5": {
            "J": 73.88235294117646,
            "K": 72.0625,
            "L": 72.375,
            "A": 73.625,
            "B": 73.375,
            "C": 72.75,
            "D": 72.875,
            "E": 72.25,
            "F": 72.875,
            "G": 74.0625,
            "H": 76.6875,
            "I": 77.875
        },
        "bus3": {
            "G": 74.3125,
            "H": 75.0625,
            "I": 75.625,
            "J": 75.125,
            "K": 74.6875,
            "L": 75.0625,
            "A": 77.25,
            "B": 78,
            "C": 78.1875,
            "D": 78.1875,
            "E": 79.875,
            "F": 79.6875
        },
        "bus1": {
            "C": 74.375,
            "D": 74.25,
            "E": 75.6875,
            "F": 76.5,
            "G": 78.25,
            "H": 79.125,
            "I": 78.75,
            "J": 78.375,
            "K": 80.8125,
            "L": 82.125,
            "A": 80.5,
            "B": 79.6
        },
        "bus4": {
            "I": 66.9375,
            "J": 67.375,
            "K": 69.3125,
            "L": 69.0625,
            "A": 70.5,
            "B": 71.0625,
            "C": 71.125,
            "D": 70.4375,
            "E": 71,
            "F": 71.8125,
            "G": 70.5625,
            "H": 71.5625
        },
        "bus0": {
            "B": 81.4375,
            "C": 81.4375,
            "D": 82,
            "E": 82.375,
            "F": 82.875,
            "G": 83.6875,
            "H": 84.75,
            "I": 83.875,
            "J": 86.375,
            "K": 85.4375,
            "L": 86.5,
            "A": 89
        }
    }
}