{
    "Average_holding_time": 11.672535211267606,
    "Average_travel_time_passengers": 2719.2774094874653,
    "Average_speed_busses": 0.04733333333333333,
    "Average_experienced_crowding": 80.84999302420935,
    "Average_covariation_headway": 0.3388250104654371,
    "Average_covariation_headway_stops": {
        "C": 0.2519962364391788,
        "K": 0.25707568923415747,
        "E": 0.25618023290793224,
        "A": 0.2544113646459365,
        "D": 0.24768225876935537,
        "H": 0.24988882258677678,
        "F": 0.2468065092396655,
        "B": 0.2516727592213656,
        "I": 0.24592557445543772,
        "L": 0.2353916730834083,
        "G": 0.2502578526180946,
        "J": 0.24848859326800962
    },
    "Average_excess_waiting_time": {
        "C": 59.524615004312636,
        "K": 59.44119467596374,
        "E": 56.10101663999092,
        "A": 59.14635018072619,
        "D": 57.60053474371284,
        "H": 56.71156932054447,
        "F": 56.46837522890223,
        "B": 61.983390353859136,
        "I": 57.61820736309153,
        "L": 57.83397356332324,
        "G": 58.41201473887588,
        "J": 60.10822655872755
    },
    "Holding_per_stop": {
        "E": 11.68421052631579,
        "A": 8.210526315789474,
        "D": 11.68421052631579,
        "H": 11.68421052631579,
        "K": 16.105263157894736,
        "C": 13.404255319148936,
        "F": 9.789473684210526,
        "B": 12.127659574468085,
        "I": 11.052631578947368,
        "L": 10.851063829787234,
        "G": 9.789473684210526,
        "J": 13.72340425531915
    },
    "Actions_tfl_edges": {
        "BC": [
            31,
            53,
            11
        ],
        "CD": [
            28,
            53,
            14
        ],
        "DE": [
            35,
            47,
            14
        ],
        "GH": [
            38,
            47,
            11
        ],
        "JK": [
            40,
            44,
            11
        ],
        "LA": [
            37,
            47,
            11
        ],
        "EF": [
            32,
            48,
            15
        ],
        "AB": [
            32,
            47,
            16
        ],
        "HI": [
            38,
            49,
            8
        ],
        "KL": [
            39,
            45,
            11
        ],
        "FG": [
            35,
            48,
            12
        ],
        "IJ": [
            40,
            48,
            7
        ]
    },
    "Load_per_bus_per_stop": {
        "bus0": {
            "C": 74.25,
            "D": 72.1875,
            "E": 72.875,
            "F": 73.6875,
            "G": 76.375,
            "H": 76.75,
            "I": 75.8125,
            "J": 77.0625,
            "K": 76.125,
            "L": 78,
            "A": 76.73333333333333,
            "B": 77.93333333333334
        },
        "bus4": {
            "K": 74,
            "L": 74.875,
            "A": 74.9375,
            "B": 75.0625,
            "C": 78.5,
            "D": 79.5625,
            "E": 79.875,
            "F": 80.3125,
            "G": 79.8125,
            "H": 79.86666666666666,
            "I": 78.6,
            "J": 78
        },
        "bus2": {
            "E": 72.0625,
            "F": 74,
            "G": 75.5625,
            "H": 75,
            "I": 75.1875,
            "J": 77,
            "K": 78,
            "L": 79.8125,
            "A": 78.4375,
            "B": 78.1875,
            "C": 77.13333333333334,
            "D": 76.46666666666667
        },
        "bus5": {
            "A": 73.8125,
            "B": 74.1875,
            "C": 75.6875,
            "D": 75.375,
            "E": 75,
            "F": 75.0625,
            "G": 75.625,
            "H": 76.5625,
            "I": 78.25,
            "J": 78.86666666666666,
            "K": 79.8,
            "L": 79.33333333333333
        },
        "bus1": {
            "D": 79.8125,
            "E": 78.3125,
            "F": 78.3125,
            "G": 79.25,
            "H": 80.5,
            "I": 79.625,
            "J": 78.6875,
            "K": 76.8125,
            "L": 77.1875,
            "A": 76.8125,
            "B": 79.8,
            "C": 81.8
        },
        "bus3": {
            "H": 79.8125,
            "I": 81.5,
            "J": 80,
            "K": 80.6875,
            "L": 81.0625,
            "A": 80.8125,
            "B": 82.5625,
            "C": 84.375,
            "D": 84.1875,
            "E": 83.33333333333333,
            "F": 85.53333333333333,
            "G": 84.13333333333334
        }
    }
}