{
    "Average_holding_time": 17.718665464382326,
    "Average_travel_time_passengers": 2853.059028304087,
    "Average_speed_busses": 0.04620833333333333,
    "Average_experienced_crowding": 100.19378597522774,
    "Average_covariation_headway": 0.5712586823169671,
    "Average_covariation_headway_stops": {
        "H": 0.5123731216897497,
        "K": 0.5240069721175343,
        "G": 0.5135206316229175,
        "A": 0.5021302905839153,
        "I": 0.5241460589854212,
        "J": 0.521795486598507,
        "L": 0.5074733709422421,
        "B": 0.48104041685393034,
        "C": 0.47938909130022517,
        "D": 0.4765014048545826,
        "E": 0.4919818584683924,
        "F": 0.5105873467583385
    },
    "Average_excess_waiting_time": {
        "H": 131.8981507666216,
        "K": 129.0233766121516,
        "G": 134.00571610513248,
        "A": 122.43947579090747,
        "I": 133.9197920083522,
        "J": 130.23479712364644,
        "L": 126.04981229582268,
        "B": 119.46963029360518,
        "C": 120.89564953729291,
        "D": 122.13613522483615,
        "E": 127.2963322710142,
        "F": 135.72158857372068
    },
    "Holding_per_stop": {
        "K": 22.97872340425532,
        "H": 18.58695652173913,
        "A": 14.042553191489361,
        "I": 19.23913043478261,
        "G": 16.304347826086957,
        "J": 20,
        "L": 20.322580645161292,
        "B": 13.870967741935484,
        "C": 15.326086956521738,
        "D": 16.956521739130434,
        "E": 15.494505494505495,
        "F": 19.45054945054945
    },
    "Actions_tfl_edges": {
        "FG": [
            27,
            47,
            18
        ],
        "GH": [
            25,
            49,
            19
        ],
        "HI": [
            31,
            48,
            14
        ],
        "IJ": [
            25,
            51,
            17
        ],
        "JK": [
            22,
            55,
            17
        ],
        "LA": [
            26,
            50,
            18
        ],
        "KL": [
            25,
            53,
            16
        ],
        "AB": [
            27,
            46,
            20
        ],
        "BC": [
            31,
            48,
            14
        ],
        "CD": [
            29,
            51,
            12
        ],
        "DE": [
            29,
            48,
            15
        ],
        "EF": [
            29,
            45,
            17
        ]
    },
    "Load_per_bus_per_stop": {
        "bus1": {
            "H": 81.5,
            "I": 82.25,
            "J": 83.25,
            "K": 84.1875,
            "L": 84,
            "A": 85.13333333333334,
            "B": 85.2,
            "C": 85.93333333333334,
            "D": 85.8,
            "E": 85.33333333333333,
            "F": 86.93333333333334,
            "G": 86.53333333333333
        },
        "bus4": {
            "K": 47.75,
            "L": 48.25,
            "A": 49.5,
            "B": 49.125,
            "C": 50.5,
            "D": 50.1875,
            "E": 47.53333333333333,
            "F": 47.93333333333333,
            "G": 48.4,
            "H": 48.86666666666667,
            "I": 48.733333333333334,
            "J": 49.6
        },
        "bus0": {
            "G": 99.5625,
            "H": 100.1875,
            "I": 100.625,
            "J": 101.66666666666667,
            "K": 101.33333333333333,
            "L": 103.46666666666667,
            "A": 104.2,
            "B": 103.33333333333333,
            "C": 104.33333333333333,
            "D": 103.4,
            "E": 104.6,
            "F": 105.13333333333334
        },
        "bus5": {
            "A": 116,
            "B": 113.4375,
            "C": 110.6875,
            "D": 112.25,
            "E": 114.8125,
            "F": 115.0625,
            "G": 116.3125,
            "H": 121,
            "I": 121.6,
            "J": 122.26666666666667,
            "K": 124.46666666666667,
            "L": 124.86666666666666
        },
        "bus2": {
            "I": 68.125,
            "J": 66.6875,
            "K": 66,
            "L": 67.25,
            "A": 68.75,
            "B": 68.26666666666667,
            "C": 68.4,
            "D": 69.2,
            "E": 69.4,
            "F": 69.53333333333333,
            "G": 72.06666666666666,
            "H": 73.73333333333333
        },
        "bus3": {
            "J": 59.75,
            "K": 59.875,
            "L": 60.625,
            "A": 59.875,
            "B": 61.1875,
            "C": 59.4,
            "D": 60.266666666666666,
            "E": 62.46666666666667,
            "F": 62,
            "G": 62.666666666666664,
            "H": 61.93333333333333,
            "I": 62.266666666666666
        }
    }
}