{
    "Average_holding_time": 20.254083484573503,
    "Average_travel_time_passengers": 2726.365578132404,
    "Average_speed_busses": 0.04591666666666667,
    "Average_experienced_crowding": 81.47984274291592,
    "Average_covariation_headway": 0.3034552790710204,
    "Average_covariation_headway_stops": {
        "A": 0.2553391872621203,
        "C": 0.236709624501335,
        "F": 0.23144892910564344,
        "L": 0.2634126583655821,
        "D": 0.22591715054782374,
        "G": 0.24728156796888312,
        "B": 0.23533598007916137,
        "E": 0.21228602755000567,
        "H": 0.22549005204155845,
        "I": 0.22076259262132333,
        "J": 0.22463242116813595,
        "K": 0.23928296829816498
    },
    "Average_excess_waiting_time": {
        "A": 69.59727764827778,
        "C": 67.5825277328965,
        "F": 63.153077241135065,
        "L": 72.04643074393027,
        "D": 63.24913095804038,
        "G": 63.51932854403401,
        "B": 69.59083154460404,
        "E": 63.087531937186554,
        "H": 61.930138548927516,
        "I": 63.582084184325765,
        "J": 65.82530621011801,
        "K": 69.88271941210775
    },
    "Holding_per_stop": {
        "A": 15.978260869565217,
        "D": 16.956521739130434,
        "G": 26.451612903225808,
        "F": 23.152173913043477,
        "C": 22.82608695652174,
        "L": 21.428571428571427,
        "B": 16.813186813186814,
        "H": 17.096774193548388,
        "E": 18.91304347826087,
        "I": 19.565217391304348,
        "J": 21.428571428571427,
        "K": 22.417582417582416
    },
    "Actions_tfl_edges": {
        "BC": [
            41,
            50,
            1
        ],
        "CD": [
            50,
            42,
            1
        ],
        "EF": [
            43,
            50,
            0
        ],
        "FG": [
            43,
            50,
            0
        ],
        "KL": [
            40,
            51,
            1
        ],
        "LA": [
            47,
            44,
            1
        ],
        "AB": [
            53,
            38,
            1
        ],
        "DE": [
            48,
            43,
            1
        ],
        "GH": [
            40,
            53,
            0
        ],
        "HI": [
            44,
            48,
            0
        ],
        "IJ": [
            53,
            39,
            0
        ],
        "JK": [
            44,
            47,
            0
        ]
    },
    "Load_per_bus_per_stop": {
        "bus5": {
            "A": 80.5625,
            "B": 80.3125,
            "C": 82,
            "D": 83.06666666666666,
            "E": 85.93333333333334,
            "F": 88.46666666666667,
            "G": 87,
            "H": 84.73333333333333,
            "I": 86.4,
            "J": 85.4,
            "K": 87.13333333333334,
            "L": 87.33333333333333
        },
        "bus0": {
            "C": 76.75,
            "D": 76.3125,
            "E": 76.25,
            "F": 77.06666666666666,
            "G": 78.06666666666666,
            "H": 80,
            "I": 81.66666666666667,
            "J": 83.13333333333334,
            "K": 84.33333333333333,
            "L": 85.53333333333333,
            "A": 83.8,
            "B": 82.86666666666666
        },
        "bus2": {
            "F": 74.1875,
            "G": 73.9375,
            "H": 73.75,
            "I": 75.625,
            "J": 73.93333333333334,
            "K": 75.66666666666667,
            "L": 77.86666666666666,
            "A": 77.4,
            "B": 77.46666666666667,
            "C": 77.06666666666666,
            "D": 78.46666666666667,
            "E": 78.93333333333334
        },
        "bus4": {
            "L": 70.75,
            "A": 70.0625,
            "B": 73.2,
            "C": 73.6,
            "D": 74.33333333333333,
            "E": 74.86666666666666,
            "F": 75.53333333333333,
            "G": 76.73333333333333,
            "H": 75,
            "I": 74.8,
            "J": 73.13333333333334,
            "K": 74.53333333333333
        },
        "bus1": {
            "D": 79.5,
            "E": 79.25,
            "F": 80,
            "G": 81.875,
            "H": 81.6875,
            "I": 80.13333333333334,
            "J": 81.13333333333334,
            "K": 80.6,
            "L": 81.93333333333334,
            "A": 82.06666666666666,
            "B": 83.4,
            "C": 84.4
        },
        "bus3": {
            "G": 76.25,
            "H": 76.125,
            "I": 78.1875,
            "J": 78.8125,
            "K": 80.625,
            "L": 80.875,
            "A": 80.66666666666667,
            "B": 80.53333333333333,
            "C": 78.8,
            "D": 79.46666666666667,
            "E": 80.26666666666667,
            "F": 79.66666666666667
        }
    }
}