{
    "Average_holding_time": 17.956795679567957,
    "Average_travel_time_passengers": 2719.5514295747266,
    "Average_speed_busses": 0.04629166666666667,
    "Average_experienced_crowding": 80.81461175376748,
    "Average_covariation_headway": 0.28671694366461503,
    "Average_covariation_headway_stops": {
        "G": 0.22107681256687572,
        "J": 0.20470084817701364,
        "K": 0.21676649534847656,
        "F": 0.21334708367899763,
        "I": 0.20647252959105372,
        "C": 0.23093664346267748,
        "H": 0.2174228494379114,
        "L": 0.21800283121451344,
        "D": 0.23149042041579815,
        "A": 0.1896423067120805,
        "E": 0.21627710880311235,
        "B": 0.22635279762799568
    },
    "Average_excess_waiting_time": {
        "G": 62.23014704301869,
        "J": 56.991762881559794,
        "K": 56.85799328615934,
        "F": 63.08622730600217,
        "I": 59.75071256534733,
        "C": 62.58265200672031,
        "H": 63.445849908074194,
        "L": 58.856062932209284,
        "D": 64.40173300609632,
        "A": 56.7679722696019,
        "E": 64.35092715812522,
        "B": 63.70366914955997
    },
    "Holding_per_stop": {
        "G": 19.891304347826086,
        "K": 14.680851063829786,
        "J": 15.806451612903226,
        "I": 16.774193548387096,
        "F": 20.543478260869566,
        "C": 22.258064516129032,
        "H": 19.23913043478261,
        "L": 17.741935483870968,
        "D": 24.130434782608695,
        "A": 11.935483870967742,
        "E": 17.934782608695652,
        "B": 14.673913043478262
    },
    "Actions_tfl_edges": {
        "BC": [
            13,
            72,
            8
        ],
        "EF": [
            13,
            70,
            10
        ],
        "FG": [
            21,
            63,
            9
        ],
        "HI": [
            22,
            57,
            14
        ],
        "IJ": [
            19,
            62,
            13
        ],
        "JK": [
            16,
            68,
            10
        ],
        "GH": [
            18,
            65,
            9
        ],
        "KL": [
            18,
            65,
            11
        ],
        "CD": [
            12,
            72,
            9
        ],
        "LA": [
            19,
            59,
            15
        ],
        "DE": [
            15,
            68,
            9
        ],
        "AB": [
            19,
            63,
            11
        ]
    },
    "Load_per_bus_per_stop": {
        "bus2": {
            "G": 77,
            "H": 75.9375,
            "I": 76.5,
            "J": 77.375,
            "K": 75.625,
            "L": 75.33333333333333,
            "A": 76.8,
            "B": 76.8,
            "C": 78,
            "D": 77.6,
            "E": 79.33333333333333,
            "F": 79.6
        },
        "bus4": {
            "J": 76.25,
            "K": 76.5625,
            "L": 75.625,
            "A": 77.25,
            "B": 76.4375,
            "C": 79.6875,
            "D": 77,
            "E": 76.33333333333333,
            "F": 77.93333333333334,
            "G": 78.73333333333333,
            "H": 79.93333333333334,
            "I": 79.93333333333334
        },
        "bus5": {
            "K": 75.6875,
            "L": 76.9375,
            "A": 76.375,
            "B": 76.0625,
            "C": 75.3125,
            "D": 76,
            "E": 77.25,
            "F": 79.86666666666666,
            "G": 79.66666666666667,
            "H": 78.93333333333334,
            "I": 79.2,
            "J": 80.26666666666667
        },
        "bus1": {
            "F": 75.6875,
            "G": 76.75,
            "H": 76.1875,
            "I": 76.5625,
            "J": 75.66666666666667,
            "K": 76.86666666666666,
            "L": 78.26666666666667,
            "A": 79.33333333333333,
            "B": 79.53333333333333,
            "C": 78.86666666666666,
            "D": 78.53333333333333,
            "E": 79.46666666666667
        },
        "bus3": {
            "I": 82.8125,
            "J": 83.3125,
            "K": 84,
            "L": 83.5625,
            "A": 85.0625,
            "B": 86.06666666666666,
            "C": 86.93333333333334,
            "D": 87.66666666666667,
            "E": 87.06666666666666,
            "F": 88.4,
            "G": 87.8,
            "H": 89.6
        },
        "bus0": {
            "C": 74.5625,
            "D": 75.9375,
            "E": 75.625,
            "F": 76.6875,
            "G": 77.2,
            "H": 78.46666666666667,
            "I": 79.53333333333333,
            "J": 78.73333333333333,
            "K": 78.66666666666667,
            "L": 79.6,
            "A": 79,
            "B": 80.8
        }
    }
}