{
    "Average_holding_time": 16.22862286228623,
    "Average_travel_time_passengers": 2753.4031684197353,
    "Average_speed_busses": 0.04629166666666667,
    "Average_experienced_crowding": 82.37794917155445,
    "Average_covariation_headway": 0.2824874367039981,
    "Average_covariation_headway_stops": {
        "E": 0.20491343387904842,
        "F": 0.2199451726412592,
        "A": 0.19432410139063513,
        "I": 0.2156756717523428,
        "L": 0.18760205120169304,
        "C": 0.19655184642631032,
        "B": 0.1877582009648624,
        "J": 0.21321416958865796,
        "G": 0.22104931690121873,
        "D": 0.19714081246327686,
        "K": 0.19157571489768072,
        "H": 0.21370324369334273
    },
    "Average_excess_waiting_time": {
        "E": 58.453747387132466,
        "F": 58.704262099195375,
        "A": 56.681039914886696,
        "I": 59.275609985688334,
        "L": 57.08668936885522,
        "C": 58.36574903122215,
        "B": 57.61125437682966,
        "J": 60.487747438857355,
        "G": 61.0241562711733,
        "D": 59.559717316888396,
        "K": 59.478629591101935,
        "H": 61.02159526411981
    },
    "Holding_per_stop": {
        "F": 16.451612903225808,
        "A": 8.387096774193548,
        "I": 12.580645161290322,
        "C": 16.451612903225808,
        "E": 18.06451612903226,
        "L": 16.451612903225808,
        "G": 18.06451612903226,
        "B": 11.73913043478261,
        "J": 22.5,
        "D": 18.91304347826087,
        "H": 19.23913043478261,
        "K": 15.978260869565217
    },
    "Actions_tfl_edges": {
        "BC": [
            16,
            65,
            12
        ],
        "DE": [
            18,
            65,
            10
        ],
        "EF": [
            19,
            68,
            7
        ],
        "HI": [
            19,
            64,
            10
        ],
        "KL": [
            20,
            63,
            10
        ],
        "LA": [
            24,
            61,
            9
        ],
        "FG": [
            16,
            68,
            9
        ],
        "AB": [
            14,
            68,
            11
        ],
        "IJ": [
            25,
            56,
            12
        ],
        "CD": [
            20,
            65,
            8
        ],
        "GH": [
            19,
            63,
            11
        ],
        "JK": [
            19,
            63,
            10
        ]
    },
    "Load_per_bus_per_stop": {
        "bus1": {
            "E": 74.625,
            "F": 76.375,
            "G": 76.625,
            "H": 77,
            "I": 76.75,
            "J": 75.73333333333333,
            "K": 76,
            "L": 77.46666666666667,
            "A": 78.2,
            "B": 80.2,
            "C": 80.86666666666666,
            "D": 79.8
        },
        "bus2": {
            "F": 75.5,
            "G": 75.5,
            "H": 78,
            "I": 78.6875,
            "J": 78.8125,
            "K": 79.25,
            "L": 79.25,
            "A": 80.4,
            "B": 81.6,
            "C": 81.86666666666666,
            "D": 81.33333333333333,
            "E": 81
        },
        "bus5": {
            "A": 75.875,
            "B": 77.125,
            "C": 77.75,
            "D": 76.6875,
            "E": 76.375,
            "F": 75.06666666666666,
            "G": 76.93333333333334,
            "H": 76.93333333333334,
            "I": 79.33333333333333,
            "J": 81.26666666666667,
            "K": 82.06666666666666,
            "L": 82.8
        },
        "bus3": {
            "I": 74.125,
            "J": 74.5625,
            "K": 73.8125,
            "L": 76,
            "A": 77.5625,
            "B": 78.5,
            "C": 76.53333333333333,
            "D": 77.46666666666667,
            "E": 79.93333333333334,
            "F": 78.86666666666666,
            "G": 80.2,
            "H": 79.2
        },
        "bus4": {
            "L": 84.9375,
            "A": 86.375,
            "B": 86.5,
            "C": 86.625,
            "D": 89.06666666666666,
            "E": 88.46666666666667,
            "F": 89.06666666666666,
            "G": 88.26666666666667,
            "H": 88.13333333333334,
            "I": 88.53333333333333,
            "J": 90.33333333333333,
            "K": 89.93333333333334
        },
        "bus0": {
            "C": 77.3125,
            "D": 78.5625,
            "E": 79.5625,
            "F": 79.6875,
            "G": 79.5625,
            "H": 79.73333333333333,
            "I": 80.8,
            "J": 81.46666666666667,
            "K": 80.73333333333333,
            "L": 82.6,
            "A": 83.8,
            "B": 82.6
        }
    }
}