{
    "Average_holding_time": 0,
    "Average_holding_actions": [
        513,
        0,
        0,
        0,
        0,
        0
    ],
    "Average_travel_time_passengers": 8880.98609263906,
    "Average_passenger_waiting_time": 3375.1282261822594,
    "Average_passenger_in_vehicle_time": 5505.857866456511,
    "Average_speed_busses": 0.021375,
    "Average_experienced_crowding": 1092.8791202258114,
    "Average_covariation_headway": 2.388715761558306,
    "Average_covariation_headway_stops": {
        "H": 2.156987107219324,
        "G": 1.8588192570845554,
        "J": 2.307869694157105,
        "K": 2.3395873407575607,
        "I": 2.2723489227255333,
        "A": 2.363120269033984,
        "B": 2.3777300709762494,
        "L": 2.345899083563045,
        "C": 2.3364138439269935,
        "D": 2.2910468375700144,
        "E": 2.282976136698485,
        "F": 1.9939508901084002
    },
    "Average_excess_waiting_time": {
        "H": 3385.4000687788157,
        "G": 2638.488010063869,
        "J": 3818.672708385996,
        "K": 3868.150350699654,
        "I": 3755.067971917737,
        "A": 3684.8666599239414,
        "B": 3687.900898168753,
        "L": 3674.6944706511767,
        "C": 3630.5918555409407,
        "D": 3564.5356426228263,
        "E": 3595.8122083954,
        "F": 2932.9609648871588
    },
    "Holding_per_stop": {
        "H": 0,
        "G": 0,
        "K": 0,
        "J": 0,
        "I": 0,
        "A": 0,
        "B": 0,
        "L": 0,
        "C": 0,
        "D": 0,
        "E": 0,
        "F": 0
    },
    "Actions_tfl_edges": {},
    "Load_per_bus_per_stop": {
        "bus2": {
            "H": 10,
            "I": 9.75,
            "J": 9.375,
            "K": 8,
            "L": 7.142857142857143,
            "A": 6.285714285714286,
            "B": 5.428571428571429,
            "C": 4.857142857142857,
            "D": 5.428571428571429,
            "E": 4.571428571428571,
            "F": 7.142857142857143,
            "G": 9.714285714285714
        },
        "bus1": {
            "G": 8.625,
            "H": 10,
            "I": 11.375,
            "J": 10.75,
            "K": 10.375,
            "L": 10.571428571428571,
            "A": 8.714285714285714,
            "B": 7.285714285714286,
            "C": 6.857142857142857,
            "D": 5.571428571428571,
            "E": 4.857142857142857,
            "F": 7.285714285714286
        },
        "bus3": {
            "J": 11.75,
            "K": 11.5,
            "L": 10.285714285714286,
            "A": 8.428571428571429,
            "B": 7.857142857142857,
            "C": 6.714285714285714,
            "D": 6.285714285714286,
            "E": 6.285714285714286,
            "F": 9.714285714285714,
            "G": 15.571428571428571,
            "H": 15.428571428571429,
            "I": 14.142857142857142
        },
        "bus4": {
            "K": 25.625,
            "L": 20.571428571428573,
            "A": 18,
            "B": 15.428571428571429,
            "C": 13.714285714285714,
            "D": 12,
            "E": 11.714285714285714,
            "F": 21.857142857142858,
            "G": 38.714285714285715,
            "H": 38.57142857142857,
            "I": 35.57142857142857,
            "J": 32.142857142857146
        },
        "bus5": {
            "A": 85.71428571428571,
            "B": 74.71428571428571,
            "C": 64.71428571428571,
            "D": 57.857142857142854,
            "E": 53.285714285714285,
            "F": 97.42857142857143,
            "G": 176.71428571428572,
            "H": 181.42857142857142,
            "I": 171.14285714285714,
            "J": 156,
            "K": 142.28571428571428,
            "L": 116.66666666666667
        },
        "bus0": {
            "B": 795.2857142857143,
            "C": 764.4285714285714,
            "D": 752.2857142857143,
            "E": 754.4285714285714,
            "F": 984.8571428571429,
            "G": 1317.857142857143,
            "H": 1415.5714285714287,
            "I": 1381,
            "J": 1317.7142857142858,
            "K": 1251.7142857142858,
            "L": 1084,
            "A": 999.1666666666666
        }
    },
    "Obs_and_actions_busses": {
        "0": 177.2764559460879
    },
    "Obs_and_actions_tfls": {}
}