{
    "Average_holding_time": 0,
    "Average_holding_actions": [
        820,
        0,
        0,
        0,
        0,
        0
    ],
    "Average_travel_time_passengers": 5308.903092966872,
    "Average_passenger_waiting_time": 1932.257683011324,
    "Average_passenger_in_vehicle_time": 3376.645409955561,
    "Average_speed_busses": 0.034166666666666665,
    "Average_experienced_crowding": 484.0518613159309,
    "Average_covariation_headway": 2.0743742000789562,
    "Average_covariation_headway_stops": {
        "C": 2.0038303144521348,
        "D": 2.0066919255606486,
        "E": 2.0131943569114075,
        "G": 2.004465659240035,
        "K": 1.9953680135341525,
        "L": 1.9930895776813498,
        "F": 2.00853586720693,
        "A": 2.010184550028549,
        "H": 1.9819759290991805,
        "B": 1.999748363749111,
        "I": 1.9802121314282277,
        "J": 1.9808794312084155
    },
    "Average_excess_waiting_time": {
        "C": 1806.4763709055069,
        "D": 1804.0468056205486,
        "E": 1804.7186122899739,
        "G": 1831.8389114576648,
        "K": 1772.2374433499626,
        "L": 1760.9678470131698,
        "F": 1817.750659219756,
        "A": 1808.8630460720074,
        "H": 1714.1788146861074,
        "B": 1808.6326695467524,
        "I": 1733.665764066356,
        "J": 1756.1462426442597
    },
    "Holding_per_stop": {
        "E": 0,
        "D": 0,
        "L": 0,
        "G": 0,
        "K": 0,
        "C": 0,
        "F": 0,
        "A": 0,
        "H": 0,
        "B": 0,
        "I": 0,
        "J": 0
    },
    "Actions_tfl_edges": {},
    "Load_per_bus_per_stop": {
        "bus0": {
            "C": 5.166666666666667,
            "D": 5.166666666666667,
            "E": 5.25,
            "F": 5.5,
            "G": 5.916666666666667,
            "H": 5.545454545454546,
            "I": 6,
            "J": 6,
            "K": 5.818181818181818,
            "L": 6.090909090909091,
            "A": 5.2727272727272725,
            "B": 5.181818181818182
        },
        "bus1": {
            "D": 5.25,
            "E": 6.083333333333333,
            "F": 6.416666666666667,
            "G": 6.416666666666667,
            "H": 6.181818181818182,
            "I": 6,
            "J": 5.909090909090909,
            "K": 5.818181818181818,
            "L": 5.909090909090909,
            "A": 6.181818181818182,
            "B": 5.818181818181818,
            "C": 5.454545454545454
        },
        "bus2": {
            "E": 27.916666666666668,
            "F": 27.916666666666668,
            "G": 29,
            "H": 28.272727272727273,
            "I": 29.181818181818183,
            "J": 28.818181818181817,
            "K": 28.545454545454547,
            "L": 30.545454545454547,
            "A": 30.09090909090909,
            "B": 28.454545454545453,
            "C": 27.90909090909091,
            "D": 29.272727272727273
        },
        "bus3": {
            "G": 471.25,
            "H": 442.27272727272725,
            "I": 447.1818181818182,
            "J": 451.72727272727275,
            "K": 454.72727272727275,
            "L": 468.27272727272725,
            "A": 471.54545454545456,
            "B": 474,
            "C": 477.6363636363636,
            "D": 489.8181818181818,
            "E": 497.27272727272725,
            "F": 503.90909090909093
        },
        "bus4": {
            "K": 7.583333333333333,
            "L": 8.416666666666666,
            "A": 8.833333333333334,
            "B": 8.666666666666666,
            "C": 9.083333333333334,
            "D": 8.916666666666666,
            "E": 9.25,
            "F": 8.833333333333334,
            "G": 9.363636363636363,
            "H": 8.818181818181818,
            "I": 8.454545454545455,
            "J": 8.545454545454545
        },
        "bus5": {
            "L": 88.91666666666667,
            "A": 89.75,
            "B": 90.5,
            "C": 90.83333333333333,
            "D": 91.58333333333333,
            "E": 91.5,
            "F": 93.16666666666667,
            "G": 92.25,
            "H": 100.27272727272727,
            "I": 101.54545454545455,
            "J": 99.0909090909091,
            "K": 97.0909090909091
        }
    },
    "Obs_and_actions_busses": {
        "0": 350.4135162309473
    },
    "Obs_and_actions_tfls": {}
}