{
    "Average_holding_time": 40.15518913676043,
    "Average_holding_actions": [
        274,
        537,
        53,
        46,
        95,
        0
    ],
    "Average_travel_time_passengers": 2241.056752314774,
    "Average_passenger_waiting_time": 384.12429534744393,
    "Average_passenger_in_vehicle_time": 1856.9324569673465,
    "Average_speed_busses": 0.042958333333333334,
    "Average_experienced_crowding": 94.83635655516422,
    "Average_covariation_headway": 0.4053219449193925,
    "Average_covariation_headway_stops": {
        "H": 0.38425306028718714,
        "G": 0.32121399150772145,
        "I": 0.3834463235366858,
        "K": 0.3748156539078316,
        "L": 0.3491124411722358,
        "A": 0.343949696483201,
        "B": 0.32252672834102525,
        "J": 0.3687636233878999,
        "C": 0.29223824323317177,
        "D": 0.2797367264659058,
        "E": 0.2804763230959489,
        "F": 0.2799502192523203
    },
    "Average_excess_waiting_time": {
        "H": 119.91828442004191,
        "G": 107.46560572545548,
        "I": 121.50567512863108,
        "K": 117.8343704601408,
        "L": 108.92095571134053,
        "A": 106.28579101602207,
        "B": 102.9043859481074,
        "J": 118.70008622819165,
        "C": 98.02365353658945,
        "D": 97.73591539242307,
        "E": 100.5745080021083,
        "F": 102.47571001741642
    },
    "Holding_per_stop": {
        "H": 34.53488372093023,
        "I": 32.44186046511628,
        "L": 33.10344827586207,
        "A": 71.03448275862068,
        "G": 34.23529411764706,
        "K": 38.02325581395349,
        "B": 49.310344827586206,
        "J": 37.76470588235294,
        "C": 43.25581395348837,
        "D": 42.2093023255814,
        "E": 34.588235294117645,
        "F": 30.705882352941178
    },
    "Actions_tfl_edges": {
        "FG": [
            10,
            23,
            53
        ],
        "GH": [
            9,
            26,
            51
        ],
        "JK": [
            15,
            29,
            42
        ],
        "HI": [
            18,
            17,
            51
        ],
        "CD": [
            11,
            4,
            71
        ]
    },
    "Load_per_bus_per_stop": {
        "bus2": {
            "H": 96.93333333333334,
            "I": 95.26666666666667,
            "J": 91.4,
            "K": 83.13333333333334,
            "L": 73.6,
            "A": 65.5,
            "B": 56.42857142857143,
            "C": 52.142857142857146,
            "D": 47.857142857142854,
            "E": 44.285714285714285,
            "F": 66.5,
            "G": 97.07142857142857
        },
        "bus1": {
            "G": 101.86666666666666,
            "H": 115.26666666666667,
            "I": 111.46666666666667,
            "J": 105.57142857142857,
            "K": 95.85714285714286,
            "L": 82.85714285714286,
            "A": 73.07142857142857,
            "B": 60.92857142857143,
            "C": 54.357142857142854,
            "D": 50.07142857142857,
            "E": 47.642857142857146,
            "F": 73.57142857142857
        },
        "bus3": {
            "K": 82.73333333333333,
            "L": 72.6,
            "A": 63.4,
            "B": 54,
            "C": 48.07142857142857,
            "D": 45.285714285714285,
            "E": 46.714285714285715,
            "F": 71.42857142857143,
            "G": 107.07142857142857,
            "H": 112.78571428571429,
            "I": 108.14285714285714,
            "J": 98.85714285714286
        },
        "bus4": {
            "L": 70.33333333333333,
            "A": 62.06666666666667,
            "B": 53.13333333333333,
            "C": 47.642857142857146,
            "D": 42.142857142857146,
            "E": 42.142857142857146,
            "F": 67.5,
            "G": 100.14285714285714,
            "H": 108.21428571428571,
            "I": 103.07142857142857,
            "J": 95.92857142857143,
            "K": 86.42857142857143
        },
        "bus5": {
            "A": 72.53333333333333,
            "B": 60.46666666666667,
            "C": 54.266666666666666,
            "D": 51.53333333333333,
            "E": 50.92857142857143,
            "F": 76,
            "G": 114.92857142857143,
            "H": 125.57142857142857,
            "I": 119.64285714285714,
            "J": 109.35714285714286,
            "K": 100.64285714285714,
            "L": 90.07142857142857
        },
        "bus0": {
            "B": 69.66666666666667,
            "C": 63.666666666666664,
            "D": 60.13333333333333,
            "E": 60.4,
            "F": 90.33333333333333,
            "G": 132.78571428571428,
            "H": 144.5,
            "I": 139.42857142857142,
            "J": 128.71428571428572,
            "K": 116.21428571428571,
            "L": 101.42857142857143,
            "A": 87.57142857142857
        }
    },
    "Obs_and_actions_busses": {
        "0": -360.88822117400247,
        "1": 44.37377441491549,
        "2": -27.979630624005274,
        "5": 402.8280978114265,
        "4": 313.81206547298115,
        "3": 224.47336379258942
    },
    "Obs_and_actions_tfls": {
        "2": 139.79270123988255,
        "0": -555.6741499199674,
        "1": -115.63131846007192
    }
}