{
    "Average_holding_time": 37.226487523992326,
    "Average_holding_actions": [
        283,
        558,
        56,
        38,
        75,
        0
    ],
    "Average_travel_time_passengers": 2183.9096442773784,
    "Average_passenger_waiting_time": 358.7334837472688,
    "Average_passenger_in_vehicle_time": 1825.1761605300594,
    "Average_speed_busses": 0.043416666666666666,
    "Average_experienced_crowding": 88.95351333524118,
    "Average_covariation_headway": 0.34154599667213675,
    "Average_covariation_headway_stops": {
        "H": 0.2829652389337321,
        "I": 0.28431184415424404,
        "L": 0.24701196662649302,
        "K": 0.24758292917295785,
        "C": 0.2171633529256474,
        "B": 0.2252985353375255,
        "J": 0.2545314512175105,
        "A": 0.2367541138832824,
        "D": 0.20001723828620063,
        "E": 0.2122757403473419,
        "F": 0.20659037786293877,
        "G": 0.23278830822937283
    },
    "Average_excess_waiting_time": {
        "H": 95.59921100555658,
        "I": 93.18536462616612,
        "L": 83.55712685903245,
        "K": 85.97464771334813,
        "C": 79.98831316060051,
        "B": 81.416655431288,
        "J": 89.45073512357408,
        "A": 83.97211318583152,
        "D": 79.88609616710283,
        "E": 82.72236667784694,
        "F": 83.43225320891975,
        "G": 89.32006340947385
    },
    "Holding_per_stop": {
        "I": 34.827586206896555,
        "H": 32.093023255813954,
        "L": 33.06818181818182,
        "C": 37.15909090909091,
        "B": 47.241379310344826,
        "K": 31.724137931034484,
        "J": 33.44827586206897,
        "A": 75.17241379310344,
        "D": 36.206896551724135,
        "E": 28.25581395348837,
        "F": 27.906976744186046,
        "G": 29.302325581395348
    },
    "Actions_tfl_edges": {
        "GH": [
            14,
            23,
            50
        ],
        "HI": [
            16,
            22,
            49
        ],
        "JK": [
            15,
            29,
            44
        ],
        "CD": [
            4,
            6,
            77
        ],
        "FG": [
            10,
            23,
            53
        ]
    },
    "Load_per_bus_per_stop": {
        "bus2": {
            "H": 105,
            "I": 101.06666666666666,
            "J": 93.66666666666667,
            "K": 84.13333333333334,
            "L": 73.86666666666666,
            "A": 66.5,
            "B": 57,
            "C": 52.785714285714285,
            "D": 49.357142857142854,
            "E": 48.07142857142857,
            "F": 70.85714285714286,
            "G": 104.28571428571429
        },
        "bus3": {
            "I": 109.86666666666666,
            "J": 102.66666666666667,
            "K": 92.66666666666667,
            "L": 80.93333333333334,
            "A": 70.26666666666667,
            "B": 58.2,
            "C": 50,
            "D": 43.857142857142854,
            "E": 43.5,
            "F": 70.71428571428571,
            "G": 110.64285714285714,
            "H": 123.42857142857143
        },
        "bus5": {
            "L": 84.53333333333333,
            "A": 72.6,
            "B": 62.46666666666667,
            "C": 56.266666666666666,
            "D": 52.333333333333336,
            "E": 48.92857142857143,
            "F": 75.07142857142857,
            "G": 113.64285714285714,
            "H": 126.85714285714286,
            "I": 122.21428571428571,
            "J": 114.14285714285714,
            "K": 103.28571428571429
        },
        "bus4": {
            "K": 87.2,
            "L": 78.73333333333333,
            "A": 68.73333333333333,
            "B": 56.93333333333333,
            "C": 50.2,
            "D": 47.214285714285715,
            "E": 47.357142857142854,
            "F": 72.64285714285714,
            "G": 103.21428571428571,
            "H": 113.21428571428571,
            "I": 109.14285714285714,
            "J": 103.42857142857143
        },
        "bus1": {
            "C": 54,
            "D": 52.2,
            "E": 48.6,
            "F": 72.8,
            "G": 105.73333333333333,
            "H": 114.26666666666667,
            "I": 110.6,
            "J": 104.26666666666667,
            "K": 93.92857142857143,
            "L": 84.5,
            "A": 74.28571428571429,
            "B": 63.92857142857143
        },
        "bus0": {
            "B": 55.4,
            "C": 50.333333333333336,
            "D": 44.666666666666664,
            "E": 47.4,
            "F": 71.13333333333334,
            "G": 107.93333333333334,
            "H": 114.07142857142857,
            "I": 108.28571428571429,
            "J": 101.57142857142857,
            "K": 92.71428571428571,
            "L": 82.92857142857143,
            "A": 70.78571428571429
        }
    },
    "Obs_and_actions_busses": {
        "5": 334.4132412116084,
        "3": 211.48705378293275,
        "0": -270.0221001498863,
        "1": 31.89186818503938,
        "2": -33.16361699190341,
        "4": 284.55558053204135
    },
    "Obs_and_actions_tfls": {
        "2": 108.84592575591725,
        "0": -371.21024568373304,
        "1": -128.89989531644187
    }
}