{
    "Average_holding_time": 35.747126436781606,
    "Average_holding_actions": [
        274,
        576,
        55,
        45,
        48,
        0
    ],
    "Average_travel_time_passengers": 2178.1900332230757,
    "Average_passenger_waiting_time": 357.47703357829437,
    "Average_passenger_in_vehicle_time": 1820.712999644742,
    "Average_speed_busses": 0.0435,
    "Average_experienced_crowding": 89.15400552820537,
    "Average_covariation_headway": 0.3304277397169862,
    "Average_covariation_headway_stops": {
        "L": 0.2290433011484617,
        "F": 0.21866548735606253,
        "A": 0.23022513648539852,
        "E": 0.22330116830668706,
        "K": 0.23969483393362617,
        "B": 0.21344997325976195,
        "G": 0.2280745602288545,
        "H": 0.2561941240492123,
        "C": 0.210771618133814,
        "I": 0.25529100928051646,
        "D": 0.2105883947077674,
        "J": 0.25769460658720644
    },
    "Average_excess_waiting_time": {
        "L": 83.69222493309013,
        "F": 78.92509770568739,
        "A": 81.8593905101987,
        "E": 81.9738455005297,
        "K": 86.97783293125366,
        "B": 78.54844088930946,
        "G": 81.85861543416564,
        "H": 88.85714441516205,
        "C": 80.63094392241288,
        "I": 90.47861241211314,
        "D": 82.68684394635625,
        "J": 92.24160336370278
    },
    "Holding_per_stop": {
        "F": 26.25,
        "L": 34.13793103448276,
        "A": 71.72413793103448,
        "K": 35.51724137931034,
        "B": 38.52272727272727,
        "E": 27.93103448275862,
        "G": 27.586206896551722,
        "H": 34.827586206896555,
        "C": 36.89655172413793,
        "I": 28.6046511627907,
        "D": 29.310344827586206,
        "J": 37.674418604651166
    },
    "Actions_tfl_edges": {
        "JK": [
            22,
            16,
            49
        ],
        "FG": [
            9,
            20,
            59
        ],
        "GH": [
            12,
            20,
            55
        ],
        "HI": [
            14,
            26,
            47
        ],
        "CD": [
            8,
            3,
            76
        ]
    },
    "Load_per_bus_per_stop": {
        "bus4": {
            "L": 78.6,
            "A": 66.93333333333334,
            "B": 57.93333333333333,
            "C": 52.06666666666667,
            "D": 46.13333333333333,
            "E": 42.214285714285715,
            "F": 68.42857142857143,
            "G": 103,
            "H": 112.21428571428571,
            "I": 110.71428571428571,
            "J": 103.5,
            "K": 94.14285714285714
        },
        "bus2": {
            "F": 72.53333333333333,
            "G": 106.13333333333334,
            "H": 113.4,
            "I": 109.33333333333333,
            "J": 103.13333333333334,
            "K": 94.06666666666666,
            "L": 84.06666666666666,
            "A": 72.46666666666667,
            "B": 60.5,
            "C": 53.785714285714285,
            "D": 53,
            "E": 52.142857142857146
        },
        "bus5": {
            "A": 67,
            "B": 56.666666666666664,
            "C": 49.333333333333336,
            "D": 46.666666666666664,
            "E": 45.13333333333333,
            "F": 70.2,
            "G": 107,
            "H": 114.5,
            "I": 109.92857142857143,
            "J": 101.85714285714286,
            "K": 93.07142857142857,
            "L": 83.57142857142857
        },
        "bus1": {
            "E": 47.93333333333333,
            "F": 72.53333333333333,
            "G": 109.6,
            "H": 118.93333333333334,
            "I": 114.53333333333333,
            "J": 106.73333333333333,
            "K": 96.8,
            "L": 85.07142857142857,
            "A": 72.42857142857143,
            "B": 63.57142857142857,
            "C": 56.642857142857146,
            "D": 52.857142857142854
        },
        "bus3": {
            "K": 80.46666666666667,
            "L": 69.8,
            "A": 62.333333333333336,
            "B": 53.93333333333333,
            "C": 52.42857142857143,
            "D": 48.57142857142857,
            "E": 48.857142857142854,
            "F": 69.14285714285714,
            "G": 103.21428571428571,
            "H": 110.5,
            "I": 105.5,
            "J": 98.28571428571429
        },
        "bus0": {
            "B": 62.93333333333333,
            "C": 57,
            "D": 51.93333333333333,
            "E": 49.666666666666664,
            "F": 75.6,
            "G": 113.8,
            "H": 125.06666666666666,
            "I": 120.46666666666667,
            "J": 112.28571428571429,
            "K": 101,
            "L": 89.21428571428571,
            "A": 77.35714285714286
        }
    },
    "Obs_and_actions_busses": {
        "1": 44.32098422380814,
        "2": -34.86368211893352,
        "5": 364.4693313480337,
        "3": 210.15391047274326,
        "0": -291.8083847909657,
        "4": 283.5473051277434
    },
    "Obs_and_actions_tfls": {
        "2": 110.33229259174665,
        "1": -145.6872963634057,
        "0": -377.70477405726234
    }
}