{
    "Average_holding_time": 37.23837209302326,
    "Average_holding_actions": [
        253,
        584,
        53,
        39,
        63,
        0
    ],
    "Average_travel_time_passengers": 2192.778929409757,
    "Average_passenger_waiting_time": 354.3373080415562,
    "Average_passenger_in_vehicle_time": 1838.4416213681986,
    "Average_speed_busses": 0.043,
    "Average_experienced_crowding": 87.79393053877055,
    "Average_covariation_headway": 0.3159576185852447,
    "Average_covariation_headway_stops": {
        "H": 0.20154298470213688,
        "K": 0.22606014198789687,
        "J": 0.19223258663040418,
        "A": 0.21748513709659997,
        "F": 0.19559146789773577,
        "C": 0.215819337095198,
        "I": 0.19624158886814927,
        "L": 0.19052619080983457,
        "G": 0.17004012287186226,
        "B": 0.21417575363100624,
        "D": 0.2118496416051025,
        "E": 0.20690423220777573
    },
    "Average_excess_waiting_time": {
        "H": 82.5978117296869,
        "K": 84.36858513985487,
        "J": 80.90770340166489,
        "A": 83.6120990367088,
        "F": 83.7326012966085,
        "C": 83.8392622128872,
        "I": 83.93129811263236,
        "L": 81.81312142954351,
        "G": 81.8419721365891,
        "B": 85.33239746858186,
        "D": 85.80966357741033,
        "E": 87.37205597839858
    },
    "Holding_per_stop": {
        "H": 30,
        "K": 36.206896551724135,
        "A": 66.20689655172414,
        "J": 32.44186046511628,
        "C": 42.906976744186046,
        "F": 31.3953488372093,
        "I": 32.093023255813954,
        "L": 34.18604651162791,
        "B": 48.48837209302326,
        "D": 34.53488372093023,
        "G": 29.647058823529413,
        "E": 28.235294117647058
    },
    "Actions_tfl_edges": {
        "GH": [
            6,
            25,
            55
        ],
        "JK": [
            10,
            26,
            51
        ],
        "HI": [
            10,
            23,
            53
        ],
        "CD": [
            5,
            8,
            73
        ],
        "FG": [
            9,
            22,
            55
        ]
    },
    "Load_per_bus_per_stop": {
        "bus2": {
            "H": 111.53333333333333,
            "I": 108.53333333333333,
            "J": 100.2,
            "K": 90.8,
            "L": 80.57142857142857,
            "A": 71.78571428571429,
            "B": 60.57142857142857,
            "C": 55,
            "D": 50.142857142857146,
            "E": 50.57142857142857,
            "F": 75.14285714285714,
            "G": 110
        },
        "bus4": {
            "K": 88.73333333333333,
            "L": 77.13333333333334,
            "A": 66.6,
            "B": 57.86666666666667,
            "C": 50.93333333333333,
            "D": 46.57142857142857,
            "E": 44.642857142857146,
            "F": 70.35714285714286,
            "G": 105.64285714285714,
            "H": 115.07142857142857,
            "I": 109.71428571428571,
            "J": 102.78571428571429
        },
        "bus3": {
            "J": 100.06666666666666,
            "K": 90.4,
            "L": 80.33333333333333,
            "A": 69.93333333333334,
            "B": 57.642857142857146,
            "C": 51.857142857142854,
            "D": 46.785714285714285,
            "E": 47.214285714285715,
            "F": 73.57142857142857,
            "G": 108.78571428571429,
            "H": 117.57142857142857,
            "I": 115.21428571428571
        },
        "bus5": {
            "A": 70.26666666666667,
            "B": 60.6,
            "C": 52.8,
            "D": 51.8,
            "E": 50.57142857142857,
            "F": 73.85714285714286,
            "G": 110.14285714285714,
            "H": 118.28571428571429,
            "I": 114.78571428571429,
            "J": 110.07142857142857,
            "K": 98.92857142857143,
            "L": 88.07142857142857
        },
        "bus1": {
            "F": 71.46666666666667,
            "G": 106.2,
            "H": 113.46666666666667,
            "I": 111.73333333333333,
            "J": 102.13333333333334,
            "K": 94.35714285714286,
            "L": 82.92857142857143,
            "A": 71.64285714285714,
            "B": 61.07142857142857,
            "C": 56.92857142857143,
            "D": 51.357142857142854,
            "E": 49.357142857142854
        },
        "bus0": {
            "C": 47.666666666666664,
            "D": 46.266666666666666,
            "E": 43.46666666666667,
            "F": 65.33333333333333,
            "G": 98.93333333333334,
            "H": 109.57142857142857,
            "I": 105.07142857142857,
            "J": 101,
            "K": 90.57142857142857,
            "L": 79.21428571428571,
            "A": 69.35714285714286,
            "B": 58.92857142857143
        }
    },
    "Obs_and_actions_busses": {
        "1": 25.31473918942793,
        "4": 286.46860184087717,
        "5": 275.7832350135812,
        "0": -252.87290602738096,
        "2": -7.901181087830278,
        "3": 228.31853517661162
    },
    "Obs_and_actions_tfls": {
        "2": 85.96697596085274,
        "1": -156.9623699110178,
        "0": -314.03900769801004
    }
}