{
    "Average_holding_time": 43.085427135678394,
    "Average_holding_actions": [
        255,
        490,
        58,
        45,
        101,
        0
    ],
    "Average_travel_time_passengers": 2380.244754934031,
    "Average_passenger_waiting_time": 446.6480864704834,
    "Average_passenger_in_vehicle_time": 1933.5966684635036,
    "Average_speed_busses": 0.04145833333333333,
    "Average_experienced_crowding": 111.67723602534274,
    "Average_covariation_headway": 0.5123438587002004,
    "Average_covariation_headway_stops": {
        "H": 0.5673017912608075,
        "K": 0.542372334510068,
        "I": 0.5781227913427788,
        "J": 0.5589354925569953,
        "F": 0.4956854121519782,
        "L": 0.5201449825282031,
        "G": 0.5054152571053327,
        "A": 0.47852434889122186,
        "B": 0.45532308827522594,
        "C": 0.46819264420783413,
        "D": 0.4836218073466963,
        "E": 0.4857835264035781
    },
    "Average_excess_waiting_time": {
        "H": 198.90877389824448,
        "K": 184.0608294890232,
        "I": 200.93956238145898,
        "J": 190.6053847376686,
        "F": 173.1309520239605,
        "L": 169.97176857808006,
        "G": 178.74366133765653,
        "A": 158.02569087355977,
        "B": 153.03367579098278,
        "C": 161.49147133665736,
        "D": 169.05840795521408,
        "E": 172.3638897253939
    },
    "Holding_per_stop": {
        "H": 37.2289156626506,
        "I": 39.75903614457831,
        "K": 41.07142857142857,
        "J": 37.95180722891566,
        "L": 40.357142857142854,
        "F": 42.80487804878049,
        "A": 68.21428571428571,
        "G": 35.48780487804878,
        "B": 45.18072289156626,
        "C": 46.626506024096386,
        "D": 42.073170731707314,
        "E": 39.8780487804878
    },
    "Actions_tfl_edges": {
        "GH": [
            9,
            20,
            54
        ],
        "HI": [
            11,
            23,
            50
        ],
        "JK": [
            14,
            26,
            44
        ],
        "FG": [
            11,
            16,
            55
        ],
        "CD": [
            8,
            8,
            67
        ]
    },
    "Load_per_bus_per_stop": {
        "bus1": {
            "H": 125.78571428571429,
            "I": 121.07142857142857,
            "J": 114.92857142857143,
            "K": 103.5,
            "L": 91.07142857142857,
            "A": 80.57142857142857,
            "B": 69.57142857142857,
            "C": 62.714285714285715,
            "D": 56.84615384615385,
            "E": 55.23076923076923,
            "F": 85.6923076923077,
            "G": 122.61538461538461
        },
        "bus4": {
            "K": 74.57142857142857,
            "L": 66.92857142857143,
            "A": 58.857142857142854,
            "B": 50.42857142857143,
            "C": 43.5,
            "D": 38.57142857142857,
            "E": 35.857142857142854,
            "F": 56.142857142857146,
            "G": 86.64285714285714,
            "H": 94.35714285714286,
            "I": 91.78571428571429,
            "J": 86.35714285714286
        },
        "bus2": {
            "I": 95.21428571428571,
            "J": 92.35714285714286,
            "K": 84.07142857142857,
            "L": 75.14285714285714,
            "A": 66.92857142857143,
            "B": 59.142857142857146,
            "C": 48.857142857142854,
            "D": 43.92857142857143,
            "E": 41.357142857142854,
            "F": 63.92307692307692,
            "G": 97.15384615384616,
            "H": 104.6923076923077
        },
        "bus3": {
            "J": 78.07142857142857,
            "K": 71.14285714285714,
            "L": 63.642857142857146,
            "A": 58.642857142857146,
            "B": 52.5,
            "C": 48.214285714285715,
            "D": 46.857142857142854,
            "E": 45.785714285714285,
            "F": 64.71428571428571,
            "G": 88.71428571428571,
            "H": 94.35714285714286,
            "I": 89.3076923076923
        },
        "bus0": {
            "F": 89.28571428571429,
            "G": 134.21428571428572,
            "H": 146,
            "I": 139.92857142857142,
            "J": 131.14285714285714,
            "K": 118.28571428571429,
            "L": 105.42857142857143,
            "A": 92.21428571428571,
            "B": 82.38461538461539,
            "C": 72,
            "D": 66.23076923076923,
            "E": 65.07692307692308
        },
        "bus5": {
            "L": 107.14285714285714,
            "A": 93.71428571428571,
            "B": 78.85714285714286,
            "C": 72.5,
            "D": 69.35714285714286,
            "E": 69.28571428571429,
            "F": 106.42857142857143,
            "G": 154.92857142857142,
            "H": 168.64285714285714,
            "I": 162.71428571428572,
            "J": 148.28571428571428,
            "K": 132.64285714285714
        }
    },
    "Obs_and_actions_busses": {
        "3": 223.08021262625329,
        "5": 701.2096071312136,
        "4": 313.43523730497276,
        "1": 29.904672883613443,
        "0": -505.0593906258475,
        "2": -2.3352309851659427
    },
    "Obs_and_actions_tfls": {
        "2": 188.9647745310425,
        "0": -772.8749427292734,
        "1": -152.40916909596646
    }
}