{
    "Average_holding_time": 37.04022988505747,
    "Average_holding_actions": [
        305,
        536,
        58,
        46,
        78,
        0
    ],
    "Average_travel_time_passengers": 2175.0557369820035,
    "Average_passenger_waiting_time": 351.95047711942226,
    "Average_passenger_in_vehicle_time": 1823.1052598626568,
    "Average_speed_busses": 0.0435,
    "Average_experienced_crowding": 87.16788835130659,
    "Average_covariation_headway": 0.3278220339971302,
    "Average_covariation_headway_stops": {
        "A": 0.246719187575006,
        "I": 0.23176336270612535,
        "D": 0.20412062852392285,
        "F": 0.21532188246865114,
        "B": 0.218179990082481,
        "C": 0.2014645520155809,
        "G": 0.22551001475573323,
        "J": 0.1915746748354772,
        "E": 0.22251783902475045,
        "H": 0.23544602961590752,
        "K": 0.2141182489032224,
        "L": 0.2175129041761877
    },
    "Average_excess_waiting_time": {
        "A": 88.43007506965029,
        "I": 81.96676500978612,
        "D": 77.3005696905712,
        "F": 78.98802832748794,
        "B": 82.63539580129196,
        "C": 78.8228504137748,
        "G": 82.60422200930685,
        "J": 77.85043545913942,
        "E": 82.33257010820438,
        "H": 85.76007318345847,
        "K": 82.46572657389038,
        "L": 85.74883257797848
    },
    "Holding_per_stop": {
        "I": 31.724137931034484,
        "D": 38.52272727272727,
        "F": 30.34090909090909,
        "A": 64.88372093023256,
        "B": 48.275862068965516,
        "C": 38.62068965517241,
        "J": 30.344827586206897,
        "E": 30.689655172413794,
        "G": 29.655172413793103,
        "H": 34.827586206896555,
        "K": 32.758620689655174,
        "L": 34.18604651162791
    },
    "Actions_tfl_edges": {
        "CD": [
            13,
            5,
            70
        ],
        "HI": [
            17,
            25,
            46
        ],
        "FG": [
            7,
            23,
            58
        ],
        "JK": [
            18,
            24,
            45
        ],
        "GH": [
            16,
            20,
            51
        ]
    },
    "Load_per_bus_per_stop": {
        "bus5": {
            "A": 66.8,
            "B": 56.733333333333334,
            "C": 52.333333333333336,
            "D": 50.333333333333336,
            "E": 48.42857142857143,
            "F": 68.71428571428571,
            "G": 100.07142857142857,
            "H": 109,
            "I": 106.21428571428571,
            "J": 98.64285714285714,
            "K": 88.42857142857143,
            "L": 79.5
        },
        "bus4": {
            "I": 103.33333333333333,
            "J": 97.53333333333333,
            "K": 88.33333333333333,
            "L": 78.46666666666667,
            "A": 68.66666666666667,
            "B": 57.733333333333334,
            "C": 51.285714285714285,
            "D": 47.57142857142857,
            "E": 45.92857142857143,
            "F": 68.21428571428571,
            "G": 101.5,
            "H": 110.92857142857143
        },
        "bus2": {
            "D": 49,
            "E": 49.6,
            "F": 73.53333333333333,
            "G": 107.2,
            "H": 115.26666666666667,
            "I": 109.46666666666667,
            "J": 101.93333333333334,
            "K": 93.2,
            "L": 84.28571428571429,
            "A": 73.21428571428571,
            "B": 63.42857142857143,
            "C": 58.357142857142854
        },
        "bus3": {
            "F": 72.4,
            "G": 109.33333333333333,
            "H": 120.8,
            "I": 116.73333333333333,
            "J": 106.6,
            "K": 97.93333333333334,
            "L": 88,
            "A": 75,
            "B": 67.21428571428571,
            "C": 60.142857142857146,
            "D": 54.142857142857146,
            "E": 51.357142857142854
        },
        "bus0": {
            "B": 54.666666666666664,
            "C": 49.46666666666667,
            "D": 46.53333333333333,
            "E": 44.46666666666667,
            "F": 66.26666666666667,
            "G": 100.64285714285714,
            "H": 109.35714285714286,
            "I": 105.21428571428571,
            "J": 97.14285714285714,
            "K": 87.42857142857143,
            "L": 78.07142857142857,
            "A": 67.85714285714286
        },
        "bus1": {
            "C": 50.53333333333333,
            "D": 51.13333333333333,
            "E": 51.266666666666666,
            "F": 74.8,
            "G": 109.86666666666666,
            "H": 118.6,
            "I": 112.92857142857143,
            "J": 103.14285714285714,
            "K": 93.28571428571429,
            "L": 84.14285714285714,
            "A": 71.85714285714286,
            "B": 60.57142857142857
        }
    },
    "Obs_and_actions_busses": {
        "0": -257.5320090051273,
        "1": 41.289379016943,
        "2": -17.896494763742105,
        "4": 286.4911736114125,
        "5": 302.4522348171626,
        "3": 216.80726394674232
    },
    "Obs_and_actions_tfls": {
        "0": -348.40821418291415,
        "2": 112.65387509172777,
        "1": -129.62799312060199
    }
}