{
    "Average_holding_time": [
        0.0,
        0.0,
        0.0,
        0.0,
        0.0
    ],
    "Average_travel_time_passengers": [
        7466.271991570466,
        8022.461866848529,
        8379.0112122731,
        9253.38716390797,
        9425.26892923353
    ],
    "Average_experienced_crowding": [
        879.3811309287094,
        956.5110819478257,
        1005.241775423495,
        1102.9071386778803,
        1119.117142210593
    ],
    "Average_passenger_waiting_time": [
        2687.9205881247326,
        2908.6809151254633,
        3096.876168061178,
        3493.024347169977,
        3551.220471792442
    ],
    "Average_passenger_in_vehicle_time": [
        4778.351403445997,
        5111.16914600748,
        5292.450207036215,
        5760.362816737841,
        5874.048457440898
    ],
    "av cov stops": [
        2.1852890218769856,
        2.2272275664373336,
        2.254001964437525,
        2.2678642419214023,
        2.272366266395944
    ],
    "av excess stops": [
        2848.775705326694,
        3105.98108999752,
        3266.3248926170936,
        3656.8289414155697,
        3738.452662922321
    ],
    "actions_busses": [
        1.0,
        0.0,
        0.0,
        0.0,
        0.0,
        0.0,
        0.0
    ],
    "actions_tfls": [
        1.0,
        0.0,
        0.0
    ],
    "actions_present": [
        0
    ],
    "policy_busses15": [
        284.0347125121055
    ],
    "policy_busses50": [
        373.06979980549454
    ],
    "policy_busses85": [
        1261.9719687909549
    ],
    "overview_data_complete": {
        "holding": [
            [
                0
            ],
            [
                0
            ],
            [
                0,
                0,
                0
            ],
            [
                0,
                0,
                0
            ],
            [
                0
            ]
        ],
        "waiting_time": [
            [
                2535.2849197666
            ],
            [
                2874.4752938957827
            ],
            [
                3037.1402019770176,
                2972.2056402662993,
                3057.770527625011
            ],
            [
                3135.981808497345,
                3417.6692797745886,
                3449.1234342302037
            ],
            [
                3516.663300291393
            ]
        ],
        "in_vehicle_time": [
            [
                4548.627944542051
            ],
            [
                5059.124519884152
            ],
            [
                5284.101857458194,
                5215.285753710576,
                5207.82345166509
            ],
            [
                5300.798556614236,
                5641.282418303235,
                5648.170220913833
            ],
            [
                5820.77421448923
            ]
        ],
        "experienced_crowding": [
            [
                816.6622626993845
            ],
            [
                957.3905440500985
            ],
            [
                996.9911158368122,
                956.0375254312172,
                1002.3725463092018
            ],
            [
                1008.1110045377884,
                1070.6170798769224,
                1103.5394580216137
            ],
            [
                1101.7328313252326
            ]
        ],
        "cov_of_var": [
            [
                2.157051897415139
            ],
            [
                2.251936649380194
            ],
            [
                2.2410196444614088,
                2.219801062885909,
                2.259410785213335
            ],
            [
                2.271076482351743,
                2.2734215442502905,
                2.2432487554015657
            ],
            [
                2.256067279494857
            ]
        ],
        "excess_waiting_time": [
            [
                2666.910525234348
            ],
            [
                3071.0553698840063
            ],
            [
                3186.427926826458,
                3170.8431416369035,
                3218.779809977139
            ],
            [
                3313.869975257048,
                3599.9249504125287,
                3617.481343202299
            ],
            [
                3678.0161096842544
            ]
        ]
    },
    "overview_data": [
        7083.912864308488,
        816.6622626993845,
        2.157051897415139,
        2666.910525234348
    ],
    "actions_busses_p5": [
        1.0,
        0.0,
        0.0,
        0.0,
        0.0,
        0.0,
        0.0
    ],
    "actions_tfls_p5": [
        1.0,
        0.0,
        0.0
    ],
    "actions_present_p5": [
        0
    ],
    "policy_busses15_p5": [
        280.28869833694796
    ],
    "policy_busses50_p5": [
        280.28869833694796
    ],
    "policy_busses85_p5": [
        280.28869833694796
    ]
}