{
    "Average_holding_time": [
        7.944450705132333,
        8.909871244635193,
        13.326045120523649,
        37.0494297920418,
        43.62643425809595
    ],
    "Average_travel_time_passengers": [
        2568.417902188987,
        2582.001222384045,
        2632.949526224106,
        2897.863793996856,
        3376.4628095414473
    ],
    "Average_experienced_crowding": [
        103.00301815535778,
        104.39014972476392,
        107.98778811461077,
        118.44712969724795,
        200.3948418000772
    ],
    "Average_passenger_waiting_time": [
        304.1478378874825,
        306.7263076274902,
        317.45980044850603,
        350.33313174527245,
        594.7764350952993
    ],
    "Average_passenger_in_vehicle_time": [
        2262.5126181542682,
        2275.850827872528,
        2316.159706152166,
        2545.6994868169018,
        2811.312447722651
    ],
    "av cov stops": [
        0.07781347264380212,
        0.09011148196924285,
        0.14397971455702674,
        0.2779511635719851,
        0.810104460370949
    ],
    "av excess stops": [
        38.02717008863667,
        40.25080031397631,
        50.39098029936977,
        80.40718505455207,
        333.9407905990952
    ],
    "actions_busses": [
        0.6774243895273442,
        0.19117623431500136,
        0.1087248414572847,
        0.005012772931026172,
        0.017661761769343587,
        0.0,
        0.0
    ],
    "actions_present": [
        0,
        1,
        2,
        3,
        4,
        5
    ],
    "policy_busses15": [
        -286.340365247403,
        -89.0354219538484,
        33.38045462178135,
        103.14084959400543,
        103.70932336058186,
        210.10117185944787
    ],
    "policy_busses50": [
        -189.07865860052846,
        -6.010745842577167,
        68.03216886115192,
        174.3370554332975,
        107.78177199044433,
        311.9042999127211
    ],
    "policy_busses85": [
        -166.97876258732012,
        25.05903291049683,
        104.44895216127895,
        330.85982037608187,
        498.4382051202555,
        392.25432616687436
    ],
    "overview_data_complete": {
        "travel_time": [
            [
                2553.5683860739746,
                2560.891541709391,
                2568.3556820633735,
                2566.6930589147996,
                2565.2758470144286,
                2562.370205530166,
                2547.410000325595,
                2566.9506712380244,
                2560.5141455479197,
                2543.9607140926328,
                2550.4399983125572,
                2567.107105778262,
                2550.3151118065234,
                2564.1002743503645,
                2566.8342016528554,
                2567.462626583997,
                2553.290884276003,
                2559.6105753552165,
                2556.906853823016,
                2566.8082706428513,
                2568.1698047735877
            ],
            [
                2580.787434151785,
                2576.068099410701,
                2577.2921388034406,
                2581.3595114181885,
                2570.8071879063336,
                2579.4473048351583,
                2581.7879861474817,
                2573.2755118739365,
                2568.468809564489,
                2580.76854877316,
                2571.734023678504,
                2570.0441692140453,
                2573.226666752947,
                2579.200420363867,
                2573.0326125591273,
                2572.9411616732723,
                2577.2754975155863,
                2581.522397034974,
                2581.386069002606,
                2581.512073109293,
                2579.7496641611724,
                2580.838040032164,
                2581.8316735636745,
                2579.710306854964,
                2576.8940602813295,
                2579.8718147895556,
                2570.0763578224437,
                2579.2068536204365,
                2578.772780687165,
                2569.460337611507,
                2580.0141759123535,
                2577.210879922557,
                2569.325011096006,
                2571.636407883924,
                2575.857277666413,
                2580.406319741804,
                2576.31183111598,
                2571.971439050774,
                2577.8641186062055,
                2579.1257114149385,
                2581.0630042163452
            ],
            [
                2602.940745228845,
                2616.450127176552,
                2603.032501162545,
                2597.6596022357107,
                2596.4930030784776,
                2597.3809691780284,
                2615.2979656087964,
                2585.2764149528102,
                2603.9672982856705,
                2587.122032608521,
                2584.275964607723,
                2596.1953082777795,
                2596.32614944384,
                2626.4548553838235,
                2629.685142871683,
                2625.2259130410425,
                2593.22046343632,
                2596.2419257134766,
                2630.3714104846845,
                2582.0925179027063,
                2602.1670627369817,
                2587.1068466434126,
                2608.971278792227,
                2585.244038304337,
                2608.2975325958832,
                2619.4394863135967,
                2615.797565364599,
                2620.634627834627,
                2591.640596645382,
                2620.016870700574,
                2595.4453251167506,
                2598.947871756428,
                2626.8410857283134,
                2607.13071734773,
                2594.9412365812404,
                2606.379753660694,
                2615.6828821832505,
                2605.05266417064,
                2593.73741130758,
                2588.925577722729,
                2583.6274703601775,
                2608.9769576711483,
                2598.497016501857,
                2605.792951933512,
                2629.6375121188453,
                2629.1106525509176,
                2630.6559206705333,
                2611.3227424595243,
                2618.1738851829455,
                2616.925438393391,
                2631.9243634526388,
                2632.0019512236136,
                2624.2859823037156,
                2603.346222426933,
                2629.248801911163,
                2623.3405908299674,
                2630.328762607516,
                2625.5886186435396,
                2609.700895629795,
                2622.619876495826,
                2596.3738041814267,
                2594.9091101836384,
                2612.52390207198,
                2624.40114000111,
                2631.534300799251,
                2625.2625471786837,
                2595.2177121782406,
                2583.8028439647574,
                2616.9163735846637,
                2618.8208404512675,
                2629.5479112044277,
                2625.482270016961,
                2597.809975039653,
                2586.1766605315815,
                2603.39419790692,
                2605.6733329519666,
                2619.879910133951,
                2632.566868040183,
                2617.698377637311,
                2618.3591488326006,
                2617.993004234903,
                2619.100905681409,
                2619.7843662913538,
                2619.2931747374632,
                2616.575166143932,
                2622.2234774445883,
                2619.0025130473914,
                2617.646682950727,
                2614.9413108457284,
                2632.2445102084744,
                2596.3878539525917,
                2583.4509787381694,
                2603.291593118108,
                2591.96475052441,
                2595.281888589934,
                2589.2488495406124,
                2582.2060505238346,
                2587.6337192062106,
                2600.4679048292082,
                2585.2420083095217,
                2622.7092556236425,
                2624.6241971944282,
                2599.709840337202,
                2607.5179894817516,
                2611.972150325294,
                2597.7383819425177,
                2599.013260210832,
                2609.688062777589,
                2591.3930700480055,
                2616.2426612573836,
                2627.3285208324273,
                2591.8663396083325,
                2582.441697824741,
                2590.7138115339553,
                2589.5735655503786,
                2584.2191516459193,
                2590.5237945002477,
                2586.5969007452413,
                2623.9713520482596,
                2593.649809821698,
                2608.9840681583164,
                2590.77880099742,
                2618.3513794653445,
                2618.853377915718,
                2605.6745603865847,
                2606.398677196081,
                2592.54820212906,
                2610.5326629511815,
                2619.8356927641216,
                2619.6179239447465,
                2607.6133521315965,
                2615.335563826605,
                2624.723027390495,
                2623.603284228268,
                2604.6960518595065,
                2617.1489371449893,
                2601.0775001579254,
                2601.5718586759235,
                2621.746340831597,
                2606.924313231561,
                2619.5331973781394,
                2607.782260705495,
                2599.7121221958223,
                2593.064273443292
            ],
            [
                2647.5298632493236,
                2636.041368135963,
                2775.2007764890927,
                2751.526854820104,
                2643.1913926741654,
                2639.2401874483494,
                2683.012691318581,
                2648.3757819137045,
                2676.371017211557,
                2665.071098543964,
                2717.090111420237,
                2675.694278776869,
                2654.6238095459094,
                2635.097710082575,
                2655.4282362594136,
                2747.105483278572,
                2751.1455164527965,
                2669.77648970593,
                2702.7856483507608,
                2643.149521309303,
                2656.2197848821247,
                2638.280972952477,
                2636.606282776925,
                2639.161695281279,
                2652.504174796072,
                2669.0612538548976,
                2703.692594775019,
                2648.2448123135923,
                2659.762121903109,
                2656.1456571820963,
                2639.2303117127185,
                2635.6488238438365,
                2789.985916413563,
                2642.5673352579765,
                2633.332184408029,
                2720.8954830708017,
                2813.4945726835886,
                2657.1731530994425,
                2656.7225633816847,
                2635.8451153966357,
                2686.0785315032663,
                2672.54996104852,
                2710.490558145236,
                2650.7983444290217,
                2641.6727379489394,
                2667.178488024192,
                2673.805405270067,
                2755.5161235286555,
                2871.287284103426,
                2813.899215322523,
                2829.427485463735,
                2840.3890631002246,
                2859.3881757231406,
                2806.0788180045133,
                2796.95313843732,
                2843.387762868862,
                2888.236325336227,
                2865.1712127132714,
                2878.4100341980934,
                2880.1900577904194,
                2799.844181311936,
                2865.883011536533,
                2822.5561282044537,
                2822.4424558130095,
                2815.9352082594046,
                2851.5693914023414,
                2818.164245304799,
                2831.3049864653194,
                2883.9404414812475,
                2887.110607052234,
                2897.5052718277925,
                2881.4243469695766,
                2810.7941812818713,
                2829.454277810914,
                2842.0099955512806,
                2820.268278942847,
                2827.1643110394803,
                2832.3879430754237,
                2861.8384562232327,
                2847.8763366952485,
                2855.768807270449,
                2829.3100940055074,
                2826.7907385882927,
                2845.7969545484284,
                2831.725039733819,
                2814.0868558446186,
                2867.0656480356324,
                2852.802110486477,
                2818.4231867950725,
                2865.3970833554713,
                2857.7576495405215,
                2839.70984581457,
                2837.6196373346534,
                2808.4030631861788,
                2835.2950937534656,
                2876.9242030400806,
                2864.8612729654933,
                2857.0562033683627,
                2837.102049948668,
                2826.8305690782686,
                2810.5801740817783,
                2819.0563797384716,
                2841.523319749456,
                2714.9348561012525,
                2714.144565726704,
                2705.4624252679105,
                2674.926036463637,
                2655.797411019399,
                2660.560519893477,
                2718.130453299931,
                2654.0200184200676,
                2674.278810619988,
                2642.263210798892,
                2634.4258456143343,
                2666.6477712868686,
                2646.3470967971293,
                2663.99860923334,
                2657.779206968037,
                2808.9341235435995,
                2660.770823028162,
                2725.0617029201844,
                2644.826290479482,
                2711.553911451548,
                2635.3373896168723,
                2686.170023030366,
                2645.749201831701,
                2656.1964931400107,
                2733.8592248967466,
                2796.323151505554,
                2651.273240777532,
                2685.6885754046357,
                2634.8829782845,
                2639.429483846154,
                2656.0576881813977,
                2717.2465203489096,
                2659.388398609098,
                2635.2570301587148,
                2635.0853385403893,
                2646.062685542236,
                2654.7102033931696,
                2662.958315059806,
                2644.9351375421797,
                2637.6211066189285,
                2707.5337774655254
            ],
            [
                3004.9555165224783,
                3252.5230454413218,
                3219.926054337668,
                3033.448341582547,
                2936.4600506097922,
                3164.1813788412155,
                2961.8584599452415,
                3099.297470050067,
                3230.245304411864,
                3084.9009017545495,
                3250.8007590860693,
                2910.0914993502806,
                2917.4431826987707,
                2934.205758013561,
                2909.282957579472,
                2915.6506535969993,
                2904.936858559427,
                2911.92508730439,
                2940.8439795957142,
                2922.17541934971,
                2996.702481870191,
                2944.0185790230516,
                2913.9601161930577,
                2927.884744350112,
                2931.210448754312,
                2945.2604988737085,
                2909.7521065564147,
                2973.3625747561423,
                2940.785348862718,
                2907.351892644327,
                2898.5296208822606,
                3007.6083257376613,
                2919.8601917488054,
                2911.108984684093,
                2903.9380838913316,
                3046.5310701509015,
                2920.020167926003,
                2923.808018062488,
                3119.1198416042384,
                2999.432420571242,
                3041.9079893875255
            ]
        ],
        "experienced_crowding": [
            [
                105.20766193991517,
                104.82470289882177,
                104.12192987494402,
                102.93843527987143,
                103.66423211315755,
                103.11571657453716,
                101.6916347277376,
                103.41852663499,
                102.7499639853898,
                101.24415852915409,
                101.79530223008324,
                103.54925038623027,
                102.22700878463395,
                103.36724238328867,
                105.53378277274689,
                104.77918983759588,
                102.43670688631272,
                103.35956257490636,
                102.12446586363826,
                101.87152303824963,
                103.49245784631565
            ],
            [
                106.35456158259981,
                103.82438634020704,
                106.31398730598954,
                106.2062205028193,
                104.72139085366356,
                104.5032084852055,
                103.30331088192553,
                104.41505864730799,
                102.78584893410198,
                104.36515126487923,
                104.12506132147779,
                104.39641773735039,
                104.13236908181896,
                103.48188864189483,
                105.15527746352377,
                102.76083360394735,
                102.71024515102278,
                104.36853987582636,
                105.42727171559383,
                103.53204674719323,
                102.96148672338482,
                105.22594858768936,
                105.96133167842702,
                105.79008118971876,
                104.21266722914315,
                105.20026290954917,
                104.93335214645514,
                104.45666386818355,
                103.7139304927323,
                104.43356214353945,
                104.45046437859617,
                105.43457085149802,
                102.53120214179208,
                102.74919438799274,
                104.29714532545282,
                104.21569357057649,
                103.59490508934897,
                104.74091011957348,
                102.35471772840775,
                102.44526489674458,
                103.26125204174836
            ],
            [
                106.73337684429792,
                109.38254392681773,
                106.75569388597759,
                108.60408165046064,
                107.05911394232557,
                107.95831151407786,
                110.12023683440358,
                103.98815221800788,
                107.36139373007191,
                105.12741210167995,
                105.33760586983465,
                108.07306955661663,
                105.83352431149109,
                108.48500394418251,
                107.63012336979297,
                107.5752692109126,
                105.17982129231795,
                105.68471059700758,
                109.9188662435924,
                104.30815816133484,
                107.77413690760287,
                103.45671790351925,
                105.9393109443082,
                104.93593057851373,
                106.1922064128605,
                106.74384591114455,
                106.08420078567772,
                107.21033401479842,
                104.19754115118997,
                107.79801927054389,
                104.29955249050391,
                106.05674971584334,
                108.05806891327123,
                106.5126718487737,
                104.84953918254057,
                107.9823525496048,
                107.1005380891427,
                106.37216788439717,
                105.75203055129624,
                104.2971519636156,
                105.00241779951756,
                106.92188593021311,
                106.19318734577853,
                106.25943758025059,
                103.4687463348796,
                104.6521164702895,
                106.63600730285377,
                105.26161222278691,
                106.07088683124708,
                105.08829666539279,
                106.0668030023824,
                105.38434508980451,
                105.6770763429634,
                103.5274638459447,
                104.9341663523867,
                105.60149270876587,
                106.08726231200757,
                106.27597131939321,
                105.14515350677692,
                107.15306057342289,
                107.48789099392073,
                105.93077278616119,
                107.71027076453404,
                109.28337917498158,
                111.63858057607125,
                108.00872379409857,
                107.1881837758756,
                106.72002438048648,
                107.33062081079996,
                107.7408349414934,
                109.59489422757999,
                109.47572931908036,
                104.73348420627316,
                105.60934649011283,
                108.66573033855573,
                105.01831679986742,
                106.52683528244408,
                106.59571913713062,
                105.36356525488279,
                106.38737641137425,
                106.86860206119584,
                107.40467856439321,
                105.49444449156672,
                107.12116750677102,
                104.62182064270152,
                104.926305586435,
                106.66669613099599,
                104.1078469641161,
                105.96378390578974,
                104.44284063649854,
                105.17787370693408,
                102.99747111044934,
                105.30178571784715,
                101.69786942709845,
                106.44507037195729,
                104.78085978212141,
                103.15901142631746,
                104.11666149062815,
                106.40742626319519,
                104.89389565075737,
                105.9285007211495,
                108.71304408124234,
                106.79684600446186,
                106.09328510380821,
                105.52339145240555,
                105.80597460852657,
                105.18980400617764,
                106.01081461188873,
                103.75932022809027,
                107.43750081705622,
                107.0899161176999,
                104.37850912996048,
                103.60798964377858,
                105.41215361023148,
                102.77341672223352,
                104.436825022968,
                105.08547731138073,
                102.9538737764975,
                107.1202088798125,
                104.2109829797017,
                106.25812225195709,
                104.56184100825371,
                105.50013934047679,
                105.83393106549673,
                104.52328748382489,
                104.816835949725,
                105.47785265700132,
                104.32048911367097,
                105.04134968163466,
                106.21447379299882,
                105.12715955295062,
                105.33612125643154,
                106.10686990547858,
                107.03947438711201,
                105.10305032677601,
                106.22301887131782,
                104.55934066220807,
                104.93821511810205,
                106.79495196718658,
                104.06787258022082,
                106.17640205048521,
                103.0075566466465,
                105.3452868339946,
                105.3876640034503
            ],
            [
                111.50717029688532,
                112.57811225879941,
                123.76828931556054,
                121.52347038493131,
                111.7746507863577,
                110.95946482288123,
                114.82969210369173,
                111.94137882179734,
                113.20798387515666,
                114.01475277966698,
                118.59455892515156,
                113.33206866823214,
                112.22517944606764,
                111.78337775813269,
                111.62391439150663,
                118.45176596847756,
                118.71402119994114,
                111.22809405479583,
                113.84900524510728,
                108.77993398181101,
                111.20092340025882,
                109.05743177552124,
                108.7088123079172,
                110.34538356250772,
                111.19004745867375,
                113.00674267117968,
                115.24625910210466,
                109.53256695358951,
                109.1255670830966,
                109.40821039885593,
                107.53035443289279,
                104.6369749622431,
                121.54487686499739,
                106.07304262976211,
                104.88763178003963,
                110.77340626753853,
                118.33768566313233,
                108.42799287712938,
                107.23037900999978,
                104.32342774810994,
                109.24277201852506,
                113.25715107102074,
                115.86648473109834,
                111.08259572545376,
                110.99133392085011,
                112.39984159832949,
                112.61171861419838,
                120.93651633698622,
                118.41988497888293,
                112.79607439989695,
                112.74792541428381,
                118.44463324350892,
                115.42474319742918,
                113.80623360273688,
                113.44370791093782,
                115.1079838709169,
                120.38293391671542,
                113.50859659520779,
                115.05665382615116,
                115.26379861907763,
                111.3731298341026,
                116.18374166053096,
                114.70111803894766,
                116.04143559957572,
                114.55448229711467,
                115.60223492710283,
                112.78012135403348,
                114.67219915078661,
                115.23066936149019,
                117.01351937607085,
                116.3065825089169,
                116.77067138170614,
                110.43293365118785,
                114.31173393914742,
                114.60400951142567,
                115.05821434992043,
                114.7804963018873,
                113.64282893520009,
                116.88167438369709,
                114.46915938511933,
                117.20326192755773,
                114.7736114264355,
                115.72986885661349,
                115.7631981794588,
                113.59577802205756,
                113.38756210140927,
                117.7135031864872,
                118.53591971354155,
                113.00552125033542,
                115.49511407139423,
                115.31904617860418,
                115.38505818108612,
                114.3286557436565,
                111.68357843044949,
                115.22740560511382,
                116.8695255709257,
                117.21522272721867,
                117.35489433360074,
                114.89664075875771,
                112.2426586573364,
                112.75244178841436,
                113.22979739629336,
                115.18154193520834,
                113.79453342311785,
                114.99094390490862,
                113.43074125624469,
                108.48804086431042,
                108.72838800584826,
                109.14309563477121,
                114.5612782666229,
                109.68530203663008,
                110.69489172645284,
                109.58846749549684,
                107.99322367961672,
                110.07865965192565,
                107.32535816975205,
                108.40958073778354,
                108.40277679555695,
                125.32942657939849,
                107.92201817123475,
                114.8273604764116,
                107.3902477176588,
                119.02939335138855,
                109.69388519586906,
                113.02895849872073,
                107.41906556742616,
                109.03410700848082,
                116.46165515239151,
                125.62288373559474,
                108.31749246682541,
                113.3762071950722,
                110.02234714002417,
                107.36280278361963,
                111.47657485821594,
                114.46309446168274,
                108.34486687818264,
                106.73744964420716,
                108.24107616319924,
                105.58643229890073,
                108.53551362765708,
                109.99112346785469,
                107.76413294293717,
                108.18108600831522,
                112.33080985397693
            ],
            [
                151.13592058422222,
                171.41147102707325,
                164.2672990577856,
                145.93027658673722,
                127.39561200514541,
                161.69848862605332,
                139.9317445115832,
                145.3018881183285,
                164.96406237554538,
                167.43500205396532,
                187.7726925926509,
                121.6639571971799,
                124.58491775121414,
                120.95155882818943,
                118.10216680062585,
                118.57542376080197,
                116.79127780151094,
                119.16507578843354,
                119.26716843107997,
                117.29754020955197,
                127.18238997869568,
                118.62009106673965,
                118.62543359768407,
                116.20930403895423,
                117.21334325946125,
                118.19928250143923,
                116.8569522288192,
                124.84629139847857,
                122.31942212706812,
                117.08255856496217,
                117.8505107387366,
                127.78952885372424,
                117.32179421687923,
                117.68663605226284,
                117.17551807706641,
                145.3316544571224,
                123.3967355895375,
                125.34840531748537,
                156.03639104001454,
                132.66631239874962,
                153.06052766195896
            ]
        ],
        "cov_of_var": [
            [
                0.12546786376906435,
                0.144143345347984,
                0.10826129646148008,
                0.10218065090244598,
                0.07779881709447113,
                0.07516341625144879,
                0.08864803239647832,
                0.10048726293730771,
                0.09446810381583727,
                0.07984138071056038,
                0.06814644304550711,
                0.08744457219294201,
                0.11514636334832534,
                0.07459332324264993,
                0.11388564551605852,
                0.1782413100977697,
                0.1418041239583964,
                0.11399083227509234,
                0.09210350466884083,
                0.1035292145781095,
                0.11985780970283326
            ],
            [
                0.1833735880277569,
                0.17479398646725608,
                0.16983625906818886,
                0.17295461899692663,
                0.17677020254165055,
                0.07782546354780018,
                0.11008059488880646,
                0.09166599619468752,
                0.10213343053123114,
                0.13272264604280135,
                0.10934273107772109,
                0.0728220654552107,
                0.11951815289189228,
                0.11325775633694747,
                0.10739658753155518,
                0.06268346948363146,
                0.09100388227409896,
                0.09414496046201204,
                0.08847704562404939,
                0.08009680907474366,
                0.06768548746479158,
                0.15911890928609487,
                0.18237805581276367,
                0.15899412541720712,
                0.14296794133966909,
                0.15953857954987485,
                0.13772796879773616,
                0.15256606927256708,
                0.17422833268664392,
                0.15037448255237917,
                0.12310315565953715,
                0.11115575730209619,
                0.09756737348545301,
                0.12064280428797103,
                0.09651236248967905,
                0.09713152729009496,
                0.08448391836750561,
                0.09078402690806325,
                0.08407596435354629,
                0.07267297728679081,
                0.0807773263554596
            ],
            [
                0.21200104492112323,
                0.2039313346668787,
                0.19285688328029157,
                0.2017193140917657,
                0.20370097031797252,
                0.20877534694626987,
                0.24581779615259716,
                0.18120773462277717,
                0.22000491614819281,
                0.1980416876709452,
                0.15892834561240524,
                0.22934476651781302,
                0.17070698247855054,
                0.2087626663903067,
                0.183285105518492,
                0.1464852598720419,
                0.107434308894922,
                0.12787936456097684,
                0.2263817443199435,
                0.1368622234291023,
                0.14306155870237403,
                0.07489083007674309,
                0.13275022721635812,
                0.12399777894861445,
                0.1010986607169602,
                0.14251547107221893,
                0.12939427899019848,
                0.17087436885123553,
                0.11763089366831603,
                0.19367117572653436,
                0.1292257825547031,
                0.15662894255656049,
                0.18272624168250715,
                0.1397301197845173,
                0.12831478232197782,
                0.15705114345354626,
                0.17591501333749993,
                0.15742300313257634,
                0.08030275844797538,
                0.09839989270391718,
                0.10759676853738583,
                0.12943741503876863,
                0.12022865492080105,
                0.14873403790803827,
                0.11914675760373213,
                0.125625597865998,
                0.10437459531251729,
                0.0816501899742742,
                0.09670751110595965,
                0.10815819703083702,
                0.0859592423802414,
                0.07559941974415145,
                0.07364775303350206,
                0.10697312295027421,
                0.06979789004298549,
                0.08463685893899818,
                0.10743853725202364,
                0.08991161153447637,
                0.07826192207426155,
                0.19413914405418617,
                0.17955280879493093,
                0.1702258600263518,
                0.16166468504849008,
                0.2326468402527165,
                0.2540324011980045,
                0.19003712681884263,
                0.18537304983220768,
                0.17575965301357463,
                0.17344713737637266,
                0.20753842165026948,
                0.2495469080969411,
                0.1832142026320466,
                0.11180088101683543,
                0.16717485266646226,
                0.19151615242074263,
                0.11595309193729597,
                0.13351663456327859,
                0.11116175477771857,
                0.09621993161934367,
                0.16043824551528355,
                0.1570261477633569,
                0.1270569054250324,
                0.1032520393739121,
                0.16466334408468009,
                0.09128733968114328,
                0.08817696309080751,
                0.08379465670148196,
                0.0952479814726775,
                0.0700310121400219,
                0.08139483943828124,
                0.08215387336247502,
                0.08624064201351202,
                0.0844900700924675,
                0.0826491306600061,
                0.11825144470861543,
                0.09253630263917312,
                0.10120284430433701,
                0.08795379650761363,
                0.12254677055830442,
                0.08662991538987645,
                0.12577515481241416,
                0.18651918699404021,
                0.1928356023926933,
                0.14380820294911506,
                0.15052790824734394,
                0.11753247598554573,
                0.13554459083430162,
                0.13484603681955235,
                0.10115259882640726,
                0.18022902843794716,
                0.18407598821232693,
                0.08929650612424898,
                0.1400544481092017,
                0.08751813217748473,
                0.146834388838157,
                0.09255332222279473,
                0.14663886800765602,
                0.08604562178005669,
                0.11310033111512563,
                0.10925826156722103,
                0.09242465955019931,
                0.07035474134878299,
                0.13033714787440095,
                0.09103218475598483,
                0.09720322632907406,
                0.07102551929498235,
                0.10119303565118994,
                0.08427010116873189,
                0.07515507172510032,
                0.1123392921362666,
                0.08337652595175134,
                0.09252753020945037,
                0.10188274184199995,
                0.13757974259873834,
                0.07576117072853235,
                0.16013801660510915,
                0.07502938464517764,
                0.11522462459955833,
                0.10693512809967902,
                0.0886439641370546,
                0.08690766464154742,
                0.11381101388857395,
                0.11576187618592187,
                0.09209140793897073
            ],
            [
                0.25621425525584396,
                0.22446801976502892,
                0.39317891261055243,
                0.3420259713010007,
                0.23811014876454362,
                0.2725472757707592,
                0.2703947873884753,
                0.24362989080521136,
                0.2717544240867872,
                0.2531485852846153,
                0.33954300962840306,
                0.28211853053981634,
                0.2708948394805449,
                0.2520645652597658,
                0.2754503298307246,
                0.37356690514127244,
                0.30286244890776415,
                0.2481692074987991,
                0.30137869976865034,
                0.17778016474890967,
                0.24944308366393664,
                0.17760826990134948,
                0.20713678370372765,
                0.19403690641504304,
                0.21904505442478317,
                0.25138808818100494,
                0.3002879722157756,
                0.20735872601699276,
                0.12607646969259276,
                0.1395450375336615,
                0.17743642285765063,
                0.0801461635332568,
                0.3405709194760318,
                0.10189930799423752,
                0.10161506927140045,
                0.187529574937873,
                0.28404078146209605,
                0.14942953477477341,
                0.1019347286710013,
                0.11006838247936601,
                0.1460101912546827,
                0.27423286336485203,
                0.2986764901292645,
                0.22431867913371006,
                0.25235166250049335,
                0.2862600421853133,
                0.28189283956913264,
                0.351141927822283,
                0.2090920005922934,
                0.07271514144375119,
                0.11294077134210291,
                0.19519384871488796,
                0.13355475002658138,
                0.09233811913495232,
                0.07717420912581698,
                0.1400763690434142,
                0.24294994015887492,
                0.0932640161693083,
                0.13149843128720748,
                0.0961126890132921,
                0.08564961025562756,
                0.19117632503332072,
                0.20754967124105808,
                0.1750331270434162,
                0.14162911527728597,
                0.17748296959265497,
                0.14613259480919039,
                0.12184710870957982,
                0.07896696184630568,
                0.09724637041502189,
                0.09954757941136416,
                0.11909999211522564,
                0.0943457626834976,
                0.11547612949623852,
                0.09016010822434006,
                0.09708971321387137,
                0.09713009760884846,
                0.14591728454261496,
                0.16307234093538298,
                0.08790299434146566,
                0.1736948682057293,
                0.10051836571618082,
                0.11553767956000645,
                0.15097936482431432,
                0.13029393281365145,
                0.09699684243698464,
                0.16384237247301286,
                0.16496799755505467,
                0.07803533089951191,
                0.11284524579919475,
                0.1085128882244048,
                0.09075879202556836,
                0.0845111054792504,
                0.09002117606691945,
                0.08255298583629075,
                0.09046342381002387,
                0.19867693722369362,
                0.20559140272348417,
                0.11143300411633104,
                0.10047814604913786,
                0.0708810052400734,
                0.1007970806305482,
                0.09747489044108175,
                0.2542779450095092,
                0.2747934636426734,
                0.21503154522962156,
                0.161122867841172,
                0.15186934518801887,
                0.16571607648763595,
                0.30557257249869146,
                0.22820114409636738,
                0.17307097230362578,
                0.1489721458756733,
                0.15993862463930217,
                0.16821607063929378,
                0.11260550812340255,
                0.0911830251695846,
                0.1475342392588346,
                0.39170598891255093,
                0.18310805217024415,
                0.2863593451753194,
                0.14995485631066285,
                0.33743721525571213,
                0.20134298832908806,
                0.24085674394089937,
                0.15419129523994243,
                0.20497128139461007,
                0.3122050388335175,
                0.41216199111062396,
                0.19184993357935018,
                0.26628530580709425,
                0.2067719854451133,
                0.16259748713298855,
                0.23719067325749363,
                0.2833553165348472,
                0.16529603549521002,
                0.10045968285196433,
                0.1415021488627579,
                0.10402843480576475,
                0.20700385090202789,
                0.1710175422401757,
                0.15723539478255097,
                0.1731173000837182,
                0.27582872265044445
            ],
            [
                0.5998364878864629,
                0.6367312947009466,
                0.5858034657252399,
                0.5137319922096092,
                0.33852107719741725,
                0.5668536459496513,
                0.47586651536383334,
                0.4385791875116494,
                0.6118580301550745,
                0.6960249133432534,
                0.7755556602354504,
                0.2624001240950676,
                0.2931653760764933,
                0.25468644646373745,
                0.1422512927294729,
                0.09052444108432761,
                0.09917349721313916,
                0.10749828542547134,
                0.08923373756224677,
                0.09469060493697569,
                0.3171359283824862,
                0.10020283962459682,
                0.15117958610727103,
                0.09843085759799126,
                0.084599708470094,
                0.09343636048258498,
                0.09476199490490907,
                0.23726493199212073,
                0.21499817983436445,
                0.104554617591519,
                0.1538912726221656,
                0.3359917542033212,
                0.17066781047822047,
                0.12270253636362162,
                0.14381608376606944,
                0.5215406759046828,
                0.31525698975935107,
                0.3103025547471689,
                0.5747955489165008,
                0.41014349564964553,
                0.6022844639720512
            ]
        ],
        "excess_waiting_time": [
            [
                37.51444914628173,
                39.32872308471526,
                39.335119040520766,
                38.185781634582234,
                37.040264540863085,
                36.7714020744025,
                37.241288105870424,
                38.574579414877014,
                38.00688145970907,
                35.05853767511311,
                35.40590305621283,
                37.60503695116619,
                39.519187992736,
                36.933902412378,
                37.64835446679703,
                46.018113738091735,
                39.742554157603784,
                37.39889065195904,
                40.677061630841536,
                39.12905629217099,
                42.874783604938585
            ],
            [
                46.74388067485694,
                43.040260632055606,
                43.46958279943065,
                43.978181995655156,
                44.81449750515225,
                37.512719947033055,
                39.17503178917692,
                38.652557552787144,
                37.71853370152053,
                41.46761203732835,
                39.86190976436318,
                35.526068536623555,
                42.19254303607562,
                39.874947728936256,
                39.14087825519939,
                35.023933940127264,
                37.92299882323719,
                39.15340398184836,
                38.33849644145823,
                38.217327917658075,
                35.433228988620506,
                44.04534057809408,
                47.213016704307556,
                44.02719565948345,
                41.248403292361864,
                43.46248431995324,
                41.097608019414345,
                41.15036367448762,
                45.3642980731371,
                42.51956077631924,
                38.53194336481203,
                41.15552748102545,
                38.430200171481026,
                40.33006971083547,
                39.29597144068801,
                38.90980023087814,
                38.590257406876646,
                39.176632374874124,
                37.97239232529991,
                38.5425950748803,
                40.60268845175797
            ],
            [
                50.43582094981968,
                50.9912506875466,
                48.27946037913885,
                50.9610944092237,
                49.879472132779206,
                50.25471569042643,
                57.40990936088273,
                44.094069583177735,
                52.635436681991685,
                47.76946161119094,
                41.14485283268413,
                53.63483105199771,
                44.500485163134506,
                50.96617260928719,
                52.389015035601716,
                46.4262289333744,
                39.73219943577162,
                42.528593155450956,
                58.90871265898297,
                41.42691285669459,
                44.26210448594381,
                37.304172839758756,
                43.82297932398063,
                40.41401346374145,
                39.27063040233565,
                44.09789131479349,
                43.06132908760194,
                49.518599763157106,
                41.46640527873512,
                52.06046537916635,
                41.49302424609531,
                46.36633896004012,
                50.582062088725515,
                43.08589283471724,
                42.429472698170166,
                46.86657880931798,
                48.514011584534664,
                46.08449006523307,
                38.043769875941074,
                39.89762957128305,
                40.82450212755341,
                43.39018766825416,
                42.02152025298104,
                44.83428426687143,
                45.661345990935196,
                44.677515451995625,
                46.46716232038159,
                41.871886140790544,
                44.8069803090332,
                45.824797917318314,
                43.10767943451117,
                42.381107266270206,
                42.52935564888943,
                44.62432118005464,
                42.01775608034628,
                42.28811267960884,
                45.837739200446244,
                44.15960685264883,
                41.70977666220546,
                50.32091521331523,
                47.616828331221335,
                45.84610734168129,
                45.159221013944034,
                56.25495345463336,
                61.852484846707135,
                49.523533063434535,
                47.362501271830126,
                46.41168121126619,
                45.21985518376886,
                52.644245727494685,
                59.91365335534067,
                48.822900409881875,
                38.05489625904485,
                45.3875779389625,
                49.75590751857229,
                45.98533574850912,
                46.534222347190706,
                47.079583238311045,
                41.79119577974232,
                49.70995660047203,
                49.13830619552067,
                46.28108109634496,
                43.40585950557096,
                52.47616241030865,
                42.97724239039118,
                42.588945570513616,
                43.49148565785642,
                41.64817873040257,
                40.17831222368289,
                44.8029799093685,
                40.766753108733646,
                39.998469211618804,
                40.27550236359196,
                39.42864073273765,
                41.279996656707276,
                38.604874644399366,
                39.73403218998657,
                38.256722346987004,
                43.018664114885816,
                38.14981354085109,
                44.75563384295416,
                51.946970162528366,
                51.0842923877791,
                46.6689132576617,
                46.565692125566784,
                42.50215652905501,
                43.80022105923545,
                43.95441574722552,
                40.04995422497415,
                50.59732459446112,
                50.906813704966574,
                37.590157494990144,
                42.621930205721554,
                39.52435813616044,
                43.087104937139166,
                40.20492507897581,
                44.31929800890148,
                37.579424237887096,
                42.62839396601044,
                42.91412318210697,
                41.24297633782872,
                38.59731064206476,
                44.787811398514656,
                41.8746808714702,
                42.303741499922296,
                40.16404292594745,
                43.713643896128495,
                42.20543932305238,
                41.005215884401906,
                44.36958140078656,
                41.52534144977142,
                41.80669892188279,
                44.587451409318874,
                48.287613953306256,
                40.154029964104886,
                49.694637969808014,
                40.06142164417553,
                43.717508246542614,
                44.31769019327978,
                41.48585112069125,
                41.480519653799256,
                41.375141305378946,
                44.20283251144087,
                41.79599858280005
            ],
            [
                61.53691935445651,
                56.61870371526381,
                99.13768832259713,
                87.77628881375561,
                59.59806455878081,
                62.34702320237284,
                66.96859267492833,
                58.76547131408097,
                65.41949456625723,
                62.956614320452196,
                84.61275781172901,
                70.80958014986156,
                65.30705444307034,
                60.69517767138611,
                66.70110586928975,
                91.23027204393269,
                79.41284188083561,
                61.78164796027124,
                74.83115243442032,
                50.396470652990594,
                62.969998055278246,
                50.385489945748965,
                54.69298115667653,
                52.848357348035584,
                58.054276427929615,
                63.45611564934677,
                73.26256948340823,
                55.23686852670141,
                46.9100644363131,
                48.70041743556343,
                53.45286824844049,
                43.31025414593464,
                92.38568668388444,
                45.65570161850875,
                48.583775122172256,
                62.0666769414438,
                85.3468575363619,
                50.69862594827626,
                45.269051647967636,
                44.06341002045453,
                52.55391232314194,
                66.28665195700056,
                71.75472317363713,
                57.34070662831357,
                61.4332736636152,
                67.46593818792462,
                67.15076725180991,
                88.27711443532222,
                83.2617423777038,
                64.23162936856177,
                65.63068518839066,
                77.79928840476532,
                69.54831119289965,
                64.29678843914688,
                63.68169490515431,
                70.52261970531295,
                88.384680807083,
                74.61451666861429,
                78.88246065658225,
                76.39084579408802,
                65.45504028619443,
                79.87910382931113,
                78.06228323985363,
                73.72978729852639,
                66.59809333755322,
                75.68731524291856,
                69.46448611314328,
                67.2065266336531,
                73.94802607329531,
                75.73929544201563,
                74.4665757086603,
                78.70923820226942,
                66.84435322379336,
                69.47952932630007,
                68.02919007789446,
                67.97540763364735,
                69.61730521051179,
                72.32312829280231,
                76.92881130740126,
                68.34226471246099,
                77.30808995340055,
                69.89697028776354,
                70.67081996492585,
                73.89021138230407,
                70.15006023554146,
                67.34429768702456,
                76.77060695059227,
                78.34870609704673,
                66.08073205728407,
                71.19130305471536,
                69.92090097908918,
                68.73518333904889,
                66.18218243894098,
                66.85999004843377,
                67.72023602684537,
                69.93924780379263,
                80.50072328229265,
                81.99961810836295,
                70.70462434279996,
                67.15650658639959,
                65.5992581377713,
                69.04029341028189,
                68.5785168350583,
                69.62536065203132,
                71.82948461317177,
                65.06490878931233,
                54.448588560705254,
                49.4864340550506,
                52.85679470722522,
                79.90784842977696,
                59.67168620869023,
                56.59566283470068,
                50.75957891267757,
                50.21579871014115,
                50.60116073589011,
                48.62799062020478,
                45.738280555044696,
                48.35647427205779,
                103.73998809503631,
                54.75483417880395,
                74.53247481632081,
                50.2386516836888,
                84.23643322603641,
                55.02982393444796,
                62.80540409594664,
                46.87956952410792,
                55.258927016583435,
                76.74528856722539,
                106.06091821595464,
                52.6777620409541,
                66.51509950817258,
                55.79313254183694,
                48.04092541427781,
                63.0242238020708,
                73.86147508383304,
                52.8593508494483,
                44.30989809174327,
                49.205657979811775,
                43.505930925989766,
                58.106330783015586,
                52.82820243255592,
                49.1032738207112,
                52.73477257782057,
                70.99509362242439
            ],
            [
                184.64471991729724,
                241.7073706361194,
                214.64556204254583,
                164.33850767197575,
                108.77761895595631,
                197.72613417375453,
                146.7600552308074,
                152.79399507022038,
                227.91051016578533,
                231.47977117950822,
                288.6134287878388,
                92.84070178367385,
                98.57536864025064,
                99.219536295534,
                80.35681831653791,
                78.01353598701795,
                77.35864707926378,
                78.77201003215224,
                78.83579601551168,
                78.05790537998075,
                116.40648902221994,
                78.32217728236971,
                82.09712286510184,
                78.54482555739717,
                77.5405248716073,
                79.33680876508294,
                77.1410219349217,
                98.70143918921495,
                92.22988779940916,
                75.74317195329174,
                78.3794245843744,
                119.72845451478675,
                84.65630076546671,
                79.14633793652709,
                82.3510834467088,
                169.8661114388773,
                104.74012799662377,
                102.79881631368607,
                192.0065628365659,
                132.91632291178007,
                191.66457805711016
            ]
        ]
    },
    "overview_data": [
        2560.3350457078827,
        103.21492643631048,
        0.10500968153874302,
        38.57189862532528
    ],
    "actions_busses_p5": [
        0.8197836420258974,
        0.12874938534666447,
        0.04429601704638584,
        0.00028683822324209146,
        0.006884117357810195,
        0.0,
        0.0
    ],
    "actions_present_p5": [
        0,
        1,
        2,
        3,
        4,
        5
    ],
    "policy_busses15_p5": [
        -187.83318336539074,
        15.604075120275324,
        73.67813361300747,
        150.3307275274222,
        455.83079770507004,
        218.23128226104544
    ],
    "policy_busses50_p5": [
        -182.45324530490922,
        25.10043530835115,
        94.26778850474794,
        168.09952381112333,
        455.83079770507004,
        291.19307390881863
    ],
    "policy_busses85_p5": [
        -158.43623663957402,
        35.11175642339768,
        99.69117741295696,
        241.7503754260628,
        455.83079770507004,
        374.34038343673006
    ]
}