{
    "Average_holding_time": [
        0.0,
        0.0,
        0.0,
        0.0,
        0.0
    ],
    "Average_travel_time_passengers": [
        7165.62725974131,
        7872.850381522756,
        8502.004640385101,
        8828.987953041398,
        8858.288323491011
    ],
    "Average_experienced_crowding": [
        861.4237493760456,
        945.2881795909852,
        1011.3806192148837,
        1077.53087612658,
        1087.5312062508224
    ],
    "Average_passenger_waiting_time": [
        2590.648587306814,
        2899.127611892685,
        3134.4438527214525,
        3328.577818290939,
        3355.347249913806
    ],
    "Average_passenger_in_vehicle_time": [
        4574.978672434439,
        4973.722769629949,
        5367.560787663357,
        5501.2964463914495,
        5504.270541038997
    ],
    "av cov stops": [
        2.1941695882464796,
        2.2111095401236116,
        2.2477638408365044,
        2.255565409337415,
        2.269117512594005
    ],
    "av excess stops": [
        2723.6159198334144,
        3036.228092507757,
        3310.9228668871137,
        3493.247057861654,
        3511.693804767043
    ],
    "actions_busses": [
        1.0,
        0.0,
        0.0,
        0.0,
        0.0,
        0.0,
        0.0
    ],
    "actions_present": [
        0
    ],
    "policy_busses15": [
        186.24443507371848
    ],
    "policy_busses50": [
        246.28508462158948
    ],
    "policy_busses85": [
        1148.6869917045856
    ],
    "overview_data_complete": {
        "holding": [
            [
                0
            ],
            [
                0
            ],
            [
                0,
                0,
                0
            ],
            [
                0,
                0,
                0
            ],
            [
                0
            ]
        ],
        "waiting_time": [
            [
                2384.060798776752
            ],
            [
                2843.1447732880006
            ],
            [
                3003.0957407299557,
                3139.04552284912,
                3005.4255203111393
            ],
            [
                3221.2825399235026,
                3323.7628358546426,
                3129.8421825937853
            ],
            [
                3331.170501141252
            ]
        ],
        "in_vehicle_time": [
            [
                4322.872795321342
            ],
            [
                4883.10807779489
            ],
            [
                5142.007197323628,
                5356.760222971461,
                5258.002599160581
            ],
            [
                5465.8227524205695,
                5502.330476639813,
                5378.361352355252
            ],
            [
                5499.376104501631
            ]
        ],
        "experienced_crowding": [
            [
                815.8949461618846
            ],
            [
                917.0700644155759
            ],
            [
                1004.3065547688407,
                1031.539301549519,
                997.6932506310314
            ],
            [
                1018.3834892326935,
                1071.0977503152637,
                1004.377749197074
            ],
            [
                1080.9948669480582
            ]
        ],
        "cov_of_var": [
            [
                2.19333327373355
            ],
            [
                2.195191750428949
            ],
            [
                2.253443098828676,
                2.279731188900817,
                2.2406711495565568
            ],
            [
                2.2561452415523453,
                2.2469044925528405,
                2.248623189120168
            ],
            [
                2.2544885780811152
            ]
        ],
        "excess_waiting_time": [
            [
                2524.1545123787923
            ],
            [
                2967.4020845001737
            ],
            [
                3164.047821664699,
                3302.374608227615,
                3212.607737352751
            ],
            [
                3397.743703438667,
                3501.8329003119557,
                3319.471125546613
            ],
            [
                3477.301921882521
            ]
        ]
    },
    "overview_data": [
        6706.9335940981055,
        815.8949461618846,
        2.19333327373355,
        2524.1545123787923
    ],
    "actions_busses_p5": [
        1.0,
        0.0,
        0.0,
        0.0,
        0.0,
        0.0,
        0.0
    ],
    "actions_present_p5": [
        0
    ],
    "policy_busses15_p5": [
        984.9864441945575
    ],
    "policy_busses50_p5": [
        984.9864441945575
    ],
    "policy_busses85_p5": [
        984.9864441945575
    ]
}