{
    "Average_holding_time": [
        9.753268892794376,
        13.57330299392451,
        21.020332283125576,
        29.913455878556306,
        71.71195083174996
    ],
    "Average_travel_time_passengers": [
        2650.3033076618626,
        2683.6473840920717,
        2776.7872972512164,
        2854.649502473564,
        5193.085233609604
    ],
    "Average_experienced_crowding": [
        79.84271981693021,
        81.17694287225876,
        84.21306196773254,
        91.29421329666187,
        325.6127643501969
    ],
    "Average_passenger_waiting_time": [
        321.37993392769323,
        327.2072283019711,
        339.81551376993673,
        369.1728574351213,
        1309.2018416520598
    ],
    "Average_passenger_in_vehicle_time": [
        2326.49390449147,
        2353.4706028492747,
        2436.582679512807,
        2497.730844411095,
        3862.0572890405715
    ],
    "av cov stops": [
        0.16252215748759757,
        0.18712148777364823,
        0.26192883469877387,
        0.3975044343799174,
        1.340275194589284
    ],
    "av excess stops": [
        50.59479436768284,
        56.13362668462342,
        68.03410549517255,
        98.48234383608835,
        1091.4582661534705
    ],
    "actions_busses": [
        0.6870302212078839,
        0.0942584526698704,
        0.12985047439956712,
        0.049912406178177084,
        0.038948445544501414,
        0.0,
        0.0
    ],
    "actions_tfls": [
        0.13106449529119776,
        0.6297163211452811,
        0.2392191835635211
    ],
    "actions_present": [
        0,
        1,
        2,
        3,
        4,
        5
    ],
    "policy_busses15": [
        -253.17118159597052,
        57.1061016925497,
        64.06285382936305,
        138.3244310071547,
        147.83850867305472,
        261.0126357423636
    ],
    "policy_busses50": [
        -205.5912862729677,
        108.8112845055384,
        99.47116142167509,
        190.70500287488326,
        288.40926230679383,
        355.59732189565204
    ],
    "policy_busses85": [
        -168.42240156012616,
        238.1301575801575,
        187.2491690849688,
        237.8948863549653,
        435.37901456525987,
        990.0197476390657
    ],
    "overview_data_complete": {
        "holding": [
            [
                13.239929947460595,
                13.626852659110723,
                12.78688524590164,
                13.37942955920484,
                12.630208333333334,
                8.803786574870912,
                8.762886597938145,
                10.795847750865052,
                8.832618025751072,
                7.29939603106126,
                9.21875,
                8.041237113402062,
                7.551546391752577,
                8.774805867126833,
                8.65236051502146,
                9.58656330749354,
                6.426735218508997,
                8.89655172413793
            ],
            [
                16.622691292875988,
                16.059285091543156,
                15.947368421052632,
                16.46853146853147,
                14.947916666666666,
                12.890625,
                13.797909407665506,
                11.488250652741515,
                14.89399293286219,
                14.921052631578947,
                14.947460595446586,
                13.446475195822455,
                13.507853403141361,
                14.37062937062937,
                14.566170026292726,
                14.194107452339688,
                14.89492119089317,
                14.69763365468887,
                13.089005235602095,
                8.669603524229075,
                11.103388357949608,
                9.26892950391645,
                9.26892950391645,
                10.8,
                11.037489102005232,
                10.147441457068517,
                9.488734835355286,
                9.6,
                10.485689505637467,
                11.524390243902438,
                11.408450704225352,
                10.38360941586748,
                10.703125,
                10.942408376963352,
                9.316608996539792,
                19.98209489704566
            ],
            [
                27.05504587155963,
                18.869257950530034,
                18.835978835978835,
                17.931638913234003,
                17.862190812720847,
                16.59010600706714,
                18.766756032171582,
                21.01876675603217,
                17.097625329815305,
                19.537366548042705,
                16.176211453744493,
                19.131975199291407,
                17.756183745583037,
                17.157894736842106,
                18.624338624338623,
                20.67316209034544,
                19.626666666666665,
                18.095238095238095,
                19.946666666666665,
                18.321428571428573,
                17.877984084880637,
                17.84070796460177,
                19.07883082373782,
                17.10503089143866,
                16.924428822495607,
                16.200527704485488,
                17.915194346289752,
                15.421052631578947,
                19.331550802139038,
                17.989276139410187,
                14.973867595818815,
                18.377659574468087,
                17.210526315789473,
                15.382585751978892,
                21.355013550135503,
                17.5531914893617,
                16.382791922739244,
                16.595744680851062,
                15.97883597883598,
                12.041884816753926,
                14.85513608428446,
                18.86019590382903,
                15.564304461942257,
                16.444644464446444,
                14.233183856502242,
                14.353680430879713,
                16.12061206120612,
                15.282511210762332,
                16.28342245989305,
                12.321428571428571,
                12.428571428571429,
                13.375451263537906,
                14.35135135135135,
                12.773333333333333,
                12.34501347708895,
                14.31266846361186,
                12.669642857142858,
                11.310160427807487,
                13.682342502218278,
                13.265124555160142,
                12.085181898846495,
                25.30909090909091,
                25.336927223719677,
                22.66187050359712,
                25.135135135135137,
                26.341463414634145,
                30,
                24.986449864498645,
                24.314079422382672,
                25.372050816696916,
                26.544789762340038,
                23.694267515923567,
                25.76057605760576,
                24.065040650406505,
                11.678383128295255,
                12.106194690265486,
                13.045774647887324,
                11.362038664323375,
                9.780316344463971,
                22.971274685816876,
                28.511029411764707,
                27.39010989010989,
                26.256830601092897,
                26.846435100548447,
                26.390154968094805,
                24.94995450409463,
                18.365122615803816,
                21.60437556973564,
                19.720468890892697,
                20.517711171662125,
                21.681818181818183,
                19.605026929982046,
                20.303571428571427,
                21.545454545454547,
                19.151785714285715,
                20.94032549728752,
                20.13623978201635,
                20.387038703870388,
                20.694319206492334,
                21.269265639165912,
                19.194570135746606,
                21.122171945701357,
                21.745886654478976,
                20.80252479711452,
                20.636942675159236,
                20.681198910081743,
                20.317316409791477,
                22.445255474452555,
                21.584699453551913,
                19.900990099009903,
                21.397260273972602,
                21.595648232094288,
                20.729261622607112,
                20.88021778584392,
                20.47790802524797,
                20.09124087591241,
                18.54147675478578,
                19.019073569482288,
                18.73965041398344,
                20.61482820976492,
                20.339449541284402,
                17.073170731707318,
                16.910569105691057,
                17.076923076923077,
                19.14027149321267
            ],
            [
                24.876033057851238,
                27.179723502304146,
                25.93314763231198,
                24.70101195952162,
                23.956244302643572,
                25.465437788018434,
                24.756209751609937,
                24.972375690607734,
                27.404651162790696,
                24.565416285452883,
                26,
                26.4477335800185,
                27.754158964879853,
                24.721969006381038,
                27.12022367194781,
                25.11049723756906,
                27.399813606710158,
                25.690759377859102,
                28.654205607476637,
                25.571955719557195,
                27.011173184357542,
                26.180297397769518,
                26.239476145930777,
                26.75977653631285,
                24.63302752293578,
                25.21978021978022,
                25.461254612546124,
                25.78125,
                25.34862385321101,
                26.69724770642202,
                25.968489341983318,
                27.953271028037385,
                21.10009017132552,
                19.838274932614556,
                23.662737987307345,
                16.975476839237057,
                12.950226244343892,
                18.246575342465754,
                15.666364460562104,
                16.304347826086957,
                17.056672760511884,
                16.58823529411765,
                15.608656447249775,
                16.509519492293744,
                19.17046490428441,
                16.005434782608695,
                16.675675675675677,
                14.691689008042895,
                15.998201438848922,
                32.29916897506925,
                23.442622950819672,
                25.17367458866545,
                31.248843663274744,
                29.587534372135654,
                26.727272727272727,
                27.784867821330902,
                27.504520795660035,
                26.58158614402917,
                28.418181818181818,
                26.77007299270073,
                25.65137614678899,
                26.59400544959128,
                28.054794520547944,
                26.25,
                25.846994535519126,
                26.491387126019944,
                26.53211009174312,
                29.009174311926607,
                26.171945701357465,
                26.270566727605118,
                27.95640326975477,
                29.944751381215468,
                27.315068493150687,
                32.36176194939082,
                26.99724517906336,
                30.72222222222222,
                26.71573137074517,
                28.526413345690454,
                28.279370952821463,
                27.552703941338223,
                25.95783684692942,
                26.980786825251602,
                27.63302752293578,
                27.825688073394495,
                26.96941612604263,
                25.439560439560438,
                25.607734806629836,
                27.880733944954127,
                30.584958217270195,
                26.52054794520548,
                26.580882352941178,
                29.609665427509295,
                27.433302667893283,
                28.040478380864766,
                29.52777777777778,
                30.11100832562442,
                24.562841530054644,
                30.556586270871986,
                27.93198529411765,
                29.88785046728972,
                26.05698529411765,
                21.279707495429616,
                23.400549954170486,
                20.619872379216044,
                21.925182481751825,
                21.922030825022667,
                21.021897810218977,
                22.26158038147139,
                20.027322404371585,
                18.427787934186473,
                17.972602739726028,
                20.018281535648995,
                19.77961432506887,
                24.291044776119403,
                21.0989010989011,
                20.394495412844037,
                20.922509225092252,
                18.03263825929284,
                17.743403093721565,
                22.381835032437444,
                20.28440366972477,
                17.29090909090909,
                19.595216191352346,
                19.98160073597056,
                18.103448275862068
            ],
            [
                27.672897196261683,
                30.140712945590995,
                28.622305529522023,
                28.654205607476637,
                23.312101910828027,
                69.84572230014025,
                72.75815217391305,
                77.20963172804532,
                57.265822784810126,
                72.49303621169916,
                109.16334661354581,
                68.85672937771346,
                64.71724137931035,
                67.32954545454545,
                73.39887640449439,
                77.86666666666666,
                75.39638386648123,
                72.36311239193084,
                76.02564102564102,
                62.18978102189781,
                77.28448275862068,
                54.85507246376812,
                75.26011560693641,
                67.7431906614786,
                68.95460797799174,
                72.81976744186046,
                69.2276964047936,
                19.834710743801654,
                21.22222222222222,
                18.125568698817105,
                33.78858746492049,
                31.08433734939759,
                31.481826654240447,
                23.94418604651163,
                23.977591036414566,
                31.294343240651965
            ]
        ],
        "waiting_time": [
            [
                318.442889913226,
                326.4718335314357,
                310.91978686396214,
                319.8322894354523,
                316.26384643761077,
                318.72361018455894,
                323.9894922750819,
                326.3703619360511,
                323.57477736130943,
                324.79245244383253,
                318.91284629044986,
                316.8295065756194,
                317.5733711487113,
                322.62454495806435,
                318.02825305716306,
                327.59081914135976,
                314.29543041429497,
                318.5995077095807
            ],
            [
                330.94497883435525,
                326.94802947269824,
                334.7453565744587,
                326.11924377626866,
                328.6935746111489,
                319.1255378818031,
                321.8066767410036,
                315.6739478211163,
                330.7624953871213,
                321.41848066270575,
                321.161502429289,
                322.3527098774648,
                319.05026291136636,
                330.90082334514585,
                325.0012995800891,
                317.00916378719285,
                322.0403524844541,
                326.4327972696311,
                318.7340868938324,
                326.15916863368665,
                333.26280299174044,
                329.7432971080878,
                320.74040864993896,
                323.86590156608565,
                333.74864424944985,
                328.06540922560373,
                330.2799798300173,
                332.7640792380958,
                341.857816215465,
                325.44236811960894,
                339.05995387276704,
                333.32488466456545,
                328.40877662745595,
                329.3994160919743,
                326.59055026173866,
                321.8194473179695
            ],
            [
                337.63278701975247,
                349.86251412007925,
                347.3793348732002,
                337.12292917047085,
                341.34483412896435,
                330.3461491783885,
                338.45859560416443,
                360.19366749135213,
                341.20437921203734,
                352.50810538561825,
                332.5140065635261,
                352.13599864511866,
                333.316625056197,
                334.9675817645549,
                342.2841988061686,
                358.879631698033,
                351.6544880069364,
                332.6408801964571,
                365.68924124312696,
                341.4096507102717,
                335.06018010387953,
                347.3089255431266,
                356.07426320846594,
                323.4790633885651,
                337.3971231125359,
                344.0596927056689,
                335.41048130081657,
                332.5350326767515,
                347.9970857486125,
                358.1936234920347,
                327.7439958568783,
                344.4369514116911,
                331.53812446592406,
                328.6944094518323,
                351.1774942202404,
                334.3524619034755,
                330.2961240735413,
                335.2121557057033,
                334.42892094647095,
                328.1686428607875,
                334.3657068306989,
                347.59298889005294,
                336.9473770671637,
                356.089156332957,
                349.6674424304107,
                355.261024224846,
                364.4042789852784,
                357.1651912829211,
                367.3822780618683,
                350.9740984886199,
                355.4384604185519,
                356.1109110285176,
                353.97091079420113,
                351.03240835840546,
                347.6657314479179,
                351.5136752266204,
                341.3995196400603,
                340.9629360775346,
                356.31456754983554,
                348.6860249464233,
                336.8590671228189,
                343.8111863305116,
                332.4502141042342,
                333.63058617576183,
                337.59849117005666,
                345.3738620060785,
                350.6011014494642,
                333.36434395210335,
                342.58419087070735,
                336.4347932058587,
                344.1433842355384,
                329.2684657005549,
                342.6089999892306,
                330.7252457689626,
                336.7574145698374,
                354.80247665868745,
                344.82003017641557,
                332.22336517503504,
                343.91380342033443,
                324.6672210815381,
                343.08905177957104,
                334.42568958564266,
                326.7182974141066,
                335.2371350786421,
                331.8723060127378,
                331.7704877066739,
                327.0985181868525,
                330.8843281014313,
                324.10791284715145,
                330.3509737661637,
                324.84603024028587,
                326.0603466165172,
                324.25081602530156,
                329.6186246978211,
                322.5722100258274,
                326.48989155879644,
                327.5588256782133,
                323.98495075697514,
                329.94666385019417,
                331.1258635367803,
                325.6089905376848,
                327.5322024647302,
                331.5190400766923,
                325.2906759970541,
                326.30536511656817,
                327.3842226824432,
                325.0952031039533,
                331.1973449031231,
                327.68571784009407,
                323.95227851416,
                331.083498381765,
                328.50640417259063,
                329.72918587536185,
                329.06131825162856,
                325.270953496153,
                339.9164787149853,
                336.45880298410407,
                337.8938595616615,
                336.3711736468183,
                332.6901478607493,
                338.4216920332706,
                327.7828148914915,
                334.23918951544965,
                328.0131330012753,
                330.57866712397805
            ],
            [
                344.22838756534367,
                340.33227878279575,
                335.74414298332493,
                339.77760640196664,
                336.45669980922514,
                336.523764250682,
                337.5634497018353,
                334.99693281888557,
                352.27300327173725,
                336.37459913443007,
                340.8388108306724,
                345.0383860915308,
                348.0196831061783,
                335.1500895766928,
                351.23825871724614,
                340.17327465003007,
                343.3254978187647,
                334.1318886725225,
                343.394499379575,
                338.1353682830139,
                338.7917071501668,
                341.07268137358943,
                340.01531135490393,
                343.4531853313474,
                337.9489265236494,
                336.2369220105267,
                334.8786583585713,
                343.62379846376217,
                334.1439636516253,
                348.30575278312284,
                339.34611365614273,
                339.8880948286779,
                394.2982248935539,
                355.5181773643572,
                412.6569147876331,
                388.3176639016668,
                356.7135886724545,
                383.8601056944377,
                370.158754292184,
                366.4059336849688,
                367.91831225811035,
                362.4118805099904,
                357.9971384591195,
                368.77478775077725,
                376.12256654061076,
                369.6593870493196,
                370.1762894481381,
                360.34132531761475,
                368.02861422718667,
                365.6706092498295,
                343.12199329292184,
                350.29809864022405,
                374.5150090001795,
                360.2978950093635,
                337.27355521789434,
                345.529256505771,
                346.7931741095607,
                348.6582469805016,
                349.6888262003175,
                349.22256215644336,
                344.9256131819184,
                350.09778190464374,
                348.63563792718054,
                345.8619028268355,
                336.55457935416644,
                351.4107234092187,
                347.05078084163756,
                356.41308917256197,
                338.48955610476304,
                347.4793103199291,
                342.244269393754,
                360.14263973550186,
                339.26630873321074,
                358.8323978327503,
                335.2021833012852,
                340.17442606116697,
                332.4837710776059,
                336.27952707088986,
                336.8721612957924,
                344.7003305778258,
                333.5530502049845,
                330.91167552055316,
                341.09203646035127,
                337.4712622311783,
                338.1571579496585,
                336.90755043870587,
                334.6020096119435,
                332.9982109130187,
                351.9452795417242,
                336.7656153476048,
                344.3881942749911,
                351.0495310274993,
                344.19769099117957,
                341.0655931849889,
                349.35895192895157,
                340.6694204932817,
                333.782051891222,
                355.2779657643637,
                335.03695702726526,
                350.4689153082579,
                337.62889933453073,
                330.0896647277222,
                345.97525529674266,
                329.89834369103426,
                328.9672242340584,
                334.66130167671,
                329.5339424778675,
                330.16033789702146,
                337.23374087449486,
                335.8931273876871,
                336.8344538245269,
                341.6929126258877,
                342.47027156966885,
                357.71804753596484,
                343.00320538004956,
                343.46319553103103,
                345.27365736592645,
                330.9213564420995,
                334.41641966798994,
                356.2039102875417,
                338.0920976341982,
                327.29617294161363,
                339.8534211379069,
                343.7189972402445,
                332.8356597363985
            ],
            [
                348.32886104837854,
                365.9448159956231,
                350.4171942597843,
                355.5926093550342,
                414.3533147795643,
                1176.377990064391,
                1096.1769363467238,
                1165.1061964919395,
                1016.0311262446157,
                1205.5780721170981,
                808.3750967464603,
                1339.0551334384093,
                1169.244886134815,
                1232.0115288905654,
                1146.6017329966394,
                1328.1088381561776,
                1119.6441048510112,
                1280.949857181092,
                1233.945987648772,
                808.1728412207651,
                1199.947167657775,
                885.9957402645721,
                1197.6961108792254,
                988.8117633879667,
                1153.7019365610258,
                1228.052431118163,
                1015.6657007792021,
                393.3981059341549,
                400.1585952017975,
                399.0390951754727,
                416.3053393116212,
                364.84543712862217,
                361.57523408441864,
                365.6067249074026,
                364.31884284444385,
                364.39313260256176
            ]
        ],
        "in_vehicle_time": [
            [
                2323.949096939824,
                2316.656098498878,
                2302.1955028927605,
                2315.8629771471383,
                2319.2770043120768,
                2319.752183186955,
                2321.9797416439174,
                2306.4197989225595,
                2308.5790807112626,
                2322.3006128523843,
                2330.6137537676545,
                2315.893394657768,
                2306.8634517907576,
                2304.256600230015,
                2279.2857767323794,
                2313.5060975245483,
                2296.386314815667,
                2306.5803993937093
            ],
            [
                2332.544369100559,
                2349.5009126957207,
                2348.506592727131,
                2353.2210315185384,
                2338.0151554306285,
                2332.9519884306965,
                2329.4465413698044,
                2356.9633226929864,
                2345.225261213045,
                2350.943297378692,
                2349.2998627027755,
                2348.6060015163343,
                2353.0191707535864,
                2345.1817515306147,
                2338.6383902056964,
                2333.431209922353,
                2353.2195340784338,
                2354.602221288028,
                2349.379228565033,
                2352.2917849520577,
                2327.401766343713,
                2332.9565530120794,
                2338.510571734202,
                2339.2850960278683,
                2334.1006490693567,
                2328.191727340329,
                2331.690762446598,
                2336.3340439550166,
                2317.401611829474,
                2344.1586857222455,
                2334.7860095486976,
                2332.87954648277,
                2326.9429881770543,
                2352.767450673914,
                2329.8873152883834,
                2351.782314779046
            ],
            [
                2437.637285868238,
                2352.2084870536173,
                2358.358570554963,
                2353.748055917986,
                2362.0692020565543,
                2369.1753495738567,
                2391.790157886474,
                2408.057961369872,
                2368.303698898679,
                2423.9928787236577,
                2400.032955209847,
                2382.7636926371256,
                2369.443919235951,
                2376.3649665897065,
                2363.1727264039064,
                2366.857334493763,
                2387.41395672809,
                2359.979164817867,
                2405.249465090509,
                2393.4254959866053,
                2368.29136847025,
                2361.642511003334,
                2410.9059422017112,
                2377.274417344667,
                2359.2445147434614,
                2373.4213587833838,
                2360.6747220274615,
                2363.181405437453,
                2396.9829920271027,
                2396.402032565748,
                2359.7411522198054,
                2397.043057898104,
                2375.726663740846,
                2363.409510400598,
                2404.0414357744917,
                2384.3483961430716,
                2353.674797574422,
                2395.7077138144464,
                2361.163116794323,
                2362.708787722945,
                2369.128738618038,
                2410.3494995042674,
                2363.0432577467727,
                2400.4884548266414,
                2403.1823269985584,
                2404.061623266534,
                2408.247421901917,
                2410.9915929624713,
                2406.5430429656108,
                2402.8875626093045,
                2398.014548075313,
                2411.916457472329,
                2407.6794183025104,
                2397.2004686891996,
                2425.3874033438915,
                2418.4243767899934,
                2350.5483950096063,
                2400.429051145295,
                2389.8188152596263,
                2403.38052120352,
                2379.306488540836,
                2431.9163020556352,
                2430.551267799796,
                2427.7007867580755,
                2410.5113421795977,
                2426.246848819695,
                2420.170261688984,
                2373.55512110196,
                2404.5678791553264,
                2420.7295093510083,
                2429.4556889147216,
                2423.4635923086034,
                2433.5845807911064,
                2398.4526275919075,
                2381.4443566245245,
                2387.066262658168,
                2367.787217903201,
                2354.987454812478,
                2364.4784221651853,
                2433.8224732151325,
                2426.7833909888514,
                2436.34796252042,
                2425.809932835434,
                2440.287619377185,
                2441.8056887401685,
                2428.456365250688,
                2441.2430778140956,
                2440.979872990837,
                2407.351997675958,
                2441.7378752143777,
                2399.9792103748614,
                2434.767569933675,
                2396.903219562896,
                2408.360452867788,
                2416.9152420670866,
                2420.0341865411215,
                2436.728159467421,
                2405.2075029251305,
                2429.284913975218,
                2413.8820151352334,
                2407.143806226483,
                2414.1132721988197,
                2430.163643859217,
                2420.678568082757,
                2446.4736000046023,
                2424.4424514334514,
                2419.9654382439508,
                2436.5464416791597,
                2443.299118374444,
                2420.5163294891818,
                2439.0955410150546,
                2436.1276149798728,
                2440.178479384645,
                2444.9492627493346,
                2441.79814352199,
                2412.5414882759255,
                2434.583103004997,
                2429.1745954090943,
                2437.873263622086,
                2424.714475538365,
                2423.7654167015185,
                2410.6526576058245,
                2405.71692767023,
                2411.130379848946,
                2411.6889719102246
            ],
            [
                2458.769844026042,
                2441.8901831379844,
                2491.979015663402,
                2454.5821843415665,
                2471.462337232728,
                2501.1528797612496,
                2455.5633964428766,
                2474.218134727667,
                2468.3729766066576,
                2457.200794464723,
                2466.4775731372715,
                2460.824177416963,
                2470.7512889197787,
                2443.2896368753345,
                2485.988760449693,
                2454.0497971214745,
                2496.32093660924,
                2446.608329499212,
                2490.9206133463167,
                2475.71769374761,
                2469.264192253432,
                2488.7657902626597,
                2489.425880657181,
                2491.823071216486,
                2485.7233067043144,
                2445.1712120744455,
                2470.0019671869413,
                2443.5711204632635,
                2444.872341721586,
                2453.169182080695,
                2475.8885846879753,
                2503.662684153823,
                2435.0041224141655,
                2429.607748119567,
                2438.0649057062337,
                2448.1065328587356,
                2459.027357192062,
                2465.0866895715835,
                2437.535889290081,
                2422.220790207261,
                2430.1648885334907,
                2426.5085035133006,
                2441.4078263964075,
                2436.4726766003423,
                2441.4447167459853,
                2428.6992723429,
                2434.1909265984164,
                2422.133799401227,
                2419.9987898161057,
                2468.172930379265,
                2469.975973672372,
                2427.2924377755826,
                2479.3543384276045,
                2440.8170606099416,
                2446.8172112615,
                2459.291608454552,
                2431.9684046678735,
                2441.1007364606567,
                2433.021422070131,
                2447.1818434752536,
                2472.7000656016585,
                2442.933283561785,
                2454.235143552239,
                2437.5215566376914,
                2444.8192862774995,
                2426.746433666804,
                2461.8373719241686,
                2475.5420729329635,
                2441.7471469044594,
                2468.3654499822737,
                2446.042600371291,
                2483.331270968533,
                2459.302204333675,
                2489.059074061657,
                2455.4447604685583,
                2500.0598985542583,
                2464.761424991513,
                2484.1391710513485,
                2496.1814847591095,
                2442.8577682238915,
                2454.78803370189,
                2463.2768099923414,
                2465.3482346587393,
                2468.0748575113166,
                2481.6028633906617,
                2467.096797220868,
                2465.499610244575,
                2445.7962529753354,
                2494.9913926356644,
                2454.0221292025462,
                2446.2901984403916,
                2502.0545819150134,
                2454.435629055227,
                2439.671189431336,
                2448.7297608598897,
                2470.8697973269277,
                2448.2419695388544,
                2487.9097240080596,
                2451.114139189076,
                2490.658503815911,
                2464.64198138108,
                2459.0905393153184,
                2471.650435363152,
                2471.5730477908846,
                2470.736353104886,
                2443.406345314271,
                2449.0588211719346,
                2446.9132724961587,
                2462.0876304361714,
                2443.1546364828378,
                2456.0227170615613,
                2449.9660134455294,
                2474.423888971496,
                2472.99109944872,
                2436.6189173464545,
                2463.1593534702915,
                2442.267896631047,
                2453.3485840039434,
                2445.3967619671116,
                2472.962004918519,
                2458.4558764516178,
                2454.5394982913062,
                2461.907303386412,
                2460.204345489904,
                2446.376970403476
            ],
            [
                2511.0178364123053,
                2515.5550352599694,
                2516.0954369420074,
                2517.772819848754,
                2491.051621422812,
                3824.7227959771303,
                3647.2561103669677,
                3777.984293405476,
                3432.673787535661,
                3739.2177026517484,
                3484.3497611065877,
                3798.27869650905,
                3724.5299072408425,
                3830.563704697571,
                3719.8802089197457,
                3861.390086478082,
                3736.9703645801023,
                3820.3586390562887,
                3828.1640975056057,
                3279.429219475916,
                3832.946910467731,
                3280.357007602211,
                3777.2399439125584,
                3530.9594977773877,
                3721.769415697984,
                3865.8381035613465,
                3597.27834694279,
                2464.3229816394537,
                2499.4540650578065,
                2466.1165613723633,
                2543.8243993492397,
                2490.7575881786524,
                2503.7535643513875,
                2516.4228457177355,
                2519.495581526745,
                2533.719502703171
            ]
        ],
        "experienced_crowding": [
            [
                80.63609849427144,
                78.7050529195363,
                77.034709774731,
                80.16957380305546,
                78.78863678687244,
                79.08792387605453,
                81.51158642454304,
                79.11306374573067,
                79.70112062490779,
                79.8051390042878,
                80.31199805837277,
                79.44115959205483,
                79.58827409118132,
                79.79003149223071,
                78.67807131453993,
                80.10536546085903,
                78.13849052681174,
                79.90256694401944
            ],
            [
                82.47516387385085,
                80.60762663428972,
                82.6877915996154,
                79.84935172504358,
                81.5003102249178,
                79.52240726004383,
                80.48174528503982,
                81.19285377780278,
                81.34474612240399,
                80.62211176988515,
                80.35933331287069,
                81.5619805980035,
                80.3400834536543,
                83.0273544249666,
                80.2417841402137,
                77.15292467776032,
                80.54961683045086,
                80.50559707664455,
                79.04574781138757,
                81.10132456662845,
                81.07596454339556,
                80.33710892778642,
                81.15749620992719,
                81.1167261248521,
                80.25644360312343,
                80.74655815939457,
                81.72594444343788,
                82.95808294701492,
                83.93699422590892,
                80.14155372147515,
                83.08390466793949,
                83.3064302153345,
                82.02504117294235,
                79.60373575016473,
                80.24864530928262,
                79.00243941239914
            ],
            [
                82.83822185524566,
                85.47804976859884,
                84.54079752516651,
                85.40620608244939,
                85.39253682721821,
                83.74523601858226,
                83.37882631864512,
                87.38783170118151,
                83.20999017668467,
                90.65560159194412,
                85.02704605082913,
                86.80945716785465,
                83.34063835950748,
                83.83379058311307,
                83.66045330088042,
                90.10758989945226,
                87.42229183336542,
                83.052591579716,
                91.51126374646553,
                85.7376283211233,
                82.4622643049668,
                85.37468036196097,
                88.63931978127746,
                81.44363719361931,
                82.97876105359082,
                86.95440917615691,
                82.88061279081813,
                82.65811716515634,
                86.96771104313929,
                87.19113629482858,
                80.7045085660743,
                85.95576945411764,
                82.41657998895272,
                82.35892056700224,
                84.88644352002834,
                84.10212016233716,
                82.25888998665717,
                83.08621141841554,
                83.92835135242946,
                81.8355389806275,
                81.78471787818197,
                85.91002005161013,
                84.40592262750013,
                87.20433729396052,
                85.05711436831376,
                88.06970291370614,
                88.73581674044932,
                87.71267726500464,
                89.11998412890107,
                86.90397486234137,
                86.78648499059807,
                87.87124250850418,
                86.72812345307807,
                85.95207534143447,
                85.78748026768724,
                87.75086723133329,
                82.36485309820777,
                85.66299066562839,
                85.89541899014546,
                86.80881925115516,
                82.37360841057173,
                85.99520900619018,
                82.66863643458858,
                83.93284378369226,
                82.2376524789792,
                85.87486899403137,
                85.54688408191906,
                80.74843572245905,
                85.21740770872951,
                84.63017561095745,
                85.33467667691835,
                82.65618818877448,
                84.82444569128748,
                81.33519648483757,
                84.08185896558558,
                90.0700374089022,
                85.00398848500501,
                81.90550813608687,
                85.76544980612401,
                81.97548577739039,
                85.28577493502412,
                82.89433198903389,
                82.60822262447681,
                82.07459389182364,
                82.55897117173504,
                82.01569909175097,
                80.9065575725484,
                82.1147040888436,
                80.08237831111484,
                83.60061233417657,
                80.125791629649,
                80.99577170514212,
                79.93281108068416,
                80.85795201534816,
                81.75304613963294,
                82.09205879301159,
                82.07670179754581,
                80.11104109303167,
                81.56244147203125,
                81.91817651079653,
                79.69851984216136,
                81.02016998969437,
                82.77827893004266,
                80.41038660097189,
                81.15667087660803,
                82.39595937256593,
                81.0713702741567,
                82.55112855803198,
                81.83649816394316,
                81.37482805789408,
                82.98136812846333,
                82.52962027224355,
                82.38497147718726,
                82.49827188237421,
                81.79710590845897,
                83.27181983044903,
                82.68931010742594,
                82.68833406439394,
                83.24392548074334,
                81.55404199777918,
                84.15164450135957,
                81.68016063041517,
                82.90554654317428,
                81.5983981482269,
                82.71621217567733
            ],
            [
                85.48771889125108,
                85.09983879128356,
                85.4567322944707,
                83.69371393475339,
                83.08249233737777,
                83.38649349180777,
                84.25662051993305,
                83.17102926093081,
                84.81656196509793,
                83.6381026532724,
                83.64166180765353,
                84.7267418164562,
                85.03084892902385,
                82.02700716617552,
                86.68380058765116,
                82.652970358057,
                84.74914733174533,
                84.043659011373,
                85.07065869318988,
                84.36067208430252,
                83.76414889067752,
                83.6679877768047,
                84.39917046798568,
                84.85036820119728,
                83.51918469203498,
                82.27441228186972,
                83.3316674860649,
                84.92566733632346,
                81.47134876543167,
                84.97373043110841,
                82.13308880614119,
                84.82629869226592,
                97.79221919246832,
                88.82403371062306,
                98.43071060245188,
                96.94053267806545,
                89.67286311981785,
                95.77473594871101,
                91.58580895825371,
                88.9810904327673,
                90.20789854974672,
                89.42825780177283,
                88.27123021393984,
                90.54192771158162,
                91.50148103089252,
                91.00985989813447,
                92.39089091737617,
                90.62138410187478,
                90.85644479393089,
                91.12463060501862,
                87.81695212012762,
                84.75066776653077,
                91.06517796035958,
                88.08395532250374,
                83.28905837504445,
                86.90889990832662,
                85.62130700478644,
                87.06290531506745,
                87.25758612676411,
                84.74388622030685,
                85.535858562659,
                86.56518365213188,
                87.76572793947383,
                86.10913712394222,
                83.97735830469773,
                84.92003104480375,
                86.72378444426651,
                88.40172979259847,
                82.78854423864964,
                86.16478304029364,
                86.25023314508427,
                90.34402290011175,
                83.49822372936664,
                88.7933673336245,
                83.37262087019401,
                84.9707808488544,
                83.40183889844499,
                85.02969161030266,
                85.49709739147815,
                84.80800648805058,
                82.70754093940793,
                82.56123813698156,
                84.96313508107977,
                84.16950341553203,
                83.93221677021418,
                84.54355059884355,
                83.72026052735517,
                82.42649487930098,
                86.4745609326913,
                83.2489010203551,
                84.73187401574332,
                87.56738642358687,
                85.23535274598613,
                84.07944358761063,
                85.11836375430298,
                84.45940851495033,
                83.12018984159104,
                85.88914753150762,
                83.61316191159007,
                85.99551965238668,
                82.20030429459734,
                83.82971766923185,
                84.83264808563972,
                84.16038667049496,
                84.01656570692249,
                84.30159448471788,
                82.35424210795159,
                81.2260193408751,
                84.33185222579104,
                84.94749356629518,
                82.8899970787005,
                82.59504636946768,
                86.50298384812345,
                86.70844480430829,
                83.97025578158701,
                84.30053815465361,
                83.24542034766598,
                83.54961891646965,
                82.06118619188288,
                88.30229562596868,
                83.73682647221857,
                82.23935062030698,
                84.4486482699181,
                84.08470856420853,
                82.8806229985492
            ],
            [
                86.35689039619334,
                89.38251939591615,
                87.76944680080797,
                88.14922661150898,
                101.63338428327977,
                288.4187448514607,
                280.39132856771954,
                287.043395665705,
                255.2525284824404,
                291.26956415394613,
                196.298874806976,
                340.6839749910095,
                294.4848891568077,
                311.7990611112194,
                279.77449561125945,
                325.25048120099103,
                277.6770287592318,
                319.86742878021477,
                304.3366510833848,
                195.71608015115584,
                296.75216296884963,
                216.99391490950524,
                307.7228702309774,
                241.02866715044746,
                290.3027979446978,
                307.8141393583096,
                254.89372384521715,
                95.99312956523839,
                99.60564920708771,
                97.87313722593274,
                102.10550200348254,
                88.02935498651597,
                87.76930888156082,
                90.56933640593938,
                90.11799094070153,
                93.18110527097369
            ]
        ],
        "cov_of_var": [
            [
                0.18701422352906713,
                0.21877935108828875,
                0.18220130848555516,
                0.24613363213725817,
                0.1969851055812976,
                0.22854386739496083,
                0.26514990950038236,
                0.2576143750713275,
                0.2565979213630232,
                0.23513108812179084,
                0.2231266185865639,
                0.2244588529855117,
                0.2373515602341838,
                0.239097792849691,
                0.21983233978978167,
                0.26357413711800887,
                0.22209800199860194,
                0.23411090356805866
            ],
            [
                0.27935846254017366,
                0.24552871303458143,
                0.2779968809605283,
                0.26698800759301095,
                0.25706670200305576,
                0.21098731466007717,
                0.23820532640682357,
                0.21220639364202273,
                0.2664082782352156,
                0.2174019945366078,
                0.2206465584759848,
                0.23258044376739495,
                0.18384572728111756,
                0.27978053648350604,
                0.22386303516968775,
                0.1938609310170943,
                0.2276464560992916,
                0.22631822019816106,
                0.18908870669001213,
                0.2554953277748225,
                0.29191644246833043,
                0.2663205207513301,
                0.22312925622041133,
                0.23843414782172956,
                0.27707004209516445,
                0.28225236888608146,
                0.28571433939790036,
                0.29655885000355003,
                0.33481392973240803,
                0.2580749156284057,
                0.29367396128628726,
                0.29294204013825365,
                0.26274097837614313,
                0.2704820332735222,
                0.26904929465070027,
                0.15934141518706388
            ],
            [
                0.22414070595123914,
                0.3477633094353791,
                0.3423333982522001,
                0.3281534702104892,
                0.3108782108634816,
                0.2649045368636367,
                0.305403130978232,
                0.36132129793368645,
                0.3072161338368115,
                0.38121053702520175,
                0.27096252778630936,
                0.3499938005606747,
                0.294609762510986,
                0.28012219953744605,
                0.3070267652407698,
                0.4039473786517835,
                0.34706364499016834,
                0.28409683327924523,
                0.40149232297350074,
                0.30316194122207085,
                0.2673076058994382,
                0.32356052973791477,
                0.3652332799731021,
                0.2221901286109326,
                0.3045791037237095,
                0.3300900618695152,
                0.2740791717815288,
                0.2777858523280846,
                0.3133591903307578,
                0.375579774861493,
                0.25170113469492894,
                0.292119312827511,
                0.2995716421099303,
                0.2564299819275398,
                0.3174818956837981,
                0.2753524599992237,
                0.2732178170986721,
                0.28248453789345457,
                0.26483320397665217,
                0.26596679009926333,
                0.2742052610883759,
                0.32912129901665454,
                0.2926921472213296,
                0.3676290275125325,
                0.3359858422377726,
                0.32547818947318824,
                0.3896445934647393,
                0.35947192637836434,
                0.39424161643971295,
                0.33474219320051946,
                0.35230805440800655,
                0.3479323436214736,
                0.32749928630463,
                0.3443899421754078,
                0.3180236679524144,
                0.35960817275304957,
                0.2956734702112231,
                0.308642886914458,
                0.3798081636065001,
                0.33028283305673134,
                0.30431698528233725,
                0.2600869614435582,
                0.23738698692977267,
                0.22156777211808779,
                0.24628089385090132,
                0.3053962964709778,
                0.29681432744992514,
                0.20921140618918432,
                0.2663836743004994,
                0.2441489681835123,
                0.2669014324704214,
                0.19799429948840208,
                0.27115429558225773,
                0.20723912309835427,
                0.29408229915146966,
                0.38150626966852497,
                0.31765043710839563,
                0.28800019758254053,
                0.30709832415034893,
                0.16142977865450195,
                0.2372593403057389,
                0.2009399468654801,
                0.1670562004211518,
                0.21907473379900233,
                0.20432825692792267,
                0.182274333879518,
                0.14262075508243605,
                0.19280238750954104,
                0.1424109602984525,
                0.17236395730328588,
                0.14730883758043017,
                0.16271493022284975,
                0.15117198268464352,
                0.17883786988046704,
                0.168617954465597,
                0.16304584623038348,
                0.16638269260945696,
                0.14174596579674295,
                0.1674796981781199,
                0.184945542047239,
                0.1582932897875686,
                0.14457517965473354,
                0.1688974574787553,
                0.1389092763819542,
                0.14612645384353837,
                0.163939040869725,
                0.16677175608614578,
                0.16420991456231018,
                0.16654526246427506,
                0.13575782117779314,
                0.18720924942830552,
                0.18520531184035136,
                0.14833763252623944,
                0.15083822469463903,
                0.14328606480384326,
                0.24345760052457563,
                0.20605915569908165,
                0.239279137148068,
                0.20342846292512873,
                0.2137514772491269,
                0.24367931676492796,
                0.2050193581627349,
                0.2222643410898656,
                0.17050322371559368,
                0.202643841079844
            ],
            [
                0.27032937042523353,
                0.23302196652444418,
                0.15845019351695416,
                0.1963094589583976,
                0.19627439506737585,
                0.17337285359844254,
                0.18399699750767354,
                0.1856278674402413,
                0.2511865349336136,
                0.17642843588043333,
                0.2038883930089118,
                0.220707043502926,
                0.24291805405791797,
                0.19721255861566186,
                0.25794109925240255,
                0.2071332199030886,
                0.20626425346884295,
                0.20581640374902332,
                0.23213215300330894,
                0.19808422769476272,
                0.18191847518645252,
                0.18365527302040716,
                0.18510094524080123,
                0.20331408687232314,
                0.2048228572736097,
                0.20540167945959106,
                0.19445844722713992,
                0.2356252884099073,
                0.18636604242346222,
                0.26924363099498433,
                0.21726951848685705,
                0.19058189518194082,
                0.47979951193250786,
                0.3815546285101085,
                0.5211886276407777,
                0.4602152221154341,
                0.3381698985928245,
                0.4316413999259974,
                0.4033214237054126,
                0.36711392004791993,
                0.3780392025230856,
                0.36587063169143913,
                0.3366743679256436,
                0.38663031718779733,
                0.4135819184780276,
                0.3763208762670726,
                0.41899156601144255,
                0.3815658541051859,
                0.38342870708243443,
                0.3612072471509759,
                0.25037097612033304,
                0.2850806601644136,
                0.378804107924061,
                0.33514517098869767,
                0.22672226035800147,
                0.28959539876535173,
                0.29013239482108516,
                0.28540415883674536,
                0.29580868914350184,
                0.28131583809733374,
                0.22784531423862006,
                0.28525469726264685,
                0.2977140085109637,
                0.28036141836801837,
                0.21222361793134983,
                0.29552120447721386,
                0.2724643881618832,
                0.31427114701223696,
                0.24149917847638333,
                0.25417677307569464,
                0.27862913137983086,
                0.3167516130485782,
                0.23149881409375914,
                0.3000558255023588,
                0.21693016516425453,
                0.2295128711668284,
                0.1752345465038048,
                0.18748169307803586,
                0.19533081925966767,
                0.25525878454959217,
                0.1924017077652486,
                0.2012531619119687,
                0.24652788143942975,
                0.19414482236596955,
                0.18625699588172598,
                0.19106289280375943,
                0.18226987731703295,
                0.198986725785519,
                0.257913880025897,
                0.18213645345345617,
                0.2229041886498553,
                0.25215818404449775,
                0.25028883255229667,
                0.22426716554559364,
                0.25436002909400673,
                0.2236507273039475,
                0.18982809831084932,
                0.2653985341360133,
                0.21185674701003113,
                0.24536088814214174,
                0.2181245114939855,
                0.16652646934721593,
                0.2333315214204189,
                0.14437199148971006,
                0.16433524411958098,
                0.2082611187661899,
                0.15732002804384684,
                0.1709270855580207,
                0.2249892757008208,
                0.20358311979731267,
                0.20299013976637145,
                0.21920561124576174,
                0.2286069877344271,
                0.2830565444718031,
                0.2404944326196173,
                0.22039694614775573,
                0.26370265995934555,
                0.20305947844463212,
                0.20854586677441386,
                0.288614075598527,
                0.2086710744296076,
                0.1677021068552418,
                0.2054551556162578,
                0.23008910955178472,
                0.19022063320457602
            ],
            [
                0.22558473179440328,
                0.3032540591370776,
                0.26111669102140456,
                0.26918187844398467,
                0.5215246226086547,
                1.2265870831110002,
                1.1864133595109159,
                1.2041089170616361,
                1.2538844116799532,
                1.235427854967097,
                0.9174623809824193,
                1.4517091975129361,
                1.2359941929718945,
                1.351898460998857,
                1.2223695088918214,
                1.3540888393610073,
                1.180401191872453,
                1.344352043917701,
                1.243551949472056,
                0.9928588873776789,
                1.2467122656723,
                1.1139815359578218,
                1.2935987522652936,
                1.1327093550453022,
                1.228622781642627,
                1.277895669110796,
                1.14761788816082,
                0.4621569224716538,
                0.4765032501733732,
                0.47368933740375624,
                0.4999076314342386,
                0.33491301374950716,
                0.2904357884264062,
                0.3374588374954757,
                0.3270875084775835,
                0.3936715324732249
            ]
        ],
        "excess_waiting_time": [
            [
                47.81789814864777,
                51.02331203621865,
                42.79003222083156,
                51.2723260972883,
                46.4811983210997,
                48.035228914538514,
                53.16019670125139,
                53.36857138836899,
                51.04999135704066,
                49.56570137045626,
                50.20182490518294,
                46.92046868706751,
                48.607556123407925,
                49.93503265342857,
                45.65262301815054,
                53.14321960390145,
                45.39484268456439,
                49.12109550623408
            ],
            [
                62.69133697281044,
                54.75014814431941,
                61.72882210556822,
                58.38352966203928,
                55.05810762570792,
                47.89449786808182,
                53.093762815246215,
                48.70216168449807,
                61.88413320896924,
                52.48699576413757,
                52.397228837518064,
                52.17766539376364,
                46.329611218432746,
                59.98103223880468,
                53.301236027805935,
                45.569131870603236,
                53.117547966403016,
                53.669871976695184,
                46.893906578679754,
                59.82819565033456,
                61.75072230303357,
                57.64050322887601,
                50.6051939362034,
                53.09229906419096,
                59.30601952112897,
                58.894887958760044,
                58.66246710312097,
                62.190650281323485,
                68.74617348860802,
                56.210414096252386,
                65.23929743968183,
                62.29175902696367,
                55.934121921657606,
                58.508228226921574,
                55.87317506764413,
                52.642196076911866
            ],
            [
                68.31526369001666,
                77.86359477484392,
                75.5117615187072,
                70.90013771024742,
                69.88788876661353,
                61.6788478487835,
                72.51493599317128,
                85.27954893011014,
                68.01440016546995,
                87.80252630400405,
                61.713238000520114,
                78.71552839203594,
                66.62244548313599,
                62.529661091345154,
                68.80090981958743,
                90.83121428338374,
                79.41412576750615,
                64.57866305535451,
                92.42620906809428,
                72.48580301175433,
                62.56593134967911,
                73.10310620608654,
                82.3687505996585,
                55.26763821312451,
                67.07792673885683,
                73.09457602903929,
                63.02942474614647,
                61.66742837048363,
                73.52759240777984,
                88.16382855855791,
                55.35660960015915,
                67.93393287502577,
                64.96487157259368,
                58.87161764025846,
                78.75288136846679,
                64.59248408175478,
                61.151799752886724,
                65.8408696565567,
                61.62874787908561,
                58.31973114429206,
                61.487742097421894,
                76.44122647162492,
                63.52957724294345,
                88.65976020955593,
                79.96641436833296,
                78.19360977739261,
                93.93711725822334,
                85.72816426052367,
                91.59959439242903,
                78.7159866757054,
                82.30537050348313,
                85.03535350412294,
                80.6701307370371,
                78.94223744982688,
                77.1512198902155,
                85.80661370801901,
                70.55832441308384,
                72.46510173823299,
                86.9009026950751,
                76.45488538552705,
                70.01479602657294,
                70.58116490134374,
                63.567082172882614,
                61.9121542256894,
                65.64188933107158,
                76.63021666130403,
                79.33109226637951,
                61.15097668353536,
                69.8087266396626,
                67.79716804984814,
                73.53901474482018,
                61.310940934181666,
                69.37645837566396,
                61.05261990969808,
                65.29162988124362,
                86.19751351606696,
                70.35959616145443,
                63.96589903716992,
                67.4229162220067,
                53.734083827629526,
                70.64039045656041,
                65.027710815401,
                58.52830632086858,
                66.29952973063924,
                63.60905953393021,
                59.79391930970729,
                54.834777008430585,
                62.562625606627876,
                53.28368191885452,
                58.65556657786423,
                55.642214204257506,
                53.72094035016064,
                50.53586347939963,
                59.63993173809416,
                52.36506711239692,
                56.03977540374357,
                57.91069481206165,
                52.23396643084152,
                55.44962920443883,
                59.43145194777688,
                55.2569682537638,
                54.83531551606169,
                59.85832346230425,
                52.82137769884377,
                56.266424366213414,
                57.617949490983186,
                56.318044161239754,
                59.48527423107969,
                59.37364185025793,
                52.42919756320209,
                62.26811949641628,
                59.468095852168325,
                56.77682850211939,
                56.428288905270016,
                52.97102464737443,
                69.50155365914485,
                63.39639309986685,
                67.17692151723635,
                66.32500548054166,
                62.38156626196036,
                71.62955002173543,
                60.650989199612944,
                63.12521367676246,
                56.902904829276885,
                60.91279132947005
            ],
            [
                76.59456017024841,
                70.75276353798579,
                63.63541357255267,
                65.26649473068784,
                62.82963174911968,
                63.7567748231117,
                63.84708550975672,
                64.34826857208745,
                76.78395030654639,
                61.586903655094964,
                68.41093276725103,
                70.78532796770035,
                74.35741470171914,
                62.2140626992019,
                78.94574780519467,
                66.98280986417201,
                71.17287775548745,
                64.21513490410923,
                75.29781952214414,
                66.83439201931118,
                67.71181036942527,
                67.35248166050896,
                69.02206016172305,
                70.07253740249519,
                65.3823668612344,
                64.92447762731443,
                65.92810915266783,
                70.81291649251581,
                63.627569224518425,
                75.6655418334464,
                71.32652701405794,
                70.10827365757591,
                119.9929100643978,
                91.60010563425118,
                135.82458817149356,
                116.59401647083054,
                84.18983930826896,
                110.90888194651502,
                100.38658842084612,
                91.61084357132252,
                96.92432553946838,
                90.38124664005888,
                83.22904162050045,
                95.94031022949724,
                104.64740694322965,
                93.53361877685093,
                102.5967045642647,
                89.66787602582319,
                92.41276378271665,
                96.50898999267083,
                69.98355907213751,
                77.49234073673614,
                101.45836748056128,
                88.02465809512977,
                65.40406217559007,
                76.80278499736355,
                74.48504444780178,
                76.22078541029008,
                77.6260694904841,
                75.74642197656935,
                69.12302057346568,
                74.90714410104673,
                78.39084260468479,
                73.07455940150747,
                64.50939660369698,
                77.1610466760565,
                76.27358773606305,
                83.78461607061313,
                66.70313314101888,
                71.60575937986819,
                74.16132198874323,
                86.268505772725,
                68.00631214024482,
                88.98298314096827,
                67.65398419753566,
                72.23777823357814,
                62.916019964391154,
                66.56802971125813,
                68.05381082487514,
                72.9894614486873,
                63.682475610174784,
                64.23776411064355,
                72.11992544118341,
                64.62858833996624,
                66.49504880905373,
                63.62864051924644,
                63.74549394075831,
                64.51687387067805,
                78.19323608077319,
                61.51936713181322,
                68.95034873855626,
                77.21549250282754,
                73.75219465513658,
                69.91944608772485,
                76.69174403230676,
                70.39592252526292,
                61.1694003169472,
                79.14679017771755,
                66.84647442079351,
                77.93525552510863,
                67.69531410977307,
                59.38220982211792,
                69.89954702585227,
                57.033372366251506,
                59.091728069481995,
                62.753283584243825,
                58.227252913749055,
                58.160116135562,
                65.55458561904074,
                64.38747948883848,
                64.58242440704231,
                66.58942201501155,
                69.37898909174021,
                83.98910976763477,
                70.24589616333813,
                68.38959000033242,
                76.07608849523541,
                61.60272976342799,
                63.42641789280193,
                83.01079043395401,
                66.24626590664752,
                58.17464348390615,
                66.66633277410585,
                70.07652116065374,
                60.72836158316263
            ],
            [
                75.05677978224331,
                90.6405849687499,
                81.53413454911,
                81.97597779450554,
                137.01416137130016,
                938.157852913328,
                855.4104273393841,
                921.5226627809861,
                826.5734058381164,
                945.4482646777443,
                575.0793469304265,
                1219.0022947786904,
                930.1145587826585,
                1075.0770754133825,
                921.9691666961029,
                1141.0892719624637,
                875.6991044601264,
                1084.8684016961247,
                980.8032206794638,
                563.3307769202916,
                972.8126705397561,
                661.8467185181786,
                1023.278488593116,
                750.8890192164637,
                910.0495489147037,
                1024.4094802460584,
                794.1601191462096,
                121.04361831987319,
                129.26208817987902,
                122.02718075522527,
                141.39393719229633,
                91.99839723594421,
                85.01343380023549,
                94.26023950992784,
                92.75551246009074,
                115.22997188996071
            ]
        ]
    },
    "overview_data": [
        2631.899639205438,
        79.4727146074478,
        0.22987783274463075,
        49.0856177632044
    ],
    "actions_busses_p5": [
        0.8864494687547207,
        0.08681202477466136,
        0.0,
        0.02648673145677023,
        0.00025177501384762577,
        0.0,
        0.0
    ],
    "actions_tfls_p5": [
        0.03626127200725225,
        0.5819934157163987,
        0.38174531227634906
    ],
    "actions_present_p5": [
        0,
        1,
        3,
        4,
        5
    ],
    "policy_busses15_p5": [
        -194.21767170152538,
        86.94732084687742,
        189.67937732319902,
        317.4648789809766,
        892.3019587775866
    ],
    "policy_busses50_p5": [
        -177.20581966918257,
        149.413797557413,
        193.15457120010123,
        345.79045677211116,
        892.3019587775866
    ],
    "policy_busses85_p5": [
        -169.4133547571845,
        153.49116606112602,
        215.01795789281172,
        367.22759544112307,
        892.3019587775866
    ]
}