{
    "Average_holding_time": [
        18.201313806129853,
        21.156821525451047,
        27.376744186046512,
        47.78815663012907,
        57.00225889101044
    ],
    "Average_travel_time_passengers": [
        2749.461198481653,
        2785.464170782449,
        2864.321436307347,
        3700.057213889472,
        8918.334153262917
    ],
    "Average_experienced_crowding": [
        112.091929326469,
        113.97455884960118,
        124.0751742878856,
        223.43338901475101,
        1000.6934482131018
    ],
    "Average_passenger_waiting_time": [
        335.9188242943682,
        340.0207316926406,
        373.61597855524144,
        660.8111487552562,
        3119.9859256895397
    ],
    "Average_passenger_in_vehicle_time": [
        2409.9126056314158,
        2437.4405933791845,
        2496.73219602796,
        3038.588421749535,
        5825.749133573649
    ],
    "av cov stops": [
        0.1761158334273461,
        0.20880405735794055,
        0.38168928820476367,
        0.8342213935395052,
        2.0829411783238783
    ],
    "av excess stops": [
        64.42972750150375,
        69.07093756176396,
        102.52297322233578,
        394.78585744475424,
        3342.3455438294627
    ],
    "actions_busses": [
        0.6715090984753906,
        0.08729472774416594,
        0.1215118630848968,
        0.07029674445404782,
        0.04938756624149883,
        0.0,
        0.0
    ],
    "actions_tfls": [
        0.34789884960533424,
        0.33750181190454226,
        0.31459933849012345
    ],
    "actions_present": [
        0,
        1,
        2,
        3,
        4,
        5
    ],
    "policy_busses15": [
        -263.3166917031908,
        -572.850808128255,
        68.13534352040392,
        -600.4260907978078,
        315.94232949543306,
        283.1873573228884
    ],
    "policy_busses50": [
        -219.88865677942124,
        -16.59355665956199,
        97.77508666030101,
        164.3154174123443,
        378.9423377745275,
        405.73722797882635
    ],
    "policy_busses85": [
        -77.27691001704257,
        415.56419708340485,
        111.17913557414823,
        264.3980297141518,
        2963.330662411667,
        580.3515253441267
    ],
    "overview_data_complete": {
        "holding": [
            [
                13.391915641476274,
                22.56855575868373,
                19.98185117967332,
                20.517711171662125,
                22.19178082191781,
                22.211009174311926,
                22.561307901907355,
                21.622846781504986,
                20.98911070780399,
                19.320652173913043,
                22.00181983621474,
                19.981998199819984,
                20.071556350626118,
                22.136986301369863,
                18.83783783783784,
                12.085561497326204,
                24.15832575068244,
                22.997275204359674,
                15.108303249097473
            ],
            [
                18.296703296703296,
                18.83211678832117,
                16.903690369036905,
                15.121731289449954,
                26.514869888475836,
                25.863970588235293,
                22.252747252747252,
                22.81767955801105,
                23.24448529411765,
                24.6309963099631,
                23.336405529953918,
                19.105839416058394,
                20.63711911357341,
                21.47166361974406,
                22.836230558096982,
                22.273972602739725,
                20.68014705882353,
                22.431192660550458,
                22.561756633119852,
                23.357933579335793,
                23.348666053357867,
                23.000914913083257,
                23.642201834862384,
                26.789667896678967,
                20.65753424657534,
                22.036866359447004,
                20.13736263736264,
                22.851885924563017,
                24.03899721448468,
                25.274725274725274,
                24.480220791168353,
                24.50045829514207,
                24.75409836065574,
                13.668161434977579,
                14.54136690647482,
                15.365853658536585,
                17.425474254742547
            ],
            [
                16.094890510948904,
                21.333333333333332,
                18.165137614678898,
                18.52054794520548,
                20.862385321100916,
                19.393939393939394,
                17.490774907749078,
                20.98901098901099,
                19.763421292083713,
                17.814207650273225,
                19.871912168344007,
                27.22429906542056,
                28.117977528089888,
                29.211267605633804,
                28.526413345690454,
                29.832089552238806,
                31.046182846371348,
                28.987816307403936,
                29.520225776105363,
                29.80355472404116,
                27.811038353601496,
                28.316183348924227,
                28.710280373831775,
                28.73358348968105,
                29.240862230552953,
                30.869158878504674,
                29.71883786316776,
                30,
                31.532639545884578,
                29.492003762935088,
                29.09004739336493,
                29.91444866920152,
                30.71090047393365,
                31.71591992373689,
                26.526610644257705,
                28.818011257035646,
                28.501413760603203,
                27.342130065975496,
                29.140401146131804,
                27.86716557530402,
                27.262569832402235,
                30.708884688090738,
                30.5937794533459,
                28.502824858757062,
                26.163113994439296,
                28.07547169811321,
                29.235849056603772,
                27.376744186046512,
                27.778819119025304,
                28.70178739416745,
                29.71698113207547,
                27.354596622889307,
                28.86899151743638,
                26.096654275092938,
                27.367924528301888,
                27.94943820224719,
                23.49630996309963,
                24.855545200372788,
                25.06046511627907,
                22.934682612695493,
                26.01123595505618,
                24.40443213296399,
                24.34380776340111,
                23.446069469835468,
                22.57617728531856,
                26.424581005586592,
                21.983471074380166,
                24.194444444444443,
                25.76958525345622,
                25.036968576709796,
                22.12121212121212,
                25.526561043802424,
                23.7902483900644,
                23.05785123966942,
                22.826691380908247,
                25.09242144177449,
                23.02836230558097,
                25.302889095992544,
                24.310823311748383,
                22.97222222222222,
                27.711627906976744,
                24.395910780669144,
                26.54059040590406,
                22.07182320441989,
                24.428969359331475,
                27.260018639328983,
                25.318559556786703,
                24.25,
                22.451790633608816,
                16.759002770083104,
                18.038852913968547,
                15.926267281105991,
                16.89908256880734,
                17.1900826446281,
                24.96309963099631,
                28.651685393258425,
                29.608938547486034,
                28.987816307403936,
                27.906976744186046,
                27.530064754856614,
                26.60482374768089,
                25.134383688600558,
                24.12199630314233,
                26.73130193905817,
                29.26829268292683,
                26.66048237476809,
                26.263837638376383,
                25.62267657992565,
                29.382022471910112,
                28.828996282527882,
                27.901119402985074,
                24.121435142594297,
                25.714285714285715,
                21.373626373626372,
                28.903467666354263,
                28.76865671641791,
                28.877455565949486,
                27.239436619718308,
                27.625698324022345,
                20.76709796672828,
                22.38139534883721,
                20.46468401486989,
                19.336363636363636,
                19.81651376146789,
                17.119416590701913,
                20.542279411764707,
                19.87012987012987,
                18.93577981651376,
                22.75766016713092
            ],
            [
                26.161806208842897,
                23.71375116931712,
                27.780979827089336,
                28.59922178988327,
                27.718631178707223,
                28.28985507246377,
                32.85574092247301,
                22.18487394957983,
                28.12680115273775,
                27.145631067961165,
                24.067164179104477,
                23.20754716981132,
                24.4967074317968,
                23.03821062441752,
                24.204545454545453,
                23.463687150837988,
                21.380597014925375,
                27.504835589941973,
                28.627069133398248,
                25.150375939849624,
                27.398843930635838,
                33.24478178368121,
                33.889418493803625,
                32.183364839319474,
                31.084681255946716,
                32.136752136752136,
                33.746425166825546,
                29.32075471698113,
                34.81835564053537,
                32.371428571428574,
                36.190019193857964,
                39.55357142857143,
                28.72037914691943,
                28.81132075471698,
                32.34957020057307,
                32.77407054337464,
                30.257387988560534,
                33.13518696069032,
                29.34285714285714,
                32.173498570066734,
                35.433526011560694,
                27.92717086834734,
                27.951356407857812,
                29.376181474480152,
                26.22905027932961,
                30.115163147792707,
                30.853889943074005,
                35.39423076923077,
                30.56497175141243,
                28.095238095238095,
                33.375394321766564,
                44.17297297297297,
                48.41216216216216,
                41.33116883116883,
                31.88259109311741,
                24.51923076923077,
                28.849557522123895,
                47.73480662983425,
                42.185501066098084,
                22.989593188268685,
                31.007121057985756,
                25.931707317073172,
                24.3768115942029,
                26.20991253644315,
                20.42910447761194,
                19.151910531220874,
                40.107296137339056,
                18.64485981308411,
                37.39811912225705,
                24.50381679389313,
                24.589235127478755,
                44.799107142857146,
                46.86879823594267,
                34.904137235116046,
                44.7707423580786,
                22.99249530956848,
                20.539772727272727,
                29.744318181818183,
                29.718045112781954,
                31.41509433962264,
                24.203581526861452,
                20.659851301115243,
                27.301435406698566,
                23.781512605042018,
                26.102021174205966,
                22.618825722274,
                24.00560224089636,
                25.515610217596972,
                22.703461178671656,
                22.429643527204504,
                24.19172932330827,
                21.182994454713494,
                21.324626865671643,
                22.855813953488372,
                23.183098591549296,
                25.189753320683113,
                21.150278293135436,
                19.806094182825486,
                20.28677150786309,
                24.176974310180782,
                23.55325164938737,
                19.67622571692877,
                25.194312796208532,
                49.26486486486486,
                36.34615384615385,
                45.17722878625134,
                40.16276703967446,
                40.06060606060606,
                48.35176991150443,
                36.9464105156724,
                29.59847036328872,
                30.764705882352942,
                43.96875,
                49.827213822894166,
                43.007209062821836,
                45.25316455696203,
                47.631862217438105,
                53.9265850945495,
                47.80149413020278,
                43.70798319327731,
                27.964184731385487,
                38.126888217522655,
                38.76132930513595,
                45.78778135048231,
                35.34860557768924,
                47.45161290322581,
                50.16181229773463,
                51.25
            ],
            [
                50.95238095238095,
                56.850828729281766,
                53.61581920903955,
                57.38181818181818,
                59.189189189189186,
                55.945945945945944,
                63.80281690140845,
                59.07514450867052,
                55.32663316582914,
                56.431451612903224,
                64.28571428571429,
                63.46551724137931,
                59.4375,
                56.99629171817058,
                55.104166666666664,
                57.50922509225092,
                57.00623700623701,
                58.98,
                37.262443438914026,
                60,
                50.256410256410255,
                51.34529147982063,
                54.850746268656714,
                51.76100628930818,
                57.05555555555556,
                65.50084889643463,
                61.57342657342657,
                48.10539523212045,
                58.828125,
                56.723768736616705,
                49.839816933638446,
                68.08189655172414,
                68.97841726618705,
                53.1578947368421,
                49.27107061503417,
                52.43150684931507,
                55.78181818181818
            ]
        ],
        "waiting_time": [
            [
                338.4196028939216,
                335.44397327905193,
                332.25928886277825,
                328.33790848434995,
                337.66055578219294,
                338.6277566688101,
                336.78478784332754,
                334.46178792538547,
                333.0236237167814,
                331.6332487357862,
                341.3334598463291,
                332.40613116255287,
                335.08922293326424,
                335.7147070162988,
                325.4818467388541,
                344.9482014228259,
                330.5863126059915,
                331.5192023970648,
                359.0897829105888
            ],
            [
                371.841981084539,
                367.52561246266157,
                363.62754343842573,
                368.16507921688446,
                337.0352543402513,
                332.30710636342894,
                341.6146304731831,
                341.09866930732784,
                337.65613223301204,
                349.7705061284464,
                342.64021297544434,
                333.89406856802356,
                335.89155913907604,
                334.89055709781,
                343.8424199868659,
                341.560240861264,
                336.77475386069955,
                344.1247286145176,
                334.7600167864446,
                338.5239666271289,
                347.08969663295966,
                339.8841839959615,
                343.0317464423883,
                348.035844385457,
                339.99714244787447,
                338.0260394742671,
                337.478518753942,
                344.23929070702894,
                336.40665253372106,
                349.7833830863323,
                337.4056985254249,
                339.21142324014005,
                335.0236666384056,
                360.12234787985506,
                358.00059760238025,
                370.0136951888575,
                356.24838700347215
            ],
            [
                357.17380842222997,
                397.7467046316665,
                388.62720636880323,
                384.3958216583076,
                388.63478108918787,
                375.66571486210955,
                381.1201849327607,
                388.4408015008096,
                368.8135406127906,
                375.06191037267297,
                405.0521235753596,
                340.0595451661699,
                336.91520340894203,
                345.47373754012943,
                336.299077181278,
                337.3786621220487,
                346.77139959749593,
                342.803675523019,
                342.66719120145973,
                336.39981084106364,
                337.78313152031274,
                337.3021793308893,
                345.3818351739279,
                345.7506231816146,
                345.29914174646126,
                348.5071281458252,
                340.3442840809508,
                343.3400551185059,
                350.17676443991786,
                349.78163159175017,
                353.7723741948646,
                347.49820187580684,
                351.46625474203734,
                352.09130684478725,
                337.60804096950443,
                344.5481504297571,
                346.7040766669076,
                339.99108104768135,
                346.124565994092,
                340.01102832425823,
                335.9597220273065,
                355.44889300064983,
                355.0047618757522,
                349.0368928095642,
                338.8778570779928,
                345.12017855593695,
                347.7062193988431,
                338.0207764238686,
                339.03049030302464,
                338.8452663075466,
                345.9844629002562,
                340.3160757583833,
                345.27739860398333,
                335.2613779649117,
                339.99551172455006,
                340.1310704832568,
                340.76169542465135,
                361.5038476163709,
                351.0404810807817,
                338.8398572433121,
                357.3192530127034,
                348.502357877492,
                346.25792314010596,
                348.8711443010656,
                337.72038847940206,
                356.48480707080006,
                353.6403316940414,
                351.3066617049597,
                358.2218672202871,
                355.7923449128395,
                344.6582840068442,
                360.426767550508,
                340.1134480862279,
                345.6124131234647,
                350.70355544604934,
                348.38084739191356,
                338.684887164232,
                348.6543793206506,
                348.995556301906,
                339.7862786053129,
                354.85422787517,
                349.3934180130246,
                354.11619277828817,
                340.407189266838,
                351.4069347130484,
                348.921979979588,
                345.8118097122589,
                344.8954445659888,
                336.9637844901734,
                397.8530932036013,
                393.49130423729605,
                382.6004876322979,
                391.1496680689486,
                383.0270243880915,
                348.4862558603736,
                357.2351171011681,
                349.62570771618374,
                353.9601578504975,
                349.3261313543926,
                346.415060666085,
                347.5550819942175,
                347.86607431227554,
                342.95517999332117,
                342.9152702357389,
                356.6316455441704,
                344.79719330807757,
                340.3575202032079,
                346.70527145341043,
                358.36071658953006,
                353.0984075827798,
                351.5026853549925,
                338.5703346646934,
                349.24271014106233,
                338.77060052266796,
                366.7079400003397,
                351.00538908849705,
                357.5554118813924,
                351.17162548778197,
                348.70535835225536,
                399.60113965211815,
                388.1952682021787,
                390.8556753588834,
                373.61597855524144,
                391.8813026116885,
                373.8100318792393,
                381.3168950511734,
                392.32682504862714,
                379.8549037623255,
                381.648164249545
            ],
            [
                437.38778489529614,
                429.30272652816495,
                471.4286931942885,
                461.9251024521778,
                437.3044880641184,
                447.96733209931,
                479.4324717666606,
                409.5285266260057,
                475.385931284302,
                467.735724705219,
                427.5621215684438,
                421.3960873454388,
                432.4196564236327,
                422.02207002921335,
                437.3563139311978,
                406.6833470777419,
                404.38225631424115,
                463.8190125297649,
                473.33286971360997,
                405.5498811866411,
                441.9307937355996,
                370.3504284030076,
                377.32026832313414,
                357.62579354049456,
                347.03464554819305,
                348.20430520706776,
                365.8148471127134,
                347.4726270289271,
                363.2752858681088,
                366.6371642905863,
                385.04289795303754,
                417.61106847473434,
                348.0766474166373,
                342.85027325039096,
                355.7128935434514,
                354.04011836309604,
                350.2064784239143,
                367.98376013996767,
                349.513120068452,
                357.1989408735353,
                372.4345480918168,
                380.21096981085657,
                376.12916353387527,
                370.98476372989535,
                361.3974570189189,
                461.1579899081945,
                402.46859978147484,
                386.78959627452474,
                369.28304525403826,
                366.8428819178887,
                502.18923776557904,
                627.7588207084624,
                661.1738799536612,
                611.1777243420054,
                506.71176371341465,
                440.78449226867644,
                446.12770223620026,
                608.7457091568032,
                567.3641587619389,
                435.813093333068,
                516.4204212991084,
                470.5192127647305,
                438.0747069694386,
                479.2212231844331,
                417.6550894606074,
                412.04555064097997,
                601.5764706466437,
                422.62930020671024,
                541.6599221936774,
                438.4102790475886,
                430.8178290780485,
                659.3602239616362,
                606.7944552269839,
                503.8780245057199,
                606.6112726907705,
                426.8688051401342,
                410.42921469227497,
                379.3896253032245,
                357.8686899023743,
                358.0922080926263,
                430.5556509459622,
                409.764224359997,
                447.0356101977452,
                391.98399166588024,
                452.39237031506264,
                391.8359529572169,
                422.5295101461895,
                436.59076333184464,
                407.65025564295394,
                397.94070732848303,
                410.0610868132375,
                396.5055977250708,
                404.1322405502671,
                415.60894699132,
                410.0601623142473,
                430.0442765704609,
                408.0345066220607,
                392.07948478056915,
                386.46535282008296,
                446.40546110117145,
                420.22406977880155,
                394.6485596062874,
                440.5375334829969,
                573.9116908891339,
                473.73137204949825,
                563.010339816046,
                501.3453582843295,
                493.67889352869275,
                609.1611295834081,
                494.7985262402306,
                424.7029035479952,
                463.41101504178533,
                517.3599804764596,
                561.9700548014697,
                503.7408313470415,
                530.7111377239731,
                537.8782068323653,
                589.0719135748398,
                556.9541570006617,
                521.2804607731063,
                416.57472590155123,
                476.3953164180822,
                470.9306922294519,
                563.8700096283953,
                459.5515837745067,
                555.3697866711559,
                556.2736742038,
                573.7158860040182
            ],
            [
                1470.8859507706584,
                1232.5261322972644,
                2631.9679085444654,
                2176.745123483659,
                2757.3697052669927,
                2770.6304027993083,
                2453.8357830578593,
                2354.313268187372,
                1925.489469192152,
                2474.428899654447,
                1564.6479262696644,
                1644.794906911456,
                2799.133909745131,
                819.8932485406027,
                1757.5262071806728,
                2103.9021215034104,
                2766.391434206774,
                2813.305136325887,
                661.542520186517,
                1987.5331614251259,
                765.852073571285,
                1294.7655209529557,
                1194.4760259003933,
                3119.446447989777,
                2284.013140356421,
                1626.8479845271997,
                1727.6819660442015,
                866.9166728226515,
                1435.7703386771077,
                3107.24889787409,
                681.142421148292,
                2939.502809130762,
                1169.6371841506716,
                744.5736215052503,
                676.0259686384184,
                653.1579377730263,
                775.7176093320473
            ]
        ],
        "in_vehicle_time": [
            [
                2341.910239825809,
                2388.573600264934,
                2416.4706651392203,
                2399.947569670615,
                2405.1720533521,
                2401.403800115267,
                2400.923880246595,
                2409.9092974276414,
                2387.996762877641,
                2398.787953505301,
                2405.9733458875407,
                2414.7974375345366,
                2377.0190637008404,
                2405.9170202544233,
                2379.211826131474,
                2340.0130077997214,
                2409.917567937078,
                2401.110061087436,
                2385.0428529769297
            ],
            [
                2410.5069429986575,
                2417.8980435072904,
                2421.3639119485215,
                2408.7166514275964,
                2440.7982302071055,
                2430.6743425610293,
                2419.268652175583,
                2425.9231596586455,
                2428.32832405825,
                2433.5836827395574,
                2440.145004556196,
                2438.0521158517113,
                2448.4148881374176,
                2437.360320377347,
                2431.9064841020786,
                2416.000515136524,
                2442.7876272760955,
                2421.124887648514,
                2430.392879783175,
                2445.810782124531,
                2435.9947538689103,
                2424.1549324031503,
                2438.6935063779115,
                2426.371409403799,
                2415.966293127235,
                2431.811093262176,
                2413.07954644728,
                2429.994404311035,
                2437.3062335661843,
                2434.4805782994736,
                2438.7363245173924,
                2437.7616853865347,
                2428.03530632143,
                2404.3042981974822,
                2395.6635159187103,
                2412.2431141478605,
                2410.964244114659
            ],
            [
                2428.5355210658386,
                2462.7283882544734,
                2436.116848873321,
                2428.5258321717934,
                2446.130693368462,
                2450.3200681098297,
                2442.894120578299,
                2458.159506044328,
                2450.4261363005367,
                2426.474684742769,
                2448.652145193625,
                2481.253378514348,
                2508.1281194105904,
                2490.260751286113,
                2479.4102511397796,
                2467.957183631845,
                2504.457336587699,
                2472.363375276591,
                2518.1888511041416,
                2492.792391351296,
                2492.1379901791256,
                2481.6276042404816,
                2488.0102966939703,
                2492.7319462798932,
                2490.49580354196,
                2492.3279335849666,
                2478.469940517507,
                2464.077434409946,
                2493.5586937308594,
                2470.298041915763,
                2491.8217805795116,
                2503.740263952152,
                2491.8285359156544,
                2512.2301294625568,
                2464.0063897207424,
                2485.1217584413525,
                2490.418561331492,
                2498.336739357321,
                2514.803753505523,
                2493.784055779691,
                2483.4201376773212,
                2504.4995734760123,
                2489.2897898891483,
                2513.171071451369,
                2467.944385431448,
                2492.9225758251896,
                2492.2015041392638,
                2465.58831557515,
                2480.0422479218923,
                2503.0606476731573,
                2493.4431242791884,
                2495.2738574319837,
                2500.615620874958,
                2485.0079780628744,
                2485.1433810798358,
                2471.9298303183655,
                2449.3781310640206,
                2499.3349742289433,
                2458.216678500285,
                2463.6098278051777,
                2485.1116681274957,
                2464.068742349703,
                2441.2654380492536,
                2443.7435032134035,
                2459.8285557865493,
                2494.239702766133,
                2435.382569189804,
                2452.031027048983,
                2459.9258154508593,
                2452.9213963969105,
                2448.0918470345346,
                2481.4605679750803,
                2457.4110903069063,
                2440.9509300447908,
                2438.429367483667,
                2453.8692981874515,
                2449.924964759062,
                2488.4878950945936,
                2448.9028865322316,
                2447.2642042435273,
                2463.4587209303604,
                2460.7299457424583,
                2446.8390618392978,
                2445.2190407655544,
                2452.8619656544074,
                2452.464801443717,
                2470.565316022626,
                2457.413764450049,
                2455.2383703150867,
                2462.515952541281,
                2442.3140270096123,
                2438.96597238747,
                2425.5385890508915,
                2448.092307992026,
                2442.8970072280918,
                2491.0627231269623,
                2450.718894146159,
                2468.9291984393585,
                2459.0792801123935,
                2467.0368592892637,
                2461.142588351137,
                2456.90886743118,
                2450.8368754022,
                2461.4087125348337,
                2492.7956080454733,
                2454.4338580086905,
                2469.230899032631,
                2459.1709536872872,
                2480.833175553266,
                2468.368780826354,
                2484.5770185552833,
                2455.6198269116185,
                2444.2179526546915,
                2463.902422103488,
                2485.6920227153087,
                2486.472576395645,
                2475.788437548223,
                2472.8120162933083,
                2483.6462982370226,
                2435.6208945914545,
                2462.020385318057,
                2448.748174807109,
                2430.974346382618,
                2441.601545063579,
                2427.617939001591,
                2469.944511518952,
                2451.8302609515617,
                2448.0578313601563,
                2472.5711161338695
            ],
            [
                2528.5951307127107,
                2524.2201130705944,
                2600.203866114294,
                2607.2214983199196,
                2555.1079339269004,
                2595.2616463196387,
                2633.560954678745,
                2495.5148484359333,
                2598.8529571905888,
                2586.6219570887206,
                2521.5602792309437,
                2530.7205991639235,
                2531.0802967504696,
                2504.2706412830057,
                2571.9239508281235,
                2498.2287686668383,
                2507.1065608572776,
                2592.1770924671127,
                2615.439106211968,
                2515.7336027170873,
                2592.5649635323853,
                2537.1691474039685,
                2533.994491608913,
                2518.2874311375513,
                2521.9136932257,
                2521.9888998993056,
                2517.073838871561,
                2523.025861401427,
                2562.2028552084225,
                2555.8551748688833,
                2537.076953232522,
                2645.2176149421516,
                2534.001629353127,
                2543.138995174213,
                2527.828642865293,
                2514.9591962602262,
                2518.855295543147,
                2549.153524492187,
                2528.6422811580014,
                2534.1128343184614,
                2570.5916160951247,
                2493.229329336726,
                2502.277257785387,
                2518.986611731486,
                2504.3503043956334,
                2555.59980213859,
                2513.9692089026344,
                2554.259059447847,
                2535.8896874591146,
                2498.7584924350494,
                2748.2470563398306,
                2955.3022345040395,
                3033.1308928558774,
                2930.5110469222745,
                2703.7354942389006,
                2555.559576705678,
                2609.7162455265466,
                2958.4041414746316,
                2856.225797506791,
                2557.312750950276,
                2757.6152534933317,
                2633.405887971865,
                2589.92900334443,
                2659.6076726084034,
                2514.6738765352884,
                2505.186671468768,
                2893.1267531567455,
                2512.524104049045,
                2833.6908117995536,
                2573.810512846238,
                2525.2415156594743,
                2991.7635045463608,
                2949.8957396297583,
                2746.523585258664,
                2939.546932941813,
                2507.3075252476974,
                2522.085950792096,
                2500.369306906792,
                2517.542473532756,
                2512.4820370454295,
                2551.8865853726625,
                2495.8787529227543,
                2590.6159868453433,
                2483.6321188834736,
                2573.0897641048978,
                2506.6207239182813,
                2473.4732165966607,
                2517.5414850157886,
                2489.5310003101063,
                2512.0654771363397,
                2514.0741004629085,
                2469.0804342983765,
                2468.6037160169335,
                2481.925544257754,
                2511.4688720456197,
                2517.709759243979,
                2496.73219602796,
                2478.5024355276037,
                2490.8273323503877,
                2564.1291444448143,
                2526.402045427242,
                2515.5058078286966,
                2531.0254764779484,
                2880.6930433313573,
                2727.618147701022,
                2893.3357030385255,
                2709.098020151215,
                2710.1041127490676,
                2949.772050125287,
                2701.107260360804,
                2527.0426395388417,
                2613.6401611080923,
                2819.890785782576,
                2900.541811182988,
                2764.7122914153156,
                2833.3592179129228,
                2873.9291375583193,
                2984.2690997561417,
                2871.220826230908,
                2827.4214132999855,
                2537.0455842410724,
                2710.260875505593,
                2682.6427880447673,
                2905.4997456365645,
                2679.126063694064,
                2904.0498043198654,
                2877.0245578353056,
                2934.2624769652407
            ],
            [
                3779.2843174174027,
                3804.4882255743682,
                5307.530279368506,
                4891.83100223728,
                5310.907266372912,
                5677.559364542086,
                5094.457752557863,
                5000.939682126976,
                4573.6233342680325,
                5355.8667156147585,
                4174.549981394936,
                4381.454169461171,
                5771.002270805725,
                3340.6935107482886,
                4432.287239797578,
                4764.0900226002905,
                5546.337925517875,
                5450.130190411453,
                3039.9528039729494,
                4732.945824740418,
                3224.6954153827724,
                3914.891208831843,
                3848.013076322187,
                5693.441800967509,
                5074.116314661572,
                4269.880992015273,
                4478.176448455887,
                3326.889578677214,
                4127.069273441152,
                5658.9622647553515,
                3101.1903459104683,
                5952.308428518456,
                3826.885150467632,
                3183.5789083757586,
                3083.7224054596386,
                3063.5739934314875,
                3237.571496971331
            ]
        ],
        "experienced_crowding": [
            [
                109.56787625794166,
                111.42944134281908,
                111.1574979876774,
                110.49130662615512,
                111.56740627543445,
                113.75789333816171,
                112.30391624833932,
                111.28358209815079,
                112.66503276043055,
                110.32527040915608,
                111.95305416272252,
                110.9962165501789,
                109.56792840579404,
                112.77627238967148,
                109.76647318923642,
                110.73104655872447,
                110.64574692225712,
                111.60874019514812,
                118.18616697407815
            ],
            [
                120.2164937180897,
                122.02517092815484,
                123.53337798906401,
                122.14107090037069,
                114.65165316369142,
                109.9945798219415,
                113.77797541561247,
                111.54539164885561,
                111.24091892856714,
                118.06512650746706,
                114.65040002007632,
                113.16970853897614,
                113.64536595738144,
                114.39499717007176,
                115.31763570467704,
                113.34331880463036,
                114.84278622590355,
                113.93645169887265,
                113.2669542163698,
                114.40922244240414,
                114.55881762515637,
                112.8950619257679,
                113.3141989770758,
                113.91712519634358,
                113.77098551977352,
                114.54486855770824,
                113.76877697660069,
                112.9905661381562,
                113.66019557128763,
                116.33628511439035,
                112.89369787990833,
                113.97417712575661,
                112.40984152022392,
                119.22759865376752,
                116.56113165277674,
                121.08081002809585,
                120.83185136952001
            ],
            [
                118.63506627030075,
                131.4071784608265,
                127.93508298901978,
                127.03588955271479,
                129.72232846381175,
                125.68802514444567,
                128.45818501090588,
                129.72252340253434,
                124.07780086209428,
                125.22641886957372,
                134.03928978118842,
                114.85668708078967,
                114.62452131220373,
                117.37051887583488,
                112.23892467983461,
                113.78297914869785,
                115.40349025025064,
                114.14595915173115,
                115.61058925175823,
                113.83560380380455,
                113.7520353786048,
                114.17644583715338,
                114.82655272385347,
                114.51449197484965,
                114.77240578406402,
                117.58468915022482,
                114.77682652639969,
                113.4538611031246,
                116.17190374568631,
                115.44002419948775,
                116.83992312683071,
                117.90266741926621,
                116.03343381136536,
                117.75731417189293,
                112.01715969257455,
                115.17992765262322,
                113.05277618786742,
                115.8780250126958,
                118.21925327177692,
                113.38511827067008,
                112.20408377731066,
                119.6388642520708,
                118.25431541179472,
                117.9680288526904,
                113.97180199486208,
                115.56919376469733,
                115.31922736505436,
                114.00149696202135,
                112.72409339288484,
                116.20697807803629,
                116.30855868778791,
                113.97608574497947,
                115.06821993755844,
                113.233374430506,
                113.69565133558231,
                115.91739049752431,
                111.92010361515023,
                120.94735138723897,
                114.94388891451563,
                114.37159847376486,
                120.41794645800196,
                117.01680306732574,
                116.48139448061207,
                115.3666009562387,
                114.70344287032182,
                117.3755869360709,
                119.39658576308422,
                116.36891711771212,
                117.78914459092765,
                118.25128350071088,
                113.98397847109128,
                119.93037147509911,
                113.64970506977853,
                115.60877441570295,
                115.98284220938768,
                116.14867198990315,
                113.20389452123138,
                119.33571157941245,
                117.4087578592885,
                115.10025825367343,
                119.25803445195817,
                115.45054141055202,
                116.77335584154821,
                114.70713871331695,
                118.81831735988646,
                115.59977286161644,
                113.85761344980025,
                115.98888961204987,
                113.52446273188777,
                131.8298373288317,
                127.17225742770395,
                127.40997733411193,
                129.42067925325242,
                128.03571863525556,
                117.37191721524607,
                118.49672654326996,
                114.7740289125819,
                115.71885588937442,
                117.08896076765645,
                113.66534526997168,
                116.2424144002733,
                115.98925306964486,
                116.4728995950241,
                115.68351378890571,
                119.03224182087772,
                114.98192132235306,
                116.04726406981686,
                115.36974158228318,
                120.49168819937377,
                116.58865211480968,
                116.57828021359876,
                116.30298079156726,
                116.09144007982144,
                115.3592890752504,
                125.25816875414033,
                116.51878569744878,
                117.31581693417583,
                116.90054294910173,
                117.20854831696883,
                131.87855201076806,
                127.50357787718784,
                130.1015807049082,
                123.09560331052435,
                128.42101091209992,
                124.0751742878856,
                128.40384021505324,
                130.91536929808177,
                125.9949668522893,
                129.5883624120569
            ],
            [
                145.22006654217014,
                140.5147162132762,
                157.66301344636054,
                157.6719629290637,
                146.99467553380143,
                152.16925767483121,
                160.01176247389145,
                135.51702272968754,
                157.63829065337504,
                158.8494223865047,
                143.17632641626042,
                140.59728671295272,
                142.92752578682226,
                141.40213345164364,
                148.79846919920283,
                137.55316229820025,
                136.1287088511215,
                155.69794753325934,
                157.80808612119347,
                135.64638425719286,
                147.3239716126978,
                121.98396329412125,
                124.75305960492658,
                118.29644583415106,
                117.56811368342102,
                116.67214114507883,
                119.31453236815125,
                116.18488398600738,
                122.39348466851672,
                120.06084543739682,
                125.10300289392963,
                136.5457050985929,
                118.18913302362589,
                116.91286535162025,
                118.1698146467557,
                118.05607839259079,
                118.47450937941777,
                123.72631364866137,
                118.63679019859518,
                120.25568237453484,
                124.99938443627313,
                122.93912878177778,
                123.03931899966857,
                123.8557658724212,
                122.75356005288535,
                148.33815309507347,
                130.38289937153,
                128.39580803490622,
                122.37905049573028,
                121.05993432814422,
                184.06373485731444,
                206.42979572649136,
                223.27270405000561,
                209.25213749652212,
                170.53574064542119,
                148.3786336051261,
                152.70050281453845,
                204.657587463406,
                190.4248427701734,
                147.8168816867712,
                174.3867735631783,
                158.45624719052938,
                150.2201425321554,
                157.90840029925275,
                142.18556768217817,
                135.4578915113851,
                200.50092896216262,
                142.88122152181992,
                186.88236283723978,
                148.93217854158308,
                142.50327296132892,
                223.47356025593734,
                198.96341373229902,
                169.62261795444078,
                201.09521724895845,
                141.57924152826604,
                141.55401324875422,
                125.06970226431405,
                119.05505184916278,
                121.40173016011396,
                145.2664218645134,
                138.17819262132556,
                150.28463762949258,
                131.79906108645108,
                153.62645754750199,
                131.35735575627368,
                139.23308440149097,
                145.73199063904062,
                134.47713520816674,
                135.77232359444702,
                139.78564077860867,
                131.39186578983978,
                132.85937217786187,
                135.80718422371424,
                138.71591741319398,
                139.75761464980354,
                138.16884771291254,
                131.5387741219767,
                128.83190269528112,
                145.57703952642478,
                137.89446254455453,
                132.38950936456482,
                145.10373937043215,
                189.95386369558219,
                160.80981092225986,
                194.17210539832504,
                165.75405294764562,
                162.75764440504844,
                205.22406028011005,
                165.1376777668393,
                142.9449497288034,
                152.4610377850245,
                173.69017584220634,
                189.83505560712953,
                169.73456437069473,
                180.19872277043976,
                182.91858783023198,
                205.9073992733039,
                185.8870218031704,
                175.42432684383567,
                138.97686828530274,
                162.121448925719,
                156.19610818138474,
                188.0067319892623,
                155.9191933420068,
                188.0725159469502,
                185.47262586222678,
                194.2492745856896
            ],
            [
                537.6548006673886,
                406.8638459843749,
                842.8248902016661,
                728.7294780957088,
                862.9133326920786,
                904.1762520176827,
                816.885029310447,
                800.6472503224705,
                675.905287929414,
                842.8166382180078,
                570.6026411189728,
                604.4321196063148,
                925.1695297667371,
                282.1315141764087,
                618.1175088308554,
                743.9211410592651,
                920.8834262183024,
                915.5535601906802,
                230.50756516775473,
                662.3998007821795,
                271.2614263674445,
                490.71125434809636,
                428.1937879352447,
                1003.0951439642326,
                788.1161516837216,
                607.3468069987193,
                635.98484682014,
                308.9457980281743,
                494.91982844467645,
                997.0909045864058,
                229.13054258266965,
                973.498876319186,
                427.1098408436048,
                251.1792776764739,
                224.75851133405556,
                218.63822642079032,
                256.0240593824774
            ]
        ],
        "cov_of_var": [
            [
                0.3092144521630514,
                0.21572165135307064,
                0.20230996158103495,
                0.1756162004147397,
                0.21182821906233784,
                0.22544307190773125,
                0.23908840316314603,
                0.21892232407905388,
                0.22026919846793436,
                0.19265780133742205,
                0.25478628952869403,
                0.2157668965309374,
                0.2299937397016636,
                0.2382767499158804,
                0.18487029744819017,
                0.30760416864343904,
                0.18538200453033238,
                0.18883782410635516,
                0.3865066867791054
            ],
            [
                0.40244413032563026,
                0.3816892882047636,
                0.37779020643520195,
                0.39701945819063544,
                0.173102029455108,
                0.16360519481604696,
                0.23380082352028875,
                0.2162965731288493,
                0.22025058063238356,
                0.2536650631376339,
                0.2357732242221221,
                0.18232815382861609,
                0.1640475931240391,
                0.20340781699055252,
                0.25535024810589424,
                0.24109084607926626,
                0.20593797643937606,
                0.26415659004332764,
                0.22693571088758535,
                0.2034955025549624,
                0.26060494871338397,
                0.23079607463810503,
                0.24690980859440273,
                0.26839536073137293,
                0.24167100527880256,
                0.21348464536775044,
                0.198704250572301,
                0.23901812533574585,
                0.1962160917415965,
                0.2627848181162,
                0.19685461497350717,
                0.2203475727177712,
                0.21237803372729602,
                0.36575372255906585,
                0.3535883470504018,
                0.38493580706359576,
                0.3724944746728294
            ],
            [
                0.3271695396641102,
                0.47668760210680694,
                0.4442186841273598,
                0.4398291125281418,
                0.4534263074991134,
                0.41860452354300276,
                0.4174345839985559,
                0.4677596257048233,
                0.3933564771512624,
                0.42661483807663464,
                0.48711123785701577,
                0.17427496684946053,
                0.16367617764785852,
                0.20875743065342645,
                0.17594131967899376,
                0.168544354913812,
                0.2118520236404741,
                0.18781233465853342,
                0.19114891764719164,
                0.17184705185138527,
                0.18177723323312497,
                0.17055086709385145,
                0.19009110578489138,
                0.212339900154883,
                0.21286862104670012,
                0.2388260028883212,
                0.18959255484653792,
                0.1922654430577302,
                0.20695573090335204,
                0.2273080123583804,
                0.2292264617565658,
                0.18684637022037254,
                0.21352175871521287,
                0.21804919645539453,
                0.16969570203421458,
                0.18936166052440087,
                0.19388035425040004,
                0.17051578666426234,
                0.19465461299661393,
                0.174949495118322,
                0.15193626954725065,
                0.25109639743028767,
                0.25013736739213394,
                0.22570755972944542,
                0.17036276094531166,
                0.20477697123299488,
                0.19769340157487394,
                0.17637760404987454,
                0.17454807730287333,
                0.18700609711740102,
                0.19888595833468783,
                0.1801811225215922,
                0.21613265833949058,
                0.16182909873700488,
                0.18380823364184998,
                0.1696562604695981,
                0.2124198700871299,
                0.306294148593282,
                0.2500183611513157,
                0.20899056417599704,
                0.2858380401217452,
                0.26157862946013505,
                0.2412842714792934,
                0.27352092820649176,
                0.1972725015019783,
                0.2758538346641983,
                0.28632390633729937,
                0.24935309822572624,
                0.30317726226834757,
                0.2957099800740532,
                0.22756739638475057,
                0.30205844699802314,
                0.2276532009928753,
                0.26100540763639374,
                0.26610928113139565,
                0.25051623638594284,
                0.2421422108198287,
                0.2547635646896213,
                0.26794769823434406,
                0.24953513518010006,
                0.28747501106776435,
                0.27060535994654844,
                0.286340907938114,
                0.23318491197385857,
                0.2751590465889017,
                0.2630909473843432,
                0.2563941867243784,
                0.23944549438568963,
                0.2007616527622104,
                0.4874467334005594,
                0.45580178230009044,
                0.43795240192796675,
                0.469206187580038,
                0.4442929357176651,
                0.2478055667807979,
                0.2811236731509278,
                0.25152206813496997,
                0.2589533831966568,
                0.27589790507649636,
                0.2543979134125824,
                0.23321690067060297,
                0.25164798480010736,
                0.24515418441705475,
                0.23343757275375707,
                0.2774202593180311,
                0.2400309690040533,
                0.2237119136819026,
                0.23762266778248417,
                0.3048655491642536,
                0.2883957557294519,
                0.2582168710376481,
                0.23289057904562527,
                0.26837745379564937,
                0.2137640547703263,
                0.33145554222185525,
                0.2517464376163111,
                0.2925095823288286,
                0.245266830376907,
                0.2509162456278917,
                0.4804583734606414,
                0.4340346537097825,
                0.4451496975998464,
                0.41246194290281907,
                0.46006421800243597,
                0.41948785590127885,
                0.42584972163727786,
                0.4644516234903336,
                0.41981046513482173,
                0.45648158874643685
            ],
            [
                0.5662367746887126,
                0.5369407812493442,
                0.6118017821763638,
                0.5976509619345367,
                0.5749069999021502,
                0.5783771313285282,
                0.6275265739743998,
                0.4896332305215531,
                0.6338865681585649,
                0.6120471195453989,
                0.5476044701548178,
                0.5276121581838459,
                0.5462054715397339,
                0.5536935705062181,
                0.5716256685192783,
                0.5028265683791943,
                0.49454789532919835,
                0.617961098165912,
                0.615447029571114,
                0.4710489809687705,
                0.543999370997719,
                0.32439085019181535,
                0.3413792854611936,
                0.2433312050334736,
                0.19826293972995657,
                0.20685166529013596,
                0.27998773688333367,
                0.19319631938089987,
                0.27714296181492054,
                0.2818980456095931,
                0.371993058232667,
                0.4249044226727183,
                0.2145224344844042,
                0.1638922370799871,
                0.22761417380192617,
                0.23173654431251176,
                0.20108576823845367,
                0.30244952618303483,
                0.21239966899631046,
                0.24714643123131905,
                0.2898129945110229,
                0.36697346634212935,
                0.33724942671886776,
                0.3383623207415014,
                0.3108664219404096,
                0.5899805050933636,
                0.4288511609720513,
                0.36749889075835923,
                0.3259103955926737,
                0.31934922060863224,
                0.8588490499717492,
                0.798022071240232,
                0.8290414286525959,
                0.792559800439018,
                0.6653972591114371,
                0.578852700228825,
                0.5718292954164071,
                0.763447035264365,
                0.7318156107340257,
                0.5635826071216097,
                0.6915074700337152,
                0.6268764309690159,
                0.5841633779829388,
                0.624652174369834,
                0.5436613912309741,
                0.48061452499870505,
                0.7775745864254824,
                0.5324786046681865,
                0.7053459607230944,
                0.5475552339055667,
                0.5461432024289291,
                0.8355163847612325,
                0.7701098661160116,
                0.6736101401992959,
                0.7534084943181986,
                0.5495989238482717,
                0.4901023983477186,
                0.35385783227060935,
                0.2767610553133147,
                0.2906762601075224,
                0.5351220213412147,
                0.505399779617226,
                0.5745604622157735,
                0.4735690315285472,
                0.5826175444067385,
                0.44902931875902713,
                0.5376435237684872,
                0.5429971097451146,
                0.49352045489086155,
                0.4781734128729426,
                0.5022360227681707,
                0.4699810192313225,
                0.48398230939138637,
                0.4998919990897164,
                0.48390754522368784,
                0.527705084146041,
                0.48994098336585307,
                0.4427157142384491,
                0.4285330215865331,
                0.5549863671572915,
                0.5116569717687857,
                0.4469109264818945,
                0.5461202810071549,
                0.7242189025811955,
                0.6026427089312484,
                0.7278098251335945,
                0.631436863784864,
                0.6221030513038259,
                0.7550553852983719,
                0.6211518134566162,
                0.5307122924986835,
                0.57553768316783,
                0.6483925553770192,
                0.6861248128290095,
                0.6150733349380573,
                0.6697483634914052,
                0.6636934831637932,
                0.7478379477709461,
                0.6862221566145802,
                0.6508083411189246,
                0.5133803382347711,
                0.6033306508540593,
                0.5860815614731953,
                0.6992575728835176,
                0.5835039830958509,
                0.6899553889784301,
                0.6926990842567314,
                0.6974918287074647
            ],
            [
                1.72438048049836,
                1.2857702117331467,
                1.998434727223353,
                1.9611567563942842,
                1.9948923151836009,
                2.030169949345405,
                1.9961519574860977,
                1.9520739966861775,
                1.885644283756987,
                2.0122960300860275,
                1.7048526904757058,
                1.7485229471535269,
                2.057829633136881,
                1.1252133588104292,
                1.7731890296681714,
                1.9100367813180383,
                2.0877151143367088,
                2.009981322669477,
                1.008173709471638,
                1.8323424292294346,
                1.0733481081053096,
                1.550899504025603,
                1.4170769164729178,
                2.0910603469095714,
                1.968371304162351,
                1.7360784389342074,
                1.779405412222358,
                1.2591315906153662,
                1.6866456368427454,
                2.0593181182609936,
                0.8404032538956038,
                2.075780274304633,
                1.4222365840704576,
                0.9003011770942796,
                0.8283697407505303,
                0.802276629482694,
                0.9286213265594697
            ]
        ],
        "excess_waiting_time": [
            [
                67.65311874195022,
                65.17306904467704,
                60.97801006163041,
                57.69442397015845,
                64.41509465008515,
                68.34975687469044,
                66.02292156342027,
                62.94783707732859,
                63.317823216408065,
                59.55468903903263,
                69.05526050197234,
                60.5992927157395,
                60.003094440361316,
                68.98639207533694,
                56.58596560616477,
                71.79711039872741,
                59.417289624551074,
                60.21528811774701,
                93.1202887906983
            ],
            [
                102.52297322233579,
                95.86163865852716,
                90.79954080757237,
                96.04836634275324,
                65.78068171599574,
                60.31535994874588,
                68.59058326528044,
                68.13017408511229,
                67.67551466434769,
                74.66214367820233,
                71.56650599350735,
                60.62601396157438,
                62.44129082515777,
                63.51320755322285,
                71.95408708810176,
                69.44049001901891,
                65.57007749234339,
                74.18845720105479,
                67.13593994902446,
                67.27298197933398,
                74.72456488487093,
                68.06192380229339,
                71.49847047436795,
                77.1282382768187,
                68.79395545312065,
                68.10265109966646,
                63.76328742397345,
                71.26950201177088,
                68.11068854192736,
                73.1100391232672,
                64.84488463022808,
                66.95807650733462,
                63.96277506589005,
                86.97562510607061,
                84.33177966283867,
                93.3974756654837,
                89.84123421931575
            ],
            [
                84.45279093723752,
                128.93546905421573,
                114.90196435374456,
                111.89903456037167,
                117.36376237401034,
                108.07778960856275,
                110.26289509024616,
                121.03998034983005,
                98.67715229550033,
                106.59130357376557,
                128.16715576164972,
                67.99044564032171,
                67.38426802415422,
                73.84302707571405,
                65.25942254166783,
                66.53588656924832,
                75.46036794824269,
                70.67440978523092,
                72.04406003742174,
                67.79000296282999,
                69.03991028635791,
                67.39130680857392,
                70.07293807476121,
                73.84210492076052,
                73.83707040341706,
                76.72736000765802,
                70.53358795701142,
                69.72560457740848,
                75.8967872835883,
                77.00184938687373,
                80.4601082940855,
                75.01926408322653,
                77.67231954558372,
                80.4423909003976,
                66.59897232294487,
                70.54840442686638,
                73.22268546836679,
                70.22587337146251,
                77.61779268956204,
                67.56548180576972,
                63.86014298035703,
                82.74545292228346,
                81.3946844486133,
                77.64149842533094,
                64.14426331330685,
                75.05447203405289,
                73.92144991505371,
                66.15566409606832,
                68.49425694869905,
                71.46007494298793,
                73.98711296813674,
                70.07958111544589,
                76.18701890372908,
                64.45167677863171,
                71.85300283811449,
                67.95663170798055,
                68.36083770913471,
                87.7678547778541,
                76.7817949732721,
                66.71404264601051,
                84.60245278402947,
                76.21622850256604,
                73.39782491275751,
                74.4168911897238,
                66.83866105817627,
                82.00516628945756,
                78.38046673405185,
                75.60346146715132,
                82.92934532458594,
                82.58889198523404,
                69.13364580093032,
                86.94671905283492,
                69.71864572899605,
                74.38590099988583,
                77.25401282519776,
                74.31272056586089,
                69.64069030330721,
                78.24461373020276,
                77.97372166736166,
                74.07697059642474,
                83.6010675278936,
                79.90279827092168,
                80.66831816239865,
                70.57041199369125,
                80.30369188249854,
                79.08369771880847,
                74.73426127766027,
                73.26334506344479,
                65.11549269791807,
                130.32730817280748,
                120.81461003971219,
                113.70726318255056,
                122.3371498558389,
                115.05921971454025,
                73.03427082206905,
                84.59549295843807,
                77.29150229612712,
                80.41475583661618,
                81.03765947008235,
                75.41162237033977,
                72.92539565033212,
                75.2698060976519,
                73.17668918629586,
                71.51250958134595,
                84.48063636288538,
                73.70498054014398,
                69.5812699907037,
                74.2537175593364,
                88.35265153960228,
                82.64486622163014,
                79.58779508842298,
                69.99344163535095,
                79.03523751483961,
                65.47564745936688,
                95.24034399702141,
                78.23969112524719,
                86.45498720645962,
                79.14681216395795,
                77.8254380366494,
                128.5778187311989,
                117.64211996949022,
                120.59198252928552,
                103.51118206450364,
                119.89312031205871,
                105.66248424714792,
                111.39939891394549,
                124.68897028538686,
                108.01015671758552,
                122.03793441301214
            ],
            [
                166.44923837262542,
                154.3571367421681,
                195.19457431539288,
                193.45559553674778,
                173.216404723678,
                181.69151556001466,
                209.46582545659507,
                135.64306442329845,
                202.85360915766196,
                197.64336546602576,
                155.62779495244283,
                152.47349595748088,
                158.84149128809256,
                156.73462580757072,
                170.54361695204182,
                139.2591341250509,
                137.24800394483597,
                199.08584228591715,
                200.91304873077934,
                133.562000593795,
                168.38918486111763,
                97.70063366848295,
                103.43666577232726,
                81.29140552142442,
                76.46180487122807,
                77.12674313163545,
                90.87836913061301,
                73.61750303099312,
                91.38941400524006,
                90.9781731486487,
                113.69877328539116,
                141.44407452234114,
                77.85077823758058,
                70.19144605079757,
                82.34360175240732,
                82.66917729552928,
                77.95078279679727,
                97.80022243907574,
                79.08650477597293,
                84.75039567913502,
                96.93535417578725,
                102.55371996007791,
                95.57591913751999,
                100.00643091018776,
                88.27869667276968,
                185.46689629917864,
                124.70398475255946,
                113.01798471634788,
                95.30178226110515,
                91.25904193790592,
                349.8754598436646,
                352.7149140916609,
                394.8331856322953,
                346.8979615495416,
                241.6939329614047,
                179.44137981508445,
                185.93704285905628,
                343.0851349796926,
                302.7242177183112,
                168.28751877992292,
                255.75541882929187,
                205.67830329638798,
                183.82168021992734,
                204.2316663825587,
                152.75403203987142,
                132.91691605236426,
                332.61362278261515,
                151.34386996992927,
                277.919420816275,
                165.72620811540938,
                160.84876874865242,
                394.59654469458997,
                343.79747311642063,
                244.01213383933995,
                329.0172992570521,
                158.0866365025132,
                141.59214002774985,
                104.3823884046093,
                85.19061022291176,
                88.92760389976087,
                155.60185804599175,
                140.0346312512268,
                176.7932337400861,
                130.63232605951322,
                182.0911239029961,
                123.57058917125482,
                151.65447766345264,
                159.19186874206292,
                137.88676221515695,
                134.20721716427457,
                142.21277803096024,
                126.26440784675263,
                133.899334898451,
                137.5176565852021,
                136.7411700378196,
                155.45976542100496,
                133.8496498316953,
                117.77398912761412,
                114.05709635673502,
                167.72092891349993,
                146.06851288470554,
                119.59407853560408,
                161.85563127868025,
                306.48639292846025,
                213.10801658242997,
                304.58651346241567,
                230.06332095546247,
                220.9892572134686,
                338.20485756063863,
                222.85068271154583,
                160.07535006472622,
                187.3934026923738,
                248.87757324959694,
                287.0711597141687,
                228.83310157578822,
                265.1114869980924,
                272.2565336059111,
                334.45273659910873,
                281.3751160909839,
                253.79034351916394,
                148.70479515024772,
                211.14762952733534,
                204.79113590455142,
                290.94531814666317,
                198.27007104348115,
                286.2584919654152,
                288.6961073653817,
                300.9923059609951
            ],
            [
                1559.7466331870537,
                1006.6425056328218,
                2828.8352404500024,
                2565.7860309554553,
                2878.874535115427,
                3154.777747046097,
                2818.106301612866,
                2671.5834923984203,
                2208.318192136053,
                2903.8959286747017,
                1788.6506270822483,
                1916.7283095200028,
                3248.9283700386864,
                674.8978577876406,
                1989.9758046371196,
                2432.937962357619,
                3146.876323188662,
                3002.7371723140855,
                499.44196029312167,
                2183.7055863832497,
                617.1734314094502,
                1378.9344752265108,
                1204.4823491541495,
                3317.387240052729,
                2627.007514837925,
                1874.6150107647934,
                2012.631728572316,
                819.2299798137725,
                1672.3389601953088,
                3293.5653696210647,
                414.21537472833546,
                3358.984413013955,
                1153.6103211764737,
                474.4535532504272,
                403.67409913588244,
                388.4274581356295,
                519.0258889772426
            ]
        ]
    },
    "overview_data": [
        2729.101021419032,
        111.62004572063566,
        0.2317418916165326,
        65.04666981635157
    ],
    "actions_busses_p5": [
        0.7467170615884091,
        0.018025875854048554,
        0.1831661578717837,
        0.01439162668992586,
        0.037699277995832725,
        0.0,
        0.0
    ],
    "actions_tfls_p5": [
        0.25056844020009095,
        0.31116416552978626,
        0.4382673942701228
    ],
    "actions_present_p5": [
        0,
        1,
        2,
        3,
        4,
        5
    ],
    "policy_busses15_p5": [
        -216.29755812987207,
        50.839215103257835,
        89.48062853032543,
        137.30812508898975,
        302.8184463319073,
        295.76916268715087
    ],
    "policy_busses50_p5": [
        -206.57431584250537,
        53.87144337325012,
        104.75708993600506,
        140.05030932260303,
        329.99536681015115,
        304.94322483869115
    ],
    "policy_busses85_p5": [
        -195.70255456787072,
        174.28397234538278,
        111.14918450375735,
        225.29762879956084,
        360.6613849501387,
        419.88131175320547
    ]
}