{
    "Average_holding_time": 55.624375624375624,
    "Average_holding_actions": [
        569,
        48,
        53,
        45,
        47,
        190
    ],
    "Average_travel_time_passengers": 2315.4506965429887,
    "Average_passenger_waiting_time": 367.87918329373184,
    "Average_passenger_in_vehicle_time": 1947.5715132491928,
    "Average_speed_busses": 0.04170833333333333,
    "Average_experienced_crowding": 65.26513975636006,
    "Average_covariation_headway": 0.32949761554771,
    "Average_covariation_headway_stops": {
        "C": 0.22431957132941366,
        "G": 0.23249317903814784,
        "D": 0.22677367413768432,
        "L": 0.24979655523981295,
        "A": 0.2496851520560954,
        "E": 0.24014986978608546,
        "B": 0.23741973395891428,
        "H": 0.24192556186567768,
        "F": 0.23332794220113,
        "I": 0.24027391173167012,
        "J": 0.21924384274838335,
        "K": 0.2354449790013874
    },
    "Average_excess_waiting_time": {
        "C": 97.57491500499265,
        "G": 94.23005902569986,
        "D": 95.05961361772779,
        "L": 105.8846206399229,
        "A": 103.10716016896237,
        "E": 95.80683570609096,
        "B": 101.57342040422049,
        "H": 99.12738414172793,
        "F": 97.31408960667233,
        "I": 102.06960559612406,
        "J": 100.76104771762431,
        "K": 104.8676294321545
    },
    "Holding_per_stop": {
        "G": 52.23529411764706,
        "A": 60.36144578313253,
        "D": 49.285714285714285,
        "E": 56.07142857142857,
        "C": 63.975903614457835,
        "L": 51.68674698795181,
        "B": 53.493975903614455,
        "H": 58.92857142857143,
        "F": 50,
        "I": 59.27710843373494,
        "J": 57.10843373493976,
        "K": 55.24390243902439
    },
    "Actions_tfl_edges": {
        "BC": [
            84,
            0,
            0
        ],
        "CD": [
            84,
            0,
            0
        ],
        "DE": [
            85,
            0,
            0
        ],
        "FG": [
            85,
            0,
            0
        ],
        "KL": [
            83,
            0,
            0
        ],
        "LA": [
            84,
            0,
            0
        ],
        "GH": [
            85,
            0,
            0
        ],
        "AB": [
            83,
            0,
            0
        ],
        "EF": [
            84,
            0,
            0
        ],
        "HI": [
            84,
            0,
            0
        ],
        "IJ": [
            83,
            0,
            0
        ],
        "JK": [
            83,
            0,
            0
        ]
    },
    "Load_per_bus_per_stop": {
        "bus0": {
            "C": 62.785714285714285,
            "D": 65.07142857142857,
            "E": 67.35714285714286,
            "F": 65.35714285714286,
            "G": 63.642857142857146,
            "H": 64.42857142857143,
            "I": 63.285714285714285,
            "J": 62.57142857142857,
            "K": 62.285714285714285,
            "L": 64.57142857142857,
            "A": 67.5,
            "B": 66.46153846153847
        },
        "bus3": {
            "G": 60.2,
            "H": 59.357142857142854,
            "I": 58,
            "J": 59.285714285714285,
            "K": 61.5,
            "L": 61.92857142857143,
            "A": 65.71428571428571,
            "B": 66.85714285714286,
            "C": 66.35714285714286,
            "D": 66.07142857142857,
            "E": 65.14285714285714,
            "F": 65.28571428571429
        },
        "bus1": {
            "D": 65.57142857142857,
            "E": 63.214285714285715,
            "F": 62.57142857142857,
            "G": 61.142857142857146,
            "H": 61.357142857142854,
            "I": 61.857142857142854,
            "J": 61.42857142857143,
            "K": 62.92857142857143,
            "L": 62.857142857142854,
            "A": 63.357142857142854,
            "B": 65.35714285714286,
            "C": 68
        },
        "bus4": {
            "L": 65.64285714285714,
            "A": 65.28571428571429,
            "B": 64.78571428571429,
            "C": 65.78571428571429,
            "D": 66,
            "E": 68.35714285714286,
            "F": 67.42857142857143,
            "G": 67.71428571428571,
            "H": 67.5,
            "I": 69.46153846153847,
            "J": 70.15384615384616,
            "K": 70.46153846153847
        },
        "bus5": {
            "A": 60.07142857142857,
            "B": 60.857142857142854,
            "C": 60.57142857142857,
            "D": 60.142857142857146,
            "E": 61.214285714285715,
            "F": 61.142857142857146,
            "G": 63.57142857142857,
            "H": 66.71428571428571,
            "I": 70.14285714285714,
            "J": 69.14285714285714,
            "K": 65.46153846153847,
            "L": 62.69230769230769
        },
        "bus2": {
            "E": 58.53333333333333,
            "F": 63.07142857142857,
            "G": 66.42857142857143,
            "H": 66.07142857142857,
            "I": 64.92857142857143,
            "J": 64.21428571428571,
            "K": 65.78571428571429,
            "L": 64.28571428571429,
            "A": 65.28571428571429,
            "B": 65.5,
            "C": 64.28571428571429,
            "D": 64.71428571428571
        }
    },
    "Obs_and_actions_busses": {
        "6": 271.41706324358967,
        "2": 59.72877288407158,
        "0": -194.4469931353765,
        "1": 28.10416826866324,
        "3": 88.60895266940153,
        "4": 120.93322043750621,
        "5": 154.06575489925757
    },
    "Obs_and_actions_tfls": {
        "0": 114.55655702140406
    }
}