{
    "Average_holding_time": 53.1041257367387,
    "Average_holding_actions": [
        575,
        61,
        56,
        50,
        47,
        169
    ],
    "Average_travel_time_passengers": 2281.562120623386,
    "Average_passenger_waiting_time": 365.9830052158885,
    "Average_passenger_in_vehicle_time": 1915.5791154074805,
    "Average_speed_busses": 0.042416666666666665,
    "Average_experienced_crowding": 64.6347984595082,
    "Average_covariation_headway": 0.30930289730589877,
    "Average_covariation_headway_stops": {
        "F": 0.24198681107776424,
        "L": 0.22923254265688342,
        "D": 0.2158358391658378,
        "G": 0.21811522045087917,
        "A": 0.23465338247223308,
        "J": 0.20054232626067992,
        "H": 0.23458851535797676,
        "K": 0.21566989406639267,
        "B": 0.22136822202936224,
        "E": 0.21858155260160533,
        "I": 0.22568432981252426,
        "C": 0.20126141418506585
    },
    "Average_excess_waiting_time": {
        "F": 96.0064315147755,
        "L": 92.8250162202608,
        "D": 90.8817666123191,
        "G": 87.80985797149111,
        "A": 91.3887043816436,
        "J": 87.82000325581396,
        "H": 92.07870140554729,
        "K": 92.52249693051579,
        "B": 91.37769822854636,
        "E": 92.71669848660707,
        "I": 93.61552411859338,
        "C": 91.41863012770455
    },
    "Holding_per_stop": {
        "G": 55.76470588235294,
        "A": 55.46511627906977,
        "J": 48.705882352941174,
        "F": 50.8235294117647,
        "L": 58.23529411764706,
        "D": 53.294117647058826,
        "H": 57.529411764705884,
        "B": 57.529411764705884,
        "K": 48.214285714285715,
        "E": 48.705882352941174,
        "I": 51.07142857142857,
        "C": 51.785714285714285
    },
    "Actions_tfl_edges": {
        "CD": [
            85,
            0,
            0
        ],
        "EF": [
            86,
            0,
            0
        ],
        "FG": [
            86,
            0,
            0
        ],
        "IJ": [
            85,
            0,
            0
        ],
        "KL": [
            85,
            0,
            0
        ],
        "LA": [
            86,
            0,
            0
        ],
        "GH": [
            85,
            0,
            0
        ],
        "AB": [
            85,
            0,
            0
        ],
        "JK": [
            85,
            0,
            0
        ],
        "DE": [
            85,
            0,
            0
        ],
        "HI": [
            85,
            0,
            0
        ],
        "BC": [
            85,
            0,
            0
        ]
    },
    "Load_per_bus_per_stop": {
        "bus1": {
            "F": 59.93333333333333,
            "G": 59.92857142857143,
            "H": 60.857142857142854,
            "I": 61.714285714285715,
            "J": 61.785714285714285,
            "K": 64,
            "L": 67.71428571428571,
            "A": 67.85714285714286,
            "B": 66.85714285714286,
            "C": 66.64285714285714,
            "D": 64.78571428571429,
            "E": 64.85714285714286
        },
        "bus4": {
            "L": 62.06666666666667,
            "A": 63.46666666666667,
            "B": 64.92857142857143,
            "C": 64.35714285714286,
            "D": 65.35714285714286,
            "E": 64.85714285714286,
            "F": 66.42857142857143,
            "G": 65.85714285714286,
            "H": 66,
            "I": 64.85714285714286,
            "J": 65.21428571428571,
            "K": 65.14285714285714
        },
        "bus0": {
            "D": 61.06666666666667,
            "E": 61.13333333333333,
            "F": 65.21428571428571,
            "G": 66.64285714285714,
            "H": 66.14285714285714,
            "I": 65.07142857142857,
            "J": 66.21428571428571,
            "K": 65.57142857142857,
            "L": 64.78571428571429,
            "A": 65.28571428571429,
            "B": 63.857142857142854,
            "C": 64.57142857142857
        },
        "bus2": {
            "G": 54.266666666666666,
            "H": 53.06666666666667,
            "I": 55.2,
            "J": 55.857142857142854,
            "K": 57.5,
            "L": 59.42857142857143,
            "A": 61,
            "B": 62.357142857142854,
            "C": 62.642857142857146,
            "D": 63,
            "E": 60.5,
            "F": 59.142857142857146
        },
        "bus5": {
            "A": 61.93333333333333,
            "B": 61.2,
            "C": 63.92857142857143,
            "D": 67.92857142857143,
            "E": 68.42857142857143,
            "F": 67.57142857142857,
            "G": 67.92857142857143,
            "H": 66.78571428571429,
            "I": 67.35714285714286,
            "J": 67.92857142857143,
            "K": 67.35714285714286,
            "L": 63.92857142857143
        },
        "bus3": {
            "J": 61.8,
            "K": 60.8,
            "L": 60.357142857142854,
            "A": 62.42857142857143,
            "B": 63.785714285714285,
            "C": 64.07142857142857,
            "D": 64.71428571428571,
            "E": 64.78571428571429,
            "F": 64.21428571428571,
            "G": 65.57142857142857,
            "H": 66.35714285714286,
            "I": 66.14285714285714
        }
    },
    "Obs_and_actions_busses": {
        "6": 259.17091311101916,
        "2": 57.346542692095454,
        "0": -171.2530124367537,
        "1": 29.410352938905618,
        "5": 149.59922456166277,
        "4": 121.41414989048664,
        "3": 87.24219461016075
    },
    "Obs_and_actions_tfls": {
        "0": 110.92361403817553
    }
}