{
    "Average_holding_time": 22.851885924563017,
    "Average_holding_actions": [
        728,
        153,
        0,
        57,
        0,
        0
    ],
    "Average_travel_time_passengers": 2774.2336950180897,
    "Average_passenger_waiting_time": 344.23929070702894,
    "Average_passenger_in_vehicle_time": 2429.994404311035,
    "Average_speed_busses": 0.04529166666666667,
    "Average_experienced_crowding": 112.9905661381562,
    "Average_covariation_headway": 0.33393047791249425,
    "Average_covariation_headway_stops": {
        "G": 0.24547403461688827,
        "J": 0.2481437853696385,
        "F": 0.235773349833545,
        "H": 0.25429774965735646,
        "A": 0.23980216635129675,
        "K": 0.2315310259461706,
        "C": 0.2515584405148363,
        "I": 0.2597848638406365,
        "L": 0.22528455667479097,
        "D": 0.22510400526998653,
        "B": 0.2279767835860219,
        "E": 0.22348674236778251
    },
    "Average_excess_waiting_time": {
        "G": 70.43922007340359,
        "J": 72.51350079695993,
        "F": 71.70582085028968,
        "H": 73.66437215672221,
        "A": 69.44282637780299,
        "K": 68.05280541956506,
        "C": 72.82073007722613,
        "I": 76.48110045512107,
        "L": 68.37155690085723,
        "D": 69.9173501534633,
        "B": 70.11876486058713,
        "E": 71.70597601925226
    },
    "Holding_per_stop": {
        "G": 27.032967032967033,
        "A": 21.0989010989011,
        "H": 14.835164835164836,
        "K": 19.45054945054945,
        "C": 15.494505494505495,
        "J": 31.64835164835165,
        "F": 27,
        "I": 29.333333333333332,
        "L": 17.47252747252747,
        "B": 18.333333333333332,
        "D": 20.333333333333332,
        "E": 32.333333333333336
    },
    "Actions_tfl_edges": {
        "FG": [
            7,
            41,
            43
        ],
        "JK": [
            42,
            29,
            21
        ],
        "GH": [
            7,
            47,
            37
        ],
        "HI": [
            6,
            32,
            53
        ],
        "CD": [
            14,
            16,
            61
        ]
    },
    "Load_per_bus_per_stop": {
        "bus2": {
            "G": 126,
            "H": 134.75,
            "I": 131.93333333333334,
            "J": 124.93333333333334,
            "K": 115.66666666666667,
            "L": 106.06666666666666,
            "A": 96.6,
            "B": 86.53333333333333,
            "C": 81.26666666666667,
            "D": 79.06666666666666,
            "E": 77.4,
            "F": 101.4
        },
        "bus3": {
            "J": 115.125,
            "K": 104.33333333333333,
            "L": 95.73333333333333,
            "A": 86.26666666666667,
            "B": 77.86666666666666,
            "C": 73.53333333333333,
            "D": 71,
            "E": 69.06666666666666,
            "F": 94.66666666666667,
            "G": 126.33333333333333,
            "H": 133.66666666666666,
            "I": 129.66666666666666
        },
        "bus1": {
            "F": 104.13333333333334,
            "G": 137.53333333333333,
            "H": 146.86666666666667,
            "I": 143,
            "J": 135.26666666666668,
            "K": 126.86666666666666,
            "L": 114.66666666666667,
            "A": 107.33333333333333,
            "B": 95,
            "C": 88.26666666666667,
            "D": 83.46666666666667,
            "E": 80.46666666666667
        },
        "bus5": {
            "A": 83.9375,
            "B": 75.75,
            "C": 67.6,
            "D": 65.6,
            "E": 64.86666666666666,
            "F": 87.13333333333334,
            "G": 116.06666666666666,
            "H": 124.86666666666666,
            "I": 121.86666666666666,
            "J": 115.33333333333333,
            "K": 106.53333333333333,
            "L": 97.73333333333333
        },
        "bus4": {
            "K": 115,
            "L": 105.875,
            "A": 98.2,
            "B": 88.06666666666666,
            "C": 83.06666666666666,
            "D": 80.6,
            "E": 81.46666666666667,
            "F": 105,
            "G": 136.86666666666667,
            "H": 144.4,
            "I": 138.13333333333333,
            "J": 130.4
        },
        "bus0": {
            "C": 86.5,
            "D": 84.53333333333333,
            "E": 82.46666666666667,
            "F": 106.66666666666667,
            "G": 140.8,
            "H": 149.8,
            "I": 145.66666666666666,
            "J": 137.4,
            "K": 130.4,
            "L": 120.73333333333333,
            "A": 110,
            "B": 98.4
        }
    },
    "Obs_and_actions_busses": {
        "0": -230.56634371895066,
        "1": 63.3322577876915,
        "3": 144.05758100356502,
        "4": 339.17887309056385
    },
    "Obs_and_actions_tfls": {
        "1": -25.130569311365544,
        "0": 305.1235436998677,
        "2": 60.92098793676513
    }
}