{
    "Average_holding_time": 45.25316455696203,
    "Average_holding_actions": [
        437,
        227,
        6,
        199,
        79,
        0
    ],
    "Average_travel_time_passengers": 3364.070355636908,
    "Average_passenger_waiting_time": 530.7111377239731,
    "Average_passenger_in_vehicle_time": 2833.3592179129228,
    "Average_speed_busses": 0.0395,
    "Average_experienced_crowding": 180.19872277043976,
    "Average_covariation_headway": 0.8471592974270306,
    "Average_covariation_headway_stops": {
        "I": 0.6943633502482092,
        "L": 0.6753435050357818,
        "A": 0.6660327283733247,
        "D": 0.6739558287919085,
        "B": 0.6771834633367884,
        "C": 0.6788306479873296,
        "J": 0.6805183353620305,
        "E": 0.6752535009197762,
        "F": 0.6452425050793814,
        "K": 0.6574335759102189,
        "G": 0.6344494780158212,
        "H": 0.6783734428362933
    },
    "Average_excess_waiting_time": {
        "I": 281.91774792578065,
        "L": 270.1166398493174,
        "A": 260.2712258892194,
        "D": 257.31576247340627,
        "B": 262.7296544343667,
        "C": 261.36140381881705,
        "J": 272.85314649280144,
        "E": 260.42648006623153,
        "F": 259.1273738810728,
        "K": 264.81835460499906,
        "G": 252.73608629228522,
        "H": 277.6639682488112
    },
    "Holding_per_stop": {
        "A": 35.69620253164557,
        "I": 44.43037974683544,
        "B": 29.25,
        "D": 32.96296296296296,
        "C": 43.875,
        "L": 45.949367088607595,
        "E": 50.25,
        "J": 49.61538461538461,
        "F": 60,
        "K": 48.07692307692308,
        "G": 50,
        "H": 53.84615384615385
    },
    "Actions_tfl_edges": {
        "CD": [
            29,
            34,
            18
        ],
        "HI": [
            30,
            37,
            12
        ],
        "JK": [
            28,
            40,
            10
        ],
        "FG": [
            34,
            35,
            9
        ],
        "GH": [
            35,
            26,
            17
        ]
    },
    "Load_per_bus_per_stop": {
        "bus3": {
            "I": 254.57142857142858,
            "J": 240.76923076923077,
            "K": 223.30769230769232,
            "L": 205,
            "A": 184.53846153846155,
            "B": 167.53846153846155,
            "C": 157.07692307692307,
            "D": 149.3846153846154,
            "E": 147.76923076923077,
            "F": 195.46153846153845,
            "G": 262.7692307692308,
            "H": 279.46153846153845
        },
        "bus4": {
            "L": 159.57142857142858,
            "A": 144.69230769230768,
            "B": 130.76923076923077,
            "C": 121.15384615384616,
            "D": 117.46153846153847,
            "E": 111.53846153846153,
            "F": 149.15384615384616,
            "G": 201.3846153846154,
            "H": 217.23076923076923,
            "I": 212.53846153846155,
            "J": 203.69230769230768,
            "K": 188.69230769230768
        },
        "bus5": {
            "A": 87.07142857142857,
            "B": 78.57142857142857,
            "C": 74.92857142857143,
            "D": 74.76923076923077,
            "E": 76,
            "F": 97.76923076923077,
            "G": 119.76923076923077,
            "H": 127.84615384615384,
            "I": 124.92307692307692,
            "J": 122,
            "K": 112.15384615384616,
            "L": 102.6923076923077
        },
        "bus2": {
            "D": 154.57142857142858,
            "E": 152.14285714285714,
            "F": 197.85714285714286,
            "G": 266.9230769230769,
            "H": 286.15384615384613,
            "I": 275.38461538461536,
            "J": 262.53846153846155,
            "K": 241.76923076923077,
            "L": 223.6153846153846,
            "A": 202.69230769230768,
            "B": 185.46153846153845,
            "C": 172
        },
        "bus0": {
            "B": 16.571428571428573,
            "C": 16.714285714285715,
            "D": 17.642857142857142,
            "E": 17.071428571428573,
            "F": 19.846153846153847,
            "G": 27.53846153846154,
            "H": 27.23076923076923,
            "I": 25.846153846153847,
            "J": 24.153846153846153,
            "K": 22.46153846153846,
            "L": 19.46153846153846,
            "A": 19
        },
        "bus1": {
            "C": 20.214285714285715,
            "D": 18,
            "E": 15.857142857142858,
            "F": 27.307692307692307,
            "G": 47.69230769230769,
            "H": 48.61538461538461,
            "I": 45,
            "J": 42.23076923076923,
            "K": 36.69230769230769,
            "L": 33.69230769230769,
            "A": 29.53846153846154,
            "B": 25.23076923076923
        }
    },
    "Obs_and_actions_busses": {
        "5": 537.8740622728377,
        "1": -739.7837981737899,
        "4": 310.02821056725185,
        "0": 19.717662986004616,
        "2": -970.3841344072483
    },
    "Obs_and_actions_tfls": {
        "0": -445.48117727357953,
        "1": 401.49786484059535,
        "2": 195.30799669462544
    }
}