{
    "Average_holding_time": 22.00181983621474,
    "Average_holding_actions": [
        798,
        0,
        233,
        0,
        68,
        0
    ],
    "Average_travel_time_passengers": 2747.306805733851,
    "Average_passenger_waiting_time": 341.3334598463291,
    "Average_passenger_in_vehicle_time": 2405.9733458875407,
    "Average_speed_busses": 0.04579166666666667,
    "Average_experienced_crowding": 111.95305416272252,
    "Average_covariation_headway": 0.35979260884612013,
    "Average_covariation_headway_stops": {
        "G": 0.26033152271559135,
        "L": 0.23891840720022414,
        "J": 0.27391728649715846,
        "D": 0.2635164449638995,
        "B": 0.2539428603610522,
        "H": 0.2728124109047293,
        "C": 0.25798875128197213,
        "A": 0.24715997770804285,
        "E": 0.2492295789736436,
        "K": 0.2386081432946068,
        "I": 0.27286265120100317,
        "F": 0.22814743924240455
    },
    "Average_excess_waiting_time": {
        "G": 67.35451628867816,
        "L": 66.6444582702432,
        "J": 71.45025717739986,
        "D": 67.09736592172749,
        "B": 70.15409813385384,
        "H": 72.12190182856551,
        "C": 69.75237557864091,
        "A": 71.39440563274377,
        "E": 66.85441460377666,
        "K": 67.66578726874229,
        "I": 72.71835357908884,
        "F": 65.45519174020768
    },
    "Holding_per_stop": {
        "L": 15,
        "D": 20.217391304347824,
        "J": 33.26086956521739,
        "G": 24.782608695652176,
        "B": 13.846153846153847,
        "C": 14.673913043478262,
        "E": 27.065217391304348,
        "H": 18.91304347826087,
        "A": 16.813186813186814,
        "K": 19.12087912087912,
        "I": 34.94505494505494,
        "F": 25.384615384615383
    },
    "Actions_tfl_edges": {
        "CD": [
            57,
            7,
            29
        ],
        "FG": [
            48,
            10,
            34
        ],
        "JK": [
            26,
            2,
            64
        ],
        "GH": [
            64,
            5,
            23
        ],
        "HI": [
            53,
            12,
            27
        ]
    },
    "Load_per_bus_per_stop": {
        "bus3": {
            "G": 106.4375,
            "H": 114.25,
            "I": 113.0625,
            "J": 108.0625,
            "K": 102.1875,
            "L": 93.33333333333333,
            "A": 84.93333333333334,
            "B": 77.33333333333333,
            "C": 71.8,
            "D": 68.93333333333334,
            "E": 65.93333333333334,
            "F": 84.66666666666667
        },
        "bus5": {
            "L": 109,
            "A": 98.75,
            "B": 86.6,
            "C": 81.86666666666666,
            "D": 77.86666666666666,
            "E": 77.6,
            "F": 100.93333333333334,
            "G": 138.73333333333332,
            "H": 147.93333333333334,
            "I": 144.53333333333333,
            "J": 138.46666666666667,
            "K": 127.13333333333334
        },
        "bus4": {
            "J": 130.4375,
            "K": 118.75,
            "L": 109.125,
            "A": 100.86666666666666,
            "B": 90.73333333333333,
            "C": 84.53333333333333,
            "D": 80.66666666666667,
            "E": 79.26666666666667,
            "F": 105.2,
            "G": 140.93333333333334,
            "H": 151.46666666666667,
            "I": 146
        },
        "bus2": {
            "D": 66.375,
            "E": 65.8125,
            "F": 86.3125,
            "G": 118.1875,
            "H": 127.625,
            "I": 123.53333333333333,
            "J": 115.46666666666667,
            "K": 106.26666666666667,
            "L": 95.86666666666666,
            "A": 86.93333333333334,
            "B": 79,
            "C": 75.06666666666666
        },
        "bus0": {
            "B": 89.3125,
            "C": 83.3125,
            "D": 80.6,
            "E": 78.06666666666666,
            "F": 104.66666666666667,
            "G": 138.26666666666668,
            "H": 146.26666666666668,
            "I": 143.6,
            "J": 136.53333333333333,
            "K": 126.8,
            "L": 116.8,
            "A": 104
        },
        "bus1": {
            "C": 74.3125,
            "D": 71.6875,
            "E": 71,
            "F": 97.625,
            "G": 127.86666666666666,
            "H": 136.2,
            "I": 132.46666666666667,
            "J": 125.13333333333334,
            "K": 116.53333333333333,
            "L": 107.6,
            "A": 96.06666666666666,
            "B": 84.4
        }
    },
    "Obs_and_actions_busses": {
        "5": 297.5836543924257,
        "0": -206.57431584250537,
        "2": 113.23501106827027
    },
    "Obs_and_actions_tfls": {
        "0": -57.76873052985383,
        "2": 242.94514348990097,
        "1": 24.782339405132017
    }
}