{
    "Average_holding_time": 18.038852913968547,
    "Average_holding_actions": [
        810,
        155,
        0,
        85,
        31,
        0
    ],
    "Average_travel_time_passengers": 2835.8053312469187,
    "Average_passenger_waiting_time": 393.49130423729605,
    "Average_passenger_in_vehicle_time": 2442.3140270096123,
    "Average_speed_busses": 0.04504166666666667,
    "Average_experienced_crowding": 127.17225742770395,
    "Average_covariation_headway": 0.5869834583360498,
    "Average_covariation_headway_stops": {
        "H": 0.482719211073675,
        "G": 0.44788549594269306,
        "I": 0.4901638742026906,
        "A": 0.4475621388539441,
        "C": 0.4570648685286669,
        "B": 0.4572997454962864,
        "J": 0.47866651825464596,
        "D": 0.4410023957977873,
        "K": 0.45335447701679177,
        "E": 0.42552477486486484,
        "L": 0.4548954955868446,
        "F": 0.43348239198219457
    },
    "Average_excess_waiting_time": {
        "H": 129.02785902683422,
        "G": 120.09711045753892,
        "I": 126.15571034671973,
        "A": 118.36814450926676,
        "C": 119.1982221578516,
        "B": 121.4438638330144,
        "J": 124.68561601772552,
        "D": 116.37435037151062,
        "K": 119.92923631877818,
        "E": 114.22142322836146,
        "L": 122.35007012444527,
        "F": 117.92371408449975
    },
    "Holding_per_stop": {
        "H": 21.333333333333332,
        "I": 13.516483516483516,
        "G": 25,
        "C": 23.736263736263737,
        "B": 14.666666666666666,
        "J": 21.75824175824176,
        "A": 13.666666666666666,
        "D": 9.333333333333334,
        "K": 16.333333333333332,
        "E": 12.47191011235955,
        "L": 14,
        "F": 30.674157303370787
    },
    "Actions_tfl_edges": {
        "FG": [
            2,
            81,
            7
        ],
        "GH": [
            2,
            80,
            9
        ],
        "HI": [
            1,
            82,
            8
        ],
        "CD": [
            12,
            74,
            5
        ],
        "JK": [
            6,
            79,
            6
        ]
    },
    "Load_per_bus_per_stop": {
        "bus3": {
            "H": 150.5625,
            "I": 145.66666666666666,
            "J": 138.4,
            "K": 127.46666666666667,
            "L": 116.4,
            "A": 103.73333333333333,
            "B": 96.86666666666666,
            "C": 88.86666666666666,
            "D": 87.46666666666667,
            "E": 83.6,
            "F": 108.53333333333333,
            "G": 148.2
        },
        "bus2": {
            "G": 137.6,
            "H": 145.2,
            "I": 141,
            "J": 133.46666666666667,
            "K": 126.13333333333334,
            "L": 114.53333333333333,
            "A": 103.13333333333334,
            "B": 93.8,
            "C": 89.8,
            "D": 86.6,
            "E": 84.21428571428571,
            "F": 109.78571428571429
        },
        "bus4": {
            "I": 151.875,
            "J": 145.25,
            "K": 137.5625,
            "L": 129.86666666666667,
            "A": 119.73333333333333,
            "B": 108.66666666666667,
            "C": 101.53333333333333,
            "D": 96.6,
            "E": 95.66666666666667,
            "F": 121.26666666666667,
            "G": 155.93333333333334,
            "H": 167
        },
        "bus5": {
            "A": 92,
            "B": 84.06666666666666,
            "C": 80.13333333333334,
            "D": 79.46666666666667,
            "E": 78.4,
            "F": 102.73333333333333,
            "G": 132.66666666666666,
            "H": 142.73333333333332,
            "I": 137.46666666666667,
            "J": 131.13333333333333,
            "K": 120.93333333333334,
            "L": 110.53333333333333
        },
        "bus1": {
            "C": 61.9375,
            "D": 59.75,
            "E": 60,
            "F": 81.8,
            "G": 110.4,
            "H": 115.86666666666666,
            "I": 113.33333333333333,
            "J": 107.8,
            "K": 98.66666666666667,
            "L": 89.6,
            "A": 79,
            "B": 71
        },
        "bus0": {
            "B": 65.46666666666667,
            "C": 63.666666666666664,
            "D": 60.666666666666664,
            "E": 62.666666666666664,
            "F": 81.86666666666666,
            "G": 104.93333333333334,
            "H": 111.53333333333333,
            "I": 105.86666666666666,
            "J": 100.73333333333333,
            "K": 93.8,
            "L": 86.13333333333334,
            "A": 78.66666666666667
        }
    },
    "Obs_and_actions_busses": {
        "0": -247.01775941775898,
        "4": 362.7382814999529,
        "1": 228.1365888757833,
        "5": 577.4856836079505
    },
    "Obs_and_actions_tfls": {
        "0": 692.5304702514991,
        "2": -745.1092156304387,
        "1": 98.53438900061953
    }
}