{
    "Average_holding_time": 26.789667896678967,
    "Average_holding_actions": [
        750,
        0,
        234,
        0,
        100,
        0
    ],
    "Average_travel_time_passengers": 2774.4072537892534,
    "Average_passenger_waiting_time": 348.035844385457,
    "Average_passenger_in_vehicle_time": 2426.371409403799,
    "Average_speed_busses": 0.04516666666666667,
    "Average_experienced_crowding": 113.91712519634358,
    "Average_covariation_headway": 0.3678249061063635,
    "Average_covariation_headway_stops": {
        "G": 0.2766649855459637,
        "F": 0.2659187837255102,
        "J": 0.2713238016879094,
        "H": 0.2958448837874577,
        "E": 0.2894426858757286,
        "D": 0.2777102052408446,
        "C": 0.2721419676167474,
        "I": 0.27951473004623195,
        "K": 0.26019562298542265,
        "L": 0.23833250389765523,
        "A": 0.23322245537122382,
        "B": 0.26043170299577995
    },
    "Average_excess_waiting_time": {
        "G": 74.30975627895083,
        "F": 74.14354229478192,
        "J": 74.72291903305415,
        "H": 79.42807021293726,
        "E": 79.90924399286502,
        "D": 80.78385873652388,
        "C": 81.65343773039808,
        "I": 77.46816187642759,
        "K": 74.83632871999168,
        "L": 72.92583775697739,
        "A": 74.1887176449128,
        "B": 81.16898504400393
    },
    "Holding_per_stop": {
        "G": 25.384615384615383,
        "F": 30.65934065934066,
        "J": 27.692307692307693,
        "E": 44,
        "H": 31.318681318681318,
        "D": 22.333333333333332,
        "I": 39.23076923076923,
        "K": 27.032967032967033,
        "C": 24.60674157303371,
        "L": 20,
        "A": 10.333333333333334,
        "B": 18.53932584269663
    },
    "Actions_tfl_edges": {
        "CD": [
            52,
            11,
            27
        ],
        "FG": [
            37,
            22,
            33
        ],
        "GH": [
            32,
            35,
            24
        ],
        "JK": [
            21,
            9,
            61
        ],
        "HI": [
            52,
            13,
            26
        ]
    },
    "Load_per_bus_per_stop": {
        "bus4": {
            "G": 112.75,
            "H": 118.875,
            "I": 114,
            "J": 108.73333333333333,
            "K": 100.8,
            "L": 92.4,
            "A": 81.93333333333334,
            "B": 74.2,
            "C": 67.66666666666667,
            "D": 67,
            "E": 68.66666666666667,
            "F": 90.06666666666666
        },
        "bus3": {
            "F": 93.25,
            "G": 125.75,
            "H": 133.4,
            "I": 128.53333333333333,
            "J": 122.8,
            "K": 113.53333333333333,
            "L": 106.46666666666667,
            "A": 95.66666666666667,
            "B": 88.66666666666667,
            "C": 82.13333333333334,
            "D": 78.6,
            "E": 75.2
        },
        "bus5": {
            "J": 141.3125,
            "K": 132.375,
            "L": 121.06666666666666,
            "A": 109.66666666666667,
            "B": 100.33333333333333,
            "C": 94.2,
            "D": 92.2,
            "E": 89.8,
            "F": 118.86666666666666,
            "G": 155.66666666666666,
            "H": 163,
            "I": 160.06666666666666
        },
        "bus2": {
            "E": 70.8,
            "F": 93.73333333333333,
            "G": 127.06666666666666,
            "H": 133.33333333333334,
            "I": 127.93333333333334,
            "J": 119.26666666666667,
            "K": 111,
            "L": 101.26666666666667,
            "A": 91.46666666666667,
            "B": 82.73333333333333,
            "C": 78.46666666666667,
            "D": 74.53333333333333
        },
        "bus1": {
            "D": 73.53333333333333,
            "E": 73.13333333333334,
            "F": 96.33333333333333,
            "G": 126.73333333333333,
            "H": 135.53333333333333,
            "I": 131.86666666666667,
            "J": 123.13333333333334,
            "K": 115.73333333333333,
            "L": 107,
            "A": 98.53333333333333,
            "B": 91.06666666666666,
            "C": 83.5
        },
        "bus0": {
            "C": 83.2,
            "D": 80.73333333333333,
            "E": 80.4,
            "F": 103.86666666666666,
            "G": 137.13333333333333,
            "H": 147.46666666666667,
            "I": 142.33333333333334,
            "J": 135.13333333333333,
            "K": 127.66666666666667,
            "L": 118.13333333333334,
            "A": 109.8,
            "B": 95.85714285714286
        }
    },
    "Obs_and_actions_busses": {
        "0": -228.8398160889578,
        "5": 310.5973485064395,
        "2": 111.21479164502546
    },
    "Obs_and_actions_tfls": {
        "0": 41.10331329663124,
        "1": -267.06411068807927,
        "2": 248.3688329300073
    }
}
    }
}