{
    "Average_holding_time": 43.007209062821836,
    "Average_holding_actions": [
        492,
        191,
        8,
        215,
        65,
        0
    ],
    "Average_travel_time_passengers": 3268.453122762226,
    "Average_passenger_waiting_time": 503.7408313470415,
    "Average_passenger_in_vehicle_time": 2764.7122914153156,
    "Average_speed_busses": 0.04045833333333333,
    "Average_experienced_crowding": 169.73456437069473,
    "Average_covariation_headway": 0.7740844772812641,
    "Average_covariation_headway_stops": {
        "E": 0.6105832419035878,
        "J": 0.6428289736798973,
        "F": 0.6135029277351614,
        "C": 0.5920964282044815,
        "D": 0.6066513679092383,
        "A": 0.60103065633094,
        "G": 0.6029804700223754,
        "K": 0.6190637765324266,
        "H": 0.6479502237882404,
        "B": 0.5918612523947089,
        "L": 0.6047906097958407,
        "I": 0.6475400909597885
    },
    "Average_excess_waiting_time": {
        "E": 222.56624863311924,
        "J": 237.31238169238634,
        "F": 221.11372729316992,
        "C": 224.732057124192,
        "D": 227.8488023595371,
        "A": 224.130669093422,
        "G": 218.91453679788566,
        "K": 229.89134441243402,
        "H": 240.72640714284762,
        "B": 227.60946884652435,
        "L": 227.36958529623604,
        "I": 243.7819902177048
    },
    "Holding_per_stop": {
        "E": 41.111111111111114,
        "J": 45.73170731707317,
        "D": 38.888888888888886,
        "F": 58.53658536585366,
        "A": 31.85185185185185,
        "C": 42,
        "G": 52.22222222222222,
        "K": 40.74074074074074,
        "B": 39.49367088607595,
        "H": 53.333333333333336,
        "L": 36.666666666666664,
        "I": 35.18518518518518
    },
    "Actions_tfl_edges": {
        "CD": [
            27,
            28,
            26
        ],
        "JK": [
            27,
            41,
            14
        ],
        "FG": [
            38,
            27,
            17
        ],
        "GH": [
            36,
            20,
            25
        ],
        "HI": [
            35,
            28,
            18
        ]
    },
    "Load_per_bus_per_stop": {
        "bus2": {
            "E": 23.785714285714285,
            "F": 32.642857142857146,
            "G": 43.785714285714285,
            "H": 44.642857142857146,
            "I": 43.357142857142854,
            "J": 39.785714285714285,
            "K": 35.92857142857143,
            "L": 33.785714285714285,
            "A": 27.615384615384617,
            "B": 24.76923076923077,
            "C": 24.384615384615383,
            "D": 25.153846153846153
        },
        "bus4": {
            "J": 236.35714285714286,
            "K": 222.71428571428572,
            "L": 208.21428571428572,
            "A": 189.14285714285714,
            "B": 168.6153846153846,
            "C": 155.53846153846155,
            "D": 147.92307692307693,
            "E": 146.15384615384616,
            "F": 190.84615384615384,
            "G": 258.6923076923077,
            "H": 276.53846153846155,
            "I": 268.3076923076923
        },
        "bus3": {
            "F": 77.42857142857143,
            "G": 108.28571428571429,
            "H": 115.35714285714286,
            "I": 112,
            "J": 105.92857142857143,
            "K": 97.35714285714286,
            "L": 87.71428571428571,
            "A": 79.92857142857143,
            "B": 77.3076923076923,
            "C": 69.6923076923077,
            "D": 65.6923076923077,
            "E": 63.38461538461539
        },
        "bus0": {
            "C": 100.78571428571429,
            "D": 97.78571428571429,
            "E": 95.71428571428571,
            "F": 128.57142857142858,
            "G": 171.85714285714286,
            "H": 183.69230769230768,
            "I": 180,
            "J": 171.3846153846154,
            "K": 158.3846153846154,
            "L": 144.3846153846154,
            "A": 131.53846153846155,
            "B": 118.07692307692308
        },
        "bus1": {
            "D": 57.142857142857146,
            "E": 58.857142857142854,
            "F": 77.35714285714286,
            "G": 95.64285714285714,
            "H": 100.92857142857143,
            "I": 99.78571428571429,
            "J": 94.71428571428571,
            "K": 85.46153846153847,
            "L": 81.07692307692308,
            "A": 72.23076923076923,
            "B": 66.76923076923077,
            "C": 64.07692307692308
        },
        "bus5": {
            "A": 155.57142857142858,
            "B": 138.28571428571428,
            "C": 129.35714285714286,
            "D": 127.85714285714286,
            "E": 128.3846153846154,
            "F": 171.69230769230768,
            "G": 228.46153846153845,
            "H": 241.15384615384616,
            "I": 231.23076923076923,
            "J": 220.15384615384616,
            "K": 201.3846153846154,
            "L": 185.46153846153845
        }
    },
    "Obs_and_actions_busses": {
        "0": -98.5336150860327,
        "4": 306.92099024242503,
        "1": -583.4871254890832,
        "5": 515.0466522947484,
        "2": -1052.318286309983
    },
    "Obs_and_actions_tfls": {
        "0": -392.36321499789915,
        "2": 199.90492671878965,
        "1": 399.8155271125605
    }
}