{
    "Average_holding_time": 28.502824858757062,
    "Average_holding_actions": [
        577,
        189,
        180,
        0,
        56,
        0
    ],
    "Average_travel_time_passengers": 2862.2079642608874,
    "Average_passenger_waiting_time": 349.0368928095642,
    "Average_passenger_in_vehicle_time": 2513.171071451369,
    "Average_speed_busses": 0.04425,
    "Average_experienced_crowding": 117.9680288526904,
    "Average_covariation_headway": 0.29850393848208084,
    "Average_covariation_headway_stops": {
        "G": 0.23796579914489568,
        "I": 0.2496436871454758,
        "H": 0.2493242443822412,
        "J": 0.23196359163425384,
        "E": 0.2438044542813031,
        "A": 0.20350622496941995,
        "K": 0.2099353138620516,
        "F": 0.2230776155870076,
        "B": 0.20923909219580478,
        "L": 0.18632088141552278,
        "C": 0.21738827716573628,
        "D": 0.2463215349696321
    },
    "Average_excess_waiting_time": {
        "G": 81.32814418209261,
        "I": 79.36977314164,
        "H": 80.15086523755224,
        "J": 74.07019958053496,
        "E": 82.13670572545936,
        "A": 71.421130189101,
        "K": 72.9481427714781,
        "F": 80.56700586688726,
        "B": 74.20872164020426,
        "L": 71.84603580515494,
        "C": 78.46821981999148,
        "D": 85.18303714387497
    },
    "Holding_per_stop": {
        "I": 32.69662921348315,
        "H": 24.60674157303371,
        "J": 35.666666666666664,
        "G": 35.79545454545455,
        "A": 23.93258426966292,
        "E": 47.04545454545455,
        "K": 36.40449438202247,
        "B": 16.51685393258427,
        "L": 22.921348314606742,
        "F": 38.96551724137931,
        "C": 11.25,
        "D": 16.20689655172414
    },
    "Actions_tfl_edges": {
        "FG": [
            37,
            45,
            6
        ],
        "GH": [
            26,
            61,
            2
        ],
        "HI": [
            57,
            24,
            9
        ],
        "JK": [
            80,
            6,
            4
        ],
        "CD": [
            78,
            6,
            4
        ]
    },
    "Load_per_bus_per_stop": {
        "bus1": {
            "G": 138.6,
            "H": 145.4,
            "I": 140.6,
            "J": 132.06666666666666,
            "K": 123.4,
            "L": 112,
            "A": 100.53333333333333,
            "B": 92.4,
            "C": 87,
            "D": 87.28571428571429,
            "E": 86.42857142857143,
            "F": 110.07142857142857
        },
        "bus3": {
            "I": 130.66666666666666,
            "J": 125.53333333333333,
            "K": 116.93333333333334,
            "L": 108.93333333333334,
            "A": 99.13333333333334,
            "B": 88.66666666666667,
            "C": 80.73333333333333,
            "D": 79.6,
            "E": 76.26666666666667,
            "F": 98.66666666666667,
            "G": 132.64285714285714,
            "H": 142.5
        },
        "bus2": {
            "H": 130.46666666666667,
            "I": 129.8,
            "J": 123.93333333333334,
            "K": 115.66666666666667,
            "L": 106.93333333333334,
            "A": 99.13333333333334,
            "B": 88.6,
            "C": 84.26666666666667,
            "D": 77.14285714285714,
            "E": 75.42857142857143,
            "F": 97.57142857142857,
            "G": 128.57142857142858
        },
        "bus4": {
            "J": 125.53333333333333,
            "K": 117.66666666666667,
            "L": 110.6,
            "A": 99.66666666666667,
            "B": 88.46666666666667,
            "C": 81.13333333333334,
            "D": 78.66666666666667,
            "E": 78.13333333333334,
            "F": 103.06666666666666,
            "G": 140.06666666666666,
            "H": 145,
            "I": 139.92857142857142
        },
        "bus0": {
            "E": 73,
            "F": 95.26666666666667,
            "G": 130.73333333333332,
            "H": 141.33333333333334,
            "I": 136.6,
            "J": 130,
            "K": 122.33333333333333,
            "L": 111.8,
            "A": 100.92857142857143,
            "B": 88.85714285714286,
            "C": 82.42857142857143,
            "D": 79.85714285714286
        },
        "bus5": {
            "A": 107.93333333333334,
            "B": 96.53333333333333,
            "C": 89.8,
            "D": 85.8,
            "E": 85.4,
            "F": 114.6,
            "G": 154.33333333333334,
            "H": 165.33333333333334,
            "I": 158.93333333333334,
            "J": 150.4,
            "K": 138.42857142857142,
            "L": 126.78571428571429
        }
    },
    "Obs_and_actions_busses": {
        "1": -18.868007766310615,
        "0": -265.52176471682736,
        "5": 346.2314499901974,
        "2": 76.47012986462873,
        "3": 168.3660209515918
    },
    "Obs_and_actions_tfls": {
        "0": 174.2282924824675,
        "1": -167.89665713246004,
        "2": 18.837882169292197
    }
}