{
    "Average_holding_time": 40.06060606060606,
    "Average_holding_actions": [
        528,
        199,
        1,
        189,
        73,
        0
    ],
    "Average_travel_time_passengers": 3203.783006277677,
    "Average_passenger_waiting_time": 493.67889352869275,
    "Average_passenger_in_vehicle_time": 2710.1041127490676,
    "Average_speed_busses": 0.04125,
    "Average_experienced_crowding": 162.75764440504844,
    "Average_covariation_headway": 0.7736071960948855,
    "Average_covariation_headway_stops": {
        "G": 0.6113576151686794,
        "I": 0.658454411559178,
        "J": 0.6487762338964719,
        "H": 0.6374255470108305,
        "F": 0.609170563455119,
        "K": 0.6151837530692569,
        "L": 0.6136418462829807,
        "C": 0.6222382544358082,
        "D": 0.6097675031185038,
        "A": 0.6072758405158826,
        "E": 0.6221269187131208,
        "B": 0.6098181284200795
    },
    "Average_excess_waiting_time": {
        "G": 214.04424633145675,
        "I": 233.9363289603649,
        "J": 226.69013534945555,
        "H": 228.9323698621228,
        "F": 217.08716675652977,
        "K": 210.58078939487683,
        "L": 212.39698429775535,
        "C": 222.7048631649343,
        "D": 220.66975759448252,
        "A": 219.82142905558618,
        "E": 225.1813477322645,
        "B": 219.82566806179364
    },
    "Holding_per_stop": {
        "G": 55.66265060240964,
        "I": 42.65060240963855,
        "J": 43.214285714285715,
        "H": 43.170731707317074,
        "K": 36.785714285714285,
        "F": 48.65853658536585,
        "C": 40.609756097560975,
        "L": 27.857142857142858,
        "D": 30.365853658536587,
        "A": 43.170731707317074,
        "E": 37.77777777777778,
        "B": 30.74074074074074
    },
    "Actions_tfl_edges": {
        "FG": [
            35,
            33,
            15
        ],
        "HI": [
            35,
            35,
            13
        ],
        "JK": [
            35,
            36,
            14
        ],
        "GH": [
            42,
            22,
            19
        ],
        "CD": [
            28,
            33,
            21
        ]
    },
    "Load_per_bus_per_stop": {
        "bus2": {
            "G": 141.14285714285714,
            "H": 154.21428571428572,
            "I": 150.71428571428572,
            "J": 143.78571428571428,
            "K": 132.92857142857142,
            "L": 122.57142857142857,
            "A": 111.07142857142857,
            "B": 93.53846153846153,
            "C": 85.53846153846153,
            "D": 80.46153846153847,
            "E": 81.53846153846153,
            "F": 109.84615384615384
        },
        "bus3": {
            "I": 66.92857142857143,
            "J": 64.64285714285714,
            "K": 61.5,
            "L": 57.785714285714285,
            "A": 52.42857142857143,
            "B": 48.785714285714285,
            "C": 45,
            "D": 46.92857142857143,
            "E": 42.69230769230769,
            "F": 54.53846153846154,
            "G": 70,
            "H": 73.84615384615384
        },
        "bus4": {
            "J": 58.07142857142857,
            "K": 54.285714285714285,
            "L": 48.42857142857143,
            "A": 44.785714285714285,
            "B": 40.214285714285715,
            "C": 37.92857142857143,
            "D": 35.57142857142857,
            "E": 36.214285714285715,
            "F": 53.857142857142854,
            "G": 75.78571428571429,
            "H": 78.42857142857143,
            "I": 67.38461538461539
        },
        "bus1": {
            "F": 153.21428571428572,
            "G": 201.14285714285714,
            "H": 218.21428571428572,
            "I": 213.85714285714286,
            "J": 202,
            "K": 186.85714285714286,
            "L": 169.42857142857142,
            "A": 154.84615384615384,
            "B": 139.92307692307693,
            "C": 132.3846153846154,
            "D": 126.61538461538461,
            "E": 124.3076923076923
        },
        "bus5": {
            "K": 155,
            "L": 143.14285714285714,
            "A": 132.14285714285714,
            "B": 122,
            "C": 115,
            "D": 110.71428571428571,
            "E": 107.92857142857143,
            "F": 139.5,
            "G": 183.28571428571428,
            "H": 191.35714285714286,
            "I": 183.07142857142858,
            "J": 172.85714285714286
        },
        "bus0": {
            "C": 117.14285714285714,
            "D": 112.78571428571429,
            "E": 107.14285714285714,
            "F": 142.21428571428572,
            "G": 190.42857142857142,
            "H": 203.21428571428572,
            "I": 197.35714285714286,
            "J": 185.78571428571428,
            "K": 171.57142857142858,
            "L": 155.92857142857142,
            "A": 151.69230769230768,
            "B": 136.53846153846155
        }
    },
    "Obs_and_actions_busses": {
        "0": -150.88869564668764,
        "4": 307.44659928388376,
        "5": 506.42764783790744,
        "1": -440.2785260842797,
        "2": -1037.250809613567
    },
    "Obs_and_actions_tfls": {
        "0": -352.17684625029955,
        "1": 423.57623585815105,
        "2": 195.35857098351505
    }
}