{
    "Average_holding_time": 47.80149413020278,
    "Average_holding_actions": [
        413,
        232,
        0,
        199,
        93,
        0
    ],
    "Average_travel_time_passengers": 3428.1749832315054,
    "Average_passenger_waiting_time": 556.9541570006617,
    "Average_passenger_in_vehicle_time": 2871.220826230908,
    "Average_speed_busses": 0.03904166666666667,
    "Average_experienced_crowding": 185.8870218031704,
    "Average_covariation_headway": 0.874008480814178,
    "Average_covariation_headway_stops": {
        "H": 0.720171026219922,
        "G": 0.6666759982485574,
        "J": 0.7077482893340311,
        "F": 0.6579005123646985,
        "I": 0.7150031260846381,
        "B": 0.6872631445504177,
        "A": 0.6762066400911066,
        "K": 0.6939638921523792,
        "C": 0.6882504840538756,
        "L": 0.6769793800023054,
        "D": 0.6711644092719313,
        "E": 0.673338977001099
    },
    "Average_excess_waiting_time": {
        "H": 292.2655206696211,
        "G": 268.0747847560309,
        "J": 284.0117557408587,
        "F": 270.05226249009763,
        "I": 292.2565076252371,
        "B": 282.373111233558,
        "A": 279.7162716963104,
        "K": 280.70032254664375,
        "C": 286.1800656843118,
        "L": 280.2503991339436,
        "D": 278.41470740720786,
        "E": 282.20568410798614
    },
    "Holding_per_stop": {
        "H": 65.69620253164557,
        "G": 53.46153846153846,
        "J": 44.81012658227848,
        "I": 47.848101265822784,
        "B": 29.23076923076923,
        "A": 30.77922077922078,
        "F": 63.84615384615385,
        "K": 41.392405063291136,
        "C": 58.07692307692308,
        "L": 50,
        "D": 42.077922077922075,
        "E": 45.97402597402598
    },
    "Actions_tfl_edges": {
        "FG": [
            33,
            30,
            16
        ],
        "GH": [
            27,
            25,
            27
        ],
        "HI": [
            39,
            24,
            16
        ],
        "JK": [
            38,
            33,
            8
        ],
        "CD": [
            26,
            44,
            8
        ]
    },
    "Load_per_bus_per_stop": {
        "bus3": {
            "H": 112.71428571428571,
            "I": 109.42857142857143,
            "J": 105.71428571428571,
            "K": 95.84615384615384,
            "L": 88.53846153846153,
            "A": 79.6923076923077,
            "B": 74.61538461538461,
            "C": 71.07692307692308,
            "D": 70.3076923076923,
            "E": 72,
            "F": 87.61538461538461,
            "G": 110.15384615384616
        },
        "bus2": {
            "G": 195.07692307692307,
            "H": 213.84615384615384,
            "I": 208.84615384615384,
            "J": 200,
            "K": 186.3846153846154,
            "L": 172.23076923076923,
            "A": 152.69230769230768,
            "B": 139.15384615384616,
            "C": 129.69230769230768,
            "D": 122.15384615384616,
            "E": 121.15384615384616,
            "F": 155.84615384615384
        },
        "bus4": {
            "J": 22.714285714285715,
            "K": 20.857142857142858,
            "L": 20.307692307692307,
            "A": 19.615384615384617,
            "B": 17.923076923076923,
            "C": 16.615384615384617,
            "D": 17.153846153846153,
            "E": 17.076923076923077,
            "F": 21.692307692307693,
            "G": 27.615384615384617,
            "H": 27.692307692307693,
            "I": 25.615384615384617
        },
        "bus1": {
            "F": 186.69230769230768,
            "G": 247.15384615384616,
            "H": 261.9230769230769,
            "I": 254,
            "J": 244.69230769230768,
            "K": 228,
            "L": 209.15384615384616,
            "A": 191,
            "B": 174,
            "C": 163,
            "D": 155.91666666666666,
            "E": 153.91666666666666
        },
        "bus0": {
            "B": 177.92307692307693,
            "C": 167.69230769230768,
            "D": 166.23076923076923,
            "E": 162.69230769230768,
            "F": 211.07692307692307,
            "G": 281.61538461538464,
            "H": 297.6923076923077,
            "I": 291,
            "J": 273.9230769230769,
            "K": 252.30769230769232,
            "L": 229.3846153846154,
            "A": 213.75
        },
        "bus5": {
            "A": 30.846153846153847,
            "B": 27.153846153846153,
            "C": 24.46153846153846,
            "D": 20.53846153846154,
            "E": 19.307692307692307,
            "F": 32.76923076923077,
            "G": 52.76923076923077,
            "H": 55.38461538461539,
            "I": 53,
            "J": 48.07692307692308,
            "K": 43.38461538461539,
            "L": 38.30769230769231
        }
    },
    "Obs_and_actions_busses": {
        "0": -28.444698789494346,
        "5": 511.8840005505476,
        "4": 337.4192230283015,
        "1": -733.2380717207063
    },
    "Obs_and_actions_tfls": {
        "0": -453.4391493773589,
        "1": 504.19514757046454,
        "2": 190.450685294596
    }
}