{
    "Average_holding_time": 31.88259109311741,
    "Average_holding_actions": [
        547,
        259,
        0,
        119,
        63,
        0
    ],
    "Average_travel_time_passengers": 3210.4472579523595,
    "Average_passenger_waiting_time": 506.71176371341465,
    "Average_passenger_in_vehicle_time": 2703.7354942389006,
    "Average_speed_busses": 0.041166666666666664,
    "Average_experienced_crowding": 170.53574064542119,
    "Average_covariation_headway": 0.790172984005781,
    "Average_covariation_headway_stops": {
        "E": 0.6676995653179034,
        "L": 0.6640189320534501,
        "K": 0.6737247851251994,
        "F": 0.6294256749713252,
        "C": 0.6749314772832841,
        "A": 0.6793113793982017,
        "G": 0.6278050367587782,
        "B": 0.664528464963165,
        "D": 0.6555469137585992,
        "H": 0.6725421808770627,
        "I": 0.6875714364335979,
        "J": 0.6876612623966779
    },
    "Average_excess_waiting_time": {
        "E": 237.58431364134174,
        "L": 240.36540730942238,
        "K": 248.5504741078538,
        "F": 223.88309797066978,
        "C": 242.40402101121447,
        "A": 242.2741032887625,
        "G": 226.2222298633485,
        "B": 239.76149602307748,
        "D": 235.80696269297323,
        "H": 250.26537319888212,
        "I": 255.17388322291697,
        "J": 258.0358332063936
    },
    "Holding_per_stop": {
        "L": 22.771084337349397,
        "E": 33.25301204819277,
        "C": 31.80722891566265,
        "A": 30.36144578313253,
        "K": 31.829268292682926,
        "F": 47.926829268292686,
        "G": 30.365853658536587,
        "B": 28.19277108433735,
        "D": 22.771084337349397,
        "H": 31.829268292682926,
        "I": 35.925925925925924,
        "J": 35.925925925925924
    },
    "Actions_tfl_edges": {
        "JK": [
            12,
            58,
            12
        ],
        "CD": [
            18,
            53,
            12
        ],
        "FG": [
            6,
            63,
            13
        ],
        "GH": [
            5,
            62,
            15
        ],
        "HI": [
            3,
            67,
            12
        ]
    },
    "Load_per_bus_per_stop": {
        "bus1": {
            "E": 43.642857142857146,
            "F": 60.42857142857143,
            "G": 77.85714285714286,
            "H": 83.64285714285714,
            "I": 81.35714285714286,
            "J": 76.78571428571429,
            "K": 71.21428571428571,
            "L": 66.07142857142857,
            "A": 61.357142857142854,
            "B": 54.714285714285715,
            "C": 46.92307692307692,
            "D": 44.23076923076923
        },
        "bus4": {
            "L": 187.64285714285714,
            "A": 169.14285714285714,
            "B": 153.5,
            "C": 145.35714285714286,
            "D": 137.28571428571428,
            "E": 134.5,
            "F": 171.92307692307693,
            "G": 236.92307692307693,
            "H": 254.53846153846155,
            "I": 248.84615384615384,
            "J": 237.53846153846155,
            "K": 220.07692307692307
        },
        "bus3": {
            "K": 80.57142857142857,
            "L": 75.14285714285714,
            "A": 68.07142857142857,
            "B": 63,
            "C": 57.57142857142857,
            "D": 52,
            "E": 48.214285714285715,
            "F": 70.46153846153847,
            "G": 100.6923076923077,
            "H": 106.84615384615384,
            "I": 102.23076923076923,
            "J": 97.23076923076923
        },
        "bus2": {
            "F": 37,
            "G": 51.57142857142857,
            "H": 53.642857142857146,
            "I": 50.642857142857146,
            "J": 48.142857142857146,
            "K": 44.57142857142857,
            "L": 41.5,
            "A": 35.5,
            "B": 32.285714285714285,
            "C": 30.571428571428573,
            "D": 28.5,
            "E": 29.714285714285715
        },
        "bus0": {
            "C": 104.85714285714286,
            "D": 99.78571428571429,
            "E": 97.28571428571429,
            "F": 128.71428571428572,
            "G": 172.64285714285714,
            "H": 186.85714285714286,
            "I": 181.64285714285714,
            "J": 172.14285714285714,
            "K": 161.14285714285714,
            "L": 147.85714285714286,
            "A": 132.46153846153845,
            "B": 119.92307692307692
        },
        "bus5": {
            "A": 163.07142857142858,
            "B": 147.71428571428572,
            "C": 141.5,
            "D": 137.35714285714286,
            "E": 135.14285714285714,
            "F": 176.5,
            "G": 234.42857142857142,
            "H": 248.64285714285714,
            "I": 237.15384615384616,
            "J": 224,
            "K": 208.6153846153846,
            "L": 191.84615384615384
        }
    },
    "Obs_and_actions_busses": {
        "5": 614.5060992708327,
        "0": -200.79091871928247,
        "1": -208.30899992416224,
        "4": 382.4585635790867
    },
    "Obs_and_actions_tfls": {
        "0": 605.1692276471509,
        "2": -942.0278119190527,
        "1": 166.2932137467293
    }
}