{
    "Average_holding_time": 22.989593188268685,
    "Average_holding_actions": [
        727,
        179,
        0,
        122,
        28,
        0
    ],
    "Average_travel_time_passengers": 2993.125844283266,
    "Average_passenger_waiting_time": 435.813093333068,
    "Average_passenger_in_vehicle_time": 2557.312750950276,
    "Average_speed_busses": 0.044041666666666666,
    "Average_experienced_crowding": 147.8168816867712,
    "Average_covariation_headway": 0.7159287748651968,
    "Average_covariation_headway_stops": {
        "H": 0.5800061328311125,
        "I": 0.5974643163443245,
        "J": 0.588759921044249,
        "L": 0.5621906455652735,
        "A": 0.5507990658820304,
        "D": 0.5650194781952587,
        "K": 0.5624904486697583,
        "B": 0.5490219347588641,
        "E": 0.5599629345538352,
        "F": 0.5369493482539949,
        "C": 0.5722081641431412,
        "G": 0.5381188952174739
    },
    "Average_excess_waiting_time": {
        "H": 176.67366519258042,
        "I": 179.60026989740356,
        "J": 172.9694944248365,
        "L": 163.4134050862762,
        "A": 159.94385010570596,
        "D": 168.8980706385209,
        "K": 165.6845510302948,
        "B": 164.6897833610558,
        "E": 169.20663215417494,
        "F": 161.6067567851233,
        "C": 173.13183549619112,
        "G": 163.63191118691134
    },
    "Holding_per_stop": {
        "J": 23.59550561797753,
        "I": 23.181818181818183,
        "H": 28.295454545454547,
        "L": 20.56179775280899,
        "A": 15.168539325842696,
        "D": 15.681818181818182,
        "K": 20.224719101123597,
        "B": 17.386363636363637,
        "E": 26.25,
        "F": 31.379310344827587,
        "C": 17.586206896551722,
        "G": 36.89655172413793
    },
    "Actions_tfl_edges": {
        "CD": [
            9,
            65,
            14
        ],
        "GH": [
            2,
            73,
            13
        ],
        "HI": [
            2,
            74,
            13
        ],
        "JK": [
            6,
            72,
            11
        ],
        "FG": [
            3,
            70,
            14
        ]
    },
    "Load_per_bus_per_stop": {
        "bus1": {
            "H": 196.66666666666666,
            "I": 194.53333333333333,
            "J": 186.46666666666667,
            "K": 173.6,
            "L": 158.6,
            "A": 141.8,
            "B": 130.78571428571428,
            "C": 124.71428571428571,
            "D": 119.21428571428571,
            "E": 116.78571428571429,
            "F": 147,
            "G": 195
        },
        "bus2": {
            "I": 152.6,
            "J": 146.26666666666668,
            "K": 138.6,
            "L": 127.4,
            "A": 114.6,
            "B": 103.46666666666667,
            "C": 94.71428571428571,
            "D": 94.42857142857143,
            "E": 91.35714285714286,
            "F": 117.35714285714286,
            "G": 156.57142857142858,
            "H": 170.42857142857142
        },
        "bus3": {
            "J": 94.86666666666666,
            "K": 88.6,
            "L": 81.93333333333334,
            "A": 75.8,
            "B": 69.4,
            "C": 65,
            "D": 64.13333333333334,
            "E": 64.46666666666667,
            "F": 80.78571428571429,
            "G": 103.14285714285714,
            "H": 110.07142857142857,
            "I": 107.42857142857143
        },
        "bus4": {
            "L": 50.266666666666666,
            "A": 45.13333333333333,
            "B": 40.86666666666667,
            "C": 39.93333333333333,
            "D": 38.13333333333333,
            "E": 37.8,
            "F": 52.2,
            "G": 71.73333333333333,
            "H": 77.66666666666667,
            "I": 71.92857142857143,
            "J": 68,
            "K": 61.357142857142854
        },
        "bus5": {
            "A": 83.13333333333334,
            "B": 74.53333333333333,
            "C": 69.06666666666666,
            "D": 66.93333333333334,
            "E": 67.4,
            "F": 86.93333333333334,
            "G": 119.4,
            "H": 127.4,
            "I": 124.66666666666667,
            "J": 117.6,
            "K": 108.13333333333334,
            "L": 98.92857142857143
        },
        "bus0": {
            "D": 105.93333333333334,
            "E": 101.8,
            "F": 132.86666666666667,
            "G": 181.66666666666666,
            "H": 194.4,
            "I": 186.73333333333332,
            "J": 178,
            "K": 166.73333333333332,
            "L": 150.4,
            "A": 142.85714285714286,
            "B": 128.07142857142858,
            "C": 118
        }
    },
    "Obs_and_actions_busses": {
        "3": 1071.916298031433,
        "5": 597.0126455635609,
        "4": 382.0363855677058,
        "1": -59.541222680013476,
        "0": -223.51395699651508
    },
    "Obs_and_actions_tfls": {
        "1": 173.20395801604676,
        "2": -769.5245620816802,
        "0": 698.135632343895
    }
}      "5": 664.2783880217632
    },
    "Obs_and_actions_tfls": {
        "1": 182.69889666048965,
        "0": 648.2989701814552,
        "2": -986.0520361184028
    }
}