{
    "Average_holding_time": 19.336363636363636,
    "Average_holding_actions": [
        921,
        0,
        0,
        0,
        86,
        0
    ],
    "Average_travel_time_passengers": 2804.5903249378835,
    "Average_passenger_waiting_time": 373.61597855524144,
    "Average_passenger_in_vehicle_time": 2430.974346382618,
    "Average_speed_busses": 0.04583333333333333,
    "Average_experienced_crowding": 123.09560331052435,
    "Average_covariation_headway": 0.5439272458033235,
    "Average_covariation_headway_stops": {
        "I": 0.43202610023913557,
        "F": 0.3902073168785694,
        "E": 0.39824168787795566,
        "L": 0.4173236069648411,
        "C": 0.42060570020210813,
        "A": 0.41826779657916996,
        "G": 0.3980687850251071,
        "J": 0.42196547432382303,
        "H": 0.42238823249789387,
        "K": 0.41858644889648844,
        "D": 0.3881028468329561,
        "B": 0.4237593185157807
    },
    "Average_excess_waiting_time": {
        "I": 107.37652257298078,
        "F": 94.84336609650461,
        "E": 99.24757304509336,
        "L": 104.8991379908399,
        "C": 105.19212765868218,
        "A": 104.91060200127907,
        "G": 98.87184954632312,
        "J": 106.33455991216908,
        "H": 106.93204205384166,
        "K": 107.38238672219774,
        "D": 98.76077318809553,
        "B": 107.38324398603675
    },
    "Holding_per_stop": {
        "I": 19.891304347826086,
        "F": 30,
        "C": 13.695652173913043,
        "A": 20.217391304347824,
        "E": 20.217391304347824,
        "L": 15,
        "G": 16.956521739130434,
        "J": 18.26086956521739,
        "H": 23.736263736263737,
        "K": 23.406593406593405,
        "B": 19.12087912087912,
        "D": 11.538461538461538
    },
    "Actions_tfl_edges": {
        "HI": [
            23,
            51,
            18
        ],
        "FG": [
            26,
            43,
            23
        ],
        "CD": [
            28,
            55,
            9
        ],
        "GH": [
            34,
            40,
            18
        ],
        "JK": [
            18,
            62,
            12
        ]
    },
    "Load_per_bus_per_stop": {
        "bus3": {
            "I": 107.9375,
            "J": 102.75,
            "K": 95.25,
            "L": 87.625,
            "A": 78.33333333333333,
            "B": 70,
            "C": 66.13333333333334,
            "D": 65.06666666666666,
            "E": 63.733333333333334,
            "F": 84.46666666666667,
            "G": 111.6,
            "H": 118.66666666666667
        },
        "bus2": {
            "F": 98.625,
            "G": 130.625,
            "H": 140.4375,
            "I": 137.875,
            "J": 131.375,
            "K": 122.46666666666667,
            "L": 112.6,
            "A": 102.26666666666667,
            "B": 92.2,
            "C": 85.13333333333334,
            "D": 83.4,
            "E": 82.73333333333333
        },
        "bus1": {
            "E": 73.1875,
            "F": 95.3125,
            "G": 126.25,
            "H": 135.625,
            "I": 133.93333333333334,
            "J": 128.26666666666668,
            "K": 119.06666666666666,
            "L": 107,
            "A": 97.66666666666667,
            "B": 88.26666666666667,
            "C": 83.06666666666666,
            "D": 79.93333333333334
        },
        "bus4": {
            "L": 107.9375,
            "A": 99.4375,
            "B": 89.33333333333333,
            "C": 82.46666666666667,
            "D": 78.86666666666666,
            "E": 78.86666666666666,
            "F": 107,
            "G": 146.13333333333333,
            "H": 153.73333333333332,
            "I": 149.8,
            "J": 139.93333333333334,
            "K": 129.33333333333334
        },
        "bus0": {
            "C": 88.875,
            "D": 83.625,
            "E": 81.1875,
            "F": 105.33333333333333,
            "G": 141.2,
            "H": 151.06666666666666,
            "I": 148.53333333333333,
            "J": 141.13333333333333,
            "K": 132,
            "L": 122.8,
            "A": 112.66666666666667,
            "B": 100.46666666666667
        },
        "bus5": {
            "A": 84,
            "B": 76.125,
            "C": 72.875,
            "D": 69.86666666666666,
            "E": 67.8,
            "F": 87.26666666666667,
            "G": 118.53333333333333,
            "H": 125.8,
            "I": 121,
            "J": 115.13333333333334,
            "K": 107.13333333333334,
            "L": 99.13333333333334
        }
    },
    "Obs_and_actions_busses": {
        "0": -198.09979484428007,
        "3": 261.582900594401,
        "5": 396.1484128844602
    },
    "Obs_and_actions_tfls": {
        "0": -353.1185757292621,
        "2": 9.087651630261204,
        "1": 286.2122477455573
    }
}