{
    "Average_holding_time": 27.625698324022345,
    "Average_holding_actions": [
        650,
        0,
        377,
        0,
        47,
        0
    ],
    "Average_travel_time_passengers": 2832.351656589276,
    "Average_passenger_waiting_time": 348.70535835225536,
    "Average_passenger_in_vehicle_time": 2483.6462982370226,
    "Average_speed_busses": 0.04475,
    "Average_experienced_crowding": 117.20854831696883,
    "Average_covariation_headway": 0.34863938629651825,
    "Average_covariation_headway_stops": {
        "G": 0.25822463990920336,
        "I": 0.2798881903175938,
        "E": 0.2793994326271068,
        "A": 0.23029805042750384,
        "B": 0.23894995478068004,
        "C": 0.25430110040223597,
        "H": 0.27929844806530507,
        "J": 0.24425211747934641,
        "F": 0.24555458124756832,
        "D": 0.2636257977808574,
        "K": 0.22715747389450008,
        "L": 0.21004516060279982
    },
    "Average_excess_waiting_time": {
        "G": 77.41757577154658,
        "I": 79.83573200983818,
        "E": 81.89316051930359,
        "A": 75.82668917720815,
        "B": 75.2254401079104,
        "C": 77.09571097784078,
        "H": 81.84884707720613,
        "J": 75.73038338815581,
        "F": 77.8096995612076,
        "D": 81.61312286684557,
        "K": 74.97381436011608,
        "L": 74.63508062261383
    },
    "Holding_per_stop": {
        "I": 33,
        "G": 33.666666666666664,
        "E": 38.333333333333336,
        "C": 14.333333333333334,
        "A": 13.820224719101123,
        "B": 19.666666666666668,
        "J": 39,
        "H": 29.325842696629213,
        "D": 23.258426966292134,
        "F": 34.38202247191011,
        "K": 31.348314606741575,
        "L": 21.235955056179776
    },
    "Actions_tfl_edges": {
        "FG": [
            0,
            13,
            77
        ],
        "HI": [
            0,
            12,
            78
        ],
        "GH": [
            0,
            26,
            64
        ],
        "CD": [
            0,
            6,
            84
        ],
        "JK": [
            0,
            7,
            83
        ]
    },
    "Load_per_bus_per_stop": {
        "bus3": {
            "G": 120.73333333333333,
            "H": 126.33333333333333,
            "I": 124.6,
            "J": 119,
            "K": 110.93333333333334,
            "L": 100.73333333333333,
            "A": 93.46666666666667,
            "B": 87.06666666666666,
            "C": 82.2,
            "D": 80.66666666666667,
            "E": 78.6,
            "F": 98.21428571428571
        },
        "bus4": {
            "I": 128.06666666666666,
            "J": 123.53333333333333,
            "K": 116.33333333333333,
            "L": 106.86666666666666,
            "A": 96.66666666666667,
            "B": 87.6,
            "C": 81,
            "D": 78.2,
            "E": 76.06666666666666,
            "F": 98.73333333333333,
            "G": 133.4,
            "H": 141.42857142857142
        },
        "bus2": {
            "E": 76,
            "F": 102.73333333333333,
            "G": 132.13333333333333,
            "H": 141.86666666666667,
            "I": 136.86666666666667,
            "J": 127.86666666666666,
            "K": 118,
            "L": 108.86666666666666,
            "A": 97.06666666666666,
            "B": 88.6,
            "C": 82.73333333333333,
            "D": 80.92857142857143
        },
        "bus5": {
            "A": 90.46666666666667,
            "B": 83.4,
            "C": 80,
            "D": 75.86666666666666,
            "E": 73.8,
            "F": 96.13333333333334,
            "G": 128.06666666666666,
            "H": 137.8,
            "I": 135.6,
            "J": 127.93333333333334,
            "K": 116.64285714285714,
            "L": 108
        },
        "bus0": {
            "B": 97.33333333333333,
            "C": 93.66666666666667,
            "D": 90.13333333333334,
            "E": 88.13333333333334,
            "F": 114.86666666666666,
            "G": 152.33333333333334,
            "H": 160.86666666666667,
            "I": 159.8,
            "J": 150.73333333333332,
            "K": 139.13333333333333,
            "L": 126.73333333333333,
            "A": 116
        },
        "bus1": {
            "C": 81.06666666666666,
            "D": 77.86666666666666,
            "E": 77.46666666666667,
            "F": 98.46666666666667,
            "G": 131.73333333333332,
            "H": 142.53333333333333,
            "I": 140.73333333333332,
            "J": 132.46666666666667,
            "K": 123.06666666666666,
            "L": 112.06666666666666,
            "A": 102,
            "B": 90.6
        }
    },
    "Obs_and_actions_busses": {
        "5": 334.9313061482472,
        "2": 92.55109475294616,
        "0": -246.2715506659664
    },
    "Obs_and_actions_tfls": {
        "2": 134.92268310356135,
        "1": -346.8446051518857
    }
}