{
    "Average_holding_time": 27.711627906976744,
    "Average_holding_actions": [
        730,
        0,
        244,
        0,
        101,
        0
    ],
    "Average_travel_time_passengers": 2818.3129488055297,
    "Average_passenger_waiting_time": 354.85422787517,
    "Average_passenger_in_vehicle_time": 2463.4587209303604,
    "Average_speed_busses": 0.04479166666666667,
    "Average_experienced_crowding": 119.25803445195817,
    "Average_covariation_headway": 0.38437485273037103,
    "Average_covariation_headway_stops": {
        "G": 0.306538314238695,
        "J": 0.29958952115204834,
        "L": 0.2645025279371174,
        "F": 0.2905605139739653,
        "H": 0.31714510176920074,
        "A": 0.24780907721524575,
        "B": 0.27178764287656726,
        "I": 0.3213143579812292,
        "K": 0.27562806715632404,
        "C": 0.26917014666966854,
        "D": 0.28563162222803823,
        "E": 0.30002323961507216
    },
    "Average_excess_waiting_time": {
        "G": 84.51170048153313,
        "J": 84.73234835058798,
        "L": 79.19934333063838,
        "F": 84.4921144906782,
        "H": 88.8039775093975,
        "A": 76.26299527743646,
        "B": 78.14259201928621,
        "I": 90.77192897645875,
        "K": 83.45924047230994,
        "C": 80.05720980559045,
        "D": 84.00770305950135,
        "E": 88.7716565613049
    },
    "Holding_per_stop": {
        "G": 41.333333333333336,
        "J": 30.333333333333332,
        "L": 17,
        "H": 21.333333333333332,
        "A": 17.666666666666668,
        "B": 16.333333333333332,
        "F": 34.71910112359551,
        "I": 40.1123595505618,
        "K": 27.97752808988764,
        "C": 17.333333333333332,
        "D": 22.584269662921347,
        "E": 46.17977528089887
    },
    "Actions_tfl_edges": {
        "FG": [
            40,
            23,
            27
        ],
        "GH": [
            39,
            29,
            22
        ],
        "JK": [
            20,
            14,
            56
        ],
        "HI": [
            44,
            20,
            26
        ],
        "CD": [
            48,
            25,
            17
        ]
    },
    "Load_per_bus_per_stop": {
        "bus2": {
            "G": 134.13333333333333,
            "H": 142.73333333333332,
            "I": 140.06666666666666,
            "J": 134.06666666666666,
            "K": 124.53333333333333,
            "L": 113.6,
            "A": 102.33333333333333,
            "B": 92.26666666666667,
            "C": 87.6,
            "D": 84.8,
            "E": 83.8,
            "F": 108.86666666666666
        },
        "bus3": {
            "J": 124.06666666666666,
            "K": 115.8,
            "L": 106.4,
            "A": 97.13333333333334,
            "B": 87.46666666666667,
            "C": 81.6,
            "D": 77.86666666666666,
            "E": 75.46666666666667,
            "F": 98.26666666666667,
            "G": 133.46666666666667,
            "H": 142.66666666666666,
            "I": 140.28571428571428
        },
        "bus4": {
            "L": 96,
            "A": 86.86666666666666,
            "B": 78.53333333333333,
            "C": 72.2,
            "D": 67.46666666666667,
            "E": 66.33333333333333,
            "F": 86.73333333333333,
            "G": 117.4,
            "H": 125.66666666666667,
            "I": 122.93333333333334,
            "J": 118.53333333333333,
            "K": 112.85714285714286
        },
        "bus1": {
            "F": 112.33333333333333,
            "G": 152.2,
            "H": 163.33333333333334,
            "I": 159.6,
            "J": 151,
            "K": 140.2,
            "L": 129.53333333333333,
            "A": 117.8,
            "B": 106.2,
            "C": 101.46666666666667,
            "D": 94.78571428571429,
            "E": 92.5
        },
        "bus5": {
            "A": 74.26666666666667,
            "B": 67.06666666666666,
            "C": 63.86666666666667,
            "D": 62.6,
            "E": 62.06666666666667,
            "F": 79.73333333333333,
            "G": 104,
            "H": 111.86666666666666,
            "I": 108.73333333333333,
            "J": 101.86666666666666,
            "K": 94.53333333333333,
            "L": 86.2
        },
        "bus0": {
            "B": 97.73333333333333,
            "C": 90.2,
            "D": 85.06666666666666,
            "E": 87.2,
            "F": 118.06666666666666,
            "G": 162.66666666666666,
            "H": 171.66666666666666,
            "I": 166,
            "J": 155.93333333333334,
            "K": 145.6,
            "L": 133,
            "A": 118.4
        }
    },
    "Obs_and_actions_busses": {
        "0": -231.23801595019964,
        "5": 330.3545085875727,
        "2": 108.83528188566461
    },
    "Obs_and_actions_tfls": {
        "1": -105.22911476832722,
        "0": 41.13018938117468,
        "2": 233.34571807174473
    }
}