{
    "Average_holding_time": 18.255578093306287,
    "Average_holding_actions": [
        367,
        0,
        107,
        9,
        10,
        0
    ],
    "Average_travel_time_passengers": 9467.08698832458,
    "Average_passenger_waiting_time": 3512.738846439769,
    "Average_passenger_in_vehicle_time": 5954.348141885372,
    "Average_speed_busses": 0.020541666666666666,
    "Average_experienced_crowding": 1103.8958365608235,
    "Average_covariation_headway": 2.3020547777071707,
    "Average_covariation_headway_stops": {
        "H": 2.2005572001665454,
        "G": 1.9172764251119472,
        "I": 2.337845879374039,
        "F": 1.9307309858601678,
        "E": 2.252650119046999,
        "L": 2.344375029535744,
        "J": 2.346745378255772,
        "A": 2.328833407711809,
        "K": 2.326130136370036,
        "B": 2.305713927952213,
        "C": 2.2759269901906327,
        "D": 2.2396601847925943
    },
    "Average_excess_waiting_time": {
        "H": 3489.29447819465,
        "G": 2770.048197821593,
        "I": 3833.547510677149,
        "F": 3246.3015607787684,
        "E": 3824.605918035928,
        "L": 3913.4887885201224,
        "J": 3916.176609350383,
        "A": 3920.522096549712,
        "K": 3904.7471229000694,
        "B": 3908.738448620051,
        "C": 3880.0504415658916,
        "D": 3828.1538820011474
    },
    "Holding_per_stop": {
        "H": 20.25,
        "I": 21.21951219512195,
        "G": 15.384615384615385,
        "F": 20.526315789473685,
        "E": 12.55813953488372,
        "L": 16.428571428571427,
        "J": 19.75609756097561,
        "A": 17.857142857142858,
        "K": 18.29268292682927,
        "B": 19.285714285714285,
        "C": 18.571428571428573,
        "D": 19.285714285714285
    },
    "Actions_tfl_edges": {
        "FG": [
            10,
            27,
            2
        ],
        "GH": [
            13,
            26,
            1
        ],
        "HI": [
            8,
            31,
            2
        ],
        "JK": [
            5,
            33,
            3
        ],
        "CD": [
            6,
            35,
            1
        ]
    },
    "Load_per_bus_per_stop": {
        "bus3": {
            "H": 29.571428571428573,
            "I": 28.571428571428573,
            "J": 26,
            "K": 23.428571428571427,
            "L": 20.857142857142858,
            "A": 19.285714285714285,
            "B": 16.857142857142858,
            "C": 14.857142857142858,
            "D": 11.571428571428571,
            "E": 10.428571428571429,
            "F": 16.166666666666668,
            "G": 33.333333333333336
        },
        "bus2": {
            "G": 14.714285714285714,
            "H": 14.714285714285714,
            "I": 14.857142857142858,
            "J": 14,
            "K": 13.285714285714286,
            "L": 12.714285714285714,
            "A": 11.857142857142858,
            "B": 10.428571428571429,
            "C": 11.285714285714286,
            "D": 11.428571428571429,
            "E": 10.571428571428571,
            "F": 12.333333333333334
        },
        "bus4": {
            "I": 167.42857142857142,
            "J": 155.28571428571428,
            "K": 139.14285714285714,
            "L": 124.42857142857143,
            "A": 110.85714285714286,
            "B": 98.28571428571429,
            "C": 84.28571428571429,
            "D": 76.71428571428571,
            "E": 71.57142857142857,
            "F": 116,
            "G": 200.33333333333334,
            "H": 207.5
        },
        "bus1": {
            "F": 18.142857142857142,
            "G": 23.142857142857142,
            "H": 24.857142857142858,
            "I": 24.142857142857142,
            "J": 22,
            "K": 20.142857142857142,
            "L": 19,
            "A": 18.142857142857142,
            "B": 16.714285714285715,
            "C": 16.571428571428573,
            "D": 14.714285714285714,
            "E": 14.428571428571429
        },
        "bus0": {
            "E": 19.25,
            "F": 30.857142857142858,
            "G": 36,
            "H": 38.42857142857143,
            "I": 37.142857142857146,
            "J": 35.285714285714285,
            "K": 33.142857142857146,
            "L": 30.857142857142858,
            "A": 28.285714285714285,
            "B": 26,
            "C": 23.142857142857142,
            "D": 22
        },
        "bus5": {
            "L": 996.2857142857143,
            "A": 920.5714285714286,
            "B": 846.4285714285714,
            "C": 806.8571428571429,
            "D": 795.1428571428571,
            "E": 799.7142857142857,
            "F": 1056.7142857142858,
            "G": 1313,
            "H": 1424.1666666666667,
            "I": 1397.5,
            "J": 1358.5,
            "K": 1263.1666666666667
        }
    },
    "Obs_and_actions_busses": {
        "0": -1410.905853662426,
        "2": 5363.389900239146,
        "5": 267.8367142747501,
        "4": -7097.232418147294
    },
    "Obs_and_actions_tfls": {
        "0": -18.579311465508955,
        "2": 214.2909840165793,
        "1": 3.618748681794689
    }
}