{
    "Average_holding_time": 29.235849056603772,
    "Average_holding_actions": [
        571,
        152,
        230,
        0,
        50,
        0
    ],
    "Average_travel_time_passengers": 2839.907723538131,
    "Average_passenger_waiting_time": 347.7062193988431,
    "Average_passenger_in_vehicle_time": 2492.2015041392638,
    "Average_speed_busses": 0.04416666666666667,
    "Average_experienced_crowding": 115.31922736505436,
    "Average_covariation_headway": 0.28935520336025405,
    "Average_covariation_headway_stops": {
        "G": 0.20810845197533973,
        "J": 0.19694917650677154,
        "F": 0.21008064729694123,
        "H": 0.2000038823448348,
        "A": 0.1783354155907922,
        "K": 0.19702593814197805,
        "C": 0.19864114900215415,
        "I": 0.19366322633684263,
        "L": 0.16728304339001748,
        "D": 0.22881861051296612,
        "B": 0.18207015975956298,
        "E": 0.2113411180402868
    },
    "Average_excess_waiting_time": {
        "G": 73.64053042638301,
        "J": 73.4893193268324,
        "F": 76.35091598024485,
        "H": 73.89794980737764,
        "A": 69.42958381083463,
        "K": 71.72214334998313,
        "C": 72.65472630441849,
        "I": 75.45683384523852,
        "L": 70.28711381005695,
        "D": 79.42666258452107,
        "B": 72.253831055881,
        "E": 78.447788678873
    },
    "Holding_per_stop": {
        "G": 31.01123595505618,
        "A": 25.617977528089888,
        "H": 22.84090909090909,
        "K": 41.79775280898876,
        "C": 11.460674157303371,
        "J": 42.27272727272727,
        "F": 44.31818181818182,
        "I": 27.272727272727273,
        "L": 30.34090909090909,
        "B": 8.863636363636363,
        "D": 30.681818181818183,
        "E": 34.43181818181818
    },
    "Actions_tfl_edges": {
        "FG": [
            32,
            48,
            9
        ],
        "JK": [
            80,
            8,
            1
        ],
        "GH": [
            24,
            63,
            2
        ],
        "HI": [
            40,
            32,
            16
        ],
        "CD": [
            77,
            7,
            5
        ]
    },
    "Load_per_bus_per_stop": {
        "bus2": {
            "G": 130.33333333333334,
            "H": 139.53333333333333,
            "I": 137.13333333333333,
            "J": 130.33333333333334,
            "K": 121.46666666666667,
            "L": 111.06666666666666,
            "A": 99.8,
            "B": 88.86666666666666,
            "C": 84.4,
            "D": 81.85714285714286,
            "E": 79.42857142857143,
            "F": 102.85714285714286
        },
        "bus3": {
            "J": 112.93333333333334,
            "K": 105.53333333333333,
            "L": 96.6,
            "A": 91.13333333333334,
            "B": 82.8,
            "C": 77,
            "D": 72.26666666666667,
            "E": 70.53333333333333,
            "F": 91.5,
            "G": 124.64285714285714,
            "H": 129.5,
            "I": 126.42857142857143
        },
        "bus1": {
            "F": 102.13333333333334,
            "G": 135.53333333333333,
            "H": 144.4,
            "I": 141.2,
            "J": 133.33333333333334,
            "K": 123.46666666666667,
            "L": 113.13333333333334,
            "A": 104.33333333333333,
            "B": 92.64285714285714,
            "C": 87.28571428571429,
            "D": 83.42857142857143,
            "E": 82.21428571428571
        },
        "bus5": {
            "A": 92.46666666666667,
            "B": 84.66666666666667,
            "C": 80.46666666666667,
            "D": 78.8,
            "E": 77.26666666666667,
            "F": 106.06666666666666,
            "G": 141.13333333333333,
            "H": 150,
            "I": 143.33333333333334,
            "J": 133,
            "K": 121.21428571428571,
            "L": 111.64285714285714
        },
        "bus4": {
            "K": 116.86666666666666,
            "L": 106.33333333333333,
            "A": 96.86666666666666,
            "B": 87.26666666666667,
            "C": 83.66666666666667,
            "D": 82,
            "E": 80.33333333333333,
            "F": 104.66666666666667,
            "G": 138,
            "H": 147.4,
            "I": 141.57142857142858,
            "J": 134.71428571428572
        },
        "bus0": {
            "C": 85.6,
            "D": 82.86666666666666,
            "E": 80.53333333333333,
            "F": 109.06666666666666,
            "G": 148.13333333333333,
            "H": 155.73333333333332,
            "I": 152.2,
            "J": 143.46666666666667,
            "K": 134.8,
            "L": 122.85714285714286,
            "A": 110.71428571428571,
            "B": 99.14285714285714
        }
    },
    "Obs_and_actions_busses": {
        "0": -262.63860341862926,
        "1": -25.917413904575277,
        "5": 328.1119480457513,
        "3": 177.8708185582134,
        "2": 69.78670541040223
    },
    "Obs_and_actions_tfls": {
        "1": -152.17236252776897,
        "0": 180.85411499334475,
        "2": 22.923774775716346
    }
}4870268,
        "2": 24.980794703332982
    }
}