{
    "Average_holding_time": 32.183364839319474,
    "Average_holding_actions": [
        515,
        251,
        0,
        0,
        4,
        0
    ],
    "Average_travel_time_passengers": 2875.9132246779704,
    "Average_passenger_waiting_time": 357.62579354049456,
    "Average_passenger_in_vehicle_time": 2518.2874311375513,
    "Average_speed_busses": 0.044083333333333335,
    "Average_experienced_crowding": 118.29644583415106,
    "Average_covariation_headway": 0.336984594275941,
    "Average_covariation_headway_stops": {
        "G": 0.25556218284144694,
        "E": 0.27547086586609093,
        "K": 0.20818399960054235,
        "L": 0.20218135750232927,
        "H": 0.242060388104078,
        "D": 0.28501852412053225,
        "A": 0.23518459080829227,
        "F": 0.24367873680848928,
        "I": 0.23771386459210855,
        "B": 0.23628953225605956,
        "J": 0.23077857225420134,
        "C": 0.26785184564751285
    },
    "Average_excess_waiting_time": {
        "G": 80.39063717249405,
        "E": 84.30337892091688,
        "K": 77.67541158183872,
        "L": 74.74432473369257,
        "H": 80.01447743541581,
        "D": 88.48563631311015,
        "A": 77.23854573109071,
        "F": 81.45706769259579,
        "I": 81.53954849788227,
        "B": 79.92304907364905,
        "J": 82.25564040215448,
        "C": 87.46914870225271
    },
    "Holding_per_stop": {
        "G": 39.438202247191015,
        "E": 42.47191011235955,
        "L": 29.65909090909091,
        "H": 29.318181818181817,
        "A": 27.97752808988764,
        "K": 35.45454545454545,
        "D": 22.84090909090909,
        "F": 35.11363636363637,
        "I": 41.59090909090909,
        "B": 22.84090909090909,
        "J": 43.10344827586207,
        "C": 16.363636363636363
    },
    "Actions_tfl_edges": {
        "CD": [
            86,
            0,
            3
        ],
        "FG": [
            89,
            0,
            0
        ],
        "JK": [
            87,
            0,
            1
        ],
        "GH": [
            88,
            0,
            1
        ],
        "HI": [
            88,
            0,
            0
        ]
    },
    "Load_per_bus_per_stop": {
        "bus2": {
            "G": 103.06666666666666,
            "H": 109.46666666666667,
            "I": 107.46666666666667,
            "J": 102.73333333333333,
            "K": 95.2,
            "L": 87.2,
            "A": 79.66666666666667,
            "B": 71.26666666666667,
            "C": 66.4,
            "D": 61.285714285714285,
            "E": 61.785714285714285,
            "F": 81.07142857142857
        },
        "bus1": {
            "E": 73.26666666666667,
            "F": 97.8,
            "G": 133.73333333333332,
            "H": 142.66666666666666,
            "I": 139.73333333333332,
            "J": 131.46666666666667,
            "K": 120.8,
            "L": 110.46666666666667,
            "A": 100.8,
            "B": 87.71428571428571,
            "C": 82.07142857142857,
            "D": 77.64285714285714
        },
        "bus3": {
            "K": 112.53333333333333,
            "L": 104.06666666666666,
            "A": 95.4,
            "B": 87.06666666666666,
            "C": 81.53333333333333,
            "D": 79.2,
            "E": 81,
            "F": 105.57142857142857,
            "G": 139.28571428571428,
            "H": 146.64285714285714,
            "I": 142.14285714285714,
            "J": 131.28571428571428
        },
        "bus4": {
            "L": 118.66666666666667,
            "A": 109.06666666666666,
            "B": 98.26666666666667,
            "C": 92.93333333333334,
            "D": 88.2,
            "E": 86.13333333333334,
            "F": 109.73333333333333,
            "G": 147.33333333333334,
            "H": 155.13333333333333,
            "I": 154.85714285714286,
            "J": 148,
            "K": 137.64285714285714
        },
        "bus0": {
            "D": 82.13333333333334,
            "E": 81.33333333333333,
            "F": 107,
            "G": 144.73333333333332,
            "H": 154.2,
            "I": 151.13333333333333,
            "J": 145.26666666666668,
            "K": 135.93333333333334,
            "L": 123.07142857142857,
            "A": 109.21428571428571,
            "B": 96.78571428571429,
            "C": 90.35714285714286
        },
        "bus5": {
            "A": 104.2,
            "B": 93.46666666666667,
            "C": 88.73333333333333,
            "D": 86.46666666666667,
            "E": 86.86666666666666,
            "F": 112.4,
            "G": 145.86666666666667,
            "H": 153.46666666666667,
            "I": 150.06666666666666,
            "J": 143,
            "K": 134.28571428571428,
            "L": 122.28571428571429
        }
    },
    "Obs_and_actions_busses": {
        "0": -295.4020868236232,
        "1": -14.593817260225824,
        "3": 147.32015174496198,
        "5": 589.2950866158478
    },
    "Obs_and_actions_tfls": {
        "2": 559.2627236713935,
        "0": 62.98839568323287
    }
}