{
    "Average_holding_time": 53.61581920903955,
    "Average_holding_actions": [
        250,
        41,
        0,
        138,
        25,
        0
    ],
    "Average_travel_time_passengers": 7939.498187913307,
    "Average_passenger_waiting_time": 2631.9679085444654,
    "Average_passenger_in_vehicle_time": 5307.530279368506,
    "Average_speed_busses": 0.022125,
    "Average_experienced_crowding": 842.8248902016661,
    "Average_covariation_headway": 2.055993684216269,
    "Average_covariation_headway_stops": {
        "H": 1.9401657224766915,
        "I": 2.0743679360752396,
        "J": 2.105689410964847,
        "D": 1.9682853931278268,
        "K": 2.118082841129749,
        "C": 2.073676583735169,
        "E": 1.9926892408785546,
        "L": 2.110260962307498,
        "F": 1.7509452703293242,
        "A": 2.10610993600158,
        "G": 1.6562976731503254,
        "B": 2.0846457565034267
    },
    "Average_excess_waiting_time": {
        "H": 2688.5672473428367,
        "I": 2985.840549448736,
        "J": 3030.09001970209,
        "D": 3055.987054539032,
        "K": 3035.018077412248,
        "C": 3038.5895551546782,
        "E": 2610.1642683768396,
        "L": 3062.8920317080074,
        "F": 2178.875223891894,
        "A": 3095.7469562501137,
        "G": 2074.6481744156,
        "B": 3089.603727157956
    },
    "Holding_per_stop": {
        "I": 51.13636363636363,
        "J": 51.333333333333336,
        "H": 49.53488372093023,
        "D": 58.57142857142857,
        "K": 52.17391304347826,
        "C": 58.723404255319146,
        "E": 55.714285714285715,
        "L": 53.47826086956522,
        "A": 52.17391304347826,
        "F": 50.714285714285715,
        "G": 52.142857142857146,
        "B": 57.391304347826086
    },
    "Actions_tfl_edges": {
        "CD": [
            10,
            9,
            29
        ],
        "GH": [
            12,
            1,
            30
        ],
        "HI": [
            11,
            4,
            29
        ],
        "JK": [
            9,
            4,
            33
        ],
        "FG": [
            12,
            6,
            24
        ]
    },
    "Load_per_bus_per_stop": {
        "bus2": {
            "H": 9.5,
            "I": 9,
            "J": 7.875,
            "K": 8.625,
            "L": 7.375,
            "A": 6.5,
            "B": 5.75,
            "C": 5.625,
            "D": 7.142857142857143,
            "E": 8.285714285714286,
            "F": 10.571428571428571,
            "G": 11.142857142857142
        },
        "bus3": {
            "I": 8,
            "J": 6.75,
            "K": 6.875,
            "L": 6.375,
            "A": 6.375,
            "B": 5.375,
            "C": 4.75,
            "D": 4.285714285714286,
            "E": 3.857142857142857,
            "F": 5.857142857142857,
            "G": 9.857142857142858,
            "H": 9.142857142857142
        },
        "bus4": {
            "J": 37.125,
            "K": 33.75,
            "L": 29.75,
            "A": 26.125,
            "B": 22,
            "C": 18.625,
            "D": 19.857142857142858,
            "E": 20.142857142857142,
            "F": 26.428571428571427,
            "G": 46.285714285714285,
            "H": 48.285714285714285,
            "I": 45.42857142857143
        },
        "bus1": {
            "D": 606.125,
            "E": 518,
            "F": 705.1428571428571,
            "G": 961.2857142857143,
            "H": 1049.5714285714287,
            "I": 1033.857142857143,
            "J": 997.8571428571429,
            "K": 938,
            "L": 867.2857142857143,
            "A": 799.4285714285714,
            "B": 736.7142857142857,
            "C": 707.8571428571429
        },
        "bus5": {
            "K": 205.125,
            "L": 187.875,
            "A": 169,
            "B": 150.625,
            "C": 141.875,
            "D": 153.71428571428572,
            "E": 154.71428571428572,
            "F": 203.28571428571428,
            "G": 263.7142857142857,
            "H": 276.2857142857143,
            "I": 271.2857142857143,
            "J": 255
        },
        "bus0": {
            "C": 73.5,
            "D": 57.857142857142854,
            "E": 56.857142857142854,
            "F": 95.85714285714286,
            "G": 164.85714285714286,
            "H": 175.71428571428572,
            "I": 165,
            "J": 152.42857142857142,
            "K": 137.71428571428572,
            "L": 121.57142857142857,
            "A": 107.42857142857143,
            "B": 93.42857142857143
        }
    },
    "Obs_and_actions_busses": {
        "4": 5627.476469655718,
        "1": 2065.953883347726,
        "0": -26.467238943980288,
        "3": -1830.3746610945257,
        "5": -6232.01837686174
    },
    "Obs_and_actions_tfls": {
        "2": -530.8461589993963,
        "0": 2747.637903715503,
        "1": -25.42512636824819
    }
}