{
    "Average_holding_time": 23.642201834862384,
    "Average_holding_actions": [
        779,
        0,
        232,
        0,
        79,
        0
    ],
    "Average_travel_time_passengers": 2781.7252528203385,
    "Average_passenger_waiting_time": 343.0317464423883,
    "Average_passenger_in_vehicle_time": 2438.6935063779115,
    "Average_speed_busses": 0.04541666666666667,
    "Average_experienced_crowding": 113.3141989770758,
    "Average_covariation_headway": 0.3526101631344637,
    "Average_covariation_headway_stops": {
        "H": 0.26673186140012706,
        "J": 0.2599823849909269,
        "E": 0.25728609996122953,
        "F": 0.24471716106083766,
        "D": 0.2470649447202402,
        "I": 0.24595668796191889,
        "B": 0.25126531056417,
        "G": 0.2353271430911936,
        "K": 0.23110543924417787,
        "L": 0.23119249655510005,
        "C": 0.23970155185639597,
        "A": 0.2525866217265153
    },
    "Average_excess_waiting_time": {
        "H": 71.70677096882656,
        "J": 69.76841141844369,
        "E": 73.25163735280023,
        "F": 69.06841920080547,
        "D": 73.40822223232533,
        "I": 69.9372820540396,
        "B": 74.53762971974436,
        "G": 69.12732728589117,
        "K": 67.87876240772465,
        "L": 69.87726573740036,
        "C": 74.59519821462158,
        "A": 74.8247190997921
    },
    "Holding_per_stop": {
        "H": 30.652173913043477,
        "J": 28.043478260869566,
        "E": 42.857142857142854,
        "F": 29.01098901098901,
        "I": 30,
        "D": 17.333333333333332,
        "G": 28.681318681318682,
        "K": 16.813186813186814,
        "B": 17.666666666666668,
        "L": 10.87912087912088,
        "C": 14,
        "A": 17.333333333333332
    },
    "Actions_tfl_edges": {
        "CD": [
            54,
            13,
            24
        ],
        "GH": [
            64,
            7,
            21
        ],
        "HI": [
            59,
            6,
            27
        ],
        "JK": [
            28,
            3,
            61
        ],
        "FG": [
            43,
            15,
            33
        ]
    },
    "Load_per_bus_per_stop": {
        "bus4": {
            "H": 106.625,
            "I": 107.125,
            "J": 102.1875,
            "K": 97.4,
            "L": 87.6,
            "A": 79.6,
            "B": 72.26666666666667,
            "C": 69,
            "D": 66.4,
            "E": 65.13333333333334,
            "F": 83.93333333333334,
            "G": 107.26666666666667
        },
        "bus5": {
            "J": 116.75,
            "K": 109.125,
            "L": 100.375,
            "A": 91.6,
            "B": 81.93333333333334,
            "C": 76.73333333333333,
            "D": 72.53333333333333,
            "E": 69.93333333333334,
            "F": 93.73333333333333,
            "G": 126.66666666666667,
            "H": 134.2,
            "I": 130.06666666666666
        },
        "bus2": {
            "E": 77.4375,
            "F": 100.13333333333334,
            "G": 137,
            "H": 146.66666666666666,
            "I": 143.46666666666667,
            "J": 136.06666666666666,
            "K": 125.53333333333333,
            "L": 114.8,
            "A": 103.73333333333333,
            "B": 92.33333333333333,
            "C": 85.8,
            "D": 83
        },
        "bus3": {
            "F": 92.375,
            "G": 125,
            "H": 134.875,
            "I": 130.66666666666666,
            "J": 125.46666666666667,
            "K": 115.66666666666667,
            "L": 105.26666666666667,
            "A": 93.8,
            "B": 84.66666666666667,
            "C": 78.53333333333333,
            "D": 75.06666666666666,
            "E": 73.6
        },
        "bus1": {
            "D": 80.73333333333333,
            "E": 79.13333333333334,
            "F": 101.33333333333333,
            "G": 137.53333333333333,
            "H": 149.93333333333334,
            "I": 145.86666666666667,
            "J": 135.66666666666666,
            "K": 126.33333333333333,
            "L": 117.4,
            "A": 106.53333333333333,
            "B": 95.46666666666667,
            "C": 89.33333333333333
        },
        "bus0": {
            "B": 94.66666666666667,
            "C": 89.73333333333333,
            "D": 87.53333333333333,
            "E": 84.26666666666667,
            "F": 112.73333333333333,
            "G": 150.53333333333333,
            "H": 162.33333333333334,
            "I": 156.73333333333332,
            "J": 148.66666666666666,
            "K": 135,
            "L": 121.8,
            "A": 111.93333333333334
        }
    },
    "Obs_and_actions_busses": {
        "2": 108.7700584942965,
        "0": -216.4380882738147,
        "5": 284.7183947273842
    },
    "Obs_and_actions_tfls": {
        "1": 69.38565157011422,
        "2": 232.59908003637034,
        "0": -52.07157596684148
    }
}