{
    "Average_holding_time": 29.211267605633804,
    "Average_holding_actions": [
        546,
        260,
        0,
        0,
        0,
        0
    ],
    "Average_travel_time_passengers": 2835.7344888261655,
    "Average_passenger_waiting_time": 345.47373754012943,
    "Average_passenger_in_vehicle_time": 2490.260751286113,
    "Average_speed_busses": 0.044375,
    "Average_experienced_crowding": 117.37051887583488,
    "Average_covariation_headway": 0.3005031855727582,
    "Average_covariation_headway_stops": {
        "G": 0.22413789484542776,
        "L": 0.18230826624428853,
        "K": 0.19811703985284138,
        "A": 0.19325756594017082,
        "H": 0.2094708029991492,
        "B": 0.20282557126336662,
        "D": 0.23889611178001757,
        "I": 0.21286757920386773,
        "E": 0.21851702272550716,
        "C": 0.22542346443492564,
        "F": 0.1972445030076222,
        "J": 0.20202334554393256
    },
    "Average_excess_waiting_time": {
        "G": 74.97409681943304,
        "L": 70.34909770172209,
        "K": 74.54422021730608,
        "A": 69.74526395364654,
        "H": 74.64394111307752,
        "B": 69.84141404239966,
        "D": 75.46202299981758,
        "I": 76.37800165183592,
        "E": 74.28072395541813,
        "C": 75.9323527032758,
        "F": 73.225384234437,
        "J": 76.73980551619923
    },
    "Holding_per_stop": {
        "G": 39.10112359550562,
        "L": 29.325842696629213,
        "A": 24.9438202247191,
        "B": 12,
        "K": 38.18181818181818,
        "D": 23.93258426966292,
        "H": 20.224719101123597,
        "E": 37.41573033707865,
        "C": 12.134831460674157,
        "I": 36.13636363636363,
        "F": 35.79545454545455,
        "J": 41.93181818181818
    },
    "Actions_tfl_edges": {
        "CD": [
            89,
            0,
            1
        ],
        "FG": [
            89,
            0,
            0
        ],
        "JK": [
            88,
            0,
            1
        ],
        "GH": [
            89,
            0,
            0
        ],
        "HI": [
            89,
            0,
            0
        ]
    },
    "Load_per_bus_per_stop": {
        "bus2": {
            "G": 121.13333333333334,
            "H": 131.73333333333332,
            "I": 129.6,
            "J": 122.13333333333334,
            "K": 113.86666666666666,
            "L": 104.86666666666666,
            "A": 94.86666666666666,
            "B": 84.6,
            "C": 77.73333333333333,
            "D": 73,
            "E": 70.5,
            "F": 96.42857142857143
        },
        "bus4": {
            "L": 114.4,
            "A": 102,
            "B": 91.26666666666667,
            "C": 86.46666666666667,
            "D": 84.6,
            "E": 85.06666666666666,
            "F": 111.73333333333333,
            "G": 147.8,
            "H": 157.2,
            "I": 151.78571428571428,
            "J": 145.35714285714286,
            "K": 134.14285714285714
        },
        "bus3": {
            "K": 117.86666666666666,
            "L": 107.06666666666666,
            "A": 96.53333333333333,
            "B": 89.6,
            "C": 82.6,
            "D": 79.33333333333333,
            "E": 78.73333333333333,
            "F": 105.78571428571429,
            "G": 140.64285714285714,
            "H": 144.71428571428572,
            "I": 141.21428571428572,
            "J": 135
        },
        "bus5": {
            "A": 99.33333333333333,
            "B": 89.93333333333334,
            "C": 85.53333333333333,
            "D": 79.33333333333333,
            "E": 78.33333333333333,
            "F": 102.8,
            "G": 136.13333333333333,
            "H": 147.46666666666667,
            "I": 142.6,
            "J": 136,
            "K": 125.71428571428571,
            "L": 115.42857142857143
        },
        "bus0": {
            "B": 86.33333333333333,
            "C": 79.86666666666666,
            "D": 78.06666666666666,
            "E": 77.73333333333333,
            "F": 102.46666666666667,
            "G": 135.73333333333332,
            "H": 144.26666666666668,
            "I": 139.33333333333334,
            "J": 133.93333333333334,
            "K": 123.8,
            "L": 113.26666666666667,
            "A": 102.28571428571429
        },
        "bus1": {
            "D": 80.6,
            "E": 80.4,
            "F": 106.26666666666667,
            "G": 141.33333333333334,
            "H": 147.6,
            "I": 143.4,
            "J": 137.2,
            "K": 126.73333333333333,
            "L": 114.93333333333334,
            "A": 104.46666666666667,
            "B": 93.73333333333333,
            "C": 87.92857142857143
        }
    },
    "Obs_and_actions_busses": {
        "3": 148.79106145713575,
        "1": -13.47403800353858,
        "0": -267.78965876123283
    },
    "Obs_and_actions_tfls": {
        "0": 58.22187551111309,
        "2": 694.9546538129845
    }
}tfls": {
        "0": 56.252263635072474,
        "2": 684.6857440430351
    }
}