{
    "Average_holding_time": 16.89908256880734,
    "Average_holding_actions": [
        820,
        164,
        0,
        80,
        26,
        0
    ],
    "Average_travel_time_passengers": 2816.688257119915,
    "Average_passenger_waiting_time": 391.1496680689486,
    "Average_passenger_in_vehicle_time": 2425.5385890508915,
    "Average_speed_busses": 0.04541666666666667,
    "Average_experienced_crowding": 129.42067925325242,
    "Average_covariation_headway": 0.5907666453077465,
    "Average_covariation_headway_stops": {
        "H": 0.5133758728040035,
        "L": 0.4516512477281712,
        "F": 0.45579851211630246,
        "I": 0.4897519015947123,
        "E": 0.4645589802647065,
        "D": 0.46963261277782975,
        "A": 0.4493567280661555,
        "G": 0.4530963025956723,
        "J": 0.48192441448785095,
        "B": 0.45509370202742466,
        "K": 0.46854166199707264,
        "C": 0.47769231450055566
    },
    "Average_excess_waiting_time": {
        "H": 131.41487072490406,
        "L": 119.05151480718905,
        "F": 114.08118037856474,
        "I": 125.78805406340501,
        "E": 119.24134345653084,
        "D": 123.2823183319257,
        "A": 116.29611316076142,
        "G": 115.04023820662121,
        "J": 128.83384247634098,
        "B": 120.36945272421866,
        "K": 126.79725912791548,
        "C": 127.84961081168962
    },
    "Holding_per_stop": {
        "H": 24.782608695652176,
        "I": 15.326086956521738,
        "E": 17.142857142857142,
        "F": 25.108695652173914,
        "A": 7.912087912087912,
        "L": 12,
        "D": 16.153846153846153,
        "J": 16.333333333333332,
        "G": 15.164835164835164,
        "B": 12.857142857142858,
        "C": 17,
        "K": 22.921348314606742
    },
    "Actions_tfl_edges": {
        "CD": [
            17,
            65,
            9
        ],
        "GH": [
            1,
            76,
            15
        ],
        "HI": [
            1,
            80,
            11
        ],
        "FG": [
            2,
            79,
            11
        ],
        "JK": [
            8,
            76,
            6
        ]
    },
    "Load_per_bus_per_stop": {
        "bus3": {
            "H": 122.625,
            "I": 118,
            "J": 109.6875,
            "K": 105.4,
            "L": 98.53333333333333,
            "A": 89.13333333333334,
            "B": 80.66666666666667,
            "C": 75.8,
            "D": 72.13333333333334,
            "E": 71.8,
            "F": 96.66666666666667,
            "G": 127.2
        },
        "bus4": {
            "L": 138.66666666666666,
            "A": 126.93333333333334,
            "B": 114.66666666666667,
            "C": 106.73333333333333,
            "D": 105,
            "E": 101.86666666666666,
            "F": 134.53333333333333,
            "G": 184.6,
            "H": 194.13333333333333,
            "I": 188.73333333333332,
            "J": 178.93333333333334,
            "K": 160.21428571428572
        },
        "bus2": {
            "F": 60.0625,
            "G": 77,
            "H": 82.1875,
            "I": 80.375,
            "J": 80.2,
            "K": 76.6,
            "L": 70.8,
            "A": 64.4,
            "B": 58.2,
            "C": 54.8,
            "D": 52.666666666666664,
            "E": 49.53333333333333
        },
        "bus1": {
            "E": 75.875,
            "F": 102.25,
            "G": 136,
            "H": 143.93333333333334,
            "I": 136.73333333333332,
            "J": 128.4,
            "K": 120.33333333333333,
            "L": 108.8,
            "A": 99.2,
            "B": 88.93333333333334,
            "C": 83.66666666666667,
            "D": 83.46666666666667
        },
        "bus0": {
            "D": 71.5,
            "E": 69.75,
            "F": 87.73333333333333,
            "G": 121.33333333333333,
            "H": 129.13333333333333,
            "I": 127.06666666666666,
            "J": 119.33333333333333,
            "K": 110.6,
            "L": 100.33333333333333,
            "A": 90.93333333333334,
            "B": 82.46666666666667,
            "C": 77.6
        },
        "bus5": {
            "A": 109.25,
            "B": 98.9375,
            "C": 90.86666666666666,
            "D": 87.73333333333333,
            "E": 84.8,
            "F": 117.26666666666667,
            "G": 154.86666666666667,
            "H": 164.2,
            "I": 158.73333333333332,
            "J": 149.66666666666666,
            "K": 140.06666666666666,
            "L": 127.4
        }
    },
    "Obs_and_actions_busses": {
        "0": -245.66438812310594,
        "1": 230.54321759643662,
        "4": 360.2949482361882,
        "5": 601.7449988184737
    },
    "Obs_and_actions_tfls": {
        "0": 557.8816915927977,
        "1": 144.1736060504581,
        "2": -770.2182026154737
    }
}