{
    "Average_holding_time": 22.211009174311926,
    "Average_holding_actions": [
        802,
        0,
        211,
        0,
        77,
        0
    ],
    "Average_travel_time_passengers": 2740.031556784044,
    "Average_passenger_waiting_time": 338.6277566688101,
    "Average_passenger_in_vehicle_time": 2401.403800115267,
    "Average_speed_busses": 0.04541666666666667,
    "Average_experienced_crowding": 113.75789333816171,
    "Average_covariation_headway": 0.3269695591323879,
    "Average_covariation_headway_stops": {
        "H": 0.2421119439476814,
        "I": 0.25466238262188323,
        "K": 0.2237634068788484,
        "L": 0.2259313456823045,
        "B": 0.2239135221216299,
        "D": 0.22976552198373693,
        "J": 0.2233151825289446,
        "E": 0.23711212988861277,
        "A": 0.2114266145778191,
        "C": 0.21947981973349373,
        "F": 0.20739668208043002,
        "G": 0.2064383108473898
    },
    "Average_excess_waiting_time": {
        "H": 72.05452527020117,
        "I": 71.94950044072846,
        "K": 66.46719270387467,
        "L": 64.85656632112125,
        "B": 65.52402469879905,
        "D": 68.29135838492755,
        "J": 68.75826045988396,
        "E": 71.23711549390043,
        "A": 65.42177418367191,
        "C": 67.40394067741761,
        "F": 68.50308806258431,
        "G": 69.72973579917476
    },
    "Holding_per_stop": {
        "I": 28.681318681318682,
        "L": 14.347826086956522,
        "B": 17.934782608695652,
        "K": 20.76923076923077,
        "H": 16,
        "D": 14.835164835164836,
        "J": 23.076923076923077,
        "A": 19.45054945054945,
        "E": 35,
        "C": 15.824175824175825,
        "F": 32.333333333333336,
        "G": 28.666666666666668
    },
    "Actions_tfl_edges": {
        "CD": [
            48,
            19,
            25
        ],
        "GH": [
            49,
            25,
            17
        ],
        "HI": [
            50,
            18,
            23
        ],
        "JK": [
            25,
            16,
            50
        ],
        "FG": [
            48,
            13,
            29
        ]
    },
    "Load_per_bus_per_stop": {
        "bus2": {
            "H": 139.53333333333333,
            "I": 136.13333333333333,
            "J": 129.4,
            "K": 124.26666666666667,
            "L": 116.53333333333333,
            "A": 107,
            "B": 97.4,
            "C": 90.13333333333334,
            "D": 84.93333333333334,
            "E": 82.26666666666667,
            "F": 106.46666666666667,
            "G": 139.53333333333333
        },
        "bus3": {
            "I": 132.75,
            "J": 126.6875,
            "K": 114.53333333333333,
            "L": 103.73333333333333,
            "A": 92.93333333333334,
            "B": 84.46666666666667,
            "C": 78.66666666666667,
            "D": 74.66666666666667,
            "E": 74.26666666666667,
            "F": 99.33333333333333,
            "G": 135.86666666666667,
            "H": 144.93333333333334
        },
        "bus4": {
            "K": 102.8125,
            "L": 93.375,
            "A": 85.46666666666667,
            "B": 79.06666666666666,
            "C": 74.4,
            "D": 69.8,
            "E": 68.46666666666667,
            "F": 89.8,
            "G": 121.06666666666666,
            "H": 127.06666666666666,
            "I": 122.4,
            "J": 117.66666666666667
        },
        "bus5": {
            "L": 95.4375,
            "A": 88.875,
            "B": 80.125,
            "C": 73.53333333333333,
            "D": 69.93333333333334,
            "E": 68.93333333333334,
            "F": 89.2,
            "G": 120.46666666666667,
            "H": 130.6,
            "I": 127.73333333333333,
            "J": 120,
            "K": 110.66666666666667
        },
        "bus0": {
            "B": 89.25,
            "C": 82.6875,
            "D": 79.2,
            "E": 77.26666666666667,
            "F": 102.53333333333333,
            "G": 136.93333333333334,
            "H": 143.73333333333332,
            "I": 142.2,
            "J": 135.6,
            "K": 126.93333333333334,
            "L": 118.26666666666667,
            "A": 105.53333333333333
        },
        "bus1": {
            "D": 86.375,
            "E": 83.25,
            "F": 106.2,
            "G": 144,
            "H": 154.6,
            "I": 152.46666666666667,
            "J": 144.06666666666666,
            "K": 133.73333333333332,
            "L": 121.06666666666666,
            "A": 112.13333333333334,
            "B": 101.66666666666667,
            "C": 96.8
        }
    },
    "Obs_and_actions_busses": {
        "5": 303.4298268913167,
        "0": -199.5999979799297,
        "2": 102.17847717314464
    },
    "Obs_and_actions_tfls": {
        "0": 25.32181405349322,
        "1": -58.82586708592847,
        "2": 221.5774123715881
    }
}0482,
        "0": 23.957801258971934,
        "1": -97.10221124502372
    }
}