{
    "Average_holding_time": 34.904137235116046,
    "Average_holding_actions": [
        514,
        269,
        0,
        156,
        52,
        0
    ],
    "Average_travel_time_passengers": 3250.401609764361,
    "Average_passenger_waiting_time": 503.8780245057199,
    "Average_passenger_in_vehicle_time": 2746.523585258664,
    "Average_speed_busses": 0.041291666666666664,
    "Average_experienced_crowding": 169.62261795444078,
    "Average_covariation_headway": 0.8235349259407889,
    "Average_covariation_headway_stops": {
        "F": 0.6647986885922116,
        "E": 0.6604160001871564,
        "A": 0.6710419630669797,
        "K": 0.6764291401703297,
        "B": 0.6730250573118106,
        "D": 0.6455959055828148,
        "G": 0.6665532786629477,
        "L": 0.6719038685137608,
        "C": 0.6582982703001609,
        "H": 0.699286048132377,
        "I": 0.7034715963389528,
        "J": 0.6925018655320486
    },
    "Average_excess_waiting_time": {
        "F": 229.58549157338024,
        "E": 233.36497684699873,
        "A": 248.96500228867717,
        "K": 250.8711221820613,
        "B": 240.613219429605,
        "D": 229.31648270931447,
        "G": 233.36717936123387,
        "L": 252.4396379374606,
        "C": 237.34262102137552,
        "H": 251.60073674559555,
        "I": 258.56301790546433,
        "J": 262.11611807091276
    },
    "Holding_per_stop": {
        "F": 47.5,
        "E": 30.357142857142858,
        "A": 36.21951219512195,
        "K": 33.333333333333336,
        "B": 30.365853658536587,
        "D": 32.89156626506024,
        "G": 41.07142857142857,
        "C": 35.853658536585364,
        "L": 27.037037037037038,
        "H": 39.75903614457831,
        "I": 27.46987951807229,
        "J": 36.58536585365854
    },
    "Actions_tfl_edges": {
        "CD": [
            22,
            48,
            13
        ],
        "JK": [
            8,
            62,
            13
        ],
        "FG": [
            9,
            60,
            15
        ],
        "GH": [
            5,
            64,
            15
        ],
        "HI": [
            5,
            62,
            16
        ]
    },
    "Load_per_bus_per_stop": {
        "bus3": {
            "F": 87.14285714285714,
            "G": 115.42857142857143,
            "H": 124.92857142857143,
            "I": 122.21428571428571,
            "J": 118.07142857142857,
            "K": 111.78571428571429,
            "L": 103.57142857142857,
            "A": 94.28571428571429,
            "B": 85.5,
            "C": 80.07142857142857,
            "D": 75.21428571428571,
            "E": 76.28571428571429
        },
        "bus2": {
            "E": 77.14285714285714,
            "F": 103.85714285714286,
            "G": 139.78571428571428,
            "H": 147.57142857142858,
            "I": 144.85714285714286,
            "J": 136.92857142857142,
            "K": 129.28571428571428,
            "L": 118.85714285714286,
            "A": 106.71428571428571,
            "B": 92.46153846153847,
            "C": 86.46153846153847,
            "D": 84.61538461538461
        },
        "bus5": {
            "A": 87.85714285714286,
            "B": 80.28571428571429,
            "C": 75.85714285714286,
            "D": 71.71428571428571,
            "E": 70.21428571428571,
            "F": 93.5,
            "G": 123.71428571428571,
            "H": 128.78571428571428,
            "I": 123.78571428571429,
            "J": 127.23076923076923,
            "K": 115.92307692307692,
            "L": 105.15384615384616
        },
        "bus4": {
            "K": 111,
            "L": 102.42857142857143,
            "A": 92.85714285714286,
            "B": 83.5,
            "C": 80.35714285714286,
            "D": 77.85714285714286,
            "E": 78,
            "F": 102.57142857142857,
            "G": 131.85714285714286,
            "H": 137.35714285714286,
            "I": 134.69230769230768,
            "J": 125.76923076923077
        },
        "bus0": {
            "B": 97.92857142857143,
            "C": 91.35714285714286,
            "D": 85.64285714285714,
            "E": 82.21428571428571,
            "F": 112.42857142857143,
            "G": 146.21428571428572,
            "H": 156.14285714285714,
            "I": 152.64285714285714,
            "J": 143.21428571428572,
            "K": 140.30769230769232,
            "L": 129.07692307692307,
            "A": 116.15384615384616
        },
        "bus1": {
            "D": 115.64285714285714,
            "E": 116.78571428571429,
            "F": 155.85714285714286,
            "G": 207.14285714285714,
            "H": 221.85714285714286,
            "I": 217.07142857142858,
            "J": 206.35714285714286,
            "K": 184.23076923076923,
            "L": 168.23076923076923,
            "A": 153.6153846153846,
            "B": 134.3846153846154,
            "C": 129
        }
    },
    "Obs_and_actions_busses": {
        "0": -165.53789846278258,
        "1": -305.6399435326939,
        "4": 358.54061582784925,
        "5": 580.5995811222822
    },
    "Obs_and_actions_tfls": {
        "1": 170.11703182557562,
        "2": -879.7975507063824,
        "0": 582.8250290693574
    }
}