{
    "Average_holding_time": 32.173498570066734,
    "Average_holding_actions": [
        530,
        153,
        214,
        0,
        44,
        0
    ],
    "Average_travel_time_passengers": 2891.3117751919935,
    "Average_passenger_waiting_time": 357.1989408735353,
    "Average_passenger_in_vehicle_time": 2534.1128343184614,
    "Average_speed_busses": 0.043708333333333335,
    "Average_experienced_crowding": 120.25568237453484,
    "Average_covariation_headway": 0.3295168489897001,
    "Average_covariation_headway_stops": {
        "H": 0.267337291977107,
        "F": 0.2566633515638771,
        "E": 0.26168782604313046,
        "A": 0.2481886016736426,
        "L": 0.23519385592813744,
        "K": 0.23936262158557456,
        "I": 0.25698778124807653,
        "G": 0.24158141418643078,
        "B": 0.22565581574923665,
        "J": 0.23263696178720397,
        "C": 0.24328018653098601,
        "D": 0.25718146650242524
    },
    "Average_excess_waiting_time": {
        "H": 86.56985471060511,
        "F": 85.99449478333275,
        "E": 89.06250775330034,
        "A": 80.56340056244449,
        "L": 79.82488910916294,
        "K": 83.55356453532198,
        "I": 86.69618229838602,
        "G": 84.13005126057618,
        "B": 79.55790778265083,
        "J": 84.77215678502336,
        "C": 85.68639766829733,
        "D": 90.59334090051891
    },
    "Holding_per_stop": {
        "H": 24.204545454545453,
        "F": 51.03448275862069,
        "A": 26.629213483146067,
        "L": 32.72727272727273,
        "I": 34.13793103448276,
        "E": 38.62068965517241,
        "G": 36.89655172413793,
        "K": 41.03448275862069,
        "B": 20.795454545454547,
        "J": 43.793103448275865,
        "C": 15.172413793103448,
        "D": 21.379310344827587
    },
    "Actions_tfl_edges": {
        "GH": [
            34,
            54,
            0
        ],
        "JK": [
            80,
            6,
            2
        ],
        "HI": [
            49,
            23,
            16
        ],
        "FG": [
            40,
            43,
            4
        ],
        "CD": [
            65,
            11,
            11
        ]
    },
    "Load_per_bus_per_stop": {
        "bus2": {
            "H": 146.53333333333333,
            "I": 142.8,
            "J": 134.6,
            "K": 126.4,
            "L": 115.86666666666666,
            "A": 105.26666666666667,
            "B": 94.8,
            "C": 88.78571428571429,
            "D": 84.78571428571429,
            "E": 81.71428571428571,
            "F": 109.21428571428571,
            "G": 151.28571428571428
        },
        "bus1": {
            "F": 86.6,
            "G": 113.33333333333333,
            "H": 124.2,
            "I": 120.6,
            "J": 118.4,
            "K": 110.06666666666666,
            "L": 99.93333333333334,
            "A": 91.33333333333333,
            "B": 84.85714285714286,
            "C": 78.92857142857143,
            "D": 75.35714285714286,
            "E": 70.85714285714286
        },
        "bus0": {
            "E": 71.73333333333333,
            "F": 95.2,
            "G": 133.73333333333332,
            "H": 142.13333333333333,
            "I": 137.93333333333334,
            "J": 132.13333333333333,
            "K": 122.4,
            "L": 111.64285714285714,
            "A": 101.21428571428571,
            "B": 88.71428571428571,
            "C": 82.14285714285714,
            "D": 79.21428571428571
        },
        "bus5": {
            "A": 110.93333333333334,
            "B": 99.8,
            "C": 93.2,
            "D": 87.06666666666666,
            "E": 84.66666666666667,
            "F": 115.66666666666667,
            "G": 153.73333333333332,
            "H": 165.46666666666667,
            "I": 158.6,
            "J": 152.42857142857142,
            "K": 143.28571428571428,
            "L": 130.85714285714286
        },
        "bus4": {
            "L": 106.13333333333334,
            "A": 96.46666666666667,
            "B": 85.73333333333333,
            "C": 81.33333333333333,
            "D": 78.86666666666666,
            "E": 76.26666666666667,
            "F": 99.26666666666667,
            "G": 133,
            "H": 142.92857142857142,
            "I": 140.35714285714286,
            "J": 133.21428571428572,
            "K": 126.07142857142857
        },
        "bus3": {
            "K": 125,
            "L": 115.06666666666666,
            "A": 103.6,
            "B": 93.46666666666667,
            "C": 86.93333333333334,
            "D": 82.53333333333333,
            "E": 84.92857142857143,
            "F": 109.14285714285714,
            "G": 144.85714285714286,
            "H": 152.71428571428572,
            "I": 149.42857142857142,
            "J": 142.14285714285714
        }
    },
    "Obs_and_actions_busses": {
        "0": -282.53441957720804,
        "3": 171.40543322953766,
        "2": 69.16328999960228,
        "5": 364.23333237050673,
        "1": -23.462687139546322
    },
    "Obs_and_actions_tfls": {
        "1": -174.96292675876592,
        "0": 191.16697995327942,
        "2": 18.87362904322254
    }
}