{
    "Average_holding_time": 27.780979827089336,
    "Average_holding_actions": [
        800,
        0,
        0,
        241,
        0,
        0
    ],
    "Average_travel_time_passengers": 3071.632559308613,
    "Average_passenger_waiting_time": 471.4286931942885,
    "Average_passenger_in_vehicle_time": 2600.203866114294,
    "Average_speed_busses": 0.043375,
    "Average_experienced_crowding": 157.66301344636054,
    "Average_covariation_headway": 0.7584663637822735,
    "Average_covariation_headway_stops": {
        "I": 0.6716556130520253,
        "J": 0.6646610702010832,
        "L": 0.614772886683621,
        "K": 0.6420979506132463,
        "A": 0.6093882489677966,
        "C": 0.5842500551246375,
        "D": 0.5680668335795233,
        "B": 0.5915013651966045,
        "E": 0.5761412454784753,
        "F": 0.572638405162051,
        "G": 0.592225369185809,
        "H": 0.6542223428714922
    },
    "Average_excess_waiting_time": {
        "I": 226.80530405809122,
        "J": 218.62676017849157,
        "L": 190.4432699931824,
        "K": 205.4390186488588,
        "A": 186.46226765060658,
        "C": 178.02519561032352,
        "D": 175.3486484680576,
        "B": 183.50747565365214,
        "E": 180.87840865039118,
        "F": 182.46573085271126,
        "G": 191.99668566670096,
        "H": 222.3361263536475
    },
    "Holding_per_stop": {
        "J": 36.27906976744186,
        "L": 30,
        "K": 37.241379310344826,
        "I": 29.302325581395348,
        "A": 21.818181818181817,
        "C": 16.363636363636363,
        "D": 17.93103448275862,
        "B": 23.448275862068964,
        "E": 22.06896551724138,
        "F": 29.302325581395348,
        "G": 30.697674418604652,
        "H": 39.529411764705884
    },
    "Actions_tfl_edges": {
        "HI": [
            41,
            28,
            17
        ],
        "JK": [
            50,
            22,
            15
        ],
        "CD": [
            51,
            20,
            17
        ],
        "FG": [
            47,
            21,
            18
        ],
        "GH": [
            42,
            25,
            19
        ]
    },
    "Load_per_bus_per_stop": {
        "bus1": {
            "I": 111.6,
            "J": 106.8,
            "K": 98.73333333333333,
            "L": 90.26666666666667,
            "A": 79.85714285714286,
            "B": 73.78571428571429,
            "C": 71.64285714285714,
            "D": 71.57142857142857,
            "E": 70.42857142857143,
            "F": 86.64285714285714,
            "G": 114.07142857142857,
            "H": 122.42857142857143
        },
        "bus2": {
            "J": 108.2,
            "K": 101.2,
            "L": 93.2,
            "A": 83.2,
            "B": 72,
            "C": 69.78571428571429,
            "D": 67.35714285714286,
            "E": 62.92857142857143,
            "F": 85.42857142857143,
            "G": 119.21428571428571,
            "H": 127.35714285714286,
            "I": 121.42857142857143
        },
        "bus4": {
            "L": 127.73333333333333,
            "A": 114.46666666666667,
            "B": 106.4,
            "C": 98.66666666666667,
            "D": 95.33333333333333,
            "E": 93.66666666666667,
            "F": 123.28571428571429,
            "G": 166.35714285714286,
            "H": 176.21428571428572,
            "I": 171.78571428571428,
            "J": 163.42857142857142,
            "K": 150
        },
        "bus3": {
            "K": 134.26666666666668,
            "L": 121.6,
            "A": 109.93333333333334,
            "B": 98.33333333333333,
            "C": 92,
            "D": 91.07142857142857,
            "E": 88.71428571428571,
            "F": 112.92857142857143,
            "G": 150.35714285714286,
            "H": 164.71428571428572,
            "I": 161.21428571428572,
            "J": 153.78571428571428
        },
        "bus5": {
            "A": 99.8,
            "B": 88.73333333333333,
            "C": 80.46666666666667,
            "D": 75.4,
            "E": 74.53333333333333,
            "F": 99.46666666666667,
            "G": 136.06666666666666,
            "H": 148.5,
            "I": 145,
            "J": 137.5,
            "K": 128.21428571428572,
            "L": 118.42857142857143
        },
        "bus0": {
            "C": 94.86666666666666,
            "D": 90.06666666666666,
            "E": 88.86666666666666,
            "F": 116.73333333333333,
            "G": 160.06666666666666,
            "H": 171.4,
            "I": 169.26666666666668,
            "J": 155.57142857142858,
            "K": 144.28571428571428,
            "L": 133.42857142857142,
            "A": 120.42857142857143,
            "B": 108.78571428571429
        }
    },
    "Obs_and_actions_busses": {
        "4": 405.90099145866503,
        "0": -246.1465233122772
    },
    "Obs_and_actions_tfls": {
        "0": 349.6832880074468,
        "2": -710.6182060634077,
        "1": -8.874800514275309
    }
}