{
    "Average_holding_time": 25.76958525345622,
    "Average_holding_actions": [
        655,
        0,
        406,
        0,
        24,
        0
    ],
    "Average_travel_time_passengers": 2818.1476826711796,
    "Average_passenger_waiting_time": 358.2218672202871,
    "Average_passenger_in_vehicle_time": 2459.9258154508593,
    "Average_speed_busses": 0.045208333333333336,
    "Average_experienced_crowding": 117.78914459092765,
    "Average_covariation_headway": 0.3985474859984844,
    "Average_covariation_headway_stops": {
        "H": 0.32630198817469147,
        "G": 0.3089526431299316,
        "I": 0.32910344361915417,
        "K": 0.29023305581144054,
        "D": 0.32365805637591943,
        "A": 0.2903872604988243,
        "L": 0.26315710165482753,
        "J": 0.31208035358334457,
        "B": 0.28102580920339215,
        "E": 0.3109759567476962,
        "F": 0.2922426104420778,
        "C": 0.31000886797887106
    },
    "Average_excess_waiting_time": {
        "H": 86.51192512803385,
        "G": 85.1578120787288,
        "I": 84.70761754371057,
        "K": 76.77381173190724,
        "D": 87.89386147468633,
        "A": 79.41313222043959,
        "L": 74.46527932900165,
        "J": 83.05106730209309,
        "B": 79.21292274243444,
        "E": 87.00338900084148,
        "F": 84.01554141159403,
        "C": 86.94578393156024
    },
    "Holding_per_stop": {
        "H": 24.065934065934066,
        "I": 31.318681318681318,
        "K": 27.36263736263736,
        "G": 32,
        "A": 20.439560439560438,
        "D": 20,
        "L": 17.142857142857142,
        "J": 37.582417582417584,
        "B": 17,
        "E": 32.333333333333336,
        "C": 18,
        "F": 32.02247191011236
    },
    "Actions_tfl_edges": {
        "CD": [
            0,
            40,
            51
        ],
        "FG": [
            0,
            41,
            49
        ],
        "GH": [
            0,
            23,
            68
        ],
        "HI": [
            0,
            30,
            62
        ],
        "JK": [
            0,
            61,
            31
        ]
    },
    "Load_per_bus_per_stop": {
        "bus2": {
            "H": 146.625,
            "I": 142.73333333333332,
            "J": 134.93333333333334,
            "K": 125.26666666666667,
            "L": 114.66666666666667,
            "A": 106.8,
            "B": 94.86666666666666,
            "C": 88.86666666666666,
            "D": 87.93333333333334,
            "E": 88.33333333333333,
            "F": 114.2,
            "G": 149.26666666666668
        },
        "bus1": {
            "G": 114.33333333333333,
            "H": 120.66666666666667,
            "I": 119.06666666666666,
            "J": 112.73333333333333,
            "K": 104,
            "L": 94.8,
            "A": 85.6,
            "B": 78.4,
            "C": 72.86666666666666,
            "D": 70.73333333333333,
            "E": 70.26666666666667,
            "F": 90.71428571428571
        },
        "bus3": {
            "I": 138.875,
            "J": 131.6875,
            "K": 124.0625,
            "L": 114.4,
            "A": 105.93333333333334,
            "B": 93.86666666666666,
            "C": 88.93333333333334,
            "D": 83.46666666666667,
            "E": 82.46666666666667,
            "F": 106.2,
            "G": 143.66666666666666,
            "H": 153.46666666666667
        },
        "bus4": {
            "K": 104.25,
            "L": 94.875,
            "A": 85.8,
            "B": 78.4,
            "C": 73.93333333333334,
            "D": 71,
            "E": 70.13333333333334,
            "F": 90.86666666666666,
            "G": 117.13333333333334,
            "H": 124.4,
            "I": 121.93333333333334,
            "J": 116.2
        },
        "bus0": {
            "D": 75.26666666666667,
            "E": 75,
            "F": 101.4,
            "G": 135.13333333333333,
            "H": 144.2,
            "I": 140.86666666666667,
            "J": 134.06666666666666,
            "K": 125.26666666666667,
            "L": 116.33333333333333,
            "A": 104.86666666666666,
            "B": 94.2,
            "C": 88.26666666666667
        },
        "bus5": {
            "A": 91.375,
            "B": 79.13333333333334,
            "C": 74.13333333333334,
            "D": 74,
            "E": 74.73333333333333,
            "F": 97.8,
            "G": 130.2,
            "H": 139.93333333333334,
            "I": 134.8,
            "J": 126.86666666666666,
            "K": 117.6,
            "L": 107.66666666666667
        }
    },
    "Obs_and_actions_busses": {
        "2": 119.77847454837313,
        "0": -260.85755784640935,
        "5": 459.2265518511727
    },
    "Obs_and_actions_tfls": {
        "1": 265.6526187628185,
        "2": -67.88192339435932
    }
}