{
    "Average_holding_time": 32.371428571428574,
    "Average_holding_actions": [
        529,
        223,
        0,
        0,
        8,
        0
    ],
    "Average_travel_time_passengers": 2922.4923391594602,
    "Average_passenger_waiting_time": 366.6371642905863,
    "Average_passenger_in_vehicle_time": 2555.8551748688833,
    "Average_speed_busses": 0.04375,
    "Average_experienced_crowding": 120.06084543739682,
    "Average_covariation_headway": 0.34559414888165507,
    "Average_covariation_headway_stops": {
        "G": 0.30950062600842215,
        "J": 0.27269567808540734,
        "K": 0.2611978420668635,
        "A": 0.2565540282605251,
        "C": 0.29456591278069044,
        "D": 0.29101460357295084,
        "H": 0.3114111816391322,
        "L": 0.23868622619145283,
        "B": 0.2676914152740192,
        "I": 0.2994176125749888,
        "E": 0.29255460822696894,
        "F": 0.28748681263369585
    },
    "Average_excess_waiting_time": {
        "G": 95.4870662436133,
        "J": 89.40790395308898,
        "K": 85.09085664597637,
        "A": 84.45387390287607,
        "C": 93.29162862366007,
        "D": 89.54888730404554,
        "H": 98.30706016165448,
        "L": 83.20002104089019,
        "B": 89.64083187494487,
        "I": 97.32609792380396,
        "E": 92.20940091738026,
        "F": 93.77444919185018
    },
    "Holding_per_stop": {
        "G": 40.56818181818182,
        "K": 35.45454545454545,
        "A": 25.90909090909091,
        "J": 41.03448275862069,
        "D": 23.863636363636363,
        "C": 21.818181818181817,
        "H": 32.06896551724138,
        "L": 28.96551724137931,
        "B": 17.586206896551722,
        "E": 46.02272727272727,
        "I": 41.03448275862069,
        "F": 34.13793103448276
    },
    "Actions_tfl_edges": {
        "CD": [
            89,
            0,
            0
        ],
        "FG": [
            86,
            0,
            2
        ],
        "JK": [
            88,
            0,
            0
        ],
        "GH": [
            88,
            0,
            0
        ],
        "HI": [
            87,
            0,
            0
        ]
    },
    "Load_per_bus_per_stop": {
        "bus2": {
            "G": 139,
            "H": 149.93333333333334,
            "I": 149.93333333333334,
            "J": 144.06666666666666,
            "K": 134.86666666666667,
            "L": 123.26666666666667,
            "A": 112.46666666666667,
            "B": 101.57142857142857,
            "C": 92.71428571428571,
            "D": 88.78571428571429,
            "E": 84.71428571428571,
            "F": 111.78571428571429
        },
        "bus3": {
            "J": 117.86666666666666,
            "K": 108.46666666666667,
            "L": 97.26666666666667,
            "A": 89.06666666666666,
            "B": 79.86666666666666,
            "C": 77.06666666666666,
            "D": 74.71428571428571,
            "E": 75.85714285714286,
            "F": 100.21428571428571,
            "G": 132.92857142857142,
            "H": 140.14285714285714,
            "I": 132.92857142857142
        },
        "bus4": {
            "K": 124.26666666666667,
            "L": 113.86666666666666,
            "A": 102.53333333333333,
            "B": 93,
            "C": 87.46666666666667,
            "D": 87.53333333333333,
            "E": 85.26666666666667,
            "F": 112.92857142857143,
            "G": 150,
            "H": 160.21428571428572,
            "I": 153.71428571428572,
            "J": 142.28571428571428
        },
        "bus5": {
            "A": 89.33333333333333,
            "B": 83.26666666666667,
            "C": 77.26666666666667,
            "D": 72.13333333333334,
            "E": 75.8,
            "F": 100,
            "G": 131.2,
            "H": 137.78571428571428,
            "I": 134.21428571428572,
            "J": 127.07142857142857,
            "K": 116.14285714285714,
            "L": 105.64285714285714
        },
        "bus0": {
            "C": 66.53333333333333,
            "D": 63.2,
            "E": 62.93333333333333,
            "F": 81.46666666666667,
            "G": 109.53333333333333,
            "H": 118.26666666666667,
            "I": 118.33333333333333,
            "J": 113,
            "K": 105.71428571428571,
            "L": 95.21428571428571,
            "A": 86,
            "B": 77.28571428571429
        },
        "bus1": {
            "D": 88.8,
            "E": 87,
            "F": 115,
            "G": 153.26666666666668,
            "H": 165.13333333333333,
            "I": 158.66666666666666,
            "J": 150.33333333333334,
            "K": 138.2,
            "L": 126.13333333333334,
            "A": 115,
            "B": 104.71428571428571,
            "C": 98.28571428571429
        }
    },
    "Obs_and_actions_busses": {
        "3": 183.1137679303983,
        "5": 576.7418464749004,
        "1": -10.25701127343151,
        "0": -306.8124191536441
    },
    "Obs_and_actions_tfls": {
        "0": 56.971866064108006,
        "2": 664.9116501985966
    }
}