{
    "Average_holding_time": 19.81651376146789,
    "Average_holding_actions": [
        906,
        0,
        0,
        0,
        84,
        0
    ],
    "Average_travel_time_passengers": 2833.482847675205,
    "Average_passenger_waiting_time": 391.8813026116885,
    "Average_passenger_in_vehicle_time": 2441.601545063579,
    "Average_speed_busses": 0.04541666666666667,
    "Average_experienced_crowding": 128.42101091209992,
    "Average_covariation_headway": 0.6059414672117136,
    "Average_covariation_headway_stops": {
        "G": 0.4618537398198213,
        "H": 0.505415465802298,
        "F": 0.4589286277932542,
        "J": 0.48255116511757457,
        "E": 0.471315450113883,
        "A": 0.43417261811388935,
        "I": 0.48584151766783806,
        "K": 0.4570394361067222,
        "L": 0.4343916836215657,
        "B": 0.4337199332808141,
        "C": 0.44287115777430264,
        "D": 0.4526698208172687
    },
    "Average_excess_waiting_time": {
        "G": 120.66557446923076,
        "H": 132.1029898381555,
        "F": 121.5929254422345,
        "J": 124.47374383734069,
        "E": 124.98152855271752,
        "A": 110.0555071144455,
        "I": 127.77890189967246,
        "K": 116.77387021039704,
        "L": 112.3180878508876,
        "B": 110.96130149083189,
        "C": 116.27999723103659,
        "D": 120.7330158077545
    },
    "Holding_per_stop": {
        "H": 34.94505494505494,
        "G": 21.333333333333332,
        "F": 28.333333333333332,
        "J": 16.813186813186814,
        "A": 15.652173913043478,
        "I": 22.087912087912088,
        "E": 20.10989010989011,
        "K": 19.78021978021978,
        "L": 11.208791208791208,
        "B": 17.47252747252747,
        "C": 18.13186813186813,
        "D": 12
    },
    "Actions_tfl_edges": {
        "FG": [
            24,
            45,
            22
        ],
        "GH": [
            24,
            43,
            24
        ],
        "HI": [
            22,
            51,
            18
        ],
        "JK": [
            19,
            63,
            9
        ],
        "CD": [
            25,
            59,
            7
        ]
    },
    "Load_per_bus_per_stop": {
        "bus2": {
            "G": 146.66666666666666,
            "H": 157.93333333333334,
            "I": 153.26666666666668,
            "J": 148.46666666666667,
            "K": 141,
            "L": 129.53333333333333,
            "A": 116.46666666666667,
            "B": 104,
            "C": 96.26666666666667,
            "D": 93.06666666666666,
            "E": 91.93333333333334,
            "F": 119.73333333333333
        },
        "bus3": {
            "H": 132.6875,
            "I": 126.625,
            "J": 119.875,
            "K": 109.6,
            "L": 99.8,
            "A": 90.6,
            "B": 83.06666666666666,
            "C": 79.2,
            "D": 76.2,
            "E": 73.53333333333333,
            "F": 96.73333333333333,
            "G": 129.06666666666666
        },
        "bus1": {
            "F": 117.1875,
            "G": 163.8,
            "H": 174.46666666666667,
            "I": 170,
            "J": 162,
            "K": 150.2,
            "L": 137.46666666666667,
            "A": 124.73333333333333,
            "B": 111.86666666666666,
            "C": 104.13333333333334,
            "D": 99.26666666666667,
            "E": 95.66666666666667
        },
        "bus4": {
            "J": 88.625,
            "K": 82.5,
            "L": 75.1875,
            "A": 68.4375,
            "B": 58.2,
            "C": 55.733333333333334,
            "D": 56.86666666666667,
            "E": 58.4,
            "F": 76.06666666666666,
            "G": 98.86666666666666,
            "H": 104.4,
            "I": 101
        },
        "bus0": {
            "E": 72.625,
            "F": 97.2,
            "G": 127.06666666666666,
            "H": 135.53333333333333,
            "I": 133.73333333333332,
            "J": 125.46666666666667,
            "K": 117.26666666666667,
            "L": 105.73333333333333,
            "A": 94.53333333333333,
            "B": 86,
            "C": 80.73333333333333,
            "D": 77.86666666666666
        },
        "bus5": {
            "A": 85.5,
            "B": 79.5,
            "C": 74.9375,
            "D": 71.46666666666667,
            "E": 69.26666666666667,
            "F": 90.26666666666667,
            "G": 120.73333333333333,
            "H": 126.73333333333333,
            "I": 124.6,
            "J": 117.4,
            "K": 109.86666666666666,
            "L": 101.33333333333333
        }
    },
    "Obs_and_actions_busses": {
        "0": -198.3036769592784,
        "5": 431.595040951349,
        "3": 263.91355494734574
    },
    "Obs_and_actions_tfls": {
        "2": 10.535723699536543,
        "1": 297.35528390574825,
        "0": -458.45078058842694
    }
}