{
    "Average_holding_time": 28.627069133398248,
    "Average_holding_actions": [
        782,
        0,
        0,
        245,
        0,
        0
    ],
    "Average_travel_time_passengers": 3088.771975925581,
    "Average_passenger_waiting_time": 473.33286971360997,
    "Average_passenger_in_vehicle_time": 2615.439106211968,
    "Average_speed_busses": 0.042791666666666665,
    "Average_experienced_crowding": 157.80808612119347,
    "Average_covariation_headway": 0.7781063109297086,
    "Average_covariation_headway_stops": {
        "H": 0.6571039988756502,
        "F": 0.6079374903956114,
        "K": 0.6346073887123853,
        "I": 0.6496333850146485,
        "C": 0.5854229138032823,
        "B": 0.6006884877256246,
        "G": 0.5970516744885204,
        "D": 0.6033798015492466,
        "L": 0.6114329695450585,
        "J": 0.6410212692489847,
        "E": 0.6034563834030562,
        "A": 0.5936285920913001
    },
    "Average_excess_waiting_time": {
        "H": 214.93068778484906,
        "F": 196.6653129728354,
        "K": 204.70460252324386,
        "I": 213.48253444190397,
        "C": 194.82176007285182,
        "B": 196.06731872999637,
        "G": 194.53472625986166,
        "D": 194.95340089806376,
        "L": 197.8504719230911,
        "J": 211.9117850901349,
        "E": 198.31060973706445,
        "A": 192.72337433545545
    },
    "Holding_per_stop": {
        "H": 40.46511627906977,
        "F": 44.651162790697676,
        "K": 34.883720930232556,
        "I": 34.883720930232556,
        "C": 19.764705882352942,
        "D": 21.176470588235293,
        "G": 31.058823529411764,
        "B": 16.74418604651163,
        "L": 20.930232558139537,
        "J": 34.883720930232556,
        "E": 21.176470588235293,
        "A": 22.58823529411765
    },
    "Actions_tfl_edges": {
        "CD": [
            47,
            24,
            15
        ],
        "GH": [
            34,
            31,
            21
        ],
        "JK": [
            51,
            19,
            17
        ],
        "HI": [
            44,
            25,
            17
        ],
        "FG": [
            39,
            26,
            21
        ]
    },
    "Load_per_bus_per_stop": {
        "bus4": {
            "H": 131.46666666666667,
            "I": 125.93333333333334,
            "J": 118.93333333333334,
            "K": 112.2,
            "L": 103.53333333333333,
            "A": 94.53333333333333,
            "B": 86.28571428571429,
            "C": 80.92857142857143,
            "D": 77.35714285714286,
            "E": 76.64285714285714,
            "F": 100.07142857142857,
            "G": 130.57142857142858
        },
        "bus3": {
            "F": 101.53333333333333,
            "G": 137.2,
            "H": 149,
            "I": 145.06666666666666,
            "J": 138.6,
            "K": 123.28571428571429,
            "L": 110.71428571428571,
            "A": 100.28571428571429,
            "B": 91.71428571428571,
            "C": 87.85714285714286,
            "D": 81.5,
            "E": 80
        },
        "bus5": {
            "K": 60.06666666666667,
            "L": 55.6,
            "A": 51.13333333333333,
            "B": 45.266666666666666,
            "C": 45.285714285714285,
            "D": 44.642857142857146,
            "E": 45.5,
            "F": 58.07142857142857,
            "G": 73.28571428571429,
            "H": 75.5,
            "I": 73,
            "J": 69.07142857142857
        },
        "bus1": {
            "C": 128.6,
            "D": 122.21428571428571,
            "E": 122.5,
            "F": 163.42857142857142,
            "G": 213.85714285714286,
            "H": 228.92857142857142,
            "I": 225.57142857142858,
            "J": 213.78571428571428,
            "K": 199.21428571428572,
            "L": 183.57142857142858,
            "A": 165.64285714285714,
            "B": 148.57142857142858
        },
        "bus0": {
            "B": 67.13333333333334,
            "C": 64.57142857142857,
            "D": 60.214285714285715,
            "E": 58.642857142857146,
            "F": 78.21428571428571,
            "G": 108.92857142857143,
            "H": 113.14285714285714,
            "I": 109.71428571428571,
            "J": 101.92857142857143,
            "K": 94.21428571428571,
            "L": 85.35714285714286,
            "A": 78.85714285714286
        },
        "bus2": {
            "D": 108.46666666666667,
            "E": 104.8,
            "F": 134,
            "G": 177.73333333333332,
            "H": 190.57142857142858,
            "I": 185.64285714285714,
            "J": 180,
            "K": 166.5,
            "L": 152.57142857142858,
            "A": 139.21428571428572,
            "B": 125.85714285714286,
            "C": 120.71428571428571
        }
    },
    "Obs_and_actions_busses": {
        "0": -235.93477919295066,
        "4": 396.2979121395666
    },
    "Obs_and_actions_tfls": {
        "2": -777.9243742461438,
        "0": 414.40911315622884,
        "1": 14.801930919151987
    }
}