{
    "Average_holding_time": 16.094890510948904,
    "Average_holding_actions": [
        949,
        0,
        0,
        147,
        0,
        0
    ],
    "Average_travel_time_passengers": 2785.7093294880574,
    "Average_passenger_waiting_time": 357.17380842222997,
    "Average_passenger_in_vehicle_time": 2428.5355210658386,
    "Average_speed_busses": 0.04566666666666667,
    "Average_experienced_crowding": 118.63506627030075,
    "Average_covariation_headway": 0.4540711146714748,
    "Average_covariation_headway_stops": {
        "G": 0.3116509359623861,
        "I": 0.34271556242433315,
        "F": 0.3109198324586298,
        "J": 0.33985278029694554,
        "H": 0.324444904934047,
        "A": 0.31841747745783006,
        "D": 0.34914690852890357,
        "K": 0.3151992047305241,
        "E": 0.3341457212765844,
        "B": 0.3231851473521916,
        "L": 0.3132723125980656,
        "C": 0.34308368794888183
    },
    "Average_excess_waiting_time": {
        "G": 80.48645378904718,
        "I": 86.53691019092491,
        "F": 81.70365716448862,
        "J": 83.05109133869632,
        "H": 85.1167865830381,
        "A": 80.5832479720882,
        "D": 91.15640941569217,
        "K": 79.57409099344994,
        "E": 89.4133226406621,
        "B": 84.30938269235276,
        "L": 80.709419732024,
        "C": 90.79271873438609
    },
    "Holding_per_stop": {
        "G": 19.78021978021978,
        "I": 19.565217391304348,
        "J": 16.956521739130434,
        "A": 9.130434782608695,
        "H": 15.824175824175825,
        "D": 14.505494505494505,
        "F": 26.666666666666668,
        "K": 18.26086956521739,
        "B": 10.54945054945055,
        "E": 15.824175824175825,
        "L": 11.73913043478261,
        "C": 14.505494505494505
    },
    "Actions_tfl_edges": {
        "CD": [
            41,
            38,
            13
        ],
        "FG": [
            38,
            40,
            13
        ],
        "HI": [
            33,
            46,
            13
        ],
        "GH": [
            27,
            42,
            22
        ],
        "JK": [
            52,
            34,
            6
        ]
    },
    "Load_per_bus_per_stop": {
        "bus2": {
            "G": 123.9375,
            "H": 132.875,
            "I": 128.1875,
            "J": 118.93333333333334,
            "K": 109.86666666666666,
            "L": 100.8,
            "A": 93.06666666666666,
            "B": 85.66666666666667,
            "C": 81.33333333333333,
            "D": 78,
            "E": 77.13333333333334,
            "F": 98.93333333333334
        },
        "bus3": {
            "I": 108.25,
            "J": 102.375,
            "K": 93.0625,
            "L": 85.625,
            "A": 77.33333333333333,
            "B": 68.33333333333333,
            "C": 63.2,
            "D": 61.733333333333334,
            "E": 60.53333333333333,
            "F": 79.26666666666667,
            "G": 110,
            "H": 118.86666666666666
        },
        "bus1": {
            "F": 106.26666666666667,
            "G": 143.73333333333332,
            "H": 150.6,
            "I": 145.2,
            "J": 137.26666666666668,
            "K": 128.93333333333334,
            "L": 118.13333333333334,
            "A": 108.46666666666667,
            "B": 94.86666666666666,
            "C": 88.66666666666667,
            "D": 87,
            "E": 87.66666666666667
        },
        "bus4": {
            "J": 128.5625,
            "K": 118.75,
            "L": 108.8125,
            "A": 97.75,
            "B": 87.46666666666667,
            "C": 80.86666666666666,
            "D": 77.26666666666667,
            "E": 75.8,
            "F": 101.13333333333334,
            "G": 137.06666666666666,
            "H": 146.46666666666667,
            "I": 142.8
        },
        "bus5": {
            "A": 99.125,
            "B": 90.3125,
            "C": 84,
            "D": 82.6,
            "E": 83.06666666666666,
            "F": 109.46666666666667,
            "G": 142.33333333333334,
            "H": 149.46666666666667,
            "I": 145.6,
            "J": 137.6,
            "K": 128.26666666666668,
            "L": 116.33333333333333
        },
        "bus0": {
            "D": 80.4375,
            "E": 78.75,
            "F": 104.93333333333334,
            "G": 141,
            "H": 150,
            "I": 146.4,
            "J": 137.93333333333334,
            "K": 127.8,
            "L": 117.66666666666667,
            "A": 108.66666666666667,
            "B": 95.93333333333334,
            "C": 89.73333333333333
        }
    },
    "Obs_and_actions_busses": {
        "0": -188.47233795121195,
        "4": 368.45549769265244
    },
    "Obs_and_actions_tfls": {
        "0": 331.0154747051312,
        "2": -457.2094431381397,
        "1": -3.809884916941557
    }
}