{
    "Average_holding_time": 19.763421292083713,
    "Average_holding_actions": [
        918,
        0,
        0,
        181,
        0,
        0
    ],
    "Average_travel_time_passengers": 2819.2396769133293,
    "Average_passenger_waiting_time": 368.8135406127906,
    "Average_passenger_in_vehicle_time": 2450.4261363005367,
    "Average_speed_busses": 0.04579166666666667,
    "Average_experienced_crowding": 124.07780086209428,
    "Average_covariation_headway": 0.548009391935069,
    "Average_covariation_headway_stops": {
        "E": 0.41079760551339833,
        "F": 0.3881374473010199,
        "I": 0.4044998528494126,
        "K": 0.36846873027744187,
        "C": 0.40157140902845223,
        "D": 0.40949081407027554,
        "G": 0.3904777957156001,
        "J": 0.3722295283506812,
        "L": 0.36399718829422356,
        "H": 0.4079692244411946,
        "A": 0.38251142599041527,
        "B": 0.4201267039830331
    },
    "Average_excess_waiting_time": {
        "E": 101.71638531514435,
        "F": 94.11030889758393,
        "I": 102.14797676377412,
        "K": 91.09351454957397,
        "C": 102.35622754317126,
        "D": 102.09288001461147,
        "G": 96.134464614318,
        "J": 94.47807658619939,
        "L": 91.95601977989918,
        "H": 102.20013448395582,
        "A": 96.90634860936149,
        "B": 108.93349038841109
    },
    "Holding_per_stop": {
        "E": 19.565217391304348,
        "I": 26.373626373626372,
        "F": 31.304347826086957,
        "K": 14.347826086956522,
        "C": 14.505494505494505,
        "D": 16.956521739130434,
        "G": 26.08695652173913,
        "J": 15.824175824175825,
        "L": 10.434782608695652,
        "H": 28.695652173913043,
        "A": 9.23076923076923,
        "B": 23.736263736263737
    },
    "Actions_tfl_edges": {
        "CD": [
            38,
            33,
            21
        ],
        "HI": [
            34,
            41,
            18
        ],
        "JK": [
            47,
            30,
            15
        ],
        "FG": [
            35,
            33,
            24
        ],
        "GH": [
            32,
            31,
            29
        ]
    },
    "Load_per_bus_per_stop": {
        "bus2": {
            "E": 62.625,
            "F": 81.375,
            "G": 108.25,
            "H": 112.9375,
            "I": 113.6,
            "J": 108.06666666666666,
            "K": 100.46666666666667,
            "L": 91.53333333333333,
            "A": 83.6,
            "B": 75.8,
            "C": 70.73333333333333,
            "D": 67.66666666666667
        },
        "bus3": {
            "F": 110.625,
            "G": 146.6875,
            "H": 155.625,
            "I": 152.0625,
            "J": 142.33333333333334,
            "K": 131.73333333333332,
            "L": 122,
            "A": 110.73333333333333,
            "B": 99.46666666666667,
            "C": 91.13333333333334,
            "D": 87.26666666666667,
            "E": 87.6
        },
        "bus4": {
            "I": 84.875,
            "J": 82.1875,
            "K": 77,
            "L": 72.5625,
            "A": 64.06666666666666,
            "B": 56.93333333333333,
            "C": 53.266666666666666,
            "D": 52.266666666666666,
            "E": 51.333333333333336,
            "F": 65,
            "G": 88.26666666666667,
            "H": 94.26666666666667
        },
        "bus5": {
            "K": 131.375,
            "L": 118.0625,
            "A": 105.5625,
            "B": 93.875,
            "C": 89.46666666666667,
            "D": 86.53333333333333,
            "E": 85,
            "F": 116.8,
            "G": 157.33333333333334,
            "H": 166.06666666666666,
            "I": 159.73333333333332,
            "J": 149.33333333333334
        },
        "bus0": {
            "C": 96.1875,
            "D": 91.5,
            "E": 90.46666666666667,
            "F": 115.6,
            "G": 158.6,
            "H": 167,
            "I": 162.66666666666666,
            "J": 155.8,
            "K": 148.53333333333333,
            "L": 136.46666666666667,
            "A": 123.2,
            "B": 111.93333333333334
        },
        "bus1": {
            "D": 81.3125,
            "E": 80.375,
            "F": 104.4375,
            "G": 136.33333333333334,
            "H": 145.26666666666668,
            "I": 142.8,
            "J": 135.33333333333334,
            "K": 128.53333333333333,
            "L": 116.93333333333334,
            "A": 105.8,
            "B": 96.73333333333333,
            "C": 90.06666666666666
        }
    },
    "Obs_and_actions_busses": {
        "0": -224.00151245482724,
        "4": 394.0907524310806
    },
    "Obs_and_actions_tfls": {
        "1": 47.286541822416055,
        "0": 374.2897073991574,
        "2": -494.3654964501881
    }
}