{
    "Average_holding_time": 25.4126213592233,
    "Average_holding_actions": [
        259,
        0,
        134,
        14,
        5,
        0
    ],
    "Average_travel_time_passengers": 10955.731511192203,
    "Average_passenger_waiting_time": 4143.756058850735,
    "Average_passenger_in_vehicle_time": 6811.975452341293,
    "Average_speed_busses": 0.017166666666666667,
    "Average_experienced_crowding": 1281.800642188533,
    "Average_covariation_headway": 2.367579565690248,
    "Average_covariation_headway_stops": {
        "H": 2.187142962668518,
        "I": 2.3429764971475286,
        "G": 1.816468035904701,
        "L": 2.408471752244421,
        "J": 2.3913548114290144,
        "B": 2.4019784556235826,
        "K": 2.376529471493982,
        "A": 2.383583858462053,
        "C": 2.3606096485598402,
        "D": 2.307563397965703,
        "E": 2.2933894996068545,
        "F": 1.961303465807185
    },
    "Average_excess_waiting_time": {
        "H": 4082.399848858401,
        "I": 4555.352832837004,
        "G": 3643.237641069484,
        "L": 4751.271619586021,
        "J": 4662.606150693719,
        "B": 4760.802550147846,
        "K": 4699.271235918728,
        "A": 4748.194596777413,
        "C": 4694.439497257605,
        "D": 4587.367790453714,
        "E": 4628.514524085603,
        "F": 3783.437144445201
    },
    "Holding_per_stop": {
        "H": 27.1875,
        "I": 28.181818181818183,
        "L": 22.285714285714285,
        "G": 27.096774193548388,
        "J": 24.705882352941178,
        "B": 25,
        "K": 22.941176470588236,
        "A": 18.857142857142858,
        "C": 29.166666666666668,
        "D": 27.5,
        "E": 25,
        "F": 27.352941176470587
    },
    "Actions_tfl_edges": {
        "FG": [
            9,
            21,
            4
        ],
        "GH": [
            12,
            19,
            1
        ],
        "HI": [
            6,
            17,
            10
        ],
        "JK": [
            13,
            12,
            9
        ],
        "CD": [
            13,
            12,
            11
        ]
    },
    "Load_per_bus_per_stop": {
        "bus2": {
            "H": 14.666666666666666,
            "I": 13.166666666666666,
            "J": 12.333333333333334,
            "K": 11,
            "L": 9.833333333333334,
            "A": 9,
            "B": 7.5,
            "C": 6.833333333333333,
            "D": 6.5,
            "E": 7,
            "F": 14.666666666666666,
            "G": 20.4
        },
        "bus3": {
            "I": 9.666666666666666,
            "J": 9.666666666666666,
            "K": 9,
            "L": 7.666666666666667,
            "A": 7,
            "B": 6,
            "C": 5.833333333333333,
            "D": 5.333333333333333,
            "E": 5.166666666666667,
            "F": 6.833333333333333,
            "G": 10,
            "H": 10.8
        },
        "bus1": {
            "G": 19.833333333333332,
            "H": 22,
            "I": 22,
            "J": 21.166666666666668,
            "K": 19.166666666666668,
            "L": 17.333333333333332,
            "A": 15.166666666666666,
            "B": 14.5,
            "C": 13.166666666666666,
            "D": 11.5,
            "E": 11,
            "F": 16.2
        },
        "bus5": {
            "L": 125.33333333333333,
            "A": 109.33333333333333,
            "B": 92.33333333333333,
            "C": 79,
            "D": 72.5,
            "E": 66.83333333333333,
            "F": 126.16666666666667,
            "G": 209.6,
            "H": 218.2,
            "I": 205.8,
            "J": 191.6,
            "K": 174.4
        },
        "bus4": {
            "J": 33.833333333333336,
            "K": 29.333333333333332,
            "L": 26.666666666666668,
            "A": 24,
            "B": 20.5,
            "C": 17.833333333333332,
            "D": 16.166666666666668,
            "E": 15.5,
            "F": 27.166666666666668,
            "G": 45.6,
            "H": 46.8,
            "I": 43
        },
        "bus0": {
            "B": 948.3333333333334,
            "C": 902.8333333333334,
            "D": 903.1666666666666,
            "E": 917,
            "F": 1223,
            "G": 1642.6666666666667,
            "H": 1597.2,
            "I": 1588.2,
            "J": 1533.4,
            "K": 1434.6,
            "L": 1334.4,
            "A": 1230.8
        }
    },
    "Obs_and_actions_busses": {
        "0": -76.67428483667733,
        "2": 7654.285468040804,
        "5": 287.07310285148606,
        "4": -4400.596754122481
    },
    "Obs_and_actions_tfls": {
        "1": -1188.8326549267529,
        "2": 235.07360730725833,
        "0": 39.20228445312276
    }
}ctions_busses": {
        "0": -234.3913862149176,
        "5": 301.1034817275205,
        "2": 115.71705050545806
    },
    "Obs_and_actions_tfls": {
        "1": -227.01070500600727,
        "0": 30.058192898991358,
        "2": 248.76564743781967
    }
}