{
    "Average_holding_time": 26.424581005586592,
    "Average_holding_actions": [
        637,
        0,
        413,
        0,
        24,
        0
    ],
    "Average_travel_time_passengers": 2850.7245098369694,
    "Average_passenger_waiting_time": 356.48480707080006,
    "Average_passenger_in_vehicle_time": 2494.239702766133,
    "Average_speed_busses": 0.04475,
    "Average_experienced_crowding": 117.3755869360709,
    "Average_covariation_headway": 0.36677275277653787,
    "Average_covariation_headway_stops": {
        "H": 0.30035664797434614,
        "G": 0.2714591575140761,
        "J": 0.29742135962373784,
        "E": 0.27538005680554706,
        "I": 0.2848249621663311,
        "A": 0.2578578275327062,
        "D": 0.284565605536972,
        "K": 0.26018416427880037,
        "F": 0.25874620594397335,
        "L": 0.2494981893723558,
        "B": 0.28603662895764415,
        "C": 0.28391521026388916
    },
    "Average_excess_waiting_time": {
        "H": 84.47003597965056,
        "G": 80.33962523304933,
        "J": 83.64530450855142,
        "E": 81.19253495734813,
        "I": 82.70426317475199,
        "A": 77.32216296159714,
        "D": 84.91201725275175,
        "K": 78.35875073679694,
        "F": 81.02060730745609,
        "L": 78.02811941580148,
        "B": 85.09492261086149,
        "C": 86.97365133487438
    },
    "Holding_per_stop": {
        "H": 20,
        "J": 38.333333333333336,
        "A": 21.333333333333332,
        "I": 32.666666666666664,
        "E": 37.333333333333336,
        "G": 30.337078651685392,
        "K": 26,
        "D": 19.55056179775281,
        "F": 34.04494382022472,
        "L": 24.9438202247191,
        "B": 15.168539325842696,
        "C": 17.191011235955056
    },
    "Actions_tfl_edges": {
        "CD": [
            0,
            40,
            50
        ],
        "FG": [
            0,
            32,
            58
        ],
        "GH": [
            0,
            17,
            73
        ],
        "HI": [
            0,
            41,
            49
        ],
        "JK": [
            0,
            66,
            24
        ]
    },
    "Load_per_bus_per_stop": {
        "bus3": {
            "H": 123.93333333333334,
            "I": 120.93333333333334,
            "J": 115.13333333333334,
            "K": 106,
            "L": 98.33333333333333,
            "A": 88.2,
            "B": 79.53333333333333,
            "C": 74.46666666666667,
            "D": 70.13333333333334,
            "E": 68,
            "F": 89.66666666666667,
            "G": 123.86666666666666
        },
        "bus2": {
            "G": 114.93333333333334,
            "H": 119.46666666666667,
            "I": 115.53333333333333,
            "J": 110.86666666666666,
            "K": 103.86666666666666,
            "L": 95.6,
            "A": 87,
            "B": 80,
            "C": 72.8,
            "D": 69.53333333333333,
            "E": 69.46666666666667,
            "F": 91.07142857142857
        },
        "bus4": {
            "J": 120.73333333333333,
            "K": 112.66666666666667,
            "L": 104.06666666666666,
            "A": 94,
            "B": 85.2,
            "C": 81.06666666666666,
            "D": 77.06666666666666,
            "E": 77.2,
            "F": 101.66666666666667,
            "G": 134.06666666666666,
            "H": 140.86666666666667,
            "I": 135.73333333333332
        },
        "bus1": {
            "E": 71.66666666666667,
            "F": 95.06666666666666,
            "G": 131,
            "H": 140.06666666666666,
            "I": 135.53333333333333,
            "J": 127.06666666666666,
            "K": 119.73333333333333,
            "L": 109.66666666666667,
            "A": 99.2,
            "B": 90.2,
            "C": 81.4,
            "D": 78.64285714285714
        },
        "bus5": {
            "A": 112.13333333333334,
            "B": 101.66666666666667,
            "C": 94.33333333333333,
            "D": 90.8,
            "E": 88.86666666666666,
            "F": 116.6,
            "G": 156,
            "H": 166.86666666666667,
            "I": 162.06666666666666,
            "J": 153.46666666666667,
            "K": 143.86666666666667,
            "L": 132
        },
        "bus0": {
            "D": 79.8,
            "E": 81.53333333333333,
            "F": 105.33333333333333,
            "G": 141.13333333333333,
            "H": 149.53333333333333,
            "I": 145.26666666666668,
            "J": 138.26666666666668,
            "K": 129.66666666666666,
            "L": 120.53333333333333,
            "A": 107.46666666666667,
            "B": 96.35714285714286,
            "C": 88.35714285714286
        }
    },
    "Obs_and_actions_busses": {
        "0": -255.30878410642507,
        "2": 101.72250344652377,
        "5": 373.79126229389044
    },
    "Obs_and_actions_tfls": {
        "1": 249.485157576722,
        "2": -59.77365732564156
    }
}