{
    "Average_holding_time": 19.871912168344007,
    "Average_holding_actions": [
        912,
        0,
        0,
        181,
        0,
        0
    ],
    "Average_travel_time_passengers": 2853.7042687689705,
    "Average_passenger_waiting_time": 405.0521235753596,
    "Average_passenger_in_vehicle_time": 2448.652145193625,
    "Average_speed_busses": 0.04554166666666667,
    "Average_experienced_crowding": 134.03928978118842,
    "Average_covariation_headway": 0.6303524443774572,
    "Average_covariation_headway_stops": {
        "H": 0.5106802000201969,
        "G": 0.4854989311356957,
        "I": 0.511368392635393,
        "L": 0.4686969386700852,
        "K": 0.477441987846517,
        "D": 0.488021350755272,
        "J": 0.492720732134419,
        "A": 0.46794615808646167,
        "E": 0.47966481671952627,
        "B": 0.4940196985757625,
        "F": 0.47266783217062835,
        "C": 0.4966078155342317
    },
    "Average_excess_waiting_time": {
        "H": 136.66594237677987,
        "G": 128.74216055816407,
        "I": 135.36583802781422,
        "L": 117.58463280991793,
        "K": 122.68996009611027,
        "D": 128.33767759502473,
        "J": 131.3179281878754,
        "A": 119.73152129752197,
        "E": 127.78378162249186,
        "B": 129.68154221082705,
        "F": 127.20832278395568,
        "C": 132.8965615733136
    },
    "Holding_per_stop": {
        "H": 21.0989010989011,
        "L": 11.73913043478261,
        "I": 22.417582417582416,
        "K": 18.46153846153846,
        "G": 25.054945054945055,
        "D": 14.505494505494505,
        "J": 27.692307692307693,
        "A": 7.826086956521739,
        "E": 21.0989010989011,
        "B": 18.46153846153846,
        "F": 30.666666666666668,
        "C": 19.78021978021978
    },
    "Actions_tfl_edges": {
        "CD": [
            42,
            30,
            20
        ],
        "FG": [
            37,
            35,
            19
        ],
        "GH": [
            30,
            44,
            18
        ],
        "HI": [
            39,
            36,
            17
        ],
        "JK": [
            55,
            24,
            13
        ]
    },
    "Load_per_bus_per_stop": {
        "bus2": {
            "H": 164.4375,
            "I": 161.33333333333334,
            "J": 154.2,
            "K": 143,
            "L": 129.93333333333334,
            "A": 116.8,
            "B": 106.93333333333334,
            "C": 99.33333333333333,
            "D": 97.6,
            "E": 100.2,
            "F": 129,
            "G": 168.66666666666666
        },
        "bus1": {
            "G": 108.1875,
            "H": 120.73333333333333,
            "I": 119.13333333333334,
            "J": 113.8,
            "K": 106.6,
            "L": 97,
            "A": 89.73333333333333,
            "B": 79.93333333333334,
            "C": 74.53333333333333,
            "D": 71.2,
            "E": 70.53333333333333,
            "F": 87.33333333333333
        },
        "bus3": {
            "I": 141.625,
            "J": 134.9375,
            "K": 123.8,
            "L": 115.86666666666666,
            "A": 105.2,
            "B": 95.26666666666667,
            "C": 88.4,
            "D": 86.4,
            "E": 84.86666666666666,
            "F": 113,
            "G": 147.46666666666667,
            "H": 152.4
        },
        "bus5": {
            "L": 108.25,
            "A": 97.75,
            "B": 89.875,
            "C": 85.875,
            "D": 81.06666666666666,
            "E": 81.73333333333333,
            "F": 106.46666666666667,
            "G": 139.13333333333333,
            "H": 148.13333333333333,
            "I": 144.4,
            "J": 136,
            "K": 126.73333333333333
        },
        "bus4": {
            "K": 97.75,
            "L": 87.3125,
            "A": 80.1875,
            "B": 69.46666666666667,
            "C": 64.8,
            "D": 62,
            "E": 62.2,
            "F": 81.26666666666667,
            "G": 108.33333333333333,
            "H": 115.66666666666667,
            "I": 115.73333333333333,
            "J": 111.73333333333333
        },
        "bus0": {
            "D": 71.75,
            "E": 69.1875,
            "F": 91.66666666666667,
            "G": 126.26666666666667,
            "H": 135.86666666666667,
            "I": 131.53333333333333,
            "J": 122.6,
            "K": 113.46666666666667,
            "L": 104.4,
            "A": 96.13333333333334,
            "B": 86,
            "C": 81.26666666666667
        }
    },
    "Obs_and_actions_busses": {
        "0": -209.37329390624208,
        "4": 377.13982593720107
    },
    "Obs_and_actions_tfls": {
        "0": 364.56358679596485,
        "2": -574.0202328923097,
        "1": 1.1581422794079559
    }
}