{
    "Average_holding_time": 25.931707317073172,
    "Average_holding_actions": [
        663,
        204,
        0,
        108,
        50,
        0
    ],
    "Average_travel_time_passengers": 3103.925100736577,
    "Average_passenger_waiting_time": 470.5192127647305,
    "Average_passenger_in_vehicle_time": 2633.405887971865,
    "Average_speed_busses": 0.042708333333333334,
    "Average_experienced_crowding": 158.45624719052938,
    "Average_covariation_headway": 0.7341947021965443,
    "Average_covariation_headway_stops": {
        "H": 0.6642576508012137,
        "J": 0.6561906445629975,
        "B": 0.6133061982441289,
        "A": 0.62981529105633,
        "D": 0.5924226736724695,
        "K": 0.6487077343163292,
        "I": 0.6586747078629377,
        "E": 0.6055126400278426,
        "L": 0.6384923295537961,
        "C": 0.616645911131636,
        "F": 0.5953894963582046,
        "G": 0.6031018940403059
    },
    "Average_excess_waiting_time": {
        "H": 221.71094405511082,
        "J": 215.5508650247262,
        "B": 196.87599246382092,
        "A": 214.07808484805662,
        "D": 189.2188323381951,
        "K": 209.6206391407252,
        "I": 221.94129675354765,
        "E": 198.10584698942864,
        "L": 209.73608615758587,
        "C": 201.76624459894634,
        "F": 191.81263749950443,
        "G": 197.72216968700803
    },
    "Holding_per_stop": {
        "B": 18.705882352941178,
        "H": 34.883720930232556,
        "J": 25.813953488372093,
        "A": 23.571428571428573,
        "D": 20.232558139534884,
        "K": 25.517241379310345,
        "E": 20.470588235294116,
        "I": 30,
        "L": 13.255813953488373,
        "C": 33.529411764705884,
        "F": 34.588235294117645,
        "G": 30.705882352941178
    },
    "Actions_tfl_edges": {
        "CD": [
            5,
            70,
            11
        ],
        "GH": [
            4,
            68,
            14
        ],
        "JK": [
            2,
            76,
            9
        ],
        "HI": [
            2,
            72,
            12
        ],
        "FG": [
            2,
            70,
            13
        ]
    },
    "Load_per_bus_per_stop": {
        "bus2": {
            "H": 103.73333333333333,
            "I": 101.2,
            "J": 95.13333333333334,
            "K": 87.53333333333333,
            "L": 85.78571428571429,
            "A": 78,
            "B": 72.57142857142857,
            "C": 67.42857142857143,
            "D": 63,
            "E": 64.07142857142857,
            "F": 85.35714285714286,
            "G": 108.07142857142857
        },
        "bus3": {
            "J": 87,
            "K": 80.53333333333333,
            "L": 73.4,
            "A": 70.92857142857143,
            "B": 62.357142857142854,
            "C": 58.785714285714285,
            "D": 55.92857142857143,
            "E": 55.642857142857146,
            "F": 74.21428571428571,
            "G": 96.78571428571429,
            "H": 101,
            "I": 97.85714285714286
        },
        "bus0": {
            "B": 103.73333333333333,
            "C": 98.93333333333334,
            "D": 95.66666666666667,
            "E": 96.8,
            "F": 120.85714285714286,
            "G": 161.14285714285714,
            "H": 173.35714285714286,
            "I": 168.07142857142858,
            "J": 156.78571428571428,
            "K": 147.28571428571428,
            "L": 134.57142857142858,
            "A": 122.85714285714286
        },
        "bus5": {
            "A": 144.8,
            "B": 124.07142857142857,
            "C": 118.92857142857143,
            "D": 114,
            "E": 114.28571428571429,
            "F": 150.42857142857142,
            "G": 204.14285714285714,
            "H": 218.28571428571428,
            "I": 210.57142857142858,
            "J": 198.14285714285714,
            "K": 184.92857142857142,
            "L": 165.5
        },
        "bus1": {
            "D": 92.46666666666667,
            "E": 90.06666666666666,
            "F": 115.6,
            "G": 159.06666666666666,
            "H": 173.73333333333332,
            "I": 167.53333333333333,
            "J": 156.92857142857142,
            "K": 147.5,
            "L": 137.28571428571428,
            "A": 124.78571428571429,
            "B": 113.92857142857143,
            "C": 104.57142857142857
        },
        "bus4": {
            "K": 101,
            "L": 93.8,
            "A": 89.57142857142857,
            "B": 81.64285714285714,
            "C": 77.42857142857143,
            "D": 73.35714285714286,
            "E": 67.57142857142857,
            "F": 86.57142857142857,
            "G": 118,
            "H": 126.42857142857143,
            "I": 124.64285714285714,
            "J": 118
        }
    },
    "Obs_and_actions_busses": {
        "5": 655.5082142903918,
        "1": -249.07373899330884,
        "0": -181.33717015217766,
        "4": 369.77068975646876
    },
    "Obs_and_actions_tfls": {
        "2": -872.1736510558625,
        "1": 180.94830976709667,
        "0": 697.7065552398152
    }
}