{
    "Average_holding_time": 23.71375116931712,
    "Average_holding_actions": [
        853,
        0,
        0,
        197,
        0,
        0
    ],
    "Average_travel_time_passengers": 2953.522839598792,
    "Average_passenger_waiting_time": 429.30272652816495,
    "Average_passenger_in_vehicle_time": 2524.2201130705944,
    "Average_speed_busses": 0.04454166666666667,
    "Average_experienced_crowding": 140.5147162132762,
    "Average_covariation_headway": 0.6285748336105911,
    "Average_covariation_headway_stops": {
        "H": 0.585425657377072,
        "G": 0.5319736309760419,
        "E": 0.5312371541219103,
        "F": 0.512781568688837,
        "L": 0.5333920440786035,
        "K": 0.5485711903407995,
        "I": 0.5965463603288684,
        "A": 0.5108850965394585,
        "J": 0.5731905864594399,
        "B": 0.5089064843694918,
        "C": 0.4993688548742453,
        "D": 0.5110107468373623
    },
    "Average_excess_waiting_time": {
        "H": 168.3099366604082,
        "G": 151.60348750285073,
        "E": 156.60183099253328,
        "F": 147.31707366971904,
        "L": 146.9765340167034,
        "K": 155.4197060847734,
        "I": 173.73944288547432,
        "A": 142.57197200212954,
        "J": 166.6895345598453,
        "B": 145.38155057476183,
        "C": 145.7405245513072,
        "D": 151.93404740551102
    },
    "Holding_per_stop": {
        "H": 22.333333333333332,
        "G": 25.95505617977528,
        "L": 23.666666666666668,
        "F": 31.685393258426966,
        "E": 27.954545454545453,
        "I": 26.292134831460675,
        "K": 29,
        "A": 14.333333333333334,
        "J": 27.97752808988764,
        "B": 23.59550561797753,
        "C": 19.772727272727273,
        "D": 11.931818181818182
    },
    "Actions_tfl_edges": {
        "FG": [
            38,
            37,
            15
        ],
        "GH": [
            30,
            37,
            23
        ],
        "JK": [
            53,
            23,
            14
        ],
        "HI": [
            33,
            43,
            14
        ],
        "CD": [
            40,
            35,
            13
        ]
    },
    "Load_per_bus_per_stop": {
        "bus3": {
            "H": 101.73333333333333,
            "I": 100.06666666666666,
            "J": 95.06666666666666,
            "K": 87.8,
            "L": 78.8,
            "A": 72.66666666666667,
            "B": 65.26666666666667,
            "C": 62.2,
            "D": 60.8,
            "E": 61,
            "F": 78.46666666666667,
            "G": 102.64285714285714
        },
        "bus2": {
            "G": 139.66666666666666,
            "H": 151.73333333333332,
            "I": 148,
            "J": 139.46666666666667,
            "K": 131.66666666666666,
            "L": 120.46666666666667,
            "A": 109.86666666666666,
            "B": 100.2,
            "C": 91.6,
            "D": 85.93333333333334,
            "E": 83.07142857142857,
            "F": 111.85714285714286
        },
        "bus0": {
            "E": 97.73333333333333,
            "F": 129.66666666666666,
            "G": 173.06666666666666,
            "H": 184.73333333333332,
            "I": 178.2,
            "J": 166.66666666666666,
            "K": 154.93333333333334,
            "L": 144.2,
            "A": 131.86666666666667,
            "B": 121.92857142857143,
            "C": 113,
            "D": 105.85714285714286
        },
        "bus1": {
            "F": 109.13333333333334,
            "G": 147.73333333333332,
            "H": 158.6,
            "I": 156.33333333333334,
            "J": 146.4,
            "K": 135.93333333333334,
            "L": 125.26666666666667,
            "A": 113.93333333333334,
            "B": 101.06666666666666,
            "C": 94.42857142857143,
            "D": 92.57142857142857,
            "E": 89.78571428571429
        },
        "bus5": {
            "L": 109,
            "A": 97.6,
            "B": 88.73333333333333,
            "C": 82.2,
            "D": 77.8,
            "E": 76.4,
            "F": 105.13333333333334,
            "G": 141.93333333333334,
            "H": 148.53333333333333,
            "I": 144.2,
            "J": 135.06666666666666,
            "K": 125.46666666666667
        },
        "bus4": {
            "K": 89.86666666666666,
            "L": 81.86666666666666,
            "A": 74.46666666666667,
            "B": 68.46666666666667,
            "C": 63,
            "D": 60.53333333333333,
            "E": 59.6,
            "F": 78.13333333333334,
            "G": 110.13333333333334,
            "H": 117.13333333333334,
            "I": 109.57142857142857,
            "J": 103.35714285714286
        }
    },
    "Obs_and_actions_busses": {
        "0": -235.18073488843132,
        "3": 226.3616003831028,
        "4": 430.94256983936236
    },
    "Obs_and_actions_tfls": {
        "1": 26.117382807962347,
        "0": 382.47319434087757,
        "2": -629.2732094934258
    }
}919340537,
        "0": 385.9138715277959,
        "2": -736.2628714782356
    }
}