{
    "Average_holding_time": 51.653543307086615,
    "Average_holding_actions": [
        218,
        12,
        0,
        77,
        57,
        0
    ],
    "Average_travel_time_passengers": 11207.299088400268,
    "Average_passenger_waiting_time": 4218.3298868790225,
    "Average_passenger_in_vehicle_time": 6988.969201520839,
    "Average_speed_busses": 0.015875,
    "Average_experienced_crowding": 1336.5289027042,
    "Average_covariation_headway": 2.3169038275557257,
    "Average_covariation_headway_stops": {
        "H": 2.185859977453625,
        "G": 1.910029659050901,
        "J": 2.360633868787825,
        "E": 2.3209515667433007,
        "K": 2.2284308702863544,
        "D": 2.2982780532083233,
        "I": 2.3072736594146335,
        "F": 2.020505769604889,
        "L": 2.3892964071908387,
        "A": 2.3655951532124777,
        "B": 2.3411608014929217,
        "C": 2.2979581785870886
    },
    "Average_excess_waiting_time": {
        "H": 4519.784223072955,
        "G": 3625.79418669806,
        "J": 5205.969668318407,
        "E": 4687.068061656843,
        "K": 5334.883788569208,
        "D": 4646.611720544858,
        "I": 5054.43236554399,
        "F": 3870.5034779453335,
        "L": 4688.767703450498,
        "A": 4713.131609474047,
        "B": 4720.972044991172,
        "C": 4679.9230067009385
    },
    "Holding_per_stop": {
        "H": 50.294117647058826,
        "J": 49.714285714285715,
        "E": 54.375,
        "G": 54.54545454545455,
        "I": 49.411764705882355,
        "K": 51,
        "D": 54.193548387096776,
        "F": 53.4375,
        "L": 52,
        "A": 53,
        "B": 48,
        "C": 50
    },
    "Actions_tfl_edges": {
        "CD": [
            6,
            3,
            22
        ],
        "FG": [
            12,
            0,
            21
        ],
        "GH": [
            6,
            4,
            24
        ],
        "JK": [
            7,
            4,
            25
        ],
        "HI": [
            5,
            5,
            24
        ]
    },
    "Load_per_bus_per_stop": {
        "bus3": {
            "H": 41.333333333333336,
            "I": 39.166666666666664,
            "J": 36.5,
            "K": 30.2,
            "L": 28.6,
            "A": 25.6,
            "B": 19.8,
            "C": 15.8,
            "D": 13,
            "E": 11.4,
            "F": 23.2,
            "G": 47.2
        },
        "bus2": {
            "G": 14.833333333333334,
            "H": 15.166666666666666,
            "I": 15.5,
            "J": 15.5,
            "K": 13,
            "L": 11.4,
            "A": 10.8,
            "B": 10.4,
            "C": 10.2,
            "D": 11,
            "E": 10.2,
            "F": 11
        },
        "bus4": {
            "J": 194.33333333333334,
            "K": 142,
            "L": 125.6,
            "A": 107.2,
            "B": 95.8,
            "C": 86.2,
            "D": 80,
            "E": 76.4,
            "F": 141.8,
            "G": 252,
            "H": 268,
            "I": 251
        },
        "bus1": {
            "E": 15,
            "F": 21.666666666666668,
            "G": 26.5,
            "H": 26.833333333333332,
            "I": 25.166666666666668,
            "J": 24.666666666666668,
            "K": 28.6,
            "L": 26.2,
            "A": 22.4,
            "B": 19.2,
            "C": 18.6,
            "D": 18.4
        },
        "bus5": {
            "K": 1357,
            "L": 1054.6,
            "A": 971.4,
            "B": 892.4,
            "C": 868.6,
            "D": 872.2,
            "E": 899.2,
            "F": 1216.4,
            "G": 1666,
            "H": 1820.2,
            "I": 1790.8,
            "J": 1716.4
        },
        "bus0": {
            "D": 30.333333333333332,
            "E": 27.333333333333332,
            "F": 35,
            "G": 50,
            "H": 55.666666666666664,
            "I": 57,
            "J": 52.833333333333336,
            "K": 57.6,
            "L": 53,
            "A": 46.4,
            "B": 41.2,
            "C": 37.6
        }
    },
    "Obs_and_actions_busses": {
        "0": -19.680626269163824,
        "1": 1252.6313030930226,
        "3": -191.1147011466705,
        "4": 6342.425236715839,
        "5": -8533.026791500133
    },
    "Obs_and_actions_tfls": {
        "0": 2412.20811671188,
        "2": -1750.7076464531056,
        "1": 6847.23155238339
    }
}