{
    "Average_holding_time": 56.431451612903224,
    "Average_holding_actions": [
        252,
        10,
        0,
        137,
        42,
        0
    ],
    "Average_travel_time_passengers": 7830.295615269307,
    "Average_passenger_waiting_time": 2474.428899654447,
    "Average_passenger_in_vehicle_time": 5355.8667156147585,
    "Average_speed_busses": 0.020666666666666667,
    "Average_experienced_crowding": 842.8166382180078,
    "Average_covariation_headway": 1.9956537225595297,
    "Average_covariation_headway_stops": {
        "H": 1.9207221092554605,
        "G": 1.656977080934903,
        "I": 2.0630053877886136,
        "K": 2.1313179076021718,
        "E": 2.079030141525402,
        "D": 2.060361839662238,
        "J": 2.087099580940514,
        "L": 2.106462849816564,
        "F": 1.8105267729144379,
        "A": 2.0940594484705173,
        "B": 2.0839440819123567,
        "C": 2.0540451602091525
    },
    "Average_excess_waiting_time": {
        "H": 2536.904754219373,
        "G": 1983.7459443394107,
        "I": 2853.9256074384057,
        "K": 3058.9673734442567,
        "E": 3152.48057195836,
        "D": 3114.7799918807086,
        "J": 2969.2555269914837,
        "L": 3049.0839638359503,
        "F": 2834.40406741463,
        "A": 3081.8178423691797,
        "B": 3112.531877019219,
        "C": 3098.853623185444
    },
    "Holding_per_stop": {
        "H": 57.75,
        "I": 54.146341463414636,
        "E": 59.31818181818182,
        "G": 60.76923076923077,
        "K": 51.42857142857143,
        "J": 52.68292682926829,
        "D": 55.81395348837209,
        "F": 60.78947368421053,
        "L": 55.714285714285715,
        "A": 57.857142857142854,
        "B": 55,
        "C": 56.42857142857143
    },
    "Actions_tfl_edges": {
        "CD": [
            11,
            3,
            29
        ],
        "FG": [
            14,
            1,
            24
        ],
        "GH": [
            12,
            1,
            27
        ],
        "HI": [
            11,
            3,
            27
        ],
        "JK": [
            10,
            3,
            29
        ]
    },
    "Load_per_bus_per_stop": {
        "bus3": {
            "H": 25.428571428571427,
            "I": 23.571428571428573,
            "J": 21.857142857142858,
            "K": 20.571428571428573,
            "L": 17.714285714285715,
            "A": 17,
            "B": 15.428571428571429,
            "C": 14,
            "D": 12.285714285714286,
            "E": 10.857142857142858,
            "F": 13.833333333333334,
            "G": 29.166666666666668
        },
        "bus2": {
            "G": 20.571428571428573,
            "H": 21.857142857142858,
            "I": 20.285714285714285,
            "J": 18.571428571428573,
            "K": 17,
            "L": 15.857142857142858,
            "A": 13.714285714285714,
            "B": 13.142857142857142,
            "C": 12.714285714285714,
            "D": 13.571428571428571,
            "E": 13.714285714285714,
            "F": 18.333333333333332
        },
        "bus4": {
            "I": 139.42857142857142,
            "J": 131.42857142857142,
            "K": 121,
            "L": 107,
            "A": 92.57142857142857,
            "B": 78.28571428571429,
            "C": 64.57142857142857,
            "D": 58,
            "E": 55.57142857142857,
            "F": 84.16666666666667,
            "G": 162,
            "H": 173.83333333333334
        },
        "bus5": {
            "K": 800.7142857142857,
            "L": 739.8571428571429,
            "A": 686.7142857142857,
            "B": 630.5714285714286,
            "C": 602.4285714285714,
            "D": 606.1428571428571,
            "E": 623.2857142857143,
            "F": 844.8571428571429,
            "G": 934.6666666666666,
            "H": 1029.3333333333333,
            "I": 1019.5,
            "J": 987.5
        },
        "bus1": {
            "E": 28.75,
            "F": 46.57142857142857,
            "G": 59.857142857142854,
            "H": 62.57142857142857,
            "I": 60.42857142857143,
            "J": 55.857142857142854,
            "K": 51.42857142857143,
            "L": 47,
            "A": 41.857142857142854,
            "B": 36,
            "C": 36.57142857142857,
            "D": 35.142857142857146
        },
        "bus0": {
            "D": 128.875,
            "E": 129.5,
            "F": 188.42857142857142,
            "G": 239.14285714285714,
            "H": 248,
            "I": 244.85714285714286,
            "J": 230.42857142857142,
            "K": 211.57142857142858,
            "L": 195.57142857142858,
            "A": 175.71428571428572,
            "B": 157.42857142857142,
            "C": 151.57142857142858
        }
    },
    "Obs_and_actions_busses": {
        "1": 952.7570019695272,
        "0": -22.269424124501775,
        "3": -1500.3930810007864,
        "4": 3088.644566469072,
        "5": -7947.930201955199
    },
    "Obs_and_actions_tfls": {
        "0": 2280.6538043458027,
        "2": -1132.3635737579964,
        "1": 2885.299106687441
    }
}