{
    "Average_holding_time": 22.136986301369863,
    "Average_holding_actions": [
        768,
        117,
        0,
        61,
        0,
        0
    ],
    "Average_travel_time_passengers": 2741.631727270694,
    "Average_passenger_waiting_time": 335.7147070162988,
    "Average_passenger_in_vehicle_time": 2405.9170202544233,
    "Average_speed_busses": 0.045625,
    "Average_experienced_crowding": 112.77627238967148,
    "Average_covariation_headway": 0.3371939787061181,
    "Average_covariation_headway_stops": {
        "G": 0.23988045886144765,
        "F": 0.23578854150095155,
        "E": 0.27328563902455844,
        "H": 0.2408641354988455,
        "D": 0.26316147381567034,
        "C": 0.26648273441882403,
        "L": 0.20617808602567902,
        "I": 0.24435908854457425,
        "A": 0.22003567290437034,
        "J": 0.22325215864837394,
        "K": 0.22028407144752546,
        "B": 0.22574893829974416
    },
    "Average_excess_waiting_time": {
        "G": 64.2757751850794,
        "F": 66.69504529170865,
        "E": 75.33106465782504,
        "H": 66.04690553957442,
        "D": 74.36907411387574,
        "C": 75.73540415307207,
        "L": 63.884919086142304,
        "I": 68.29713158662423,
        "A": 67.90844341882786,
        "J": 66.62080638054925,
        "K": 67.79203684978614,
        "B": 70.88009864097802
    },
    "Holding_per_stop": {
        "G": 22.5,
        "E": 34.94505494505494,
        "F": 31.956521739130434,
        "H": 17.934782608695652,
        "D": 15.494505494505495,
        "L": 12.197802197802197,
        "C": 18.13186813186813,
        "I": 35.54347826086956,
        "A": 10.219780219780219,
        "J": 25.054945054945055,
        "K": 25.384615384615383,
        "B": 16
    },
    "Actions_tfl_edges": {
        "CD": [
            28,
            19,
            45
        ],
        "FG": [
            7,
            44,
            42
        ],
        "GH": [
            3,
            45,
            44
        ],
        "HI": [
            7,
            32,
            53
        ],
        "JK": [
            32,
            42,
            17
        ]
    },
    "Load_per_bus_per_stop": {
        "bus4": {
            "G": 122.875,
            "H": 132,
            "I": 128.25,
            "J": 122.375,
            "K": 111.4375,
            "L": 101.53333333333333,
            "A": 91,
            "B": 82.8,
            "C": 75.8,
            "D": 74.26666666666667,
            "E": 73.8,
            "F": 95.73333333333333
        },
        "bus3": {
            "F": 95.75,
            "G": 126.9375,
            "H": 132.625,
            "I": 131.0625,
            "J": 120.2,
            "K": 111.53333333333333,
            "L": 102.46666666666667,
            "A": 93.13333333333334,
            "B": 83.8,
            "C": 76.86666666666666,
            "D": 75.4,
            "E": 75.6
        },
        "bus2": {
            "E": 69.375,
            "F": 89.8125,
            "G": 120.2,
            "H": 129.93333333333334,
            "I": 127.13333333333334,
            "J": 119.93333333333334,
            "K": 111.73333333333333,
            "L": 102.86666666666666,
            "A": 93.26666666666667,
            "B": 84.13333333333334,
            "C": 79.53333333333333,
            "D": 76.46666666666667
        },
        "bus1": {
            "D": 71.875,
            "E": 73.73333333333333,
            "F": 100.2,
            "G": 133.2,
            "H": 142.06666666666666,
            "I": 136.33333333333334,
            "J": 128.2,
            "K": 119.26666666666667,
            "L": 109.46666666666667,
            "A": 99,
            "B": 86.53333333333333,
            "C": 79.73333333333333
        },
        "bus0": {
            "C": 81.875,
            "D": 78.6,
            "E": 76,
            "F": 102.13333333333334,
            "G": 135.2,
            "H": 145.6,
            "I": 141.86666666666667,
            "J": 132.86666666666667,
            "K": 123.06666666666666,
            "L": 110.86666666666666,
            "A": 102,
            "B": 93.06666666666666
        },
        "bus5": {
            "L": 114.75,
            "A": 103.5,
            "B": 93.6,
            "C": 84.66666666666667,
            "D": 83.4,
            "E": 83.2,
            "F": 109.2,
            "G": 145.66666666666666,
            "H": 153.26666666666668,
            "I": 149.8,
            "J": 143.6,
            "K": 134.86666666666667
        }
    },
    "Obs_and_actions_busses": {
        "0": -209.78600412665153,
        "1": 53.87144337325012,
        "3": 136.13290327458407,
        "4": 301.9257661817729
    },
    "Obs_and_actions_tfls": {
        "2": 19.29565701619072,
        "0": 323.15123464842173,
        "1": 32.024123343679655
    }
}