{
    "Average_holding_time": 24.3768115942029,
    "Average_holding_actions": [
        674,
        215,
        0,
        104,
        42,
        0
    ],
    "Average_travel_time_passengers": 3028.0037103138493,
    "Average_passenger_waiting_time": 438.0747069694386,
    "Average_passenger_in_vehicle_time": 2589.92900334443,
    "Average_speed_busses": 0.043125,
    "Average_experienced_crowding": 150.2201425321554,
    "Average_covariation_headway": 0.7271145990944787,
    "Average_covariation_headway_stops": {
        "H": 0.5990351835005369,
        "G": 0.5546642264107225,
        "F": 0.5565589666103208,
        "K": 0.6055313095965587,
        "I": 0.6136539320978228,
        "A": 0.5878351925981934,
        "D": 0.5643085656058705,
        "L": 0.606914893939585,
        "J": 0.6092822380916477,
        "E": 0.5546970458102527,
        "B": 0.5827439745342409,
        "C": 0.574735006999515
    },
    "Average_excess_waiting_time": {
        "H": 187.6826054294138,
        "G": 178.30706520449536,
        "F": 173.48969930863103,
        "K": 187.05985379673592,
        "I": 197.184133995342,
        "A": 181.60575947902322,
        "D": 174.27319219670665,
        "L": 190.46852810306206,
        "J": 198.6955381615216,
        "E": 174.36011255091017,
        "B": 182.9421266261993,
        "C": 179.79154778708727
    },
    "Holding_per_stop": {
        "H": 26.511627906976745,
        "G": 30,
        "K": 23.372093023255815,
        "I": 21.976744186046513,
        "A": 16.20689655172414,
        "D": 23.103448275862068,
        "F": 31.724137931034484,
        "L": 23.023255813953487,
        "J": 25.11627906976744,
        "B": 23.103448275862068,
        "E": 24.41860465116279,
        "C": 24.069767441860463
    },
    "Actions_tfl_edges": {
        "CD": [
            11,
            65,
            11
        ],
        "FG": [
            1,
            72,
            14
        ],
        "GH": [
            2,
            68,
            16
        ],
        "JK": [
            1,
            76,
            10
        ],
        "HI": [
            1,
            74,
            11
        ]
    },
    "Load_per_bus_per_stop": {
        "bus3": {
            "H": 142.26666666666668,
            "I": 138.2,
            "J": 131.73333333333332,
            "K": 123.46666666666667,
            "L": 114.8,
            "A": 105.93333333333334,
            "B": 95.66666666666667,
            "C": 84.07142857142857,
            "D": 84.07142857142857,
            "E": 81.28571428571429,
            "F": 106.07142857142857,
            "G": 140.64285714285714
        },
        "bus2": {
            "G": 185.13333333333333,
            "H": 200.33333333333334,
            "I": 198.13333333333333,
            "J": 189.13333333333333,
            "K": 168.35714285714286,
            "L": 154.92857142857142,
            "A": 144.5,
            "B": 129.71428571428572,
            "C": 120.07142857142857,
            "D": 113.14285714285714,
            "E": 112.21428571428571,
            "F": 146.07142857142858
        },
        "bus1": {
            "F": 152.8,
            "G": 208.8,
            "H": 216.78571428571428,
            "I": 211.28571428571428,
            "J": 199.78571428571428,
            "K": 185.57142857142858,
            "L": 170.57142857142858,
            "A": 155.85714285714286,
            "B": 142,
            "C": 133.71428571428572,
            "D": 129,
            "E": 128.42857142857142
        },
        "bus4": {
            "K": 71.53333333333333,
            "L": 65.6,
            "A": 58.46666666666667,
            "B": 53.666666666666664,
            "C": 51.6,
            "D": 51.6,
            "E": 52.142857142857146,
            "F": 68.71428571428571,
            "G": 85.57142857142857,
            "H": 90.5,
            "I": 88,
            "J": 82.07142857142857
        },
        "bus5": {
            "A": 42.6,
            "B": 38.4,
            "C": 37.266666666666666,
            "D": 34.93333333333333,
            "E": 35.06666666666667,
            "F": 46.86666666666667,
            "G": 65.14285714285714,
            "H": 67.28571428571429,
            "I": 65.21428571428571,
            "J": 60.57142857142857,
            "K": 55.142857142857146,
            "L": 50.07142857142857
        },
        "bus0": {
            "D": 84.53333333333333,
            "E": 83.33333333333333,
            "F": 110.6,
            "G": 153.92857142857142,
            "H": 161.85714285714286,
            "I": 157.78571428571428,
            "J": 147.07142857142858,
            "K": 137.92857142857142,
            "L": 126.85714285714286,
            "A": 115.35714285714286,
            "B": 103.92857142857143,
            "C": 94.78571428571429
        }
    },
    "Obs_and_actions_busses": {
        "0": -205.6413186153827,
        "4": 374.0836682366548,
        "1": -103.4780363247674,
        "5": 609.8648041794186
    },
    "Obs_and_actions_tfls": {
        "1": 183.47645666346307,
        "2": -776.7895601051541,
        "0": 700.3063168079098
    }
}