{
    "Average_holding_time": 20.68014705882353,
    "Average_holding_actions": [
        725,
        0,
        355,
        0,
        8,
        0
    ],
    "Average_travel_time_passengers": 2779.562381136768,
    "Average_passenger_waiting_time": 336.77475386069955,
    "Average_passenger_in_vehicle_time": 2442.7876272760955,
    "Average_speed_busses": 0.04533333333333334,
    "Average_experienced_crowding": 114.84278622590355,
    "Average_covariation_headway": 0.310765205628441,
    "Average_covariation_headway_stops": {
        "I": 0.20388454487846627,
        "F": 0.225244279575357,
        "J": 0.21305834330253481,
        "D": 0.2146171672026672,
        "K": 0.20678625592506156,
        "B": 0.20772627967092472,
        "G": 0.2074256645273466,
        "L": 0.18849073280252174,
        "E": 0.2101675560850795,
        "H": 0.18999522949231568,
        "A": 0.18180352593242657,
        "C": 0.22205613787781137
    },
    "Average_excess_waiting_time": {
        "I": 66.14130850186433,
        "F": 68.23815372153456,
        "J": 65.87434703608193,
        "D": 66.06403814191327,
        "K": 63.33480199417835,
        "B": 64.42097245755116,
        "G": 67.19442446577443,
        "L": 61.350010500896644,
        "E": 66.76412432322985,
        "H": 66.15806600135613,
        "A": 62.39130357244784,
        "C": 68.90937919129209
    },
    "Holding_per_stop": {
        "J": 31.64835164835165,
        "F": 29.34065934065934,
        "K": 26.703296703296704,
        "I": 29.666666666666668,
        "B": 14.175824175824175,
        "D": 14.175824175824175,
        "L": 17.142857142857142,
        "G": 24.333333333333332,
        "E": 22.417582417582416,
        "H": 15.168539325842696,
        "A": 11.208791208791208,
        "C": 12.197802197802197
    },
    "Actions_tfl_edges": {
        "CD": [
            0,
            43,
            49
        ],
        "HI": [
            0,
            29,
            61
        ],
        "JK": [
            0,
            73,
            19
        ],
        "FG": [
            0,
            29,
            62
        ],
        "GH": [
            0,
            20,
            70
        ]
    },
    "Load_per_bus_per_stop": {
        "bus3": {
            "I": 125.66666666666667,
            "J": 118.6,
            "K": 108.46666666666667,
            "L": 99,
            "A": 90.13333333333334,
            "B": 83,
            "C": 81.26666666666667,
            "D": 78,
            "E": 76.06666666666666,
            "F": 101.53333333333333,
            "G": 135.46666666666667,
            "H": 138.57142857142858
        },
        "bus2": {
            "F": 101.125,
            "G": 137.125,
            "H": 149.13333333333333,
            "I": 144.4,
            "J": 137.86666666666667,
            "K": 129.8,
            "L": 118.73333333333333,
            "A": 108.46666666666667,
            "B": 94.93333333333334,
            "C": 87.2,
            "D": 83.66666666666667,
            "E": 82.13333333333334
        },
        "bus4": {
            "J": 118.25,
            "K": 110.25,
            "L": 100.2,
            "A": 91.53333333333333,
            "B": 81.86666666666666,
            "C": 78,
            "D": 73.73333333333333,
            "E": 72.73333333333333,
            "F": 96.6,
            "G": 128.06666666666666,
            "H": 135.93333333333334,
            "I": 131.66666666666666
        },
        "bus1": {
            "D": 83.375,
            "E": 82.5625,
            "F": 108.4,
            "G": 148.06666666666666,
            "H": 158.73333333333332,
            "I": 155.2,
            "J": 147.73333333333332,
            "K": 137,
            "L": 127.2,
            "A": 115.6,
            "B": 102.66666666666667,
            "C": 93.93333333333334
        },
        "bus5": {
            "K": 108.3125,
            "L": 100.4375,
            "A": 88.75,
            "B": 78.2,
            "C": 74.2,
            "D": 69.93333333333334,
            "E": 68.66666666666667,
            "F": 92.2,
            "G": 126.46666666666667,
            "H": 135.86666666666667,
            "I": 131.6,
            "J": 124.33333333333333
        },
        "bus0": {
            "B": 86.8125,
            "C": 81.5625,
            "D": 76.6,
            "E": 75.4,
            "F": 97.33333333333333,
            "G": 132.13333333333333,
            "H": 143.53333333333333,
            "I": 140.46666666666667,
            "J": 133.53333333333333,
            "K": 126,
            "L": 115.26666666666667,
            "A": 102.53333333333333
        }
    },
    "Obs_and_actions_busses": {
        "5": 404.1399343718765,
        "2": 108.86140825490097,
        "0": -228.58303673556935
    },
    "Obs_and_actions_tfls": {
        "2": -44.713023462018484,
        "1": 247.8854901090925
    }
}131529142829,
        "1": 245.59763614828927
    }
}