{
    "Average_holding_time": 53.9265850945495,
    "Average_holding_actions": [
        370,
        200,
        3,
        220,
        106,
        0
    ],
    "Average_travel_time_passengers": 3573.341013330994,
    "Average_passenger_waiting_time": 589.0719135748398,
    "Average_passenger_in_vehicle_time": 2984.2690997561417,
    "Average_speed_busses": 0.03745833333333334,
    "Average_experienced_crowding": 205.9073992733039,
    "Average_covariation_headway": 0.9132254120503964,
    "Average_covariation_headway_stops": {
        "I": 0.7953908893967654,
        "E": 0.7489324985460949,
        "K": 0.7693711390732454,
        "J": 0.7782318223109177,
        "C": 0.7149097275221918,
        "D": 0.7302665999814036,
        "F": 0.722958809115878,
        "L": 0.7508477562496212,
        "G": 0.7139508597526433,
        "A": 0.7313948836778104,
        "H": 0.7673417639886347,
        "B": 0.7504586236361496
    },
    "Average_excess_waiting_time": {
        "I": 363.02696790239554,
        "E": 334.21265221812735,
        "K": 334.12152415139235,
        "J": 349.1757764460565,
        "C": 321.5074621443722,
        "D": 326.81145632074345,
        "F": 323.7593259381365,
        "L": 327.4916350702599,
        "G": 324.1913400538199,
        "A": 321.6550827787736,
        "H": 349.9274780188957,
        "B": 337.5521381463325
    },
    "Holding_per_stop": {
        "E": 57.2,
        "J": 54.86842105263158,
        "K": 52.10526315789474,
        "D": 44.5945945945946,
        "I": 62.4,
        "C": 49.31506849315068,
        "F": 72.8,
        "L": 50.13157894736842,
        "G": 58.78378378378378,
        "A": 46.18421052631579,
        "H": 59.189189189189186,
        "B": 39.6
    },
    "Actions_tfl_edges": {
        "CD": [
            26,
            31,
            17
        ],
        "HI": [
            34,
            34,
            7
        ],
        "JK": [
            30,
            38,
            9
        ],
        "FG": [
            33,
            34,
            8
        ],
        "GH": [
            33,
            27,
            14
        ]
    },
    "Load_per_bus_per_stop": {
        "bus3": {
            "I": 15.153846153846153,
            "J": 15.307692307692308,
            "K": 14,
            "L": 13.76923076923077,
            "A": 12.076923076923077,
            "B": 11.461538461538462,
            "C": 11.666666666666666,
            "D": 12,
            "E": 11.916666666666666,
            "F": 15.25,
            "G": 18.166666666666668,
            "H": 17.166666666666668
        },
        "bus2": {
            "E": 67.38461538461539,
            "F": 83.46153846153847,
            "G": 108.61538461538461,
            "H": 116.92307692307692,
            "I": 112.6923076923077,
            "J": 105.46153846153847,
            "K": 98.76923076923077,
            "L": 88.92307692307692,
            "A": 82,
            "B": 75.07692307692308,
            "C": 76.08333333333333,
            "D": 71.58333333333333
        },
        "bus5": {
            "K": 272.2307692307692,
            "L": 249.69230769230768,
            "A": 225.23076923076923,
            "B": 204.69230769230768,
            "C": 187.41666666666666,
            "D": 182.66666666666666,
            "E": 179.83333333333334,
            "F": 234.66666666666666,
            "G": 313.6666666666667,
            "H": 343.0833333333333,
            "I": 336.1666666666667,
            "J": 317.5
        },
        "bus4": {
            "J": 44.23076923076923,
            "K": 39.69230769230769,
            "L": 34.38461538461539,
            "A": 30.23076923076923,
            "B": 25.307692307692307,
            "C": 21.666666666666668,
            "D": 18.75,
            "E": 17.083333333333332,
            "F": 29.75,
            "G": 49.916666666666664,
            "H": 52.916666666666664,
            "I": 51.083333333333336
        },
        "bus0": {
            "C": 163.3846153846154,
            "D": 158.76923076923077,
            "E": 155.69230769230768,
            "F": 202,
            "G": 273.2307692307692,
            "H": 283.3333333333333,
            "I": 277.3333333333333,
            "J": 265.75,
            "K": 243.5,
            "L": 224.16666666666666,
            "A": 204.66666666666666,
            "B": 186.5
        },
        "bus1": {
            "D": 119.3076923076923,
            "E": 117.6923076923077,
            "F": 150.07692307692307,
            "G": 199.23076923076923,
            "H": 216.23076923076923,
            "I": 214.6153846153846,
            "J": 207.6153846153846,
            "K": 190.91666666666666,
            "L": 172.08333333333334,
            "A": 157.83333333333334,
            "B": 144,
            "C": 134.83333333333334
        }
    },
    "Obs_and_actions_busses": {
        "0": 4.940421637163185,
        "4": 352.38210546437097,
        "1": -925.5867458300245,
        "5": 563.4594893460165,
        "2": -991.8293559401133
    },
    "Obs_and_actions_tfls": {
        "0": -468.16047117255994,
        "1": 474.27897726942257,
        "2": 193.19437035287223
    }
}