{
    "Average_holding_time": 26.096654275092938,
    "Average_holding_actions": [
        598,
        185,
        200,
        0,
        36,
        0
    ],
    "Average_travel_time_passengers": 2820.269356027789,
    "Average_passenger_waiting_time": 335.2613779649117,
    "Average_passenger_in_vehicle_time": 2485.0079780628744,
    "Average_speed_busses": 0.044833333333333336,
    "Average_experienced_crowding": 113.233374430506,
    "Average_covariation_headway": 0.25519290064368194,
    "Average_covariation_headway_stops": {
        "G": 0.1715532506027033,
        "J": 0.17345400128537983,
        "K": 0.1584001942655851,
        "A": 0.1521157008212624,
        "D": 0.18415565146164242,
        "C": 0.16833470030193118,
        "H": 0.16751165535853121,
        "L": 0.14523630162107282,
        "E": 0.17785529234136557,
        "B": 0.14504434940962857,
        "I": 0.1629274391340532,
        "F": 0.13536064824090302
    },
    "Average_excess_waiting_time": {
        "G": 64.4271975125265,
        "J": 65.74004222631612,
        "K": 62.725099811223345,
        "A": 62.44410930557643,
        "D": 64.5018396801429,
        "C": 65.29420395848166,
        "H": 65.60562128781908,
        "L": 63.31747027883051,
        "E": 65.8008533920518,
        "B": 64.2506814918354,
        "I": 66.62351496104804,
        "F": 62.68948743772876
    },
    "Holding_per_stop": {
        "K": 33.666666666666664,
        "G": 29.666666666666668,
        "A": 20.333333333333332,
        "D": 17.333333333333332,
        "J": 35.666666666666664,
        "C": 10.666666666666666,
        "L": 24.333333333333332,
        "H": 20.89887640449438,
        "E": 40.333333333333336,
        "B": 10.786516853932584,
        "I": 30.674157303370787,
        "F": 38.764044943820224
    },
    "Actions_tfl_edges": {
        "CD": [
            80,
            5,
            6
        ],
        "FG": [
            28,
            56,
            6
        ],
        "JK": [
            82,
            8,
            1
        ],
        "GH": [
            22,
            66,
            2
        ],
        "HI": [
            47,
            30,
            12
        ]
    },
    "Load_per_bus_per_stop": {
        "bus2": {
            "G": 131,
            "H": 137.86666666666667,
            "I": 135.2,
            "J": 130.26666666666668,
            "K": 121.13333333333334,
            "L": 110.66666666666667,
            "A": 100.8,
            "B": 90.8,
            "C": 84.33333333333333,
            "D": 79.93333333333334,
            "E": 79.33333333333333,
            "F": 105.42857142857143
        },
        "bus3": {
            "J": 132.33333333333334,
            "K": 121.86666666666666,
            "L": 112.13333333333334,
            "A": 100.6,
            "B": 92,
            "C": 86.66666666666667,
            "D": 82.33333333333333,
            "E": 80.06666666666666,
            "F": 105.13333333333334,
            "G": 140.53333333333333,
            "H": 150.93333333333334,
            "I": 150.14285714285714
        },
        "bus4": {
            "K": 116.06666666666666,
            "L": 105.8,
            "A": 95.06666666666666,
            "B": 87,
            "C": 80.33333333333333,
            "D": 78.86666666666666,
            "E": 77.2,
            "F": 98.2,
            "G": 132,
            "H": 142.13333333333333,
            "I": 136.66666666666666,
            "J": 130.13333333333333
        },
        "bus5": {
            "A": 91.73333333333333,
            "B": 83.33333333333333,
            "C": 77.06666666666666,
            "D": 72.66666666666667,
            "E": 73.4,
            "F": 96,
            "G": 130.33333333333334,
            "H": 138.33333333333334,
            "I": 135,
            "J": 129.4,
            "K": 120.6,
            "L": 107.86666666666666
        },
        "bus1": {
            "D": 80.93333333333334,
            "E": 78.73333333333333,
            "F": 101.93333333333334,
            "G": 138.06666666666666,
            "H": 147.73333333333332,
            "I": 144.53333333333333,
            "J": 136.8,
            "K": 128.06666666666666,
            "L": 116.8,
            "A": 107.13333333333334,
            "B": 95.93333333333334,
            "C": 89.93333333333334
        },
        "bus0": {
            "C": 77.93333333333334,
            "D": 73.86666666666666,
            "E": 72.66666666666667,
            "F": 91.93333333333334,
            "G": 125.53333333333333,
            "H": 134.73333333333332,
            "I": 129.6,
            "J": 124.73333333333333,
            "K": 113.93333333333334,
            "L": 103.93333333333334,
            "A": 96.13333333333334,
            "B": 88.57142857142857
        }
    },
    "Obs_and_actions_busses": {
        "5": 283.88688139758324,
        "2": 68.12280638128902,
        "3": 168.97455635246075,
        "0": -243.47804964009677,
        "1": -22.438742655321594
    },
    "Obs_and_actions_tfls": {
        "1": -127.81742004761827,
        "0": 174.09512262205882,
        "2": 30.778990932566593
    }
}