{
    "Average_holding_time": 27.260018639328983,
    "Average_holding_actions": [
        740,
        0,
        230,
        0,
        103,
        0
    ],
    "Average_travel_time_passengers": 2801.3867814233336,
    "Average_passenger_waiting_time": 348.921979979588,
    "Average_passenger_in_vehicle_time": 2452.464801443717,
    "Average_speed_busses": 0.044708333333333336,
    "Average_experienced_crowding": 115.59977286161644,
    "Average_covariation_headway": 0.3734761541670932,
    "Average_covariation_headway_stops": {
        "I": 0.26550923758270095,
        "J": 0.2551199614894974,
        "F": 0.2625676601024647,
        "E": 0.29615587890362305,
        "A": 0.26233580046461175,
        "G": 0.25086193766647985,
        "B": 0.25945062051689455,
        "K": 0.24187937562687334,
        "H": 0.25511940520043797,
        "C": 0.27114550061953757,
        "L": 0.24617800297978873,
        "D": 0.290767987459208
    },
    "Average_excess_waiting_time": {
        "I": 78.36412619024912,
        "J": 74.79257099005059,
        "F": 76.82675267243258,
        "E": 85.13338472777207,
        "A": 78.22405611124964,
        "G": 77.1029290589945,
        "B": 77.87829073622362,
        "K": 75.21956498790661,
        "H": 79.05247196577477,
        "C": 82.74927973923735,
        "L": 77.5361920617687,
        "D": 86.1247533840421
    },
    "Holding_per_stop": {
        "J": 30.666666666666668,
        "F": 29.666666666666668,
        "I": 39.333333333333336,
        "E": 41.79775280898876,
        "A": 20.666666666666668,
        "B": 18,
        "K": 30.333333333333332,
        "G": 33.03370786516854,
        "H": 22.584269662921347,
        "C": 14.49438202247191,
        "L": 27.303370786516854,
        "D": 19.09090909090909
    },
    "Actions_tfl_edges": {
        "HI": [
            50,
            13,
            27
        ],
        "JK": [
            22,
            3,
            65
        ],
        "FG": [
            45,
            9,
            36
        ],
        "GH": [
            59,
            11,
            19
        ],
        "CD": [
            50,
            9,
            30
        ]
    },
    "Load_per_bus_per_stop": {
        "bus3": {
            "I": 127.86666666666666,
            "J": 120.53333333333333,
            "K": 113.26666666666667,
            "L": 103.73333333333333,
            "A": 94.4,
            "B": 86.06666666666666,
            "C": 78,
            "D": 73.8,
            "E": 73.13333333333334,
            "F": 99.2,
            "G": 132,
            "H": 139.35714285714286
        },
        "bus4": {
            "J": 117.4,
            "K": 109.26666666666667,
            "L": 101.33333333333333,
            "A": 92.73333333333333,
            "B": 83.6,
            "C": 76.8,
            "D": 76.26666666666667,
            "E": 73.4,
            "F": 94.46666666666667,
            "G": 128.46666666666667,
            "H": 138.26666666666668,
            "I": 133.73333333333332
        },
        "bus2": {
            "F": 91.46666666666667,
            "G": 124.2,
            "H": 131.26666666666668,
            "I": 131.53333333333333,
            "J": 125.06666666666666,
            "K": 115.4,
            "L": 105.6,
            "A": 95.4,
            "B": 86.73333333333333,
            "C": 80.93333333333334,
            "D": 76.92857142857143,
            "E": 76.42857142857143
        },
        "bus1": {
            "E": 81.6,
            "F": 108.86666666666666,
            "G": 149.8,
            "H": 159.8,
            "I": 154.8,
            "J": 148,
            "K": 138.26666666666668,
            "L": 125.06666666666666,
            "A": 113.53333333333333,
            "B": 100.73333333333333,
            "C": 93.42857142857143,
            "D": 88.14285714285714
        },
        "bus5": {
            "A": 85.06666666666666,
            "B": 76.06666666666666,
            "C": 72.33333333333333,
            "D": 70.86666666666666,
            "E": 69.53333333333333,
            "F": 90.26666666666667,
            "G": 121.2,
            "H": 127.73333333333333,
            "I": 124.86666666666666,
            "J": 116.26666666666667,
            "K": 108.73333333333333,
            "L": 99.28571428571429
        },
        "bus0": {
            "B": 92.2,
            "C": 86.26666666666667,
            "D": 82.93333333333334,
            "E": 81.86666666666666,
            "F": 107.8,
            "G": 146.93333333333334,
            "H": 155.6,
            "I": 150.06666666666666,
            "J": 140.4,
            "K": 131.26666666666668,
            "L": 120.26666666666667,
            "A": 108.93333333333334
        }
    },
    "Obs_and_actions_busses": {
        "5": 324.4782516146329,
        "2": 113.17424615010093,
        "0": -227.3700157871818
    },
    "Obs_and_actions_tfls": {
        "2": 229.3635385073593,
        "1": 112.09083391234205,
        "0": -83.73502226010835
    }
}