{
    "Average_holding_time": 28.501413760603203,
    "Average_holding_actions": [
        554,
        215,
        171,
        0,
        44,
        0
    ],
    "Average_travel_time_passengers": 2837.122637998431,
    "Average_passenger_waiting_time": 346.7040766669076,
    "Average_passenger_in_vehicle_time": 2490.418561331492,
    "Average_speed_busses": 0.044208333333333336,
    "Average_experienced_crowding": 113.05277618786742,
    "Average_covariation_headway": 0.2865812563995125,
    "Average_covariation_headway_stops": {
        "I": 0.21652317740849117,
        "K": 0.17309970353943066,
        "F": 0.20502181747739617,
        "L": 0.1874797008779938,
        "C": 0.20644805734188407,
        "B": 0.17691964004851102,
        "A": 0.15277171940066847,
        "G": 0.17948028564395754,
        "J": 0.18490259060794426,
        "D": 0.2383967294540306,
        "H": 0.1805713553284139,
        "E": 0.22494947387607875
    },
    "Average_excess_waiting_time": {
        "I": 76.62090146552623,
        "K": 70.37030790342544,
        "F": 73.99184375898204,
        "L": 70.37372183274607,
        "C": 72.19838667645973,
        "B": 69.57457307192516,
        "A": 68.40126047611005,
        "G": 72.31371175129749,
        "J": 73.86603830414674,
        "D": 78.94610961817091,
        "H": 73.96914698557691,
        "E": 78.04622377603471
    },
    "Holding_per_stop": {
        "L": 23.59550561797753,
        "I": 31.704545454545453,
        "C": 17.865168539325843,
        "K": 32.72727272727273,
        "F": 37.41573033707865,
        "B": 16.853932584269664,
        "A": 19.09090909090909,
        "J": 36.81818181818182,
        "D": 25.280898876404493,
        "G": 36.47727272727273,
        "E": 42.95454545454545,
        "H": 21.477272727272727
    },
    "Actions_tfl_edges": {
        "HI": [
            56,
            20,
            13
        ],
        "JK": [
            81,
            6,
            2
        ],
        "CD": [
            78,
            6,
            5
        ],
        "FG": [
            37,
            49,
            2
        ],
        "GH": [
            31,
            56,
            1
        ]
    },
    "Load_per_bus_per_stop": {
        "bus3": {
            "I": 127.66666666666667,
            "J": 122.93333333333334,
            "K": 115.93333333333334,
            "L": 106.06666666666666,
            "A": 96.4,
            "B": 87.73333333333333,
            "C": 83.2,
            "D": 79.86666666666666,
            "E": 75.92857142857143,
            "F": 100.07142857142857,
            "G": 131.85714285714286,
            "H": 140.71428571428572
        },
        "bus4": {
            "K": 113.73333333333333,
            "L": 103.6,
            "A": 94,
            "B": 84.6,
            "C": 79.4,
            "D": 77.53333333333333,
            "E": 76.53333333333333,
            "F": 99.66666666666667,
            "G": 131.64285714285714,
            "H": 141.64285714285714,
            "I": 135.64285714285714,
            "J": 129.64285714285714
        },
        "bus2": {
            "F": 95.06666666666666,
            "G": 127.73333333333333,
            "H": 137.66666666666666,
            "I": 135,
            "J": 126.86666666666666,
            "K": 118.6,
            "L": 107.86666666666666,
            "A": 99.33333333333333,
            "B": 88.93333333333334,
            "C": 83.57142857142857,
            "D": 79.92857142857143,
            "E": 78.57142857142857
        },
        "bus5": {
            "L": 105.06666666666666,
            "A": 95.86666666666666,
            "B": 86.6,
            "C": 81.13333333333334,
            "D": 79.53333333333333,
            "E": 77.4,
            "F": 99.86666666666666,
            "G": 130.33333333333334,
            "H": 138.8,
            "I": 136.35714285714286,
            "J": 129.21428571428572,
            "K": 120.57142857142857
        },
        "bus1": {
            "C": 88.33333333333333,
            "D": 84.33333333333333,
            "E": 82.73333333333333,
            "F": 108.13333333333334,
            "G": 147.86666666666667,
            "H": 156.2,
            "I": 150.46666666666667,
            "J": 141.86666666666667,
            "K": 131.13333333333333,
            "L": 121.93333333333334,
            "A": 108.92857142857143,
            "B": 99.71428571428571
        },
        "bus0": {
            "B": 84.13333333333334,
            "C": 80.66666666666667,
            "D": 77,
            "E": 77.73333333333333,
            "F": 101.66666666666667,
            "G": 135.13333333333333,
            "H": 140.8,
            "I": 136.93333333333334,
            "J": 128.33333333333334,
            "K": 119.26666666666667,
            "L": 107.85714285714286,
            "A": 98.64285714285714
        }
    },
    "Obs_and_actions_busses": {
        "3": 168.00852000345583,
        "5": 303.4034818266964,
        "0": -256.58836909497825,
        "2": 76.61559740004348,
        "1": -16.02113221666608
    },
    "Obs_and_actions_tfls": {
        "0": 173.64429743962307,
        "2": 26.67297899434482,
        "1": -148.91393659083582
    }
}