{
    "Average_holding_time": 19.98185117967332,
    "Average_holding_actions": [
        759,
        0,
        327,
        0,
        16,
        0
    ],
    "Average_travel_time_passengers": 2748.7299540019762,
    "Average_passenger_waiting_time": 332.25928886277825,
    "Average_passenger_in_vehicle_time": 2416.4706651392203,
    "Average_speed_busses": 0.04591666666666667,
    "Average_experienced_crowding": 111.1574979876774,
    "Average_covariation_headway": 0.29731219086393584,
    "Average_covariation_headway_stops": {
        "H": 0.21232701464857062,
        "G": 0.19773475451597763,
        "I": 0.22704720780788187,
        "E": 0.23344554835925396,
        "L": 0.1701516274990209,
        "B": 0.2190465981953711,
        "J": 0.19619056675114582,
        "A": 0.20582986798293487,
        "F": 0.19330450836453025,
        "K": 0.1655520845859448,
        "C": 0.19872094819888692,
        "D": 0.20836881206290092
    },
    "Average_excess_waiting_time": {
        "H": 60.882774668561694,
        "G": 61.30533979119082,
        "I": 60.60533558571046,
        "E": 66.81989438917032,
        "L": 54.88809762759138,
        "B": 61.373075168992216,
        "J": 58.37712960197456,
        "A": 60.89501738066241,
        "F": 62.99069531124462,
        "K": 56.068429151113605,
        "C": 62.07875965014256,
        "D": 65.45157241321033
    },
    "Holding_per_stop": {
        "H": 10.76086956521739,
        "I": 24.838709677419356,
        "L": 17.419354838709676,
        "G": 23.804347826086957,
        "B": 10.108695652173912,
        "E": 29.67032967032967,
        "J": 33.26086956521739,
        "A": 16.956521739130434,
        "K": 26.08695652173913,
        "C": 8.571428571428571,
        "F": 26.373626373626372,
        "D": 11.868131868131869
    },
    "Actions_tfl_edges": {
        "FG": [
            0,
            29,
            63
        ],
        "GH": [
            0,
            21,
            72
        ],
        "HI": [
            0,
            37,
            56
        ],
        "JK": [
            0,
            80,
            12
        ],
        "CD": [
            0,
            55,
            36
        ]
    },
    "Load_per_bus_per_stop": {
        "bus3": {
            "H": 122.75,
            "I": 121.3125,
            "J": 113.9375,
            "K": 106.6875,
            "L": 96.5625,
            "A": 88.4,
            "B": 77.8,
            "C": 72.06666666666666,
            "D": 69.06666666666666,
            "E": 69.13333333333334,
            "F": 92.26666666666667,
            "G": 122.06666666666666
        },
        "bus2": {
            "G": 133.1875,
            "H": 141.4375,
            "I": 135.5,
            "J": 129.4375,
            "K": 120.66666666666667,
            "L": 111.2,
            "A": 103.4,
            "B": 93.66666666666667,
            "C": 87.13333333333334,
            "D": 81.46666666666667,
            "E": 80.73333333333333,
            "F": 104
        },
        "bus4": {
            "I": 131,
            "J": 127.1875,
            "K": 117.875,
            "L": 108.1875,
            "A": 98.25,
            "B": 86.3125,
            "C": 82.06666666666666,
            "D": 79,
            "E": 79.53333333333333,
            "F": 101.73333333333333,
            "G": 136.2,
            "H": 143.46666666666667
        },
        "bus1": {
            "E": 77.5625,
            "F": 103.125,
            "G": 136.25,
            "H": 144.26666666666668,
            "I": 139.06666666666666,
            "J": 130.86666666666667,
            "K": 121.66666666666667,
            "L": 111.73333333333333,
            "A": 101.26666666666667,
            "B": 91.13333333333334,
            "C": 85.4,
            "D": 83.86666666666666
        },
        "bus5": {
            "L": 99.3125,
            "A": 89.125,
            "B": 80.9375,
            "C": 74.73333333333333,
            "D": 70.6,
            "E": 70.13333333333334,
            "F": 93.46666666666667,
            "G": 127.26666666666667,
            "H": 135.46666666666667,
            "I": 133.06666666666666,
            "J": 127.4,
            "K": 116.93333333333334
        },
        "bus0": {
            "B": 84.875,
            "C": 79.625,
            "D": 74.75,
            "E": 74.25,
            "F": 96.86666666666666,
            "G": 130.46666666666667,
            "H": 137.6,
            "I": 133.2,
            "J": 127.26666666666667,
            "K": 119.4,
            "L": 107.2,
            "A": 99.6
        }
    },
    "Obs_and_actions_busses": {
        "0": -215.6595413056723,
        "2": 93.47323320692487,
        "5": 366.8904866808934
    },
    "Obs_and_actions_tfls": {
        "1": 225.3411606968636,
        "2": -60.87774431789543
    }
}95.42568137560055,
        "1": 236.88301741509298
    }
}