{
    "Average_holding_time": 44.799107142857146,
    "Average_holding_actions": [
        378,
        280,
        0,
        122,
        111,
        0
    ],
    "Average_travel_time_passengers": 3651.1237285079615,
    "Average_passenger_waiting_time": 659.3602239616362,
    "Average_passenger_in_vehicle_time": 2991.7635045463608,
    "Average_speed_busses": 0.037333333333333336,
    "Average_experienced_crowding": 223.47356025593734,
    "Average_covariation_headway": 1.0207879629350223,
    "Average_covariation_headway_stops": {
        "G": 0.8078329947122794,
        "J": 0.8725715343773874,
        "L": 0.843502137527447,
        "F": 0.7953708350382874,
        "H": 0.8556009106993895,
        "A": 0.8434199573519375,
        "B": 0.8469409268483359,
        "K": 0.8568661249342222,
        "I": 0.8624775538275794,
        "C": 0.8282965328027498,
        "D": 0.810586902966791,
        "E": 0.8027302060483817
    },
    "Average_excess_waiting_time": {
        "G": 378.5524730611718,
        "J": 416.90236883438195,
        "L": 396.4426135380851,
        "F": 375.7501478496175,
        "H": 414.99044402085406,
        "A": 393.2837500167109,
        "B": 387.7872277919291,
        "K": 410.92308080525345,
        "I": 423.2537310784404,
        "C": 381.77230429660403,
        "D": 378.5117499717512,
        "E": 376.9886450702809
    },
    "Holding_per_stop": {
        "G": 47.027027027027025,
        "J": 43.37837837837838,
        "A": 42.63157894736842,
        "H": 46.62162162162162,
        "F": 52.602739726027394,
        "L": 46.4,
        "B": 50.921052631578945,
        "K": 43.37837837837838,
        "I": 47.027027027027025,
        "C": 44.60526315789474,
        "D": 37.6,
        "E": 35.6
    },
    "Actions_tfl_edges": {
        "FG": [
            18,
            44,
            12
        ],
        "GH": [
            11,
            51,
            12
        ],
        "JK": [
            17,
            42,
            15
        ],
        "HI": [
            9,
            51,
            14
        ],
        "CD": [
            24,
            39,
            13
        ]
    },
    "Load_per_bus_per_stop": {
        "bus2": {
            "G": 202.76923076923077,
            "H": 215.3846153846154,
            "I": 210.23076923076923,
            "J": 202.69230769230768,
            "K": 190.23076923076923,
            "L": 174.84615384615384,
            "A": 159.23076923076923,
            "B": 142.75,
            "C": 136.16666666666666,
            "D": 128.58333333333334,
            "E": 128.08333333333334,
            "F": 162.75
        },
        "bus3": {
            "J": 52,
            "K": 49,
            "L": 46.07692307692308,
            "A": 42.53846153846154,
            "B": 39.23076923076923,
            "C": 39,
            "D": 39.833333333333336,
            "E": 41.583333333333336,
            "F": 51.833333333333336,
            "G": 59.5,
            "H": 61.5,
            "I": 61.916666666666664
        },
        "bus4": {
            "L": 9.23076923076923,
            "A": 8.692307692307692,
            "B": 7.769230769230769,
            "C": 7.846153846153846,
            "D": 7.769230769230769,
            "E": 7.384615384615385,
            "F": 10.083333333333334,
            "G": 16.083333333333332,
            "H": 15.583333333333334,
            "I": 14.166666666666666,
            "J": 12.583333333333334,
            "K": 10.583333333333334
        },
        "bus1": {
            "F": 212.69230769230768,
            "G": 286.61538461538464,
            "H": 310.6923076923077,
            "I": 304.61538461538464,
            "J": 287.1666666666667,
            "K": 266.4166666666667,
            "L": 242,
            "A": 222.75,
            "B": 201.25,
            "C": 191.5,
            "D": 182.58333333333334,
            "E": 178.41666666666666
        },
        "bus5": {
            "A": 33,
            "B": 28.615384615384617,
            "C": 25.46153846153846,
            "D": 23,
            "E": 20.846153846153847,
            "F": 35.333333333333336,
            "G": 56.333333333333336,
            "H": 58.083333333333336,
            "I": 55,
            "J": 51.333333333333336,
            "K": 46.916666666666664,
            "L": 41.333333333333336
        },
        "bus0": {
            "B": 217,
            "C": 202.76923076923077,
            "D": 191.92307692307693,
            "E": 190.53846153846155,
            "F": 251.58333333333334,
            "G": 330.9166666666667,
            "H": 355.3333333333333,
            "I": 349.1666666666667,
            "J": 332.8333333333333,
            "K": 313.0833333333333,
            "L": 284.4166666666667,
            "A": 260.25
        }
    },
    "Obs_and_actions_busses": {
        "0": -22.740651665430427,
        "4": 396.18869420521764,
        "5": 670.2583733307695,
        "1": -650.7778826159323,
        "3": 1225.3567267716014
    },
    "Obs_and_actions_tfls": {
        "1": 222.41596871746873,
        "0": 689.8206800699153,
        "2": -1254.5168799940484
    }
}174.5769044662367,
        "2": -961.3591649579724,
        "0": 603.2570287832143
    }
}