{
    "Average_holding_time": 22.97222222222222,
    "Average_holding_actions": [
        782,
        0,
        221,
        0,
        77,
        0
    ],
    "Average_travel_time_passengers": 2787.050482848792,
    "Average_passenger_waiting_time": 339.7862786053129,
    "Average_passenger_in_vehicle_time": 2447.2642042435273,
    "Average_speed_busses": 0.045,
    "Average_experienced_crowding": 115.10025825367343,
    "Average_covariation_headway": 0.3554324286845785,
    "Average_covariation_headway_stops": {
        "G": 0.24630649845053945,
        "E": 0.23772617965957407,
        "A": 0.267693530140715,
        "F": 0.24197235838730943,
        "B": 0.2583524581710076,
        "H": 0.2568626402100763,
        "D": 0.25547025059778244,
        "I": 0.25871746172784266,
        "C": 0.25350284295242986,
        "J": 0.23010200210947712,
        "K": 0.2344285366832992,
        "L": 0.2532868630711481
    },
    "Average_excess_waiting_time": {
        "G": 68.5661323413002,
        "E": 73.03839422510691,
        "A": 78.39364397929359,
        "F": 71.80017408213394,
        "B": 75.68763313457998,
        "H": 71.94126743338768,
        "D": 76.68180589454693,
        "I": 73.84248363673453,
        "C": 77.98192401769762,
        "J": 70.3295532563692,
        "K": 72.6715203546521,
        "L": 77.9891148012943
    },
    "Holding_per_stop": {
        "G": 21.75824175824176,
        "E": 33,
        "F": 32,
        "B": 19,
        "H": 19.78021978021978,
        "D": 18,
        "A": 14.666666666666666,
        "I": 29.666666666666668,
        "C": 20.89887640449438,
        "J": 23.666666666666668,
        "K": 22.333333333333332,
        "L": 20.89887640449438
    },
    "Actions_tfl_edges": {
        "CD": [
            40,
            22,
            28
        ],
        "FG": [
            39,
            19,
            33
        ],
        "GH": [
            42,
            22,
            27
        ],
        "HI": [
            51,
            17,
            23
        ],
        "JK": [
            24,
            11,
            55
        ]
    },
    "Load_per_bus_per_stop": {
        "bus4": {
            "G": 147.3125,
            "H": 154.125,
            "I": 151,
            "J": 142.33333333333334,
            "K": 132,
            "L": 121.86666666666666,
            "A": 111.33333333333333,
            "B": 99.6,
            "C": 95.13333333333334,
            "D": 93.53333333333333,
            "E": 92.73333333333333,
            "F": 118.93333333333334
        },
        "bus2": {
            "E": 71.26666666666667,
            "F": 96.4,
            "G": 126.33333333333333,
            "H": 136.13333333333333,
            "I": 132.13333333333333,
            "J": 123.86666666666666,
            "K": 115.86666666666666,
            "L": 106.73333333333333,
            "A": 95.86666666666666,
            "B": 87.13333333333334,
            "C": 78.66666666666667,
            "D": 76.53333333333333
        },
        "bus5": {
            "A": 104.2,
            "B": 94.26666666666667,
            "C": 86.6,
            "D": 85.13333333333334,
            "E": 83.66666666666667,
            "F": 109.2,
            "G": 144.93333333333334,
            "H": 152.53333333333333,
            "I": 148.93333333333334,
            "J": 141,
            "K": 131.13333333333333,
            "L": 122.71428571428571
        },
        "bus3": {
            "F": 95.3125,
            "G": 121.46666666666667,
            "H": 131.33333333333334,
            "I": 130.6,
            "J": 124.93333333333334,
            "K": 117.13333333333334,
            "L": 108.06666666666666,
            "A": 99.13333333333334,
            "B": 89,
            "C": 83.53333333333333,
            "D": 80.33333333333333,
            "E": 78.86666666666666
        },
        "bus0": {
            "B": 85.73333333333333,
            "C": 80.66666666666667,
            "D": 78.53333333333333,
            "E": 75.13333333333334,
            "F": 102.4,
            "G": 138.8,
            "H": 144.46666666666667,
            "I": 139.93333333333334,
            "J": 133.13333333333333,
            "K": 124.73333333333333,
            "L": 112.46666666666667,
            "A": 100.86666666666666
        },
        "bus1": {
            "D": 64.26666666666667,
            "E": 64.13333333333334,
            "F": 85.6,
            "G": 115.06666666666666,
            "H": 123.73333333333333,
            "I": 119,
            "J": 112.06666666666666,
            "K": 103.46666666666667,
            "L": 93.33333333333333,
            "A": 84.26666666666667,
            "B": 75.2,
            "C": 71.5
        }
    },
    "Obs_and_actions_busses": {
        "0": -210.99569393627053,
        "2": 108.54835747066149,
        "5": 294.44271660163105
    },
    "Obs_and_actions_tfls": {
        "1": -186.7698272461712,
        "0": 45.451528705112366,
        "2": 225.26340174448498
    }
}