{
    "Average_holding_time": 22.836230558096982,
    "Average_holding_actions": [
        713,
        0,
        356,
        0,
        24,
        0
    ],
    "Average_travel_time_passengers": 2775.7489040889377,
    "Average_passenger_waiting_time": 343.8424199868659,
    "Average_passenger_in_vehicle_time": 2431.9064841020786,
    "Average_speed_busses": 0.04554166666666667,
    "Average_experienced_crowding": 115.31763570467704,
    "Average_covariation_headway": 0.3430700765672024,
    "Average_covariation_headway_stops": {
        "H": 0.2771554916990156,
        "I": 0.2692692578110728,
        "K": 0.26079585749680645,
        "J": 0.2709130981616748,
        "E": 0.262755411151027,
        "C": 0.25653870850147753,
        "L": 0.2443404678409361,
        "F": 0.25349309991991803,
        "A": 0.22913348701422565,
        "D": 0.2581899761689933,
        "G": 0.25174255355458436,
        "B": 0.22987556795099878
    },
    "Average_excess_waiting_time": {
        "H": 76.71273165532438,
        "I": 73.32023048150256,
        "K": 69.29676943510822,
        "J": 71.75042061852008,
        "E": 73.04913566421573,
        "C": 72.24557176298953,
        "L": 68.28585553462449,
        "F": 73.29531484815783,
        "A": 67.20535235990678,
        "D": 74.4914935662539,
        "G": 74.5782987069457,
        "B": 69.21787042367197
    },
    "Holding_per_stop": {
        "I": 34.285714285714285,
        "K": 22.5,
        "J": 32.28260869565217,
        "H": 23.406593406593405,
        "E": 26.043956043956044,
        "L": 20.543478260869566,
        "C": 11.538461538461538,
        "A": 17.802197802197803,
        "F": 29,
        "D": 17.802197802197803,
        "G": 28.666666666666668,
        "B": 10.219780219780219
    },
    "Actions_tfl_edges": {
        "GH": [
            0,
            29,
            62
        ],
        "HI": [
            0,
            29,
            63
        ],
        "JK": [
            0,
            67,
            26
        ],
        "CD": [
            0,
            41,
            50
        ],
        "FG": [
            0,
            31,
            59
        ]
    },
    "Load_per_bus_per_stop": {
        "bus2": {
            "H": 134.4375,
            "I": 132.06666666666666,
            "J": 127.06666666666666,
            "K": 117.13333333333334,
            "L": 106.8,
            "A": 96.33333333333333,
            "B": 85.4,
            "C": 79.06666666666666,
            "D": 78.93333333333334,
            "E": 77.33333333333333,
            "F": 102.6,
            "G": 135.13333333333333
        },
        "bus3": {
            "I": 109.8125,
            "J": 104.5,
            "K": 97.73333333333333,
            "L": 87.73333333333333,
            "A": 79.86666666666666,
            "B": 72,
            "C": 68.2,
            "D": 65.8,
            "E": 63.8,
            "F": 85,
            "G": 117.46666666666667,
            "H": 122.2
        },
        "bus5": {
            "K": 121.5625,
            "L": 111.75,
            "A": 102.5,
            "B": 92.8125,
            "C": 86.93333333333334,
            "D": 85.73333333333333,
            "E": 84.4,
            "F": 108.26666666666667,
            "G": 142.53333333333333,
            "H": 151.8,
            "I": 147.6,
            "J": 140.33333333333334
        },
        "bus4": {
            "J": 118.125,
            "K": 109.6875,
            "L": 101,
            "A": 90,
            "B": 81.66666666666667,
            "C": 78.06666666666666,
            "D": 73.2,
            "E": 70.33333333333333,
            "F": 94.4,
            "G": 126.8,
            "H": 134.86666666666667,
            "I": 131.53333333333333
        },
        "bus1": {
            "E": 80.625,
            "F": 106.3125,
            "G": 144.26666666666668,
            "H": 152.86666666666667,
            "I": 150.8,
            "J": 143.13333333333333,
            "K": 131.73333333333332,
            "L": 121.26666666666667,
            "A": 111.6,
            "B": 98.66666666666667,
            "C": 92.53333333333333,
            "D": 87.33333333333333
        },
        "bus0": {
            "C": 80.5625,
            "D": 76.75,
            "E": 75.46666666666667,
            "F": 101.46666666666667,
            "G": 137.6,
            "H": 144.93333333333334,
            "I": 141.33333333333334,
            "J": 135.46666666666667,
            "K": 124.4,
            "L": 111.8,
            "A": 101.93333333333334,
            "B": 91.93333333333334
        }
    },
    "Obs_and_actions_busses": {
        "5": 408.15308349027555,
        "2": 111.67981146317574,
        "0": -237.00018260538744
    },
    "Obs_and_actions_tfls": {
        "1": 250.98522449912716,
        "2": -54.98019901537352
    }
}