{
    "Average_holding_time": 22.561756633119852,
    "Average_holding_actions": [
        796,
        0,
        221,
        0,
        76,
        0
    ],
    "Average_travel_time_passengers": 2765.1528965696175,
    "Average_passenger_waiting_time": 334.7600167864446,
    "Average_passenger_in_vehicle_time": 2430.392879783175,
    "Average_speed_busses": 0.04554166666666667,
    "Average_experienced_crowding": 113.2669542163698,
    "Average_covariation_headway": 0.3302112819317584,
    "Average_covariation_headway_stops": {
        "F": 0.2121046415794859,
        "A": 0.23623119173174037,
        "E": 0.22793655434983218,
        "K": 0.22299039146171276,
        "D": 0.24206636201303222,
        "C": 0.25464463241385255,
        "G": 0.2066350581735746,
        "B": 0.24604366930809177,
        "H": 0.219460691470499,
        "L": 0.20595848496251012,
        "I": 0.22681925873731523,
        "J": 0.22233759444937728
    },
    "Average_excess_waiting_time": {
        "F": 60.76286250972959,
        "A": 68.59854304998419,
        "E": 65.28077522804222,
        "K": 66.2374727553252,
        "D": 70.82715286335906,
        "C": 73.7313606692548,
        "G": 61.415928338658716,
        "B": 72.16434460867873,
        "H": 64.82733781358701,
        "L": 66.5460191292633,
        "I": 67.19190759041777,
        "J": 68.04757483199285
    },
    "Holding_per_stop": {
        "F": 33.58695652173913,
        "A": 10.219780219780219,
        "E": 34.61538461538461,
        "D": 22.747252747252748,
        "C": 19.12087912087912,
        "G": 26.08695652173913,
        "K": 28.35164835164835,
        "B": 15.666666666666666,
        "H": 10.87912087912088,
        "L": 15.824175824175825,
        "I": 30.65934065934066,
        "J": 22.747252747252748
    },
    "Actions_tfl_edges": {
        "CD": [
            51,
            16,
            25
        ],
        "JK": [
            12,
            12,
            68
        ],
        "FG": [
            52,
            16,
            24
        ],
        "GH": [
            43,
            29,
            20
        ],
        "HI": [
            57,
            16,
            18
        ]
    },
    "Load_per_bus_per_stop": {
        "bus3": {
            "F": 91.5,
            "G": 125.3125,
            "H": 135.1875,
            "I": 131.9375,
            "J": 127.25,
            "K": 118.66666666666667,
            "L": 111.6,
            "A": 101.53333333333333,
            "B": 91.66666666666667,
            "C": 84.66666666666667,
            "D": 81.33333333333333,
            "E": 77.6
        },
        "bus5": {
            "A": 97,
            "B": 86.8125,
            "C": 83.46666666666667,
            "D": 79.46666666666667,
            "E": 79.06666666666666,
            "F": 101.86666666666666,
            "G": 136.46666666666667,
            "H": 148.4,
            "I": 144.46666666666667,
            "J": 137.33333333333334,
            "K": 128.53333333333333,
            "L": 115.93333333333334
        },
        "bus2": {
            "E": 70.625,
            "F": 96.5,
            "G": 129,
            "H": 134.46666666666667,
            "I": 131,
            "J": 124.26666666666667,
            "K": 115,
            "L": 105.53333333333333,
            "A": 95.33333333333333,
            "B": 84.53333333333333,
            "C": 78.86666666666666,
            "D": 75.2
        },
        "bus4": {
            "K": 102.625,
            "L": 94.8125,
            "A": 85.93333333333334,
            "B": 77.66666666666667,
            "C": 70.53333333333333,
            "D": 69.4,
            "E": 69.8,
            "F": 92.93333333333334,
            "G": 123.4,
            "H": 128.86666666666667,
            "I": 123.93333333333334,
            "J": 117.6
        },
        "bus1": {
            "D": 83.25,
            "E": 79.86666666666666,
            "F": 109.6,
            "G": 147.86666666666667,
            "H": 155.86666666666667,
            "I": 151,
            "J": 142.26666666666668,
            "K": 132.13333333333333,
            "L": 118.73333333333333,
            "A": 108.8,
            "B": 99.8,
            "C": 92.86666666666666
        },
        "bus0": {
            "C": 78.1875,
            "D": 74.46666666666667,
            "E": 74.53333333333333,
            "F": 98.86666666666666,
            "G": 131.8,
            "H": 141.33333333333334,
            "I": 137.4,
            "J": 130,
            "K": 120.8,
            "L": 109.26666666666667,
            "A": 97.93333333333334,
            "B": 89.33333333333333
        }
    },
    "Obs_and_actions_busses": {
        "0": -203.50142529465992,
        "2": 111.49102587773233,
        "5": 285.28177824203465
    },
    "Obs_and_actions_tfls": {
        "0": 25.723729453987993,
        "1": -136.04218575978007,
        "2": 232.79743855658904
    }
}