{
    "Average_holding_time": 18.165137614678898,
    "Average_holding_actions": [
        925,
        0,
        0,
        165,
        0,
        0
    ],
    "Average_travel_time_passengers": 2824.7440552421676,
    "Average_passenger_waiting_time": 388.62720636880323,
    "Average_passenger_in_vehicle_time": 2436.116848873321,
    "Average_speed_busses": 0.04541666666666667,
    "Average_experienced_crowding": 127.93508298901978,
    "Average_covariation_headway": 0.5968022021714589,
    "Average_covariation_headway_stops": {
        "L": 0.434373032102373,
        "I": 0.47363698743151433,
        "J": 0.47844715889577094,
        "A": 0.4226904802299208,
        "C": 0.4312513589022876,
        "D": 0.436517851283292,
        "K": 0.45953478038609635,
        "E": 0.43238486343477806,
        "B": 0.42073522378422507,
        "F": 0.42035552820112354,
        "G": 0.4442209010594363,
        "H": 0.4764760438174998
    },
    "Average_excess_waiting_time": {
        "L": 110.55213854372869,
        "I": 125.96261737234482,
        "J": 125.44616082767601,
        "A": 105.00979010730651,
        "C": 108.38146521270176,
        "D": 109.11395376265278,
        "K": 120.16779125476137,
        "E": 111.10797978257057,
        "B": 107.41371280269277,
        "F": 109.32550649881142,
        "G": 117.07273301096842,
        "H": 129.26972306871954
    },
    "Holding_per_stop": {
        "J": 23.736263736263737,
        "I": 14.666666666666666,
        "L": 19.78021978021978,
        "A": 13.043478260869565,
        "C": 9.130434782608695,
        "D": 9.130434782608695,
        "K": 22.666666666666668,
        "E": 15.824175824175825,
        "B": 17.142857142857142,
        "F": 17.142857142857142,
        "G": 30.666666666666668,
        "H": 25.617977528089888
    },
    "Actions_tfl_edges": {
        "CD": [
            44,
            31,
            18
        ],
        "HI": [
            40,
            32,
            18
        ],
        "JK": [
            49,
            31,
            11
        ],
        "FG": [
            37,
            34,
            20
        ],
        "GH": [
            25,
            44,
            21
        ]
    },
    "Load_per_bus_per_stop": {
        "bus4": {
            "L": 103.75,
            "A": 93.6875,
            "B": 87.86666666666666,
            "C": 80.4,
            "D": 76.06666666666666,
            "E": 74.26666666666667,
            "F": 98.8,
            "G": 135.06666666666666,
            "H": 143.66666666666666,
            "I": 138.93333333333334,
            "J": 132.26666666666668,
            "K": 120.6
        },
        "bus2": {
            "I": 151.8,
            "J": 144.53333333333333,
            "K": 135.13333333333333,
            "L": 126.06666666666666,
            "A": 114.73333333333333,
            "B": 101.4,
            "C": 96,
            "D": 92.86666666666666,
            "E": 89.26666666666667,
            "F": 115.73333333333333,
            "G": 159.8,
            "H": 165.21428571428572
        },
        "bus3": {
            "J": 123.625,
            "K": 111.86666666666666,
            "L": 103.53333333333333,
            "A": 94.06666666666666,
            "B": 86.2,
            "C": 81.33333333333333,
            "D": 78.33333333333333,
            "E": 78.53333333333333,
            "F": 103.73333333333333,
            "G": 134.86666666666667,
            "H": 143.2,
            "I": 139.46666666666667
        },
        "bus5": {
            "A": 66.875,
            "B": 60.3125,
            "C": 56.1875,
            "D": 54.13333333333333,
            "E": 53.86666666666667,
            "F": 72.53333333333333,
            "G": 94.8,
            "H": 101.53333333333333,
            "I": 100.2,
            "J": 92.53333333333333,
            "K": 85.86666666666666,
            "L": 78.46666666666667
        },
        "bus0": {
            "C": 69.5,
            "D": 66.6875,
            "E": 67.4,
            "F": 88.93333333333334,
            "G": 117.53333333333333,
            "H": 124.13333333333334,
            "I": 120.6,
            "J": 113.93333333333334,
            "K": 106.2,
            "L": 97.26666666666667,
            "A": 88.73333333333333,
            "B": 78.4
        },
        "bus1": {
            "D": 91.0625,
            "E": 90.0625,
            "F": 117.4375,
            "G": 153.5625,
            "H": 168.73333333333332,
            "I": 165.8,
            "J": 157.53333333333333,
            "K": 145.46666666666667,
            "L": 133.46666666666667,
            "A": 121.4,
            "B": 109.53333333333333,
            "C": 102.13333333333334
        }
    },
    "Obs_and_actions_busses": {
        "4": 385.6213266274923,
        "0": -201.1407927150799
    },
    "Obs_and_actions_tfls": {
        "2": -545.2568075747721,
        "0": 360.3280195346625,
        "1": 39.25413836060815
    }
}
    "Obs_and_actions_tfls": {
        "0": 400.48453878885414,
        "2": -651.4677470420951,
        "1": 23.434814983447612
    }
}