{
    "Average_holding_time": 44.17297297297297,
    "Average_holding_actions": [
        427,
        239,
        0,
        162,
        92,
        0
    ],
    "Average_travel_time_passengers": 3583.0610552126122,
    "Average_passenger_waiting_time": 627.7588207084624,
    "Average_passenger_in_vehicle_time": 2955.3022345040395,
    "Average_speed_busses": 0.03854166666666667,
    "Average_experienced_crowding": 206.42979572649136,
    "Average_covariation_headway": 0.9299018998115418,
    "Average_covariation_headway_stops": {
        "H": 0.8436254430116833,
        "G": 0.7799317473417103,
        "E": 0.770032744217571,
        "F": 0.7583891193902896,
        "L": 0.8165678785551097,
        "K": 0.8230518995468732,
        "I": 0.8437697044653922,
        "J": 0.8315150464912265,
        "A": 0.7871158183086179,
        "B": 0.7874701663477245,
        "C": 0.7738467070108003,
        "D": 0.7609485801957833
    },
    "Average_excess_waiting_time": {
        "H": 371.6099223813371,
        "G": 339.05030875856573,
        "E": 343.1733681415616,
        "F": 331.1316794579951,
        "L": 352.41667000905034,
        "K": 361.74947901846394,
        "I": 375.32180333904387,
        "J": 370.2864061650678,
        "A": 341.7109794299662,
        "B": 353.5817742843784,
        "C": 349.4958166141855,
        "D": 343.0507615003153
    },
    "Holding_per_stop": {
        "H": 53.46153846153846,
        "G": 49.87012987012987,
        "F": 51.81818181818182,
        "L": 36.075949367088604,
        "E": 46.973684210526315,
        "I": 37.69230769230769,
        "K": 39.61538461538461,
        "J": 45.1948051948052,
        "A": 39.23076923076923,
        "B": 43.026315789473685,
        "C": 41.44736842105263,
        "D": 46
    },
    "Actions_tfl_edges": {
        "FG": [
            17,
            50,
            11
        ],
        "GH": [
            13,
            52,
            13
        ],
        "JK": [
            16,
            51,
            11
        ],
        "HI": [
            9,
            58,
            11
        ],
        "CD": [
            23,
            42,
            11
        ]
    },
    "Load_per_bus_per_stop": {
        "bus3": {
            "H": 39.38461538461539,
            "I": 37.61538461538461,
            "J": 36.46153846153846,
            "K": 33.69230769230769,
            "L": 31.846153846153847,
            "A": 28.384615384615383,
            "B": 26.846153846153847,
            "C": 26.846153846153847,
            "D": 27.846153846153847,
            "E": 28.615384615384617,
            "F": 37.84615384615385,
            "G": 51.15384615384615
        },
        "bus2": {
            "G": 89.92307692307692,
            "H": 97.76923076923077,
            "I": 95.6923076923077,
            "J": 88.6923076923077,
            "K": 81.53846153846153,
            "L": 73.53846153846153,
            "A": 67.38461538461539,
            "B": 61.76923076923077,
            "C": 58,
            "D": 55.75,
            "E": 57.25,
            "F": 77.08333333333333
        },
        "bus0": {
            "E": 128.84615384615384,
            "F": 169.84615384615384,
            "G": 230.3846153846154,
            "H": 249.53846153846155,
            "I": 241.92307692307693,
            "J": 229.84615384615384,
            "K": 217.07692307692307,
            "L": 199.30769230769232,
            "A": 179.53846153846155,
            "B": 172.91666666666666,
            "C": 158.25,
            "D": 147.66666666666666
        },
        "bus1": {
            "F": 155.07692307692307,
            "G": 209.15384615384616,
            "H": 223.6153846153846,
            "I": 217.76923076923077,
            "J": 203.15384615384616,
            "K": 190.23076923076923,
            "L": 173.92307692307693,
            "A": 158.6153846153846,
            "B": 146.66666666666666,
            "C": 134.33333333333334,
            "D": 128.75,
            "E": 126.75
        },
        "bus5": {
            "L": 216.85714285714286,
            "A": 208.53846153846155,
            "B": 188.69230769230768,
            "C": 176.84615384615384,
            "D": 168.30769230769232,
            "E": 169,
            "F": 215.76923076923077,
            "G": 281.53846153846155,
            "H": 303,
            "I": 291.46153846153845,
            "J": 276.7692307692308,
            "K": 255.07692307692307
        },
        "bus4": {
            "K": 46.15384615384615,
            "L": 42.23076923076923,
            "A": 37.92307692307692,
            "B": 33.61538461538461,
            "C": 29.923076923076923,
            "D": 28.46153846153846,
            "E": 26.384615384615383,
            "F": 39.30769230769231,
            "G": 62.07692307692308,
            "H": 64.92307692307692,
            "I": 62.76923076923077,
            "J": 58.76923076923077
        }
    },
    "Obs_and_actions_busses": {
        "0": -148.07501506189513,
        "4": 405.1029715324948,
        "1": -535.3205975500539,
        "5": 646.3545955530053,
        "3": 1290.686658471311
    },
    "Obs_and_actions_tfls": {
        "1": 122.2952407110381,
        "0": 661.540680105131,
        "2": -1175.2106617775946
    }
}