{
    "Average_holding_time": 28.70178739416745,
    "Average_holding_actions": [
        563,
        174,
        213,
        0,
        39,
        0
    ],
    "Average_travel_time_passengers": 2841.905913980789,
    "Average_passenger_waiting_time": 338.8452663075466,
    "Average_passenger_in_vehicle_time": 2503.0606476731573,
    "Average_speed_busses": 0.04429166666666667,
    "Average_experienced_crowding": 116.20697807803629,
    "Average_covariation_headway": 0.27435585657136524,
    "Average_covariation_headway_stops": {
        "H": 0.2006405608944427,
        "G": 0.18612211204032883,
        "J": 0.19407100217919895,
        "D": 0.2189550835482391,
        "I": 0.19150068429097916,
        "C": 0.19615898789606512,
        "A": 0.17165766527129334,
        "E": 0.18511677672320978,
        "K": 0.17008164105376633,
        "B": 0.1943217320502129,
        "F": 0.17539838373507058,
        "L": 0.16004853572600544
    },
    "Average_excess_waiting_time": {
        "H": 70.736610315581,
        "G": 71.17467199708392,
        "J": 69.78551450194738,
        "D": 73.77857029362593,
        "I": 71.3888181955312,
        "C": 72.86954023681722,
        "A": 69.75980274639812,
        "E": 71.33332915376491,
        "K": 69.49102155245089,
        "B": 74.38065901505126,
        "F": 72.02684276406364,
        "L": 70.79551854353963
    },
    "Holding_per_stop": {
        "H": 18.876404494382022,
        "J": 39.10112359550562,
        "D": 32.69662921348315,
        "G": 28.295454545454547,
        "I": 32.69662921348315,
        "A": 20.89887640449438,
        "C": 15.681818181818182,
        "E": 33.70786516853933,
        "K": 38.42696629213483,
        "B": 10.909090909090908,
        "L": 30.681818181818183,
        "F": 42.27272727272727
    },
    "Actions_tfl_edges": {
        "CD": [
            76,
            10,
            3
        ],
        "FG": [
            25,
            51,
            13
        ],
        "GH": [
            28,
            58,
            3
        ],
        "HI": [
            46,
            23,
            20
        ],
        "JK": [
            80,
            7,
            2
        ]
    },
    "Load_per_bus_per_stop": {
        "bus3": {
            "H": 148.8,
            "I": 143.93333333333334,
            "J": 134.8,
            "K": 123.13333333333334,
            "L": 113.46666666666667,
            "A": 101,
            "B": 91.66666666666667,
            "C": 87.93333333333334,
            "D": 84.46666666666667,
            "E": 83.66666666666667,
            "F": 111.42857142857143,
            "G": 148.42857142857142
        },
        "bus2": {
            "G": 124.13333333333334,
            "H": 128.93333333333334,
            "I": 125.53333333333333,
            "J": 120.13333333333334,
            "K": 110.73333333333333,
            "L": 100.13333333333334,
            "A": 91.26666666666667,
            "B": 80.53333333333333,
            "C": 76.73333333333333,
            "D": 76.07142857142857,
            "E": 75.42857142857143,
            "F": 99.28571428571429
        },
        "bus4": {
            "J": 127.6,
            "K": 120.06666666666666,
            "L": 111.86666666666666,
            "A": 100.73333333333333,
            "B": 89.66666666666667,
            "C": 85.53333333333333,
            "D": 82.2,
            "E": 80.8,
            "F": 106.6,
            "G": 142.26666666666668,
            "H": 148.57142857142858,
            "I": 144.57142857142858
        },
        "bus1": {
            "D": 74.93333333333334,
            "E": 74.86666666666666,
            "F": 98.26666666666667,
            "G": 133.06666666666666,
            "H": 139.73333333333332,
            "I": 138.66666666666666,
            "J": 129.06666666666666,
            "K": 119.53333333333333,
            "L": 108.4,
            "A": 98.13333333333334,
            "B": 85.85714285714286,
            "C": 80.35714285714286
        },
        "bus0": {
            "C": 86.53333333333333,
            "D": 83.2,
            "E": 82.8,
            "F": 106.73333333333333,
            "G": 145.53333333333333,
            "H": 154,
            "I": 151.73333333333332,
            "J": 145.33333333333334,
            "K": 134.06666666666666,
            "L": 124.71428571428571,
            "A": 111.85714285714286,
            "B": 100.42857142857143
        },
        "bus5": {
            "A": 101.66666666666667,
            "B": 91.86666666666666,
            "C": 85.53333333333333,
            "D": 81.6,
            "E": 78.86666666666666,
            "F": 106.6,
            "G": 140.8,
            "H": 150.53333333333333,
            "I": 147.26666666666668,
            "J": 138.92857142857142,
            "K": 130.21428571428572,
            "L": 119.5
        }
    },
    "Obs_and_actions_busses": {
        "0": -257.2577574301501,
        "1": -28.73781796047468,
        "3": 168.04364440032572,
        "5": 319.13527061351175,
        "2": 69.44130730643947
    },
    "Obs_and_actions_tfls": {
        "1": -139.25212641344567,
        "0": 176.17026828788264,
        "2": 32.286305818210415
    }
}