{
    "Average_holding_time": 19.87012987012987,
    "Average_holding_actions": [
        892,
        0,
        0,
        0,
        78,
        0
    ],
    "Average_travel_time_passengers": 2844.157086000223,
    "Average_passenger_waiting_time": 392.32682504862714,
    "Average_passenger_in_vehicle_time": 2451.8302609515617,
    "Average_speed_busses": 0.04491666666666667,
    "Average_experienced_crowding": 130.91536929808177,
    "Average_covariation_headway": 0.6080703957378131,
    "Average_covariation_headway_stops": {
        "I": 0.5043842312049861,
        "F": 0.4653410963019933,
        "E": 0.47286792720648735,
        "J": 0.4964304727184039,
        "C": 0.4577860787577721,
        "G": 0.4621589265406573,
        "A": 0.44259584648404354,
        "H": 0.49670002607556724,
        "K": 0.431985850392624,
        "B": 0.4535933666704132,
        "D": 0.4560024994614844,
        "L": 0.4335731600695711
    },
    "Average_excess_waiting_time": {
        "I": 133.4593553282711,
        "F": 119.65363741588521,
        "E": 125.47289728981934,
        "J": 133.1289091150888,
        "C": 121.5001012314737,
        "G": 121.00757125549626,
        "A": 121.80330110877566,
        "H": 133.55361607721863,
        "K": 118.8468427631492,
        "B": 123.09717014112294,
        "D": 122.94035576512022,
        "L": 121.80388593322152
    },
    "Holding_per_stop": {
        "I": 20.10989010989011,
        "F": 33.956043956043956,
        "E": 25,
        "J": 24.333333333333332,
        "C": 5.333333333333333,
        "G": 28.35164835164835,
        "A": 19.55056179775281,
        "K": 19.772727272727273,
        "H": 27.666666666666668,
        "B": 19.666666666666668,
        "D": 0,
        "L": 14.318181818181818
    },
    "Actions_tfl_edges": {
        "HI": [
            27,
            52,
            12
        ],
        "FG": [
            23,
            44,
            24
        ],
        "JK": [
            17,
            55,
            18
        ],
        "CD": [
            24,
            58,
            8
        ],
        "GH": [
            26,
            34,
            31
        ]
    },
    "Load_per_bus_per_stop": {
        "bus4": {
            "I": 164.1875,
            "J": 155.4375,
            "K": 149.2,
            "L": 135.66666666666666,
            "A": 124.26666666666667,
            "B": 110,
            "C": 106,
            "D": 102.2,
            "E": 100.46666666666667,
            "F": 129.46666666666667,
            "G": 172.73333333333332,
            "H": 181.53333333333333
        },
        "bus3": {
            "F": 64.8125,
            "G": 87.9375,
            "H": 90.0625,
            "I": 86.66666666666667,
            "J": 82.93333333333334,
            "K": 77.86666666666666,
            "L": 70.86666666666666,
            "A": 63.13333333333333,
            "B": 57.4,
            "C": 52.8,
            "D": 51.333333333333336,
            "E": 51.93333333333333
        },
        "bus2": {
            "E": 48.625,
            "F": 61.733333333333334,
            "G": 83.53333333333333,
            "H": 91.6,
            "I": 90.4,
            "J": 83.6,
            "K": 78.26666666666667,
            "L": 72.2,
            "A": 65.4,
            "B": 59.733333333333334,
            "C": 55.8,
            "D": 52.8
        },
        "bus1": {
            "C": 78.66666666666667,
            "D": 77.53333333333333,
            "E": 77.06666666666666,
            "F": 98.66666666666667,
            "G": 129.46666666666667,
            "H": 138.06666666666666,
            "I": 133.6,
            "J": 125.4,
            "K": 118.2,
            "L": 109.13333333333334,
            "A": 99.06666666666666,
            "B": 89.33333333333333
        },
        "bus5": {
            "A": 124.53333333333333,
            "B": 112.2,
            "C": 103.33333333333333,
            "D": 98.66666666666667,
            "E": 96.8,
            "F": 127.73333333333333,
            "G": 170.33333333333334,
            "H": 182,
            "I": 174.53333333333333,
            "J": 162.8,
            "K": 160.57142857142858,
            "L": 146.07142857142858
        },
        "bus0": {
            "B": 93.2,
            "C": 88.86666666666666,
            "D": 86.8,
            "E": 85.73333333333333,
            "F": 111.66666666666667,
            "G": 158.4,
            "H": 168.66666666666666,
            "I": 163.53333333333333,
            "J": 154.53333333333333,
            "K": 136.35714285714286,
            "L": 123,
            "A": 111.64285714285714
        }
    },
    "Obs_and_actions_busses": {
        "0": -210.91143113500695,
        "5": 464.40221901337344,
        "3": 269.89094046467295
    },
    "Obs_and_actions_tfls": {
        "0": -479.6820244798596,
        "1": 304.35596257790525,
        "2": 12.508714581557097
    }
}