{
    "Average_holding_time": 51.76100628930818,
    "Average_holding_actions": [
        264,
        5,
        0,
        158,
        18,
        0
    ],
    "Average_travel_time_passengers": 8812.888248957646,
    "Average_passenger_waiting_time": 3119.446447989777,
    "Average_passenger_in_vehicle_time": 5693.441800967509,
    "Average_speed_busses": 0.019875,
    "Average_experienced_crowding": 1003.0951439642326,
    "Average_covariation_headway": 2.2078288063122087,
    "Average_covariation_headway_stops": {
        "H": 1.928568165688793,
        "I": 2.1486145987085434,
        "A": 2.217094867601276,
        "C": 2.195517011605302,
        "K": 2.1923177798740223,
        "B": 2.1874421684882273,
        "J": 2.160361788496834,
        "L": 2.153898666153608,
        "D": 2.1674162777950277,
        "E": 2.1576649429364343,
        "F": 1.8987141745760239,
        "G": 1.6851137209907605
    },
    "Average_excess_waiting_time": {
        "H": 3366.4032895803794,
        "I": 3334.339227264809,
        "A": 3553.236037992333,
        "C": 3433.365869936675,
        "K": 3466.5743538767438,
        "B": 3440.126335263976,
        "J": 3415.4821602060774,
        "L": 3405.8641029509354,
        "D": 3415.0340900975198,
        "E": 3435.865386080175,
        "F": 2854.9902218589086,
        "G": 2687.365805524215
    },
    "Holding_per_stop": {
        "I": 56.05263157894737,
        "H": 55.13513513513514,
        "K": 46.15384615384615,
        "A": 40.5,
        "C": 55.714285714285715,
        "B": 56.34146341463415,
        "J": 49.73684210526316,
        "L": 57.69230769230769,
        "D": 50,
        "E": 55.714285714285715,
        "F": 49.285714285714285,
        "G": 48.648648648648646
    },
    "Actions_tfl_edges": {
        "GH": [
            9,
            3,
            26
        ],
        "HI": [
            10,
            5,
            23
        ],
        "JK": [
            5,
            6,
            28
        ],
        "CD": [
            7,
            13,
            22
        ],
        "FG": [
            11,
            9,
            22
        ]
    },
    "Load_per_bus_per_stop": {
        "bus2": {
            "H": 93.42857142857143,
            "I": 90.57142857142857,
            "J": 85.57142857142857,
            "K": 79.57142857142857,
            "L": 74.57142857142857,
            "A": 67.71428571428571,
            "B": 60.857142857142854,
            "C": 58,
            "D": 56.57142857142857,
            "E": 56.285714285714285,
            "F": 66.42857142857143,
            "G": 99.33333333333333
        },
        "bus3": {
            "I": 41.857142857142854,
            "J": 39.857142857142854,
            "K": 37.285714285714285,
            "L": 34.714285714285715,
            "A": 31.857142857142858,
            "B": 29.428571428571427,
            "C": 28.857142857142858,
            "D": 30.428571428571427,
            "E": 30.142857142857142,
            "F": 36.57142857142857,
            "G": 49.5,
            "H": 49.333333333333336
        },
        "bus5": {
            "A": 23.857142857142858,
            "B": 21.285714285714285,
            "C": 20.142857142857142,
            "D": 19.857142857142858,
            "E": 20.428571428571427,
            "F": 33.857142857142854,
            "G": 48,
            "H": 47.833333333333336,
            "I": 47.166666666666664,
            "J": 42.5,
            "K": 37.833333333333336,
            "L": 32.166666666666664
        },
        "bus1": {
            "C": 698,
            "D": 685.5714285714286,
            "E": 694.8571428571429,
            "F": 929.1428571428571,
            "G": 1262.142857142857,
            "H": 1374.2857142857142,
            "I": 1199.3333333333333,
            "J": 1167,
            "K": 1100.3333333333333,
            "L": 1021.8333333333334,
            "A": 941.5,
            "B": 854.6666666666666
        },
        "bus4": {
            "K": 17.428571428571427,
            "L": 15.857142857142858,
            "A": 14.142857142857142,
            "B": 12.571428571428571,
            "C": 12.714285714285714,
            "D": 12.428571428571429,
            "E": 12.428571428571429,
            "F": 20.142857142857142,
            "G": 27.5,
            "H": 26,
            "I": 24.166666666666668,
            "J": 21.666666666666668
        },
        "bus0": {
            "B": 80.14285714285714,
            "C": 71,
            "D": 62.285714285714285,
            "E": 60.42857142857143,
            "F": 101.14285714285714,
            "G": 178,
            "H": 171.33333333333334,
            "I": 161.16666666666666,
            "J": 148,
            "K": 132,
            "L": 119.66666666666667,
            "A": 106.16666666666667
        }
    },
    "Obs_and_actions_busses": {
        "4": 5416.313865438847,
        "1": 1117.9143027070895,
        "0": -38.05336919524132,
        "3": -1325.1977159902917,
        "5": -7300.726288895336
    },
    "Obs_and_actions_tfls": {
        "0": 2987.36560271818,
        "2": -212.28637116467632,
        "1": -9.82114927859022
    }
}