{
    "Average_holding_time": 45.17722878625134,
    "Average_holding_actions": [
        464,
        180,
        0,
        213,
        74,
        0
    ],
    "Average_travel_time_passengers": 3456.346042854556,
    "Average_passenger_waiting_time": 563.010339816046,
    "Average_passenger_in_vehicle_time": 2893.3357030385255,
    "Average_speed_busses": 0.03879166666666667,
    "Average_experienced_crowding": 194.17210539832504,
    "Average_covariation_headway": 0.8858723981262454,
    "Average_covariation_headway_stops": {
        "H": 0.7636628767663651,
        "L": 0.7445458352778198,
        "J": 0.7649775864570547,
        "K": 0.7464633089065449,
        "F": 0.7047604784264248,
        "I": 0.765413726685739,
        "C": 0.7243028909151971,
        "A": 0.7198768657155807,
        "G": 0.6974514427652012,
        "D": 0.6994883184595583,
        "B": 0.7054726976710723,
        "E": 0.6973018735565762
    },
    "Average_excess_waiting_time": {
        "H": 323.09824640682393,
        "L": 301.040727932471,
        "J": 318.08046897190184,
        "K": 305.1952667894519,
        "F": 290.4303025196781,
        "I": 328.4478435393996,
        "C": 305.4598201028624,
        "A": 303.6605476392575,
        "G": 289.6366533767474,
        "D": 295.9117509473524,
        "B": 296.64045932022566,
        "E": 297.4360740028168
    },
    "Holding_per_stop": {
        "H": 51.15384615384615,
        "L": 42.75,
        "K": 36.075949367088604,
        "J": 46.92307692307692,
        "I": 48.84615384615385,
        "C": 56.103896103896105,
        "F": 63.506493506493506,
        "A": 35.84415584415584,
        "G": 45.97402597402598,
        "D": 38.18181818181818,
        "B": 37.10526315789474,
        "E": 39.74025974025974
    },
    "Actions_tfl_edges": {
        "GH": [
            38,
            26,
            14
        ],
        "JK": [
            32,
            39,
            8
        ],
        "HI": [
            32,
            33,
            13
        ],
        "CD": [
            26,
            35,
            16
        ],
        "FG": [
            38,
            32,
            7
        ]
    },
    "Load_per_bus_per_stop": {
        "bus2": {
            "H": 234.69230769230768,
            "I": 230.3846153846154,
            "J": 221.76923076923077,
            "K": 204.92307692307693,
            "L": 190.15384615384616,
            "A": 172.6153846153846,
            "B": 156.84615384615384,
            "C": 147.07692307692307,
            "D": 142,
            "E": 138.84615384615384,
            "F": 177.41666666666666,
            "G": 236.16666666666666
        },
        "bus5": {
            "L": 32.07142857142857,
            "A": 30.615384615384617,
            "B": 28,
            "C": 25,
            "D": 24.076923076923077,
            "E": 24.384615384615383,
            "F": 34.30769230769231,
            "G": 46.76923076923077,
            "H": 49.53846153846154,
            "I": 46.92307692307692,
            "J": 43.30769230769231,
            "K": 40.07692307692308
        },
        "bus3": {
            "J": 139.46153846153845,
            "K": 131.46153846153845,
            "L": 121.6923076923077,
            "A": 111.61538461538461,
            "B": 100.92307692307692,
            "C": 93.53846153846153,
            "D": 91.6923076923077,
            "E": 89.46153846153847,
            "F": 119,
            "G": 157.15384615384616,
            "H": 166.53846153846155,
            "I": 164
        },
        "bus4": {
            "K": 51.642857142857146,
            "L": 46.92857142857143,
            "A": 46.15384615384615,
            "B": 41.53846153846154,
            "C": 42.15384615384615,
            "D": 41.30769230769231,
            "E": 39.84615384615385,
            "F": 50.53846153846154,
            "G": 64.3076923076923,
            "H": 65.84615384615384,
            "I": 63.46153846153846,
            "J": 60.76923076923077
        },
        "bus1": {
            "F": 205.76923076923077,
            "G": 275.2307692307692,
            "H": 292.84615384615387,
            "I": 283.7692307692308,
            "J": 271.3076923076923,
            "K": 251.92307692307693,
            "L": 233,
            "A": 214.07692307692307,
            "B": 189.91666666666666,
            "C": 181.66666666666666,
            "D": 174.16666666666666,
            "E": 173.83333333333334
        },
        "bus0": {
            "C": 97.84615384615384,
            "D": 91.92307692307692,
            "E": 90.3076923076923,
            "F": 119,
            "G": 162,
            "H": 173.3846153846154,
            "I": 169.15384615384616,
            "J": 160.92307692307693,
            "K": 149.15384615384616,
            "L": 136.6153846153846,
            "A": 122.23076923076923,
            "B": 114.66666666666667
        }
    },
    "Obs_and_actions_busses": {
        "0": -98.38890707957265,
        "4": 362.1350744565596,
        "1": -787.6101350911656,
        "5": 577.3360095043954
    },
    "Obs_and_actions_tfls": {
        "0": -447.9368984225397,
        "1": 477.3701558825508,
        "2": 164.70853254197436
    }
}