{
    "Average_holding_time": 24.121435142594297,
    "Average_holding_actions": [
        695,
        0,
        362,
        0,
        30,
        0
    ],
    "Average_travel_time_passengers": 2794.1901615763477,
    "Average_passenger_waiting_time": 338.5703346646934,
    "Average_passenger_in_vehicle_time": 2455.6198269116185,
    "Average_speed_busses": 0.04529166666666667,
    "Average_experienced_crowding": 116.30298079156726,
    "Average_covariation_headway": 0.33372496497035226,
    "Average_covariation_headway_stops": {
        "E": 0.25311336136757284,
        "A": 0.2393345627570098,
        "J": 0.24218627074269383,
        "D": 0.24130093692126653,
        "C": 0.22674272249513197,
        "B": 0.2387544862893431,
        "F": 0.2174124501124073,
        "G": 0.21227666340618973,
        "K": 0.22343953478576256,
        "H": 0.23130124299525937,
        "L": 0.22622033602341213,
        "I": 0.24260438065145398
    },
    "Average_excess_waiting_time": {
        "E": 68.72951739332717,
        "A": 72.83305800418452,
        "J": 71.43523899199721,
        "D": 68.32242268333738,
        "C": 67.9362150589767,
        "B": 71.16123394399182,
        "F": 64.84436005192777,
        "G": 66.2642337981444,
        "K": 70.82200146010024,
        "H": 70.51797825898137,
        "L": 72.5699564459689,
        "I": 74.48508353327384
    },
    "Holding_per_stop": {
        "E": 26.08695652173913,
        "D": 20.10989010989011,
        "J": 32.333333333333336,
        "C": 12.857142857142858,
        "B": 14.505494505494505,
        "A": 23.666666666666668,
        "F": 33.2967032967033,
        "K": 31.666666666666668,
        "G": 27.692307692307693,
        "H": 19,
        "L": 19.333333333333332,
        "I": 29
    },
    "Actions_tfl_edges": {
        "CD": [
            0,
            2,
            90
        ],
        "JK": [
            0,
            7,
            83
        ],
        "FG": [
            0,
            21,
            70
        ],
        "GH": [
            0,
            40,
            51
        ],
        "HI": [
            0,
            12,
            78
        ]
    },
    "Load_per_bus_per_stop": {
        "bus3": {
            "E": 68.875,
            "F": 90.75,
            "G": 121.8125,
            "H": 130.375,
            "I": 127.2,
            "J": 120.86666666666666,
            "K": 113.33333333333333,
            "L": 104.93333333333334,
            "A": 94.8,
            "B": 84.6,
            "C": 78.33333333333333,
            "D": 73.66666666666667
        },
        "bus5": {
            "A": 113.4,
            "B": 104.26666666666667,
            "C": 97.06666666666666,
            "D": 93.6,
            "E": 92.46666666666667,
            "F": 115.46666666666667,
            "G": 153.93333333333334,
            "H": 167.6,
            "I": 162.73333333333332,
            "J": 153.26666666666668,
            "K": 143.46666666666667,
            "L": 132.33333333333334
        },
        "bus4": {
            "J": 115.66666666666667,
            "K": 108.26666666666667,
            "L": 98.4,
            "A": 89.66666666666667,
            "B": 81.26666666666667,
            "C": 75.26666666666667,
            "D": 73.6,
            "E": 70.93333333333334,
            "F": 91.53333333333333,
            "G": 125.6,
            "H": 134.53333333333333,
            "I": 132.33333333333334
        },
        "bus2": {
            "D": 78.0625,
            "E": 75.875,
            "F": 100.1875,
            "G": 134.26666666666668,
            "H": 140.46666666666667,
            "I": 135.26666666666668,
            "J": 130.06666666666666,
            "K": 122.4,
            "L": 109.73333333333333,
            "A": 100.66666666666667,
            "B": 92.13333333333334,
            "C": 85.06666666666666
        },
        "bus1": {
            "C": 85,
            "D": 81.6875,
            "E": 81.86666666666666,
            "F": 105.4,
            "G": 137,
            "H": 145.26666666666668,
            "I": 141.4,
            "J": 136.86666666666667,
            "K": 128.93333333333334,
            "L": 117.13333333333334,
            "A": 106.6,
            "B": 95.6
        },
        "bus0": {
            "B": 83.0625,
            "C": 77.86666666666666,
            "D": 75.46666666666667,
            "E": 74.4,
            "F": 98.4,
            "G": 130.26666666666668,
            "H": 139.6,
            "I": 135.06666666666666,
            "J": 129.06666666666666,
            "K": 121.53333333333333,
            "L": 109.6,
            "A": 98.53333333333333
        }
    },
    "Obs_and_actions_busses": {
        "0": -237.39946176202915,
        "2": 97.10220719075537,
        "5": 343.3705683707434
    },
    "Obs_and_actions_tfls": {
        "2": 147.56935290968073,
        "1": -278.62738146892445
    }
}