{
    "Average_holding_time": 28.72037914691943,
    "Average_holding_actions": [
        558,
        188,
        197,
        0,
        46,
        0
    ],
    "Average_travel_time_passengers": 2882.0782767697456,
    "Average_passenger_waiting_time": 348.0766474166373,
    "Average_passenger_in_vehicle_time": 2534.001629353127,
    "Average_speed_busses": 0.043958333333333335,
    "Average_experienced_crowding": 118.18913302362589,
    "Average_covariation_headway": 0.29781612810298447,
    "Average_covariation_headway_stops": {
        "G": 0.22450619810533257,
        "H": 0.24334902586800078,
        "L": 0.18506968467650756,
        "F": 0.2257246670367956,
        "J": 0.2277676244413538,
        "I": 0.2336896741631288,
        "C": 0.21429705899334733,
        "A": 0.1804144551117045,
        "K": 0.1928215980953452,
        "D": 0.22663414654497716,
        "B": 0.18469042782568218,
        "E": 0.2353046529506748
    },
    "Average_excess_waiting_time": {
        "G": 79.214537248655,
        "H": 80.18152320456778,
        "L": 70.21924212289764,
        "F": 81.73051434454328,
        "J": 75.96218958637883,
        "I": 78.90376033054196,
        "C": 78.26523466651156,
        "A": 72.15784564948041,
        "K": 72.98636241117407,
        "D": 83.16868905409257,
        "B": 74.86967398721174,
        "E": 86.54976624491235
    },
    "Holding_per_stop": {
        "H": 30.34090909090909,
        "G": 33.75,
        "L": 20.224719101123597,
        "J": 36.40449438202247,
        "I": 39.88636363636363,
        "F": 48.96551724137931,
        "C": 18.068181818181817,
        "A": 17.045454545454547,
        "K": 35.45454545454545,
        "D": 19.655172413793103,
        "B": 11.590909090909092,
        "E": 33.44827586206897
    },
    "Actions_tfl_edges": {
        "FG": [
            37,
            42,
            9
        ],
        "GH": [
            27,
            58,
            4
        ],
        "HI": [
            47,
            21,
            20
        ],
        "JK": [
            78,
            9,
            2
        ],
        "CD": [
            73,
            7,
            8
        ]
    },
    "Load_per_bus_per_stop": {
        "bus2": {
            "G": 127.6,
            "H": 134.4,
            "I": 130,
            "J": 124.93333333333334,
            "K": 117.26666666666667,
            "L": 108.6,
            "A": 98.06666666666666,
            "B": 88.26666666666667,
            "C": 82.5,
            "D": 77.57142857142857,
            "E": 78,
            "F": 103.42857142857143
        },
        "bus3": {
            "H": 139.53333333333333,
            "I": 135.26666666666668,
            "J": 128.2,
            "K": 118.46666666666667,
            "L": 108,
            "A": 100.13333333333334,
            "B": 91.26666666666667,
            "C": 85.2,
            "D": 78.28571428571429,
            "E": 78.14285714285714,
            "F": 103.71428571428571,
            "G": 140.64285714285714
        },
        "bus5": {
            "L": 105.13333333333334,
            "A": 96.6,
            "B": 88.2,
            "C": 81,
            "D": 77.86666666666666,
            "E": 77.2,
            "F": 102.26666666666667,
            "G": 139.53333333333333,
            "H": 147.93333333333334,
            "I": 141,
            "J": 133.28571428571428,
            "K": 123.35714285714286
        },
        "bus1": {
            "F": 100.8,
            "G": 134,
            "H": 143.46666666666667,
            "I": 139.4,
            "J": 133.73333333333332,
            "K": 126.26666666666667,
            "L": 115,
            "A": 106.85714285714286,
            "B": 95.57142857142857,
            "C": 89.28571428571429,
            "D": 85.07142857142857,
            "E": 85.64285714285714
        },
        "bus4": {
            "J": 130.86666666666667,
            "K": 121,
            "L": 112.13333333333334,
            "A": 103.6,
            "B": 94.4,
            "C": 87.73333333333333,
            "D": 84.26666666666667,
            "E": 83.33333333333333,
            "F": 105.5,
            "G": 140.07142857142858,
            "H": 148.92857142857142,
            "I": 145
        },
        "bus0": {
            "C": 88.66666666666667,
            "D": 85.93333333333334,
            "E": 83.86666666666666,
            "F": 112.06666666666666,
            "G": 150.4,
            "H": 157.66666666666666,
            "I": 153.4,
            "J": 144.73333333333332,
            "K": 133.35714285714286,
            "L": 123.64285714285714,
            "A": 112.57142857142857,
            "B": 101.85714285714286
        }
    },
    "Obs_and_actions_busses": {
        "2": 70.26579018285643,
        "3": 161.54506349440743,
        "5": 318.21977991415565,
        "0": -267.5641504656797,
        "1": -28.343891874095185
    },
    "Obs_and_actions_tfls": {
        "2": 14.680008154215773,
        "0": 186.58521667524886,
        "1": -161.7829465217805
    }
}