{
    "Average_holding_time": 20.98901098901099,
    "Average_holding_actions": [
        901,
        0,
        0,
        191,
        0,
        0
    ],
    "Average_travel_time_passengers": 2846.6003075451363,
    "Average_passenger_waiting_time": 388.4408015008096,
    "Average_passenger_in_vehicle_time": 2458.159506044328,
    "Average_speed_busses": 0.0455,
    "Average_experienced_crowding": 129.72252340253434,
    "Average_covariation_headway": 0.599150367067835,
    "Average_covariation_headway_stops": {
        "G": 0.47129158579787334,
        "J": 0.4838070535390842,
        "L": 0.4775305668823705,
        "K": 0.4603097325774739,
        "F": 0.4450106331885794,
        "E": 0.46396528976247875,
        "H": 0.49645115427850234,
        "A": 0.47490736063051325,
        "I": 0.4926628394178695,
        "B": 0.45204679144859,
        "C": 0.44207554038345015,
        "D": 0.45305696055109423
    },
    "Average_excess_waiting_time": {
        "G": 119.52630306747704,
        "J": 123.02819482229648,
        "L": 117.92545791516841,
        "K": 114.32846068719965,
        "F": 116.73673860429511,
        "E": 124.71463093315083,
        "H": 129.81798952778627,
        "A": 119.48701916007093,
        "I": 130.65846957040986,
        "B": 117.56407887164846,
        "C": 116.59766716002787,
        "D": 122.09475387842969
    },
    "Holding_per_stop": {
        "G": 29.01098901098901,
        "L": 16.774193548387096,
        "K": 19.565217391304348,
        "F": 22.666666666666668,
        "H": 25.054945054945055,
        "J": 23.736263736263737,
        "E": 20,
        "A": 20.869565217391305,
        "I": 23.736263736263737,
        "B": 15.824175824175825,
        "C": 20,
        "D": 14.666666666666666
    },
    "Actions_tfl_edges": {
        "FG": [
            37,
            33,
            21
        ],
        "JK": [
            51,
            28,
            13
        ],
        "GH": [
            30,
            43,
            18
        ],
        "HI": [
            33,
            42,
            16
        ],
        "CD": [
            41,
            35,
            14
        ]
    },
    "Load_per_bus_per_stop": {
        "bus2": {
            "G": 129.5,
            "H": 138.125,
            "I": 137.75,
            "J": 133.06666666666666,
            "K": 124.06666666666666,
            "L": 114.2,
            "A": 104.2,
            "B": 95.33333333333333,
            "C": 89,
            "D": 82.8,
            "E": 80.46666666666667,
            "F": 103.33333333333333
        },
        "bus3": {
            "J": 85.75,
            "K": 80.75,
            "L": 76.625,
            "A": 69.8,
            "B": 64.06666666666666,
            "C": 61.733333333333334,
            "D": 59.8,
            "E": 58.4,
            "F": 75.33333333333333,
            "G": 95.2,
            "H": 99.4,
            "I": 96.06666666666666
        },
        "bus5": {
            "L": 138.375,
            "A": 126.3125,
            "B": 112.625,
            "C": 104.26666666666667,
            "D": 100.53333333333333,
            "E": 101.06666666666666,
            "F": 133.53333333333333,
            "G": 176.33333333333334,
            "H": 187.26666666666668,
            "I": 185.4,
            "J": 175.2,
            "K": 162.2
        },
        "bus4": {
            "K": 85,
            "L": 77.6875,
            "A": 70.25,
            "B": 63.06666666666667,
            "C": 58.46666666666667,
            "D": 55.4,
            "E": 54.13333333333333,
            "F": 74.4,
            "G": 100,
            "H": 104.53333333333333,
            "I": 100.93333333333334,
            "J": 96.2
        },
        "bus1": {
            "F": 100.375,
            "G": 130.73333333333332,
            "H": 139.66666666666666,
            "I": 137.06666666666666,
            "J": 129,
            "K": 120.4,
            "L": 109.06666666666666,
            "A": 99.73333333333333,
            "B": 90.26666666666667,
            "C": 84.46666666666667,
            "D": 81.26666666666667,
            "E": 80.8
        },
        "bus0": {
            "E": 83.6,
            "F": 109.13333333333334,
            "G": 151.53333333333333,
            "H": 163,
            "I": 159.93333333333334,
            "J": 151.53333333333333,
            "K": 139.2,
            "L": 124.13333333333334,
            "A": 112.93333333333334,
            "B": 104.4,
            "C": 98.66666666666667,
            "D": 93
        }
    },
    "Obs_and_actions_busses": {
        "0": -209.9387855530002,
        "4": 384.310387730041
    },
    "Obs_and_actions_tfls": {
        "2": -574.550492967919,
        "1": 29.446411132185297,
        "0": 357.2305890543125
    }
}