{
    "Average_holding_time": 26.20991253644315,
    "Average_holding_actions": [
        669,
        194,
        0,
        125,
        41,
        0
    ],
    "Average_travel_time_passengers": 3138.828895792866,
    "Average_passenger_waiting_time": 479.2212231844331,
    "Average_passenger_in_vehicle_time": 2659.6076726084034,
    "Average_speed_busses": 0.042875,
    "Average_experienced_crowding": 157.90840029925275,
    "Average_covariation_headway": 0.7671156459764294,
    "Average_covariation_headway_stops": {
        "H": 0.6623181725744356,
        "E": 0.6237645357509435,
        "K": 0.6353835885240051,
        "A": 0.6146235433619244,
        "C": 0.6005684932211675,
        "D": 0.5940806191023251,
        "I": 0.6550001193449745,
        "L": 0.6197958749687291,
        "F": 0.6171740498073187,
        "J": 0.6481612135667838,
        "B": 0.6143961726590621,
        "G": 0.6105597095563393
    },
    "Average_excess_waiting_time": {
        "H": 219.44095993026195,
        "E": 198.68322301924468,
        "K": 210.1966746748643,
        "A": 197.88622791427605,
        "C": 192.67103072792014,
        "D": 187.2152448179532,
        "I": 218.66034577205,
        "L": 203.07145498720627,
        "F": 197.70104395482412,
        "J": 219.23192351731302,
        "B": 201.36902789520337,
        "G": 204.6528393795868
    },
    "Holding_per_stop": {
        "H": 31.764705882352942,
        "K": 24.767441860465116,
        "E": 19.655172413793103,
        "A": 24.41860465116279,
        "D": 20.689655172413794,
        "I": 29.294117647058822,
        "C": 20.232558139534884,
        "L": 22.58823529411765,
        "F": 35.172413793103445,
        "J": 25.764705882352942,
        "B": 26.511627906976745,
        "G": 33.92857142857143
    },
    "Actions_tfl_edges": {
        "CD": [
            17,
            61,
            9
        ],
        "GH": [
            4,
            65,
            16
        ],
        "JK": [
            8,
            66,
            12
        ],
        "HI": [
            2,
            72,
            11
        ],
        "FG": [
            6,
            65,
            15
        ]
    },
    "Load_per_bus_per_stop": {
        "bus3": {
            "H": 128.26666666666668,
            "I": 126.93333333333334,
            "J": 121.73333333333333,
            "K": 116.26666666666667,
            "L": 100.21428571428571,
            "A": 90.85714285714286,
            "B": 83.14285714285714,
            "C": 79.64285714285714,
            "D": 78.85714285714286,
            "E": 76.42857142857143,
            "F": 99.35714285714286,
            "G": 126.78571428571429
        },
        "bus2": {
            "E": 88.33333333333333,
            "F": 115.06666666666666,
            "G": 157.73333333333332,
            "H": 159.71428571428572,
            "I": 153.14285714285714,
            "J": 147.57142857142858,
            "K": 139.64285714285714,
            "L": 129.35714285714286,
            "A": 118.35714285714286,
            "B": 108.21428571428571,
            "C": 102,
            "D": 97
        },
        "bus4": {
            "K": 104.73333333333333,
            "L": 95.53333333333333,
            "A": 86.66666666666667,
            "B": 81,
            "C": 73.42857142857143,
            "D": 72.57142857142857,
            "E": 71.14285714285714,
            "F": 92.92857142857143,
            "G": 122.57142857142857,
            "H": 131.71428571428572,
            "I": 126.07142857142857,
            "J": 119.78571428571429
        },
        "bus5": {
            "A": 58.8,
            "B": 54.333333333333336,
            "C": 51.6,
            "D": 50.13333333333333,
            "E": 50.857142857142854,
            "F": 64,
            "G": 83.42857142857143,
            "H": 88.71428571428571,
            "I": 86.07142857142857,
            "J": 82.78571428571429,
            "K": 77.07142857142857,
            "L": 69.14285714285714
        },
        "bus0": {
            "C": 78.13333333333334,
            "D": 74.66666666666667,
            "E": 74,
            "F": 100.6,
            "G": 142.57142857142858,
            "H": 150.85714285714286,
            "I": 145.35714285714286,
            "J": 136,
            "K": 124.5,
            "L": 112.64285714285714,
            "A": 99.71428571428571,
            "B": 90.78571428571429
        },
        "bus1": {
            "D": 119.13333333333334,
            "E": 116.4,
            "F": 144.66666666666666,
            "G": 200.21428571428572,
            "H": 212.92857142857142,
            "I": 208.64285714285714,
            "J": 199.57142857142858,
            "K": 185.28571428571428,
            "L": 170.14285714285714,
            "A": 153.64285714285714,
            "B": 140.78571428571428,
            "C": 132.07142857142858
        }
    },
    "Obs_and_actions_busses": {
        "0": -237.03936486972555,
        "4": 380.5211888948271,
        "1": -31.01030874699786,
        "5": 586.9844867494406
    },
    "Obs_and_actions_tfls": {
        "1": 153.50706167201398,
        "0": 627.9508101797287,
        "2": -800.4709039443219
    }
}.1574764526797,
        "0": 615.3110771542932
    }
}