{
    "Average_holding_time": 43.70798319327731,
    "Average_holding_actions": [
        467,
        208,
        0,
        206,
        71,
        0
    ],
    "Average_travel_time_passengers": 3348.701874073195,
    "Average_passenger_waiting_time": 521.2804607731063,
    "Average_passenger_in_vehicle_time": 2827.4214132999855,
    "Average_speed_busses": 0.03966666666666667,
    "Average_experienced_crowding": 175.42432684383567,
    "Average_covariation_headway": 0.7883364681060377,
    "Average_covariation_headway_stops": {
        "G": 0.6419065678299132,
        "I": 0.6994601577094124,
        "E": 0.6294116808630938,
        "B": 0.6407313514560508,
        "C": 0.6452870959591783,
        "A": 0.6351495618489006,
        "H": 0.6788358737604845,
        "J": 0.6895385235019319,
        "F": 0.6240267817551358,
        "D": 0.6263422626454017,
        "K": 0.6625528863021438,
        "L": 0.6364573497954489
    },
    "Average_excess_waiting_time": {
        "G": 242.65020530935044,
        "I": 270.56192316725367,
        "E": 241.0251916300025,
        "B": 252.40229840271718,
        "C": 251.30215248413435,
        "A": 252.82085943848801,
        "H": 263.49953184872425,
        "J": 269.8818303416748,
        "F": 240.98711350495591,
        "D": 243.01936475635785,
        "K": 260.25479960972825,
        "L": 257.0788517365802
    },
    "Holding_per_stop": {
        "I": 43.333333333333336,
        "E": 31.875,
        "G": 51.75,
        "B": 37.9746835443038,
        "C": 52.125,
        "J": 43.5,
        "H": 47.625,
        "F": 61.89873417721519,
        "A": 36.92307692307692,
        "D": 37.59493670886076,
        "K": 42.53164556962025,
        "L": 37.01298701298701
    },
    "Actions_tfl_edges": {
        "FG": [
            36,
            33,
            11
        ],
        "HI": [
            32,
            29,
            20
        ],
        "GH": [
            35,
            21,
            24
        ],
        "CD": [
            27,
            29,
            24
        ],
        "JK": [
            28,
            36,
            16
        ]
    },
    "Load_per_bus_per_stop": {
        "bus3": {
            "G": 34.357142857142854,
            "H": 35,
            "I": 35.42857142857143,
            "J": 33.42857142857143,
            "K": 32.714285714285715,
            "L": 31.46153846153846,
            "A": 27.76923076923077,
            "B": 24.692307692307693,
            "C": 24,
            "D": 23.153846153846153,
            "E": 23.384615384615383,
            "F": 28.76923076923077
        },
        "bus4": {
            "I": 55.857142857142854,
            "J": 51.857142857142854,
            "K": 47.214285714285715,
            "L": 43.69230769230769,
            "A": 38.76923076923077,
            "B": 35.30769230769231,
            "C": 31.76923076923077,
            "D": 28.692307692307693,
            "E": 27.846153846153847,
            "F": 41.53846153846154,
            "G": 61.15384615384615,
            "H": 63.53846153846154
        },
        "bus2": {
            "E": 71.78571428571429,
            "F": 92.07142857142857,
            "G": 119.92857142857143,
            "H": 128.5,
            "I": 125.92857142857143,
            "J": 120.84615384615384,
            "K": 111.76923076923077,
            "L": 102.07692307692308,
            "A": 93.84615384615384,
            "B": 83.07692307692308,
            "C": 79.92307692307692,
            "D": 76.84615384615384
        },
        "bus0": {
            "B": 150.85714285714286,
            "C": 140.64285714285714,
            "D": 134,
            "E": 130.07692307692307,
            "F": 170.15384615384616,
            "G": 232.23076923076923,
            "H": 251.46153846153845,
            "I": 243.3846153846154,
            "J": 230,
            "K": 212.6153846153846,
            "L": 197.15384615384616,
            "A": 179.92307692307693
        },
        "bus1": {
            "C": 115.42857142857143,
            "D": 110.28571428571429,
            "E": 105.85714285714286,
            "F": 139.35714285714286,
            "G": 185.46153846153845,
            "H": 200.3846153846154,
            "I": 196.69230769230768,
            "J": 184,
            "K": 173.46153846153845,
            "L": 158.76923076923077,
            "A": 144.3846153846154,
            "B": 131.23076923076923
        },
        "bus5": {
            "A": 183.92307692307693,
            "B": 166.23076923076923,
            "C": 157.69230769230768,
            "D": 154.07692307692307,
            "E": 153.30769230769232,
            "F": 202.46153846153845,
            "G": 265.61538461538464,
            "H": 286.2307692307692,
            "I": 278.9230769230769,
            "J": 265,
            "K": 246.30769230769232,
            "L": 221.83333333333334
        }
    },
    "Obs_and_actions_busses": {
        "4": 315.1851641029828,
        "0": -51.06213405972446,
        "1": -674.453331181668,
        "5": 508.85971631421137
    },
    "Obs_and_actions_tfls": {
        "2": 190.23883336878507,
        "1": 412.63981525219236,
        "0": -407.4548777919565
    }
}