{
    "Average_holding_time": 18.93577981651376,
    "Average_holding_actions": [
        908,
        0,
        0,
        0,
        71,
        0
    ],
    "Average_travel_time_passengers": 2827.9127351223806,
    "Average_passenger_waiting_time": 379.8549037623255,
    "Average_passenger_in_vehicle_time": 2448.0578313601563,
    "Average_speed_busses": 0.04541666666666667,
    "Average_experienced_crowding": 125.9949668522893,
    "Average_covariation_headway": 0.5514785951170857,
    "Average_covariation_headway_stops": {
        "G": 0.4265489693825905,
        "I": 0.4564235503033651,
        "K": 0.4271022246028065,
        "D": 0.3929111539913201,
        "A": 0.4084279414183964,
        "C": 0.4054153541553334,
        "H": 0.44825622344525134,
        "L": 0.41779933103314937,
        "J": 0.4516419484832822,
        "E": 0.40304068361926115,
        "B": 0.40624332195075635,
        "F": 0.3939148792323476
    },
    "Average_excess_waiting_time": {
        "G": 107.65564266628121,
        "I": 115.89436230818427,
        "K": 109.6269170139019,
        "D": 99.24857892273786,
        "A": 104.93434729349639,
        "C": 104.1516870490587,
        "H": 116.17810242084579,
        "L": 109.58104119322263,
        "J": 118.30980943305815,
        "E": 102.24297311953967,
        "B": 106.76081105223733,
        "F": 101.5376081384623
    },
    "Holding_per_stop": {
        "I": 17.934782608695652,
        "K": 23.333333333333332,
        "D": 6.593406593406593,
        "A": 12.527472527472527,
        "C": 7.252747252747253,
        "G": 27.692307692307693,
        "L": 14,
        "J": 31.318681318681318,
        "E": 23.736263736263737,
        "H": 20.76923076923077,
        "B": 20.333333333333332,
        "F": 21.75824175824176
    },
    "Actions_tfl_edges": {
        "CD": [
            21,
            56,
            15
        ],
        "FG": [
            20,
            42,
            30
        ],
        "HI": [
            21,
            48,
            23
        ],
        "JK": [
            16,
            60,
            16
        ],
        "GH": [
            29,
            35,
            27
        ]
    },
    "Load_per_bus_per_stop": {
        "bus2": {
            "G": 131.9375,
            "H": 138.3125,
            "I": 131.3125,
            "J": 127.6,
            "K": 117.53333333333333,
            "L": 106.66666666666667,
            "A": 96.53333333333333,
            "B": 86.46666666666667,
            "C": 83.13333333333334,
            "D": 81.2,
            "E": 81.06666666666666,
            "F": 107.2
        },
        "bus3": {
            "I": 141.25,
            "J": 133.0625,
            "K": 128.53333333333333,
            "L": 118.06666666666666,
            "A": 106.4,
            "B": 95.66666666666667,
            "C": 88,
            "D": 84.53333333333333,
            "E": 81.93333333333334,
            "F": 107.86666666666666,
            "G": 147.66666666666666,
            "H": 154.8
        },
        "bus4": {
            "K": 141.93333333333334,
            "L": 129.66666666666666,
            "A": 118.06666666666666,
            "B": 106.26666666666667,
            "C": 100.93333333333334,
            "D": 96.86666666666666,
            "E": 93.86666666666666,
            "F": 122.66666666666667,
            "G": 166.66666666666666,
            "H": 175.6,
            "I": 174.8,
            "J": 168.73333333333332
        },
        "bus1": {
            "D": 56.9375,
            "E": 55.75,
            "F": 76.3125,
            "G": 103.5625,
            "H": 108.2,
            "I": 105.8,
            "J": 99.93333333333334,
            "K": 92.4,
            "L": 84.2,
            "A": 76.4,
            "B": 68.8,
            "C": 64.8
        },
        "bus5": {
            "A": 97.8125,
            "B": 88.625,
            "C": 81.2,
            "D": 79.93333333333334,
            "E": 78.73333333333333,
            "F": 102.93333333333334,
            "G": 135.2,
            "H": 144.53333333333333,
            "I": 140.93333333333334,
            "J": 131.8,
            "K": 123.26666666666667,
            "L": 112.33333333333333
        },
        "bus0": {
            "C": 73.875,
            "D": 71.5,
            "E": 68.26666666666667,
            "F": 88.53333333333333,
            "G": 117.06666666666666,
            "H": 123.8,
            "I": 122.66666666666667,
            "J": 114.2,
            "K": 108.33333333333333,
            "L": 99.26666666666667,
            "A": 90.6,
            "B": 82
        }
    },
    "Obs_and_actions_busses": {
        "5": 424.1411650976807,
        "0": -198.9042358178782,
        "3": 266.1808083831189
    },
    "Obs_and_actions_tfls": {
        "0": -453.71567590597493,
        "1": 283.3763080466937,
        "2": 17.725857148133823
    }
}