{
    "Average_holding_time": 38.126888217522655,
    "Average_holding_actions": [
        557,
        181,
        1,
        191,
        63,
        0
    ],
    "Average_travel_time_passengers": 3186.6561919237306,
    "Average_passenger_waiting_time": 476.3953164180822,
    "Average_passenger_in_vehicle_time": 2710.260875505593,
    "Average_speed_busses": 0.041375,
    "Average_experienced_crowding": 162.121448925719,
    "Average_covariation_headway": 0.7257044285345495,
    "Average_covariation_headway_stops": {
        "H": 0.6319895221332505,
        "G": 0.5834629899199668,
        "L": 0.603866756325324,
        "E": 0.6037628649250365,
        "A": 0.6034076370824708,
        "I": 0.6246809008969898,
        "D": 0.597929778182944,
        "F": 0.5815280699073408,
        "J": 0.6159761544219594,
        "B": 0.5994945247407005,
        "K": 0.6055938094988714,
        "C": 0.5882748022138568
    },
    "Average_excess_waiting_time": {
        "H": 218.88044402050485,
        "G": 200.4674762848154,
        "L": 209.59456321169688,
        "E": 212.81774739140445,
        "A": 207.05303466220863,
        "I": 218.3660500702693,
        "D": 212.76562246401653,
        "F": 202.22231567847797,
        "J": 213.81863440856125,
        "B": 213.3170574493367,
        "K": 212.790763069094,
        "C": 211.6778456176383
    },
    "Holding_per_stop": {
        "H": 39.642857142857146,
        "E": 45.54216867469879,
        "A": 20.357142857142858,
        "I": 31.44578313253012,
        "G": 49.1566265060241,
        "L": 36.144578313253014,
        "D": 32.926829268292686,
        "F": 57.073170731707314,
        "J": 38.674698795180724,
        "B": 33.292682926829265,
        "K": 38.674698795180724,
        "C": 34.81481481481482
    },
    "Actions_tfl_edges": {
        "CD": [
            25,
            36,
            21
        ],
        "FG": [
            41,
            34,
            8
        ],
        "GH": [
            48,
            20,
            16
        ],
        "HI": [
            36,
            25,
            23
        ],
        "JK": [
            26,
            44,
            13
        ]
    },
    "Load_per_bus_per_stop": {
        "bus3": {
            "H": 199.42857142857142,
            "I": 196.35714285714286,
            "J": 188.14285714285714,
            "K": 177,
            "L": 164,
            "A": 147.28571428571428,
            "B": 134.5,
            "C": 127.07142857142857,
            "D": 120.07142857142857,
            "E": 117.21428571428571,
            "F": 149.3846153846154,
            "G": 202.3846153846154
        },
        "bus2": {
            "G": 229.64285714285714,
            "H": 245.14285714285714,
            "I": 239.28571428571428,
            "J": 227.35714285714286,
            "K": 213.5,
            "L": 195.57142857142858,
            "A": 177.64285714285714,
            "B": 159.07142857142858,
            "C": 147.07692307692307,
            "D": 141.69230769230768,
            "E": 141.84615384615384,
            "F": 186.23076923076923
        },
        "bus4": {
            "L": 119.35714285714286,
            "A": 109.92857142857143,
            "B": 100.5,
            "C": 94.92857142857143,
            "D": 91.35714285714286,
            "E": 89.92857142857143,
            "F": 120.21428571428571,
            "G": 159.28571428571428,
            "H": 166.5,
            "I": 161.28571428571428,
            "J": 151.15384615384616,
            "K": 142.46153846153845
        },
        "bus1": {
            "E": 49.5,
            "F": 65.07142857142857,
            "G": 92.64285714285714,
            "H": 99,
            "I": 94.57142857142857,
            "J": 89.21428571428571,
            "K": 83.85714285714286,
            "L": 76.14285714285714,
            "A": 69.42857142857143,
            "B": 62.714285714285715,
            "C": 58.38461538461539,
            "D": 53.69230769230769
        },
        "bus5": {
            "A": 90.21428571428571,
            "B": 81.21428571428571,
            "C": 77.71428571428571,
            "D": 77.21428571428571,
            "E": 77.35714285714286,
            "F": 100.42857142857143,
            "G": 128.85714285714286,
            "H": 133.5,
            "I": 129.64285714285714,
            "J": 124.21428571428571,
            "K": 115.35714285714286,
            "L": 104.92307692307692
        },
        "bus0": {
            "D": 37.714285714285715,
            "E": 37.42857142857143,
            "F": 47.357142857142854,
            "G": 64.28571428571429,
            "H": 69.14285714285714,
            "I": 66.35714285714286,
            "J": 60.92857142857143,
            "K": 55,
            "L": 51.57142857142857,
            "A": 47.642857142857146,
            "B": 45.69230769230769,
            "C": 41.46153846153846
        }
    },
    "Obs_and_actions_busses": {
        "0": -132.36480912209396,
        "4": 309.04423590215356,
        "1": -518.3036331917557,
        "5": 504.0814907997548,
        "2": -1053.618784692185
    },
    "Obs_and_actions_tfls": {
        "1": 401.600804619749,
        "0": -343.41234974207055,
        "2": 198.1339808559417
    }
}