{
    "Average_holding_time": 21.333333333333332,
    "Average_holding_actions": [
        888,
        0,
        0,
        192,
        0,
        0
    ],
    "Average_travel_time_passengers": 2860.475092886131,
    "Average_passenger_waiting_time": 397.7467046316665,
    "Average_passenger_in_vehicle_time": 2462.7283882544734,
    "Average_speed_busses": 0.045,
    "Average_experienced_crowding": 131.4071784608265,
    "Average_covariation_headway": 0.6123339736086161,
    "Average_covariation_headway_stops": {
        "H": 0.5165293157551752,
        "G": 0.4825629294734796,
        "E": 0.4923542653881338,
        "I": 0.5088996909001577,
        "F": 0.480633878273056,
        "B": 0.4861209674169501,
        "C": 0.474791668046812,
        "J": 0.478339063748298,
        "D": 0.48073923859444717,
        "K": 0.44647288180873523,
        "L": 0.4369366966179161,
        "A": 0.4358706292585216
    },
    "Average_excess_waiting_time": {
        "H": 134.56346697991148,
        "G": 126.07234370325511,
        "E": 133.81557245422294,
        "I": 135.31136846880753,
        "F": 127.62807977747661,
        "B": 133.85118137624005,
        "C": 128.60710989962297,
        "J": 131.36720717090463,
        "D": 132.8665818327246,
        "K": 120.35321930603556,
        "L": 120.38718362328888,
        "A": 122.40231405809863
    },
    "Holding_per_stop": {
        "H": 30,
        "G": 29.01098901098901,
        "I": 11.868131868131869,
        "F": 35.604395604395606,
        "C": 17.333333333333332,
        "E": 22.666666666666668,
        "B": 21.573033707865168,
        "J": 21.333333333333332,
        "D": 12.134831460674157,
        "K": 25.617977528089888,
        "L": 17.528089887640448,
        "A": 10.786516853932584
    },
    "Actions_tfl_edges": {
        "FG": [
            36,
            42,
            14
        ],
        "GH": [
            34,
            40,
            18
        ],
        "HI": [
            36,
            42,
            14
        ],
        "CD": [
            47,
            30,
            13
        ],
        "JK": [
            57,
            21,
            12
        ]
    },
    "Load_per_bus_per_stop": {
        "bus5": {
            "H": 147.625,
            "I": 142.8125,
            "J": 141.6,
            "K": 131.06666666666666,
            "L": 120.46666666666667,
            "A": 110.73333333333333,
            "B": 99.46666666666667,
            "C": 93.53333333333333,
            "D": 90.93333333333334,
            "E": 87.93333333333334,
            "F": 113.53333333333333,
            "G": 147.8
        },
        "bus4": {
            "G": 89.4375,
            "H": 92.6875,
            "I": 86.53333333333333,
            "J": 80,
            "K": 75.66666666666667,
            "L": 69.73333333333333,
            "A": 64.46666666666667,
            "B": 59.2,
            "C": 54.6,
            "D": 53.333333333333336,
            "E": 55.13333333333333,
            "F": 74.2
        },
        "bus2": {
            "E": 73.2,
            "F": 95.26666666666667,
            "G": 129.73333333333332,
            "H": 140.2,
            "I": 137.46666666666667,
            "J": 132.33333333333334,
            "K": 123.6,
            "L": 112.53333333333333,
            "A": 100.73333333333333,
            "B": 90.73333333333333,
            "C": 85.2,
            "D": 80.53333333333333
        },
        "bus3": {
            "F": 59.25,
            "G": 75.06666666666666,
            "H": 82.66666666666667,
            "I": 79.73333333333333,
            "J": 78,
            "K": 74.46666666666667,
            "L": 69.13333333333334,
            "A": 64.73333333333333,
            "B": 56.266666666666666,
            "C": 51.733333333333334,
            "D": 50.2,
            "E": 48.333333333333336
        },
        "bus0": {
            "B": 121.66666666666667,
            "C": 110.8,
            "D": 105.86666666666666,
            "E": 104.13333333333334,
            "F": 140.26666666666668,
            "G": 190.46666666666667,
            "H": 204.46666666666667,
            "I": 198.06666666666666,
            "J": 189.73333333333332,
            "K": 174.42857142857142,
            "L": 160.28571428571428,
            "A": 143.92857142857142
        },
        "bus1": {
            "C": 92.46666666666667,
            "D": 87.73333333333333,
            "E": 86.33333333333333,
            "F": 113.8,
            "G": 148.46666666666667,
            "H": 159.13333333333333,
            "I": 158.73333333333332,
            "J": 152.26666666666668,
            "K": 140.8,
            "L": 129.33333333333334,
            "A": 116.86666666666666,
            "B": 106.21428571428571
        }
    },
    "Obs_and_actions_busses": {
        "0": -212.11653251959154,
        "4": 378.422666987143
    },
    "Obs_and_actions_tfls": {
        "1": -3.490839908569425,
        "2": -659.5097077606245,
        "0": 339.8226569738905
    }
}