{
    "Average_holding_time": 59.189189189189186,
    "Average_holding_actions": [
        253,
        9,
        0,
        193,
        26,
        0
    ],
    "Average_travel_time_passengers": 8068.27697163942,
    "Average_passenger_waiting_time": 2757.3697052669927,
    "Average_passenger_in_vehicle_time": 5310.907266372912,
    "Average_speed_busses": 0.021583333333333333,
    "Average_experienced_crowding": 862.9133326920786,
    "Average_covariation_headway": 2.0768019367038653,
    "Average_covariation_headway_stops": {
        "J": 2.0620168147035867,
        "E": 2.0237085627519265,
        "A": 2.1066214983474003,
        "K": 2.0639193946018426,
        "C": 2.058432968806691,
        "D": 1.9585643637846146,
        "F": 1.838279827670708,
        "L": 2.0728983715112186,
        "B": 2.079615409159801,
        "G": 1.7163933390647188,
        "H": 1.933190669210727,
        "I": 2.025066562589978
    },
    "Average_excess_waiting_time": {
        "J": 3058.793396761136,
        "E": 2667.815006302196,
        "A": 3147.951250434574,
        "K": 3028.5786132524736,
        "C": 3052.6227277954595,
        "D": 3088.2133019209195,
        "F": 2354.244829473034,
        "L": 3091.9940390819957,
        "B": 3127.224768038299,
        "G": 2195.520425994684,
        "H": 2732.688458860467,
        "I": 3000.8476034698924
    },
    "Holding_per_stop": {
        "A": 49.333333333333336,
        "K": 64.77272727272727,
        "J": 63.48837209302326,
        "C": 63.91304347826087,
        "D": 66.58536585365853,
        "E": 59.285714285714285,
        "L": 58.63636363636363,
        "B": 56.666666666666664,
        "F": 55,
        "G": 49.285714285714285,
        "H": 60.714285714285715,
        "I": 62.857142857142854
    },
    "Actions_tfl_edges": {
        "CD": [
            13,
            4,
            30
        ],
        "JK": [
            9,
            4,
            31
        ],
        "FG": [
            14,
            0,
            28
        ],
        "GH": [
            12,
            6,
            24
        ],
        "HI": [
            12,
            2,
            28
        ]
    },
    "Load_per_bus_per_stop": {
        "bus3": {
            "J": 124.75,
            "K": 120.625,
            "L": 109.125,
            "A": 101.625,
            "B": 94.875,
            "C": 91.375,
            "D": 99,
            "E": 96.14285714285714,
            "F": 117,
            "G": 147.14285714285714,
            "H": 154.71428571428572,
            "I": 151.14285714285714
        },
        "bus2": {
            "E": 554,
            "F": 730.5714285714286,
            "G": 990.1428571428571,
            "H": 1076.2857142857142,
            "I": 1061.857142857143,
            "J": 1026.4285714285713,
            "K": 970,
            "L": 900.1428571428571,
            "A": 832,
            "B": 762.2857142857143,
            "C": 731.5714285714286,
            "D": 722.2857142857143
        },
        "bus5": {
            "A": 28.5,
            "B": 26,
            "C": 26.625,
            "D": 25,
            "E": 26.142857142857142,
            "F": 33.714285714285715,
            "G": 44,
            "H": 45.714285714285715,
            "I": 44.42857142857143,
            "J": 40.57142857142857,
            "K": 38.42857142857143,
            "L": 35.142857142857146
        },
        "bus4": {
            "K": 43.125,
            "L": 40.125,
            "A": 36.875,
            "B": 33.75,
            "C": 32.625,
            "D": 33.57142857142857,
            "E": 32.714285714285715,
            "F": 43.714285714285715,
            "G": 59.42857142857143,
            "H": 59.42857142857143,
            "I": 57.285714285714285,
            "J": 53.285714285714285
        },
        "bus0": {
            "C": 15.625,
            "D": 14.285714285714286,
            "E": 12.285714285714286,
            "F": 20.714285714285715,
            "G": 39.857142857142854,
            "H": 40.857142857142854,
            "I": 39,
            "J": 35,
            "K": 32.57142857142857,
            "L": 28.428571428571427,
            "A": 24.285714285714285,
            "B": 19.714285714285715
        },
        "bus1": {
            "D": 50,
            "E": 48,
            "F": 87.28571428571429,
            "G": 153.28571428571428,
            "H": 159.85714285714286,
            "I": 150.14285714285714,
            "J": 139.57142857142858,
            "K": 126.57142857142857,
            "L": 112.85714285714286,
            "A": 96.42857142857143,
            "B": 82.42857142857143,
            "C": 73.14285714285714
        }
    },
    "Obs_and_actions_busses": {
        "4": 4359.786694189175,
        "3": -1133.0416719694854,
        "1": 580.5611653621879,
        "0": -21.462654493529264,
        "5": -5837.994634863178
    },
    "Obs_and_actions_tfls": {
        "2": -291.613032560879,
        "0": 1833.8625523562823,
        "1": 26.83132439036686
    }
}