{
    "Average_holding_time": 27.342130065975496,
    "Average_holding_actions": [
        580,
        203,
        162,
        0,
        46,
        0
    ],
    "Average_travel_time_passengers": 2838.3278204050125,
    "Average_passenger_waiting_time": 339.99108104768135,
    "Average_passenger_in_vehicle_time": 2498.336739357321,
    "Average_speed_busses": 0.044208333333333336,
    "Average_experienced_crowding": 115.8780250126958,
    "Average_covariation_headway": 0.27068448981190996,
    "Average_covariation_headway_stops": {
        "J": 0.17089171014691415,
        "L": 0.1681085420434686,
        "K": 0.1700107404167351,
        "F": 0.1672857711336381,
        "D": 0.21727338853326497,
        "C": 0.2228027743588074,
        "G": 0.13750739703457288,
        "A": 0.1548602368200111,
        "E": 0.18475730680920147,
        "H": 0.13225093353008652,
        "B": 0.1685187020738099,
        "I": 0.15192193707063759
    },
    "Average_excess_waiting_time": {
        "J": 70.93916335278232,
        "L": 66.49280053890453,
        "K": 69.12478667120104,
        "F": 68.09723977052602,
        "D": 74.90752525615233,
        "C": 77.29195434072602,
        "G": 66.84541794747645,
        "A": 66.97696333217999,
        "E": 71.58896739684587,
        "H": 67.90906262002079,
        "B": 71.37345321162553,
        "I": 71.16314601910932
    },
    "Holding_per_stop": {
        "L": 27.303370786516854,
        "K": 33.03370786516854,
        "F": 35.39325842696629,
        "D": 28.98876404494382,
        "J": 37.5,
        "G": 26.25,
        "C": 14.659090909090908,
        "A": 27.640449438202246,
        "E": 45,
        "H": 12.272727272727273,
        "B": 10.227272727272727,
        "I": 29.65909090909091
    },
    "Actions_tfl_edges": {
        "CD": [
            78,
            8,
            3
        ],
        "JK": [
            81,
            3,
            5
        ],
        "FG": [
            30,
            55,
            4
        ],
        "GH": [
            26,
            61,
            1
        ],
        "HI": [
            50,
            31,
            7
        ]
    },
    "Load_per_bus_per_stop": {
        "bus3": {
            "J": 119.46666666666667,
            "K": 110.86666666666666,
            "L": 100.46666666666667,
            "A": 92.13333333333334,
            "B": 83.86666666666666,
            "C": 77.66666666666667,
            "D": 74.13333333333334,
            "E": 73.57142857142857,
            "F": 98.64285714285714,
            "G": 132.28571428571428,
            "H": 137.42857142857142,
            "I": 134.85714285714286
        },
        "bus5": {
            "L": 106,
            "A": 96.06666666666666,
            "B": 86.13333333333334,
            "C": 80.73333333333333,
            "D": 77.73333333333333,
            "E": 76.13333333333334,
            "F": 100.73333333333333,
            "G": 133.4,
            "H": 143,
            "I": 139.6,
            "J": 132.35714285714286,
            "K": 124.5
        },
        "bus4": {
            "K": 124.6,
            "L": 115.46666666666667,
            "A": 104.6,
            "B": 94.13333333333334,
            "C": 86.2,
            "D": 83.93333333333334,
            "E": 82.53333333333333,
            "F": 109.46666666666667,
            "G": 144.46666666666667,
            "H": 157,
            "I": 152.85714285714286,
            "J": 143.85714285714286
        },
        "bus2": {
            "F": 105,
            "G": 137.46666666666667,
            "H": 146.2,
            "I": 142.8,
            "J": 138.33333333333334,
            "K": 129.46666666666667,
            "L": 119.53333333333333,
            "A": 109.93333333333334,
            "B": 99.86666666666666,
            "C": 92.5,
            "D": 90.92857142857143,
            "E": 88.28571428571429
        },
        "bus1": {
            "D": 81.73333333333333,
            "E": 80,
            "F": 107.6,
            "G": 143.73333333333332,
            "H": 153.8,
            "I": 148.6,
            "J": 140,
            "K": 128.4,
            "L": 117.53333333333333,
            "A": 105.6,
            "B": 96.71428571428571,
            "C": 90.35714285714286
        },
        "bus0": {
            "C": 79.86666666666666,
            "D": 77.33333333333333,
            "E": 76.06666666666666,
            "F": 102.46666666666667,
            "G": 133.46666666666667,
            "H": 139.66666666666666,
            "I": 134.26666666666668,
            "J": 129.4,
            "K": 121.06666666666666,
            "L": 111.5,
            "A": 101.71428571428571,
            "B": 89.71428571428571
        }
    },
    "Obs_and_actions_busses": {
        "5": 306.4007027746551,
        "0": -245.76389983378718,
        "3": 165.06406600884466,
        "1": -11.606581141363854,
        "2": 77.75924307446746
    },
    "Obs_and_actions_tfls": {
        "1": -129.8600780329215,
        "0": 166.0052949019946,
        "2": 20.817631476956045
    }
} "1": -182.59609646282496,
        "2": 23.250370902836707
    }
}