{
    "Average_holding_time": 68.08189655172414,
    "Average_holding_actions": [
        204,
        5,
        64,
        35,
        156,
        0
    ],
    "Average_travel_time_passengers": 8891.811237648928,
    "Average_passenger_waiting_time": 2939.502809130762,
    "Average_passenger_in_vehicle_time": 5952.308428518456,
    "Average_speed_busses": 0.019333333333333334,
    "Average_experienced_crowding": 973.498876319186,
    "Average_covariation_headway": 2.0771958363043246,
    "Average_covariation_headway_stops": {
        "H": 2.0220649628650267,
        "G": 1.775486363000477,
        "J": 2.205203598071569,
        "F": 1.8073479299841237,
        "I": 2.153357060578809,
        "A": 2.2089661909884444,
        "B": 2.23028972748317,
        "K": 2.197442951417171,
        "L": 2.1922739310839225,
        "C": 2.069262520378958,
        "D": 2.026279472240103,
        "E": 2.021388583563827
    },
    "Average_excess_waiting_time": {
        "H": 3131.980511244531,
        "G": 2522.6403976201036,
        "J": 3674.879196582343,
        "F": 2523.1089786559387,
        "I": 3554.471237699964,
        "A": 3798.313275100608,
        "B": 3844.8063799300817,
        "K": 3725.647217974848,
        "L": 3770.332717963609,
        "C": 3863.9610082384415,
        "D": 2921.4944541998784,
        "E": 2976.177580957109
    },
    "Holding_per_stop": {
        "H": 74.61538461538461,
        "J": 66,
        "G": 78.94736842105263,
        "I": 71.53846153846153,
        "F": 77.83783783783784,
        "B": 63.57142857142857,
        "A": 54.146341463414636,
        "K": 67.5,
        "L": 65.25,
        "C": 65.83333333333333,
        "D": 62.5,
        "E": 70.83333333333333
    },
    "Actions_tfl_edges": {
        "FG": [
            0,
            7,
            31
        ],
        "GH": [
            0,
            7,
            32
        ],
        "HI": [
            0,
            6,
            33
        ],
        "JK": [
            0,
            10,
            30
        ],
        "CD": [
            0,
            8,
            28
        ]
    },
    "Load_per_bus_per_stop": {
        "bus3": {
            "H": 30.857142857142858,
            "I": 30.714285714285715,
            "J": 29.428571428571427,
            "K": 27,
            "L": 26.857142857142858,
            "A": 24.714285714285715,
            "B": 21.142857142857142,
            "C": 22.833333333333332,
            "D": 19.333333333333332,
            "E": 19.166666666666668,
            "F": 23.333333333333332,
            "G": 33.166666666666664
        },
        "bus2": {
            "G": 47.142857142857146,
            "H": 50.42857142857143,
            "I": 47,
            "J": 43.857142857142854,
            "K": 40.42857142857143,
            "L": 38.42857142857143,
            "A": 35.142857142857146,
            "B": 34.285714285714285,
            "C": 36.5,
            "D": 32,
            "E": 34.5,
            "F": 45.166666666666664
        },
        "bus4": {
            "J": 29.857142857142858,
            "K": 26.142857142857142,
            "L": 22.714285714285715,
            "A": 21.857142857142858,
            "B": 19.714285714285715,
            "C": 18.5,
            "D": 17.5,
            "E": 14,
            "F": 21.833333333333332,
            "G": 41.666666666666664,
            "H": 39.666666666666664,
            "I": 37.833333333333336
        },
        "bus1": {
            "F": 137.57142857142858,
            "G": 175.57142857142858,
            "H": 187.85714285714286,
            "I": 182.85714285714286,
            "J": 172.28571428571428,
            "K": 162.14285714285714,
            "L": 150.42857142857142,
            "A": 141.28571428571428,
            "B": 126,
            "C": 135.66666666666666,
            "D": 128,
            "E": 129.5
        },
        "bus5": {
            "A": 105.71428571428571,
            "B": 90.71428571428571,
            "C": 65.66666666666667,
            "D": 60.333333333333336,
            "E": 58.5,
            "F": 107,
            "G": 180,
            "H": 193.5,
            "I": 185.66666666666666,
            "J": 175.83333333333334,
            "K": 160.33333333333334,
            "L": 140.5
        },
        "bus0": {
            "B": 742.1428571428571,
            "C": 718.4285714285714,
            "D": 576.3333333333334,
            "E": 596.5,
            "F": 814.6666666666666,
            "G": 1104.8333333333333,
            "H": 1215.8333333333333,
            "I": 1207.8333333333333,
            "J": 1153.5,
            "K": 1086.5,
            "L": 1010,
            "A": 934.3333333333334
        }
    },
    "Obs_and_actions_busses": {
        "0": -79.68741073850371,
        "2": 61.409879175020315,
        "5": 4801.778997659179,
        "4": -3632.306829075614,
        "1": -1216.4894023846425
    },
    "Obs_and_actions_tfls": {
        "2": 910.7225263294118,
        "1": -4383.924361312263
    }
}