{
    "Average_holding_time": 18.296703296703296,
    "Average_holding_actions": [
        924,
        0,
        0,
        162,
        0,
        0
    ],
    "Average_travel_time_passengers": 2782.3489240831505,
    "Average_passenger_waiting_time": 371.841981084539,
    "Average_passenger_in_vehicle_time": 2410.5069429986575,
    "Average_speed_busses": 0.0455,
    "Average_experienced_crowding": 120.2164937180897,
    "Average_covariation_headway": 0.5418315896565958,
    "Average_covariation_headway_stops": {
        "I": 0.4228472803160914,
        "F": 0.39150562311558,
        "A": 0.4099887890437154,
        "B": 0.40135089935076285,
        "D": 0.40191361915429413,
        "C": 0.403009517963578,
        "G": 0.3858927477938482,
        "J": 0.4191090191838618,
        "H": 0.41814935571425454,
        "E": 0.4010705086082677,
        "K": 0.3842552664325574,
        "L": 0.39023693723075187
    },
    "Average_excess_waiting_time": {
        "I": 105.49989658125287,
        "F": 96.10071111315403,
        "A": 110.28782544813367,
        "B": 102.24847268526014,
        "D": 99.2191995556617,
        "C": 101.96798734599946,
        "G": 96.29163991637,
        "J": 105.91304595548792,
        "H": 105.89395053231186,
        "E": 100.89514324746915,
        "K": 101.20726902154655,
        "L": 104.75053726538198
    },
    "Holding_per_stop": {
        "I": 7.826086956521739,
        "F": 24.456521739130434,
        "B": 19.666666666666668,
        "A": 18.333333333333332,
        "D": 11.73913043478261,
        "C": 11.868131868131869,
        "J": 26.373626373626372,
        "G": 20.543478260869566,
        "E": 21.0989010989011,
        "H": 22.417582417582416,
        "K": 21,
        "L": 14.333333333333334
    },
    "Actions_tfl_edges": {
        "CD": [
            38,
            41,
            13
        ],
        "HI": [
            33,
            43,
            16
        ],
        "FG": [
            35,
            40,
            17
        ],
        "JK": [
            50,
            29,
            12
        ],
        "GH": [
            24,
            47,
            21
        ]
    },
    "Load_per_bus_per_stop": {
        "bus4": {
            "I": 121.125,
            "J": 112.3125,
            "K": 105.125,
            "L": 95.53333333333333,
            "A": 87.33333333333333,
            "B": 81,
            "C": 74.93333333333334,
            "D": 71.33333333333333,
            "E": 71.06666666666666,
            "F": 94.66666666666667,
            "G": 126.4,
            "H": 133.93333333333334
        },
        "bus3": {
            "F": 76.9375,
            "G": 100.875,
            "H": 108.375,
            "I": 105.0625,
            "J": 100,
            "K": 94,
            "L": 86.8,
            "A": 78.26666666666667,
            "B": 69.33333333333333,
            "C": 64.4,
            "D": 63.2,
            "E": 62.4
        },
        "bus5": {
            "A": 103.8,
            "B": 93.26666666666667,
            "C": 86.93333333333334,
            "D": 85.6,
            "E": 84.13333333333334,
            "F": 108.73333333333333,
            "G": 143.86666666666667,
            "H": 154.8,
            "I": 150.8,
            "J": 142.53333333333333,
            "K": 132.33333333333334,
            "L": 121.66666666666667
        },
        "bus0": {
            "B": 97.66666666666667,
            "C": 91.53333333333333,
            "D": 87.73333333333333,
            "E": 86.8,
            "F": 117.06666666666666,
            "G": 156.26666666666668,
            "H": 170.53333333333333,
            "I": 164.26666666666668,
            "J": 155.73333333333332,
            "K": 142.86666666666667,
            "L": 131.86666666666667,
            "A": 120.86666666666666
        },
        "bus2": {
            "D": 62.0625,
            "E": 62,
            "F": 84.125,
            "G": 112.875,
            "H": 117.125,
            "I": 114.46666666666667,
            "J": 107.4,
            "K": 100.53333333333333,
            "L": 93.06666666666666,
            "A": 84.2,
            "B": 74.73333333333333,
            "C": 70
        },
        "bus1": {
            "C": 80.875,
            "D": 79.75,
            "E": 76.93333333333334,
            "F": 94.86666666666666,
            "G": 128.2,
            "H": 136.06666666666666,
            "I": 132.93333333333334,
            "J": 128.06666666666666,
            "K": 121.46666666666667,
            "L": 109.4,
            "A": 100.53333333333333,
            "B": 91.4
        }
    },
    "Obs_and_actions_busses": {
        "0": -201.77289544169645,
        "4": 365.7947968084276,
        "3": 228.32328113552967
    },
    "Obs_and_actions_tfls": {
        "1": 15.709550914507489,
        "0": 343.82884112412614,
        "2": -493.52377906772443
    }
}     "L": 93.64285714285714
        }
    },
    "Obs_and_actions_busses": {
        "4": 392.4777285816578,
        "0": -245.42286558281603,
        "3": 226.5319306299938
    },
    "Obs_and_actions_tfls": {
        "0": 369.4026563758922,
        "2": -819.7445711481739,
        "1": 22.463840205771493
    }
}