{
    "Average_holding_time": 47.45161290322581,
    "Average_holding_actions": [
        395,
        244,
        4,
        216,
        71,
        0
    ],
    "Average_travel_time_passengers": 3459.419590991116,
    "Average_passenger_waiting_time": 555.3697866711559,
    "Average_passenger_in_vehicle_time": 2904.0498043198654,
    "Average_speed_busses": 0.03875,
    "Average_experienced_crowding": 188.0725159469502,
    "Average_covariation_headway": 0.8813599681006129,
    "Average_covariation_headway_stops": {
        "G": 0.6638286969425536,
        "K": 0.7051951285752788,
        "L": 0.6993071739893372,
        "J": 0.7104476252630043,
        "H": 0.7056430562582079,
        "B": 0.6948847057262427,
        "E": 0.6760162586217279,
        "A": 0.6854002739904357,
        "F": 0.6484317394354968,
        "I": 0.7131116010711089,
        "C": 0.7032889986444327,
        "D": 0.6739094092233349
    },
    "Average_excess_waiting_time": {
        "G": 268.1078165695815,
        "K": 295.93650093393387,
        "L": 289.06558483262586,
        "J": 296.18679514189125,
        "H": 292.80242884244865,
        "B": 288.2620261955143,
        "E": 278.72142545927477,
        "A": 287.0350673867997,
        "F": 267.392019142928,
        "I": 300.10387093248494,
        "C": 291.0826407596252,
        "D": 280.40572738787466
    },
    "Holding_per_stop": {
        "G": 53.07692307692308,
        "K": 43.46153846153846,
        "L": 45.1948051948052,
        "J": 39.23076923076923,
        "B": 41.15384615384615,
        "E": 32.30769230769231,
        "H": 64.23076923076923,
        "A": 29.61038961038961,
        "I": 46.753246753246756,
        "C": 56.103896103896105,
        "F": 71.2987012987013,
        "D": 47.142857142857146
    },
    "Actions_tfl_edges": {
        "FG": [
            34,
            27,
            17
        ],
        "JK": [
            33,
            35,
            11
        ],
        "GH": [
            25,
            29,
            24
        ],
        "HI": [
            38,
            31,
            9
        ],
        "CD": [
            23,
            42,
            12
        ]
    },
    "Load_per_bus_per_stop": {
        "bus2": {
            "G": 198.46153846153845,
            "H": 211.15384615384616,
            "I": 205.46153846153845,
            "J": 195.30769230769232,
            "K": 185.07692307692307,
            "L": 170.6153846153846,
            "A": 155.3846153846154,
            "B": 138.53846153846155,
            "C": 133.30769230769232,
            "D": 127.76923076923077,
            "E": 125.38461538461539,
            "F": 162.76923076923077
        },
        "bus4": {
            "K": 17.307692307692307,
            "L": 16.76923076923077,
            "A": 14.923076923076923,
            "B": 13.692307692307692,
            "C": 13.538461538461538,
            "D": 12.923076923076923,
            "E": 13.076923076923077,
            "F": 15.923076923076923,
            "G": 22.46153846153846,
            "H": 22.76923076923077,
            "I": 21.153846153846153,
            "J": 20.153846153846153
        },
        "bus5": {
            "L": 37.15384615384615,
            "A": 32.76923076923077,
            "B": 29.307692307692307,
            "C": 26.76923076923077,
            "D": 23.153846153846153,
            "E": 21.46153846153846,
            "F": 31.307692307692307,
            "G": 51.07692307692308,
            "H": 53.92307692307692,
            "I": 50.38461538461539,
            "J": 47.30769230769231,
            "K": 44
        },
        "bus3": {
            "J": 106.23076923076923,
            "K": 98.15384615384616,
            "L": 89.6923076923077,
            "A": 81.76923076923077,
            "B": 74.07692307692308,
            "C": 67.61538461538461,
            "D": 66.46153846153847,
            "E": 67.76923076923077,
            "F": 90.38461538461539,
            "G": 116.6923076923077,
            "H": 122.61538461538461,
            "I": 120.84615384615384
        },
        "bus0": {
            "B": 182.46153846153845,
            "C": 172.53846153846155,
            "D": 165,
            "E": 161.53846153846155,
            "F": 212.69230769230768,
            "G": 285.53846153846155,
            "H": 305.84615384615387,
            "I": 299.53846153846155,
            "J": 283.53846153846155,
            "K": 261.15384615384613,
            "L": 241.58333333333334,
            "A": 220.25
        },
        "bus1": {
            "E": 141.30769230769232,
            "F": 180.6153846153846,
            "G": 248.6153846153846,
            "H": 269.0769230769231,
            "I": 264.61538461538464,
            "J": 251.23076923076923,
            "K": 233.15384615384616,
            "L": 215.6153846153846,
            "A": 194.76923076923077,
            "B": 176.15384615384616,
            "C": 163.16666666666666,
            "D": 155.91666666666666
        }
    },
    "Obs_and_actions_busses": {
        "0": -24.926317434602765,
        "4": 319.12654419958744,
        "1": -680.6207311117483,
        "5": 533.2881269880095,
        "2": -1056.797340622412
    },
    "Obs_and_actions_tfls": {
        "0": -531.344347654776,
        "2": 202.70819710382025,
        "1": 459.17905209142185
    }
}