{
    "Average_holding_time": 25.09242144177449,
    "Average_holding_actions": [
        757,
        0,
        240,
        0,
        85,
        0
    ],
    "Average_travel_time_passengers": 2802.2501455793763,
    "Average_passenger_waiting_time": 348.38084739191356,
    "Average_passenger_in_vehicle_time": 2453.8692981874515,
    "Average_speed_busses": 0.045083333333333336,
    "Average_experienced_crowding": 116.14867198990315,
    "Average_covariation_headway": 0.3542005944550933,
    "Average_covariation_headway_stops": {
        "H": 0.2659711588869132,
        "G": 0.24211226564589036,
        "L": 0.23741592094668149,
        "E": 0.26533128210828083,
        "A": 0.24382344819050228,
        "I": 0.26520111633017657,
        "D": 0.25797279505403126,
        "J": 0.2507740620487789,
        "F": 0.24308258324850232,
        "B": 0.2509986462110075,
        "K": 0.24205705409334066,
        "C": 0.24145450386720893
    },
    "Average_excess_waiting_time": {
        "H": 75.25388250460196,
        "G": 71.7601659125408,
        "L": 71.98562225614972,
        "E": 75.6782277861181,
        "A": 71.67844318655636,
        "I": 75.82745800053993,
        "D": 76.61636785869058,
        "J": 74.88679166454466,
        "F": 74.01207502682786,
        "B": 74.10240768129643,
        "K": 75.02424386721754,
        "C": 74.92696104524663
    },
    "Holding_per_stop": {
        "H": 21.428571428571427,
        "E": 35.333333333333336,
        "A": 12.857142857142858,
        "I": 31,
        "G": 32.333333333333336,
        "L": 17.666666666666668,
        "D": 24,
        "J": 30.333333333333332,
        "B": 17.666666666666668,
        "F": 42.666666666666664,
        "K": 21.333333333333332,
        "C": 14.666666666666666
    },
    "Actions_tfl_edges": {
        "CD": [
            42,
            22,
            26
        ],
        "FG": [
            46,
            17,
            28
        ],
        "GH": [
            39,
            23,
            29
        ],
        "HI": [
            54,
            16,
            21
        ],
        "JK": [
            15,
            17,
            58
        ]
    },
    "Load_per_bus_per_stop": {
        "bus3": {
            "H": 128.625,
            "I": 125.06666666666666,
            "J": 121.06666666666666,
            "K": 114.4,
            "L": 103.46666666666667,
            "A": 93.93333333333334,
            "B": 83.33333333333333,
            "C": 77.13333333333334,
            "D": 75.4,
            "E": 73.33333333333333,
            "F": 95,
            "G": 130.6
        },
        "bus2": {
            "G": 130.4375,
            "H": 140.6,
            "I": 138.13333333333333,
            "J": 132.06666666666666,
            "K": 122.13333333333334,
            "L": 111.06666666666666,
            "A": 100.66666666666667,
            "B": 90.13333333333334,
            "C": 84.4,
            "D": 79.53333333333333,
            "E": 79.93333333333334,
            "F": 101.66666666666667
        },
        "bus4": {
            "L": 113.4,
            "A": 101.8,
            "B": 91.33333333333333,
            "C": 84.73333333333333,
            "D": 82.53333333333333,
            "E": 81.13333333333334,
            "F": 107.53333333333333,
            "G": 139.86666666666667,
            "H": 148.2,
            "I": 146.86666666666667,
            "J": 139.73333333333332,
            "K": 131.53333333333333
        },
        "bus1": {
            "E": 69.875,
            "F": 95,
            "G": 124.8,
            "H": 134.46666666666667,
            "I": 130.93333333333334,
            "J": 123.66666666666667,
            "K": 117.13333333333334,
            "L": 107.8,
            "A": 98.2,
            "B": 89.13333333333334,
            "C": 83.4,
            "D": 77
        },
        "bus5": {
            "A": 93.75,
            "B": 84.06666666666666,
            "C": 78.73333333333333,
            "D": 76.26666666666667,
            "E": 74.26666666666667,
            "F": 94.8,
            "G": 130.46666666666667,
            "H": 138.8,
            "I": 134.53333333333333,
            "J": 126.46666666666667,
            "K": 117.46666666666667,
            "L": 108.6
        },
        "bus0": {
            "D": 86.26666666666667,
            "E": 82.26666666666667,
            "F": 106.66666666666667,
            "G": 143.13333333333333,
            "H": 151.93333333333334,
            "I": 145.73333333333332,
            "J": 137.8,
            "K": 129.6,
            "L": 119.13333333333334,
            "A": 106.6,
            "B": 96.33333333333333,
            "C": 91.53333333333333
        }
    },
    "Obs_and_actions_busses": {
        "0": -219.4777326995654,
        "2": 107.09974216152547,
        "5": 294.59267702789134
    },
    "Obs_and_actions_tfls": {
        "1": -81.45782384508198,
        "0": 7.69104394768648,
        "2": 220.9062683321218
    }
}bs_and_actions_tfls": {
        "2": 227.55692373456841,
        "1": -59.84626137227952,
        "0": 24.25949410939291
    }
}