{
    "Average_holding_time": 24.75409836065574,
    "Average_holding_actions": [
        699,
        0,
        363,
        0,
        36,
        0
    ],
    "Average_travel_time_passengers": 2763.0589729598787,
    "Average_passenger_waiting_time": 335.0236666384056,
    "Average_passenger_in_vehicle_time": 2428.03530632143,
    "Average_speed_busses": 0.04575,
    "Average_experienced_crowding": 112.40984152022392,
    "Average_covariation_headway": 0.31149300951969555,
    "Average_covariation_headway_stops": {
        "I": 0.2192778948483523,
        "L": 0.19942550373489706,
        "E": 0.22911293641105857,
        "F": 0.21521187596018235,
        "J": 0.20331584524267243,
        "C": 0.2312459763991934,
        "G": 0.20491959288987785,
        "B": 0.21316352190799465,
        "A": 0.19019530027468784,
        "H": 0.21345443292586988,
        "D": 0.23739073836106525,
        "K": 0.19182278577170084
    },
    "Average_excess_waiting_time": {
        "I": 63.52184997339026,
        "L": 61.88949433635082,
        "E": 65.55416261166573,
        "F": 61.903358740738895,
        "J": 62.80556135043133,
        "C": 66.08826229724093,
        "G": 61.71619187506701,
        "B": 64.84105429817015,
        "A": 63.215731063565784,
        "H": 64.29647105943303,
        "D": 68.92286579102694,
        "K": 62.798297393599796
    },
    "Holding_per_stop": {
        "I": 26.73913043478261,
        "L": 20.869565217391305,
        "F": 41.08695652173913,
        "E": 30.32608695652174,
        "C": 15,
        "B": 11.538461538461538,
        "J": 33.62637362637363,
        "G": 29.67391304347826,
        "A": 16.483516483516482,
        "D": 18.791208791208792,
        "H": 22.087912087912088,
        "K": 30.65934065934066
    },
    "Actions_tfl_edges": {
        "HI": [
            0,
            17,
            75
        ],
        "FG": [
            0,
            27,
            65
        ],
        "CD": [
            0,
            4,
            88
        ],
        "JK": [
            0,
            9,
            82
        ],
        "GH": [
            0,
            38,
            54
        ]
    },
    "Load_per_bus_per_stop": {
        "bus4": {
            "I": 123.5625,
            "J": 118.375,
            "K": 109.75,
            "L": 101.9375,
            "A": 90.53333333333333,
            "B": 82.2,
            "C": 76.53333333333333,
            "D": 74.53333333333333,
            "E": 74,
            "F": 96.13333333333334,
            "G": 127.53333333333333,
            "H": 136
        },
        "bus5": {
            "L": 102.625,
            "A": 93.6875,
            "B": 87.33333333333333,
            "C": 81.13333333333334,
            "D": 80.2,
            "E": 80.86666666666666,
            "F": 105.06666666666666,
            "G": 138,
            "H": 147.8,
            "I": 144.53333333333333,
            "J": 134.73333333333332,
            "K": 120.73333333333333
        },
        "bus2": {
            "E": 75.0625,
            "F": 97.0625,
            "G": 130.1875,
            "H": 137.3125,
            "I": 135.93333333333334,
            "J": 130.73333333333332,
            "K": 122.26666666666667,
            "L": 112.26666666666667,
            "A": 101.33333333333333,
            "B": 91.66666666666667,
            "C": 86.86666666666666,
            "D": 82.13333333333334
        },
        "bus3": {
            "F": 86.8125,
            "G": 119.5625,
            "H": 129.5625,
            "I": 127.5,
            "J": 118.9375,
            "K": 110.26666666666667,
            "L": 101.4,
            "A": 91.06666666666666,
            "B": 83.2,
            "C": 78.06666666666666,
            "D": 75.46666666666667,
            "E": 71.33333333333333
        },
        "bus1": {
            "C": 85.875,
            "D": 81.625,
            "E": 79.875,
            "F": 100.8,
            "G": 136.26666666666668,
            "H": 146.8,
            "I": 141.86666666666667,
            "J": 136.33333333333334,
            "K": 128.46666666666667,
            "L": 115.26666666666667,
            "A": 107,
            "B": 98.13333333333334
        },
        "bus0": {
            "B": 83.6875,
            "C": 78.0625,
            "D": 75.06666666666666,
            "E": 74,
            "F": 98.33333333333333,
            "G": 133.73333333333332,
            "H": 142.13333333333333,
            "I": 139.06666666666666,
            "J": 131.26666666666668,
            "K": 123,
            "L": 110.66666666666667,
            "A": 99.6
        }
    },
    "Obs_and_actions_busses": {
        "0": -231.0018581053097,
        "2": 90.89222663403795,
        "5": 331.147108785744
    },
    "Obs_and_actions_tfls": {
        "1": -221.19358102737755,
        "2": 139.56358026720056
    }
}.5431344058775,
        "1": -297.7525856826529
    }
}