{
    "Average_holding_time": 28.877455565949486,
    "Average_holding_actions": [
        616,
        0,
        412,
        0,
        41,
        0
    ],
    "Average_travel_time_passengers": 2833.3438494296015,
    "Average_passenger_waiting_time": 357.5554118813924,
    "Average_passenger_in_vehicle_time": 2475.788437548223,
    "Average_speed_busses": 0.04454166666666667,
    "Average_experienced_crowding": 117.31581693417583,
    "Average_covariation_headway": 0.3937330265292894,
    "Average_covariation_headway_stops": {
        "H": 0.30802967451042046,
        "G": 0.2767452857874285,
        "I": 0.3154791349512209,
        "J": 0.3045591111438658,
        "D": 0.3087139887031178,
        "C": 0.3043530736262965,
        "K": 0.29249036365509273,
        "E": 0.28919529055459586,
        "L": 0.26651979676340565,
        "F": 0.2602696038028074,
        "A": 0.2688017574160325,
        "B": 0.31495790703165993
    },
    "Average_excess_waiting_time": {
        "H": 88.44702546712472,
        "G": 85.32241232055964,
        "I": 88.08943361718133,
        "J": 83.8449519345308,
        "D": 89.42086839564672,
        "C": 90.98405982000395,
        "K": 83.08654143604673,
        "E": 87.24267635208889,
        "L": 80.5200721782021,
        "F": 84.04107329056836,
        "A": 82.60801251589413,
        "B": 93.85271914966808
    },
    "Holding_per_stop": {
        "H": 32.359550561797754,
        "I": 36.666666666666664,
        "J": 33.333333333333336,
        "G": 37.41573033707865,
        "D": 24.60674157303371,
        "K": 32,
        "C": 17.528089887640448,
        "E": 37.07865168539326,
        "L": 25.95505617977528,
        "F": 35.45454545454545,
        "A": 18.53932584269663,
        "B": 15.340909090909092
    },
    "Actions_tfl_edges": {
        "CD": [
            0,
            12,
            78
        ],
        "FG": [
            0,
            27,
            62
        ],
        "GH": [
            0,
            34,
            55
        ],
        "HI": [
            0,
            20,
            70
        ],
        "JK": [
            0,
            12,
            78
        ]
    },
    "Load_per_bus_per_stop": {
        "bus3": {
            "H": 127.33333333333333,
            "I": 122.26666666666667,
            "J": 116.6,
            "K": 108,
            "L": 99.8,
            "A": 89.26666666666667,
            "B": 79.8,
            "C": 74.86666666666666,
            "D": 70.6,
            "E": 71.53333333333333,
            "F": 96.35714285714286,
            "G": 127.14285714285714
        },
        "bus2": {
            "G": 127.6,
            "H": 133.26666666666668,
            "I": 128.8,
            "J": 122.8,
            "K": 115.2,
            "L": 106.2,
            "A": 96.33333333333333,
            "B": 88.46666666666667,
            "C": 83.86666666666666,
            "D": 82.28571428571429,
            "E": 82.64285714285714,
            "F": 104.35714285714286
        },
        "bus4": {
            "I": 105.93333333333334,
            "J": 99.4,
            "K": 92.6,
            "L": 85.53333333333333,
            "A": 77.13333333333334,
            "B": 70.2,
            "C": 66.33333333333333,
            "D": 62,
            "E": 61.6,
            "F": 83.66666666666667,
            "G": 112.93333333333334,
            "H": 119.14285714285714
        },
        "bus5": {
            "J": 126.13333333333334,
            "K": 118.26666666666667,
            "L": 107.26666666666667,
            "A": 98.8,
            "B": 88.4,
            "C": 82.33333333333333,
            "D": 78,
            "E": 76.6,
            "F": 100.93333333333334,
            "G": 137.73333333333332,
            "H": 146.46666666666667,
            "I": 141.6
        },
        "bus1": {
            "D": 86.06666666666666,
            "E": 86.6,
            "F": 112.73333333333333,
            "G": 149.53333333333333,
            "H": 160,
            "I": 154.06666666666666,
            "J": 147.4,
            "K": 138.4,
            "L": 126.06666666666666,
            "A": 114.46666666666667,
            "B": 102.92857142857143,
            "C": 96.07142857142857
        },
        "bus0": {
            "C": 85.46666666666667,
            "D": 84.4,
            "E": 84.4,
            "F": 107.66666666666667,
            "G": 144.06666666666666,
            "H": 153.73333333333332,
            "I": 150.73333333333332,
            "J": 142.8,
            "K": 132.46666666666667,
            "L": 122,
            "A": 110.92857142857143,
            "B": 97.78571428571429
        }
    },
    "Obs_and_actions_busses": {
        "2": 104.8534649199878,
        "5": 422.23397219993825,
        "0": -280.8708906089999
    },
    "Obs_and_actions_tfls": {
        "1": -283.9802745744484,
        "2": 177.09943389509277
    }
}