{
    "Average_holding_time": 20.63711911357341,
    "Average_holding_actions": [
        736,
        0,
        330,
        0,
        17,
        0
    ],
    "Average_travel_time_passengers": 2784.3064472765427,
    "Average_passenger_waiting_time": 335.89155913907604,
    "Average_passenger_in_vehicle_time": 2448.4148881374176,
    "Average_speed_busses": 0.045125,
    "Average_experienced_crowding": 113.64536595738144,
    "Average_covariation_headway": 0.2729296731147418,
    "Average_covariation_headway_stops": {
        "I": 0.17799707747987314,
        "E": 0.20923948738901102,
        "K": 0.14928447496401204,
        "A": 0.17000358205565738,
        "D": 0.1848688563377734,
        "C": 0.16692683907860012,
        "F": 0.1683959893443442,
        "L": 0.1177914316188115,
        "B": 0.17103254025580536,
        "G": 0.15733112259314364,
        "J": 0.13740094093676042,
        "H": 0.15829877543467688
    },
    "Average_excess_waiting_time": {
        "I": 62.82947179643645,
        "E": 64.84579922203102,
        "K": 60.30562725603045,
        "A": 61.89823890410429,
        "D": 63.55017258896487,
        "C": 64.91962239057017,
        "F": 61.88156956931874,
        "L": 58.96749528595052,
        "B": 64.50120198836947,
        "G": 61.50346569694375,
        "J": 60.84488901800313,
        "H": 63.24793618517043
    },
    "Holding_per_stop": {
        "E": 31.978021978021978,
        "A": 17.142857142857142,
        "K": 24.666666666666668,
        "D": 8,
        "I": 25.714285714285715,
        "C": 10.666666666666666,
        "F": 26.666666666666668,
        "L": 18.333333333333332,
        "B": 11.666666666666666,
        "J": 29.333333333333332,
        "G": 25.333333333333332,
        "H": 18
    },
    "Actions_tfl_edges": {
        "CD": [
            0,
            35,
            56
        ],
        "HI": [
            0,
            31,
            60
        ],
        "JK": [
            0,
            76,
            15
        ],
        "FG": [
            0,
            25,
            65
        ],
        "GH": [
            0,
            17,
            73
        ]
    },
    "Load_per_bus_per_stop": {
        "bus3": {
            "I": 127.25,
            "J": 122.73333333333333,
            "K": 114.53333333333333,
            "L": 104.46666666666667,
            "A": 96.8,
            "B": 86.06666666666666,
            "C": 79.6,
            "D": 76.33333333333333,
            "E": 75.33333333333333,
            "F": 98.33333333333333,
            "G": 133.2,
            "H": 140.33333333333334
        },
        "bus2": {
            "E": 75.375,
            "F": 100.8125,
            "G": 133.86666666666667,
            "H": 142.06666666666666,
            "I": 138.73333333333332,
            "J": 131.26666666666668,
            "K": 122.33333333333333,
            "L": 112.4,
            "A": 101.73333333333333,
            "B": 91.8,
            "C": 85.2,
            "D": 81.46666666666667
        },
        "bus4": {
            "K": 116.75,
            "L": 107.33333333333333,
            "A": 96.46666666666667,
            "B": 87.06666666666666,
            "C": 79.8,
            "D": 80.33333333333333,
            "E": 80.4,
            "F": 105.53333333333333,
            "G": 139.33333333333334,
            "H": 145.6,
            "I": 139.93333333333334,
            "J": 133.06666666666666
        },
        "bus5": {
            "A": 94.125,
            "B": 83.53333333333333,
            "C": 77.46666666666667,
            "D": 75.13333333333334,
            "E": 73.33333333333333,
            "F": 96.06666666666666,
            "G": 130.33333333333334,
            "H": 142.66666666666666,
            "I": 138.93333333333334,
            "J": 132.4,
            "K": 123.93333333333334,
            "L": 113.4
        },
        "bus1": {
            "D": 75.8,
            "E": 74.53333333333333,
            "F": 96.46666666666667,
            "G": 132.46666666666667,
            "H": 142.2,
            "I": 137.33333333333334,
            "J": 129.6,
            "K": 120.33333333333333,
            "L": 107.6,
            "A": 98.4,
            "B": 89.26666666666667,
            "C": 83.86666666666666
        },
        "bus0": {
            "C": 86.06666666666666,
            "D": 83.06666666666666,
            "E": 81.2,
            "F": 106.33333333333333,
            "G": 140.4,
            "H": 151.8,
            "I": 149.06666666666666,
            "J": 141.33333333333334,
            "K": 131.53333333333333,
            "L": 120.73333333333333,
            "A": 108.8,
            "B": 98.2
        }
    },
    "Obs_and_actions_busses": {
        "5": 373.5993440280052,
        "0": -212.89612439815934,
        "2": 93.87000905607084
    },
    "Obs_and_actions_tfls": {
        "2": -37.7561148338644,
        "1": 223.44698425709393
    }
}11314524
    }
}