{
    "Average_holding_time": 25.526561043802424,
    "Average_holding_actions": [
        741,
        0,
        249,
        0,
        83,
        0
    ],
    "Average_travel_time_passengers": 2841.8873355256283,
    "Average_passenger_waiting_time": 360.426767550508,
    "Average_passenger_in_vehicle_time": 2481.4605679750803,
    "Average_speed_busses": 0.044708333333333336,
    "Average_experienced_crowding": 119.93037147509911,
    "Average_covariation_headway": 0.41173377666672617,
    "Average_covariation_headway_stops": {
        "G": 0.3053895824126463,
        "E": 0.31296406584868375,
        "L": 0.2814661202129394,
        "K": 0.2922256556175002,
        "D": 0.3030396162098691,
        "A": 0.29762434675956684,
        "H": 0.3211927129911009,
        "F": 0.27893174882138205,
        "I": 0.3275650908400806,
        "B": 0.3134199925158848,
        "J": 0.2914263283207945,
        "C": 0.29945610342582907
    },
    "Average_excess_waiting_time": {
        "G": 85.5168048648423,
        "E": 87.31422789387466,
        "L": 81.8440096608204,
        "K": 86.0695710870915,
        "D": 87.10316471516285,
        "A": 83.33803638137476,
        "H": 90.33062046658239,
        "F": 82.60701754464549,
        "I": 93.26763867643541,
        "B": 89.12222211960824,
        "J": 87.4748414388502,
        "C": 89.37247378473091
    },
    "Holding_per_stop": {
        "G": 28,
        "E": 33.333333333333336,
        "L": 15.666666666666666,
        "A": 15.666666666666666,
        "K": 28.651685393258425,
        "H": 27.666666666666668,
        "D": 18.53932584269663,
        "F": 27.640449438202246,
        "I": 41.12359550561798,
        "B": 22.584269662921347,
        "J": 27.640449438202246,
        "C": 19.8876404494382
    },
    "Actions_tfl_edges": {
        "CD": [
            47,
            30,
            13
        ],
        "FG": [
            46,
            10,
            34
        ],
        "JK": [
            29,
            12,
            49
        ],
        "GH": [
            56,
            6,
            28
        ],
        "HI": [
            45,
            15,
            29
        ]
    },
    "Load_per_bus_per_stop": {
        "bus2": {
            "G": 127.86666666666666,
            "H": 138.13333333333333,
            "I": 133,
            "J": 126.86666666666666,
            "K": 117.93333333333334,
            "L": 108.86666666666666,
            "A": 99.33333333333333,
            "B": 87.53333333333333,
            "C": 79.93333333333334,
            "D": 74.66666666666667,
            "E": 77.6,
            "F": 101.71428571428571
        },
        "bus1": {
            "E": 87.73333333333333,
            "F": 117.86666666666666,
            "G": 156.6,
            "H": 163.4,
            "I": 160.33333333333334,
            "J": 150.93333333333334,
            "K": 141,
            "L": 128.53333333333333,
            "A": 116.86666666666666,
            "B": 105.46666666666667,
            "C": 97.73333333333333,
            "D": 93.92857142857143
        },
        "bus4": {
            "L": 80.66666666666667,
            "A": 72.66666666666667,
            "B": 64,
            "C": 60.733333333333334,
            "D": 60.06666666666667,
            "E": 57.86666666666667,
            "F": 75.4,
            "G": 104.2,
            "H": 111.26666666666667,
            "I": 109.8,
            "J": 103.66666666666667,
            "K": 95.5
        },
        "bus3": {
            "K": 114.66666666666667,
            "L": 104.8,
            "A": 95,
            "B": 85.13333333333334,
            "C": 78.53333333333333,
            "D": 74.8,
            "E": 73.2,
            "F": 98.46666666666667,
            "G": 133.2,
            "H": 140.8,
            "I": 137.5,
            "J": 130.71428571428572
        },
        "bus0": {
            "D": 86.73333333333333,
            "E": 86.73333333333333,
            "F": 113.73333333333333,
            "G": 147.33333333333334,
            "H": 156.53333333333333,
            "I": 152.73333333333332,
            "J": 145.46666666666667,
            "K": 134.93333333333334,
            "L": 122.8,
            "A": 111.93333333333334,
            "B": 103.2,
            "C": 98.42857142857143
        },
        "bus5": {
            "A": 96.66666666666667,
            "B": 85.26666666666667,
            "C": 79.93333333333334,
            "D": 76.6,
            "E": 76.46666666666667,
            "F": 101.2,
            "G": 137,
            "H": 146.86666666666667,
            "I": 142.53333333333333,
            "J": 135.73333333333332,
            "K": 125.33333333333333,
            "L": 114.06666666666666
        }
    },
    "Obs_and_actions_busses": {
        "0": -231.21870840657476,
        "5": 302.4500376015735,
        "2": 113.58526150491758
    },
    "Obs_and_actions_tfls": {
        "1": 208.6516252686181,
        "0": -76.26643793382705,
        "2": 220.23287433516774
    }
}666025
    }
}