{
    "Average_holding_time": [
        0,
        [
            0,
            0,
            0,
            0,
            0,
            0,
            0,
            0,
            0,
            0
        ]
    ],
    "Average_holding_actions": [
        [
            580,
            0,
            0,
            0,
            0,
            0
        ],
        [
            540,
            0,
            0,
            0,
            0,
            0
        ],
        [
            573,
            0,
            0,
            0,
            0,
            0
        ],
        [
            525,
            0,
            0,
            0,
            0,
            0
        ],
        [
            491,
            0,
            0,
            0,
            0,
            0
        ],
        [
            524,
            0,
            0,
            0,
            0,
            0
        ],
        [
            496,
            0,
            0,
            0,
            0,
            0
        ],
        [
            564,
            0,
            0,
            0,
            0,
            0
        ],
        [
            593,
            0,
            0,
            0,
            0,
            0
        ],
        [
            666,
            0,
            0,
            0,
            0,
            0
        ]
    ],
    "Average_travel_time_passengers": [
        7192.069558640339,
        [
            6464.87524999426,
            7404.348955832191,
            7097.098051388643,
            7388.981240026305,
            8197.11178459271,
            7567.152170236243,
            8074.387466632236,
            7177.125033345918,
            6805.038158377063,
            5744.577475977821
        ]
    ],
    "Average_passenger_waiting_time": [
        3115.119710137814,
        [
            2758.51918329963,
            3210.347548605496,
            3019.896696414791,
            3246.462727234056,
            3625.8328939198996,
            3356.7929037956287,
            3559.0966368043623,
            3088.178069525764,
            2906.530032095982,
            2379.540409682527
        ]
    ],
    "Average_passenger_in_vehicle_time": [
        4076.949848502661,
        [
            3706.3560666947715,
            4194.001407226888,
            4077.2013549740514,
            4142.518512792387,
            4571.278890673055,
            4210.359266440506,
            4515.290829828379,
            4088.9469638200553,
            3898.5081262809495,
            3365.0370662955693
        ]
    ],
    "Average_speed_busses": [
        0.023133333333333332,
        [
            0.024166666666666666,
            0.0225,
            0.023875,
            0.021875,
            0.020458333333333332,
            0.021833333333333333,
            0.020666666666666667,
            0.0235,
            0.024708333333333332,
            0.02775
        ]
    ],
    "Average_experienced_crowding": [
        750.0936417195664,
        [
            678.5191938867799,
            794.8477085061859,
            709.2937168574837,
            783.5333267385213,
            845.3112638540026,
            807.3862452676854,
            827.3742741765874,
            734.6681638171245,
            721.7936928804991,
            598.2088312107945
        ]
    ],
    "Average_covariation_headway": [
        2.2632935399388563,
        [
            2.190922268660612,
            2.272979311380711,
            2.235724087205815,
            2.337001560510538,
            2.374742948985879,
            2.343614979783017,
            2.350019304973207,
            2.2393170018506425,
            2.203550715822773,
            2.0850632202153667
        ]
    ],
    "Average_covariation_headway_stops": [
        {
            "J": 2.1296540838402587,
            "E": 2.2326970403397732,
            "L": 2.246055044638482,
            "K": 2.21852312028317,
            "D": 2.213783734643073,
            "B": 2.247803582058558,
            "F": 1.9718214214532455,
            "A": 2.235077871272068,
            "G": 1.8455679097782909,
            "C": 2.2125798896861943,
            "H": 2.086478369972918,
            "I": 2.200140497631582
        },
        {
            "G": 1.9429632455070764,
            "F": 2.0709241372711777,
            "D": 2.3001323221264904,
            "H": 2.208766799010257,
            "K": 2.3714413420876026,
            "C": 2.314943295261329,
            "E": 2.331821976754936,
            "I": 2.3363466165995166,
            "L": 2.232560701405852,
            "J": 2.350273191932673,
            "A": 2.3399828381150485,
            "B": 2.3264199619562653
        },
        {
            "G": 1.9046130956803407,
            "I": 2.3054473975005183,
            "K": 2.34168508211519,
            "H": 2.157035775999583,
            "E": 2.2960755579494703,
            "C": 2.2972459871501294,
            "D": 2.2746838369158193,
            "J": 2.3148352385741235,
            "L": 2.326300724477563,
            "F": 1.9575666849067792,
            "A": 2.3034778332146955,
            "B": 2.2895428240577886
        },
        {
            "F": 2.0459663950675626,
            "I": 2.293079377501688,
            "J": 2.333132295025861,
            "L": 2.3436685268598945,
            "D": 2.2812456591414256,
            "E": 2.3038718037374584,
            "G": 1.8902288489352956,
            "H": 2.142864386487414,
            "K": 2.2105129939259918,
            "A": 2.3224163307278927,
            "B": 2.311225881325225,
            "C": 2.281246721202017
        },
        {
            "H": 2.217144342406653,
            "G": 1.9419201820890764,
            "F": 1.9520619443491871,
            "L": 2.3809864535917393,
            "E": 2.291504138249347,
            "K": 2.360979838874452,
            "I": 2.3260912079566127,
            "A": 2.3593597568986535,
            "J": 2.343424028937547,
            "B": 2.3382568713561453,
            "C": 2.307587102254551,
            "D": 2.2690822176510768
        },
        {
            "H": 2.162860491908177,
            "G": 1.880915145205693,
            "I": 2.301256788097527,
            "L": 2.3485640653342195,
            "K": 2.3313239263495404,
            "J": 2.3112046646900413,
            "C": 2.328406067765219,
            "A": 2.300539247756555,
            "D": 2.2911408139512086,
            "B": 2.330728872535501,
            "E": 2.2752959231646233,
            "F": 2.0067344026335654
        },
        {
            "H": 2.1747125281167903,
            "G": 1.9000791468456522,
            "E": 2.2878701851476926,
            "I": 2.326836225254706,
            "K": 2.352356699033756,
            "D": 2.275579460560718,
            "F": 1.9148300536226739,
            "L": 2.3418166418537947,
            "J": 2.336271370028134,
            "A": 2.3249103177814265,
            "B": 2.310579586222697,
            "C": 2.2861128570669336
        },
        {
            "H": 2.1779108620134298,
            "I": 2.3166540682236954,
            "A": 2.329764495807678,
            "B": 2.335365614928537,
            "F": 2.0392382020392357,
            "D": 2.295577362520986,
            "J": 2.325678756853156,
            "G": 1.8882707340900267,
            "E": 2.288163137369442,
            "K": 2.3187786942124555,
            "C": 2.2003333980034574,
            "L": 2.3200390372324353
        },
        {
            "F": 2.1034676383184934,
            "E": 2.3411391826706276,
            "B": 2.3573746189339255,
            "L": 2.359535090676835,
            "D": 2.3253788478628303,
            "G": 1.948363494695724,
            "C": 2.354874845820047,
            "H": 2.127113416957554,
            "A": 2.34829502928083,
            "I": 2.329619460479457,
            "J": 2.3582418136444576,
            "K": 2.3416749600984934
        },
        {
            "G": 1.8413918040440325,
            "E": 2.1358470128557325,
            "F": 1.900182636427658,
            "I": 2.211851547749524,
            "A": 2.2387419798863597,
            "H": 2.0921120173428154,
            "B": 2.179737233301415,
            "J": 2.2386297027782134,
            "K": 2.2336615578632384,
            "C": 2.1428147312436536,
            "L": 2.220046977089476,
            "D": 2.107689647128661
        }
    ],
    "Average_excess_waiting_time": [
        {
            "J": 3259.872512000291,
            "E": 2918.8196928167235,
            "L": 2909.8834481917665,
            "K": 2868.277197433249,
            "D": 2890.5703888497765,
            "B": 2937.510511032551,
            "F": 2420.3727571368954,
            "A": 2928.6802432926233,
            "G": 2255.4552463346563,
            "C": 2899.4068471870196,
            "H": 2835.916852882613,
            "I": 3152.9794635389444
        },
        {
            "G": 2552.0778266482776,
            "F": 2794.4084325415133,
            "D": 3339.6498240325873,
            "H": 3255.0962210452135,
            "K": 3755.484953039492,
            "C": 3391.3106387624002,
            "E": 3395.990585482148,
            "I": 3646.5757863180424,
            "L": 3791.8794690975647,
            "J": 3732.4021733928967,
            "A": 3418.1357152422725,
            "B": 3446.8531469037553
        },
        {
            "G": 2286.516062567822,
            "I": 3237.414635881747,
            "K": 3344.5976223029747,
            "H": 2897.090720846815,
            "E": 3299.6268979933693,
            "C": 3345.227929483406,
            "D": 3271.4041436622138,
            "J": 3305.59442118868,
            "L": 3349.9158379985547,
            "F": 2781.179875464044,
            "A": 3338.1336020114622,
            "B": 3351.3098948961488
        },
        {
            "F": 2833.975685742218,
            "I": 3642.9411227439305,
            "J": 3723.9327532060206,
            "L": 3441.908112512847,
            "D": 3426.76921289445,
            "E": 3455.1904173590046,
            "G": 2577.2732288205316,
            "H": 3263.5097533686303,
            "K": 3750.7109947377394,
            "A": 3438.371573609582,
            "B": 3466.7688693554064,
            "C": 3446.47576417861
        },
        {
            "H": 3459.974307506968,
            "G": 2768.859706553111,
            "F": 3265.645573779979,
            "L": 3961.4927820759103,
            "E": 3892.449837228015,
            "K": 3942.7499273853737,
            "I": 3826.793137438436,
            "A": 3955.045154864968,
            "J": 3940.2552134589396,
            "B": 3946.5571699537977,
            "C": 3919.0172031750153,
            "D": 3861.763210324144
        },
        {
            "H": 3320.0730389869505,
            "G": 2626.805620991334,
            "I": 3659.78900765862,
            "L": 3762.5094628439138,
            "K": 3753.7232976094156,
            "J": 3736.2008054466423,
            "C": 3513.6149225551635,
            "A": 3751.533700318527,
            "D": 3475.54613988211,
            "B": 3556.777812493723,
            "E": 3483.620753550468,
            "F": 2890.218556343885
        },
        {
            "H": 3419.5082398098157,
            "G": 2730.837922686279,
            "E": 3867.9691625862124,
            "I": 3807.416411763632,
            "K": 3893.221198598075,
            "D": 3866.429949521831,
            "F": 3229.8902412697853,
            "L": 3911.442312773741,
            "J": 3890.946986335607,
            "A": 3921.8323643225694,
            "B": 3935.343906797354,
            "C": 3929.3856897788874
        },
        {
            "H": 3055.513452537386,
            "I": 3376.1049799999982,
            "A": 3513.6823158640555,
            "B": 3506.2684308237795,
            "F": 2626.457798968764,
            "D": 3151.504342207223,
            "J": 3449.6548627644697,
            "G": 2397.694582468942,
            "E": 3178.8306209755574,
            "K": 3475.833673997552,
            "C": 3538.9495501450083,
            "L": 3518.5500202354297
        },
        {
            "F": 2606.7826077740156,
            "E": 3113.597077532172,
            "B": 3203.408230872795,
            "L": 3182.5985582329367,
            "D": 3090.236584992348,
            "G": 2367.0331302386576,
            "C": 3178.197406384382,
            "H": 3045.1784198118576,
            "A": 3204.167616452248,
            "I": 3046.736910148431,
            "J": 3162.350865821455,
            "K": 3167.188701304305
        },
        {
            "G": 1875.5532962097539,
            "E": 2360.7218591556184,
            "F": 1943.5107563151685,
            "I": 2630.5213613080896,
            "A": 2779.3824584032627,
            "H": 2394.8270815284695,
            "B": 2390.3682114175626,
            "J": 2725.066239060945,
            "K": 2746.698372051578,
            "C": 2350.9261985930816,
            "L": 2747.605158251693,
            "D": 2320.2588642890287
        }
    ],
    "Actions_tfl_edges": [
        {
            "CD": [
                49,
                0,
                0
            ],
            "JK": [
                46,
                0,
                0
            ],
            "FG": [
                50,
                0,
                0
            ],
            "GH": [
                50,
                0,
                0
            ],
            "HI": [
                50,
                0,
                0
            ]
        },
        {
            "CD": [
                44,
                0,
                0
            ],
            "FG": [
                47,
                0,
                0
            ],
            "JK": [
                48,
                0,
                0
            ],
            "GH": [
                47,
                0,
                0
            ],
            "HI": [
                47,
                0,
                0
            ]
        },
        {
            "CD": [
                50,
                0,
                0
            ],
            "FG": [
                46,
                0,
                0
            ],
            "HI": [
                47,
                0,
                0
            ],
            "JK": [
                48,
                0,
                0
            ],
            "GH": [
                46,
                0,
                0
            ]
        },
        {
            "CD": [
                43,
                0,
                0
            ],
            "HI": [
                46,
                0,
                0
            ],
            "FG": [
                45,
                0,
                0
            ],
            "JK": [
                47,
                0,
                0
            ],
            "GH": [
                45,
                0,
                0
            ]
        },
        {
            "FG": [
                39,
                0,
                0
            ],
            "GH": [
                40,
                0,
                0
            ],
            "JK": [
                41,
                0,
                0
            ],
            "HI": [
                40,
                0,
                0
            ],
            "CD": [
                42,
                0,
                0
            ]
        },
        {
            "FG": [
                43,
                0,
                0
            ],
            "GH": [
                44,
                0,
                0
            ],
            "HI": [
                45,
                0,
                0
            ],
            "JK": [
                46,
                0,
                0
            ],
            "CD": [
                42,
                0,
                0
            ]
        },
        {
            "CD": [
                43,
                0,
                0
            ],
            "FG": [
                39,
                0,
                0
            ],
            "GH": [
                40,
                0,
                0
            ],
            "HI": [
                41,
                0,
                0
            ],
            "JK": [
                42,
                0,
                0
            ]
        },
        {
            "CD": [
                45,
                0,
                0
            ],
            "GH": [
                47,
                0,
                0
            ],
            "HI": [
                48,
                0,
                0
            ],
            "JK": [
                48,
                0,
                0
            ],
            "FG": [
                46,
                0,
                0
            ]
        },
        {
            "CD": [
                51,
                0,
                0
            ],
            "FG": [
                53,
                0,
                0
            ],
            "GH": [
                53,
                0,
                0
            ],
            "HI": [
                48,
                0,
                0
            ],
            "JK": [
                47,
                0,
                0
            ]
        },
        {
            "FG": [
                56,
                0,
                0
            ],
            "HI": [
                57,
                0,
                0
            ],
            "GH": [
                56,
                0,
                0
            ],
            "JK": [
                57,
                0,
                0
            ],
            "CD": [
                53,
                0,
                0
            ]
        }
    ],
    "Holding_per_stop": [
        {
            "J": 0,
            "E": 0,
            "L": 0,
            "K": 0,
            "D": 0,
            "B": 0,
            "F": 0,
            "A": 0,
            "G": 0,
            "C": 0,
            "H": 0,
            "I": 0
        },
        {
            "G": 0,
            "F": 0,
            "D": 0,
            "K": 0,
            "H": 0,
            "C": 0,
            "E": 0,
            "I": 0,
            "L": 0,
            "J": 0,
            "A": 0,
            "B": 0
        },
        {
            "G": 0,
            "I": 0,
            "K": 0,
            "H": 0,
            "E": 0,
            "C": 0,
            "D": 0,
            "J": 0,
            "L": 0,
            "F": 0,
            "A": 0,
            "B": 0
        },
        {
            "I": 0,
            "F": 0,
            "L": 0,
            "J": 0,
            "D": 0,
            "E": 0,
            "G": 0,
            "K": 0,
            "H": 0,
            "A": 0,
            "B": 0,
            "C": 0
        },
        {
            "H": 0,
            "F": 0,
            "G": 0,
            "L": 0,
            "E": 0,
            "K": 0,
            "I": 0,
            "A": 0,
            "J": 0,
            "B": 0,
            "C": 0,
            "D": 0
        },
        {
            "H": 0,
            "G": 0,
            "I": 0,
            "L": 0,
            "K": 0,
            "J": 0,
            "C": 0,
            "A": 0,
            "D": 0,
            "B": 0,
            "E": 0,
            "F": 0
        },
        {
            "H": 0,
            "G": 0,
            "E": 0,
            "I": 0,
            "K": 0,
            "D": 0,
            "L": 0,
            "J": 0,
            "F": 0,
            "A": 0,
            "B": 0,
            "C": 0
        },
        {
            "H": 0,
            "I": 0,
            "A": 0,
            "B": 0,
            "D": 0,
            "J": 0,
            "F": 0,
            "G": 0,
            "K": 0,
            "E": 0,
            "C": 0,
            "L": 0
        },
        {
            "F": 0,
            "E": 0,
            "L": 0,
            "B": 0,
            "D": 0,
            "C": 0,
            "G": 0,
            "H": 0,
            "A": 0,
            "I": 0,
            "J": 0,
            "K": 0
        },
        {
            "E": 0,
            "G": 0,
            "F": 0,
            "I": 0,
            "A": 0,
            "B": 0,
            "H": 0,
            "J": 0,
            "K": 0,
            "C": 0,
            "L": 0,
            "D": 0
        }
    ],
    "Load_per_bus_per_stop": [
        {
            "bus3": {
                "J": 5,
                "K": 5,
                "L": 4.75,
                "A": 3.75,
                "B": 3,
                "C": 2.625,
                "D": 3,
                "E": 2.625,
                "F": 3.625,
                "G": 6.125,
                "H": 6.125,
                "I": 6.125
            },
            "bus2": {
                "E": 48,
                "F": 69.55555555555556,
                "G": 94.66666666666667,
                "H": 96.66666666666667,
                "I": 92,
                "J": 94.875,
                "K": 88.625,
                "L": 81.125,
                "A": 69.875,
                "B": 61.375,
                "C": 55.375,
                "D": 53.25
            },
            "bus5": {
                "L": 63.125,
                "A": 50.75,
                "B": 41.75,
                "C": 33.625,
                "D": 27.625,
                "E": 21.625,
                "F": 55,
                "G": 121.625,
                "H": 127.25,
                "I": 118.75,
                "J": 94.28571428571429,
                "K": 83.57142857142857
            },
            "bus4": {
                "K": 12.5,
                "L": 11.75,
                "A": 10.125,
                "B": 7.5,
                "C": 5.875,
                "D": 3.875,
                "E": 3.25,
                "F": 9.125,
                "G": 20,
                "H": 20.75,
                "I": 18.875,
                "J": 15.857142857142858
            },
            "bus1": {
                "D": 5.444444444444445,
                "E": 5.555555555555555,
                "F": 11.11111111111111,
                "G": 20.11111111111111,
                "H": 20.666666666666668,
                "I": 18.444444444444443,
                "J": 17.625,
                "K": 15.875,
                "L": 14.25,
                "A": 11.25,
                "B": 8.875,
                "C": 8.875
            },
            "bus0": {
                "B": 421,
                "C": 394.375,
                "D": 375.125,
                "E": 378.625,
                "F": 563.5,
                "G": 816.375,
                "H": 901.875,
                "I": 887.625,
                "J": 839.75,
                "K": 687.4285714285714,
                "L": 612.1428571428571,
                "A": 544
            }
        },
        {
            "bus4": {
                "G": 125.25,
                "H": 134.875,
                "I": 126.625,
                "J": 114,
                "K": 101.25,
                "L": 78.85714285714286,
                "A": 67.57142857142857,
                "B": 54.42857142857143,
                "C": 42.285714285714285,
                "D": 32.42857142857143,
                "E": 24.428571428571427,
                "F": 67.42857142857143
            },
            "bus3": {
                "F": 11.875,
                "G": 27,
                "H": 27.25,
                "I": 25.5,
                "J": 22.375,
                "K": 21.125,
                "L": 16.428571428571427,
                "A": 14.714285714285714,
                "B": 12.857142857142858,
                "C": 10.142857142857142,
                "D": 7.428571428571429,
                "E": 4.714285714285714
            },
            "bus1": {
                "D": 4.125,
                "E": 4,
                "F": 6.875,
                "G": 11.375,
                "H": 10.875,
                "I": 10.5,
                "J": 8.875,
                "K": 7.375,
                "L": 7.285714285714286,
                "A": 6.142857142857143,
                "B": 5.571428571428571,
                "C": 4.714285714285714
            },
            "bus5": {
                "K": 796.625,
                "L": 704.5,
                "A": 552.5714285714286,
                "B": 488.85714285714283,
                "C": 456.85714285714283,
                "D": 448.57142857142856,
                "E": 451.57142857142856,
                "F": 673.8571428571429,
                "G": 974.1428571428571,
                "H": 1068.5714285714287,
                "I": 1047.5714285714287,
                "J": 987
            },
            "bus0": {
                "C": 2.625,
                "D": 3.5,
                "E": 3.125,
                "F": 5.125,
                "G": 8.375,
                "H": 8.25,
                "I": 7.25,
                "J": 6.875,
                "K": 6.375,
                "L": 5.714285714285714,
                "A": 4.714285714285714,
                "B": 3.7142857142857144
            },
            "bus2": {
                "E": 25.625,
                "F": 39.375,
                "G": 60.625,
                "H": 65,
                "I": 62.875,
                "J": 58.625,
                "K": 54.25,
                "L": 54.714285714285715,
                "A": 45.285714285714285,
                "B": 37.714285714285715,
                "C": 35,
                "D": 31.428571428571427
            }
        },
        {
            "bus3": {
                "G": 20.125,
                "H": 21,
                "I": 19.5,
                "J": 17.75,
                "K": 15.25,
                "L": 13.625,
                "A": 12,
                "B": 11.25,
                "C": 9,
                "D": 6.5,
                "E": 4.125,
                "F": 9.142857142857142
            },
            "bus4": {
                "I": 103.75,
                "J": 96.75,
                "K": 84.125,
                "L": 73.375,
                "A": 61.75,
                "B": 47.25,
                "C": 37.625,
                "D": 30,
                "E": 26.125,
                "F": 58.42857142857143,
                "G": 121,
                "H": 128.85714285714286
            },
            "bus5": {
                "K": 704.75,
                "L": 637,
                "A": 563.625,
                "B": 490.75,
                "C": 454.375,
                "D": 437.75,
                "E": 435,
                "F": 643.875,
                "G": 840.4285714285714,
                "H": 928.8571428571429,
                "I": 908.2857142857143,
                "J": 864
            },
            "bus2": {
                "E": 32.666666666666664,
                "F": 56.875,
                "G": 81.75,
                "H": 85.5,
                "I": 83.25,
                "J": 76.75,
                "K": 69.75,
                "L": 62.625,
                "A": 53.5,
                "B": 43.25,
                "C": 37.75,
                "D": 35.25
            },
            "bus0": {
                "C": 3.111111111111111,
                "D": 3.888888888888889,
                "E": 4.111111111111111,
                "F": 5.875,
                "G": 9.5,
                "H": 9.125,
                "I": 8.25,
                "J": 7.375,
                "K": 6.5,
                "L": 5.125,
                "A": 3.75,
                "B": 2.875
            },
            "bus1": {
                "D": 4.666666666666667,
                "E": 3.7777777777777777,
                "F": 9.375,
                "G": 17.875,
                "H": 18.875,
                "I": 16.75,
                "J": 15.5,
                "K": 15.25,
                "L": 12.5,
                "A": 10.5,
                "B": 8.125,
                "C": 6.625
            }
        },
        {
            "bus2": {
                "F": 9.875,
                "G": 18.25,
                "H": 20.5,
                "I": 18.5,
                "J": 17.625,
                "K": 16.857142857142858,
                "L": 14.571428571428571,
                "A": 13,
                "B": 10.428571428571429,
                "C": 9.142857142857142,
                "D": 7.428571428571429,
                "E": 6.571428571428571
            },
            "bus3": {
                "I": 22,
                "J": 19.25,
                "K": 16.285714285714285,
                "L": 14.571428571428571,
                "A": 12.571428571428571,
                "B": 9.428571428571429,
                "C": 8.142857142857142,
                "D": 5.857142857142857,
                "E": 4.714285714285714,
                "F": 13.142857142857142,
                "G": 29,
                "H": 27.571428571428573
            },
            "bus4": {
                "J": 111.75,
                "K": 96.375,
                "L": 75.85714285714286,
                "A": 63.57142857142857,
                "B": 53,
                "C": 42,
                "D": 30.428571428571427,
                "E": 25.285714285714285,
                "F": 67,
                "G": 144.85714285714286,
                "H": 153.57142857142858,
                "I": 143.28571428571428
            },
            "bus5": {
                "L": 665.1428571428571,
                "A": 590.8571428571429,
                "B": 517.7142857142857,
                "C": 481.7142857142857,
                "D": 462.57142857142856,
                "E": 461.2857142857143,
                "F": 683.7142857142857,
                "G": 998.1428571428571,
                "H": 1103.857142857143,
                "I": 1074.857142857143,
                "J": 1008,
                "K": 932.1428571428571
            },
            "bus0": {
                "D": 6.75,
                "E": 6.125,
                "F": 9,
                "G": 12.25,
                "H": 12.625,
                "I": 12.25,
                "J": 11,
                "K": 11.285714285714286,
                "L": 9.142857142857142,
                "A": 8.714285714285714,
                "B": 7.428571428571429,
                "C": 7.285714285714286
            },
            "bus1": {
                "E": 5.625,
                "F": 9.125,
                "G": 16.5,
                "H": 17.125,
                "I": 18,
                "J": 18.125,
                "K": 19,
                "L": 18.142857142857142,
                "A": 15.571428571428571,
                "B": 12.857142857142858,
                "C": 10.857142857142858,
                "D": 8.857142857142858
            }
        },
        {
            "bus3": {
                "H": 24.571428571428573,
                "I": 22.714285714285715,
                "J": 20.571428571428573,
                "K": 19.571428571428573,
                "L": 18.428571428571427,
                "A": 15.428571428571429,
                "B": 11.857142857142858,
                "C": 8.571428571428571,
                "D": 6.428571428571429,
                "E": 4.857142857142857,
                "F": 13.5,
                "G": 29.333333333333332
            },
            "bus2": {
                "G": 11.285714285714286,
                "H": 11.571428571428571,
                "I": 10.428571428571429,
                "J": 10.285714285714286,
                "K": 8.714285714285714,
                "L": 7,
                "A": 6.428571428571429,
                "B": 5.714285714285714,
                "C": 5.857142857142857,
                "D": 5.428571428571429,
                "E": 4.857142857142857,
                "F": 7.833333333333333
            },
            "bus1": {
                "F": 4.571428571428571,
                "G": 5.857142857142857,
                "H": 6.714285714285714,
                "I": 6.571428571428571,
                "J": 6.428571428571429,
                "K": 5.714285714285714,
                "L": 5.428571428571429,
                "A": 4.428571428571429,
                "B": 4,
                "C": 3.142857142857143,
                "D": 2.142857142857143,
                "E": 1.4285714285714286
            },
            "bus5": {
                "L": 775.2857142857143,
                "A": 688.1428571428571,
                "B": 600.2857142857143,
                "C": 559.8571428571429,
                "D": 541.4285714285714,
                "E": 536.4285714285714,
                "F": 786.5714285714286,
                "G": 1069.8333333333333,
                "H": 1175.5,
                "I": 1152.8333333333333,
                "J": 1092,
                "K": 997.6666666666666
            },
            "bus0": {
                "E": 3.125,
                "F": 7,
                "G": 10.142857142857142,
                "H": 11.142857142857142,
                "I": 11.285714285714286,
                "J": 10.714285714285714,
                "K": 10.285714285714286,
                "L": 8.714285714285714,
                "A": 7.142857142857143,
                "B": 5.285714285714286,
                "C": 4.142857142857143,
                "D": 3.5714285714285716
            },
            "bus4": {
                "K": 93,
                "L": 80.85714285714286,
                "A": 65.42857142857143,
                "B": 52.857142857142854,
                "C": 41.714285714285715,
                "D": 32.42857142857143,
                "E": 30,
                "F": 73.83333333333333,
                "G": 148,
                "H": 151.66666666666666,
                "I": 138.33333333333334,
                "J": 123
            }
        },
        {
            "bus2": {
                "H": 6.875,
                "I": 6.875,
                "J": 6.125,
                "K": 5.875,
                "L": 5.25,
                "A": 4.5,
                "B": 4.428571428571429,
                "C": 3.5714285714285716,
                "D": 3.2857142857142856,
                "E": 3.142857142857143,
                "F": 4.857142857142857,
                "G": 7.428571428571429
            },
            "bus1": {
                "G": 5.375,
                "H": 5.375,
                "I": 5.375,
                "J": 4.875,
                "K": 4.625,
                "L": 3.875,
                "A": 4.428571428571429,
                "B": 4.142857142857143,
                "C": 4.428571428571429,
                "D": 5,
                "E": 4.428571428571429,
                "F": 4.857142857142857
            },
            "bus3": {
                "I": 20,
                "J": 17.5,
                "K": 18,
                "L": 18,
                "A": 16,
                "B": 15.285714285714286,
                "C": 13.571428571428571,
                "D": 12,
                "E": 12.714285714285714,
                "F": 16,
                "G": 21.571428571428573,
                "H": 23.142857142857142
            },
            "bus5": {
                "L": 80,
                "A": 64.875,
                "B": 46.142857142857146,
                "C": 38.285714285714285,
                "D": 30.142857142857142,
                "E": 28.428571428571427,
                "F": 76.57142857142857,
                "G": 152.71428571428572,
                "H": 158.14285714285714,
                "I": 143.28571428571428,
                "J": 126.71428571428571,
                "K": 110.42857142857143
            },
            "bus4": {
                "K": 17.75,
                "L": 15.125,
                "A": 13.25,
                "B": 10.857142857142858,
                "C": 8,
                "D": 6.714285714285714,
                "E": 6,
                "F": 13.142857142857142,
                "G": 29.571428571428573,
                "H": 28.714285714285715,
                "I": 24.857142857142858,
                "J": 22.142857142857142
            },
            "bus0": {
                "C": 480,
                "D": 465.7142857142857,
                "E": 466.14285714285717,
                "F": 689,
                "G": 999.7142857142857,
                "H": 1090.7142857142858,
                "I": 1073,
                "J": 1012,
                "K": 928.4285714285714,
                "L": 832.4285714285714,
                "A": 740.1428571428571,
                "B": 607
            }
        },
        {
            "bus3": {
                "H": 24.571428571428573,
                "I": 23,
                "J": 21.857142857142858,
                "K": 19.428571428571427,
                "L": 16.142857142857142,
                "A": 14.142857142857142,
                "B": 11.428571428571429,
                "C": 9.428571428571429,
                "D": 6.857142857142857,
                "E": 5.571428571428571,
                "F": 13.333333333333334,
                "G": 29
            },
            "bus2": {
                "G": 8.714285714285714,
                "H": 9.714285714285714,
                "I": 9.142857142857142,
                "J": 8,
                "K": 7.285714285714286,
                "L": 6.142857142857143,
                "A": 4.857142857142857,
                "B": 3.142857142857143,
                "C": 2.142857142857143,
                "D": 1.8571428571428572,
                "E": 1.7142857142857142,
                "F": 3
            },
            "bus1": {
                "E": 6.25,
                "F": 11.857142857142858,
                "G": 17,
                "H": 18,
                "I": 17,
                "J": 14.142857142857142,
                "K": 13.428571428571429,
                "L": 11.857142857142858,
                "A": 11,
                "B": 9.285714285714286,
                "C": 6.571428571428571,
                "D": 6.285714285714286
            },
            "bus4": {
                "I": 124.57142857142857,
                "J": 112.71428571428571,
                "K": 96.57142857142857,
                "L": 82,
                "A": 65.28571428571429,
                "B": 53.285714285714285,
                "C": 40.285714285714285,
                "D": 31.571428571428573,
                "E": 25.714285714285715,
                "F": 71.16666666666667,
                "G": 148.83333333333334,
                "H": 156
            },
            "bus5": {
                "K": 860.2857142857143,
                "L": 774.1428571428571,
                "A": 683,
                "B": 595.1428571428571,
                "C": 550.5714285714286,
                "D": 533.2857142857143,
                "E": 536.1428571428571,
                "F": 803.7142857142857,
                "G": 1081.3333333333333,
                "H": 1185.3333333333333,
                "I": 1153.8333333333333,
                "J": 1095.3333333333333
            },
            "bus0": {
                "D": 6.875,
                "E": 8.125,
                "F": 17.428571428571427,
                "G": 24.428571428571427,
                "H": 26.571428571428573,
                "I": 24.142857142857142,
                "J": 22.428571428571427,
                "K": 19.571428571428573,
                "L": 16.714285714285715,
                "A": 14,
                "B": 10.714285714285714,
                "C": 7.857142857142857
            }
        },
        {
            "bus3": {
                "H": 122.625,
                "I": 111.375,
                "J": 100.75,
                "K": 90,
                "L": 78.75,
                "A": 65.875,
                "B": 52.25,
                "C": 36.57142857142857,
                "D": 28.571428571428573,
                "E": 23.857142857142858,
                "F": 58.714285714285715,
                "G": 131
            },
            "bus4": {
                "I": 844.875,
                "J": 803.25,
                "K": 737,
                "L": 669,
                "A": 594.625,
                "B": 517.75,
                "C": 470.375,
                "D": 410.7142857142857,
                "E": 415,
                "F": 620.4285714285714,
                "G": 910.5714285714286,
                "H": 991.7142857142857
            },
            "bus5": {
                "A": 8.777777777777779,
                "B": 6.777777777777778,
                "C": 7.375,
                "D": 7.875,
                "E": 6.875,
                "F": 12.625,
                "G": 18.5,
                "H": 18,
                "I": 17,
                "J": 15.75,
                "K": 14.25,
                "L": 12.375
            },
            "bus0": {
                "B": 19.444444444444443,
                "C": 19,
                "D": 17.5,
                "E": 17.5,
                "F": 29.25,
                "G": 43.875,
                "H": 48,
                "I": 47.5,
                "J": 43.75,
                "K": 38.75,
                "L": 33.375,
                "A": 27.75
            },
            "bus2": {
                "F": 25,
                "G": 47.125,
                "H": 49.5,
                "I": 46,
                "J": 43.25,
                "K": 38.75,
                "L": 35.625,
                "A": 30.125,
                "B": 25.125,
                "C": 22.714285714285715,
                "D": 19.714285714285715,
                "E": 18
            },
            "bus1": {
                "D": 7.125,
                "E": 7.25,
                "F": 12,
                "G": 19.625,
                "H": 20.25,
                "I": 17.5,
                "J": 16.125,
                "K": 14,
                "L": 13.375,
                "A": 12.125,
                "B": 10.5,
                "C": 10.571428571428571
            }
        },
        {
            "bus4": {
                "F": 95.22222222222223,
                "G": 166.77777777777777,
                "H": 170.44444444444446,
                "I": 157.125,
                "J": 145.5,
                "K": 128,
                "L": 110,
                "A": 94.5,
                "B": 78,
                "C": 68.5,
                "D": 59.625,
                "E": 56.625
            },
            "bus3": {
                "E": 7.111111111111111,
                "F": 16,
                "G": 33.22222222222222,
                "H": 33.5,
                "I": 31.125,
                "J": 27.75,
                "K": 25.125,
                "L": 21.875,
                "A": 18.375,
                "B": 16.5,
                "C": 13.375,
                "D": 10
            },
            "bus0": {
                "B": 4.777777777777778,
                "C": 4.666666666666667,
                "D": 5.333333333333333,
                "E": 5.555555555555555,
                "F": 8.666666666666666,
                "G": 12.444444444444445,
                "H": 14.125,
                "I": 12.75,
                "J": 10.75,
                "K": 9.75,
                "L": 8.875,
                "A": 7
            },
            "bus5": {
                "L": 573.375,
                "A": 510.75,
                "B": 443.375,
                "C": 401.875,
                "D": 396.5,
                "E": 401.5,
                "F": 580,
                "G": 857.625,
                "H": 940.625,
                "I": 832.8571428571429,
                "J": 787.1428571428571,
                "K": 733.7142857142857
            },
            "bus2": {
                "D": 4.666666666666667,
                "E": 5,
                "F": 9.333333333333334,
                "G": 15.88888888888889,
                "H": 16.25,
                "I": 14,
                "J": 12.25,
                "K": 10.375,
                "L": 8.625,
                "A": 7.125,
                "B": 5.75,
                "C": 5.125
            },
            "bus1": {
                "C": 8.444444444444445,
                "D": 8.88888888888889,
                "E": 9.333333333333334,
                "F": 12,
                "G": 18.22222222222222,
                "H": 22.75,
                "I": 22.875,
                "J": 20.75,
                "K": 18.625,
                "L": 16.875,
                "A": 13.625,
                "B": 11.625
            }
        },
        {
            "bus3": {
                "G": 15.4,
                "H": 16.3,
                "I": 15,
                "J": 13.4,
                "K": 12.3,
                "L": 11.2,
                "A": 8.8,
                "B": 7.333333333333333,
                "C": 7.111111111111111,
                "D": 6.333333333333333,
                "E": 5.888888888888889,
                "F": 11.333333333333334
            },
            "bus1": {
                "E": 293.44444444444446,
                "F": 438.8888888888889,
                "G": 639.2222222222222,
                "H": 702.7777777777778,
                "I": 690.2222222222222,
                "J": 652.6666666666666,
                "K": 604.8888888888889,
                "L": 538.7777777777778,
                "A": 482.55555555555554,
                "B": 369.625,
                "C": 342.75,
                "D": 334.25
            },
            "bus2": {
                "F": 7.6,
                "G": 13.2,
                "H": 14.7,
                "I": 14,
                "J": 13.6,
                "K": 12.3,
                "L": 10.6,
                "A": 9.2,
                "B": 8.777777777777779,
                "C": 7,
                "D": 5.444444444444445,
                "E": 5.222222222222222
            },
            "bus4": {
                "I": 21.5,
                "J": 20.9,
                "K": 18.7,
                "L": 17.3,
                "A": 15.1,
                "B": 12.666666666666666,
                "C": 10.222222222222221,
                "D": 11.11111111111111,
                "E": 10.444444444444445,
                "F": 16.77777777777778,
                "G": 25.77777777777778,
                "H": 26.22222222222222
            },
            "bus5": {
                "A": 16.5,
                "B": 12.555555555555555,
                "C": 10.11111111111111,
                "D": 9.444444444444445,
                "E": 8.222222222222221,
                "F": 18.11111111111111,
                "G": 36.55555555555556,
                "H": 36.888888888888886,
                "I": 34,
                "J": 29.333333333333332,
                "K": 24.11111111111111,
                "L": 21.22222222222222
            },
            "bus0": {
                "B": 100.44444444444444,
                "C": 86.55555555555556,
                "D": 78.66666666666667,
                "E": 75.22222222222223,
                "F": 130.77777777777777,
                "G": 212.11111111111111,
                "H": 227.44444444444446,
                "I": 213.77777777777777,
                "J": 196.44444444444446,
                "K": 174.33333333333334,
                "L": 152.44444444444446,
                "A": 128.88888888888889
            }
        }
    ],
    "Obs_and_actions_busses": [
        {
            "0": 35.18210783120061
        },
        {
            "0": 39.29985516431781
        },
        {
            "0": 35.95817861377173
        },
        {
            "0": 40.337276881129604
        },
        {
            "0": 37.539179437474395
        },
        {
            "0": 17.762909750629646
        },
        {
            "0": 42.285464502094705
        },
        {
            "0": 32.269098128346656
        },
        {
            "0": 10.368347838346283
        },
        {
            "0": 22.024839359737342
        }
    ],
    "Obs_and_actions_tfls": [
        {
            "0": -325.6603570018687
        },
        {
            "0": 2.212405089948729
        },
        {
            "0": 28.791904957835467
        },
        {
            "0": 10.111670851143922
        },
        {
            "0": -0.11396943883381402
        },
        {
            "0": -503.27180128428023
        },
        {
            "0": 9.829996092945573
        },
        {
            "0": -860.7125226601158
        },
        {
            "0": -26.2603162252722
        },
        {
            "0": 86.00279776280391
        }
    ]
}