{
    "Average_holding_time": 0,
    "Average_holding_actions": [
        593,
        0,
        0,
        0,
        0,
        0
    ],
    "Average_travel_time_passengers": 6805.038158377063,
    "Average_passenger_waiting_time": 2906.530032095982,
    "Average_passenger_in_vehicle_time": 3898.5081262809495,
    "Average_speed_busses": 0.024708333333333332,
    "Average_experienced_crowding": 721.7936928804991,
    "Average_covariation_headway": 2.203550715822773,
    "Average_covariation_headway_stops": {
        "F": 2.1034676383184934,
        "E": 2.3411391826706276,
        "B": 2.3573746189339255,
        "L": 2.359535090676835,
        "D": 2.3253788478628303,
        "G": 1.948363494695724,
        "C": 2.354874845820047,
        "H": 2.127113416957554,
        "A": 2.34829502928083,
        "I": 2.329619460479457,
        "J": 2.3582418136444576,
        "K": 2.3416749600984934
    },
    "Average_excess_waiting_time": {
        "F": 2606.7826077740156,
        "E": 3113.597077532172,
        "B": 3203.408230872795,
        "L": 3182.5985582329367,
        "D": 3090.236584992348,
        "G": 2367.0331302386576,
        "C": 3178.197406384382,
        "H": 3045.1784198118576,
        "A": 3204.167616452248,
        "I": 3046.736910148431,
        "J": 3162.350865821455,
        "K": 3167.188701304305
    },
    "Holding_per_stop": {
        "F": 0,
        "E": 0,
        "L": 0,
        "B": 0,
        "D": 0,
        "C": 0,
        "G": 0,
        "H": 0,
        "A": 0,
        "I": 0,
        "J": 0,
        "K": 0
    },
    "Actions_tfl_edges": {
        "CD": [
            51,
            0,
            0
        ],
        "FG": [
            53,
            0,
            0
        ],
        "GH": [
            53,
            0,
            0
        ],
        "HI": [
            48,
            0,
            0
        ],
        "JK": [
            47,
            0,
            0
        ]
    },
    "Load_per_bus_per_stop": {
        "bus4": {
            "F": 95.22222222222223,
            "G": 166.77777777777777,
            "H": 170.44444444444446,
            "I": 157.125,
            "J": 145.5,
            "K": 128,
            "L": 110,
            "A": 94.5,
            "B": 78,
            "C": 68.5,
            "D": 59.625,
            "E": 56.625
        },
        "bus3": {
            "E": 7.111111111111111,
            "F": 16,
            "G": 33.22222222222222,
            "H": 33.5,
            "I": 31.125,
            "J": 27.75,
            "K": 25.125,
            "L": 21.875,
            "A": 18.375,
            "B": 16.5,
            "C": 13.375,
            "D": 10
        },
        "bus0": {
            "B": 4.777777777777778,
            "C": 4.666666666666667,
            "D": 5.333333333333333,
            "E": 5.555555555555555,
            "F": 8.666666666666666,
            "G": 12.444444444444445,
            "H": 14.125,
            "I": 12.75,
            "J": 10.75,
            "K": 9.75,
            "L": 8.875,
            "A": 7
        },
        "bus5": {
            "L": 573.375,
            "A": 510.75,
            "B": 443.375,
            "C": 401.875,
            "D": 396.5,
            "E": 401.5,
            "F": 580,
            "G": 857.625,
            "H": 940.625,
            "I": 832.8571428571429,
            "J": 787.1428571428571,
            "K": 733.7142857142857
        },
        "bus2": {
            "D": 4.666666666666667,
            "E": 5,
            "F": 9.333333333333334,
            "G": 15.88888888888889,
            "H": 16.25,
            "I": 14,
            "J": 12.25,
            "K": 10.375,
            "L": 8.625,
            "A": 7.125,
            "B": 5.75,
            "C": 5.125
        },
        "bus1": {
            "C": 8.444444444444445,
            "D": 8.88888888888889,
            "E": 9.333333333333334,
            "F": 12,
            "G": 18.22222222222222,
            "H": 22.75,
            "I": 22.875,
            "J": 20.75,
            "K": 18.625,
            "L": 16.875,
            "A": 13.625,
            "B": 11.625
        }
    },
    "Obs_and_actions_busses": {
        "0": 10.368347838346283
    },
    "Obs_and_actions_tfls": {
        "0": -26.2603162252722
    }
}