{
    "Average_holding_time": 0,
    "Average_holding_actions": [
        540,
        0,
        0,
        0,
        0,
        0
    ],
    "Average_travel_time_passengers": 7404.348955832191,
    "Average_passenger_waiting_time": 3210.347548605496,
    "Average_passenger_in_vehicle_time": 4194.001407226888,
    "Average_speed_busses": 0.0225,
    "Average_experienced_crowding": 794.8477085061859,
    "Average_covariation_headway": 2.272979311380711,
    "Average_covariation_headway_stops": {
        "G": 1.9429632455070764,
        "F": 2.0709241372711777,
        "D": 2.3001323221264904,
        "H": 2.208766799010257,
        "K": 2.3714413420876026,
        "C": 2.314943295261329,
        "E": 2.331821976754936,
        "I": 2.3363466165995166,
        "L": 2.232560701405852,
        "J": 2.350273191932673,
        "A": 2.3399828381150485,
        "B": 2.3264199619562653
    },
    "Average_excess_waiting_time": {
        "G": 2552.0778266482776,
        "F": 2794.4084325415133,
        "D": 3339.6498240325873,
        "H": 3255.0962210452135,
        "K": 3755.484953039492,
        "C": 3391.3106387624002,
        "E": 3395.990585482148,
        "I": 3646.5757863180424,
        "L": 3791.8794690975647,
        "J": 3732.4021733928967,
        "A": 3418.1357152422725,
        "B": 3446.8531469037553
    },
    "Holding_per_stop": {
        "G": 0,
        "F": 0,
        "D": 0,
        "K": 0,
        "H": 0,
        "C": 0,
        "E": 0,
        "I": 0,
        "L": 0,
        "J": 0,
        "A": 0,
        "B": 0
    },
    "Actions_tfl_edges": {
        "CD": [
            44,
            0,
            0
        ],
        "FG": [
            47,
            0,
            0
        ],
        "JK": [
            48,
            0,
            0
        ],
        "GH": [
            47,
            0,
            0
        ],
        "HI": [
            47,
            0,
            0
        ]
    },
    "Load_per_bus_per_stop": {
        "bus4": {
            "G": 125.25,
            "H": 134.875,
            "I": 126.625,
            "J": 114,
            "K": 101.25,
            "L": 78.85714285714286,
            "A": 67.57142857142857,
            "B": 54.42857142857143,
            "C": 42.285714285714285,
            "D": 32.42857142857143,
            "E": 24.428571428571427,
            "F": 67.42857142857143
        },
        "bus3": {
            "F": 11.875,
            "G": 27,
            "H": 27.25,
            "I": 25.5,
            "J": 22.375,
            "K": 21.125,
            "L": 16.428571428571427,
            "A": 14.714285714285714,
            "B": 12.857142857142858,
            "C": 10.142857142857142,
            "D": 7.428571428571429,
            "E": 4.714285714285714
        },
        "bus1": {
            "D": 4.125,
            "E": 4,
            "F": 6.875,
            "G": 11.375,
            "H": 10.875,
            "I": 10.5,
            "J": 8.875,
            "K": 7.375,
            "L": 7.285714285714286,
            "A": 6.142857142857143,
            "B": 5.571428571428571,
            "C": 4.714285714285714
        },
        "bus5": {
            "K": 796.625,
            "L": 704.5,
            "A": 552.5714285714286,
            "B": 488.85714285714283,
            "C": 456.85714285714283,
            "D": 448.57142857142856,
            "E": 451.57142857142856,
            "F": 673.8571428571429,
            "G": 974.1428571428571,
            "H": 1068.5714285714287,
            "I": 1047.5714285714287,
            "J": 987
        },
        "bus0": {
            "C": 2.625,
            "D": 3.5,
            "E": 3.125,
            "F": 5.125,
            "G": 8.375,
            "H": 8.25,
            "I": 7.25,
            "J": 6.875,
            "K": 6.375,
            "L": 5.714285714285714,
            "A": 4.714285714285714,
            "B": 3.7142857142857144
        },
        "bus2": {
            "E": 25.625,
            "F": 39.375,
            "G": 60.625,
            "H": 65,
            "I": 62.875,
            "J": 58.625,
            "K": 54.25,
            "L": 54.714285714285715,
            "A": 45.285714285714285,
            "B": 37.714285714285715,
            "C": 35,
            "D": 31.428571428571427
        }
    },
    "Obs_and_actions_busses": {
        "0": 39.29985516431781
    },
    "Obs_and_actions_tfls": {
        "0": 2.212405089948729
    }
}