{
    "Average_holding_time": 0,
    "Average_holding_actions": [
        525,
        0,
        0,
        0,
        0,
        0
    ],
    "Average_travel_time_passengers": 7388.981240026305,
    "Average_passenger_waiting_time": 3246.462727234056,
    "Average_passenger_in_vehicle_time": 4142.518512792387,
    "Average_speed_busses": 0.021875,
    "Average_experienced_crowding": 783.5333267385213,
    "Average_covariation_headway": 2.337001560510538,
    "Average_covariation_headway_stops": {
        "F": 2.0459663950675626,
        "I": 2.293079377501688,
        "J": 2.333132295025861,
        "L": 2.3436685268598945,
        "D": 2.2812456591414256,
        "E": 2.3038718037374584,
        "G": 1.8902288489352956,
        "H": 2.142864386487414,
        "K": 2.2105129939259918,
        "A": 2.3224163307278927,
        "B": 2.311225881325225,
        "C": 2.281246721202017
    },
    "Average_excess_waiting_time": {
        "F": 2833.975685742218,
        "I": 3642.9411227439305,
        "J": 3723.9327532060206,
        "L": 3441.908112512847,
        "D": 3426.76921289445,
        "E": 3455.1904173590046,
        "G": 2577.2732288205316,
        "H": 3263.5097533686303,
        "K": 3750.7109947377394,
        "A": 3438.371573609582,
        "B": 3466.7688693554064,
        "C": 3446.47576417861
    },
    "Holding_per_stop": {
        "I": 0,
        "F": 0,
        "L": 0,
        "J": 0,
        "D": 0,
        "E": 0,
        "G": 0,
        "K": 0,
        "H": 0,
        "A": 0,
        "B": 0,
        "C": 0
    },
    "Actions_tfl_edges": {
        "CD": [
            43,
            0,
            0
        ],
        "HI": [
            46,
            0,
            0
        ],
        "FG": [
            45,
            0,
            0
        ],
        "JK": [
            47,
            0,
            0
        ],
        "GH": [
            45,
            0,
            0
        ]
    },
    "Load_per_bus_per_stop": {
        "bus2": {
            "F": 9.875,
            "G": 18.25,
            "H": 20.5,
            "I": 18.5,
            "J": 17.625,
            "K": 16.857142857142858,
            "L": 14.571428571428571,
            "A": 13,
            "B": 10.428571428571429,
            "C": 9.142857142857142,
            "D": 7.428571428571429,
            "E": 6.571428571428571
        },
        "bus3": {
            "I": 22,
            "J": 19.25,
            "K": 16.285714285714285,
            "L": 14.571428571428571,
            "A": 12.571428571428571,
            "B": 9.428571428571429,
            "C": 8.142857142857142,
            "D": 5.857142857142857,
            "E": 4.714285714285714,
            "F": 13.142857142857142,
            "G": 29,
            "H": 27.571428571428573
        },
        "bus4": {
            "J": 111.75,
            "K": 96.375,
            "L": 75.85714285714286,
            "A": 63.57142857142857,
            "B": 53,
            "C": 42,
            "D": 30.428571428571427,
            "E": 25.285714285714285,
            "F": 67,
            "G": 144.85714285714286,
            "H": 153.57142857142858,
            "I": 143.28571428571428
        },
        "bus5": {
            "L": 665.1428571428571,
            "A": 590.8571428571429,
            "B": 517.7142857142857,
            "C": 481.7142857142857,
            "D": 462.57142857142856,
            "E": 461.2857142857143,
            "F": 683.7142857142857,
            "G": 998.1428571428571,
            "H": 1103.857142857143,
            "I": 1074.857142857143,
            "J": 1008,
            "K": 932.1428571428571
        },
        "bus0": {
            "D": 6.75,
            "E": 6.125,
            "F": 9,
            "G": 12.25,
            "H": 12.625,
            "I": 12.25,
            "J": 11,
            "K": 11.285714285714286,
            "L": 9.142857142857142,
            "A": 8.714285714285714,
            "B": 7.428571428571429,
            "C": 7.285714285714286
        },
        "bus1": {
            "E": 5.625,
            "F": 9.125,
            "G": 16.5,
            "H": 17.125,
            "I": 18,
            "J": 18.125,
            "K": 19,
            "L": 18.142857142857142,
            "A": 15.571428571428571,
            "B": 12.857142857142858,
            "C": 10.857142857142858,
            "D": 8.857142857142858
        }
    },
    "Obs_and_actions_busses": {
        "0": 40.337276881129604
    },
    "Obs_and_actions_tfls": {
        "0": 10.111670851143922
    }
}