{
    "Average_holding_time": [
        0,
        [
            0,
            0,
            0,
            0,
            0,
            0,
            0,
            0,
            0,
            0
        ]
    ],
    "Average_holding_actions": [
        [
            689,
            0,
            0,
            0,
            0,
            0
        ],
        [
            862,
            0,
            0,
            0,
            0,
            0
        ],
        [
            712,
            0,
            0,
            0,
            0,
            0
        ],
        [
            710,
            0,
            0,
            0,
            0,
            0
        ],
        [
            697,
            0,
            0,
            0,
            0,
            0
        ],
        [
            788,
            0,
            0,
            0,
            0,
            0
        ],
        [
            677,
            0,
            0,
            0,
            0,
            0
        ],
        [
            809,
            0,
            0,
            0,
            0,
            0
        ],
        [
            780,
            0,
            0,
            0,
            0,
            0
        ],
        [
            767,
            0,
            0,
            0,
            0,
            0
        ]
    ],
    "Average_travel_time_passengers": [
        6085.851554790422,
        [
            6643.342606323448,
            4915.974338132335,
            6438.463901922391,
            6516.640290548007,
            6683.060056288828,
            5494.332156402905,
            6880.823368216426,
            5536.2241521735705,
            5711.772084986187,
            6037.882592910118
        ]
    ],
    "Average_passenger_waiting_time": [
        2324.415004952899,
        [
            2637.8423699227515,
            1689.7561138179049,
            2544.1180635937185,
            2560.273111330297,
            2626.620649668041,
            1987.8959578986542,
            2742.3094474580726,
            2038.8858732425513,
            2112.7787398761816,
            2303.669722720818
        ]
    ],
    "Average_passenger_in_vehicle_time": [
        3761.4365498375555,
        [
            4005.500236400824,
            3226.2182243142597,
            3894.3458383287048,
            3956.3671792173773,
            4056.439406620893,
            3506.4361985041874,
            4138.513920758495,
            3497.3382789313023,
            3598.9933451102456,
            3734.212870189265
        ]
    ],
    "Average_speed_busses": [
        0.0312125,
        [
            0.028708333333333332,
            0.035916666666666666,
            0.029666666666666668,
            0.029583333333333333,
            0.029041666666666667,
            0.03283333333333333,
            0.028208333333333332,
            0.03370833333333333,
            0.0325,
            0.03195833333333333
        ]
    ],
    "Average_experienced_crowding": [
        568.6124267371878,
        [
            638.5826715976067,
            416.76256323373565,
            604.5971174062958,
            630.9666257469008,
            640.7012700618606,
            506.584920436606,
            666.9084597911027,
            509.2946888187847,
            516.8749636837474,
            554.8509865952375
        ]
    ],
    "Average_covariation_headway": [
        2.1440980802178227,
        [
            2.280750124602111,
            1.847971246866357,
            2.265268752446435,
            2.243507690889787,
            2.275880785528329,
            1.9797418825056643,
            2.309324570367747,
            2.013049387783026,
            2.0741995032671303,
            2.1512868579216384
        ]
    ],
    "Average_covariation_headway_stops": [
        {
            "A": 2.133326256315045,
            "K": 2.1210955041761337,
            "C": 2.1554379194962174,
            "H": 2.139541533281735,
            "L": 2.131815262585232,
            "B": 2.1583200924661026,
            "I": 2.1217826239874866,
            "D": 2.1624042847070717,
            "E": 2.143552066533553,
            "J": 2.110881260701949,
            "F": 2.131585965569887,
            "G": 2.0379436810913028
        },
        {
            "G": 1.9124751510392477,
            "C": 1.938966923221912,
            "L": 1.9278161339858817,
            "E": 1.9695369049779643,
            "I": 1.9245358485482973,
            "D": 1.9480801536213137,
            "H": 1.8933246071102892,
            "A": 1.9255262455923452,
            "F": 1.9151117819087833,
            "J": 1.9176858188833734,
            "B": 1.9271388385490245,
            "K": 1.9203626143996246
        },
        {
            "F": 2.1435521457686417,
            "L": 2.1414088401698965,
            "H": 2.1331953334196334,
            "E": 2.1299062928862007,
            "I": 2.1438337192517865,
            "J": 2.145394065877443,
            "A": 2.129607456374213,
            "K": 2.1323234198029515,
            "G": 2.0399523307377248,
            "B": 2.1210912920427387,
            "C": 2.1237284446128166,
            "D": 2.115462776873847
        },
        {
            "J": 2.16601419606597,
            "L": 2.164775056131819,
            "I": 2.1561633411699033,
            "B": 2.1557134294939626,
            "F": 2.1460892612986955,
            "G": 2.160327542941812,
            "K": 2.1555616731615417,
            "A": 2.155647022078723,
            "C": 2.149912449649587,
            "H": 2.0585126595407384,
            "D": 2.1346359897887415,
            "E": 2.127720932245353
        },
        {
            "J": 2.1375761646766667,
            "L": 2.15014928436655,
            "K": 2.1380022282185993,
            "A": 2.1673121864874476,
            "I": 2.124314760485337,
            "D": 2.1694393755032344,
            "E": 2.1564961655130332,
            "B": 2.154840528170243,
            "F": 2.1436180960810662,
            "C": 2.1595825864517737,
            "G": 2.137267104105262,
            "H": 2.0321314130147043
        },
        {
            "B": 1.9970894015863196,
            "H": 1.971892760613201,
            "F": 1.9548973529574598,
            "E": 1.999330385451045,
            "J": 2.000853578474039,
            "I": 1.9850390412062646,
            "K": 1.9848446181872759,
            "C": 1.991925839656899,
            "D": 1.9780559944035805,
            "G": 1.9549815488546138,
            "L": 1.9779810218656422,
            "A": 1.989760668393803
        },
        {
            "H": 2.137539889272472,
            "I": 2.1545367612024675,
            "J": 2.1678200137271384,
            "E": 2.156425853620459,
            "K": 2.1731470225876963,
            "L": 2.187516751158841,
            "F": 2.146359556209799,
            "A": 2.175676833430479,
            "G": 2.1366536438660266,
            "B": 2.078443039753199,
            "C": 2.1603174419959688,
            "D": 2.1476203918601704
        },
        {
            "I": 2.0750525547107466,
            "C": 2.0771498658596315,
            "L": 2.0556995650079988,
            "B": 2.060904561027124,
            "K": 2.053829945415651,
            "F": 2.070964597925896,
            "J": 1.9923498942267492,
            "D": 2.062791045695668,
            "A": 2.044102439046571,
            "G": 2.076677255657612,
            "E": 2.0614649158520377,
            "H": 2.0527941628897377
        },
        {
            "A": 2.0273795215986934,
            "I": 2.042239999807861,
            "H": 2.032934073205838,
            "D": 2.0210564722580857,
            "C": 1.947845137437228,
            "E": 2.0341022352346396,
            "J": 2.0248917699926396,
            "B": 2.012042091973345,
            "F": 2.028246899654466,
            "K": 2.019161214222059,
            "G": 2.0157358361171704,
            "L": 2.009478592106332
        },
        {
            "K": 2.099619430266824,
            "I": 2.0948700803209332,
            "H": 2.0178211554110166,
            "A": 2.113480173859227,
            "C": 2.1108516438834695,
            "E": 2.1105679086977553,
            "B": 2.115954118823097,
            "L": 2.1028719077077245,
            "D": 2.100355545509321,
            "J": 2.09320339905432,
            "F": 2.104773128060148,
            "G": 2.0936350903091423
        }
    ],
    "Average_excess_waiting_time": [
        {
            "A": 2393.7770334420147,
            "K": 2400.1668213068865,
            "C": 2410.1690867982816,
            "H": 2396.5509161770947,
            "L": 2406.1831372281554,
            "B": 2431.5060295998755,
            "I": 2388.494000188805,
            "D": 2450.945250905156,
            "E": 2440.2005254401433,
            "J": 2396.2394383026117,
            "F": 2445.2638877655672,
            "G": 2487.6666951221905
        },
        {
            "G": 1479.0184941931234,
            "C": 1602.2746634141624,
            "L": 1557.2696998430365,
            "E": 1639.3632907596216,
            "I": 1517.1661100445024,
            "D": 1612.1954325890613,
            "H": 1472.1807785610677,
            "A": 1572.4246977818498,
            "F": 1647.4916649584845,
            "J": 1527.6251886696393,
            "B": 1593.0941706102049,
            "K": 1552.0779375503412
        },
        {
            "F": 2376.575753101094,
            "L": 2290.7780763217934,
            "H": 2290.5643643284093,
            "E": 2363.231123657757,
            "I": 2297.1252565243726,
            "J": 2282.004723115918,
            "A": 2294.6348944769397,
            "K": 2285.9292284786634,
            "G": 2387.6511663414976,
            "B": 2303.8577461622713,
            "C": 2333.052700849434,
            "D": 2345.4545068196644
        },
        {
            "J": 2340.225105743889,
            "L": 2359.257081136033,
            "I": 2335.1465209071534,
            "B": 2354.0914191959278,
            "F": 2405.2394228460807,
            "G": 2416.755774067553,
            "K": 2353.1303103778605,
            "A": 2368.23953357831,
            "C": 2369.1432291928522,
            "H": 2434.6619935956855,
            "D": 2368.0536292187226,
            "E": 2381.3605588983464
        },
        {
            "J": 2359.8565403303724,
            "L": 2358.367596196745,
            "K": 2346.0978276052283,
            "A": 2379.107018666868,
            "I": 2346.400348246644,
            "D": 2430.148585728371,
            "E": 2437.7738764203377,
            "B": 2382.9442744950043,
            "F": 2436.947735117453,
            "C": 2424.7564704764586,
            "G": 2451.5133836951454,
            "H": 2467.479882544145
        },
        {
            "B": 1857.6383507164892,
            "H": 1763.3422565404926,
            "F": 1719.4171226263559,
            "E": 1901.0345678173044,
            "J": 1800.3290918895923,
            "I": 1784.6295310627556,
            "K": 1800.1741457649218,
            "C": 1869.4133613431923,
            "D": 1867.118960024949,
            "G": 1742.2211760619211,
            "L": 1811.5106594007088,
            "A": 1855.2876676101778
        },
        {
            "H": 2499.2505958106262,
            "I": 2516.5440989315252,
            "J": 2526.9722441765252,
            "E": 2503.2814836721814,
            "K": 2517.770792002525,
            "L": 2531.4174992115354,
            "F": 2511.9238313107826,
            "A": 2538.439696985509,
            "G": 2518.900324425131,
            "B": 2579.7029947723163,
            "C": 2503.2330226586178,
            "D": 2502.927206781755
        },
        {
            "I": 1959.5597997875088,
            "C": 1890.3270212058997,
            "L": 1841.1091777541214,
            "B": 1865.1264355898825,
            "K": 1846.5645165288738,
            "F": 1914.1656355876949,
            "J": 1982.9267517211824,
            "D": 1887.1436611744944,
            "A": 1845.0025124831423,
            "G": 1948.9866171300127,
            "E": 1905.2507575738423,
            "H": 1930.8119594120653
        },
        {
            "A": 1947.7963391395947,
            "I": 1918.1538483488744,
            "H": 1910.9425900351252,
            "D": 1864.5349564896674,
            "C": 1968.498346621861,
            "E": 1878.3290039764215,
            "J": 1910.1219838279544,
            "B": 1940.0993393065319,
            "F": 1891.5209600756707,
            "K": 1922.755444473676,
            "G": 1892.2832737906738,
            "L": 1927.5131482403817
        },
        {
            "K": 2044.6828048188127,
            "I": 2024.2980466139156,
            "H": 2133.6227530285514,
            "A": 2081.8580783941175,
            "C": 2092.7859835685395,
            "E": 2106.9365772220235,
            "B": 2113.3513840362375,
            "L": 2072.315954445583,
            "D": 2095.0229991473007,
            "J": 2045.354460859874,
            "F": 2116.813547559051,
            "G": 2121.7676930353937
        }
    ],
    "Actions_tfl_edges": [
        {
            "AB": [
                59,
                0,
                0
            ],
            "BC": [
                60,
                0,
                0
            ],
            "GH": [
                55,
                0,
                0
            ],
            "JK": [
                56,
                0,
                0
            ],
            "KL": [
                57,
                0,
                0
            ],
            "LA": [
                58,
                0,
                0
            ],
            "CD": [
                60,
                0,
                0
            ],
            "HI": [
                55,
                0,
                0
            ],
            "IJ": [
                55,
                0,
                0
            ],
            "DE": [
                60,
                0,
                0
            ],
            "EF": [
                60,
                0,
                0
            ],
            "FG": [
                60,
                0,
                0
            ]
        },
        {
            "BC": [
                73,
                0,
                0
            ],
            "CD": [
                74,
                0,
                0
            ],
            "DE": [
                75,
                0,
                0
            ],
            "FG": [
                71,
                0,
                0
            ],
            "HI": [
                71,
                0,
                0
            ],
            "KL": [
                72,
                0,
                0
            ],
            "GH": [
                70,
                0,
                0
            ],
            "LA": [
                72,
                0,
                0
            ],
            "EF": [
                75,
                0,
                0
            ],
            "IJ": [
                71,
                0,
                0
            ],
            "AB": [
                72,
                0,
                0
            ],
            "JK": [
                71,
                0,
                0
            ]
        },
        {
            "DE": [
                61,
                0,
                0
            ],
            "EF": [
                62,
                0,
                0
            ],
            "GH": [
                57,
                0,
                0
            ],
            "HI": [
                58,
                0,
                0
            ],
            "IJ": [
                59,
                0,
                0
            ],
            "KL": [
                60,
                0,
                0
            ],
            "FG": [
                62,
                0,
                0
            ],
            "LA": [
                60,
                0,
                0
            ],
            "JK": [
                59,
                0,
                0
            ],
            "AB": [
                60,
                0,
                0
            ],
            "BC": [
                60,
                0,
                0
            ],
            "CD": [
                60,
                0,
                0
            ]
        },
        {
            "AB": [
                60,
                0,
                0
            ],
            "EF": [
                61,
                0,
                0
            ],
            "FG": [
                62,
                0,
                0
            ],
            "HI": [
                57,
                0,
                0
            ],
            "IJ": [
                58,
                0,
                0
            ],
            "KL": [
                59,
                0,
                0
            ],
            "JK": [
                58,
                0,
                0
            ],
            "LA": [
                59,
                0,
                0
            ],
            "BC": [
                60,
                0,
                0
            ],
            "GH": [
                62,
                0,
                0
            ],
            "CD": [
                60,
                0,
                0
            ],
            "DE": [
                60,
                0,
                0
            ]
        },
        {
            "CD": [
                60,
                0,
                0
            ],
            "HI": [
                55,
                0,
                0
            ],
            "IJ": [
                56,
                0,
                0
            ],
            "JK": [
                57,
                0,
                0
            ],
            "KL": [
                58,
                0,
                0
            ],
            "LA": [
                59,
                0,
                0
            ],
            "AB": [
                59,
                0,
                0
            ],
            "DE": [
                60,
                0,
                0
            ],
            "EF": [
                60,
                0,
                0
            ],
            "BC": [
                59,
                0,
                0
            ],
            "FG": [
                60,
                0,
                0
            ],
            "GH": [
                60,
                0,
                0
            ]
        },
        {
            "AB": [
                67,
                0,
                0
            ],
            "DE": [
                68,
                0,
                0
            ],
            "EF": [
                69,
                0,
                0
            ],
            "GH": [
                64,
                0,
                0
            ],
            "HI": [
                65,
                0,
                0
            ],
            "IJ": [
                66,
                0,
                0
            ],
            "BC": [
                67,
                0,
                0
            ],
            "FG": [
                63,
                0,
                0
            ],
            "JK": [
                66,
                0,
                0
            ],
            "CD": [
                67,
                0,
                0
            ],
            "KL": [
                66,
                0,
                0
            ],
            "LA": [
                66,
                0,
                0
            ]
        },
        {
            "DE": [
                55,
                0,
                0
            ],
            "GH": [
                56,
                0,
                0
            ],
            "HI": [
                57,
                0,
                0
            ],
            "IJ": [
                58,
                0,
                0
            ],
            "JK": [
                59,
                0,
                0
            ],
            "KL": [
                60,
                0,
                0
            ],
            "EF": [
                55,
                0,
                0
            ],
            "LA": [
                60,
                0,
                0
            ],
            "FG": [
                55,
                0,
                0
            ],
            "AB": [
                60,
                0,
                0
            ],
            "BC": [
                54,
                0,
                0
            ],
            "CD": [
                54,
                0,
                0
            ]
        },
        {
            "AB": [
                67,
                0,
                0
            ],
            "BC": [
                68,
                0,
                0
            ],
            "EF": [
                69,
                0,
                0
            ],
            "HI": [
                70,
                0,
                0
            ],
            "JK": [
                65,
                0,
                0
            ],
            "KL": [
                66,
                0,
                0
            ],
            "CD": [
                68,
                0,
                0
            ],
            "LA": [
                66,
                0,
                0
            ],
            "IJ": [
                70,
                0,
                0
            ],
            "FG": [
                69,
                0,
                0
            ],
            "DE": [
                68,
                0,
                0
            ],
            "GH": [
                69,
                0,
                0
            ]
        },
        {
            "BC": [
                68,
                0,
                0
            ],
            "CD": [
                63,
                0,
                0
            ],
            "DE": [
                64,
                0,
                0
            ],
            "GH": [
                65,
                0,
                0
            ],
            "HI": [
                66,
                0,
                0
            ],
            "LA": [
                67,
                0,
                0
            ],
            "AB": [
                67,
                0,
                0
            ],
            "IJ": [
                66,
                0,
                0
            ],
            "EF": [
                64,
                0,
                0
            ],
            "JK": [
                66,
                0,
                0
            ],
            "FG": [
                64,
                0,
                0
            ],
            "KL": [
                66,
                0,
                0
            ]
        },
        {
            "BC": [
                65,
                0,
                0
            ],
            "DE": [
                66,
                0,
                0
            ],
            "GH": [
                67,
                0,
                0
            ],
            "HI": [
                62,
                0,
                0
            ],
            "JK": [
                63,
                0,
                0
            ],
            "LA": [
                64,
                0,
                0
            ],
            "KL": [
                63,
                0,
                0
            ],
            "IJ": [
                62,
                0,
                0
            ],
            "AB": [
                64,
                0,
                0
            ],
            "CD": [
                65,
                0,
                0
            ],
            "EF": [
                66,
                0,
                0
            ],
            "FG": [
                66,
                0,
                0
            ]
        }
    ],
    "Holding_per_stop": [
        {
            "A": 0,
            "K": 0,
            "C": 0,
            "L": 0,
            "H": 0,
            "B": 0,
            "I": 0,
            "D": 0,
            "E": 0,
            "J": 0,
            "F": 0,
            "G": 0
        },
        {
            "G": 0,
            "L": 0,
            "C": 0,
            "E": 0,
            "I": 0,
            "D": 0,
            "H": 0,
            "A": 0,
            "F": 0,
            "J": 0,
            "B": 0,
            "K": 0
        },
        {
            "F": 0,
            "L": 0,
            "H": 0,
            "I": 0,
            "E": 0,
            "J": 0,
            "G": 0,
            "K": 0,
            "A": 0,
            "B": 0,
            "C": 0,
            "D": 0
        },
        {
            "J": 0,
            "I": 0,
            "L": 0,
            "B": 0,
            "F": 0,
            "G": 0,
            "K": 0,
            "A": 0,
            "C": 0,
            "H": 0,
            "D": 0,
            "E": 0
        },
        {
            "J": 0,
            "K": 0,
            "L": 0,
            "A": 0,
            "I": 0,
            "D": 0,
            "E": 0,
            "B": 0,
            "F": 0,
            "G": 0,
            "C": 0,
            "H": 0
        },
        {
            "B": 0,
            "H": 0,
            "F": 0,
            "I": 0,
            "J": 0,
            "E": 0,
            "C": 0,
            "K": 0,
            "D": 0,
            "G": 0,
            "L": 0,
            "A": 0
        },
        {
            "H": 0,
            "I": 0,
            "J": 0,
            "E": 0,
            "K": 0,
            "L": 0,
            "F": 0,
            "A": 0,
            "G": 0,
            "B": 0,
            "C": 0,
            "D": 0
        },
        {
            "C": 0,
            "L": 0,
            "I": 0,
            "B": 0,
            "K": 0,
            "F": 0,
            "J": 0,
            "D": 0,
            "A": 0,
            "G": 0,
            "E": 0,
            "H": 0
        },
        {
            "A": 0,
            "I": 0,
            "H": 0,
            "D": 0,
            "C": 0,
            "E": 0,
            "J": 0,
            "B": 0,
            "F": 0,
            "K": 0,
            "G": 0,
            "L": 0
        },
        {
            "K": 0,
            "I": 0,
            "H": 0,
            "A": 0,
            "C": 0,
            "E": 0,
            "D": 0,
            "L": 0,
            "B": 0,
            "J": 0,
            "F": 0,
            "G": 0
        }
    ],
    "Load_per_bus_per_stop": [
        {
            "bus5": {
                "A": 5.1,
                "B": 4.8,
                "C": 5.2,
                "D": 6,
                "E": 5.7,
                "F": 5.5,
                "G": 6.111111111111111,
                "H": 6.111111111111111,
                "I": 6.333333333333333,
                "J": 5.888888888888889,
                "K": 5.666666666666667,
                "L": 5.444444444444445
            },
            "bus3": {
                "K": 12.8,
                "L": 12.4,
                "A": 13.5,
                "B": 13.2,
                "C": 12.1,
                "D": 12.4,
                "E": 12.6,
                "F": 11.5,
                "G": 13.222222222222221,
                "H": 15,
                "I": 13.88888888888889,
                "J": 13.88888888888889
            },
            "bus1": {
                "C": 615,
                "D": 614,
                "E": 621.7,
                "F": 633.6,
                "G": 644.3,
                "H": 620.2222222222222,
                "I": 629.8888888888889,
                "J": 639.7777777777778,
                "K": 648.3333333333334,
                "L": 656.3333333333334,
                "A": 665.1111111111111,
                "B": 669.2222222222222
            },
            "bus2": {
                "H": 32.8,
                "I": 34.5,
                "J": 33.4,
                "K": 34.2,
                "L": 34.8,
                "A": 35.2,
                "B": 35.1,
                "C": 35.3,
                "D": 34,
                "E": 32.7,
                "F": 31.8,
                "G": 35.111111111111114
            },
            "bus4": {
                "L": 5.3,
                "A": 5.7,
                "B": 5.8,
                "C": 5.8,
                "D": 5.7,
                "E": 5.6,
                "F": 5.9,
                "G": 5.888888888888889,
                "H": 6,
                "I": 6,
                "J": 6.111111111111111,
                "K": 5.888888888888889
            },
            "bus0": {
                "B": 33,
                "C": 34.3,
                "D": 33.9,
                "E": 32.7,
                "F": 34,
                "G": 33.333333333333336,
                "H": 34,
                "I": 36.111111111111114,
                "J": 35.77777777777778,
                "K": 34.77777777777778,
                "L": 34.111111111111114,
                "A": 34.666666666666664
            }
        },
        {
            "bus3": {
                "G": 9.666666666666666,
                "H": 10.666666666666666,
                "I": 10.916666666666666,
                "J": 11.166666666666666,
                "K": 11.833333333333334,
                "L": 11.583333333333334,
                "A": 11.583333333333334,
                "B": 11.916666666666666,
                "C": 12.166666666666666,
                "D": 12.25,
                "E": 11.333333333333334,
                "F": 10.416666666666666
            },
            "bus0": {
                "C": 4.230769230769231,
                "D": 4.3076923076923075,
                "E": 4.769230769230769,
                "F": 5.333333333333333,
                "G": 5.416666666666667,
                "H": 5,
                "I": 4.75,
                "J": 4.333333333333333,
                "K": 4.25,
                "L": 4.166666666666667,
                "A": 4.833333333333333,
                "B": 4.666666666666667
            },
            "bus5": {
                "L": 368.9166666666667,
                "A": 376.5833333333333,
                "B": 385.8333333333333,
                "C": 389.4166666666667,
                "D": 394.6666666666667,
                "E": 400.5,
                "F": 404.6666666666667,
                "G": 364.45454545454544,
                "H": 374.90909090909093,
                "I": 379.90909090909093,
                "J": 388.27272727272725,
                "K": 394.54545454545456
            },
            "bus2": {
                "E": 79.15384615384616,
                "F": 84.33333333333333,
                "G": 83.58333333333333,
                "H": 84.83333333333333,
                "I": 87.25,
                "J": 87.33333333333333,
                "K": 87.75,
                "L": 84.33333333333333,
                "A": 83.5,
                "B": 83.66666666666667,
                "C": 84.91666666666667,
                "D": 85.25
            },
            "bus4": {
                "I": 77.83333333333333,
                "J": 77.5,
                "K": 75.08333333333333,
                "L": 76.83333333333333,
                "A": 77.25,
                "B": 77.5,
                "C": 78.08333333333333,
                "D": 79.41666666666667,
                "E": 80.08333333333333,
                "F": 80.91666666666667,
                "G": 84.45454545454545,
                "H": 83.27272727272727
            },
            "bus1": {
                "D": 9.384615384615385,
                "E": 9.692307692307692,
                "F": 10.833333333333334,
                "G": 11.166666666666666,
                "H": 11.083333333333334,
                "I": 11.416666666666666,
                "J": 12.25,
                "K": 13.166666666666666,
                "L": 13.416666666666666,
                "A": 12.583333333333334,
                "B": 12,
                "C": 11.5
            }
        },
        {
            "bus1": {
                "F": 25.818181818181817,
                "G": 28.3,
                "H": 27.8,
                "I": 28.6,
                "J": 30.1,
                "K": 29.9,
                "L": 30.9,
                "A": 31.5,
                "B": 29.4,
                "C": 27.9,
                "D": 29.2,
                "E": 28.2
            },
            "bus5": {
                "L": 576.8,
                "A": 591.6,
                "B": 602.3,
                "C": 602.3,
                "D": 606.7,
                "E": 612.5,
                "F": 615,
                "G": 625.4,
                "H": 605.7777777777778,
                "I": 611.5555555555555,
                "J": 622,
                "K": 632.1111111111111
            },
            "bus2": {
                "H": 5.2,
                "I": 5.4,
                "J": 5.3,
                "K": 4.9,
                "L": 5.4,
                "A": 5.9,
                "B": 6.1,
                "C": 6,
                "D": 5.6,
                "E": 5.3,
                "F": 5,
                "G": 5.333333333333333
            },
            "bus0": {
                "E": 8.272727272727273,
                "F": 9.545454545454545,
                "G": 10,
                "H": 10,
                "I": 9.6,
                "J": 9.1,
                "K": 9.2,
                "L": 9.2,
                "A": 9.3,
                "B": 10.1,
                "C": 9.6,
                "D": 9.2
            },
            "bus3": {
                "I": 5.6,
                "J": 6.7,
                "K": 6.8,
                "L": 7,
                "A": 7.1,
                "B": 7.1,
                "C": 7,
                "D": 6.5,
                "E": 6.9,
                "F": 6,
                "G": 6,
                "H": 5.777777777777778
            },
            "bus4": {
                "J": 28.9,
                "K": 30.9,
                "L": 32.1,
                "A": 32,
                "B": 32.7,
                "C": 32.8,
                "D": 34.5,
                "E": 35,
                "F": 35.4,
                "G": 33.77777777777778,
                "H": 32.888888888888886,
                "I": 33.111111111111114
            }
        },
        {
            "bus4": {
                "J": 11.5,
                "K": 12,
                "L": 13.5,
                "A": 13.3,
                "B": 13.2,
                "C": 13.6,
                "D": 13,
                "E": 11.9,
                "F": 12.1,
                "G": 11.6,
                "H": 13.222222222222221,
                "I": 12.666666666666666
            },
            "bus5": {
                "L": 36.6,
                "A": 35.7,
                "B": 36.9,
                "C": 38,
                "D": 38.9,
                "E": 40.9,
                "F": 40.4,
                "G": 41.2,
                "H": 40.77777777777778,
                "I": 39.333333333333336,
                "J": 38.44444444444444,
                "K": 39.44444444444444
            },
            "bus3": {
                "I": 6.6,
                "J": 6.5,
                "K": 6.4,
                "L": 6.7,
                "A": 7,
                "B": 6.9,
                "C": 7,
                "D": 8.2,
                "E": 7.6,
                "F": 7.5,
                "G": 6.9,
                "H": 7.555555555555555
            },
            "bus0": {
                "B": 589.9,
                "C": 595.5,
                "D": 609.5,
                "E": 619.3,
                "F": 624.2,
                "G": 626.4,
                "H": 636.2,
                "I": 600.3333333333334,
                "J": 611.6666666666666,
                "K": 620.6666666666666,
                "L": 627.7777777777778,
                "A": 642
            },
            "bus1": {
                "F": 5.545454545454546,
                "G": 5.818181818181818,
                "H": 6.7,
                "I": 6.6,
                "J": 6.6,
                "K": 6.6,
                "L": 6.3,
                "A": 5.9,
                "B": 5.9,
                "C": 6.4,
                "D": 5.5,
                "E": 5.2
            },
            "bus2": {
                "G": 37.45454545454545,
                "H": 40.2,
                "I": 39.7,
                "J": 37.6,
                "K": 38.7,
                "L": 39.3,
                "A": 40,
                "B": 41.8,
                "C": 40.9,
                "D": 39.9,
                "E": 39.1,
                "F": 39.3
            }
        },
        {
            "bus2": {
                "J": 5.3,
                "K": 5.6,
                "L": 6,
                "A": 6.5,
                "B": 7.2,
                "C": 7.5,
                "D": 7.6,
                "E": 7.5,
                "F": 7,
                "G": 6.7,
                "H": 6.444444444444445,
                "I": 5.444444444444445
            },
            "bus4": {
                "L": 5.4,
                "A": 5.8,
                "B": 5.4,
                "C": 4.8,
                "D": 4.9,
                "E": 4.4,
                "F": 5.2,
                "G": 6.1,
                "H": 5.666666666666667,
                "I": 5.555555555555555,
                "J": 4.777777777777778,
                "K": 5.222222222222222
            },
            "bus3": {
                "K": 2.2,
                "L": 2.3,
                "A": 2,
                "B": 2.5,
                "C": 3.1,
                "D": 3,
                "E": 3.3,
                "F": 3,
                "G": 2.9,
                "H": 2.4444444444444446,
                "I": 2.6666666666666665,
                "J": 2.3333333333333335
            },
            "bus5": {
                "A": 56.6,
                "B": 55.6,
                "C": 54.9,
                "D": 54,
                "E": 57.2,
                "F": 58.5,
                "G": 61.7,
                "H": 63.55555555555556,
                "I": 62.111111111111114,
                "J": 62.77777777777778,
                "K": 62.666666666666664,
                "L": 62.22222222222222
            },
            "bus1": {
                "I": 19,
                "J": 18,
                "K": 18.4,
                "L": 17.5,
                "A": 18.5,
                "B": 18.1,
                "C": 18.4,
                "D": 18.4,
                "E": 18,
                "F": 17.6,
                "G": 17.5,
                "H": 20.77777777777778
            },
            "bus0": {
                "D": 608,
                "E": 619.3,
                "F": 629.8,
                "G": 635.7,
                "H": 644.1,
                "I": 616.8888888888889,
                "J": 620.1111111111111,
                "K": 634.3333333333334,
                "L": 647.2222222222222,
                "A": 654.2222222222222,
                "B": 665.2222222222222,
                "C": 673
            }
        },
        {
            "bus0": {
                "B": 92.33333333333333,
                "C": 92.33333333333333,
                "D": 88.08333333333333,
                "E": 88.5,
                "F": 97.27272727272727,
                "G": 98.0909090909091,
                "H": 98.18181818181819,
                "I": 97.63636363636364,
                "J": 98,
                "K": 95.54545454545455,
                "L": 96.9090909090909,
                "A": 99.54545454545455
            },
            "bus3": {
                "H": 8.818181818181818,
                "I": 8.818181818181818,
                "J": 8.636363636363637,
                "K": 8.727272727272727,
                "L": 8.181818181818182,
                "A": 8.454545454545455,
                "B": 9,
                "C": 8.363636363636363,
                "D": 8.636363636363637,
                "E": 8.545454545454545,
                "F": 9.5,
                "G": 9.5
            },
            "bus2": {
                "F": 33.09090909090909,
                "G": 34.09090909090909,
                "H": 34,
                "I": 33.81818181818182,
                "J": 35,
                "K": 35.36363636363637,
                "L": 36,
                "A": 34.90909090909091,
                "B": 34,
                "C": 33.81818181818182,
                "D": 31.818181818181817,
                "E": 31.818181818181817
            },
            "bus1": {
                "E": 5.083333333333333,
                "F": 6.7272727272727275,
                "G": 7,
                "H": 6.909090909090909,
                "I": 7.181818181818182,
                "J": 7.454545454545454,
                "K": 6.636363636363637,
                "L": 6.363636363636363,
                "A": 6.181818181818182,
                "B": 5.636363636363637,
                "C": 5,
                "D": 5
            },
            "bus5": {
                "J": 447.8181818181818,
                "K": 454.90909090909093,
                "L": 467.3636363636364,
                "A": 475.6363636363636,
                "B": 481.54545454545456,
                "C": 489.27272727272725,
                "D": 494.27272727272725,
                "E": 502.1818181818182,
                "F": 463.2,
                "G": 473.6,
                "H": 479.9,
                "I": 492.4
            },
            "bus4": {
                "I": 23.181818181818183,
                "J": 24.09090909090909,
                "K": 25.363636363636363,
                "L": 25.818181818181817,
                "A": 25.454545454545453,
                "B": 25.636363636363637,
                "C": 25.181818181818183,
                "D": 26.363636363636363,
                "E": 26.272727272727273,
                "F": 25.5,
                "G": 25.6,
                "H": 25
            }
        },
        {
            "bus1": {
                "H": 11.8,
                "I": 11.6,
                "J": 12.3,
                "K": 12.3,
                "L": 11.3,
                "A": 11.6,
                "B": 13.777777777777779,
                "C": 13.666666666666666,
                "D": 13.555555555555555,
                "E": 13.444444444444445,
                "F": 12.444444444444445,
                "G": 12.222222222222221
            },
            "bus2": {
                "I": 3.5,
                "J": 3.7,
                "K": 4.2,
                "L": 3.9,
                "A": 4.4,
                "B": 5.111111111111111,
                "C": 4.888888888888889,
                "D": 5,
                "E": 4.888888888888889,
                "F": 4.222222222222222,
                "G": 3.7777777777777777,
                "H": 3.2222222222222223
            },
            "bus3": {
                "J": 2.2,
                "K": 2.3,
                "L": 2.5,
                "A": 2.6,
                "B": 3.2222222222222223,
                "C": 3.6666666666666665,
                "D": 3.2222222222222223,
                "E": 3.111111111111111,
                "F": 3.5555555555555554,
                "G": 3.6666666666666665,
                "H": 3.2222222222222223,
                "I": 2.7777777777777777
            },
            "bus0": {
                "E": 24.1,
                "F": 25.9,
                "G": 25.7,
                "H": 26.2,
                "I": 25,
                "J": 24.3,
                "K": 24.5,
                "L": 25.9,
                "A": 24.8,
                "B": 27.666666666666668,
                "C": 27.555555555555557,
                "D": 27.22222222222222
            },
            "bus4": {
                "K": 35.7,
                "L": 36.4,
                "A": 37.3,
                "B": 37.666666666666664,
                "C": 38.111111111111114,
                "D": 36.888888888888886,
                "E": 36.44444444444444,
                "F": 36.333333333333336,
                "G": 38.22222222222222,
                "H": 37.44444444444444,
                "I": 37.333333333333336,
                "J": 38.666666666666664
            },
            "bus5": {
                "L": 644.5,
                "A": 650.6,
                "B": 653.8,
                "C": 635.2222222222222,
                "D": 643.2222222222222,
                "E": 647.2222222222222,
                "F": 660.3333333333334,
                "G": 672,
                "H": 687,
                "I": 694.7777777777778,
                "J": 702.5555555555555,
                "K": 714
            }
        },
        {
            "bus3": {
                "I": 60,
                "J": 67,
                "K": 67,
                "L": 67.45454545454545,
                "A": 68.72727272727273,
                "B": 65.54545454545455,
                "C": 65.63636363636364,
                "D": 66.9090909090909,
                "E": 66.45454545454545,
                "F": 66.63636363636364,
                "G": 66.18181818181819,
                "H": 65.18181818181819
            },
            "bus1": {
                "C": 22.083333333333332,
                "D": 21.583333333333332,
                "E": 22.666666666666668,
                "F": 22.416666666666668,
                "G": 23.916666666666668,
                "H": 23.75,
                "I": 23.5,
                "J": 24.363636363636363,
                "K": 24.636363636363637,
                "L": 25.454545454545453,
                "A": 25.727272727272727,
                "B": 25
            },
            "bus5": {
                "L": 431.27272727272725,
                "A": 440.1818181818182,
                "B": 446.6363636363636,
                "C": 455.09090909090907,
                "D": 461.8181818181818,
                "E": 466.72727272727275,
                "F": 471.72727272727275,
                "G": 476.72727272727275,
                "H": 490.09090909090907,
                "I": 492.3636363636364,
                "J": 499.3636363636364,
                "K": 467
            },
            "bus0": {
                "B": 5.333333333333333,
                "C": 6.166666666666667,
                "D": 6.833333333333333,
                "E": 6,
                "F": 6.166666666666667,
                "G": 6.166666666666667,
                "H": 5.833333333333333,
                "I": 5.5,
                "J": 5.181818181818182,
                "K": 4.909090909090909,
                "L": 4.636363636363637,
                "A": 4.909090909090909
            },
            "bus4": {
                "K": 24.818181818181817,
                "L": 25,
                "A": 26.363636363636363,
                "B": 26.09090909090909,
                "C": 25.181818181818183,
                "D": 28,
                "E": 27.454545454545453,
                "F": 26.272727272727273,
                "G": 25.90909090909091,
                "H": 25.818181818181817,
                "I": 26.363636363636363,
                "J": 25.7
            },
            "bus2": {
                "F": 29.666666666666668,
                "G": 30.833333333333332,
                "H": 31.833333333333332,
                "I": 33.083333333333336,
                "J": 35.09090909090909,
                "K": 36,
                "L": 36.09090909090909,
                "A": 35.72727272727273,
                "B": 34,
                "C": 33.36363636363637,
                "D": 33.63636363636363,
                "E": 31.545454545454547
            }
        },
        {
            "bus5": {
                "A": 68.41666666666667,
                "B": 69,
                "C": 74.63636363636364,
                "D": 76.54545454545455,
                "E": 76.54545454545455,
                "F": 79.9090909090909,
                "G": 80.18181818181819,
                "H": 79,
                "I": 77.72727272727273,
                "J": 78.27272727272727,
                "K": 76.81818181818181,
                "L": 74.45454545454545
            },
            "bus4": {
                "I": 480.54545454545456,
                "J": 486.1818181818182,
                "K": 495.72727272727275,
                "L": 500.45454545454544,
                "A": 510.3636363636364,
                "B": 517.8181818181819,
                "C": 524.1818181818181,
                "D": 498.1,
                "E": 509.4,
                "F": 513.2,
                "G": 517.6,
                "H": 523.1
            },
            "bus3": {
                "H": 28.272727272727273,
                "I": 27.09090909090909,
                "J": 28.272727272727273,
                "K": 29.727272727272727,
                "L": 30.636363636363637,
                "A": 32.90909090909091,
                "B": 33.18181818181818,
                "C": 29.6,
                "D": 29.6,
                "E": 30.8,
                "F": 31.3,
                "G": 31.8
            },
            "bus1": {
                "D": 6.909090909090909,
                "E": 7,
                "F": 6.636363636363637,
                "G": 7.2727272727272725,
                "H": 7.909090909090909,
                "I": 7.7272727272727275,
                "J": 7.909090909090909,
                "K": 7.363636363636363,
                "L": 7.454545454545454,
                "A": 6.454545454545454,
                "B": 6.636363636363637,
                "C": 7
            },
            "bus0": {
                "C": 4.545454545454546,
                "D": 4.7272727272727275,
                "E": 4.7272727272727275,
                "F": 4.636363636363637,
                "G": 5,
                "H": 4.7272727272727275,
                "I": 4.545454545454546,
                "J": 4.181818181818182,
                "K": 4.181818181818182,
                "L": 4.363636363636363,
                "A": 4.2727272727272725,
                "B": 4.636363636363637
            },
            "bus2": {
                "E": 28.363636363636363,
                "F": 27.636363636363637,
                "G": 28.727272727272727,
                "H": 28.90909090909091,
                "I": 28.818181818181817,
                "J": 28.272727272727273,
                "K": 27.818181818181817,
                "L": 28,
                "A": 28.636363636363637,
                "B": 28.727272727272727,
                "C": 31.7,
                "D": 30.4
            }
        },
        {
            "bus4": {
                "K": 7.909090909090909,
                "L": 7.545454545454546,
                "A": 7.7272727272727275,
                "B": 8.181818181818182,
                "C": 9.363636363636363,
                "D": 9.272727272727273,
                "E": 9.545454545454545,
                "F": 9.181818181818182,
                "G": 8.727272727272727,
                "H": 9.6,
                "I": 9.3,
                "J": 8.6
            },
            "bus3": {
                "I": 36.09090909090909,
                "J": 36.54545454545455,
                "K": 36.72727272727273,
                "L": 36.81818181818182,
                "A": 36.90909090909091,
                "B": 36.63636363636363,
                "C": 38.09090909090909,
                "D": 37.72727272727273,
                "E": 37.90909090909091,
                "F": 37.90909090909091,
                "G": 37.36363636363637,
                "H": 38.9
            },
            "bus2": {
                "H": 3.909090909090909,
                "I": 4.818181818181818,
                "J": 4.818181818181818,
                "K": 5.454545454545454,
                "L": 5.2727272727272725,
                "A": 5.363636363636363,
                "B": 5.181818181818182,
                "C": 5.363636363636363,
                "D": 5.090909090909091,
                "E": 5.2727272727272725,
                "F": 4.909090909090909,
                "G": 4.545454545454546
            },
            "bus5": {
                "A": 27.363636363636363,
                "B": 29.272727272727273,
                "C": 29.545454545454547,
                "D": 29.454545454545453,
                "E": 27.90909090909091,
                "F": 28.09090909090909,
                "G": 28.09090909090909,
                "H": 30.5,
                "I": 30.1,
                "J": 30.2,
                "K": 31.5,
                "L": 30.7
            },
            "bus0": {
                "C": 34.18181818181818,
                "D": 35,
                "E": 34.72727272727273,
                "F": 35.09090909090909,
                "G": 34.18181818181818,
                "H": 35.3,
                "I": 37.4,
                "J": 37,
                "K": 34.7,
                "L": 34.5,
                "A": 36,
                "B": 36.3
            },
            "bus1": {
                "E": 521,
                "F": 524.4545454545455,
                "G": 531.2727272727273,
                "H": 543.4545454545455,
                "I": 526.8,
                "J": 532,
                "K": 537.3,
                "L": 543,
                "A": 547.9,
                "B": 551,
                "C": 560.3,
                "D": 562.7
            }
        }
    ],
    "Obs_and_actions_busses": [
        {
            "0": 174.50878400745998
        },
        {
            "0": 786.0474521582717
        },
        {
            "0": 924.1108972237696
        },
        {
            "0": 251.45481427120166
        },
        {
            "0": 211.35244438341644
        },
        {
            "0": 839.6531185593084
        },
        {
            "0": 959.4907811285747
        },
        {
            "0": 827.4318567171395
        },
        {
            "0": 333.6424899400121
        },
        {
            "0": 264.3105717530752
        }
    ],
    "Obs_and_actions_tfls": [
        {
            "0": 20.499809213987042
        },
        {
            "0": 91.29798269204464
        },
        {
            "0": 71.12135088751617
        },
        {
            "0": -602.0130513700345
        },
        {
            "0": -629.5824147832225
        },
        {
            "0": 84.2185121269486
        },
        {
            "0": 70.98693075511642
        },
        {
            "0": 87.34185777635938
        },
        {
            "0": -514.2776503897021
        },
        {
            "0": 56.04491813798876
        }
    ]
}