{
    "Average_holding_time": 0,
    "Average_travel_time_passengers": 8103.949191491761,
    "Average_speed_busses": 0.023291666666666665,
    "Average_experienced_crowding": 989.2477731437166,
    "Average_covariation_headway": 2.242881294360654,
    "Average_covariation_headway_stops": {
        "H": 2.132311042363047,
        "G": 1.8695521902337737,
        "L": 2.354679864720372,
        "F": 2.0303234581637506,
        "I": 2.3373367162838274,
        "A": 2.3656624895158997,
        "C": 2.332641687070815,
        "J": 2.3408038625711787,
        "B": 2.33914050352837,
        "D": 2.2933200607573245,
        "K": 2.3346095868987717,
        "E": 2.2816032776969957
    },
    "Average_excess_waiting_time": {
        "H": 3257.1090605181053,
        "G": 2544.4719227798587,
        "L": 3334.1500571407505,
        "F": 2702.2175830078577,
        "I": 3222.2906849542005,
        "A": 3337.8147104060654,
        "C": 3286.5873866986394,
        "J": 3280.245864623761,
        "B": 3324.1819372390364,
        "D": 3240.0704662883963,
        "K": 3314.0397796829902,
        "E": 3266.975220390823
    },
    "Holding_per_stop": {
        "H": 0,
        "L": 0,
        "G": 0,
        "I": 0,
        "F": 0,
        "A": 0,
        "C": 0,
        "J": 0,
        "B": 0,
        "D": 0,
        "K": 0,
        "E": 0
    },
    "Actions_tfl_edges": {
        "FG": [
            50,
            0,
            0
        ],
        "GH": [
            47,
            0,
            0
        ],
        "HI": [
            45,
            0,
            0
        ],
        "CD": [
            48,
            0,
            0
        ],
        "JK": [
            45,
            0,
            0
        ]
    },
    "Load_per_bus_per_stop": {
        "bus3": {
            "H": 80.875,
            "I": 79.125,
            "J": 72.25,
            "K": 68.875,
            "L": 65.625,
            "A": 59.875,
            "B": 52.625,
            "C": 50,
            "D": 49,
            "E": 48.25,
            "F": 62.25,
            "G": 89.28571428571429
        },
        "bus2": {
            "G": 18.875,
            "H": 20.125,
            "I": 18.75,
            "J": 17.625,
            "K": 16.75,
            "L": 14.625,
            "A": 12.875,
            "B": 11.625,
            "C": 11.125,
            "D": 9.75,
            "E": 9.25,
            "F": 12.375
        },
        "bus4": {
            "L": 17,
            "A": 14.375,
            "B": 11.75,
            "C": 11,
            "D": 9.5,
            "E": 8.375,
            "F": 14.5,
            "G": 30,
            "H": 28.142857142857142,
            "I": 26.714285714285715,
            "J": 24.428571428571427,
            "K": 23
        },
        "bus1": {
            "F": 10,
            "G": 12.875,
            "H": 14,
            "I": 13.125,
            "J": 11.25,
            "K": 10.125,
            "L": 9.625,
            "A": 8.875,
            "B": 8.125,
            "C": 8.25,
            "D": 7.5,
            "E": 7.75
        },
        "bus5": {
            "A": 78.125,
            "B": 66.375,
            "C": 57.125,
            "D": 53.25,
            "E": 51.875,
            "F": 95.125,
            "G": 163.125,
            "H": 153.42857142857142,
            "I": 141.28571428571428,
            "J": 127.57142857142857,
            "K": 115.71428571428571,
            "L": 102.85714285714286
        },
        "bus0": {
            "C": 633,
            "D": 631,
            "E": 640.125,
            "F": 844.875,
            "G": 1120.25,
            "H": 1225.75,
            "I": 1052.2857142857142,
            "J": 1013.2857142857143,
            "K": 950.5714285714286,
            "L": 878.7142857142857,
            "A": 812.8571428571429,
            "B": 746.4285714285714
        }
    }
}