{
    "Average_holding_time": 22.446236559139784,
    "Average_holding_actions": [
        594,
        251,
        257,
        0,
        14,
        0
    ],
    "Average_travel_time_passengers": 2104.9143340008513,
    "Average_passenger_waiting_time": 343.13467340732115,
    "Average_passenger_in_vehicle_time": 1761.779660593501,
    "Average_speed_busses": 0.0465,
    "Average_experienced_crowding": 62.773205712651496,
    "Average_covariation_headway": 0.3869140538034868,
    "Average_covariation_headway_stops": {
        "H": 0.2926432778795422,
        "F": 0.30527064955154704,
        "K": 0.2962662204499203,
        "L": 0.29829316180623505,
        "E": 0.3045862904114396,
        "G": 0.29490567797818595,
        "I": 0.28996687187475784,
        "A": 0.2883705240688702,
        "J": 0.3009713683602167,
        "B": 0.2915931194033715,
        "C": 0.3109612117780638,
        "D": 0.3247417288031667
    },
    "Average_excess_waiting_time": {
        "H": 67.43137784622138,
        "F": 74.03888576751928,
        "K": 70.16909601423384,
        "L": 69.63319125794419,
        "E": 75.71015820943046,
        "G": 69.71570785834126,
        "I": 68.69175422726863,
        "A": 71.4097546352832,
        "J": 73.15633475969702,
        "B": 72.9608962964358,
        "C": 78.91332798156259,
        "D": 83.6269983401462
    },
    "Holding_per_stop": {
        "H": 22.02127659574468,
        "F": 24.838709677419356,
        "L": 22.02127659574468,
        "K": 23.617021276595743,
        "G": 19.677419354838708,
        "E": 20.869565217391305,
        "I": 21.382978723404257,
        "A": 22.903225806451612,
        "J": 24.193548387096776,
        "B": 20.543478260869566,
        "C": 23.152173913043477,
        "D": 24.130434782608695
    },
    "Actions_tfl_edges": {
        "DE": [
            93,
            0,
            0
        ],
        "EF": [
            93,
            0,
            0
        ],
        "FG": [
            94,
            0,
            0
        ],
        "GH": [
            94,
            0,
            0
        ],
        "JK": [
            94,
            0,
            0
        ],
        "KL": [
            95,
            0,
            0
        ],
        "HI": [
            94,
            0,
            0
        ],
        "LA": [
            94,
            0,
            0
        ],
        "IJ": [
            94,
            0,
            0
        ],
        "AB": [
            93,
            0,
            0
        ],
        "BC": [
            92,
            0,
            0
        ],
        "CD": [
            92,
            0,
            0
        ]
    },
    "Load_per_bus_per_stop": {
        "bus3": {
            "H": 63.125,
            "I": 62.75,
            "J": 63.8125,
            "K": 64.5,
            "L": 64.375,
            "A": 66.1875,
            "B": 65.53333333333333,
            "C": 66.46666666666667,
            "D": 66.53333333333333,
            "E": 67.13333333333334,
            "F": 68.4,
            "G": 67.06666666666666
        },
        "bus1": {
            "F": 57.3125,
            "G": 57.375,
            "H": 56.5,
            "I": 58.1875,
            "J": 56.875,
            "K": 57.375,
            "L": 57.46666666666667,
            "A": 58.06666666666667,
            "B": 59.8,
            "C": 60.6,
            "D": 63.53333333333333,
            "E": 62.733333333333334
        },
        "bus4": {
            "K": 55.5625,
            "L": 56.8125,
            "A": 57.8125,
            "B": 58.5625,
            "C": 57.625,
            "D": 57.5625,
            "E": 55.06666666666667,
            "F": 53.333333333333336,
            "G": 54.8,
            "H": 56.6,
            "I": 55.666666666666664,
            "J": 57.86666666666667
        },
        "bus5": {
            "L": 50.75,
            "A": 51.5,
            "B": 54.9375,
            "C": 55.875,
            "D": 55.3125,
            "E": 55.625,
            "F": 55.375,
            "G": 53.46666666666667,
            "H": 53.93333333333333,
            "I": 54,
            "J": 53.8,
            "K": 55
        },
        "bus0": {
            "E": 49.5,
            "F": 48.125,
            "G": 51.3125,
            "H": 52.0625,
            "I": 52.9375,
            "J": 53.266666666666666,
            "K": 53.13333333333333,
            "L": 54.6,
            "A": 54.86666666666667,
            "B": 53.8,
            "C": 51.8,
            "D": 52.4
        },
        "bus2": {
            "G": 61.25,
            "H": 60.3125,
            "I": 63.3125,
            "J": 62.1875,
            "K": 60.125,
            "L": 60.5,
            "A": 60.53333333333333,
            "B": 64.73333333333333,
            "C": 64.2,
            "D": 63.06666666666667,
            "E": 63.733333333333334,
            "F": 63.8
        }
    },
    "Obs_and_actions_busses": {
        "0": -185.5993383979175,
        "1": 94.79111843521126,
        "2": 248.20670648828437,
        "5": 546.4618308756243
    },
    "Obs_and_actions_tfls": {
        "0": 133.92968651301118
    }
}