{
    "Average_holding_time": 21.394101876675602,
    "Average_holding_actions": [
        631,
        202,
        278,
        0,
        8,
        0
    ],
    "Average_travel_time_passengers": 2089.771432891284,
    "Average_passenger_waiting_time": 336.539007890489,
    "Average_passenger_in_vehicle_time": 1753.232425000806,
    "Average_speed_busses": 0.046625,
    "Average_experienced_crowding": 60.7895441572206,
    "Average_covariation_headway": 0.35462331312673406,
    "Average_covariation_headway_stops": {
        "G": 0.25683320951902633,
        "J": 0.27372936786671354,
        "E": 0.2592682614647953,
        "A": 0.27676514919361456,
        "H": 0.26708711679438624,
        "L": 0.2754035046642347,
        "B": 0.24760279361494944,
        "I": 0.24561462839526896,
        "K": 0.26877795754967243,
        "F": 0.2490750928038267,
        "C": 0.25085138173254345,
        "D": 0.24843113508099224
    },
    "Average_excess_waiting_time": {
        "G": 66.38840470494529,
        "J": 66.31033816951657,
        "E": 65.91965898297809,
        "A": 63.64714056289233,
        "H": 64.65272612685095,
        "L": 65.79582349404751,
        "B": 61.38459128561652,
        "I": 63.44469547625681,
        "K": 66.5842036909878,
        "F": 66.06943129926879,
        "C": 63.775950166757525,
        "D": 65.20973898267891
    },
    "Holding_per_stop": {
        "A": 24.574468085106382,
        "H": 22.903225806451612,
        "J": 21.93548387096774,
        "G": 19.35483870967742,
        "L": 21.70212765957447,
        "E": 19.677419354838708,
        "B": 23.29787234042553,
        "I": 19.35483870967742,
        "K": 20.322580645161292,
        "F": 20.64516129032258,
        "C": 21.612903225806452,
        "D": 21.29032258064516
    },
    "Actions_tfl_edges": {
        "DE": [
            94,
            0,
            0
        ],
        "FG": [
            93,
            0,
            0
        ],
        "GH": [
            94,
            0,
            0
        ],
        "IJ": [
            94,
            0,
            0
        ],
        "KL": [
            94,
            0,
            0
        ],
        "LA": [
            95,
            0,
            0
        ],
        "AB": [
            94,
            0,
            0
        ],
        "HI": [
            93,
            0,
            0
        ],
        "JK": [
            93,
            0,
            0
        ],
        "EF": [
            93,
            0,
            0
        ],
        "BC": [
            94,
            0,
            0
        ],
        "CD": [
            93,
            0,
            0
        ]
    },
    "Load_per_bus_per_stop": {
        "bus1": {
            "G": 51.6875,
            "H": 52.125,
            "I": 52.1875,
            "J": 53.8125,
            "K": 54.1875,
            "L": 55.125,
            "A": 57.125,
            "B": 57.2,
            "C": 56.333333333333336,
            "D": 56.6,
            "E": 55.93333333333333,
            "F": 56.666666666666664
        },
        "bus3": {
            "J": 58.625,
            "K": 59,
            "L": 60.25,
            "A": 60.8125,
            "B": 63.375,
            "C": 65.25,
            "D": 65.5625,
            "E": 66.13333333333334,
            "F": 67.13333333333334,
            "G": 65.26666666666667,
            "H": 62.53333333333333,
            "I": 61.86666666666667
        },
        "bus0": {
            "E": 54.375,
            "F": 56.3125,
            "G": 56.4375,
            "H": 57.0625,
            "I": 58.375,
            "J": 58.5625,
            "K": 57.93333333333333,
            "L": 57.666666666666664,
            "A": 58.333333333333336,
            "B": 59.46666666666667,
            "C": 58.6,
            "D": 57.6
        },
        "bus5": {
            "A": 59.0625,
            "B": 59.8125,
            "C": 60.75,
            "D": 60.5625,
            "E": 60.3125,
            "F": 61.1875,
            "G": 60.625,
            "H": 60.53333333333333,
            "I": 60.13333333333333,
            "J": 59.46666666666667,
            "K": 61.8,
            "L": 62.666666666666664
        },
        "bus2": {
            "H": 48.875,
            "I": 49.9375,
            "J": 50.375,
            "K": 50.5625,
            "L": 51,
            "A": 49.8125,
            "B": 48.4375,
            "C": 48.733333333333334,
            "D": 48.46666666666667,
            "E": 49.93333333333333,
            "F": 50,
            "G": 50.333333333333336
        },
        "bus4": {
            "L": 59.8125,
            "A": 58.0625,
            "B": 59.0625,
            "C": 61.375,
            "D": 62.4375,
            "E": 61.625,
            "F": 61.9375,
            "G": 61.13333333333333,
            "H": 60.6,
            "I": 63.46666666666667,
            "J": 65.13333333333334,
            "K": 63.6
        }
    },
    "Obs_and_actions_busses": {
        "2": 242.0887776542204,
        "5": 494.86889455618876,
        "0": -165.913268380601,
        "1": 91.06154729585722
    },
    "Obs_and_actions_tfls": {
        "0": 142.29422585623539
    }
}