{
    "Average_holding_time": 18.485915492957748,
    "Average_holding_actions": [
        656,
        269,
        208,
        0,
        3,
        0
    ],
    "Average_travel_time_passengers": 2045.2413692245943,
    "Average_passenger_waiting_time": 326.05397254965,
    "Average_passenger_in_vehicle_time": 1719.187396674963,
    "Average_speed_busses": 0.04733333333333333,
    "Average_experienced_crowding": 59.700301986597154,
    "Average_covariation_headway": 0.31080771766065374,
    "Average_covariation_headway_stops": {
        "B": 0.24057595280583982,
        "D": 0.2286569676184322,
        "K": 0.25019544056271176,
        "F": 0.21776277725329177,
        "L": 0.2517257492152333,
        "J": 0.23599229944599087,
        "C": 0.2179270847842397,
        "E": 0.20392471268944232,
        "G": 0.20816746788273036,
        "A": 0.24473378065610465,
        "H": 0.207579114324576,
        "I": 0.23591717520237723
    },
    "Average_excess_waiting_time": {
        "B": 54.943142646802926,
        "D": 53.448223434947124,
        "K": 59.18005764018483,
        "F": 51.357509037117325,
        "L": 57.30095198911681,
        "J": 58.92066600851973,
        "C": 53.736987840729626,
        "E": 52.144300369062876,
        "G": 51.72793417183027,
        "A": 58.008918361270275,
        "H": 53.195432094036164,
        "I": 59.64095786068043
    },
    "Holding_per_stop": {
        "B": 20.210526315789473,
        "D": 18.94736842105263,
        "F": 18.63157894736842,
        "L": 20.210526315789473,
        "K": 18.19148936170213,
        "J": 18.19148936170213,
        "C": 18.94736842105263,
        "G": 18,
        "E": 19.263157894736842,
        "A": 17.05263157894737,
        "H": 16.27659574468085,
        "I": 17.872340425531913
    },
    "Actions_tfl_edges": {
        "AB": [
            95,
            0,
            0
        ],
        "CD": [
            96,
            0,
            0
        ],
        "EF": [
            96,
            0,
            0
        ],
        "IJ": [
            95,
            0,
            0
        ],
        "JK": [
            95,
            0,
            0
        ],
        "KL": [
            95,
            0,
            0
        ],
        "BC": [
            95,
            0,
            0
        ],
        "DE": [
            95,
            0,
            0
        ],
        "FG": [
            95,
            0,
            0
        ],
        "LA": [
            95,
            0,
            0
        ],
        "GH": [
            95,
            0,
            0
        ],
        "HI": [
            94,
            0,
            0
        ]
    },
    "Load_per_bus_per_stop": {
        "bus0": {
            "B": 55.875,
            "C": 56.0625,
            "D": 57.9375,
            "E": 58.375,
            "F": 55.9375,
            "G": 57.5625,
            "H": 56.5625,
            "I": 56.8125,
            "J": 57.9375,
            "K": 55.875,
            "L": 55.86666666666667,
            "A": 56.93333333333333
        },
        "bus1": {
            "D": 56.75,
            "E": 59.125,
            "F": 59.375,
            "G": 59.5,
            "H": 59.5625,
            "I": 61.1875,
            "J": 62.4375,
            "K": 63.875,
            "L": 64.25,
            "A": 65.0625,
            "B": 61.93333333333333,
            "C": 59.666666666666664
        },
        "bus4": {
            "K": 50.125,
            "L": 52.75,
            "A": 53.0625,
            "B": 54,
            "C": 54.625,
            "D": 54.8125,
            "E": 55.375,
            "F": 53.4375,
            "G": 53.5625,
            "H": 52.9375,
            "I": 53.8,
            "J": 52.2
        },
        "bus2": {
            "F": 51.75,
            "G": 50.3125,
            "H": 49.75,
            "I": 51.4375,
            "J": 52.4375,
            "K": 53.125,
            "L": 53.375,
            "A": 54.6875,
            "B": 56.6875,
            "C": 57.0625,
            "D": 57.06666666666667,
            "E": 56.86666666666667
        },
        "bus5": {
            "L": 57.375,
            "A": 57.125,
            "B": 58,
            "C": 58.9375,
            "D": 59.375,
            "E": 59.9375,
            "F": 58.9375,
            "G": 58.125,
            "H": 58.5,
            "I": 59.9375,
            "J": 61.06666666666667,
            "K": 61.46666666666667
        },
        "bus3": {
            "J": 56,
            "K": 57.6875,
            "L": 58.75,
            "A": 59.25,
            "B": 60.125,
            "C": 57.0625,
            "D": 57.25,
            "E": 58.5,
            "F": 56.6,
            "G": 55.6,
            "H": 55.93333333333333,
            "I": 58.53333333333333
        }
    },
    "Obs_and_actions_busses": {
        "0": -131.6082283343487,
        "1": 91.05101073326493,
        "2": 233.73734772596274,
        "5": 541.2514293704859
    },
    "Obs_and_actions_tfls": {
        "0": 137.06762488268654
    }
}