{
    "Average_holding_time": 25.714285714285715,
    "Average_holding_actions": [
        537,
        241,
        311,
        0,
        17,
        0
    ],
    "Average_travel_time_passengers": 2116.606767794666,
    "Average_passenger_waiting_time": 357.10879141231146,
    "Average_passenger_in_vehicle_time": 1759.4979763823487,
    "Average_speed_busses": 0.04608333333333333,
    "Average_experienced_crowding": 64.0092634809387,
    "Average_covariation_headway": 0.40662210999430415,
    "Average_covariation_headway_stops": {
        "A": 0.3693526817868636,
        "E": 0.32673002381127186,
        "G": 0.3402062040111027,
        "H": 0.35136390366638115,
        "C": 0.3331622335970539,
        "F": 0.3293524743282678,
        "I": 0.33481933419290233,
        "D": 0.31944045850090436,
        "B": 0.3493632811823075,
        "J": 0.32511714241717293,
        "K": 0.33284593467486323,
        "L": 0.3593413280136957
    },
    "Average_excess_waiting_time": {
        "A": 92.66764067969473,
        "E": 83.65688529766805,
        "G": 81.54397415604666,
        "H": 80.31500009745804,
        "C": 84.17021075889124,
        "F": 81.0673637996237,
        "I": 79.10302548585452,
        "D": 83.83905244419452,
        "B": 90.04119806215874,
        "J": 79.43864240482907,
        "K": 84.00738063275759,
        "L": 91.33740328204499
    },
    "Holding_per_stop": {
        "G": 23.548387096774192,
        "H": 26.451612903225808,
        "F": 26.41304347826087,
        "C": 25.434782608695652,
        "E": 27.065217391304348,
        "A": 26.08695652173913,
        "I": 27.096774193548388,
        "D": 26.373626373626372,
        "B": 26.043956043956044,
        "J": 25.483870967741936,
        "K": 24.782608695652176,
        "L": 23.804347826086957
    },
    "Actions_tfl_edges": {
        "BC": [
            92,
            0,
            0
        ],
        "DE": [
            92,
            0,
            0
        ],
        "EF": [
            93,
            0,
            0
        ],
        "FG": [
            93,
            0,
            0
        ],
        "GH": [
            94,
            0,
            0
        ],
        "LA": [
            92,
            0,
            0
        ],
        "HI": [
            93,
            0,
            0
        ],
        "CD": [
            92,
            0,
            0
        ],
        "AB": [
            92,
            0,
            0
        ],
        "IJ": [
            93,
            0,
            0
        ],
        "JK": [
            93,
            0,
            0
        ],
        "KL": [
            92,
            0,
            0
        ]
    },
    "Load_per_bus_per_stop": {
        "bus5": {
            "A": 61.75,
            "B": 62.25,
            "C": 63.0625,
            "D": 63.86666666666667,
            "E": 63.2,
            "F": 63.53333333333333,
            "G": 64.46666666666667,
            "H": 64.93333333333334,
            "I": 62.666666666666664,
            "J": 62.53333333333333,
            "K": 64.66666666666667,
            "L": 65.46666666666667
        },
        "bus1": {
            "E": 55.125,
            "F": 58.1875,
            "G": 58.6875,
            "H": 56.666666666666664,
            "I": 56.13333333333333,
            "J": 56.53333333333333,
            "K": 56.86666666666667,
            "L": 58.266666666666666,
            "A": 58.86666666666667,
            "B": 56.93333333333333,
            "C": 56.13333333333333,
            "D": 56.93333333333333
        },
        "bus3": {
            "G": 46.3125,
            "H": 46.9375,
            "I": 46.875,
            "J": 47.75,
            "K": 47.75,
            "L": 46.875,
            "A": 45.8,
            "B": 45.46666666666667,
            "C": 46.13333333333333,
            "D": 47.06666666666667,
            "E": 48.13333333333333,
            "F": 48.2
        },
        "bus4": {
            "H": 60.875,
            "I": 63.1875,
            "J": 63.3125,
            "K": 64.6875,
            "L": 65.9375,
            "A": 67.9375,
            "B": 67.8,
            "C": 67.66666666666667,
            "D": 66.4,
            "E": 67.66666666666667,
            "F": 66.66666666666667,
            "G": 65.46666666666667
        },
        "bus0": {
            "C": 61.25,
            "D": 62.5625,
            "E": 60.4375,
            "F": 60.53333333333333,
            "G": 60.4,
            "H": 61.666666666666664,
            "I": 63,
            "J": 63.2,
            "K": 64.93333333333334,
            "L": 65.4,
            "A": 65.4,
            "B": 65.33333333333333
        },
        "bus2": {
            "F": 53.4375,
            "G": 52.875,
            "H": 52.5625,
            "I": 52.9375,
            "J": 53.125,
            "K": 51.93333333333333,
            "L": 53.4,
            "A": 55.06666666666667,
            "B": 56.8,
            "C": 58.06666666666667,
            "D": 56.93333333333333,
            "E": 56.8
        }
    },
    "Obs_and_actions_busses": {
        "5": 552.9791719256829,
        "2": 253.2236451251479,
        "1": 80.59343720031394,
        "0": -226.57494178658547
    },
    "Obs_and_actions_tfls": {
        "0": 127.06192572936938
    }
}