{
    "Average_holding_time": 29.615032080659944,
    "Average_holding_actions": [
        526,
        227,
        192,
        0,
        14,
        0
    ],
    "Average_travel_time_passengers": 2125.7481655152956,
    "Average_passenger_waiting_time": 334.4916315918513,
    "Average_passenger_in_vehicle_time": 1791.2565339234388,
    "Average_speed_busses": 0.04545833333333334,
    "Average_experienced_crowding": 60.05222090873077,
    "Average_covariation_headway": 0.2933020200628975,
    "Average_covariation_headway_stops": {
        "B": 0.21969898641521796,
        "K": 0.2346101696441,
        "I": 0.21055264625775258,
        "D": 0.20405583666247595,
        "F": 0.22077687055590486,
        "A": 0.21779420331438734,
        "C": 0.19659317635169396,
        "G": 0.21213757225937419,
        "E": 0.20201517350681505,
        "L": 0.22819114480290312,
        "J": 0.19953809920259688,
        "H": 0.1876197055222274
    },
    "Average_excess_waiting_time": {
        "B": 65.62806973907186,
        "K": 68.10234044997901,
        "I": 65.14455224816004,
        "D": 63.44038137670191,
        "F": 66.39201019434881,
        "A": 67.67697599542703,
        "C": 64.48289234229748,
        "G": 67.33204177859767,
        "E": 64.87763487881398,
        "L": 69.29088441649952,
        "J": 65.53879681495977,
        "H": 63.69202634570496
    },
    "Holding_per_stop": {
        "B": 29.34065934065934,
        "K": 33.62637362637363,
        "D": 27.36263736263736,
        "F": 25.714285714285715,
        "A": 25.384615384615383,
        "I": 29.01098901098901,
        "C": 29.34065934065934,
        "G": 32.30769230769231,
        "E": 25.384615384615383,
        "L": 32.967032967032964,
        "J": 33.2967032967033,
        "H": 31.666666666666668
    },
    "Actions_tfl_edges": {
        "AB": [
            92,
            0,
            0
        ],
        "CD": [
            92,
            0,
            0
        ],
        "EF": [
            92,
            0,
            0
        ],
        "HI": [
            91,
            0,
            0
        ],
        "JK": [
            92,
            0,
            0
        ],
        "LA": [
            92,
            0,
            0
        ],
        "BC": [
            91,
            0,
            0
        ],
        "KL": [
            91,
            0,
            0
        ],
        "DE": [
            91,
            0,
            0
        ],
        "FG": [
            91,
            0,
            0
        ],
        "IJ": [
            91,
            0,
            0
        ],
        "GH": [
            91,
            0,
            0
        ]
    },
    "Load_per_bus_per_stop": {
        "bus0": {
            "B": 55.625,
            "C": 54.6875,
            "D": 56.75,
            "E": 59.333333333333336,
            "F": 60.266666666666666,
            "G": 58.266666666666666,
            "H": 57.86666666666667,
            "I": 59.06666666666667,
            "J": 60.333333333333336,
            "K": 60.666666666666664,
            "L": 60.06666666666667,
            "A": 58.53333333333333
        },
        "bus4": {
            "K": 57.6875,
            "L": 56.8125,
            "A": 56.266666666666666,
            "B": 55.8,
            "C": 59.733333333333334,
            "D": 62.666666666666664,
            "E": 61.6,
            "F": 61.93333333333333,
            "G": 61.53333333333333,
            "H": 62.8,
            "I": 63.733333333333334,
            "J": 62.6
        },
        "bus3": {
            "I": 60.1875,
            "J": 61.4375,
            "K": 61.13333333333333,
            "L": 60.86666666666667,
            "A": 60.666666666666664,
            "B": 59.8,
            "C": 59.8,
            "D": 61.4,
            "E": 63.4,
            "F": 63.13333333333333,
            "G": 63.6,
            "H": 62.13333333333333
        },
        "bus1": {
            "D": 50.125,
            "E": 50.6875,
            "F": 51.2,
            "G": 52.266666666666666,
            "H": 51.93333333333333,
            "I": 53.46666666666667,
            "J": 54.46666666666667,
            "K": 57.4,
            "L": 55.6,
            "A": 53.2,
            "B": 52.666666666666664,
            "C": 53.06666666666667
        },
        "bus2": {
            "F": 55.875,
            "G": 56.8125,
            "H": 55.666666666666664,
            "I": 55.46666666666667,
            "J": 58.4,
            "K": 62.6,
            "L": 62.86666666666667,
            "A": 62.53333333333333,
            "B": 61.4,
            "C": 62.6,
            "D": 61.93333333333333,
            "E": 61.4
        },
        "bus5": {
            "A": 54.25,
            "B": 54.3125,
            "C": 57.53333333333333,
            "D": 57.86666666666667,
            "E": 58.93333333333333,
            "F": 57.86666666666667,
            "G": 58.93333333333333,
            "H": 59.53333333333333,
            "I": 60,
            "J": 60.266666666666666,
            "K": 58.93333333333333,
            "L": 58
        }
    },
    "Obs_and_actions_busses": {
        "0": -170.75284980099434,
        "1": 96.74475562633357,
        "2": 239.689101927357,
        "3": 4.868724462486763,
        "5": 463.31984626948207
    },
    "Obs_and_actions_tfls": {
        "0": 130.13256440132767
    }
}