{
    "Average_holding_time": 20.79393398751115,
    "Average_holding_actions": [
        622,
        266,
        218,
        0,
        15,
        0
    ],
    "Average_travel_time_passengers": 2075.0184531868003,
    "Average_passenger_waiting_time": 332.05608602722407,
    "Average_passenger_in_vehicle_time": 1742.9623671595718,
    "Average_speed_busses": 0.04670833333333333,
    "Average_experienced_crowding": 60.887218131132144,
    "Average_covariation_headway": 0.35611262518210407,
    "Average_covariation_headway_stops": {
        "F": 0.27325158400843097,
        "K": 0.2507900224957047,
        "E": 0.2744926210750276,
        "H": 0.2717933799287613,
        "B": 0.24988619788290045,
        "G": 0.27927324427425104,
        "I": 0.2669506621397982,
        "L": 0.2433367379662216,
        "C": 0.2464158977908617,
        "J": 0.24591691528723864,
        "A": 0.22996177277849583,
        "D": 0.2539041954847719
    },
    "Average_excess_waiting_time": {
        "F": 66.4443218959957,
        "K": 62.38646902431839,
        "E": 67.79543072340545,
        "H": 61.55282574189499,
        "B": 62.625668119017575,
        "G": 64.15681159437162,
        "I": 63.44036367121947,
        "L": 61.92471699858004,
        "C": 64.22804567764518,
        "J": 61.52540488862934,
        "A": 61.903213649510974,
        "D": 66.04042414426777
    },
    "Holding_per_stop": {
        "H": 20.526315789473685,
        "F": 23.225806451612904,
        "K": 20.74468085106383,
        "B": 20.967741935483872,
        "E": 20,
        "G": 22.02127659574468,
        "I": 20.106382978723403,
        "L": 21.29032258064516,
        "C": 19.35483870967742,
        "J": 21.382978723404257,
        "A": 20.322580645161292,
        "D": 19.565217391304348
    },
    "Actions_tfl_edges": {
        "AB": [
            94,
            0,
            0
        ],
        "DE": [
            93,
            0,
            0
        ],
        "EF": [
            94,
            0,
            0
        ],
        "FG": [
            94,
            0,
            0
        ],
        "GH": [
            95,
            0,
            0
        ],
        "JK": [
            95,
            0,
            0
        ],
        "HI": [
            95,
            0,
            0
        ],
        "KL": [
            94,
            0,
            0
        ],
        "BC": [
            93,
            0,
            0
        ],
        "IJ": [
            94,
            0,
            0
        ],
        "LA": [
            93,
            0,
            0
        ],
        "CD": [
            93,
            0,
            0
        ]
    },
    "Load_per_bus_per_stop": {
        "bus2": {
            "F": 57.5625,
            "G": 58.5625,
            "H": 59.25,
            "I": 59.8125,
            "J": 58.3125,
            "K": 56.375,
            "L": 54.8,
            "A": 54.2,
            "B": 56.13333333333333,
            "C": 56.53333333333333,
            "D": 56.86666666666667,
            "E": 58.8
        },
        "bus5": {
            "K": 62.5625,
            "L": 63.8125,
            "A": 64.375,
            "B": 63.875,
            "C": 65,
            "D": 65.0625,
            "E": 65.25,
            "F": 65.25,
            "G": 67.06666666666666,
            "H": 66.46666666666667,
            "I": 66,
            "J": 66.13333333333334
        },
        "bus1": {
            "E": 60.25,
            "F": 60.75,
            "G": 64.875,
            "H": 63.5,
            "I": 62.375,
            "J": 62.3125,
            "K": 62.06666666666667,
            "L": 62.46666666666667,
            "A": 62.6,
            "B": 62.86666666666667,
            "C": 63.6,
            "D": 63.4
        },
        "bus4": {
            "H": 50.125,
            "I": 51.25,
            "J": 51.125,
            "K": 50.1875,
            "L": 51.125,
            "A": 54.375,
            "B": 53.8125,
            "C": 53.3125,
            "D": 52.06666666666667,
            "E": 53.333333333333336,
            "F": 54.53333333333333,
            "G": 55.666666666666664
        },
        "bus0": {
            "B": 58.375,
            "C": 58.5,
            "D": 57.4375,
            "E": 59.3125,
            "F": 58.9375,
            "G": 60.3125,
            "H": 63.8125,
            "I": 65.6,
            "J": 66.4,
            "K": 66.2,
            "L": 65.4,
            "A": 63.4
        },
        "bus3": {
            "G": 44.625,
            "H": 44.5,
            "I": 46.3125,
            "J": 47.25,
            "K": 47.875,
            "L": 48.125,
            "A": 49.875,
            "B": 45.8,
            "C": 46.8,
            "D": 46.6,
            "E": 45.733333333333334,
            "F": 44.2
        }
    },
    "Obs_and_actions_busses": {
        "2": 251.0622453281545,
        "1": 98.60094698728248,
        "0": -165.44780825275572,
        "5": 459.6402743840814
    },
    "Obs_and_actions_tfls": {
        "0": 130.3397486991171
    }
}