{
    "Average_holding_time": 23.26145552560647,
    "Average_holding_actions": [
        731,
        151,
        43,
        0,
        31,
        0
    ],
    "Average_travel_time_passengers": 2082.5429781368994,
    "Average_passenger_waiting_time": 334.53576649700426,
    "Average_passenger_in_vehicle_time": 1748.0072116399074,
    "Average_speed_busses": 0.046375,
    "Average_experienced_crowding": 59.373523890598996,
    "Average_covariation_headway": 0.3152720521144506,
    "Average_covariation_headway_stops": {
        "A": 0.25646006547459516,
        "D": 0.23352517374590498,
        "E": 0.23540221294866281,
        "J": 0.24096709935407343,
        "G": 0.24720914011022213,
        "B": 0.26956588884446003,
        "F": 0.24427791661842727,
        "H": 0.22735912883628004,
        "K": 0.2291625184104455,
        "C": 0.23796823320146945,
        "I": 0.20405924013023594,
        "L": 0.263361946688365
    },
    "Average_excess_waiting_time": {
        "A": 67.1920894513027,
        "D": 62.04013856113045,
        "E": 60.46922073622005,
        "J": 63.054041495740194,
        "G": 61.69536329256931,
        "B": 68.76281656193919,
        "F": 63.227208731764904,
        "H": 61.18345954423825,
        "K": 63.10160598386102,
        "C": 64.29062382723896,
        "I": 59.4023532906279,
        "L": 70.61533451772578
    },
    "Holding_per_stop": {
        "E": 19.35483870967742,
        "G": 22.659574468085108,
        "J": 22.580645161290324,
        "B": 30,
        "A": 25.76086956521739,
        "D": 24.838709677419356,
        "F": 21.29032258064516,
        "H": 21.29032258064516,
        "K": 22.5,
        "C": 27.717391304347824,
        "I": 19.35483870967742,
        "L": 21.847826086956523
    },
    "Actions_tfl_edges": {
        "AB": [
            93,
            0,
            0
        ],
        "CD": [
            93,
            0,
            0
        ],
        "DE": [
            94,
            0,
            0
        ],
        "FG": [
            94,
            0,
            0
        ],
        "IJ": [
            94,
            0,
            0
        ],
        "LA": [
            93,
            0,
            0
        ],
        "EF": [
            93,
            0,
            0
        ],
        "GH": [
            94,
            0,
            0
        ],
        "JK": [
            93,
            0,
            0
        ],
        "BC": [
            93,
            0,
            0
        ],
        "HI": [
            93,
            0,
            0
        ],
        "KL": [
            92,
            0,
            0
        ]
    },
    "Load_per_bus_per_stop": {
        "bus5": {
            "A": 54.75,
            "B": 56.4375,
            "C": 56.5,
            "D": 55.5625,
            "E": 58.666666666666664,
            "F": 58,
            "G": 57.06666666666667,
            "H": 54,
            "I": 55.86666666666667,
            "J": 56.4,
            "K": 57.6,
            "L": 59.2
        },
        "bus1": {
            "D": 56,
            "E": 55,
            "F": 56.375,
            "G": 57.4375,
            "H": 59,
            "I": 58.5,
            "J": 61.53333333333333,
            "K": 61.2,
            "L": 61.2,
            "A": 62.266666666666666,
            "B": 59.4,
            "C": 60.4
        },
        "bus2": {
            "E": 58.125,
            "F": 59.375,
            "G": 59.25,
            "H": 59.5,
            "I": 58.375,
            "J": 57.875,
            "K": 58.875,
            "L": 58.333333333333336,
            "A": 57.53333333333333,
            "B": 60.06666666666667,
            "C": 61.13333333333333,
            "D": 61.2
        },
        "bus4": {
            "J": 57.75,
            "K": 57.5625,
            "L": 57.375,
            "A": 59.8125,
            "B": 60.25,
            "C": 62.666666666666664,
            "D": 63.06666666666667,
            "E": 61.733333333333334,
            "F": 62.333333333333336,
            "G": 61.86666666666667,
            "H": 61.2,
            "I": 61.93333333333333
        },
        "bus3": {
            "G": 54.3125,
            "H": 55.0625,
            "I": 55.9375,
            "J": 58.875,
            "K": 60.5625,
            "L": 59.6875,
            "A": 60.6875,
            "B": 60.93333333333333,
            "C": 59.93333333333333,
            "D": 57,
            "E": 55.6,
            "F": 54.93333333333333
        },
        "bus0": {
            "B": 48.9375,
            "C": 49.25,
            "D": 50.8125,
            "E": 52,
            "F": 51.4375,
            "G": 49.4375,
            "H": 49.8,
            "I": 50.333333333333336,
            "J": 50.4,
            "K": 50,
            "L": 51.06666666666667,
            "A": 50.8
        }
    },
    "Obs_and_actions_busses": {
        "5": 435.82189771104095,
        "0": -128.37036027855973,
        "3": 235.9909701191233,
        "1": 135.69081124070533,
        "2": 86.21842088763943
    },
    "Obs_and_actions_tfls": {
        "0": 134.68798529351082
    }
}