{
    "Average_holding_time": 24.887892376681613,
    "Average_holding_actions": [
        709,
        149,
        73,
        0,
        39,
        0
    ],
    "Average_travel_time_passengers": 2092.5453033488575,
    "Average_passenger_waiting_time": 343.9375462900556,
    "Average_passenger_in_vehicle_time": 1748.6077570587877,
    "Average_speed_busses": 0.04645833333333333,
    "Average_experienced_crowding": 61.917063062549985,
    "Average_covariation_headway": 0.3708566474951232,
    "Average_covariation_headway_stops": {
        "K": 0.3633665640736584,
        "L": 0.3483701194141084,
        "C": 0.31909765971681514,
        "E": 0.300686421818735,
        "D": 0.30413432875726004,
        "B": 0.3379932914080187,
        "A": 0.33984948907771584,
        "F": 0.29407649211359554,
        "G": 0.2927592728052446,
        "H": 0.29197487176623915,
        "I": 0.30965057669202967,
        "J": 0.34820977382192575
    },
    "Average_excess_waiting_time": {
        "K": 88.55903737493077,
        "L": 83.93616248711913,
        "C": 76.08259299727405,
        "E": 68.35505701649589,
        "D": 71.362261281126,
        "B": 81.83413595848748,
        "A": 84.48926459500518,
        "F": 68.81476957446142,
        "G": 70.62884681377614,
        "H": 72.92601669224814,
        "I": 77.36977253078612,
        "J": 87.00058104158552
    },
    "Holding_per_stop": {
        "L": 22.580645161290324,
        "C": 24.193548387096776,
        "E": 27.127659574468087,
        "D": 24.25531914893617,
        "B": 23.548387096774192,
        "K": 24.130434782608695,
        "A": 24.782608695652176,
        "F": 22.97872340425532,
        "G": 29.677419354838708,
        "H": 27.419354838709676,
        "I": 23.47826086956522,
        "J": 24.456521739130434
    },
    "Actions_tfl_edges": {
        "AB": [
            93,
            0,
            0
        ],
        "BC": [
            94,
            0,
            0
        ],
        "CD": [
            94,
            0,
            0
        ],
        "DE": [
            95,
            0,
            0
        ],
        "JK": [
            93,
            0,
            0
        ],
        "KL": [
            93,
            0,
            0
        ],
        "LA": [
            93,
            0,
            0
        ],
        "EF": [
            94,
            0,
            0
        ],
        "FG": [
            94,
            0,
            0
        ],
        "GH": [
            93,
            0,
            0
        ],
        "HI": [
            93,
            0,
            0
        ],
        "IJ": [
            92,
            0,
            0
        ]
    },
    "Load_per_bus_per_stop": {
        "bus4": {
            "K": 58.25,
            "L": 59.8125,
            "A": 59.6875,
            "B": 60.0625,
            "C": 58.13333333333333,
            "D": 56,
            "E": 57.8,
            "F": 59.733333333333334,
            "G": 62,
            "H": 60.2,
            "I": 60.733333333333334,
            "J": 59.86666666666667
        },
        "bus5": {
            "L": 51.0625,
            "A": 51.9375,
            "B": 51.9375,
            "C": 53.375,
            "D": 54.9375,
            "E": 53.8,
            "F": 54.266666666666666,
            "G": 54.266666666666666,
            "H": 56.53333333333333,
            "I": 54.06666666666667,
            "J": 54.266666666666666,
            "K": 53.6
        },
        "bus1": {
            "C": 58.4375,
            "D": 58.0625,
            "E": 57.875,
            "F": 59.75,
            "G": 60.3125,
            "H": 59.5625,
            "I": 59.733333333333334,
            "J": 56,
            "K": 56.13333333333333,
            "L": 58,
            "A": 59.666666666666664,
            "B": 62.8
        },
        "bus3": {
            "E": 57.625,
            "F": 56.75,
            "G": 56,
            "H": 56.3125,
            "I": 58.1875,
            "J": 60.125,
            "K": 62.0625,
            "L": 63.8125,
            "A": 65,
            "B": 67.33333333333333,
            "C": 65.53333333333333,
            "D": 63.6
        },
        "bus2": {
            "D": 50.3125,
            "E": 51.9375,
            "F": 52.25,
            "G": 52.6875,
            "H": 54.1875,
            "I": 56.8125,
            "J": 57.5625,
            "K": 56.1875,
            "L": 55.266666666666666,
            "A": 55.86666666666667,
            "B": 56.2,
            "C": 55.333333333333336
        },
        "bus0": {
            "B": 57.5625,
            "C": 56.8125,
            "D": 54.6875,
            "E": 54.625,
            "F": 57.625,
            "G": 59,
            "H": 62.266666666666666,
            "I": 61.13333333333333,
            "J": 63.86666666666667,
            "K": 62.666666666666664,
            "L": 61.8,
            "A": 61.8
        }
    },
    "Obs_and_actions_busses": {
        "5": 579.5086880684219,
        "0": -147.42183126812407,
        "1": 140.9867678574997,
        "3": 236.20730927842015,
        "2": 92.0995357520302
    },
    "Obs_and_actions_tfls": {
        "0": 125.57354748036424
    }
}