{
    "Average_holding_time": 20.16829052258636,
    "Average_holding_actions": [
        773,
        163,
        47,
        0,
        32,
        0
    ],
    "Average_travel_time_passengers": 2054.0308550987543,
    "Average_passenger_waiting_time": 327.7561104538869,
    "Average_passenger_in_vehicle_time": 1726.274744644822,
    "Average_speed_busses": 0.04704166666666667,
    "Average_experienced_crowding": 59.57829504984792,
    "Average_covariation_headway": 0.3151991711570562,
    "Average_covariation_headway_stops": {
        "B": 0.23461505431962495,
        "D": 0.23038638172052633,
        "J": 0.2667055664542192,
        "F": 0.2188083100609045,
        "H": 0.23486530980672352,
        "E": 0.24123115969539669,
        "I": 0.2505643658072814,
        "K": 0.22822745066575043,
        "G": 0.22248942361303511,
        "C": 0.23211588249547246,
        "L": 0.22475588044320413,
        "A": 0.2400901035242906
    },
    "Average_excess_waiting_time": {
        "B": 59.58948846860051,
        "D": 58.25967322425896,
        "J": 60.42978224219593,
        "F": 53.50992085022074,
        "H": 54.765699257973154,
        "E": 58.66957475872715,
        "I": 58.966791464098094,
        "K": 55.85012498631329,
        "G": 55.01799606422463,
        "C": 60.21736269021898,
        "L": 58.230302615439314,
        "A": 62.151848345872395
    },
    "Holding_per_stop": {
        "J": 24.63157894736842,
        "H": 16.105263157894736,
        "F": 17.68421052631579,
        "E": 21.382978723404257,
        "B": 17.5531914893617,
        "D": 19.148936170212767,
        "K": 21.382978723404257,
        "I": 18.829787234042552,
        "G": 18.829787234042552,
        "C": 20,
        "L": 21.382978723404257,
        "A": 25.161290322580644
    },
    "Actions_tfl_edges": {
        "AB": [
            94,
            0,
            0
        ],
        "CD": [
            94,
            0,
            0
        ],
        "DE": [
            95,
            0,
            0
        ],
        "EF": [
            95,
            0,
            0
        ],
        "GH": [
            95,
            0,
            0
        ],
        "IJ": [
            95,
            0,
            0
        ],
        "JK": [
            95,
            0,
            0
        ],
        "HI": [
            95,
            0,
            0
        ],
        "FG": [
            95,
            0,
            0
        ],
        "BC": [
            94,
            0,
            0
        ],
        "KL": [
            94,
            0,
            0
        ],
        "LA": [
            94,
            0,
            0
        ]
    },
    "Load_per_bus_per_stop": {
        "bus0": {
            "B": 55.3125,
            "C": 56.625,
            "D": 58.5625,
            "E": 58.4375,
            "F": 56.4375,
            "G": 58.0625,
            "H": 57.4375,
            "I": 56,
            "J": 57,
            "K": 58.13333333333333,
            "L": 60.53333333333333,
            "A": 58.6
        },
        "bus1": {
            "D": 55.75,
            "E": 56.0625,
            "F": 56.5,
            "G": 56.625,
            "H": 55.75,
            "I": 53.6875,
            "J": 51.875,
            "K": 52.5,
            "L": 55.13333333333333,
            "A": 57.53333333333333,
            "B": 56.86666666666667,
            "C": 58.06666666666667
        },
        "bus5": {
            "J": 61.25,
            "K": 62.125,
            "L": 60.5625,
            "A": 62.0625,
            "B": 59.375,
            "C": 61.25,
            "D": 62.1875,
            "E": 64.5625,
            "F": 65.5,
            "G": 67.33333333333333,
            "H": 66.93333333333334,
            "I": 65.6
        },
        "bus3": {
            "F": 52.1875,
            "G": 52.25,
            "H": 53.5625,
            "I": 52.4375,
            "J": 51.75,
            "K": 53.125,
            "L": 52.6875,
            "A": 53.3125,
            "B": 53.25,
            "C": 51.4,
            "D": 53.733333333333334,
            "E": 54.93333333333333
        },
        "bus4": {
            "H": 53.1875,
            "I": 54.8125,
            "J": 54.8125,
            "K": 55.3125,
            "L": 57.25,
            "A": 56.0625,
            "B": 56.4375,
            "C": 57.9375,
            "D": 57.6875,
            "E": 57.53333333333333,
            "F": 57.4,
            "G": 56.13333333333333
        },
        "bus2": {
            "E": 55.3125,
            "F": 57.5625,
            "G": 57.5625,
            "H": 60.125,
            "I": 59.625,
            "J": 61.9375,
            "K": 60.1875,
            "L": 58.5625,
            "A": 57.86666666666667,
            "B": 56.06666666666667,
            "C": 56.13333333333333,
            "D": 56.8
        }
    },
    "Obs_and_actions_busses": {
        "5": 391.783183134683,
        "3": 243.21353769400167,
        "1": 146.13423858943733,
        "0": -109.91402674219988,
        "2": 92.27395411537158
    },
    "Obs_and_actions_tfls": {
        "0": 133.67210798474477
    }
}