{
    "Average_holding_time": 20.951957295373667,
    "Average_holding_actions": [
        761,
        139,
        74,
        0,
        24,
        0
    ],
    "Average_travel_time_passengers": 2072.543467835241,
    "Average_passenger_waiting_time": 330.1212279812182,
    "Average_passenger_in_vehicle_time": 1742.422239853978,
    "Average_speed_busses": 0.04683333333333333,
    "Average_experienced_crowding": 59.880634954297356,
    "Average_covariation_headway": 0.30171997723345495,
    "Average_covariation_headway_stops": {
        "A": 0.21459417734866543,
        "J": 0.23296848863050065,
        "G": 0.24819857208209814,
        "K": 0.22557688225784958,
        "F": 0.22850746023667434,
        "D": 0.22122697833983385,
        "B": 0.21204683526407267,
        "L": 0.19118735977127327,
        "H": 0.24294433596150664,
        "E": 0.23135515386436975,
        "C": 0.21456980171000342,
        "I": 0.22606704796651214
    },
    "Average_excess_waiting_time": {
        "A": 54.76263142532764,
        "J": 60.05783691486579,
        "G": 58.9973317867117,
        "K": 56.19087310298153,
        "F": 57.88875732177456,
        "D": 57.3730902631857,
        "B": 55.98222813571425,
        "L": 53.6131993116399,
        "H": 60.478543674585296,
        "E": 60.29655430075235,
        "C": 58.31585985478165,
        "I": 61.025864371253306
    },
    "Holding_per_stop": {
        "A": 20.74468085106383,
        "K": 18.829787234042552,
        "G": 24.574468085106382,
        "D": 20.74468085106383,
        "F": 18.829787234042552,
        "J": 22.258064516129032,
        "B": 18.829787234042552,
        "L": 22.340425531914892,
        "H": 24.574468085106382,
        "E": 22.580645161290324,
        "C": 18.70967741935484,
        "I": 18.387096774193548
    },
    "Actions_tfl_edges": {
        "CD": [
            94,
            0,
            0
        ],
        "EF": [
            94,
            0,
            0
        ],
        "FG": [
            95,
            0,
            0
        ],
        "IJ": [
            94,
            0,
            0
        ],
        "JK": [
            94,
            0,
            0
        ],
        "LA": [
            95,
            0,
            0
        ],
        "AB": [
            94,
            0,
            0
        ],
        "KL": [
            94,
            0,
            0
        ],
        "GH": [
            94,
            0,
            0
        ],
        "DE": [
            94,
            0,
            0
        ],
        "BC": [
            94,
            0,
            0
        ],
        "HI": [
            94,
            0,
            0
        ]
    },
    "Load_per_bus_per_stop": {
        "bus5": {
            "A": 55.3125,
            "B": 56.1875,
            "C": 55.625,
            "D": 55.875,
            "E": 53.75,
            "F": 53.125,
            "G": 52.9375,
            "H": 54.125,
            "I": 57.266666666666666,
            "J": 58.53333333333333,
            "K": 59.733333333333334,
            "L": 57.733333333333334
        },
        "bus3": {
            "J": 57.625,
            "K": 57.3125,
            "L": 59.1875,
            "A": 60.6875,
            "B": 63.125,
            "C": 62.3125,
            "D": 63.1875,
            "E": 62.53333333333333,
            "F": 63.2,
            "G": 63.86666666666667,
            "H": 61.93333333333333,
            "I": 62.46666666666667
        },
        "bus2": {
            "G": 59.375,
            "H": 61.875,
            "I": 61.6875,
            "J": 63.125,
            "K": 64.3125,
            "L": 64.875,
            "A": 64.1875,
            "B": 63.25,
            "C": 63.733333333333334,
            "D": 63.53333333333333,
            "E": 62.4,
            "F": 62.53333333333333
        },
        "bus4": {
            "K": 55,
            "L": 54.0625,
            "A": 53.75,
            "B": 54.1875,
            "C": 55.3125,
            "D": 56.875,
            "E": 58.0625,
            "F": 58.5625,
            "G": 60.25,
            "H": 61.6,
            "I": 60.266666666666666,
            "J": 58.4
        },
        "bus1": {
            "F": 51.9375,
            "G": 51.75,
            "H": 52.5625,
            "I": 52.6875,
            "J": 53.3125,
            "K": 54.5,
            "L": 54.4375,
            "A": 53.46666666666667,
            "B": 53.6,
            "C": 52.93333333333333,
            "D": 52.333333333333336,
            "E": 52.93333333333333
        },
        "bus0": {
            "D": 56.25,
            "E": 55,
            "F": 54.125,
            "G": 55.0625,
            "H": 56.25,
            "I": 57.375,
            "J": 56.6875,
            "K": 54.93333333333333,
            "L": 56.46666666666667,
            "A": 57,
            "B": 56.733333333333334,
            "C": 57.6
        }
    },
    "Obs_and_actions_busses": {
        "0": -107.50983447804677,
        "1": 142.78454054860003,
        "2": 91.2630075874381,
        "3": 235.96242771692974,
        "5": 424.8254859409962
    },
    "Obs_and_actions_tfls": {
        "0": 136.5674116881061
    }
}