{
    "Average_holding_time": 24.371633752244165,
    "Average_holding_actions": [
        711,
        149,
        90,
        0,
        42,
        0
    ],
    "Average_travel_time_passengers": 2082.682909777956,
    "Average_passenger_waiting_time": 338.09638462487646,
    "Average_passenger_in_vehicle_time": 1744.5865251530638,
    "Average_speed_busses": 0.04641666666666667,
    "Average_experienced_crowding": 60.49129079406957,
    "Average_covariation_headway": 0.32354874033883096,
    "Average_covariation_headway_stops": {
        "C": 0.2667535429222742,
        "F": 0.25015031340223,
        "L": 0.25470973897033383,
        "K": 0.2638575945636024,
        "A": 0.24158828071406183,
        "B": 0.2420371815601785,
        "D": 0.2578634299276867,
        "G": 0.23901329219868117,
        "H": 0.24037758827689065,
        "E": 0.24602917277343547,
        "I": 0.25023272127577745,
        "J": 0.25951332912601555
    },
    "Average_excess_waiting_time": {
        "C": 64.2961621866412,
        "F": 62.43151410822628,
        "L": 66.62327782291015,
        "K": 70.37753582849268,
        "A": 62.86635300704472,
        "B": 61.61938862466434,
        "D": 62.34932063747141,
        "G": 61.99091434652172,
        "H": 64.15117709554897,
        "E": 63.116539670178724,
        "I": 67.40906572668086,
        "J": 70.41792723904007
    },
    "Holding_per_stop": {
        "F": 28.387096774193548,
        "C": 25.851063829787233,
        "L": 22.258064516129032,
        "A": 22.258064516129032,
        "K": 25.434782608695652,
        "B": 18.06451612903226,
        "D": 27.741935483870968,
        "G": 23.548387096774192,
        "H": 25.161290322580644,
        "E": 24.516129032258064,
        "I": 25.434782608695652,
        "J": 23.804347826086957
    },
    "Actions_tfl_edges": {
        "AB": [
            94,
            0,
            0
        ],
        "BC": [
            94,
            0,
            0
        ],
        "EF": [
            94,
            0,
            0
        ],
        "JK": [
            93,
            0,
            0
        ],
        "KL": [
            93,
            0,
            0
        ],
        "LA": [
            94,
            0,
            0
        ],
        "FG": [
            93,
            0,
            0
        ],
        "CD": [
            94,
            0,
            0
        ],
        "DE": [
            93,
            0,
            0
        ],
        "GH": [
            93,
            0,
            0
        ],
        "HI": [
            93,
            0,
            0
        ],
        "IJ": [
            92,
            0,
            0
        ]
    },
    "Load_per_bus_per_stop": {
        "bus1": {
            "C": 56,
            "D": 56.5,
            "E": 56.25,
            "F": 57.5,
            "G": 57.8125,
            "H": 59.6875,
            "I": 59.375,
            "J": 59.4375,
            "K": 61.4,
            "L": 61.6,
            "A": 59.733333333333334,
            "B": 59.8
        },
        "bus2": {
            "F": 59.25,
            "G": 59.3125,
            "H": 58.375,
            "I": 57.625,
            "J": 56.1875,
            "K": 58.5625,
            "L": 60.625,
            "A": 62.46666666666667,
            "B": 61.86666666666667,
            "C": 61.8,
            "D": 61.6,
            "E": 61
        },
        "bus4": {
            "L": 57.375,
            "A": 57.625,
            "B": 60.4375,
            "C": 59.6875,
            "D": 60.46666666666667,
            "E": 60.93333333333333,
            "F": 59.666666666666664,
            "G": 61.266666666666666,
            "H": 62.733333333333334,
            "I": 63.53333333333333,
            "J": 62.4,
            "K": 62.733333333333334
        },
        "bus3": {
            "K": 56.25,
            "L": 56.0625,
            "A": 56.0625,
            "B": 56.86666666666667,
            "C": 58.8,
            "D": 60.2,
            "E": 60.46666666666667,
            "F": 60.13333333333333,
            "G": 59.333333333333336,
            "H": 60.46666666666667,
            "I": 59.4,
            "J": 60.6
        },
        "bus5": {
            "A": 45.9375,
            "B": 45.0625,
            "C": 46.3125,
            "D": 47.25,
            "E": 47,
            "F": 45.9375,
            "G": 45.4,
            "H": 47.2,
            "I": 49.06666666666667,
            "J": 49.333333333333336,
            "K": 50.4,
            "L": 49.266666666666666
        },
        "bus0": {
            "B": 59.625,
            "C": 61.375,
            "D": 63.125,
            "E": 63.4375,
            "F": 61.875,
            "G": 63.1875,
            "H": 60.9375,
            "I": 60.93333333333333,
            "J": 58.8,
            "K": 58.46666666666667,
            "L": 60.46666666666667,
            "A": 63
        }
    },
    "Obs_and_actions_busses": {
        "0": -132.8087107705448,
        "1": 143.59130850819875,
        "3": 235.08448041743128,
        "2": 87.59012612315402,
        "5": 405.6455443576575
    },
    "Obs_and_actions_tfls": {
        "0": 134.36742528141806
    }
},
    "Obs_and_actions_tfls": {
        "0": 127.58582843808799
    }
}