{
    "Average_holding_time": 24.945652173913043,
    "Average_holding_actions": [
        680,
        158,
        80,
        0,
        21,
        0
    ],
    "Average_travel_time_passengers": 2089.313547769833,
    "Average_passenger_waiting_time": 343.3231215781522,
    "Average_passenger_in_vehicle_time": 1745.9904261917147,
    "Average_speed_busses": 0.046,
    "Average_experienced_crowding": 61.37943526257639,
    "Average_covariation_headway": 0.35071555077926625,
    "Average_covariation_headway_stops": {
        "I": 0.2745920837583005,
        "J": 0.2709361333717228,
        "L": 0.25445302462618646,
        "E": 0.2656690090247357,
        "D": 0.26268494011999255,
        "H": 0.2601720411025473,
        "K": 0.26352364956792673,
        "A": 0.24072208249588423,
        "F": 0.28611111175790604,
        "B": 0.22662753950043799,
        "G": 0.2702723186491443,
        "C": 0.2400094541855019
    },
    "Average_excess_waiting_time": {
        "I": 69.29722672954989,
        "J": 68.61088497037264,
        "L": 66.56013849704317,
        "E": 68.24035999582367,
        "D": 70.92876102050548,
        "H": 68.84313596391485,
        "K": 70.94468665097685,
        "A": 66.08171605943488,
        "F": 74.0859749094725,
        "B": 65.69372644493552,
        "G": 73.3832970965048,
        "C": 69.01885670048762
    },
    "Holding_per_stop": {
        "J": 20.967741935483872,
        "I": 29.35483870967742,
        "L": 26.73913043478261,
        "E": 22.5,
        "D": 23.47826086956522,
        "H": 25.76086956521739,
        "K": 25.434782608695652,
        "A": 24.130434782608695,
        "F": 22.5,
        "B": 27.065217391304348,
        "G": 27.36263736263736,
        "C": 24.065934065934066
    },
    "Actions_tfl_edges": {
        "CD": [
            92,
            0,
            0
        ],
        "DE": [
            93,
            0,
            0
        ],
        "GH": [
            92,
            0,
            0
        ],
        "HI": [
            93,
            0,
            0
        ],
        "IJ": [
            94,
            0,
            0
        ],
        "KL": [
            93,
            0,
            0
        ],
        "JK": [
            93,
            0,
            0
        ],
        "LA": [
            92,
            0,
            0
        ],
        "EF": [
            92,
            0,
            0
        ],
        "AB": [
            92,
            0,
            0
        ],
        "FG": [
            92,
            0,
            0
        ],
        "BC": [
            92,
            0,
            0
        ]
    },
    "Load_per_bus_per_stop": {
        "bus3": {
            "I": 52.625,
            "J": 52.1875,
            "K": 52.75,
            "L": 52.8,
            "A": 55.6,
            "B": 54.2,
            "C": 54.266666666666666,
            "D": 55.53333333333333,
            "E": 55,
            "F": 55.46666666666667,
            "G": 55.8,
            "H": 57.13333333333333
        },
        "bus4": {
            "J": 59,
            "K": 60.5625,
            "L": 59.625,
            "A": 58.3125,
            "B": 61.1875,
            "C": 59.733333333333334,
            "D": 59.333333333333336,
            "E": 58.333333333333336,
            "F": 58.6,
            "G": 58.333333333333336,
            "H": 59.6,
            "I": 61.2
        },
        "bus5": {
            "L": 52.5625,
            "A": 53.1875,
            "B": 54.5625,
            "C": 55.5625,
            "D": 56.625,
            "E": 56.13333333333333,
            "F": 56.46666666666667,
            "G": 58.13333333333333,
            "H": 58.8,
            "I": 57.4,
            "J": 56.6,
            "K": 56.666666666666664
        },
        "bus1": {
            "E": 56.75,
            "F": 58.0625,
            "G": 58.8125,
            "H": 60.625,
            "I": 59.375,
            "J": 59.4,
            "K": 58.13333333333333,
            "L": 59.06666666666667,
            "A": 60,
            "B": 61.4,
            "C": 61.6,
            "D": 60.46666666666667
        },
        "bus0": {
            "D": 58.625,
            "E": 58.25,
            "F": 59.875,
            "G": 61,
            "H": 63.13333333333333,
            "I": 62.333333333333336,
            "J": 63.666666666666664,
            "K": 64.2,
            "L": 63.2,
            "A": 63.733333333333334,
            "B": 64.06666666666666,
            "C": 62.6
        },
        "bus2": {
            "H": 55.6875,
            "I": 57.0625,
            "J": 56.125,
            "K": 59.733333333333334,
            "L": 57.733333333333334,
            "A": 56.06666666666667,
            "B": 56.6,
            "C": 57.266666666666666,
            "D": 57.266666666666666,
            "E": 58.666666666666664,
            "F": 58.13333333333333,
            "G": 59.53333333333333
        }
    },
    "Obs_and_actions_busses": {
        "0": -141.02580571196566,
        "3": 233.64171672795436,
        "1": 145.26631877324175,
        "2": 90.25069762856319,
        "5": 417.28186194983795
    },
    "Obs_and_actions_tfls": {
        "0": 133.5821747584915
    }
}