{
    "Average_holding_time": 32.64957264957265,
    "Average_holding_actions": [
        607,
        81,
        84,
        22,
        16,
        0
    ],
    "Average_travel_time_passengers": 2170.191040373939,
    "Average_passenger_waiting_time": 352.363700413243,
    "Average_passenger_in_vehicle_time": 1817.8273399606858,
    "Average_speed_busses": 0.043875,
    "Average_experienced_crowding": 87.68952879209603,
    "Average_covariation_headway": 0.3202100005360024,
    "Average_covariation_headway_stops": {
        "H": 0.26338962444163944,
        "I": 0.2676241755447359,
        "L": 0.20195309108325715,
        "C": 0.25292341238272803,
        "B": 0.22994657134710084,
        "K": 0.20968627203948345,
        "J": 0.21638061098267605,
        "D": 0.21064083406401315,
        "A": 0.21089172978160825,
        "E": 0.20034913277336674,
        "F": 0.2015489547185237,
        "G": 0.21350918120139564
    },
    "Average_excess_waiting_time": {
        "H": 88.03506944450999,
        "I": 86.0946706412688,
        "L": 73.6536969052338,
        "C": 81.67560986415083,
        "B": 79.83919296280624,
        "K": 77.15403172595217,
        "J": 79.67677510597969,
        "D": 76.79046628857537,
        "A": 77.62021145644786,
        "E": 77.55492641354601,
        "F": 79.37208155038303,
        "G": 82.58412895957264
    },
    "Holding_per_stop": {
        "I": 42.95454545454545,
        "H": 38.275862068965516,
        "L": 45.842696629213485,
        "B": 17.045454545454547,
        "C": 27.954545454545453,
        "K": 42.27272727272727,
        "J": 44.48275862068966,
        "D": 22.15909090909091,
        "A": 17.386363636363637,
        "E": 32.38636363636363,
        "F": 28.275862068965516,
        "G": 32.758620689655174
    },
    "Actions_tfl_edges": {
        "GH": [
            74,
            10,
            4
        ],
        "HI": [
            70,
            17,
            1
        ],
        "JK": [
            75,
            13,
            0
        ],
        "CD": [
            53,
            0,
            35
        ],
        "FG": [
            68,
            0,
            19
        ]
    },
    "Load_per_bus_per_stop": {
        "bus2": {
            "H": 112.73333333333333,
            "I": 108.06666666666666,
            "J": 102.26666666666667,
            "K": 91.06666666666666,
            "L": 80.86666666666666,
            "A": 69.86666666666666,
            "B": 57.5,
            "C": 51.642857142857146,
            "D": 47.785714285714285,
            "E": 47.357142857142854,
            "F": 74.21428571428571,
            "G": 111.85714285714286
        },
        "bus3": {
            "I": 107.4,
            "J": 98.93333333333334,
            "K": 92,
            "L": 80.8,
            "A": 68.26666666666667,
            "B": 58.93333333333333,
            "C": 52.2,
            "D": 50.07142857142857,
            "E": 49.642857142857146,
            "F": 75.71428571428571,
            "G": 111.35714285714286,
            "H": 118.85714285714286
        },
        "bus5": {
            "L": 74.2,
            "A": 67.06666666666666,
            "B": 55.13333333333333,
            "C": 50.2,
            "D": 47.266666666666666,
            "E": 46,
            "F": 71.6,
            "G": 103.4,
            "H": 110.42857142857143,
            "I": 105.07142857142857,
            "J": 98.21428571428571,
            "K": 88.28571428571429
        },
        "bus1": {
            "C": 58.13333333333333,
            "D": 53.06666666666667,
            "E": 49,
            "F": 71.4,
            "G": 109.33333333333333,
            "H": 120.2,
            "I": 117.86666666666666,
            "J": 109.8,
            "K": 102.26666666666667,
            "L": 91.13333333333334,
            "A": 79.85714285714286,
            "B": 67.92857142857143
        },
        "bus0": {
            "B": 56.2,
            "C": 48.13333333333333,
            "D": 44.2,
            "E": 42.93333333333333,
            "F": 68,
            "G": 104,
            "H": 111.93333333333334,
            "I": 108.2,
            "J": 102.33333333333333,
            "K": 92.21428571428571,
            "L": 80.07142857142857,
            "A": 70.21428571428571
        },
        "bus4": {
            "K": 79.8,
            "L": 73.06666666666666,
            "A": 63,
            "B": 52.733333333333334,
            "C": 48.266666666666666,
            "D": 44.53333333333333,
            "E": 44.666666666666664,
            "F": 67.5,
            "G": 99.64285714285714,
            "H": 106.78571428571429,
            "I": 101.92857142857143,
            "J": 93.92857142857143
        }
    },
    "Obs_and_actions_busses": {
        "4": 649.0970449721722,
        "3": 159.1362669222847,
        "2": 38.39164681390432,
        "0": -144.97979351555708,
        "1": 118.41136421452629,
        "5": 249.74221233079393
    },
    "Obs_and_actions_tfls": {
        "0": 71.52128481555901,
        "2": -307.8365561227125,
        "1": -315.36136295588216
    }
} 261.9354475070236
    },
    "Obs_and_actions_tfls": {
        "0": 92.13466686128116,
        "1": -418.59261051710536,
        "2": -408.30353028534165
    }
}