{
    "Average_holding_time": 32.274881516587676,
    "Average_holding_actions": [
        629,
        65,
        76,
        23,
        20,
        0
    ],
    "Average_travel_time_passengers": 2171.10886143547,
    "Average_passenger_waiting_time": 345.28843697904665,
    "Average_passenger_in_vehicle_time": 1825.8204244564283,
    "Average_speed_busses": 0.043958333333333335,
    "Average_experienced_crowding": 86.42952868298356,
    "Average_covariation_headway": 0.29676183723138877,
    "Average_covariation_headway_stops": {
        "G": 0.2230873600661577,
        "J": 0.1911018409173139,
        "F": 0.18988708623639072,
        "B": 0.20035721705528578,
        "E": 0.1926741494137146,
        "H": 0.21602467367334555,
        "C": 0.20808892972947932,
        "K": 0.17565987930717872,
        "I": 0.192532669772276,
        "L": 0.1592185215779369,
        "D": 0.1897897476084992,
        "A": 0.18430585659298718
    },
    "Average_excess_waiting_time": {
        "G": 75.36487913401993,
        "J": 71.70939417165084,
        "F": 73.5212486472688,
        "B": 77.88958496870413,
        "E": 75.65977758163638,
        "H": 76.02058498114349,
        "C": 77.4751374822859,
        "K": 72.05468129350726,
        "I": 73.5484488074299,
        "L": 71.65260961653405,
        "D": 77.31527355630101,
        "A": 77.4772807619243
    },
    "Holding_per_stop": {
        "G": 36.40449438202247,
        "J": 37.752808988764045,
        "F": 31.022727272727273,
        "H": 39.20454545454545,
        "E": 31.704545454545453,
        "B": 27.93103448275862,
        "C": 23.181818181818183,
        "K": 38.52272727272727,
        "I": 39.54545454545455,
        "L": 44.31818181818182,
        "D": 18.96551724137931,
        "A": 18.275862068965516
    },
    "Actions_tfl_edges": {
        "FG": [
            68,
            0,
            21
        ],
        "GH": [
            71,
            2,
            16
        ],
        "JK": [
            73,
            16,
            0
        ],
        "HI": [
            74,
            14,
            0
        ],
        "CD": [
            56,
            0,
            32
        ]
    },
    "Load_per_bus_per_stop": {
        "bus4": {
            "G": 99,
            "H": 110.06666666666666,
            "I": 105.73333333333333,
            "J": 100.53333333333333,
            "K": 91.93333333333334,
            "L": 81.93333333333334,
            "A": 72.33333333333333,
            "B": 60.8,
            "C": 55.53333333333333,
            "D": 50.785714285714285,
            "E": 50.357142857142854,
            "F": 72.85714285714286
        },
        "bus5": {
            "J": 89.8,
            "K": 81.53333333333333,
            "L": 70.6,
            "A": 64.13333333333334,
            "B": 55.666666666666664,
            "C": 50.8,
            "D": 48.333333333333336,
            "E": 47.86666666666667,
            "F": 71.5,
            "G": 103.35714285714286,
            "H": 107.92857142857143,
            "I": 103.28571428571429
        },
        "bus3": {
            "F": 69.2,
            "G": 101.66666666666667,
            "H": 111.53333333333333,
            "I": 107.06666666666666,
            "J": 100.06666666666666,
            "K": 91.93333333333334,
            "L": 81.8,
            "A": 72.86666666666666,
            "B": 63.285714285714285,
            "C": 54.57142857142857,
            "D": 52.642857142857146,
            "E": 50.285714285714285
        },
        "bus0": {
            "B": 55.93333333333333,
            "C": 50.86666666666667,
            "D": 48.06666666666667,
            "E": 46.733333333333334,
            "F": 72.26666666666667,
            "G": 108.73333333333333,
            "H": 117.2,
            "I": 114.5,
            "J": 106.78571428571429,
            "K": 96.71428571428571,
            "L": 85.85714285714286,
            "A": 72.71428571428571
        },
        "bus2": {
            "E": 46.333333333333336,
            "F": 69.26666666666667,
            "G": 102.93333333333334,
            "H": 111.73333333333333,
            "I": 106.93333333333334,
            "J": 98.6,
            "K": 91.33333333333333,
            "L": 79.4,
            "A": 70.21428571428571,
            "B": 61.142857142857146,
            "C": 54.785714285714285,
            "D": 51.42857142857143
        },
        "bus1": {
            "C": 53.53333333333333,
            "D": 50.53333333333333,
            "E": 50.666666666666664,
            "F": 75.66666666666667,
            "G": 109.4,
            "H": 117.26666666666667,
            "I": 113.93333333333334,
            "J": 103.53333333333333,
            "K": 96.92857142857143,
            "L": 86.21428571428571,
            "A": 75.42857142857143,
            "B": 65
        }
    },
    "Obs_and_actions_busses": {
        "0": -126.86735185020049,
        "1": 124.06883104964197,
        "2": 47.72105917112427,
        "3": 155.28351605389952,
        "5": 231.91399327833588,
        "4": 411.1118289345423
    },
    "Obs_and_actions_tfls": {
        "2": -242.46308383526974,
        "0": 58.222068863810286,
        "1": -274.09472823978916
    }
}