{
    "Average_holding_time": 32.934472934472936,
    "Average_holding_actions": [
        616,
        73,
        88,
        33,
        23,
        0
    ],
    "Average_travel_time_passengers": 2178.6368459218083,
    "Average_passenger_waiting_time": 355.8408944365033,
    "Average_passenger_in_vehicle_time": 1822.7959514852403,
    "Average_speed_busses": 0.043875,
    "Average_experienced_crowding": 90.89126165756714,
    "Average_covariation_headway": 0.3541905322319856,
    "Average_covariation_headway_stops": {
        "I": 0.27657824271234305,
        "K": 0.261328183503106,
        "L": 0.2533259839296562,
        "F": 0.2624885748838839,
        "A": 0.2750728177204709,
        "B": 0.2960491016080074,
        "J": 0.2582455912070803,
        "G": 0.2591233290696143,
        "C": 0.27748458420955974,
        "H": 0.25997360270528724,
        "D": 0.26176886632586094,
        "E": 0.2566283070107052
    },
    "Average_excess_waiting_time": {
        "I": 90.03028811476656,
        "K": 86.6955969082519,
        "L": 82.8249533233436,
        "F": 85.64905485364545,
        "A": 85.20373568717741,
        "B": 86.81132942709928,
        "J": 88.61852714277603,
        "G": 86.41750650211355,
        "C": 85.41297118380453,
        "H": 89.68431904875928,
        "D": 86.00263092486614,
        "E": 87.41050243106815
    },
    "Holding_per_stop": {
        "I": 39.6551724137931,
        "L": 33.75,
        "A": 17.865168539325843,
        "B": 27.640449438202246,
        "K": 37.84090909090909,
        "F": 32.72727272727273,
        "J": 40.3448275862069,
        "G": 37.58620689655172,
        "C": 34.43181818181818,
        "H": 34.13793103448276,
        "D": 28.295454545454547,
        "E": 31.379310344827587
    },
    "Actions_tfl_edges": {
        "HI": [
            67,
            18,
            3
        ],
        "JK": [
            76,
            11,
            1
        ],
        "FG": [
            58,
            2,
            28
        ],
        "GH": [
            61,
            9,
            17
        ],
        "CD": [
            60,
            3,
            25
        ]
    },
    "Load_per_bus_per_stop": {
        "bus2": {
            "I": 112.53333333333333,
            "J": 107.4,
            "K": 96.4,
            "L": 83.66666666666667,
            "A": 75.66666666666667,
            "B": 64.86666666666666,
            "C": 56.46666666666667,
            "D": 52.57142857142857,
            "E": 50.714285714285715,
            "F": 76.35714285714286,
            "G": 114.14285714285714,
            "H": 126.78571428571429
        },
        "bus3": {
            "K": 90.2,
            "L": 81.06666666666666,
            "A": 70,
            "B": 59.4,
            "C": 53.13333333333333,
            "D": 49,
            "E": 49.42857142857143,
            "F": 73.42857142857143,
            "G": 110.57142857142857,
            "H": 115.92857142857143,
            "I": 111.71428571428571,
            "J": 104.35714285714286
        },
        "bus4": {
            "L": 72.2,
            "A": 64.86666666666666,
            "B": 56.46666666666667,
            "C": 51.13333333333333,
            "D": 48.8,
            "E": 47.733333333333334,
            "F": 68.6,
            "G": 101.66666666666667,
            "H": 108.78571428571429,
            "I": 105.28571428571429,
            "J": 98.21428571428571,
            "K": 88.07142857142857
        },
        "bus1": {
            "F": 77.33333333333333,
            "G": 112,
            "H": 120.93333333333334,
            "I": 117.73333333333333,
            "J": 109.73333333333333,
            "K": 97.4,
            "L": 86.46666666666667,
            "A": 74.2,
            "B": 64,
            "C": 58,
            "D": 54.857142857142854,
            "E": 55
        },
        "bus5": {
            "A": 67.46666666666667,
            "B": 56.6,
            "C": 50.333333333333336,
            "D": 45.46666666666667,
            "E": 44,
            "F": 66.6,
            "G": 99.8,
            "H": 107.2,
            "I": 103.33333333333333,
            "J": 96.14285714285714,
            "K": 88.71428571428571,
            "L": 80.07142857142857
        },
        "bus0": {
            "B": 58.733333333333334,
            "C": 51.93333333333333,
            "D": 46.733333333333334,
            "E": 45.4,
            "F": 72.73333333333333,
            "G": 111.66666666666667,
            "H": 121.53333333333333,
            "I": 117.93333333333334,
            "J": 110.33333333333333,
            "K": 98.2,
            "L": 83.78571428571429,
            "A": 73.57142857142857
        }
    },
    "Obs_and_actions_busses": {
        "3": 196.5817363536539,
        "4": 337.8201488282688,
        "5": 255.03368453887487,
        "1": 135.75681604561757,
        "0": -149.5603124472348,
        "2": 65.9914120056525
    },
    "Obs_and_actions_tfls": {
        "0": 89.64100260792034,
        "2": -284.84901077574244,
        "1": -326.6261101909055
    }
}