{
    "Average_holding_time": 33.8454288407163,
    "Average_holding_actions": [
        608,
        66,
        96,
        14,
        26,
        0
    ],
    "Average_travel_time_passengers": 2159.3207090990477,
    "Average_passenger_waiting_time": 351.38189421500886,
    "Average_passenger_in_vehicle_time": 1807.9388148840444,
    "Average_speed_busses": 0.044208333333333336,
    "Average_experienced_crowding": 87.53290670672853,
    "Average_covariation_headway": 0.3424994694412981,
    "Average_covariation_headway_stops": {
        "G": 0.2425102021045904,
        "I": 0.2606668448088876,
        "L": 0.24007710467524312,
        "J": 0.24974960981409278,
        "C": 0.2435407721654417,
        "H": 0.25539034717358683,
        "B": 0.22820082447631365,
        "K": 0.23110403150899972,
        "A": 0.2363149133974364,
        "D": 0.24976667416105916,
        "E": 0.24370707234890485,
        "F": 0.23473167202466902
    },
    "Average_excess_waiting_time": {
        "G": 80.76133218537103,
        "I": 81.60915937011282,
        "L": 76.91234884089977,
        "J": 77.94784094015057,
        "C": 77.61433409098714,
        "H": 85.36189961838909,
        "B": 75.18922133396461,
        "K": 77.65366326689144,
        "A": 78.50271303939928,
        "D": 80.49350085433457,
        "E": 82.20994579466338,
        "F": 82.48800627892246
    },
    "Holding_per_stop": {
        "J": 45.168539325842694,
        "L": 41.46067415730337,
        "I": 41.59090909090909,
        "G": 37.15909090909091,
        "C": 28.98876404494382,
        "B": 28.314606741573034,
        "K": 41.93181818181818,
        "H": 37.5,
        "A": 19.55056179775281,
        "D": 20.89887640449438,
        "E": 30.681818181818183,
        "F": 33.10344827586207
    },
    "Actions_tfl_edges": {
        "FG": [
            62,
            0,
            26
        ],
        "HI": [
            75,
            12,
            2
        ],
        "JK": [
            71,
            17,
            1
        ],
        "GH": [
            70,
            0,
            18
        ],
        "CD": [
            61,
            0,
            28
        ]
    },
    "Load_per_bus_per_stop": {
        "bus2": {
            "G": 97.73333333333333,
            "H": 105.4,
            "I": 102.46666666666667,
            "J": 95.53333333333333,
            "K": 87.13333333333334,
            "L": 78.26666666666667,
            "A": 69.6,
            "B": 59.46666666666667,
            "C": 58,
            "D": 52.42857142857143,
            "E": 51,
            "F": 73.92857142857143
        },
        "bus3": {
            "I": 108.93333333333334,
            "J": 102.8,
            "K": 95.13333333333334,
            "L": 85.53333333333333,
            "A": 73,
            "B": 63,
            "C": 55.06666666666667,
            "D": 50.333333333333336,
            "E": 48.92857142857143,
            "F": 74.5,
            "G": 113.21428571428571,
            "H": 119.07142857142857
        },
        "bus5": {
            "L": 74.73333333333333,
            "A": 64.06666666666666,
            "B": 54.666666666666664,
            "C": 47.8,
            "D": 44.266666666666666,
            "E": 44.266666666666666,
            "F": 69.6,
            "G": 104.13333333333334,
            "H": 114,
            "I": 106.35714285714286,
            "J": 99.21428571428571,
            "K": 90.71428571428571
        },
        "bus4": {
            "J": 91.93333333333334,
            "K": 84.53333333333333,
            "L": 74.93333333333334,
            "A": 66.8,
            "B": 59.2,
            "C": 54.06666666666667,
            "D": 51.06666666666667,
            "E": 48.8,
            "F": 72.06666666666666,
            "G": 101.64285714285714,
            "H": 109.28571428571429,
            "I": 106.21428571428571
        },
        "bus1": {
            "C": 54.2,
            "D": 48.8,
            "E": 46.86666666666667,
            "F": 74.26666666666667,
            "G": 112.8,
            "H": 123.53333333333333,
            "I": 119,
            "J": 109.6,
            "K": 98.26666666666667,
            "L": 87.86666666666666,
            "A": 75.13333333333334,
            "B": 65.21428571428571
        },
        "bus0": {
            "B": 54.6,
            "C": 49.46666666666667,
            "D": 45.93333333333333,
            "E": 44.93333333333333,
            "F": 68.33333333333333,
            "G": 101,
            "H": 106.33333333333333,
            "I": 99.46666666666667,
            "J": 93.53333333333333,
            "K": 87,
            "L": 77.35714285714286,
            "A": 67.14285714285714
        }
    },
    "Obs_and_actions_busses": {
        "4": 543.638566463507,
        "3": 190.65203605402942,
        "2": 41.22034039879297,
        "0": -154.9401190274786,
        "1": 121.55548740355589,
        "5": 257.50803522197805
    },
    "Obs_and_actions_tfls": {
        "0": 84.49150066364338,
        "2": -334.0426103138314,
        "1": -273.9469537242228
    }
}