{
    "Average_holding_time": 32.338403041825096,
    "Average_holding_actions": [
        617,
        70,
        72,
        11,
        15,
        0
    ],
    "Average_travel_time_passengers": 2188.967571683246,
    "Average_passenger_waiting_time": 350.71705875268145,
    "Average_passenger_in_vehicle_time": 1838.2505129305623,
    "Average_speed_busses": 0.043833333333333335,
    "Average_experienced_crowding": 87.94335343989556,
    "Average_covariation_headway": 0.3050837485325538,
    "Average_covariation_headway_stops": {
        "G": 0.20862990410703314,
        "E": 0.2103808198209171,
        "K": 0.1857964408168609,
        "L": 0.17824276033565606,
        "A": 0.19244380965156377,
        "H": 0.20687267455328215,
        "D": 0.23191276778197634,
        "F": 0.1838375508667184,
        "I": 0.21372778888802188,
        "B": 0.19768666708365779,
        "J": 0.18437287710151526,
        "C": 0.21316774771969083
    },
    "Average_excess_waiting_time": {
        "G": 75.8134557251953,
        "E": 76.08066713753459,
        "K": 77.04152050844431,
        "L": 73.56256835423068,
        "A": 73.16336054008855,
        "H": 77.18325878738477,
        "D": 82.12994666265672,
        "F": 74.63783749798989,
        "I": 79.83295931880798,
        "B": 76.50078089135127,
        "J": 78.02651890343492,
        "C": 80.40452439022312
    },
    "Holding_per_stop": {
        "E": 28.977272727272727,
        "G": 36.81818181818182,
        "L": 43.97727272727273,
        "A": 15.681818181818182,
        "K": 42.758620689655174,
        "H": 40.22727272727273,
        "D": 25.90909090909091,
        "F": 31.363636363636363,
        "I": 41.724137931034484,
        "B": 17.727272727272727,
        "J": 40,
        "C": 23.103448275862068
    },
    "Actions_tfl_edges": {
        "CD": [
            56,
            0,
            32
        ],
        "FG": [
            64,
            0,
            25
        ],
        "JK": [
            70,
            18,
            0
        ],
        "GH": [
            72,
            2,
            14
        ],
        "HI": [
            72,
            16,
            0
        ]
    },
    "Load_per_bus_per_stop": {
        "bus2": {
            "G": 98.4,
            "H": 104,
            "I": 103.2,
            "J": 98.2,
            "K": 89.2,
            "L": 79.6,
            "A": 68.46666666666667,
            "B": 58.46666666666667,
            "C": 50.857142857142854,
            "D": 46.5,
            "E": 48.07142857142857,
            "F": 71.71428571428571
        },
        "bus1": {
            "E": 48,
            "F": 68.66666666666667,
            "G": 103.8,
            "H": 112.46666666666667,
            "I": 108.53333333333333,
            "J": 102.53333333333333,
            "K": 91.46666666666667,
            "L": 81.06666666666666,
            "A": 70.21428571428571,
            "B": 61.357142857142854,
            "C": 57,
            "D": 52.857142857142854
        },
        "bus3": {
            "K": 85.8,
            "L": 75.93333333333334,
            "A": 67.53333333333333,
            "B": 57.266666666666666,
            "C": 53.6,
            "D": 49.06666666666667,
            "E": 47.142857142857146,
            "F": 71.78571428571429,
            "G": 103.57142857142857,
            "H": 111.42857142857143,
            "I": 108.78571428571429,
            "J": 102.07142857142857
        },
        "bus4": {
            "L": 72.86666666666666,
            "A": 64.53333333333333,
            "B": 56.06666666666667,
            "C": 48.6,
            "D": 46.2,
            "E": 44.333333333333336,
            "F": 68.06666666666666,
            "G": 101.07142857142857,
            "H": 107.57142857142857,
            "I": 102.42857142857143,
            "J": 94.5,
            "K": 85
        },
        "bus5": {
            "A": 77,
            "B": 65.86666666666666,
            "C": 60.333333333333336,
            "D": 56.6,
            "E": 54.53333333333333,
            "F": 84.46666666666667,
            "G": 127.53333333333333,
            "H": 136.06666666666666,
            "I": 132.57142857142858,
            "J": 123.35714285714286,
            "K": 111.07142857142857,
            "L": 98.35714285714286
        },
        "bus0": {
            "D": 49,
            "E": 47.2,
            "F": 70.8,
            "G": 104.2,
            "H": 112.66666666666667,
            "I": 109.06666666666666,
            "J": 101.26666666666667,
            "K": 92.85714285714286,
            "L": 80.71428571428571,
            "A": 71.5,
            "B": 61.785714285714285,
            "C": 56.142857142857146
        }
    },
    "Obs_and_actions_busses": {
        "0": -135.92870523541,
        "2": 41.50302442732892,
        "3": 172.01700765630574,
        "1": 126.84875892218763,
        "4": 324.2582410708588,
        "5": 258.67652906980817
    },
    "Obs_and_actions_tfls": {
        "0": 69.07399337356192,
        "2": -259.79346055125706,
        "1": -293.8571144455966
    }
}bs_and_actions_tfls": {
        "2": -414.94224388991586,
        "0": 90.66767141178408,
        "1": -329.3224582366068
    }
}