{
    "Average_holding_time": 30.878186968838527,
    "Average_holding_actions": [
        626,
        82,
        92,
        19,
        14,
        0
    ],
    "Average_travel_time_passengers": 2157.2891101329883,
    "Average_passenger_waiting_time": 346.5976701009425,
    "Average_passenger_in_vehicle_time": 1810.6914400320638,
    "Average_speed_busses": 0.044125,
    "Average_experienced_crowding": 87.12422392067214,
    "Average_covariation_headway": 0.31113807572752117,
    "Average_covariation_headway_stops": {
        "H": 0.2379275867234816,
        "I": 0.23764860005557797,
        "F": 0.2023502549600995,
        "L": 0.18659710131723142,
        "A": 0.19881136472265734,
        "C": 0.1962982889765603,
        "J": 0.19710912861128738,
        "G": 0.201839235965178,
        "B": 0.2086908213274713,
        "K": 0.1766194015824672,
        "D": 0.21409892290967886,
        "E": 0.19979957783426386
    },
    "Average_excess_waiting_time": {
        "H": 80.30081024209198,
        "I": 77.86183115781421,
        "F": 74.90022976267534,
        "L": 72.08314135019594,
        "A": 70.99670888620903,
        "C": 72.25360077757364,
        "J": 73.26473234343774,
        "G": 76.80113939174635,
        "B": 74.88729524980249,
        "K": 72.72179542666254,
        "D": 76.92032769303842,
        "E": 76.7721320731734
    },
    "Holding_per_stop": {
        "H": 35.11363636363637,
        "I": 43.146067415730336,
        "A": 23.93258426966292,
        "L": 36.13636363636363,
        "F": 32.04545454545455,
        "C": 19.8876404494382,
        "J": 34.77272727272727,
        "B": 21.136363636363637,
        "K": 37.5,
        "D": 22.15909090909091,
        "G": 32.72727272727273,
        "E": 32.04545454545455
    },
    "Actions_tfl_edges": {
        "GH": [
            75,
            0,
            14
        ],
        "HI": [
            70,
            12,
            7
        ],
        "FG": [
            64,
            0,
            24
        ],
        "CD": [
            48,
            0,
            41
        ],
        "JK": [
            69,
            19,
            0
        ]
    },
    "Load_per_bus_per_stop": {
        "bus2": {
            "H": 109.93333333333334,
            "I": 107.33333333333333,
            "J": 101.8,
            "K": 94.6,
            "L": 82.73333333333333,
            "A": 71.13333333333334,
            "B": 59.666666666666664,
            "C": 52.4,
            "D": 50,
            "E": 51.142857142857146,
            "F": 74.85714285714286,
            "G": 108.21428571428571
        },
        "bus3": {
            "I": 98.13333333333334,
            "J": 91.8,
            "K": 82.53333333333333,
            "L": 73.86666666666666,
            "A": 64.33333333333333,
            "B": 56.333333333333336,
            "C": 51.6,
            "D": 48.8,
            "E": 46.93333333333333,
            "F": 67.92857142857143,
            "G": 100.35714285714286,
            "H": 107.92857142857143
        },
        "bus1": {
            "F": 65.4,
            "G": 98.6,
            "H": 108.13333333333334,
            "I": 107.8,
            "J": 100.6,
            "K": 90.26666666666667,
            "L": 80.2,
            "A": 72.46666666666667,
            "B": 63.46666666666667,
            "C": 54.5,
            "D": 49.5,
            "E": 47.07142857142857
        },
        "bus4": {
            "L": 77.26666666666667,
            "A": 65.33333333333333,
            "B": 55.46666666666667,
            "C": 47.666666666666664,
            "D": 44.666666666666664,
            "E": 43.13333333333333,
            "F": 72.13333333333334,
            "G": 109.26666666666667,
            "H": 120.71428571428571,
            "I": 114.78571428571429,
            "J": 106.78571428571429,
            "K": 95.85714285714286
        },
        "bus5": {
            "A": 66.46666666666667,
            "B": 57.333333333333336,
            "C": 50.86666666666667,
            "D": 49.8,
            "E": 51.4,
            "F": 75.26666666666667,
            "G": 114.66666666666667,
            "H": 120.46666666666667,
            "I": 116.26666666666667,
            "J": 104.42857142857143,
            "K": 93.71428571428571,
            "L": 81
        },
        "bus0": {
            "C": 57.333333333333336,
            "D": 53.53333333333333,
            "E": 51.4,
            "F": 75.33333333333333,
            "G": 108.33333333333333,
            "H": 116.8,
            "I": 109.13333333333334,
            "J": 102.8,
            "K": 93.6,
            "L": 82.46666666666667,
            "A": 74.21428571428571,
            "B": 65.28571428571429
        }
    },
    "Obs_and_actions_busses": {
        "3": 192.6965096270676,
        "4": 343.7431080850408,
        "5": 264.1291300193739,
        "1": 126.70730124741551,
        "0": -136.46126066976427,
        "2": 54.949272344390494
    },
    "Obs_and_actions_tfls": {
        "0": 67.10601253304432,
        "2": -256.45223026902727,
        "1": -255.08580972337134
    }
}