{
    "Average_holding_time": 35.92521572387344,
    "Average_holding_actions": [
        592,
        61,
        53,
        25,
        23,
        0
    ],
    "Average_travel_time_passengers": 2216.065499973449,
    "Average_passenger_waiting_time": 362.2310049669024,
    "Average_passenger_in_vehicle_time": 1853.834495006575,
    "Average_speed_busses": 0.043458333333333335,
    "Average_experienced_crowding": 91.84459739938443,
    "Average_covariation_headway": 0.3346892438880882,
    "Average_covariation_headway_stops": {
        "H": 0.29396401539603595,
        "G": 0.26577980225624553,
        "I": 0.27930355781992855,
        "L": 0.22200940048338788,
        "D": 0.25623289335816923,
        "J": 0.25140053536278323,
        "A": 0.22671486415129663,
        "K": 0.2252690315289372,
        "E": 0.24127943445387826,
        "B": 0.2546648518917684,
        "F": 0.2428592195514476,
        "C": 0.22951290966524804
    },
    "Average_excess_waiting_time": {
        "H": 94.23532173952185,
        "G": 91.84476932316443,
        "I": 92.63414491914335,
        "L": 81.78883489299119,
        "D": 87.84961752178765,
        "J": 85.5195150400512,
        "A": 80.35843497514372,
        "K": 84.16287774758217,
        "E": 87.38897422332911,
        "B": 87.51812241520764,
        "F": 89.7411815736462,
        "C": 85.67676358095497
    },
    "Holding_per_stop": {
        "H": 42.06896551724138,
        "J": 42.758620689655174,
        "G": 38.02325581395349,
        "I": 44.827586206896555,
        "L": 45.51724137931034,
        "A": 23.522727272727273,
        "D": 25.17241379310345,
        "K": 46.206896551724135,
        "E": 32.758620689655174,
        "B": 32.06896551724138,
        "F": 34.18604651162791,
        "C": 24.137931034482758
    },
    "Actions_tfl_edges": {
        "CD": [
            56,
            0,
            32
        ],
        "FG": [
            61,
            0,
            26
        ],
        "GH": [
            68,
            10,
            9
        ],
        "HI": [
            68,
            18,
            1
        ],
        "JK": [
            71,
            16,
            0
        ]
    },
    "Load_per_bus_per_stop": {
        "bus2": {
            "H": 107.06666666666666,
            "I": 104.8,
            "J": 97.93333333333334,
            "K": 90.33333333333333,
            "L": 78.73333333333333,
            "A": 69.2,
            "B": 56.07142857142857,
            "C": 52.214285714285715,
            "D": 50.142857142857146,
            "E": 46.857142857142854,
            "F": 71.57142857142857,
            "G": 106.85714285714286
        },
        "bus1": {
            "G": 114.8,
            "H": 126.93333333333334,
            "I": 121.53333333333333,
            "J": 115.73333333333333,
            "K": 105.6,
            "L": 94.07142857142857,
            "A": 79.64285714285714,
            "B": 67.64285714285714,
            "C": 58.142857142857146,
            "D": 51.785714285714285,
            "E": 51.357142857142854,
            "F": 80.21428571428571
        },
        "bus4": {
            "L": 71.4,
            "A": 60.86666666666667,
            "B": 51.333333333333336,
            "C": 45.46666666666667,
            "D": 40.733333333333334,
            "E": 39.266666666666666,
            "F": 61.214285714285715,
            "G": 95.21428571428571,
            "H": 103.85714285714286,
            "I": 100.92857142857143,
            "J": 95.21428571428571,
            "K": 85.78571428571429
        },
        "bus0": {
            "D": 51,
            "E": 49.8,
            "F": 72.8,
            "G": 108.86666666666666,
            "H": 115.06666666666666,
            "I": 110.86666666666666,
            "J": 101.93333333333334,
            "K": 91.5,
            "L": 79.5,
            "A": 71.28571428571429,
            "B": 63.642857142857146,
            "C": 58.142857142857146
        },
        "bus3": {
            "J": 105,
            "K": 92.53333333333333,
            "L": 81.6,
            "A": 70,
            "B": 60.333333333333336,
            "C": 54.733333333333334,
            "D": 49.785714285714285,
            "E": 49.857142857142854,
            "F": 75.07142857142857,
            "G": 116,
            "H": 124.57142857142857,
            "I": 122.14285714285714
        },
        "bus5": {
            "A": 69.4,
            "B": 60.8,
            "C": 54.46666666666667,
            "D": 53.86666666666667,
            "E": 53.86666666666667,
            "F": 81.66666666666667,
            "G": 115.53333333333333,
            "H": 121.21428571428571,
            "I": 115.78571428571429,
            "J": 109.21428571428571,
            "K": 97.21428571428571,
            "L": 85.14285714285714
        }
    },
    "Obs_and_actions_busses": {
        "0": -163.68522131807813,
        "3": 180.90108055797376,
        "1": 129.74014009050188,
        "5": 244.907117698338,
        "2": 39.9645399292425,
        "4": 444.1586726248997
    },
    "Obs_and_actions_tfls": {
        "0": 86.4874079552851,
        "2": -280.5020342678852,
        "1": -345.5447020479899
    }
}": -376.23092719537465
    }
}