{
    "Average_holding_time": 35.787965616045845,
    "Average_holding_actions": [
        570,
        77,
        84,
        24,
        16,
        0
    ],
    "Average_travel_time_passengers": 2199.4572334092954,
    "Average_passenger_waiting_time": 365.99203474994584,
    "Average_passenger_in_vehicle_time": 1833.4651986593494,
    "Average_speed_busses": 0.043625,
    "Average_experienced_crowding": 90.840629437955,
    "Average_covariation_headway": 0.3696588073948888,
    "Average_covariation_headway_stops": {
        "H": 0.3177516056339245,
        "I": 0.3217171312817817,
        "G": 0.2769127304340141,
        "L": 0.24009086608256197,
        "B": 0.25791233228343646,
        "C": 0.2908760119791343,
        "J": 0.2824155464910638,
        "A": 0.21588106540019902,
        "K": 0.24687697025947547,
        "D": 0.2730103877660024,
        "E": 0.2660101636738405,
        "F": 0.24764961041936664
    },
    "Average_excess_waiting_time": {
        "H": 98.92642304261625,
        "I": 97.08200051675351,
        "G": 93.02349623117516,
        "L": 83.45379366236182,
        "B": 86.27697598130891,
        "C": 92.42925400253887,
        "J": 90.65840876468434,
        "A": 82.66369099740587,
        "K": 86.61991124635153,
        "D": 90.74190960550055,
        "E": 91.23413391700876,
        "F": 89.94200152423338
    },
    "Holding_per_stop": {
        "I": 39.88636363636363,
        "H": 36.206896551724135,
        "L": 47.04545454545455,
        "G": 39.310344827586206,
        "B": 23.103448275862068,
        "C": 29.65909090909091,
        "J": 46.02272727272727,
        "A": 21.03448275862069,
        "K": 48.62068965517241,
        "D": 24.82758620689655,
        "E": 35.51724137931034,
        "F": 38.02325581395349
    },
    "Actions_tfl_edges": {
        "FG": [
            67,
            0,
            20
        ],
        "GH": [
            70,
            0,
            18
        ],
        "HI": [
            72,
            12,
            4
        ],
        "CD": [
            60,
            0,
            27
        ],
        "JK": [
            69,
            16,
            2
        ]
    },
    "Load_per_bus_per_stop": {
        "bus3": {
            "H": 106.6,
            "I": 103.8,
            "J": 97.8,
            "K": 86.86666666666666,
            "L": 79.53333333333333,
            "A": 70.66666666666667,
            "B": 61.642857142857146,
            "C": 55.857142857142854,
            "D": 50,
            "E": 48.214285714285715,
            "F": 69.42857142857143,
            "G": 103.5
        },
        "bus4": {
            "I": 109,
            "J": 101.46666666666667,
            "K": 91.13333333333334,
            "L": 80.6,
            "A": 70.86666666666666,
            "B": 59.13333333333333,
            "C": 51.4,
            "D": 47.5,
            "E": 45.5,
            "F": 72.5,
            "G": 112.21428571428571,
            "H": 122.78571428571429
        },
        "bus2": {
            "G": 121.46666666666667,
            "H": 134.33333333333334,
            "I": 128.93333333333334,
            "J": 119.93333333333334,
            "K": 107.6,
            "L": 93.46666666666667,
            "A": 80.28571428571429,
            "B": 65.78571428571429,
            "C": 59.285714285714285,
            "D": 55.57142857142857,
            "E": 56.357142857142854,
            "F": 87.14285714285714
        },
        "bus5": {
            "L": 65.66666666666667,
            "A": 58.86666666666667,
            "B": 50.86666666666667,
            "C": 46.266666666666666,
            "D": 43.13333333333333,
            "E": 43.06666666666667,
            "F": 61.285714285714285,
            "G": 87.21428571428571,
            "H": 95.42857142857143,
            "I": 91.71428571428571,
            "J": 87.85714285714286,
            "K": 79.35714285714286
        },
        "bus0": {
            "B": 55.13333333333333,
            "C": 50.13333333333333,
            "D": 47.46666666666667,
            "E": 45.733333333333334,
            "F": 71.2,
            "G": 98.33333333333333,
            "H": 108.64285714285714,
            "I": 105.71428571428571,
            "J": 99.42857142857143,
            "K": 90.64285714285714,
            "L": 80.64285714285714,
            "A": 70.14285714285714
        },
        "bus1": {
            "C": 53,
            "D": 51.266666666666666,
            "E": 49.666666666666664,
            "F": 74.73333333333333,
            "G": 110.8,
            "H": 120.13333333333334,
            "I": 114.73333333333333,
            "J": 105.73333333333333,
            "K": 95.92857142857143,
            "L": 84.35714285714286,
            "A": 72.35714285714286,
            "B": 60.5
        }
    },
    "Obs_and_actions_busses": {
        "2": 44.3139490765952,
        "3": 211.81375884111304,
        "1": 137.8689807619673,
        "4": 524.2070467915582,
        "0": -185.73201268326164,
        "5": 267.18726878503287
    },
    "Obs_and_actions_tfls": {
        "0": 97.6903317802585,
        "2": -402.1488742290784,
        "1": -322.82734526822617
    }
}