{
    "Average_holding_time": 76.95786228160328,
    "Average_holding_actions": [
        0,
        43,
        377,
        0,
        20,
        0
    ],
    "Average_travel_time_passengers": 2388.1228847315983,
    "Average_passenger_waiting_time": 366.92248938605803,
    "Average_passenger_in_vehicle_time": 2021.2003953454746,
    "Average_speed_busses": 0.04054166666666666,
    "Average_experienced_crowding": 67.8353845592223,
    "Average_covariation_headway": 0.11123790504805836,
    "Average_covariation_headway_stops": {
        "D": 0.10425416563596797,
        "F": 0.09096817443978839,
        "G": 0.10220746533547981,
        "K": 0.1199603192913444,
        "L": 0.12430454751574106,
        "A": 0.1282460561414613,
        "B": 0.09297812721826937,
        "H": 0.06604679248089837,
        "E": 0.0606652357546036,
        "I": 0.05624039624194117,
        "C": 0.0767093595618712,
        "J": 0.08198266208444123
    },
    "Average_excess_waiting_time": {
        "D": 107.0154829128553,
        "F": 105.87601939972649,
        "G": 104.43479875690798,
        "K": 110.5584986392467,
        "L": 108.38232274714204,
        "A": 106.54058088936318,
        "B": 106.00998537826757,
        "H": 104.58835590875987,
        "E": 106.52811801387219,
        "I": 106.51288302303868,
        "C": 107.11445830885583,
        "J": 110.06727137179723
    },
    "Holding_per_stop": {
        "A": 75.73170731707317,
        "G": 77.92682926829268,
        "L": 77.77777777777777,
        "F": 80,
        "D": 78.88888888888889,
        "K": 76.66666666666667,
        "H": 77.77777777777777,
        "B": 75.55555555555556,
        "E": 76.66666666666667,
        "I": 73.33333333333333,
        "C": 75.92592592592592,
        "J": 77.25
    },
    "Actions_tfl_edges": {},
    "Load_per_bus_per_stop": {
        "bus0": {
            "D": 62.142857142857146,
            "E": 63.57142857142857,
            "F": 66.21428571428571,
            "G": 67,
            "H": 68.71428571428571,
            "I": 68.5,
            "J": 71.38461538461539,
            "K": 71.6923076923077,
            "L": 70.61538461538461,
            "A": 67.15384615384616,
            "B": 65.76923076923077,
            "C": 66.38461538461539
        },
        "bus1": {
            "F": 66.42857142857143,
            "G": 66.71428571428571,
            "H": 66.28571428571429,
            "I": 65.85714285714286,
            "J": 66.5,
            "K": 67.5,
            "L": 67.76923076923077,
            "A": 69.53846153846153,
            "B": 71.46153846153847,
            "C": 70.38461538461539,
            "D": 71.3076923076923,
            "E": 69.23076923076923
        },
        "bus2": {
            "G": 67.35714285714286,
            "H": 67.28571428571429,
            "I": 66,
            "J": 66.92857142857143,
            "K": 69.21428571428571,
            "L": 69.64285714285714,
            "A": 70.71428571428571,
            "B": 71.61538461538461,
            "C": 72.84615384615384,
            "D": 72.92307692307692,
            "E": 69.6923076923077,
            "F": 71.23076923076923
        },
        "bus3": {
            "K": 60.07142857142857,
            "L": 61.785714285714285,
            "A": 62.642857142857146,
            "B": 64.85714285714286,
            "C": 67.78571428571429,
            "D": 69.61538461538461,
            "E": 71.6923076923077,
            "F": 72.53846153846153,
            "G": 72.07692307692308,
            "H": 69.84615384615384,
            "I": 66.84615384615384,
            "J": 66.3076923076923
        },
        "bus4": {
            "L": 60.857142857142854,
            "A": 60.5,
            "B": 59.357142857142854,
            "C": 58.642857142857146,
            "D": 60.714285714285715,
            "E": 59.214285714285715,
            "F": 61.38461538461539,
            "G": 63,
            "H": 65.61538461538461,
            "I": 64.53846153846153,
            "J": 65.53846153846153,
            "K": 65.6923076923077
        },
        "bus5": {
            "A": 65.78571428571429,
            "B": 67.42857142857143,
            "C": 66.07142857142857,
            "D": 65,
            "E": 65.28571428571429,
            "F": 66.21428571428571,
            "G": 69.35714285714286,
            "H": 69.23076923076923,
            "I": 69.61538461538461,
            "J": 71.3076923076923,
            "K": 68.46153846153847,
            "L": 71.46153846153847
        }
    },
    "Obs_and_actions_busses": {
        "5": 336.25139812319503,
        "3": 29.090164612480688,
        "1": -251.13890216409072,
        "2": -44.954907162015864
    },
    "Obs_and_actions_tfls": {}
}