{
    "Average_holding_time": 72.8048780487805,
    "Average_holding_actions": [
        0,
        135,
        394,
        0,
        50,
        0
    ],
    "Average_travel_time_passengers": 2345.903536411814,
    "Average_passenger_waiting_time": 363.52378952191395,
    "Average_passenger_in_vehicle_time": 1982.3797468898017,
    "Average_speed_busses": 0.041,
    "Average_experienced_crowding": 65.41226083813909,
    "Average_covariation_headway": 0.13637611397313867,
    "Average_covariation_headway_stops": {
        "B": 0.12561258109664306,
        "E": 0.11202498450884904,
        "H": 0.11593594799887379,
        "I": 0.12341961982921487,
        "K": 0.10579049727337744,
        "A": 0.10965983161165267,
        "C": 0.09383831196004208,
        "J": 0.09297355423488991,
        "F": 0.09063138634473059,
        "L": 0.07389234239284041,
        "D": 0.07909859206394548,
        "G": 0.08671413489010459
    },
    "Average_excess_waiting_time": {
        "B": 101.135708965314,
        "E": 101.49521968617012,
        "H": 104.85864715294167,
        "I": 102.38952386010243,
        "K": 101.29714654094835,
        "A": 101.29602361154463,
        "C": 100.3133326541087,
        "J": 102.17438243075412,
        "F": 102.61027086869768,
        "L": 101.41256101861484,
        "D": 101.50832538169004,
        "G": 104.49843216350769
    },
    "Holding_per_stop": {
        "B": 70.48192771084338,
        "I": 73.17073170731707,
        "E": 73.53658536585365,
        "K": 72.8048780487805,
        "H": 73.53658536585365,
        "A": 73.53658536585365,
        "C": 76.09756097560975,
        "J": 72.4390243902439,
        "F": 70.2439024390244,
        "L": 72.8048780487805,
        "D": 72.8048780487805,
        "G": 72.22222222222223
    },
    "Actions_tfl_edges": {},
    "Load_per_bus_per_stop": {
        "bus0": {
            "B": 61.642857142857146,
            "C": 61.714285714285715,
            "D": 63.92857142857143,
            "E": 65.35714285714286,
            "F": 66.28571428571429,
            "G": 67.64285714285714,
            "H": 69.92857142857143,
            "I": 69.64285714285714,
            "J": 70.14285714285714,
            "K": 69.07142857142857,
            "L": 69.38461538461539,
            "A": 66.6923076923077
        },
        "bus1": {
            "E": 62.42857142857143,
            "F": 59.285714285714285,
            "G": 58.357142857142854,
            "H": 59.642857142857146,
            "I": 59.857142857142854,
            "J": 62.57142857142857,
            "K": 64.28571428571429,
            "L": 64.78571428571429,
            "A": 65.78571428571429,
            "B": 68.92307692307692,
            "C": 68.23076923076923,
            "D": 68
        },
        "bus2": {
            "H": 64.21428571428571,
            "I": 65.5,
            "J": 63.42857142857143,
            "K": 64.21428571428571,
            "L": 64.5,
            "A": 64.78571428571429,
            "B": 64,
            "C": 64.84615384615384,
            "D": 64.38461538461539,
            "E": 67.92307692307692,
            "F": 68.3076923076923,
            "G": 68.92307692307692
        },
        "bus3": {
            "I": 62,
            "J": 63.142857142857146,
            "K": 65.07142857142857,
            "L": 64,
            "A": 64.07142857142857,
            "B": 64.07142857142857,
            "C": 67.21428571428571,
            "D": 67.21428571428571,
            "E": 65.85714285714286,
            "F": 67.6923076923077,
            "G": 67,
            "H": 65.6923076923077
        },
        "bus4": {
            "K": 60.214285714285715,
            "L": 61.214285714285715,
            "A": 61.5,
            "B": 62.857142857142854,
            "C": 62.785714285714285,
            "D": 62.857142857142854,
            "E": 64.64285714285714,
            "F": 67.5,
            "G": 66.07142857142857,
            "H": 65.23076923076923,
            "I": 64.46153846153847,
            "J": 62.92307692307692
        },
        "bus5": {
            "A": 59.42857142857143,
            "B": 60.07142857142857,
            "C": 59.57142857142857,
            "D": 59.92857142857143,
            "E": 63.785714285714285,
            "F": 64.92857142857143,
            "G": 64.64285714285714,
            "H": 63.785714285714285,
            "I": 62.46153846153846,
            "J": 62.76923076923077,
            "K": 63.61538461538461,
            "L": 64.3076923076923
        }
    },
    "Obs_and_actions_busses": {
        "1": -159.04610042919455,
        "2": -42.22335025342645,
        "3": 46.35056625178906,
        "5": 163.55477686222864
    },
    "Obs_and_actions_tfls": {}
}