{
    "Average_holding_time": 77.74691358024691,
    "Average_holding_actions": [
        0,
        46,
        361,
        0,
        28,
        0
    ],
    "Average_travel_time_passengers": 2382.8135157523584,
    "Average_passenger_waiting_time": 366.06032903812127,
    "Average_passenger_in_vehicle_time": 2016.7531867141595,
    "Average_speed_busses": 0.0405,
    "Average_experienced_crowding": 66.7880955708575,
    "Average_covariation_headway": 0.1060824192243276,
    "Average_covariation_headway_stops": {
        "D": 0.10661000697642968,
        "E": 0.11138894416780004,
        "I": 0.1271609702615536,
        "K": 0.11228003816803622,
        "L": 0.11672780395054581,
        "A": 0.12268101951403665,
        "F": 0.06445649102419912,
        "B": 0.08905344036680667,
        "J": 0.09300355026292952,
        "G": 0.06117781031139975,
        "C": 0.07006925666231528,
        "H": 0.09062410392349173
    },
    "Average_excess_waiting_time": {
        "D": 107.21430370986235,
        "E": 105.43133024948042,
        "I": 111.13227805182856,
        "K": 109.6454293829143,
        "L": 107.52683465676779,
        "A": 105.80867833185857,
        "F": 104.3395804964772,
        "B": 105.95020081419295,
        "J": 110.75602330968701,
        "G": 106.25969403659167,
        "C": 107.10665249178254,
        "H": 110.46338521286458
    },
    "Holding_per_stop": {
        "E": 79.02439024390245,
        "A": 77.5609756097561,
        "L": 77.77777777777777,
        "D": 78.88888888888889,
        "I": 77.77777777777777,
        "K": 75.92592592592592,
        "F": 77.03703703703704,
        "B": 78.88888888888889,
        "J": 76.125,
        "G": 78.51851851851852,
        "C": 78.14814814814815,
        "H": 77.25
    },
    "Actions_tfl_edges": {},
    "Load_per_bus_per_stop": {
        "bus0": {
            "D": 62,
            "E": 63.5,
            "F": 64.92857142857143,
            "G": 67,
            "H": 69,
            "I": 66.71428571428571,
            "J": 66,
            "K": 66.15384615384616,
            "L": 67.61538461538461,
            "A": 67.15384615384616,
            "B": 65,
            "C": 65
        },
        "bus1": {
            "E": 64.42857142857143,
            "F": 65.78571428571429,
            "G": 67.71428571428571,
            "H": 68.5,
            "I": 67.35714285714286,
            "J": 67.85714285714286,
            "K": 67.14285714285714,
            "L": 66,
            "A": 67.15384615384616,
            "B": 68,
            "C": 68.84615384615384,
            "D": 68.15384615384616
        },
        "bus2": {
            "I": 65.28571428571429,
            "J": 66.64285714285714,
            "K": 67.28571428571429,
            "L": 67.71428571428571,
            "A": 68.14285714285714,
            "B": 68.3076923076923,
            "C": 69.76923076923077,
            "D": 69.15384615384616,
            "E": 67.38461538461539,
            "F": 67.6923076923077,
            "G": 68.84615384615384,
            "H": 68.46153846153847
        },
        "bus3": {
            "K": 64.78571428571429,
            "L": 64,
            "A": 64.42857142857143,
            "B": 66.14285714285714,
            "C": 65.21428571428571,
            "D": 64.6923076923077,
            "E": 67.38461538461539,
            "F": 68.76923076923077,
            "G": 70.92307692307692,
            "H": 70.84615384615384,
            "I": 70.23076923076923,
            "J": 69.84615384615384
        },
        "bus4": {
            "L": 58,
            "A": 60.42857142857143,
            "B": 62.214285714285715,
            "C": 63.92857142857143,
            "D": 62.92857142857143,
            "E": 62.57142857142857,
            "F": 60.92307692307692,
            "G": 62.38461538461539,
            "H": 62.69230769230769,
            "I": 60.23076923076923,
            "J": 61,
            "K": 59.76923076923077
        },
        "bus5": {
            "A": 63.285714285714285,
            "B": 65.5,
            "C": 67.71428571428571,
            "D": 68.78571428571429,
            "E": 69.64285714285714,
            "F": 68.85714285714286,
            "G": 67.28571428571429,
            "H": 64.07692307692308,
            "I": 63.69230769230769,
            "J": 63.92307692307692,
            "K": 64.61538461538461,
            "L": 65
        }
    },
    "Obs_and_actions_busses": {
        "5": 257.8837957520163,
        "2": -43.199863864085785,
        "1": -255.5226259564187,
        "3": 28.178764244729816
    },
    "Obs_and_actions_tfls": {}
}actions_tfls": {}
}