{
    "Average_holding_time": 76.54320987654322,
    "Average_holding_actions": [
        0,
        52,
        390,
        0,
        29,
        0
    ],
    "Average_travel_time_passengers": 2380.1845712272566,
    "Average_passenger_waiting_time": 367.18328107206264,
    "Average_passenger_in_vehicle_time": 2013.0012901551163,
    "Average_speed_busses": 0.0405,
    "Average_experienced_crowding": 67.7108608882325,
    "Average_covariation_headway": 0.113753941355243,
    "Average_covariation_headway_stops": {
        "C": 0.10587386571449785,
        "D": 0.11281190557294846,
        "E": 0.11737869796815113,
        "I": 0.12565187282625706,
        "K": 0.11104539412192735,
        "A": 0.10435045633421286,
        "F": 0.08346935538270585,
        "B": 0.07805313640416552,
        "L": 0.08014989335775781,
        "J": 0.08643342170489682,
        "G": 0.0774827067333505,
        "H": 0.09653053553519052
    },
    "Average_excess_waiting_time": {
        "C": 107.26993481878151,
        "D": 105.6574763271525,
        "E": 103.83010496936112,
        "I": 108.92434791026011,
        "K": 107.9641818495927,
        "A": 107.44703242001731,
        "F": 103.54375024210606,
        "B": 108.31424958495597,
        "L": 107.77702210796582,
        "J": 108.23977674089161,
        "G": 105.58692317151963,
        "H": 109.21923064207868
    },
    "Holding_per_stop": {
        "E": 75,
        "A": 75.55555555555556,
        "K": 77.03703703703704,
        "D": 77.03703703703704,
        "I": 77.03703703703704,
        "C": 76.66666666666667,
        "F": 77.1951219512195,
        "B": 75,
        "L": 76.66666666666667,
        "J": 78.88888888888889,
        "G": 77.4074074074074,
        "H": 75
    },
    "Actions_tfl_edges": {},
    "Load_per_bus_per_stop": {
        "bus0": {
            "C": 63.214285714285715,
            "D": 63.142857142857146,
            "E": 65.21428571428571,
            "F": 66.57142857142857,
            "G": 68.5,
            "H": 68.64285714285714,
            "I": 70.23076923076923,
            "J": 70.6923076923077,
            "K": 69.53846153846153,
            "L": 68.07692307692308,
            "A": 68.3076923076923,
            "B": 66.61538461538461
        },
        "bus1": {
            "D": 65.5,
            "E": 65.78571428571429,
            "F": 66.21428571428571,
            "G": 66.5,
            "H": 65.92857142857143,
            "I": 68.28571428571429,
            "J": 66.78571428571429,
            "K": 68.15384615384616,
            "L": 71.23076923076923,
            "A": 73.15384615384616,
            "B": 72.23076923076923,
            "C": 70.3076923076923
        },
        "bus2": {
            "E": 62.642857142857146,
            "F": 65.5,
            "G": 67.21428571428571,
            "H": 67.42857142857143,
            "I": 69.42857142857143,
            "J": 66.35714285714286,
            "K": 66.35714285714286,
            "L": 66,
            "A": 66.3076923076923,
            "B": 66.3076923076923,
            "C": 66.38461538461539,
            "D": 66.07692307692308
        },
        "bus3": {
            "I": 62.07142857142857,
            "J": 62.07142857142857,
            "K": 63.92857142857143,
            "L": 65.14285714285714,
            "A": 67,
            "B": 69.07142857142857,
            "C": 71.3076923076923,
            "D": 69.46153846153847,
            "E": 68.38461538461539,
            "F": 69.46153846153847,
            "G": 68.84615384615384,
            "H": 67.23076923076923
        },
        "bus4": {
            "K": 64.5,
            "L": 66.64285714285714,
            "A": 67.14285714285714,
            "B": 66.35714285714286,
            "C": 66.71428571428571,
            "D": 66.71428571428571,
            "E": 63.07692307692308,
            "F": 63.76923076923077,
            "G": 66.53846153846153,
            "H": 68.92307692307692,
            "I": 66.07692307692308,
            "J": 67.84615384615384
        },
        "bus5": {
            "A": 61.285714285714285,
            "B": 64.35714285714286,
            "C": 64.5,
            "D": 67.07142857142857,
            "E": 67.71428571428571,
            "F": 69.21428571428571,
            "G": 69.38461538461539,
            "H": 70.07692307692308,
            "I": 69.23076923076923,
            "J": 68.53846153846153,
            "K": 69.15384615384616,
            "L": 65.3076923076923
        }
    },
    "Obs_and_actions_busses": {
        "3": 34.70682820370496,
        "2": -43.68025404479441,
        "1": -218.57225769635212,
        "5": 204.99563506208332
    },
    "Obs_and_actions_tfls": {}
}d_actions_tfls": {}
}