{
    "Average_holding_time": 74.6775844421699,
    "Average_holding_actions": [
        0,
        58,
        429,
        0,
        23,
        0
    ],
    "Average_travel_time_passengers": 2354.4221288010303,
    "Average_passenger_waiting_time": 365.3348635749229,
    "Average_passenger_in_vehicle_time": 1989.0872652260064,
    "Average_speed_busses": 0.04070833333333333,
    "Average_experienced_crowding": 66.25263205312876,
    "Average_covariation_headway": 0.10884585961585157,
    "Average_covariation_headway_stops": {
        "C": 0.0998435860838073,
        "E": 0.09892443904198837,
        "F": 0.10828971226243742,
        "G": 0.11704040431595628,
        "J": 0.10283236069809323,
        "L": 0.094815300538612,
        "A": 0.06287386291284795,
        "H": 0.08427416178110533,
        "K": 0.06144715771220036,
        "D": 0.06421247492856477,
        "B": 0.0575198506248116,
        "I": 0.07548166099175001
    },
    "Average_excess_waiting_time": {
        "C": 104.93392904072323,
        "E": 105.12657160207192,
        "F": 103.4958039057712,
        "G": 102.0576152214195,
        "J": 103.12547714189492,
        "L": 102.1077182727546,
        "A": 102.59777130464386,
        "H": 101.97137858232549,
        "K": 103.14582243133219,
        "D": 105.41904932573067,
        "B": 104.90005907211543,
        "I": 103.80337785273178
    },
    "Holding_per_stop": {
        "L": 74.63414634146342,
        "G": 74.63414634146342,
        "F": 77.1951219512195,
        "E": 75.92592592592592,
        "J": 75.36585365853658,
        "C": 73.70370370370371,
        "A": 75.55555555555556,
        "H": 73.53658536585365,
        "K": 74.07407407407408,
        "D": 72.96296296296296,
        "B": 72.96296296296296,
        "I": 75.55555555555556
    },
    "Actions_tfl_edges": {},
    "Load_per_bus_per_stop": {
        "bus0": {
            "C": 59.714285714285715,
            "D": 63,
            "E": 64.42857142857143,
            "F": 66,
            "G": 66.07142857142857,
            "H": 67.57142857142857,
            "I": 67.14285714285714,
            "J": 65.53846153846153,
            "K": 64.38461538461539,
            "L": 63,
            "A": 63.53846153846154,
            "B": 64.53846153846153
        },
        "bus1": {
            "E": 62.285714285714285,
            "F": 61.42857142857143,
            "G": 60,
            "H": 62.57142857142857,
            "I": 64.42857142857143,
            "J": 65.14285714285714,
            "K": 64.85714285714286,
            "L": 64.46153846153847,
            "A": 64.23076923076923,
            "B": 64.07692307692308,
            "C": 64.38461538461539,
            "D": 66.6923076923077
        },
        "bus2": {
            "F": 62.92857142857143,
            "G": 64.78571428571429,
            "H": 62.785714285714285,
            "I": 62.785714285714285,
            "J": 64.78571428571429,
            "K": 66.42857142857143,
            "L": 67.71428571428571,
            "A": 66.64285714285714,
            "B": 68.46153846153847,
            "C": 68.3076923076923,
            "D": 68.15384615384616,
            "E": 67.6923076923077
        },
        "bus3": {
            "G": 62.285714285714285,
            "H": 64.85714285714286,
            "I": 65.21428571428571,
            "J": 66.14285714285714,
            "K": 66.07142857142857,
            "L": 64,
            "A": 64.92857142857143,
            "B": 64.35714285714286,
            "C": 63.642857142857146,
            "D": 66.92307692307692,
            "E": 67.15384615384616,
            "F": 67.92307692307692
        },
        "bus4": {
            "J": 63.214285714285715,
            "K": 64.07142857142857,
            "L": 65.42857142857143,
            "A": 65.78571428571429,
            "B": 68.85714285714286,
            "C": 68.5,
            "D": 68.42857142857143,
            "E": 66.14285714285714,
            "F": 67.15384615384616,
            "G": 66.6923076923077,
            "H": 66.61538461538461,
            "I": 66.3076923076923
        },
        "bus5": {
            "L": 62.285714285714285,
            "A": 62.357142857142854,
            "B": 63.5,
            "C": 65.35714285714286,
            "D": 65.35714285714286,
            "E": 65.78571428571429,
            "F": 64.21428571428571,
            "G": 67,
            "H": 70.3076923076923,
            "I": 72.3076923076923,
            "J": 71.53846153846153,
            "K": 69.84615384615384
        }
    },
    "Obs_and_actions_busses": {
        "5": 186.27544176351333,
        "3": 36.78009359299513,
        "2": -38.96159353665165,
        "1": -180.35570363862834
    },
    "Obs_and_actions_tfls": {}
}