{
    "Average_holding_time": 76.38888888888889,
    "Average_holding_actions": [
        0,
        51,
        387,
        0,
        24,
        0
    ],
    "Average_travel_time_passengers": 2380.8304497712215,
    "Average_passenger_waiting_time": 365.7580542402957,
    "Average_passenger_in_vehicle_time": 2015.0723955308335,
    "Average_speed_busses": 0.0405,
    "Average_experienced_crowding": 67.83244473953006,
    "Average_covariation_headway": 0.10350275287981828,
    "Average_covariation_headway_stops": {
        "B": 0.11087939369793097,
        "E": 0.09858684747632118,
        "G": 0.09327745149155416,
        "J": 0.10203465408158434,
        "K": 0.10853982067490614,
        "A": 0.09299365400606206,
        "L": 0.06792929760310823,
        "H": 0.06434264264596477,
        "C": 0.08446544215601949,
        "F": 0.057851338911251354,
        "I": 0.05906939390708888,
        "D": 0.0668715354373417
    },
    "Average_excess_waiting_time": {
        "B": 104.1253206688769,
        "E": 105.54550010944479,
        "G": 104.85971993005336,
        "J": 108.02815489913257,
        "K": 106.07520033003857,
        "A": 105.23283639466507,
        "L": 105.75254260536457,
        "H": 105.59247802801866,
        "C": 104.40847583614652,
        "F": 105.48991917985995,
        "I": 107.73988677596878,
        "D": 105.87431161758855
    },
    "Holding_per_stop": {
        "K": 75.92592592592592,
        "G": 75.18518518518519,
        "B": 75.36585365853658,
        "J": 76.66666666666667,
        "A": 77.77777777777777,
        "E": 77.03703703703704,
        "L": 77.03703703703704,
        "H": 75.18518518518519,
        "C": 77.77777777777777,
        "F": 76.29629629629629,
        "D": 77.03703703703704,
        "I": 75.375
    },
    "Actions_tfl_edges": {},
    "Load_per_bus_per_stop": {
        "bus0": {
            "B": 59.42857142857143,
            "C": 62.214285714285715,
            "D": 62.57142857142857,
            "E": 63.285714285714285,
            "F": 63.642857142857146,
            "G": 65,
            "H": 66.57142857142857,
            "I": 65.46153846153847,
            "J": 65.84615384615384,
            "K": 67.84615384615384,
            "L": 67.15384615384616,
            "A": 66.38461538461539
        },
        "bus1": {
            "E": 65.57142857142857,
            "F": 65.71428571428571,
            "G": 65.57142857142857,
            "H": 65,
            "I": 66.21428571428571,
            "J": 68.42857142857143,
            "K": 70.07142857142857,
            "L": 73.23076923076923,
            "A": 72.6923076923077,
            "B": 71.84615384615384,
            "C": 70.61538461538461,
            "D": 69.46153846153847
        },
        "bus2": {
            "G": 61.857142857142854,
            "H": 63.5,
            "I": 65.5,
            "J": 67.57142857142857,
            "K": 68.21428571428571,
            "L": 69.57142857142857,
            "A": 68.76923076923077,
            "B": 69.3076923076923,
            "C": 68.92307692307692,
            "D": 66.61538461538461,
            "E": 65.84615384615384,
            "F": 67.46153846153847
        },
        "bus3": {
            "J": 65,
            "K": 65.57142857142857,
            "L": 66.28571428571429,
            "A": 67.21428571428571,
            "B": 68.14285714285714,
            "C": 68.5,
            "D": 69.46153846153847,
            "E": 70.38461538461539,
            "F": 70.3076923076923,
            "G": 68.92307692307692,
            "H": 69.46153846153847,
            "I": 70.92307692307692
        },
        "bus4": {
            "K": 65.78571428571429,
            "L": 64,
            "A": 64.85714285714286,
            "B": 66.71428571428571,
            "C": 66.78571428571429,
            "D": 67.57142857142857,
            "E": 68.15384615384616,
            "F": 68,
            "G": 69.38461538461539,
            "H": 68.23076923076923,
            "I": 68.07692307692308,
            "J": 69
        },
        "bus5": {
            "A": 63.285714285714285,
            "B": 64.07142857142857,
            "C": 64.35714285714286,
            "D": 64.78571428571429,
            "E": 67.5,
            "F": 67.71428571428571,
            "G": 67.61538461538461,
            "H": 68,
            "I": 69.23076923076923,
            "J": 68.53846153846153,
            "K": 67.15384615384616,
            "L": 65.6923076923077
        }
    },
    "Obs_and_actions_busses": {
        "1": -186.16594002463614,
        "2": -41.329578801614495,
        "5": 194.89547004582485,
        "3": 29.59215686252945
    },
    "Obs_and_actions_tfls": {}
}