{
    "Average_holding_time": [
        0,
        [
            0,
            0,
            0,
            0,
            0,
            0,
            0,
            0,
            0,
            0
        ]
    ],
    "Average_travel_time_passengers": [
        6186.8527503197865,
        [
            6767.307571239096,
            5808.628680935491,
            6451.985741479837,
            6170.986226293444,
            6504.7436649036335,
            5817.801594911765,
            6284.99387210711,
            6200.068650790594,
            5612.04359187794,
            6249.967908658957
        ]
    ],
    "Average_speed_busses": [
        0.031058333333333334,
        [
            0.028708333333333332,
            0.0325,
            0.029583333333333333,
            0.031041666666666665,
            0.029833333333333333,
            0.03275,
            0.030708333333333334,
            0.031375,
            0.03308333333333333,
            0.031
        ]
    ],
    "Average_experienced_crowding": [
        581.521734291248,
        [
            655.5436534291025,
            538.1185771996036,
            617.6099786616555,
            578.9778708131025,
            622.0720227655627,
            539.4776747784167,
            592.1658894485986,
            571.4954051188452,
            512.9857177330214,
            586.7705529645709
        ]
    ],
    "Average_covariation_headway": [
        2.169902161995172,
        [
            2.286803702741702,
            2.104982398092214,
            2.2928618278405786,
            2.181494911179598,
            2.176945676164611,
            2.0802950375583626,
            2.2033515323169954,
            2.1118982787797367,
            2.085143444328478,
            2.1752448109494424
        ]
    ],
    "Average_covariation_headway_stops": [
        {
            "K": 2.177853686046392,
            "E": 2.1565374208177546,
            "F": 2.171815450865351,
            "I": 2.153140312159425,
            "J": 2.1767598161221984,
            "B": 2.1649352018114687,
            "L": 2.1643369826948935,
            "G": 2.1517949976602107,
            "C": 2.154182467156271,
            "A": 2.150411392779345,
            "D": 2.157788477814041,
            "H": 2.047012643725075
        },
        {
            "B": 2.0634910415459116,
            "K": 2.051637820566355,
            "I": 2.051569076421195,
            "G": 2.0559423647857327,
            "A": 2.04720624694212,
            "F": 2.050607668562857,
            "L": 2.046664690095375,
            "C": 2.0545827998573554,
            "J": 2.037937598816231,
            "H": 2.0273888740967685,
            "D": 2.048171724092015,
            "E": 2.0368268530546554
        },
        {
            "J": 2.118681291811579,
            "C": 2.145243746660086,
            "I": 2.11709756991468,
            "D": 2.172124637205113,
            "B": 2.1395221865735814,
            "L": 2.125138406443736,
            "K": 2.0221671827263212,
            "E": 2.140849276870893,
            "A": 2.1198075193299784,
            "F": 2.136828324818048,
            "G": 2.1272720364791398,
            "H": 2.1006306214249886
        },
        {
            "A": 2.097494885197357,
            "J": 2.11054987445659,
            "C": 2.0986738591467176,
            "I": 2.112185960984151,
            "D": 2.1016232075204995,
            "H": 2.1022195873249223,
            "B": 2.0924919198626273,
            "E": 2.1079200792010195,
            "K": 2.085074946683502,
            "F": 2.089905487529876,
            "L": 2.079862945848328,
            "G": 2.074771923616902
        },
        {
            "D": 2.0354525462835666,
            "I": 2.1384775177889583,
            "E": 2.116316163779925,
            "G": 2.1299188148031907,
            "A": 2.1190127684591036,
            "B": 2.125192100549309,
            "H": 2.1167010019974053,
            "F": 2.1109114579825383,
            "C": 2.107155471912826,
            "J": 2.119915189735371,
            "K": 2.1176376651085236,
            "L": 2.107076893743918
        },
        {
            "F": 2.0898842695985507,
            "E": 2.0836747778324023,
            "I": 2.0729788879151707,
            "D": 2.0684805153726162,
            "B": 2.0570851087700297,
            "J": 2.070326228850595,
            "G": 2.0090230399210984,
            "C": 2.0680477727097455,
            "K": 2.0675877613230145,
            "H": 2.056904766488709,
            "L": 2.0561790482248745,
            "A": 2.0499941253533565
        },
        {
            "E": 2.1268040896396023,
            "D": 2.11753355069676,
            "F": 2.1357930325133885,
            "L": 2.1343318237208,
            "K": 2.1155883445878376,
            "G": 2.138993265106291,
            "A": 2.123986139265804,
            "H": 2.134046329668031,
            "B": 2.117452029918622,
            "I": 2.117821569422957,
            "C": 2.1002838602644958,
            "J": 2.0612175629267613
        },
        {
            "B": 2.0908152938126503,
            "C": 2.106184765867869,
            "E": 2.1004254389575503,
            "J": 2.107198077156878,
            "L": 2.0916548103871255,
            "G": 2.119525035748643,
            "K": 2.090185593876585,
            "F": 2.1072476992707005,
            "D": 2.1067973565200933,
            "A": 2.0929762110833257,
            "H": 2.0272058352306366,
            "I": 2.092775822429222
        },
        {
            "K": 2.061173499960302,
            "E": 2.043301160186378,
            "A": 1.9928824769635745,
            "I": 2.0560686555118184,
            "F": 2.0467350139425773,
            "H": 2.0522319701405203,
            "L": 2.0545687972412527,
            "B": 2.0354629740739583,
            "G": 2.0482271894131143,
            "J": 2.057187209891778,
            "C": 2.027832617392718,
            "D": 2.0383023946117764
        },
        {
            "I": 2.0374894087514077,
            "D": 2.1054778031287986,
            "H": 2.1122425643367313,
            "B": 2.1144401148341148,
            "A": 2.100421064163186,
            "F": 2.1228351985412175,
            "J": 2.0963726383756507,
            "C": 2.0968721734329323,
            "E": 2.106998964621657,
            "G": 2.1174250469270053,
            "K": 2.088087570537979,
            "L": 2.070668523557765
        }
    ],
    "Average_excess_waiting_time": [
        {
            "K": 2458.7727116419264,
            "E": 2492.3525623029536,
            "F": 2503.2289304350325,
            "I": 2442.9148318860307,
            "J": 2472.824199454397,
            "B": 2471.612690970506,
            "L": 2460.9759175090026,
            "G": 2488.3294901063778,
            "C": 2479.9215461017043,
            "A": 2460.922658455253,
            "D": 2511.1628399088613,
            "H": 2508.837031980934
        },
        {
            "B": 1971.3569171906818,
            "K": 1955.1633617436607,
            "I": 1943.5919030202092,
            "G": 1999.7040233412633,
            "A": 1954.881440708624,
            "F": 2002.8221307739798,
            "L": 1968.252694375488,
            "C": 1979.031269710935,
            "J": 1943.9001710039545,
            "H": 1912.4545417236848,
            "D": 1988.2651095109861,
            "E": 1990.051737351069
        },
        {
            "J": 2335.674072976391,
            "C": 2331.9813863518953,
            "I": 2346.088626932758,
            "D": 2365.342256151489,
            "B": 2338.606890955296,
            "L": 2303.5311418180113,
            "K": 2361.7126181964154,
            "E": 2328.573853933725,
            "A": 2318.650947726018,
            "F": 2348.5738930619586,
            "G": 2358.949908911041,
            "H": 2331.863745646442
        },
        {
            "A": 2125.5446293948476,
            "J": 2113.248139007806,
            "C": 2141.145285740284,
            "I": 2205.6657832936858,
            "D": 2133.0024918131767,
            "H": 2200.248435716128,
            "B": 2141.254132118525,
            "E": 2169.745131167471,
            "K": 2092.928434577431,
            "F": 2163.25210879528,
            "L": 2107.594573059182,
            "G": 2160.8729846785736
        },
        {
            "D": 2343.938841458516,
            "I": 2281.0552419922883,
            "E": 2214.0740888478435,
            "G": 2252.283840004377,
            "A": 2318.366170960775,
            "B": 2317.4879368591796,
            "H": 2253.813254773523,
            "F": 2233.7904033457553,
            "C": 2311.4958702903914,
            "J": 2270.1759824430865,
            "K": 2297.7522765913495,
            "L": 2306.0332322780373
        },
        {
            "F": 2021.9707663048637,
            "E": 2017.8288040655827,
            "I": 1950.9937329527086,
            "D": 1998.5822838893253,
            "B": 1967.3043359086807,
            "J": 1932.7596136118184,
            "G": 2054.1912842541656,
            "C": 2011.0946297082685,
            "K": 1951.243669326527,
            "H": 1933.6629160557598,
            "L": 1954.464160843753,
            "A": 1965.225602351895
        },
        {
            "E": 2233.490671521143,
            "D": 2234.2358258164627,
            "F": 2237.4602413053917,
            "L": 2203.945745710513,
            "K": 2181.7548451432826,
            "G": 2231.6078105781744,
            "A": 2210.904918150534,
            "H": 2245.5964006121226,
            "B": 2223.691314754908,
            "I": 2239.654462850676,
            "C": 2215.7336290231806,
            "J": 2270.4934103491296
        },
        {
            "B": 2118.6552323196493,
            "C": 2132.4686563191367,
            "E": 2131.8871690964947,
            "J": 2117.5503563628045,
            "L": 2102.620472776694,
            "G": 2179.606486558724,
            "K": 2108.7079057414426,
            "F": 2168.7002526363517,
            "D": 2156.968941729327,
            "A": 2132.748256733244,
            "H": 2197.84346867239,
            "I": 2101.4484743345997
        },
        {
            "K": 1938.7905832700383,
            "E": 1901.5881264107159,
            "A": 1975.7846447929294,
            "I": 1916.158421197483,
            "F": 1897.627487005366,
            "H": 1917.2169256543536,
            "L": 1946.8798584288177,
            "B": 1850.6831069391762,
            "G": 1920.4099356954969,
            "J": 1943.851882993921,
            "C": 1860.203585997638,
            "D": 1903.194264309481
        },
        {
            "I": 2217.55374304154,
            "D": 2164.8663176099053,
            "H": 2202.24843036995,
            "B": 2171.925810475697,
            "A": 2156.010197148229,
            "F": 2208.550965731192,
            "J": 2097.3833954537736,
            "C": 2164.3516384032823,
            "E": 2196.1406906074876,
            "G": 2219.3255425197344,
            "K": 2108.8478190717587,
            "L": 2106.3694104693127
        }
    ],
    "Holding_per_stop": [
        {
            "K": 0,
            "E": 0,
            "F": 0,
            "I": 0,
            "J": 0,
            "B": 0,
            "L": 0,
            "G": 0,
            "C": 0,
            "A": 0,
            "D": 0,
            "H": 0
        },
        {
            "B": 0,
            "K": 0,
            "A": 0,
            "G": 0,
            "I": 0,
            "F": 0,
            "L": 0,
            "C": 0,
            "J": 0,
            "H": 0,
            "D": 0,
            "E": 0
        },
        {
            "J": 0,
            "C": 0,
            "B": 0,
            "D": 0,
            "I": 0,
            "L": 0,
            "K": 0,
            "E": 0,
            "A": 0,
            "F": 0,
            "G": 0,
            "H": 0
        },
        {
            "A": 0,
            "I": 0,
            "J": 0,
            "C": 0,
            "D": 0,
            "H": 0,
            "B": 0,
            "E": 0,
            "K": 0,
            "F": 0,
            "L": 0,
            "G": 0
        },
        {
            "D": 0,
            "I": 0,
            "E": 0,
            "G": 0,
            "B": 0,
            "A": 0,
            "F": 0,
            "H": 0,
            "J": 0,
            "C": 0,
            "K": 0,
            "L": 0
        },
        {
            "F": 0,
            "E": 0,
            "I": 0,
            "D": 0,
            "B": 0,
            "J": 0,
            "G": 0,
            "C": 0,
            "K": 0,
            "H": 0,
            "L": 0,
            "A": 0
        },
        {
            "E": 0,
            "D": 0,
            "F": 0,
            "L": 0,
            "K": 0,
            "G": 0,
            "A": 0,
            "H": 0,
            "B": 0,
            "I": 0,
            "C": 0,
            "J": 0
        },
        {
            "B": 0,
            "E": 0,
            "C": 0,
            "J": 0,
            "L": 0,
            "G": 0,
            "K": 0,
            "F": 0,
            "D": 0,
            "A": 0,
            "H": 0,
            "I": 0
        },
        {
            "K": 0,
            "E": 0,
            "A": 0,
            "I": 0,
            "F": 0,
            "H": 0,
            "L": 0,
            "B": 0,
            "G": 0,
            "J": 0,
            "C": 0,
            "D": 0
        },
        {
            "I": 0,
            "D": 0,
            "H": 0,
            "B": 0,
            "A": 0,
            "F": 0,
            "J": 0,
            "C": 0,
            "E": 0,
            "G": 0,
            "K": 0,
            "L": 0
        }
    ],
    "Load_per_bus_per_stop": [
        {
            "bus5": {
                "K": 8.7,
                "L": 8.6,
                "A": 9.7,
                "B": 8.7,
                "C": 8.6,
                "D": 8.4,
                "E": 8.8,
                "F": 8.1,
                "G": 8.2,
                "H": 9.444444444444445,
                "I": 9.333333333333334,
                "J": 9.444444444444445
            },
            "bus1": {
                "E": 30.3,
                "F": 32.6,
                "G": 33.9,
                "H": 34.22222222222222,
                "I": 35.888888888888886,
                "J": 34.55555555555556,
                "K": 35.333333333333336,
                "L": 34.44444444444444,
                "A": 35.666666666666664,
                "B": 34.77777777777778,
                "C": 34.333333333333336,
                "D": 34
            },
            "bus2": {
                "F": 629.2,
                "G": 635.2,
                "H": 645.9,
                "I": 640.2222222222222,
                "J": 644.7777777777778,
                "K": 655.3333333333334,
                "L": 658.1111111111111,
                "A": 672.6666666666666,
                "B": 676.2222222222222,
                "C": 681.5555555555555,
                "D": 682.7777777777778,
                "E": 692.4444444444445
            },
            "bus3": {
                "I": 2.7,
                "J": 3.2,
                "K": 3,
                "L": 2.5,
                "A": 2.5,
                "B": 2.8,
                "C": 2.4,
                "D": 2.1,
                "E": 2.2,
                "F": 2.4,
                "G": 2.5,
                "H": 2.4444444444444446
            },
            "bus4": {
                "J": 12.1,
                "K": 13.8,
                "L": 14.2,
                "A": 15.1,
                "B": 16.2,
                "C": 16.4,
                "D": 16.3,
                "E": 17.1,
                "F": 16.6,
                "G": 15.8,
                "H": 16,
                "I": 15.11111111111111
            },
            "bus0": {
                "B": 26.5,
                "C": 25.9,
                "D": 25.6,
                "E": 26.4,
                "F": 27.7,
                "G": 28.3,
                "H": 32,
                "I": 31.555555555555557,
                "J": 29.11111111111111,
                "K": 30.22222222222222,
                "L": 28.11111111111111,
                "A": 29
            }
        },
        {
            "bus0": {
                "B": 500.09090909090907,
                "C": 501.3636363636364,
                "D": 507,
                "E": 516.8181818181819,
                "F": 524,
                "G": 527.4545454545455,
                "H": 508.9,
                "I": 515.1,
                "J": 527.5,
                "K": 535.6,
                "L": 536.7,
                "A": 543.1
            },
            "bus4": {
                "K": 14.909090909090908,
                "L": 14.272727272727273,
                "A": 13.454545454545455,
                "B": 14.727272727272727,
                "C": 16.09090909090909,
                "D": 16.818181818181817,
                "E": 16.818181818181817,
                "F": 16.454545454545453,
                "G": 15.818181818181818,
                "H": 17.4,
                "I": 17.3,
                "J": 16.3
            },
            "bus3": {
                "I": 9.727272727272727,
                "J": 10.363636363636363,
                "K": 11.545454545454545,
                "L": 12.636363636363637,
                "A": 12.909090909090908,
                "B": 12.454545454545455,
                "C": 12.818181818181818,
                "D": 11.272727272727273,
                "E": 10.363636363636363,
                "F": 10.272727272727273,
                "G": 9.636363636363637,
                "H": 9.7
            },
            "bus2": {
                "G": 75.25,
                "H": 78.72727272727273,
                "I": 77.36363636363636,
                "J": 76.27272727272727,
                "K": 77.72727272727273,
                "L": 77.81818181818181,
                "A": 78.9090909090909,
                "B": 79.45454545454545,
                "C": 81.54545454545455,
                "D": 83.27272727272727,
                "E": 82.9090909090909,
                "F": 81.45454545454545
            },
            "bus5": {
                "A": 23.181818181818183,
                "B": 24,
                "C": 26.818181818181817,
                "D": 26.272727272727273,
                "E": 26.727272727272727,
                "F": 26.818181818181817,
                "G": 27.545454545454547,
                "H": 27.2,
                "I": 27.4,
                "J": 26.6,
                "K": 25.2,
                "L": 25.4
            },
            "bus1": {
                "F": 6.75,
                "G": 6.916666666666667,
                "H": 7.454545454545454,
                "I": 8.090909090909092,
                "J": 8.363636363636363,
                "K": 8.818181818181818,
                "L": 8,
                "A": 7,
                "B": 6.2727272727272725,
                "C": 6.2727272727272725,
                "D": 6.2727272727272725,
                "E": 6.181818181818182
            }
        },
        {
            "bus4": {
                "J": 12.818181818181818,
                "K": 14.8,
                "L": 15.4,
                "A": 16,
                "B": 15.2,
                "C": 15.1,
                "D": 14.5,
                "E": 14.7,
                "F": 13.7,
                "G": 13.6,
                "H": 14,
                "I": 13.7
            },
            "bus1": {
                "C": 30.6,
                "D": 30.9,
                "E": 31.5,
                "F": 31.7,
                "G": 32.1,
                "H": 32.1,
                "I": 31.7,
                "J": 32.1,
                "K": 32.111111111111114,
                "L": 33.22222222222222,
                "A": 33.666666666666664,
                "B": 34.111111111111114
            },
            "bus3": {
                "I": 9.818181818181818,
                "J": 10.636363636363637,
                "K": 12.7,
                "L": 12.9,
                "A": 12.8,
                "B": 13.4,
                "C": 13.1,
                "D": 12.4,
                "E": 11.6,
                "F": 10.4,
                "G": 9.7,
                "H": 9.7
            },
            "bus2": {
                "D": 586,
                "E": 599.2,
                "F": 606.9,
                "G": 605.9,
                "H": 617.2,
                "I": 629.1,
                "J": 645,
                "K": 653.2,
                "L": 636.3333333333334,
                "A": 639.8888888888889,
                "B": 645.1111111111111,
                "C": 653.4444444444445
            },
            "bus0": {
                "B": 7.1,
                "C": 6.8,
                "D": 6.7,
                "E": 6.9,
                "F": 7.1,
                "G": 7.2,
                "H": 8.4,
                "I": 8,
                "J": 7.2,
                "K": 7.777777777777778,
                "L": 7.888888888888889,
                "A": 7.444444444444445
            },
            "bus5": {
                "L": 16,
                "A": 17.5,
                "B": 17,
                "C": 16.4,
                "D": 15.8,
                "E": 17.4,
                "F": 17.8,
                "G": 18.9,
                "H": 19,
                "I": 18.1,
                "J": 16.5,
                "K": 17.88888888888889
            }
        },
        {
            "bus5": {
                "A": 7.090909090909091,
                "B": 7,
                "C": 6.7272727272727275,
                "D": 7.909090909090909,
                "E": 8.363636363636363,
                "F": 8.818181818181818,
                "G": 9.181818181818182,
                "H": 7.7272727272727275,
                "I": 7.545454545454546,
                "J": 7.9,
                "K": 7.6,
                "L": 7.3
            },
            "bus4": {
                "J": 517.2,
                "K": 529.4,
                "L": 540.2,
                "A": 545.3,
                "B": 551.4,
                "C": 557.3,
                "D": 567.2,
                "E": 571.7,
                "F": 582.5,
                "G": 597.1,
                "H": 601.4,
                "I": 604.1
            },
            "bus0": {
                "C": 5.7272727272727275,
                "D": 5,
                "E": 5,
                "F": 5,
                "G": 4.818181818181818,
                "H": 4.818181818181818,
                "I": 4.7272727272727275,
                "J": 5.6,
                "K": 5.8,
                "L": 6.1,
                "A": 6.3,
                "B": 5.9
            },
            "bus3": {
                "I": 31.454545454545453,
                "J": 29.6,
                "K": 30.9,
                "L": 30.3,
                "A": 31,
                "B": 31,
                "C": 29.4,
                "D": 32.1,
                "E": 32.1,
                "F": 33.7,
                "G": 34.2,
                "H": 34
            },
            "bus1": {
                "D": 56,
                "E": 57,
                "F": 57.90909090909091,
                "G": 59.81818181818182,
                "H": 62.27272727272727,
                "I": 59.90909090909091,
                "J": 65.2,
                "K": 66.5,
                "L": 65.7,
                "A": 64.1,
                "B": 62.4,
                "C": 62.4
            },
            "bus2": {
                "H": 13.090909090909092,
                "I": 12.727272727272727,
                "J": 14,
                "K": 14.4,
                "L": 14,
                "A": 14.3,
                "B": 15.1,
                "C": 16.3,
                "D": 15.1,
                "E": 14.9,
                "F": 15.1,
                "G": 15.1
            }
        },
        {
            "bus1": {
                "D": 3,
                "E": 3.7,
                "F": 4,
                "G": 4.1,
                "H": 4.2,
                "I": 3.9,
                "J": 4,
                "K": 3.7,
                "L": 3.2,
                "A": 3.1,
                "B": 3.2,
                "C": 2.9
            },
            "bus4": {
                "I": 569.8,
                "J": 570.9,
                "K": 575.9,
                "L": 579.7,
                "A": 593.1,
                "B": 600.2,
                "C": 613.8,
                "D": 628,
                "E": 603.8888888888889,
                "F": 618.3333333333334,
                "G": 625.7777777777778,
                "H": 627.4444444444445
            },
            "bus2": {
                "E": 15.6,
                "F": 16.1,
                "G": 18,
                "H": 18.3,
                "I": 19.8,
                "J": 20.3,
                "K": 18.3,
                "L": 16.8,
                "A": 16.7,
                "B": 16.4,
                "C": 14.9,
                "D": 16.555555555555557
            },
            "bus3": {
                "G": 31.5,
                "H": 33.1,
                "I": 33.1,
                "J": 33.4,
                "K": 34.6,
                "L": 38,
                "A": 37,
                "B": 37.9,
                "C": 37.7,
                "D": 37.44444444444444,
                "E": 36.888888888888886,
                "F": 36.22222222222222
            },
            "bus5": {
                "A": 6.818181818181818,
                "B": 7.636363636363637,
                "C": 7,
                "D": 6.6,
                "E": 6.6,
                "F": 6.9,
                "G": 6.8,
                "H": 7.4,
                "I": 7.1,
                "J": 7.8,
                "K": 7.6,
                "L": 7.2
            },
            "bus0": {
                "B": 48.45454545454545,
                "C": 49.63636363636363,
                "D": 54.3,
                "E": 54.5,
                "F": 54.9,
                "G": 55.3,
                "H": 54.1,
                "I": 53,
                "J": 50.9,
                "K": 50.4,
                "L": 50.3,
                "A": 51
            }
        },
        {
            "bus3": {
                "F": 44,
                "G": 46.63636363636363,
                "H": 47.54545454545455,
                "I": 49.09090909090909,
                "J": 50,
                "K": 49.63636363636363,
                "L": 47.90909090909091,
                "A": 47.90909090909091,
                "B": 47.18181818181818,
                "C": 46.63636363636363,
                "D": 47.54545454545455,
                "E": 46.45454545454545
            },
            "bus2": {
                "E": 4.416666666666667,
                "F": 4.333333333333333,
                "G": 4.454545454545454,
                "H": 4.909090909090909,
                "I": 4.7272727272727275,
                "J": 4.818181818181818,
                "K": 4.7272727272727275,
                "L": 5.090909090909091,
                "A": 5.636363636363637,
                "B": 5.545454545454546,
                "C": 4.909090909090909,
                "D": 5.181818181818182
            },
            "bus4": {
                "I": 5.454545454545454,
                "J": 5.909090909090909,
                "K": 5.909090909090909,
                "L": 6.909090909090909,
                "A": 7.363636363636363,
                "B": 7.545454545454546,
                "C": 7.2727272727272725,
                "D": 6.454545454545454,
                "E": 6.545454545454546,
                "F": 5.818181818181818,
                "G": 5.9,
                "H": 5.4
            },
            "bus1": {
                "D": 4.833333333333333,
                "E": 4.916666666666667,
                "F": 4.75,
                "G": 4.454545454545454,
                "H": 5,
                "I": 5,
                "J": 5.454545454545454,
                "K": 5.545454545454546,
                "L": 5.454545454545454,
                "A": 5.363636363636363,
                "B": 5.454545454545454,
                "C": 5.363636363636363
            },
            "bus0": {
                "B": 500.09090909090907,
                "C": 502.1818181818182,
                "D": 503.90909090909093,
                "E": 513.2727272727273,
                "F": 523.3636363636364,
                "G": 528.4545454545455,
                "H": 504.1,
                "I": 511.3,
                "J": 519.2,
                "K": 522.8,
                "L": 533.7,
                "A": 540.6
            },
            "bus5": {
                "J": 73.45454545454545,
                "K": 75.63636363636364,
                "L": 74.45454545454545,
                "A": 74.18181818181819,
                "B": 76,
                "C": 77.72727272727273,
                "D": 78.63636363636364,
                "E": 78.27272727272727,
                "F": 77.54545454545455,
                "G": 81.3,
                "H": 80.8,
                "I": 81.4
            }
        },
        {
            "bus1": {
                "E": 3.4545454545454546,
                "F": 4,
                "G": 4.363636363636363,
                "H": 5.090909090909091,
                "I": 5.090909090909091,
                "J": 5.4,
                "K": 5.4,
                "L": 4.8,
                "A": 4.3,
                "B": 4.5,
                "C": 3.7,
                "D": 3.4
            },
            "bus0": {
                "D": 3.727272727272727,
                "E": 4.2727272727272725,
                "F": 4.636363636363637,
                "G": 5.181818181818182,
                "H": 5,
                "I": 4.909090909090909,
                "J": 4.7,
                "K": 4.6,
                "L": 4.6,
                "A": 4.2,
                "B": 4,
                "C": 3.9
            },
            "bus2": {
                "F": 6.090909090909091,
                "G": 5.454545454545454,
                "H": 5.7272727272727275,
                "I": 5.909090909090909,
                "J": 6.5,
                "K": 6.5,
                "L": 6.5,
                "A": 6.2,
                "B": 6.3,
                "C": 6.7,
                "D": 6.6,
                "E": 6.5
            },
            "bus5": {
                "L": 539.6,
                "A": 543.6,
                "B": 548.8,
                "C": 560.4,
                "D": 565.7,
                "E": 570.1,
                "F": 576.6,
                "G": 588.5,
                "H": 595.7,
                "I": 610.1,
                "J": 609,
                "K": 587.6666666666666
            },
            "bus4": {
                "K": 27.5,
                "L": 27.6,
                "A": 28.8,
                "B": 30.7,
                "C": 30.3,
                "D": 31,
                "E": 31.6,
                "F": 31.8,
                "G": 32.6,
                "H": 32.9,
                "I": 32.7,
                "J": 31.8
            },
            "bus3": {
                "G": 60.45454545454545,
                "H": 58.63636363636363,
                "I": 58.18181818181818,
                "J": 58.63636363636363,
                "K": 66.3,
                "L": 67.5,
                "A": 67.3,
                "B": 70.2,
                "C": 69.1,
                "D": 69.6,
                "E": 69.1,
                "F": 68.3
            }
        },
        {
            "bus0": {
                "B": 4,
                "C": 3.6363636363636362,
                "D": 3.909090909090909,
                "E": 3.909090909090909,
                "F": 4,
                "G": 4.2727272727272725,
                "H": 3.9,
                "I": 4.3,
                "J": 4.1,
                "K": 3.5,
                "L": 3.9,
                "A": 3.6
            },
            "bus1": {
                "C": 20.90909090909091,
                "D": 20.181818181818183,
                "E": 20.454545454545453,
                "F": 19.545454545454547,
                "G": 21.09090909090909,
                "H": 24.2,
                "I": 24.6,
                "J": 26.4,
                "K": 26.4,
                "L": 25.3,
                "A": 25.5,
                "B": 24.5
            },
            "bus2": {
                "E": 30.636363636363637,
                "F": 30.636363636363637,
                "G": 31.09090909090909,
                "H": 30.4,
                "I": 31.5,
                "J": 31.1,
                "K": 30.9,
                "L": 31.8,
                "A": 31.3,
                "B": 31.1,
                "C": 32.8,
                "D": 33.7
            },
            "bus4": {
                "J": 9.818181818181818,
                "K": 10.363636363636363,
                "L": 9.636363636363637,
                "A": 9.909090909090908,
                "B": 9.454545454545455,
                "C": 9.636363636363637,
                "D": 10,
                "E": 10.545454545454545,
                "F": 10.909090909090908,
                "G": 10.363636363636363,
                "H": 10.8,
                "I": 10.5
            },
            "bus5": {
                "L": 53.72727272727273,
                "A": 54,
                "B": 55.72727272727273,
                "C": 59.09090909090909,
                "D": 59.09090909090909,
                "E": 59.72727272727273,
                "F": 60.36363636363637,
                "G": 56.81818181818182,
                "H": 60.6,
                "I": 57.7,
                "J": 57.9,
                "K": 58
            },
            "bus3": {
                "G": 523.4545454545455,
                "H": 538.2727272727273,
                "I": 508.5,
                "J": 514.2,
                "K": 524.8,
                "L": 539.7,
                "A": 545.6,
                "B": 554.8,
                "C": 557.7,
                "D": 560.1,
                "E": 564.7,
                "F": 568.5
            }
        },
        {
            "bus4": {
                "K": 10.416666666666666,
                "L": 10.333333333333334,
                "A": 11.545454545454545,
                "B": 11.909090909090908,
                "C": 12.272727272727273,
                "D": 13.636363636363637,
                "E": 14,
                "F": 13.454545454545455,
                "G": 12.909090909090908,
                "H": 11.818181818181818,
                "I": 11.272727272727273,
                "J": 11
            },
            "bus0": {
                "E": 29.90909090909091,
                "F": 29.636363636363637,
                "G": 30.545454545454547,
                "H": 30.636363636363637,
                "I": 32.45454545454545,
                "J": 33.18181818181818,
                "K": 34.36363636363637,
                "L": 34.63636363636363,
                "A": 33.8,
                "B": 34.6,
                "C": 34.1,
                "D": 32.1
            },
            "bus5": {
                "A": 78.63636363636364,
                "B": 78.0909090909091,
                "C": 80,
                "D": 81.18181818181819,
                "E": 84.36363636363636,
                "F": 86.27272727272727,
                "G": 85.45454545454545,
                "H": 85.45454545454545,
                "I": 86.45454545454545,
                "J": 85.54545454545455,
                "K": 84.45454545454545,
                "L": 81.18181818181819
            },
            "bus3": {
                "I": 18.75,
                "J": 19.083333333333332,
                "K": 19.333333333333332,
                "L": 19.166666666666668,
                "A": 20.818181818181817,
                "B": 21.272727272727273,
                "C": 21.636363636363637,
                "D": 21.727272727272727,
                "E": 21.636363636363637,
                "F": 21.363636363636363,
                "G": 21.727272727272727,
                "H": 20.636363636363637
            },
            "bus1": {
                "F": 463.72727272727275,
                "G": 465.27272727272725,
                "H": 475.72727272727275,
                "I": 484.3636363636364,
                "J": 491.09090909090907,
                "K": 497.1818181818182,
                "L": 498.90909090909093,
                "A": 503.54545454545456,
                "B": 470,
                "C": 481.4,
                "D": 483.3,
                "E": 494.5
            },
            "bus2": {
                "H": 5.666666666666667,
                "I": 5.833333333333333,
                "J": 6.083333333333333,
                "K": 6.916666666666667,
                "L": 7.083333333333333,
                "A": 7.909090909090909,
                "B": 7.454545454545454,
                "C": 6.7272727272727275,
                "D": 6.363636363636363,
                "E": 5.909090909090909,
                "F": 6,
                "G": 5.909090909090909
            }
        },
        {
            "bus4": {
                "I": 552.2727272727273,
                "J": 527.3,
                "K": 537.9,
                "L": 549.6,
                "A": 558.2,
                "B": 562.5,
                "C": 567.6,
                "D": 578.3,
                "E": 586.3,
                "F": 584.5,
                "G": 587.7,
                "H": 597.3
            },
            "bus1": {
                "D": 9.545454545454545,
                "E": 9.909090909090908,
                "F": 10,
                "G": 10.363636363636363,
                "H": 10.363636363636363,
                "I": 10.7,
                "J": 11,
                "K": 10.4,
                "L": 8.9,
                "A": 8.7,
                "B": 9.2,
                "C": 9.5
            },
            "bus3": {
                "H": 30.818181818181817,
                "I": 27.5,
                "J": 27.1,
                "K": 28.4,
                "L": 29.9,
                "A": 29.9,
                "B": 30.9,
                "C": 34.8,
                "D": 34.3,
                "E": 33.6,
                "F": 33.6,
                "G": 33.2
            },
            "bus0": {
                "B": 10.818181818181818,
                "C": 11.090909090909092,
                "D": 11.454545454545455,
                "E": 11.454545454545455,
                "F": 12.181818181818182,
                "G": 12,
                "H": 11.363636363636363,
                "I": 12.1,
                "J": 11.8,
                "K": 11.1,
                "L": 11.4,
                "A": 11.7
            },
            "bus5": {
                "A": 5,
                "B": 5,
                "C": 4.818181818181818,
                "D": 4.818181818181818,
                "E": 4.636363636363637,
                "F": 5.363636363636363,
                "G": 5.7272727272727275,
                "H": 6.090909090909091,
                "I": 6.2,
                "J": 6.3,
                "K": 6.2,
                "L": 5.6
            },
            "bus2": {
                "F": 55.63636363636363,
                "G": 56.18181818181818,
                "H": 56.90909090909091,
                "I": 58.7,
                "J": 60.7,
                "K": 60.9,
                "L": 60.7,
                "A": 62.2,
                "B": 62,
                "C": 60.7,
                "D": 60.4,
                "E": 60.7
            }
        }
    ]
}