{
    "Average_holding_time": 0,
    "Average_travel_time_passengers": 6284.99387210711,
    "Average_speed_busses": 0.030708333333333334,
    "Average_experienced_crowding": 592.1658894485986,
    "Average_covariation_headway": 2.2033515323169954,
    "Average_covariation_headway_stops": {
        "E": 2.1268040896396023,
        "D": 2.11753355069676,
        "F": 2.1357930325133885,
        "L": 2.1343318237208,
        "K": 2.1155883445878376,
        "G": 2.138993265106291,
        "A": 2.123986139265804,
        "H": 2.134046329668031,
        "B": 2.117452029918622,
        "I": 2.117821569422957,
        "C": 2.1002838602644958,
        "J": 2.0612175629267613
    },
    "Average_excess_waiting_time": {
        "E": 2233.490671521143,
        "D": 2234.2358258164627,
        "F": 2237.4602413053917,
        "L": 2203.945745710513,
        "K": 2181.7548451432826,
        "G": 2231.6078105781744,
        "A": 2210.904918150534,
        "H": 2245.5964006121226,
        "B": 2223.691314754908,
        "I": 2239.654462850676,
        "C": 2215.7336290231806,
        "J": 2270.4934103491296
    },
    "Holding_per_stop": {
        "E": 0,
        "D": 0,
        "F": 0,
        "L": 0,
        "K": 0,
        "G": 0,
        "A": 0,
        "H": 0,
        "B": 0,
        "I": 0,
        "C": 0,
        "J": 0
    },
    "Load_per_bus_per_stop": {
        "bus1": {
            "E": 3.4545454545454546,
            "F": 4,
            "G": 4.363636363636363,
            "H": 5.090909090909091,
            "I": 5.090909090909091,
            "J": 5.4,
            "K": 5.4,
            "L": 4.8,
            "A": 4.3,
            "B": 4.5,
            "C": 3.7,
            "D": 3.4
        },
        "bus0": {
            "D": 3.727272727272727,
            "E": 4.2727272727272725,
            "F": 4.636363636363637,
            "G": 5.181818181818182,
            "H": 5,
            "I": 4.909090909090909,
            "J": 4.7,
            "K": 4.6,
            "L": 4.6,
            "A": 4.2,
            "B": 4,
            "C": 3.9
        },
        "bus2": {
            "F": 6.090909090909091,
            "G": 5.454545454545454,
            "H": 5.7272727272727275,
            "I": 5.909090909090909,
            "J": 6.5,
            "K": 6.5,
            "L": 6.5,
            "A": 6.2,
            "B": 6.3,
            "C": 6.7,
            "D": 6.6,
            "E": 6.5
        },
        "bus5": {
            "L": 539.6,
            "A": 543.6,
            "B": 548.8,
            "C": 560.4,
            "D": 565.7,
            "E": 570.1,
            "F": 576.6,
            "G": 588.5,
            "H": 595.7,
            "I": 610.1,
            "J": 609,
            "K": 587.6666666666666
        },
        "bus4": {
            "K": 27.5,
            "L": 27.6,
            "A": 28.8,
            "B": 30.7,
            "C": 30.3,
            "D": 31,
            "E": 31.6,
            "F": 31.8,
            "G": 32.6,
            "H": 32.9,
            "I": 32.7,
            "J": 31.8
        },
        "bus3": {
            "G": 60.45454545454545,
            "H": 58.63636363636363,
            "I": 58.18181818181818,
            "J": 58.63636363636363,
            "K": 66.3,
            "L": 67.5,
            "A": 67.3,
            "B": 70.2,
            "C": 69.1,
            "D": 69.6,
            "E": 69.1,
            "F": 68.3
        }
    }
}