{
    "Average_holding_time": 0,
    "Average_travel_time_passengers": 6767.307571239096,
    "Average_speed_busses": 0.028708333333333332,
    "Average_experienced_crowding": 655.5436534291025,
    "Average_covariation_headway": 2.286803702741702,
    "Average_covariation_headway_stops": {
        "K": 2.177853686046392,
        "E": 2.1565374208177546,
        "F": 2.171815450865351,
        "I": 2.153140312159425,
        "J": 2.1767598161221984,
        "B": 2.1649352018114687,
        "L": 2.1643369826948935,
        "G": 2.1517949976602107,
        "C": 2.154182467156271,
        "A": 2.150411392779345,
        "D": 2.157788477814041,
        "H": 2.047012643725075
    },
    "Average_excess_waiting_time": {
        "K": 2458.7727116419264,
        "E": 2492.3525623029536,
        "F": 2503.2289304350325,
        "I": 2442.9148318860307,
        "J": 2472.824199454397,
        "B": 2471.612690970506,
        "L": 2460.9759175090026,
        "G": 2488.3294901063778,
        "C": 2479.9215461017043,
        "A": 2460.922658455253,
        "D": 2511.1628399088613,
        "H": 2508.837031980934
    },
    "Holding_per_stop": {
        "K": 0,
        "E": 0,
        "F": 0,
        "I": 0,
        "J": 0,
        "B": 0,
        "L": 0,
        "G": 0,
        "C": 0,
        "A": 0,
        "D": 0,
        "H": 0
    },
    "Load_per_bus_per_stop": {
        "bus5": {
            "K": 8.7,
            "L": 8.6,
            "A": 9.7,
            "B": 8.7,
            "C": 8.6,
            "D": 8.4,
            "E": 8.8,
            "F": 8.1,
            "G": 8.2,
            "H": 9.444444444444445,
            "I": 9.333333333333334,
            "J": 9.444444444444445
        },
        "bus1": {
            "E": 30.3,
            "F": 32.6,
            "G": 33.9,
            "H": 34.22222222222222,
            "I": 35.888888888888886,
            "J": 34.55555555555556,
            "K": 35.333333333333336,
            "L": 34.44444444444444,
            "A": 35.666666666666664,
            "B": 34.77777777777778,
            "C": 34.333333333333336,
            "D": 34
        },
        "bus2": {
            "F": 629.2,
            "G": 635.2,
            "H": 645.9,
            "I": 640.2222222222222,
            "J": 644.7777777777778,
            "K": 655.3333333333334,
            "L": 658.1111111111111,
            "A": 672.6666666666666,
            "B": 676.2222222222222,
            "C": 681.5555555555555,
            "D": 682.7777777777778,
            "E": 692.4444444444445
        },
        "bus3": {
            "I": 2.7,
            "J": 3.2,
            "K": 3,
            "L": 2.5,
            "A": 2.5,
            "B": 2.8,
            "C": 2.4,
            "D": 2.1,
            "E": 2.2,
            "F": 2.4,
            "G": 2.5,
            "H": 2.4444444444444446
        },
        "bus4": {
            "J": 12.1,
            "K": 13.8,
            "L": 14.2,
            "A": 15.1,
            "B": 16.2,
            "C": 16.4,
            "D": 16.3,
            "E": 17.1,
            "F": 16.6,
            "G": 15.8,
            "H": 16,
            "I": 15.11111111111111
        },
        "bus0": {
            "B": 26.5,
            "C": 25.9,
            "D": 25.6,
            "E": 26.4,
            "F": 27.7,
            "G": 28.3,
            "H": 32,
            "I": 31.555555555555557,
            "J": 29.11111111111111,
            "K": 30.22222222222222,
            "L": 28.11111111111111,
            "A": 29
        }
    }
}