{
    "Average_holding_time": 0,
    "Average_travel_time_passengers": 5817.801594911765,
    "Average_speed_busses": 0.03275,
    "Average_experienced_crowding": 539.4776747784167,
    "Average_covariation_headway": 2.0802950375583626,
    "Average_covariation_headway_stops": {
        "F": 2.0898842695985507,
        "E": 2.0836747778324023,
        "I": 2.0729788879151707,
        "D": 2.0684805153726162,
        "B": 2.0570851087700297,
        "J": 2.070326228850595,
        "G": 2.0090230399210984,
        "C": 2.0680477727097455,
        "K": 2.0675877613230145,
        "H": 2.056904766488709,
        "L": 2.0561790482248745,
        "A": 2.0499941253533565
    },
    "Average_excess_waiting_time": {
        "F": 2021.9707663048637,
        "E": 2017.8288040655827,
        "I": 1950.9937329527086,
        "D": 1998.5822838893253,
        "B": 1967.3043359086807,
        "J": 1932.7596136118184,
        "G": 2054.1912842541656,
        "C": 2011.0946297082685,
        "K": 1951.243669326527,
        "H": 1933.6629160557598,
        "L": 1954.464160843753,
        "A": 1965.225602351895
    },
    "Holding_per_stop": {
        "F": 0,
        "E": 0,
        "I": 0,
        "D": 0,
        "B": 0,
        "J": 0,
        "G": 0,
        "C": 0,
        "K": 0,
        "H": 0,
        "L": 0,
        "A": 0
    },
    "Load_per_bus_per_stop": {
        "bus3": {
            "F": 44,
            "G": 46.63636363636363,
            "H": 47.54545454545455,
            "I": 49.09090909090909,
            "J": 50,
            "K": 49.63636363636363,
            "L": 47.90909090909091,
            "A": 47.90909090909091,
            "B": 47.18181818181818,
            "C": 46.63636363636363,
            "D": 47.54545454545455,
            "E": 46.45454545454545
        },
        "bus2": {
            "E": 4.416666666666667,
            "F": 4.333333333333333,
            "G": 4.454545454545454,
            "H": 4.909090909090909,
            "I": 4.7272727272727275,
            "J": 4.818181818181818,
            "K": 4.7272727272727275,
            "L": 5.090909090909091,
            "A": 5.636363636363637,
            "B": 5.545454545454546,
            "C": 4.909090909090909,
            "D": 5.181818181818182
        },
        "bus4": {
            "I": 5.454545454545454,
            "J": 5.909090909090909,
            "K": 5.909090909090909,
            "L": 6.909090909090909,
            "A": 7.363636363636363,
            "B": 7.545454545454546,
            "C": 7.2727272727272725,
            "D": 6.454545454545454,
            "E": 6.545454545454546,
            "F": 5.818181818181818,
            "G": 5.9,
            "H": 5.4
        },
        "bus1": {
            "D": 4.833333333333333,
            "E": 4.916666666666667,
            "F": 4.75,
            "G": 4.454545454545454,
            "H": 5,
            "I": 5,
            "J": 5.454545454545454,
            "K": 5.545454545454546,
            "L": 5.454545454545454,
            "A": 5.363636363636363,
            "B": 5.454545454545454,
            "C": 5.363636363636363
        },
        "bus0": {
            "B": 500.09090909090907,
            "C": 502.1818181818182,
            "D": 503.90909090909093,
            "E": 513.2727272727273,
            "F": 523.3636363636364,
            "G": 528.4545454545455,
            "H": 504.1,
            "I": 511.3,
            "J": 519.2,
            "K": 522.8,
            "L": 533.7,
            "A": 540.6
        },
        "bus5": {
            "J": 73.45454545454545,
            "K": 75.63636363636364,
            "L": 74.45454545454545,
            "A": 74.18181818181819,
            "B": 76,
            "C": 77.72727272727273,
            "D": 78.63636363636364,
            "E": 78.27272727272727,
            "F": 77.54545454545455,
            "G": 81.3,
            "H": 80.8,
            "I": 81.4
        }
    }
}