{
    "Average_holding_time": 0,
    "Average_holding_actions": [
        786,
        0,
        0,
        0,
        0,
        0
    ],
    "Average_travel_time_passengers": 4851.086882152633,
    "Average_passenger_waiting_time": 2178.4323617603586,
    "Average_passenger_in_vehicle_time": 2672.654520392404,
    "Average_speed_busses": 0.03275,
    "Average_experienced_crowding": 384.5749719063823,
    "Average_covariation_headway": 2.0174827297276265,
    "Average_covariation_headway_stops": {
        "E": 2.0699958629445097,
        "G": 1.9917370734015079,
        "C": 2.0655498752606847,
        "I": 2.056410928839052,
        "K": 2.049452818114846,
        "A": 2.0544144412148864,
        "D": 2.04561852122515,
        "H": 2.0374016350866353,
        "F": 2.0483068856147137,
        "J": 2.0378086505386763,
        "L": 2.0393550222737176,
        "B": 2.0492284815486927
    },
    "Average_excess_waiting_time": {
        "E": 1987.156442308426,
        "G": 2012.066934414937,
        "C": 1964.5358807141747,
        "I": 1916.9658890769992,
        "K": 1916.700342446712,
        "A": 1936.857704494928,
        "D": 1956.1320688476517,
        "H": 1899.7114107487123,
        "F": 1970.7707412810964,
        "J": 1909.222899246292,
        "L": 1923.0121339228385,
        "B": 1947.3664910512166
    },
    "Holding_per_stop": {
        "E": 0,
        "G": 0,
        "C": 0,
        "I": 0,
        "K": 0,
        "A": 0,
        "D": 0,
        "H": 0,
        "F": 0,
        "J": 0,
        "L": 0,
        "B": 0
    },
    "Actions_tfl_edges": {
        "BC": [
            67,
            0,
            0
        ],
        "DE": [
            68,
            0,
            0
        ],
        "FG": [
            69,
            0,
            0
        ],
        "HI": [
            64,
            0,
            0
        ],
        "JK": [
            65,
            0,
            0
        ],
        "LA": [
            66,
            0,
            0
        ],
        "EF": [
            68,
            0,
            0
        ],
        "GH": [
            63,
            0,
            0
        ],
        "CD": [
            67,
            0,
            0
        ],
        "IJ": [
            64,
            0,
            0
        ],
        "KL": [
            65,
            0,
            0
        ],
        "AB": [
            66,
            0,
            0
        ]
    },
    "Load_per_bus_per_stop": {
        "bus1": {
            "E": 25.333333333333332,
            "F": 24.583333333333332,
            "G": 26.818181818181817,
            "H": 27,
            "I": 27,
            "J": 28.181818181818183,
            "K": 28.363636363636363,
            "L": 28.363636363636363,
            "A": 28.454545454545453,
            "B": 28.181818181818183,
            "C": 28.636363636363637,
            "D": 27.09090909090909
        },
        "bus2": {
            "G": 30.90909090909091,
            "H": 31.272727272727273,
            "I": 31.272727272727273,
            "J": 30.636363636363637,
            "K": 31,
            "L": 29.545454545454547,
            "A": 29.454545454545453,
            "B": 30.363636363636363,
            "C": 29.90909090909091,
            "D": 27.727272727272727,
            "E": 28.90909090909091,
            "F": 30.181818181818183
        },
        "bus0": {
            "C": 6.75,
            "D": 7.583333333333333,
            "E": 7.25,
            "F": 7.75,
            "G": 10,
            "H": 9,
            "I": 9.545454545454545,
            "J": 8.818181818181818,
            "K": 8.818181818181818,
            "L": 7.909090909090909,
            "A": 8.636363636363637,
            "B": 8.636363636363637
        },
        "bus3": {
            "I": 8.818181818181818,
            "J": 10,
            "K": 10.363636363636363,
            "L": 10.545454545454545,
            "A": 10.272727272727273,
            "B": 10.636363636363637,
            "C": 10.818181818181818,
            "D": 9.727272727272727,
            "E": 9.363636363636363,
            "F": 9.454545454545455,
            "G": 9.7,
            "H": 9.2
        },
        "bus4": {
            "K": 23.545454545454547,
            "L": 24.181818181818183,
            "A": 25.454545454545453,
            "B": 25.636363636363637,
            "C": 26.363636363636363,
            "D": 26.454545454545453,
            "E": 26,
            "F": 25,
            "G": 24.8,
            "H": 26.5,
            "I": 25.8,
            "J": 26.2
        },
        "bus5": {
            "A": 349.3636363636364,
            "B": 353.72727272727275,
            "C": 355.09090909090907,
            "D": 367.90909090909093,
            "E": 377.09090909090907,
            "F": 385.1818181818182,
            "G": 384.09090909090907,
            "H": 369.7,
            "I": 373.7,
            "J": 377.4,
            "K": 377.8,
            "L": 377.8
        }
    },
    "Obs_and_actions_busses": {
        "0": 16.60413496930518
    },
    "Obs_and_actions_tfls": {
        "0": 94.80194649726846
    }
}