{
    "Average_holding_time": 5.884529977794227,
    "Average_travel_time_passengers": 2252.8759867583854,
    "Average_speed_busses": 0.05629166666666666,
    "Average_experienced_crowding": 67.63774529693885,
    "Average_covariation_headway": 0.06950335592660524,
    "Average_covariation_headway_stops": {
        "C": 0.05656015426686783,
        "G": 0.10807549053656716,
        "H": 0.0937878622902961,
        "J": 0.06552879905321052,
        "L": 0.063037922817796,
        "A": 0.06658989095855285,
        "D": 0.026682368994947324,
        "K": 0.03667692176810121,
        "I": 0.054888919657244586,
        "B": 0.024642373454633063,
        "E": 0.04785629161497369,
        "F": 0.08958114306540123
    },
    "Average_excess_waiting_time": {
        "C": 8.949313880520776,
        "G": 13.564402229688142,
        "H": 11.721192151677485,
        "J": 10.49685346119054,
        "L": 10.45736136747064,
        "A": 9.342535315861141,
        "D": 9.43868154572499,
        "K": 10.836079918450707,
        "I": 11.359918983930925,
        "B": 9.495379989776097,
        "E": 10.995239547020958,
        "F": 13.799501148338436
    },
    "Holding_per_stop": {
        "C": 3.185840707964602,
        "J": 6.6371681415929205,
        "H": 6.371681415929204,
        "A": 5.575221238938053,
        "G": 7.767857142857143,
        "L": 6.6371681415929205,
        "D": 5.04424778761062,
        "I": 5.625,
        "B": 3.4513274336283186,
        "K": 8.035714285714286,
        "E": 6.428571428571429,
        "F": 5.892857142857143
    },
    "Load_per_bus_per_stop": {
        "bus0": {
            "C": 67.05263157894737,
            "D": 67.21052631578948,
            "E": 67.73684210526316,
            "F": 68.94736842105263,
            "G": 68.42105263157895,
            "H": 68.15789473684211,
            "I": 69.42105263157895,
            "J": 70.36842105263158,
            "K": 70.57894736842105,
            "L": 70.78947368421052,
            "A": 71.83333333333333,
            "B": 70.88888888888889
        },
        "bus1": {
            "G": 69.3157894736842,
            "H": 68.26315789473684,
            "I": 67.47368421052632,
            "J": 67.47368421052632,
            "K": 68.47368421052632,
            "L": 67.6842105263158,
            "A": 69.21052631578948,
            "B": 69.78947368421052,
            "C": 70,
            "D": 73.38888888888889,
            "E": 73.33333333333333,
            "F": 74.16666666666667
        },
        "bus2": {
            "H": 61.473684210526315,
            "I": 62.21052631578947,
            "J": 62.94736842105263,
            "K": 64.15789473684211,
            "L": 64.47368421052632,
            "A": 63.94736842105263,
            "B": 63.63157894736842,
            "C": 63.526315789473685,
            "D": 64.05263157894737,
            "E": 64.27777777777777,
            "F": 63.44444444444444,
            "G": 64.94444444444444
        },
        "bus3": {
            "J": 62.94736842105263,
            "K": 63.10526315789474,
            "L": 63,
            "A": 64.26315789473684,
            "B": 65.84210526315789,
            "C": 65.21052631578948,
            "D": 65.73684210526316,
            "E": 66.84210526315789,
            "F": 65.3157894736842,
            "G": 65.38888888888889,
            "H": 65.16666666666667,
            "I": 65.66666666666667
        },
        "bus4": {
            "L": 66.3157894736842,
            "A": 66.78947368421052,
            "B": 67.94736842105263,
            "C": 68.26315789473684,
            "D": 69.52631578947368,
            "E": 68.47368421052632,
            "F": 68.84210526315789,
            "G": 68.42105263157895,
            "H": 68.84210526315789,
            "I": 70.94444444444444,
            "J": 70,
            "K": 69.88888888888889
        },
        "bus5": {
            "A": 64.3157894736842,
            "B": 67.42105263157895,
            "C": 68.84210526315789,
            "D": 68.57894736842105,
            "E": 68.36842105263158,
            "F": 68.52631578947368,
            "G": 68.3157894736842,
            "H": 67.63157894736842,
            "I": 67.6842105263158,
            "J": 67.63157894736842,
            "K": 67.94444444444444,
            "L": 67.27777777777777
        }
    }
}