{
    "Average_holding_time": 5.416359616801769,
    "Average_travel_time_passengers": 2234.97512126386,
    "Average_speed_busses": 0.056541666666666664,
    "Average_experienced_crowding": 66.8298193389255,
    "Average_covariation_headway": 0.06738387124952665,
    "Average_covariation_headway_stops": {
        "B": 0.09176578978264373,
        "C": 0.08290468786830091,
        "D": 0.07737359972008596,
        "F": 0.05877031077917435,
        "H": 0.05822092683006442,
        "L": 0.10608224876776319,
        "E": 0.041315775165796924,
        "G": 0.02655574136437949,
        "A": 0.09358105730820133,
        "I": 0.025636146964129067,
        "J": 0.04661184067491582,
        "K": 0.08889009111413407
    },
    "Average_excess_waiting_time": {
        "B": 12.216267896775946,
        "C": 10.655906234922384,
        "D": 9.238608482087216,
        "F": 8.570346818250869,
        "H": 8.540410122417654,
        "L": 13.058676758083095,
        "E": 9.287096676007593,
        "G": 9.016268080845862,
        "A": 13.52481889932477,
        "I": 9.061277026576988,
        "J": 10.610569468485664,
        "K": 13.393467228765019
    },
    "Holding_per_stop": {
        "D": 8.157894736842104,
        "F": 4.473684210526316,
        "L": 4.247787610619469,
        "H": 3.6842105263157894,
        "B": 7.433628318584071,
        "C": 7.964601769911504,
        "E": 5.575221238938053,
        "G": 5.3097345132743365,
        "I": 3.4513274336283186,
        "A": 5.625,
        "J": 4.778761061946903,
        "K": 4.285714285714286
    },
    "Load_per_bus_per_stop": {
        "bus0": {
            "B": 62.94736842105263,
            "C": 62.421052631578945,
            "D": 63.10526315789474,
            "E": 62.89473684210526,
            "F": 63.578947368421055,
            "G": 63.21052631578947,
            "H": 64.10526315789474,
            "I": 65,
            "J": 64.94736842105263,
            "K": 66,
            "L": 66.05555555555556,
            "A": 67.16666666666667
        },
        "bus1": {
            "C": 66.73684210526316,
            "D": 66.94736842105263,
            "E": 66.21052631578948,
            "F": 65.15789473684211,
            "G": 64.94736842105263,
            "H": 65.42105263157895,
            "I": 64.94736842105263,
            "J": 65.15789473684211,
            "K": 64.21052631578948,
            "L": 62.26315789473684,
            "A": 64.38888888888889,
            "B": 68.38888888888889
        },
        "bus2": {
            "D": 65.78947368421052,
            "E": 66.36842105263158,
            "F": 63.63157894736842,
            "G": 63.526315789473685,
            "H": 63.8421052631579,
            "I": 64.78947368421052,
            "J": 64.84210526315789,
            "K": 64.84210526315789,
            "L": 65.89473684210526,
            "A": 67.21052631578948,
            "B": 68.63157894736842,
            "C": 69
        },
        "bus3": {
            "F": 67.36842105263158,
            "G": 67.47368421052632,
            "H": 68.36842105263158,
            "I": 68.52631578947368,
            "J": 69.26315789473684,
            "K": 68.05263157894737,
            "L": 68.57894736842105,
            "A": 69.21052631578948,
            "B": 68.94736842105263,
            "C": 70.21052631578948,
            "D": 71.36842105263158,
            "E": 70.61111111111111
        },
        "bus4": {
            "H": 65.94736842105263,
            "I": 67.21052631578948,
            "J": 68.26315789473684,
            "K": 69.21052631578948,
            "L": 69.3157894736842,
            "A": 68.94736842105263,
            "B": 68,
            "C": 69.21052631578948,
            "D": 69.94736842105263,
            "E": 70.57894736842105,
            "F": 70.05263157894737,
            "G": 69.5
        },
        "bus5": {
            "L": 63.26315789473684,
            "A": 64.78947368421052,
            "B": 63.578947368421055,
            "C": 63.63157894736842,
            "D": 64.73684210526316,
            "E": 65.84210526315789,
            "F": 64.21052631578948,
            "G": 64.3157894736842,
            "H": 64.42105263157895,
            "I": 64.66666666666667,
            "J": 65.88888888888889,
            "K": 66.55555555555556
        }
    }
}