{
    "Average_holding_time": 7.2383073496659245,
    "Average_travel_time_passengers": 2272.864370947017,
    "Average_speed_busses": 0.056125,
    "Average_experienced_crowding": 67.91857170092034,
    "Average_covariation_headway": 0.1130294332815731,
    "Average_covariation_headway_stops": {
        "B": 0.23608804865592892,
        "C": 0.21933289237718784,
        "D": 0.20303286550124477,
        "E": 0.18690316806776622,
        "F": 0.17138547648918476,
        "G": 0.1561132776143191,
        "H": 0.12722369922898716,
        "I": 0.1141957176744941,
        "J": 0.1224376451009311,
        "K": 0.1476515141511125,
        "L": 0.18476023285718304,
        "A": 0.22532596234007674
    },
    "Average_excess_waiting_time": {
        "B": 28.226139139743168,
        "C": 24.89356316759813,
        "D": 21.853300559535626,
        "E": 19.092864788823647,
        "F": 16.435395672068523,
        "G": 13.931200945691955,
        "H": 12.916055587344488,
        "I": 13.25936044327949,
        "J": 14.965588141848855,
        "K": 17.946755904461156,
        "L": 22.49921127423005,
        "A": 28.159081046472693
    },
    "Holding_per_stop": {
        "G": 10,
        "B": 4.324324324324325,
        "C": 6.696428571428571,
        "D": 6.964285714285714,
        "E": 7.964601769911504,
        "F": 9.026548672566372,
        "H": 9.29203539823009,
        "I": 8.230088495575222,
        "J": 7.5,
        "K": 6.428571428571429,
        "L": 6.486486486486487,
        "A": 3.7837837837837838
    },
    "Load_per_bus_per_stop": {
        "bus0": {
            "B": 65.57894736842105,
            "C": 64.78947368421052,
            "D": 65.63157894736842,
            "E": 66.15789473684211,
            "F": 66.21052631578948,
            "G": 67.57894736842105,
            "H": 68.5,
            "I": 68.83333333333333,
            "J": 67.61111111111111,
            "K": 68.22222222222223,
            "L": 68.22222222222223,
            "A": 68.11111111111111
        },
        "bus1": {
            "C": 59.10526315789474,
            "D": 60.1578947368421,
            "E": 61.1578947368421,
            "F": 62,
            "G": 62,
            "H": 62.1578947368421,
            "I": 63.31578947368421,
            "J": 62.166666666666664,
            "K": 62.388888888888886,
            "L": 62.888888888888886,
            "A": 63.05555555555556,
            "B": 62.888888888888886
        },
        "bus2": {
            "D": 61.26315789473684,
            "E": 62.26315789473684,
            "F": 62.31578947368421,
            "G": 62.94736842105263,
            "H": 63.78947368421053,
            "I": 63.78947368421053,
            "J": 64.89473684210526,
            "K": 64.84210526315789,
            "L": 65.33333333333333,
            "A": 66.11111111111111,
            "B": 66.27777777777777,
            "C": 64.94444444444444
        },
        "bus3": {
            "E": 64,
            "F": 63.421052631578945,
            "G": 64.6842105263158,
            "H": 64.3157894736842,
            "I": 64.10526315789474,
            "J": 65.57894736842105,
            "K": 65.89473684210526,
            "L": 66.63157894736842,
            "A": 69.05263157894737,
            "B": 67.5,
            "C": 68.11111111111111,
            "D": 67.27777777777777
        },
        "bus4": {
            "F": 64.89473684210526,
            "G": 64.47368421052632,
            "H": 67.36842105263158,
            "I": 68.57894736842105,
            "J": 70,
            "K": 70.78947368421052,
            "L": 69.15789473684211,
            "A": 68.89473684210526,
            "B": 67.78947368421052,
            "C": 68.15789473684211,
            "D": 66.38888888888889,
            "E": 67.22222222222223
        },
        "bus5": {
            "G": 68.36842105263158,
            "H": 68.3157894736842,
            "I": 70.3157894736842,
            "J": 71.42105263157895,
            "K": 71.26315789473684,
            "L": 69.26315789473684,
            "A": 71.78947368421052,
            "B": 73.21052631578948,
            "C": 74.6842105263158,
            "D": 73.36842105263158,
            "E": 72.73684210526316,
            "F": 72.72222222222223
        }
    }
}