{
    "Average_holding_time": 0,
    "Average_travel_time_passengers": 8665.686908307789,
    "Average_speed_busses": 0.0225,
    "Average_experienced_crowding": 1035.5541480400884,
    "Average_covariation_headway": 2.3291976719007677,
    "Average_covariation_headway_stops": {
        "H": 2.1481157688502126,
        "I": 2.2933779567445844,
        "F": 2.0264204155409344,
        "J": 2.3398053431871015,
        "A": 2.3270769156947186,
        "B": 2.3375859291887258,
        "G": 1.8773071594458177,
        "K": 2.327338811641781,
        "C": 2.3113490465983433,
        "L": 2.3170313174709594,
        "D": 2.281007518417776,
        "E": 2.266354231788013
    },
    "Average_excess_waiting_time": {
        "H": 3176.4132470378095,
        "I": 3526.460668565609,
        "F": 2768.266873850907,
        "J": 3618.3730377608144,
        "A": 3635.8821060188757,
        "B": 3634.0400174807023,
        "G": 2533.8719644136645,
        "K": 3625.8502764006917,
        "C": 3611.739214608136,
        "L": 3640.1628269804614,
        "D": 3323.4835266412692,
        "E": 3343.870847122141
    },
    "Holding_per_stop": {
        "H": 0,
        "I": 0,
        "J": 0,
        "F": 0,
        "A": 0,
        "B": 0,
        "G": 0,
        "K": 0,
        "C": 0,
        "L": 0,
        "D": 0,
        "E": 0
    },
    "Actions_tfl_edges": {},
    "Load_per_bus_per_stop": {
        "bus2": {
            "H": 6.125,
            "I": 5.5,
            "J": 5.375,
            "K": 4.625,
            "L": 4.25,
            "A": 3.5,
            "B": 3.375,
            "C": 3.125,
            "D": 3.2857142857142856,
            "E": 3.4285714285714284,
            "F": 3.7142857142857144,
            "G": 5.428571428571429
        },
        "bus3": {
            "I": 12.5,
            "J": 11.25,
            "K": 10.125,
            "L": 8,
            "A": 7.75,
            "B": 6.25,
            "C": 5.125,
            "D": 5.285714285714286,
            "E": 4.857142857142857,
            "F": 8.571428571428571,
            "G": 12.857142857142858,
            "H": 14.285714285714286
        },
        "bus1": {
            "F": 24.25,
            "G": 32.125,
            "H": 34.5,
            "I": 33.125,
            "J": 30.25,
            "K": 28,
            "L": 26.25,
            "A": 23.875,
            "B": 21.875,
            "C": 20.375,
            "D": 22.142857142857142,
            "E": 22.142857142857142
        },
        "bus4": {
            "J": 45.75,
            "K": 40.75,
            "L": 38,
            "A": 34.125,
            "B": 30.875,
            "C": 28,
            "D": 26.285714285714285,
            "E": 26,
            "F": 36.42857142857143,
            "G": 57.42857142857143,
            "H": 57.42857142857143,
            "I": 55.142857142857146
        },
        "bus5": {
            "A": 90.25,
            "B": 77.375,
            "C": 66.25,
            "D": 52.57142857142857,
            "E": 49.285714285714285,
            "F": 92.71428571428571,
            "G": 165.71428571428572,
            "H": 174.57142857142858,
            "I": 162.57142857142858,
            "J": 148.71428571428572,
            "K": 135,
            "L": 120.57142857142857
        },
        "bus0": {
            "B": 796.625,
            "C": 757.375,
            "D": 670.1428571428571,
            "E": 673.1428571428571,
            "F": 883.2857142857143,
            "G": 1191.2857142857142,
            "H": 1301.5714285714287,
            "I": 1285.4285714285713,
            "J": 1229.2857142857142,
            "K": 1162.857142857143,
            "L": 1086.2857142857142,
            "A": 999.5714285714286
        }
    }
}