{
    "Average_holding_time": 36.984375,
    "Average_holding_actions": [
        370,
        0,
        152,
        71,
        30,
        0
    ],
    "Average_travel_time_passengers": 6783.489996288493,
    "Average_passenger_waiting_time": 2565.143861093358,
    "Average_passenger_in_vehicle_time": 4218.346135195187,
    "Average_speed_busses": 0.02666666666666667,
    "Average_experienced_crowding": 620.3301626042537,
    "Average_covariation_headway": 2.1927626034000802,
    "Average_covariation_headway_stops": {
        "K": 1.988881223663627,
        "C": 1.9831903440421181,
        "D": 1.990307976808051,
        "I": 1.997057005538108,
        "L": 1.9209828029591127,
        "E": 1.9991801731871153,
        "A": 1.9926711633122527,
        "J": 1.996196137255784,
        "F": 1.9880817023269208,
        "B": 1.955087369029598,
        "G": 1.9770555202329285,
        "H": 1.985639864602958
    },
    "Average_excess_waiting_time": {
        "K": 2327.988065544506,
        "C": 2286.960169978707,
        "D": 2280.2907970100623,
        "I": 2340.0600080317645,
        "L": 2380.399287412343,
        "E": 2281.001003104963,
        "A": 2303.141112808931,
        "J": 2366.224997472488,
        "F": 2284.911694861471,
        "B": 2251.9750919760436,
        "G": 2290.0861672078636,
        "H": 2336.670858621438
    },
    "Holding_per_stop": {
        "D": 36.79245283018868,
        "L": 37.64705882352941,
        "K": 36.964285714285715,
        "C": 34.61538461538461,
        "I": 38.72727272727273,
        "A": 31.764705882352942,
        "E": 41.111111111111114,
        "J": 34.36363636363637,
        "B": 38.8235294117647,
        "F": 42.22222222222222,
        "G": 39.44444444444444,
        "H": 31.11111111111111
    },
    "Actions_tfl_edges": {
        "BC": [
            52,
            0,
            0
        ],
        "CD": [
            53,
            0,
            0
        ],
        "DE": [
            54,
            0,
            0
        ],
        "HI": [
            55,
            0,
            0
        ],
        "JK": [
            56,
            0,
            0
        ],
        "KL": [
            57,
            0,
            0
        ],
        "LA": [
            51,
            0,
            0
        ],
        "IJ": [
            55,
            0,
            0
        ],
        "AB": [
            51,
            0,
            0
        ],
        "EF": [
            54,
            0,
            0
        ],
        "FG": [
            54,
            0,
            0
        ],
        "GH": [
            54,
            0,
            0
        ]
    },
    "Load_per_bus_per_stop": {
        "bus4": {
            "K": 14.9,
            "L": 16.666666666666668,
            "A": 18,
            "B": 19,
            "C": 19,
            "D": 19.555555555555557,
            "E": 18.88888888888889,
            "F": 19.666666666666668,
            "G": 18.22222222222222,
            "H": 18.333333333333332,
            "I": 18.22222222222222,
            "J": 17.77777777777778
        },
        "bus0": {
            "C": 4.555555555555555,
            "D": 4.333333333333333,
            "E": 4.888888888888889,
            "F": 5.111111111111111,
            "G": 6.777777777777778,
            "H": 6.666666666666667,
            "I": 6.333333333333333,
            "J": 6.222222222222222,
            "K": 5.888888888888889,
            "L": 5.75,
            "A": 5.625,
            "B": 5.125
        },
        "bus1": {
            "D": 36.44444444444444,
            "E": 35.888888888888886,
            "F": 36.111111111111114,
            "G": 36.55555555555556,
            "H": 38.44444444444444,
            "I": 40.22222222222222,
            "J": 40.55555555555556,
            "K": 40.55555555555556,
            "L": 41.75,
            "A": 40.625,
            "B": 42.75,
            "C": 42.375
        },
        "bus3": {
            "I": 41.5,
            "J": 40,
            "K": 39.9,
            "L": 45.333333333333336,
            "A": 44.111111111111114,
            "B": 43.55555555555556,
            "C": 44.77777777777778,
            "D": 46.55555555555556,
            "E": 47.666666666666664,
            "F": 48.111111111111114,
            "G": 46.888888888888886,
            "H": 44.22222222222222
        },
        "bus5": {
            "L": 14.666666666666666,
            "A": 13.11111111111111,
            "B": 14.222222222222221,
            "C": 15.333333333333334,
            "D": 16.11111111111111,
            "E": 16.11111111111111,
            "F": 15.555555555555555,
            "G": 15,
            "H": 15.11111111111111,
            "I": 14.555555555555555,
            "J": 14.11111111111111,
            "K": 15
        },
        "bus2": {
            "E": 631,
            "F": 638.4444444444445,
            "G": 654.3333333333334,
            "H": 664.6666666666666,
            "I": 673.8888888888889,
            "J": 675.8888888888889,
            "K": 690.4444444444445,
            "L": 696.2222222222222,
            "A": 679.875,
            "B": 692.125,
            "C": 699.875,
            "D": 704.25
        }
    },
    "Obs_and_actions_busses": {
        "4": 863.0671210409657,
        "0": -7.424630336709263,
        "2": 6192.969437414004,
        "3": 1259.6103280386474,
        "5": -2883.24445131675
    },
    "Obs_and_actions_tfls": {
        "0": 13.756950981461678
    }
}