{
    "Average_holding_time": 16.99208443271768,
    "Average_holding_actions": [
        920,
        0,
        147,
        0,
        70,
        0
    ],
    "Average_travel_time_passengers": 2737.0100603714936,
    "Average_passenger_waiting_time": 362.8361571055376,
    "Average_passenger_in_vehicle_time": 2374.173903265949,
    "Average_speed_busses": 0.047375,
    "Average_experienced_crowding": 90.35411870879123,
    "Average_covariation_headway": 0.5201150012403561,
    "Average_covariation_headway_stops": {
        "B": 0.4287271799156932,
        "K": 0.4170144376945055,
        "L": 0.41012717707561025,
        "G": 0.3970888107618045,
        "E": 0.4230222829990277,
        "C": 0.4396273895041368,
        "F": 0.4077965403441146,
        "A": 0.403417953870189,
        "D": 0.43365934094265296,
        "H": 0.4150262394882209,
        "I": 0.4155714774910066,
        "J": 0.4222348222874051
    },
    "Average_excess_waiting_time": {
        "B": 94.92448173179486,
        "K": 93.71279601551373,
        "L": 90.60968287659699,
        "G": 86.11544884386763,
        "E": 91.41866881897738,
        "C": 96.0020612717405,
        "F": 90.74195087365177,
        "A": 90.67724525052398,
        "D": 96.68622454376526,
        "H": 92.79686144974295,
        "I": 93.76942957776271,
        "J": 97.52784357842694
    },
    "Holding_per_stop": {
        "G": 11.052631578947368,
        "L": 16.42105263157895,
        "E": 17.36842105263158,
        "C": 13.75,
        "B": 12.631578947368421,
        "K": 22.736842105263158,
        "F": 16.595744680851062,
        "D": 21.157894736842106,
        "A": 13.72340425531915,
        "H": 21.789473684210527,
        "I": 19.148936170212767,
        "J": 17.5531914893617
    },
    "Actions_tfl_edges": {
        "AB": [
            95,
            0,
            0
        ],
        "BC": [
            96,
            0,
            0
        ],
        "DE": [
            96,
            0,
            0
        ],
        "FG": [
            95,
            0,
            0
        ],
        "JK": [
            95,
            0,
            0
        ],
        "KL": [
            96,
            0,
            0
        ],
        "GH": [
            95,
            0,
            0
        ],
        "LA": [
            95,
            0,
            0
        ],
        "EF": [
            95,
            0,
            0
        ],
        "CD": [
            95,
            0,
            0
        ],
        "HI": [
            95,
            0,
            0
        ],
        "IJ": [
            94,
            0,
            0
        ]
    },
    "Load_per_bus_per_stop": {
        "bus0": {
            "B": 55.375,
            "C": 55,
            "D": 55.4375,
            "E": 56.375,
            "F": 56.25,
            "G": 57.8125,
            "H": 57.5,
            "I": 58.1875,
            "J": 57.8125,
            "K": 58.125,
            "L": 58.8,
            "A": 58.86666666666667
        },
        "bus4": {
            "K": 78.75,
            "L": 78.875,
            "A": 80,
            "B": 81.25,
            "C": 81.625,
            "D": 82.5,
            "E": 83.375,
            "F": 81.46666666666667,
            "G": 81.8,
            "H": 83.46666666666667,
            "I": 84.46666666666667,
            "J": 84.8
        },
        "bus5": {
            "L": 54.875,
            "A": 54.1875,
            "B": 54.0625,
            "C": 56.25,
            "D": 57.625,
            "E": 58.375,
            "F": 58.1875,
            "G": 58.1875,
            "H": 59.125,
            "I": 57.53333333333333,
            "J": 58.93333333333333,
            "K": 59
        },
        "bus3": {
            "G": 92.75,
            "H": 90,
            "I": 91.375,
            "J": 90.1875,
            "K": 90.9375,
            "L": 94.9375,
            "A": 96.25,
            "B": 95.8125,
            "C": 95.5,
            "D": 96,
            "E": 96.9375,
            "F": 98.6
        },
        "bus2": {
            "E": 89.25,
            "F": 91.125,
            "G": 89.6875,
            "H": 93.1875,
            "I": 93.8125,
            "J": 93.0625,
            "K": 93.1875,
            "L": 93.9375,
            "A": 92.125,
            "B": 93.625,
            "C": 93.1875,
            "D": 94.53333333333333
        },
        "bus1": {
            "C": 88.6875,
            "D": 90.4375,
            "E": 92.625,
            "F": 93.1875,
            "G": 94.3125,
            "H": 93.25,
            "I": 93.375,
            "J": 93.5625,
            "K": 93.5625,
            "L": 91.6875,
            "A": 92.2,
            "B": 93.66666666666667
        }
    },
    "Obs_and_actions_busses": {
        "5": 409.1929505254518,
        "0": -199.690229122974,
        "2": 227.23497230629107
    },
    "Obs_and_actions_tfls": {
        "0": 114.0675854482384
    }
}