{
    "Average_holding_time": 19.672566371681416,
    "Average_holding_actions": [
        872,
        40,
        0,
        37,
        5,
        0
    ],
    "Average_travel_time_passengers": 2704.1420843530022,
    "Average_passenger_waiting_time": 330.7211429642605,
    "Average_passenger_in_vehicle_time": 2373.4209413886983,
    "Average_speed_busses": 0.04708333333333333,
    "Average_experienced_crowding": 81.80377880845182,
    "Average_covariation_headway": 0.330472377866241,
    "Average_covariation_headway_stops": {
        "J": 0.2521344274108476,
        "G": 0.26451266162300424,
        "C": 0.2670029577745723,
        "I": 0.25045248516970015,
        "K": 0.256651002791879,
        "F": 0.2613481834492474,
        "H": 0.2477565551699487,
        "L": 0.2441144481036425,
        "D": 0.23885372885107248,
        "A": 0.22153408988635828,
        "E": 0.2455742679620106,
        "B": 0.25580446216626773
    },
    "Average_excess_waiting_time": {
        "J": 58.39658538386158,
        "G": 62.47100296663001,
        "C": 62.03042329167357,
        "I": 59.93219829205259,
        "K": 57.71276256081137,
        "F": 63.24164850710224,
        "H": 61.33422129185027,
        "L": 57.238564791689214,
        "D": 59.612563398848806,
        "A": 55.354437583399886,
        "E": 62.450411598830215,
        "B": 62.209277527246684
    },
    "Holding_per_stop": {
        "G": 19.78723404255319,
        "I": 27.127659574468087,
        "J": 18.63157894736842,
        "K": 26.526315789473685,
        "C": 23.93617021276596,
        "F": 23.93617021276596,
        "H": 17.872340425531913,
        "L": 24.94736842105263,
        "D": 12.127659574468085,
        "A": 7.0212765957446805,
        "E": 19.35483870967742,
        "B": 14.680851063829786
    },
    "Actions_tfl_edges": {
        "BC": [
            95,
            0,
            0
        ],
        "EF": [
            94,
            0,
            0
        ],
        "FG": [
            95,
            0,
            0
        ],
        "HI": [
            95,
            0,
            0
        ],
        "IJ": [
            95,
            0,
            0
        ],
        "JK": [
            96,
            0,
            0
        ],
        "GH": [
            94,
            0,
            0
        ],
        "KL": [
            95,
            0,
            0
        ],
        "CD": [
            94,
            0,
            0
        ],
        "LA": [
            95,
            0,
            0
        ],
        "DE": [
            94,
            0,
            0
        ],
        "AB": [
            94,
            0,
            0
        ]
    },
    "Load_per_bus_per_stop": {
        "bus4": {
            "J": 63.875,
            "K": 65.1875,
            "L": 66.6875,
            "A": 68.75,
            "B": 68.0625,
            "C": 67.4375,
            "D": 66.6875,
            "E": 67.375,
            "F": 67.625,
            "G": 68.33333333333333,
            "H": 69.06666666666666,
            "I": 69.66666666666667
        },
        "bus2": {
            "G": 80.9375,
            "H": 81.0625,
            "I": 84.25,
            "J": 84.5,
            "K": 83.6875,
            "L": 82.8125,
            "A": 84.25,
            "B": 84.3125,
            "C": 84.75,
            "D": 84.13333333333334,
            "E": 84.73333333333333,
            "F": 84.73333333333333
        },
        "bus0": {
            "C": 82.0625,
            "D": 82.25,
            "E": 83,
            "F": 83.0625,
            "G": 81.8125,
            "H": 82.125,
            "I": 82.625,
            "J": 82.375,
            "K": 85.53333333333333,
            "L": 86.33333333333333,
            "A": 86.6,
            "B": 86.26666666666667
        },
        "bus3": {
            "I": 73.125,
            "J": 72.8125,
            "K": 73.25,
            "L": 72.375,
            "A": 73.25,
            "B": 74.125,
            "C": 75.875,
            "D": 78.5625,
            "E": 76.8,
            "F": 77.73333333333333,
            "G": 74.8,
            "H": 74.4
        },
        "bus5": {
            "K": 68.875,
            "L": 68.9375,
            "A": 69.8125,
            "B": 70.75,
            "C": 71.9375,
            "D": 72.5,
            "E": 73.0625,
            "F": 74.8125,
            "G": 75.75,
            "H": 76,
            "I": 75.73333333333333,
            "J": 74.73333333333333
        },
        "bus1": {
            "F": 85.5,
            "G": 86.4375,
            "H": 87.5,
            "I": 88.25,
            "J": 91.0625,
            "K": 89.8125,
            "L": 90.3125,
            "A": 91.06666666666666,
            "B": 90.66666666666667,
            "C": 91.2,
            "D": 89.46666666666667,
            "E": 90.2
        }
    },
    "Obs_and_actions_busses": {
        "0": -185.92300253516976,
        "3": 146.71691486023082,
        "5": 471.3745004801356,
        "1": 83.5345114165999,
        "4": 339.85701431627035
    },
    "Obs_and_actions_tfls": {
        "0": 109.84926780627889
    }
}732656715
    }
}