{
    "Average_holding_time": 15.41958041958042,
    "Average_holding_actions": [
        780,
        152,
        208,
        0,
        4,
        0
    ],
    "Average_travel_time_passengers": 2673.4604324847796,
    "Average_passenger_waiting_time": 374.8801756446051,
    "Average_passenger_in_vehicle_time": 2298.5802568401573,
    "Average_speed_busses": 0.04766666666666667,
    "Average_experienced_crowding": 91.35636219326585,
    "Average_covariation_headway": 0.6235387682356748,
    "Average_covariation_headway_stops": {
        "K": 0.47338316524064494,
        "H": 0.49299373043038736,
        "J": 0.46618687946304926,
        "L": 0.48486794100057695,
        "A": 0.4884102745565674,
        "G": 0.5063148501349237,
        "I": 0.46566726845750406,
        "B": 0.4773746004342461,
        "C": 0.48459139919943944,
        "D": 0.4803259667466044,
        "E": 0.5030298261883877,
        "F": 0.5077149989470479
    },
    "Average_excess_waiting_time": {
        "K": 102.74671240655334,
        "H": 111.06925854300795,
        "J": 102.06642383781457,
        "L": 103.77553501938468,
        "A": 105.39783031302915,
        "G": 117.7250312083346,
        "I": 103.91156361810778,
        "B": 103.8674757666763,
        "C": 108.21461179678886,
        "D": 109.30644876303387,
        "E": 116.42735796641375,
        "F": 119.77180459289144
    },
    "Holding_per_stop": {
        "K": 12.8125,
        "H": 18,
        "J": 13.4375,
        "L": 14.22680412371134,
        "A": 12.989690721649485,
        "G": 18.31578947368421,
        "I": 14.210526315789474,
        "B": 14.842105263157896,
        "C": 16.105263157894736,
        "D": 19.263157894736842,
        "E": 16.914893617021278,
        "F": 14.042553191489361
    },
    "Actions_tfl_edges": {
        "FG": [
            95,
            0,
            0
        ],
        "GH": [
            96,
            0,
            0
        ],
        "IJ": [
            96,
            0,
            0
        ],
        "JK": [
            97,
            0,
            0
        ],
        "KL": [
            97,
            0,
            0
        ],
        "LA": [
            98,
            0,
            0
        ],
        "HI": [
            95,
            0,
            0
        ],
        "AB": [
            97,
            0,
            0
        ],
        "BC": [
            95,
            0,
            0
        ],
        "CD": [
            95,
            0,
            0
        ],
        "DE": [
            95,
            0,
            0
        ],
        "EF": [
            94,
            0,
            0
        ]
    },
    "Load_per_bus_per_stop": {
        "bus3": {
            "K": 50.625,
            "L": 51.6875,
            "A": 52.375,
            "B": 53.5625,
            "C": 53.375,
            "D": 54.25,
            "E": 56.25,
            "F": 55.625,
            "G": 56.1875,
            "H": 55.0625,
            "I": 56.75,
            "J": 56.625
        },
        "bus1": {
            "H": 94.375,
            "I": 96.1875,
            "J": 96.0625,
            "K": 96.625,
            "L": 97.5,
            "A": 100.9375,
            "B": 101.0625,
            "C": 103,
            "D": 101.125,
            "E": 100.06666666666666,
            "F": 100.46666666666667,
            "G": 99.73333333333333
        },
        "bus2": {
            "J": 71.5625,
            "K": 71.375,
            "L": 72.5625,
            "A": 72,
            "B": 74.25,
            "C": 74.5625,
            "D": 74.9375,
            "E": 76.1875,
            "F": 76.3125,
            "G": 75.8125,
            "H": 75.9375,
            "I": 75.66666666666667
        },
        "bus4": {
            "L": 34.411764705882355,
            "A": 34.8125,
            "B": 34.1875,
            "C": 32.5,
            "D": 32.875,
            "E": 34.125,
            "F": 34.25,
            "G": 34.9375,
            "H": 35.1875,
            "I": 34.625,
            "J": 34.3125,
            "K": 35.0625
        },
        "bus5": {
            "A": 84.11764705882354,
            "B": 85.375,
            "C": 85.1875,
            "D": 85.125,
            "E": 88.1875,
            "F": 88.8125,
            "G": 88.875,
            "H": 90.8125,
            "I": 92.625,
            "J": 90.0625,
            "K": 90.6875,
            "L": 90.6875
        },
        "bus0": {
            "G": 104.5625,
            "H": 103.25,
            "I": 104.0625,
            "J": 103.875,
            "K": 104,
            "L": 104.6875,
            "A": 104.3125,
            "B": 104.33333333333333,
            "C": 105.53333333333333,
            "D": 106.4,
            "E": 106.53333333333333,
            "F": 107.6
        }
    },
    "Obs_and_actions_busses": {
        "0": -289.1513974155669,
        "1": 149.3663115093858,
        "2": 318.81741781045315,
        "5": 1127.314279132267
    },
    "Obs_and_actions_tfls": {
        "0": 92.60760452195238
    }
}