{
    "Average_holding_time": 12.185886402753873,
    "Average_holding_actions": [
        989,
        0,
        131,
        0,
        42,
        0
    ],
    "Average_travel_time_passengers": 2636.116561518285,
    "Average_passenger_waiting_time": 331.3737173823621,
    "Average_passenger_in_vehicle_time": 2304.742844135905,
    "Average_speed_busses": 0.04841666666666666,
    "Average_experienced_crowding": 82.4191262323227,
    "Average_covariation_headway": 0.43114773699808917,
    "Average_covariation_headway_stops": {
        "A": 0.31260966427747505,
        "C": 0.327028231799726,
        "I": 0.3286257046968553,
        "K": 0.318600354790307,
        "D": 0.3134390326086694,
        "F": 0.32605326474407104,
        "B": 0.32509585220599413,
        "E": 0.3075388001505637,
        "L": 0.319659436462519,
        "G": 0.3026706398505731,
        "J": 0.3227247826407631,
        "H": 0.31996150894332076
    },
    "Average_excess_waiting_time": {
        "A": 59.10483323462887,
        "C": 64.80353944815738,
        "I": 64.04318821007934,
        "K": 60.33118691463909,
        "D": 60.18822036197105,
        "F": 61.39217707396773,
        "B": 64.3273046739431,
        "E": 60.950912946076244,
        "L": 62.30719702392014,
        "G": 58.65145725409121,
        "J": 63.21041249743524,
        "H": 63.61804801802498
    },
    "Holding_per_stop": {
        "A": 6.494845360824742,
        "C": 12.8125,
        "K": 10.824742268041238,
        "D": 13.917525773195877,
        "F": 18.24742268041237,
        "I": 11.1340206185567,
        "B": 12.061855670103093,
        "E": 11.75257731958763,
        "L": 17.31958762886598,
        "G": 6.804123711340206,
        "J": 12.1875,
        "H": 12.68041237113402
    },
    "Actions_tfl_edges": {
        "BC": [
            98,
            0,
            0
        ],
        "CD": [
            97,
            0,
            0
        ],
        "EF": [
            98,
            0,
            0
        ],
        "HI": [
            98,
            0,
            0
        ],
        "JK": [
            97,
            0,
            0
        ],
        "LA": [
            98,
            0,
            0
        ],
        "AB": [
            97,
            0,
            0
        ],
        "KL": [
            97,
            0,
            0
        ],
        "DE": [
            97,
            0,
            0
        ],
        "FG": [
            97,
            0,
            0
        ],
        "IJ": [
            97,
            0,
            0
        ],
        "GH": [
            97,
            0,
            0
        ]
    },
    "Load_per_bus_per_stop": {
        "bus5": {
            "A": 75.52941176470588,
            "B": 76.17647058823529,
            "C": 79.625,
            "D": 80.875,
            "E": 81.3125,
            "F": 78.9375,
            "G": 78.6875,
            "H": 80.1875,
            "I": 80.9375,
            "J": 79.375,
            "K": 81,
            "L": 80.5625
        },
        "bus0": {
            "C": 73.5,
            "D": 76.625,
            "E": 77.5625,
            "F": 77.125,
            "G": 77.5625,
            "H": 76.3125,
            "I": 76.0625,
            "J": 76.25,
            "K": 77.5,
            "L": 78.5,
            "A": 80.5625,
            "B": 80.9375
        },
        "bus3": {
            "I": 85.47058823529412,
            "J": 84.5,
            "K": 82.9375,
            "L": 82.4375,
            "A": 85.125,
            "B": 86.0625,
            "C": 86.3125,
            "D": 85.75,
            "E": 86.5625,
            "F": 86.875,
            "G": 89.8125,
            "H": 90.125
        },
        "bus4": {
            "K": 66.47058823529412,
            "L": 68.88235294117646,
            "A": 69.29411764705883,
            "B": 68.0625,
            "C": 69.4375,
            "D": 70.875,
            "E": 68.9375,
            "F": 67.5,
            "G": 68.375,
            "H": 68.9375,
            "I": 70.5,
            "J": 70.1875
        },
        "bus1": {
            "D": 61.588235294117645,
            "E": 63.23529411764706,
            "F": 61.8125,
            "G": 62.375,
            "H": 64.1875,
            "I": 65,
            "J": 65.1875,
            "K": 65.625,
            "L": 65.8125,
            "A": 63.9375,
            "B": 63.75,
            "C": 65.3125
        },
        "bus2": {
            "F": 80.29411764705883,
            "G": 82.29411764705883,
            "H": 83.05882352941177,
            "I": 84.875,
            "J": 85.3125,
            "K": 85.3125,
            "L": 84.5625,
            "A": 84.5625,
            "B": 86.375,
            "C": 85.5,
            "D": 85,
            "E": 85.625
        }
    },
    "Obs_and_actions_busses": {
        "0": -196.97406111479535,
        "2": 234.10362222135197,
        "5": 444.15272738788417
    },
    "Obs_and_actions_tfls": {
        "0": 112.50116778995772
    }
}