{
    "Average_holding_time": 14.343257443082312,
    "Average_holding_actions": [
        797,
        150,
        193,
        0,
        2,
        0
    ],
    "Average_travel_time_passengers": 2718.332895688584,
    "Average_passenger_waiting_time": 358.15508026160666,
    "Average_passenger_in_vehicle_time": 2360.177815426967,
    "Average_speed_busses": 0.04758333333333333,
    "Average_experienced_crowding": 90.94180593940197,
    "Average_covariation_headway": 0.5405919785849871,
    "Average_covariation_headway_stops": {
        "A": 0.43427048647107225,
        "L": 0.441339089067573,
        "J": 0.4400137637632102,
        "H": 0.4297297019017271,
        "G": 0.4286506082228508,
        "D": 0.43514873756287165,
        "B": 0.4360463906964878,
        "K": 0.43550313191129575,
        "E": 0.4260709999772774,
        "I": 0.43378361809258276,
        "C": 0.4369232120302565,
        "F": 0.43209667930640777
    },
    "Average_excess_waiting_time": {
        "A": 91.68424063240963,
        "L": 95.34576760757534,
        "J": 97.63593085798749,
        "H": 94.47441936595561,
        "G": 95.70706493223076,
        "D": 92.49692046451656,
        "B": 94.02743129409168,
        "K": 98.42533879346814,
        "E": 91.78387470261481,
        "I": 97.79048832808269,
        "C": 94.85692282152519,
        "F": 96.0379003459467
    },
    "Holding_per_stop": {
        "A": 13.4375,
        "J": 14.842105263157896,
        "H": 13.085106382978724,
        "D": 16.25,
        "L": 16.105263157894736,
        "G": 12.947368421052632,
        "B": 10.9375,
        "K": 15.789473684210526,
        "E": 17.5,
        "I": 13.085106382978724,
        "C": 15.473684210526315,
        "F": 12.631578947368421
    },
    "Actions_tfl_edges": {
        "CD": [
            96,
            0,
            0
        ],
        "FG": [
            96,
            0,
            0
        ],
        "GH": [
            96,
            0,
            0
        ],
        "IJ": [
            95,
            0,
            0
        ],
        "KL": [
            96,
            0,
            0
        ],
        "LA": [
            96,
            0,
            0
        ],
        "AB": [
            96,
            0,
            0
        ],
        "JK": [
            95,
            0,
            0
        ],
        "HI": [
            94,
            0,
            0
        ],
        "DE": [
            96,
            0,
            0
        ],
        "BC": [
            96,
            0,
            0
        ],
        "EF": [
            96,
            0,
            0
        ]
    },
    "Load_per_bus_per_stop": {
        "bus5": {
            "A": 76.625,
            "B": 77.125,
            "C": 77.1875,
            "D": 77.6875,
            "E": 80.25,
            "F": 83.125,
            "G": 85.0625,
            "H": 86.75,
            "I": 87.3125,
            "J": 85.625,
            "K": 85,
            "L": 82.06666666666666
        },
        "bus4": {
            "L": 88.375,
            "A": 90.875,
            "B": 90.9375,
            "C": 90.1875,
            "D": 90.75,
            "E": 93.0625,
            "F": 95.3125,
            "G": 95.5625,
            "H": 93,
            "I": 94.4,
            "J": 93.8,
            "K": 94.26666666666667
        },
        "bus3": {
            "J": 85.3125,
            "K": 86.8125,
            "L": 87.0625,
            "A": 87.4375,
            "B": 88.125,
            "C": 89.0625,
            "D": 90.9375,
            "E": 91.0625,
            "F": 89.9375,
            "G": 88.875,
            "H": 93.33333333333333,
            "I": 93.53333333333333
        },
        "bus2": {
            "H": 63.4375,
            "I": 64.4375,
            "J": 64.625,
            "K": 63.3125,
            "L": 63,
            "A": 62.3125,
            "B": 62.75,
            "C": 63.625,
            "D": 63.875,
            "E": 64.25,
            "F": 63.3125,
            "G": 65.53333333333333
        },
        "bus1": {
            "G": 59.75,
            "H": 60.6875,
            "I": 59.4375,
            "J": 57.8125,
            "K": 60.1875,
            "L": 60.5,
            "A": 61.5625,
            "B": 60.125,
            "C": 60.1875,
            "D": 61.4375,
            "E": 61.625,
            "F": 62.4
        },
        "bus0": {
            "D": 83.3125,
            "E": 82.25,
            "F": 82.9375,
            "G": 86,
            "H": 87.0625,
            "I": 88.1875,
            "J": 90,
            "K": 90.25,
            "L": 91,
            "A": 91.125,
            "B": 90.5,
            "C": 88.33333333333333
        }
    },
    "Obs_and_actions_busses": {
        "0": -259.25074901351127,
        "2": 339.27777655769734,
        "1": 156.29638712143492,
        "5": 632.3588820888672
    },
    "Obs_and_actions_tfls": {
        "0": 108.81644768737607
    }
}
    "Obs_and_actions_tfls": {
        "0": 101.1457602350701
    }
}