{
    "Average_holding_time": 20.31055900621118,
    "Average_holding_actions": [
        559,
        404,
        135,
        0,
        1,
        0
    ],
    "Average_travel_time_passengers": 2734.2065586842095,
    "Average_passenger_waiting_time": 336.24421552252363,
    "Average_passenger_in_vehicle_time": 2397.9623431616706,
    "Average_speed_busses": 0.04695833333333333,
    "Average_experienced_crowding": 85.54363222066003,
    "Average_covariation_headway": 0.36159441679842214,
    "Average_covariation_headway_stops": {
        "B": 0.28824894863174927,
        "J": 0.25960237364751804,
        "D": 0.2686691883038273,
        "G": 0.28116831311369833,
        "H": 0.28248359540294277,
        "E": 0.26355636999127663,
        "K": 0.2635439125434954,
        "F": 0.27085957896341556,
        "C": 0.2738136808272182,
        "I": 0.2644067150014907,
        "L": 0.2451977785995644,
        "A": 0.2521766066825302
    },
    "Average_excess_waiting_time": {
        "B": 68.32075024110549,
        "J": 60.03751290788182,
        "D": 65.51404330308179,
        "G": 66.06743922852269,
        "H": 64.018478429151,
        "E": 63.139384840985144,
        "K": 62.306296471366636,
        "F": 66.1405379779518,
        "C": 68.3676463893238,
        "I": 62.67212516114898,
        "L": 60.99339866807611,
        "A": 64.15161026537902
    },
    "Holding_per_stop": {
        "J": 19.894736842105264,
        "H": 22.42105263157895,
        "D": 19.148936170212767,
        "G": 27.76595744680851,
        "B": 16.914893617021278,
        "E": 21.70212765957447,
        "K": 18.19148936170213,
        "F": 24.193548387096776,
        "I": 22.659574468085108,
        "C": 18.387096774193548,
        "L": 19.148936170212767,
        "A": 13.225806451612904
    },
    "Actions_tfl_edges": {
        "AB": [
            94,
            0,
            0
        ],
        "CD": [
            94,
            0,
            0
        ],
        "DE": [
            95,
            0,
            0
        ],
        "FG": [
            94,
            0,
            0
        ],
        "GH": [
            95,
            0,
            0
        ],
        "IJ": [
            95,
            0,
            0
        ],
        "JK": [
            95,
            0,
            0
        ],
        "HI": [
            95,
            0,
            0
        ],
        "BC": [
            94,
            0,
            0
        ],
        "EF": [
            94,
            0,
            0
        ],
        "KL": [
            94,
            0,
            0
        ],
        "LA": [
            94,
            0,
            0
        ]
    },
    "Load_per_bus_per_stop": {
        "bus0": {
            "B": 66.625,
            "C": 66.3125,
            "D": 66.5,
            "E": 66.125,
            "F": 66.375,
            "G": 66.1875,
            "H": 65.1875,
            "I": 68,
            "J": 71.06666666666666,
            "K": 72.93333333333334,
            "L": 72.13333333333334,
            "A": 73.46666666666667
        },
        "bus5": {
            "J": 68.9375,
            "K": 71.3125,
            "L": 73.3125,
            "A": 74.0625,
            "B": 74.875,
            "C": 74.6875,
            "D": 74,
            "E": 75.1875,
            "F": 73.5625,
            "G": 71.2,
            "H": 72.13333333333334,
            "I": 71.46666666666667
        },
        "bus1": {
            "D": 75.0625,
            "E": 76.1875,
            "F": 77.375,
            "G": 78.4375,
            "H": 79.0625,
            "I": 80.125,
            "J": 80.25,
            "K": 80,
            "L": 79.06666666666666,
            "A": 80.46666666666667,
            "B": 79.53333333333333,
            "C": 79.13333333333334
        },
        "bus3": {
            "G": 85.25,
            "H": 86.375,
            "I": 90.25,
            "J": 90.875,
            "K": 90.25,
            "L": 88.6875,
            "A": 88.1875,
            "B": 87.6875,
            "C": 88.6,
            "D": 90.6,
            "E": 89.2,
            "F": 90.13333333333334
        },
        "bus4": {
            "H": 76.625,
            "I": 77.5,
            "J": 78.625,
            "K": 81.0625,
            "L": 79.9375,
            "A": 80.125,
            "B": 77.4375,
            "C": 78.8125,
            "D": 79.75,
            "E": 81.26666666666667,
            "F": 80.6,
            "G": 80.06666666666666
        },
        "bus2": {
            "E": 90.75,
            "F": 92,
            "G": 91.75,
            "H": 92.8125,
            "I": 93.9375,
            "J": 92.9375,
            "K": 94.3125,
            "L": 95.4375,
            "A": 97.53333333333333,
            "B": 95.4,
            "C": 94.93333333333334,
            "D": 96.4
        }
    },
    "Obs_and_actions_busses": {
        "5": 647.6905902056205,
        "3": 356.2592251585761,
        "1": 52.98706858776432,
        "0": -295.2451101772404,
        "2": 202.5597760892143
    },
    "Obs_and_actions_tfls": {
        "0": 121.91329662800169
    }
}