{
    "Average_holding_time": 34.844497607655505,
    "Average_holding_actions": [
        561,
        0,
        62,
        126,
        41,
        0
    ],
    "Average_travel_time_passengers": 4424.97075530595,
    "Average_passenger_waiting_time": 1199.9373738206968,
    "Average_passenger_in_vehicle_time": 3225.0333814852575,
    "Average_speed_busses": 0.034833333333333334,
    "Average_experienced_crowding": 306.4050692660635,
    "Average_covariation_headway": 1.4071606830189218,
    "Average_covariation_headway_stops": {
        "J": 1.44146537493505,
        "C": 1.5384333808222057,
        "L": 1.5081430864189516,
        "G": 1.5581661138738323,
        "H": 1.409994110315655,
        "K": 1.4827195118189898,
        "D": 1.542467833398741,
        "I": 1.419986822201705,
        "A": 1.5329940889985028,
        "E": 1.534605440370355,
        "B": 1.526311543439107,
        "F": 1.5246362198285217
    },
    "Average_excess_waiting_time": {
        "J": 946.1330008727275,
        "C": 1071.8728997652536,
        "L": 1012.002604672396,
        "G": 1137.2446241800203,
        "H": 898.0071963874352,
        "K": 987.6859181049815,
        "D": 1092.096524498795,
        "I": 923.6569763601256,
        "A": 1054.2404711800405,
        "E": 1096.4484693502948,
        "B": 1062.7984439905774,
        "F": 1098.2699339572212
    },
    "Holding_per_stop": {
        "C": 39.29577464788732,
        "L": 37.285714285714285,
        "H": 32.6865671641791,
        "K": 31.304347826086957,
        "J": 39.705882352941174,
        "G": 39.71830985915493,
        "D": 27.464788732394368,
        "I": 34.47761194029851,
        "A": 25.285714285714285,
        "E": 34.225352112676056,
        "B": 34.714285714285715,
        "F": 41.83098591549296
    },
    "Actions_tfl_edges": {
        "BC": [
            71,
            0,
            0
        ],
        "FG": [
            72,
            0,
            0
        ],
        "GH": [
            72,
            0,
            0
        ],
        "IJ": [
            68,
            0,
            0
        ],
        "JK": [
            69,
            0,
            0
        ],
        "KL": [
            70,
            0,
            0
        ],
        "CD": [
            71,
            0,
            0
        ],
        "LA": [
            70,
            0,
            0
        ],
        "HI": [
            67,
            0,
            0
        ],
        "DE": [
            71,
            0,
            0
        ],
        "AB": [
            70,
            0,
            0
        ],
        "EF": [
            71,
            0,
            0
        ]
    },
    "Load_per_bus_per_stop": {
        "bus3": {
            "J": 52.666666666666664,
            "K": 53.75,
            "L": 54.916666666666664,
            "A": 53.666666666666664,
            "B": 52.583333333333336,
            "C": 52.166666666666664,
            "D": 53.166666666666664,
            "E": 53.583333333333336,
            "F": 52.583333333333336,
            "G": 51.166666666666664,
            "H": 55.54545454545455,
            "I": 56.54545454545455
        },
        "bus0": {
            "C": 55.333333333333336,
            "D": 54.416666666666664,
            "E": 55.916666666666664,
            "F": 58.166666666666664,
            "G": 59.833333333333336,
            "H": 59.63636363636363,
            "I": 62.63636363636363,
            "J": 64.9090909090909,
            "K": 63.63636363636363,
            "L": 63.90909090909091,
            "A": 61.18181818181818,
            "B": 62.45454545454545
        },
        "bus5": {
            "L": 41.166666666666664,
            "A": 41.416666666666664,
            "B": 41.416666666666664,
            "C": 40.833333333333336,
            "D": 42.5,
            "E": 43.75,
            "F": 44.666666666666664,
            "G": 45.416666666666664,
            "H": 50.18181818181818,
            "I": 48,
            "J": 47.09090909090909,
            "K": 46
        },
        "bus1": {
            "G": 312.5833333333333,
            "H": 268.72727272727275,
            "I": 275.6363636363636,
            "J": 282.54545454545456,
            "K": 289,
            "L": 296.09090909090907,
            "A": 305.45454545454544,
            "B": 311.45454545454544,
            "C": 318.8181818181818,
            "D": 323.72727272727275,
            "E": 331.09090909090907,
            "F": 335.8181818181818
        },
        "bus2": {
            "H": 107.91666666666667,
            "I": 112.33333333333333,
            "J": 111.66666666666667,
            "K": 111.08333333333333,
            "L": 110.33333333333333,
            "A": 107.66666666666667,
            "B": 106.83333333333333,
            "C": 107.08333333333333,
            "D": 105.66666666666667,
            "E": 103.91666666666667,
            "F": 103.83333333333333,
            "G": 106.75
        },
        "bus4": {
            "K": 23.083333333333332,
            "L": 23.75,
            "A": 23.916666666666668,
            "B": 24.5,
            "C": 23.75,
            "D": 23.666666666666668,
            "E": 23.916666666666668,
            "F": 23.666666666666668,
            "G": 23,
            "H": 25.454545454545453,
            "I": 26.181818181818183,
            "J": 23.363636363636363
        }
    },
    "Obs_and_actions_busses": {
        "4": 503.1074102250476,
        "0": -112.264378810998,
        "3": 1215.4679348674838,
        "5": -2399.2257908656165,
        "2": 5808.684975417343
    },
    "Obs_and_actions_tfls": {
        "0": 93.8847235351562
    }
}