{
    "Average_holding_time": 12.422680412371134,
    "Average_holding_actions": [
        1028,
        0,
        0,
        74,
        0,
        0
    ],
    "Average_travel_time_passengers": 2658.9065695368067,
    "Average_passenger_waiting_time": 326.22223812135815,
    "Average_passenger_in_vehicle_time": 2332.684331415428,
    "Average_speed_busses": 0.0485,
    "Average_experienced_crowding": 81.8838940577576,
    "Average_covariation_headway": 0.3970368242413011,
    "Average_covariation_headway_stops": {
        "C": 0.29771518691919585,
        "G": 0.30185212337288864,
        "E": 0.292272703719737,
        "A": 0.2809717985021341,
        "H": 0.2887365643558285,
        "K": 0.28810645364777715,
        "B": 0.28426146885989084,
        "F": 0.2881450967894701,
        "D": 0.2890994499120384,
        "I": 0.2716382741524902,
        "L": 0.2638178285813323,
        "J": 0.27599326311332995
    },
    "Average_excess_waiting_time": {
        "C": 56.346930483254994,
        "G": 57.617585971261406,
        "E": 56.70156906884279,
        "A": 53.24791738565932,
        "H": 54.29775458038182,
        "K": 55.49153625009484,
        "B": 55.21344519386531,
        "F": 57.36553760978069,
        "D": 57.283301107243176,
        "I": 53.15355561255046,
        "L": 52.905816324917964,
        "J": 55.283893292049584
    },
    "Holding_per_stop": {
        "C": 16.391752577319586,
        "E": 16.391752577319586,
        "A": 8.969072164948454,
        "H": 12.061855670103093,
        "G": 11.75257731958763,
        "K": 14.845360824742269,
        "B": 9.278350515463918,
        "F": 12.989690721649485,
        "D": 12.371134020618557,
        "I": 10.824742268041238,
        "L": 12.68041237113402,
        "J": 10.515463917525773
    },
    "Actions_tfl_edges": {
        "BC": [
            98,
            0,
            0
        ],
        "DE": [
            98,
            0,
            0
        ],
        "FG": [
            98,
            0,
            0
        ],
        "GH": [
            98,
            0,
            0
        ],
        "JK": [
            98,
            0,
            0
        ],
        "LA": [
            98,
            0,
            0
        ],
        "CD": [
            97,
            0,
            0
        ],
        "EF": [
            97,
            0,
            0
        ],
        "AB": [
            97,
            0,
            0
        ],
        "HI": [
            97,
            0,
            0
        ],
        "KL": [
            97,
            0,
            0
        ],
        "IJ": [
            97,
            0,
            0
        ]
    },
    "Load_per_bus_per_stop": {
        "bus0": {
            "C": 76.70588235294117,
            "D": 77.76470588235294,
            "E": 81.125,
            "F": 80.6875,
            "G": 80.375,
            "H": 81.3125,
            "I": 81.6875,
            "J": 82.375,
            "K": 83.375,
            "L": 81.9375,
            "A": 80.5,
            "B": 80.75
        },
        "bus2": {
            "G": 61.35294117647059,
            "H": 59.375,
            "I": 60.25,
            "J": 62.5625,
            "K": 62.5625,
            "L": 64.6875,
            "A": 64.4375,
            "B": 64.0625,
            "C": 65.125,
            "D": 67.25,
            "E": 67.125,
            "F": 66.0625
        },
        "bus1": {
            "E": 70.11764705882354,
            "F": 71,
            "G": 69.23529411764706,
            "H": 72.6875,
            "I": 73.375,
            "J": 71.4375,
            "K": 72.8125,
            "L": 73,
            "A": 72.75,
            "B": 72.625,
            "C": 73.9375,
            "D": 73.5
        },
        "bus5": {
            "A": 71.88235294117646,
            "B": 74.11764705882354,
            "C": 74.41176470588235,
            "D": 73.3125,
            "E": 73.3125,
            "F": 71.875,
            "G": 72.5625,
            "H": 71.875,
            "I": 71.9375,
            "J": 74.5625,
            "K": 75.0625,
            "L": 74.9375
        },
        "bus3": {
            "H": 83.3529411764706,
            "I": 85.17647058823529,
            "J": 84.05882352941177,
            "K": 85.4375,
            "L": 85.8125,
            "A": 87.0625,
            "B": 89,
            "C": 91.9375,
            "D": 91.875,
            "E": 91.5,
            "F": 92.5,
            "G": 89
        },
        "bus4": {
            "K": 87.11764705882354,
            "L": 86.05882352941177,
            "A": 84.9375,
            "B": 86.5625,
            "C": 85.5625,
            "D": 86.125,
            "E": 87.125,
            "F": 88.3125,
            "G": 89.4375,
            "H": 89.125,
            "I": 90.6875,
            "J": 91.625
        }
    },
    "Obs_and_actions_busses": {
        "0": -183.06954537973843,
        "3": 250.17837906513884,
        "4": 311.22193345053336
    },
    "Obs_and_actions_tfls": {
        "0": 105.72248735602294
    }
}