{
    "Average_holding_time": 18.493870402802102,
    "Average_holding_actions": [
        894,
        33,
        0,
        24,
        1,
        0
    ],
    "Average_travel_time_passengers": 2689.9898407185137,
    "Average_passenger_waiting_time": 322.6466976561257,
    "Average_passenger_in_vehicle_time": 2367.34314306241,
    "Average_speed_busses": 0.04758333333333333,
    "Average_experienced_crowding": 82.09405976861396,
    "Average_covariation_headway": 0.2975315514383085,
    "Average_covariation_headway_stops": {
        "L": 0.1951633028350473,
        "C": 0.226824097258916,
        "G": 0.20913219665647545,
        "E": 0.23748438550562867,
        "D": 0.21674711776788871,
        "I": 0.21568526608412036,
        "A": 0.1939415371037393,
        "J": 0.1982564251156193,
        "F": 0.21493014860188825,
        "H": 0.19740029103683696,
        "K": 0.19423257873765296,
        "B": 0.2018134848593978
    },
    "Average_excess_waiting_time": {
        "L": 48.461362361440194,
        "C": 54.33123881599823,
        "G": 48.384574424885216,
        "E": 53.42532897417129,
        "D": 51.65276488372871,
        "I": 49.837258621472415,
        "A": 50.14853936955791,
        "J": 50.1997627405662,
        "F": 50.9931964001168,
        "H": 48.48656020431514,
        "K": 51.138871204683994,
        "B": 52.48801600580305
    },
    "Holding_per_stop": {
        "L": 22.42105263157895,
        "D": 18.63157894736842,
        "E": 15.3125,
        "I": 20.625,
        "G": 15.3125,
        "C": 19.57894736842105,
        "A": 14.526315789473685,
        "F": 23.68421052631579,
        "J": 19.894736842105264,
        "H": 17.36842105263158,
        "K": 23.68421052631579,
        "B": 10.851063829787234
    },
    "Actions_tfl_edges": {
        "BC": [
            95,
            0,
            0
        ],
        "CD": [
            96,
            0,
            0
        ],
        "DE": [
            96,
            0,
            0
        ],
        "FG": [
            96,
            0,
            0
        ],
        "HI": [
            96,
            0,
            0
        ],
        "KL": [
            96,
            0,
            0
        ],
        "LA": [
            95,
            0,
            0
        ],
        "EF": [
            96,
            0,
            0
        ],
        "IJ": [
            96,
            0,
            0
        ],
        "GH": [
            96,
            0,
            0
        ],
        "AB": [
            95,
            0,
            0
        ],
        "JK": [
            95,
            0,
            0
        ]
    },
    "Load_per_bus_per_stop": {
        "bus5": {
            "L": 74.8125,
            "A": 75.875,
            "B": 75.25,
            "C": 75.375,
            "D": 75.3125,
            "E": 75.3125,
            "F": 76.375,
            "G": 78.25,
            "H": 79.6875,
            "I": 79.875,
            "J": 80.93333333333334,
            "K": 79.46666666666667
        },
        "bus0": {
            "C": 77.8125,
            "D": 75.5625,
            "E": 78.1875,
            "F": 78.75,
            "G": 80.1875,
            "H": 80.9375,
            "I": 82.625,
            "J": 84.375,
            "K": 85.1875,
            "L": 82.8,
            "A": 81.66666666666667,
            "B": 82.53333333333333
        },
        "bus3": {
            "G": 81.9375,
            "H": 83,
            "I": 82.75,
            "J": 81.8125,
            "K": 80.625,
            "L": 82.5,
            "A": 81.25,
            "B": 85.1875,
            "C": 87.1875,
            "D": 87.6875,
            "E": 87.375,
            "F": 87.8
        },
        "bus2": {
            "E": 76.5,
            "F": 76.1875,
            "G": 76.75,
            "H": 76.3125,
            "I": 78.0625,
            "J": 79.0625,
            "K": 79.75,
            "L": 81.8125,
            "A": 81.5625,
            "B": 80.8125,
            "C": 82.3125,
            "D": 80.66666666666667
        },
        "bus1": {
            "D": 72.4375,
            "E": 73.4375,
            "F": 75.3125,
            "G": 77,
            "H": 78.3125,
            "I": 79.125,
            "J": 78.75,
            "K": 77.625,
            "L": 78.4375,
            "A": 78.625,
            "B": 77.375,
            "C": 77.73333333333333
        },
        "bus4": {
            "I": 77.625,
            "J": 78.8125,
            "K": 80.5625,
            "L": 81.3125,
            "A": 81.75,
            "B": 79.5,
            "C": 81,
            "D": 83.1875,
            "E": 83.3125,
            "F": 83.625,
            "G": 82.875,
            "H": 82.46666666666667
        }
    },
    "Obs_and_actions_busses": {
        "5": 636.3996906328316,
        "4": 337.52132239232395,
        "3": 139.54535340405042,
        "0": -174.81508608449758,
        "1": 81.43447015812639
    },
    "Obs_and_actions_tfls": {
        "0": 113.55994989668228
    }
}