{
    "Average_holding_time": 19.72639011473963,
    "Average_holding_actions": [
        903,
        0,
        16,
        71,
        0,
        0
    ],
    "Average_travel_time_passengers": 2715.4354938319425,
    "Average_passenger_waiting_time": 344.74716269080324,
    "Average_passenger_in_vehicle_time": 2370.6883311411148,
    "Average_speed_busses": 0.04720833333333333,
    "Average_experienced_crowding": 85.38724655732777,
    "Average_covariation_headway": 0.42871887310504936,
    "Average_covariation_headway_stops": {
        "A": 0.3417322700727464,
        "J": 0.32542890965073173,
        "F": 0.3557694855948592,
        "D": 0.34179474010029953,
        "C": 0.340243055021055,
        "E": 0.3502079131423958,
        "G": 0.3489801280831376,
        "B": 0.3304586452271076,
        "K": 0.31583688042136027,
        "H": 0.32886147350379114,
        "L": 0.33215589931077527,
        "I": 0.33813906878142597
    },
    "Average_excess_waiting_time": {
        "A": 77.76327468568564,
        "J": 72.52856974481773,
        "F": 74.68474108189815,
        "D": 75.22996760686425,
        "C": 77.0722084155189,
        "E": 75.08156234163619,
        "G": 75.02020497247145,
        "B": 76.75542605846289,
        "K": 72.70517010675258,
        "H": 73.18231805579649,
        "L": 77.80832197269541,
        "I": 77.80164962568716
    },
    "Holding_per_stop": {
        "F": 18.125,
        "D": 18,
        "E": 25.263157894736842,
        "A": 17.23404255319149,
        "J": 15,
        "C": 24.25531914893617,
        "G": 20.210526315789473,
        "K": 14.680851063829786,
        "B": 14.361702127659575,
        "H": 17.05263157894737,
        "L": 25.483870967741936,
        "I": 27.127659574468087
    },
    "Actions_tfl_edges": {
        "BC": [
            95,
            0,
            0
        ],
        "CD": [
            95,
            0,
            0
        ],
        "DE": [
            96,
            0,
            0
        ],
        "EF": [
            96,
            0,
            0
        ],
        "IJ": [
            95,
            0,
            0
        ],
        "LA": [
            94,
            0,
            0
        ],
        "FG": [
            96,
            0,
            0
        ],
        "AB": [
            94,
            0,
            0
        ],
        "JK": [
            94,
            0,
            0
        ],
        "GH": [
            95,
            0,
            0
        ],
        "KL": [
            94,
            0,
            0
        ],
        "HI": [
            95,
            0,
            0
        ]
    },
    "Load_per_bus_per_stop": {
        "bus5": {
            "A": 70.3125,
            "B": 71.3125,
            "C": 71.5625,
            "D": 75,
            "E": 75.5625,
            "F": 72.9375,
            "G": 74.5,
            "H": 73.5625,
            "I": 74.4,
            "J": 74.73333333333333,
            "K": 73.8,
            "L": 72.33333333333333
        },
        "bus4": {
            "J": 73.375,
            "K": 73.6875,
            "L": 75.9375,
            "A": 77.125,
            "B": 77.75,
            "C": 76.9375,
            "D": 77.4375,
            "E": 77.125,
            "F": 76.4375,
            "G": 77.73333333333333,
            "H": 76.13333333333334,
            "I": 75.93333333333334
        },
        "bus3": {
            "F": 65.0625,
            "G": 66.6875,
            "H": 68.875,
            "I": 69.1875,
            "J": 70.8125,
            "K": 70.6875,
            "L": 73.25,
            "A": 73.5625,
            "B": 73.0625,
            "C": 72.4375,
            "D": 72.75,
            "E": 69.6
        },
        "bus1": {
            "D": 80.4375,
            "E": 79.25,
            "F": 78.5,
            "G": 78.75,
            "H": 78.625,
            "I": 81,
            "J": 80.5,
            "K": 84.25,
            "L": 86.1875,
            "A": 87.93333333333334,
            "B": 86.93333333333334,
            "C": 86
        },
        "bus0": {
            "C": 91.375,
            "D": 92.3125,
            "E": 91.5625,
            "F": 92.9375,
            "G": 92.625,
            "H": 95.1875,
            "I": 95.5625,
            "J": 95.33333333333333,
            "K": 96,
            "L": 98.6,
            "A": 97.53333333333333,
            "B": 99.06666666666666
        },
        "bus2": {
            "E": 70.8125,
            "F": 72.3125,
            "G": 75.3125,
            "H": 76.5,
            "I": 76.1875,
            "J": 75.625,
            "K": 73.6875,
            "L": 71.8125,
            "A": 72.5,
            "B": 72.875,
            "C": 73.13333333333334,
            "D": 73
        }
    },
    "Obs_and_actions_busses": {
        "4": 319.1338820183483,
        "0": -203.04814714705006,
        "3": 169.5252798583879,
        "2": 124.0631341329287
    },
    "Obs_and_actions_tfls": {
        "0": 105.04671565998629
    }
}39912974046
    }
}