{
    "Average_holding_time": 18.633540372670808,
    "Average_holding_actions": [
        703,
        148,
        276,
        0,
        0,
        0
    ],
    "Average_travel_time_passengers": 2831.9836913306726,
    "Average_passenger_waiting_time": 422.0231961501392,
    "Average_passenger_in_vehicle_time": 2409.960495180565,
    "Average_speed_busses": 0.04695833333333333,
    "Average_experienced_crowding": 106.27233327436669,
    "Average_covariation_headway": 0.7468281780774969,
    "Average_covariation_headway_stops": {
        "G": 0.5989730707787377,
        "L": 0.6054923039917591,
        "K": 0.6105073728328445,
        "A": 0.5922143203041387,
        "C": 0.5915212357223478,
        "J": 0.5980137147696166,
        "B": 0.5844925022345371,
        "D": 0.591641424190247,
        "H": 0.5952735807594626,
        "E": 0.5876493642617657,
        "I": 0.5996059634659828,
        "F": 0.6085597940899982
    },
    "Average_excess_waiting_time": {
        "G": 153.19177432234335,
        "L": 152.83787587256006,
        "K": 157.59676266935236,
        "A": 149.0054023489683,
        "C": 148.65564555650235,
        "J": 154.54071534319672,
        "B": 148.43831769183902,
        "D": 148.85832751284158,
        "H": 153.8758330223473,
        "E": 150.04465729688314,
        "I": 157.59572393409695,
        "F": 159.48058168686714
    },
    "Holding_per_stop": {
        "L": 19.57894736842105,
        "K": 21.382978723404257,
        "A": 16.595744680851062,
        "C": 18.19148936170213,
        "G": 17.23404255319149,
        "J": 20.106382978723403,
        "D": 21.382978723404257,
        "B": 16.914893617021278,
        "H": 18.51063829787234,
        "E": 16.914893617021278,
        "I": 19.35483870967742,
        "F": 17.419354838709676
    },
    "Actions_tfl_edges": {
        "BC": [
            95,
            0,
            0
        ],
        "FG": [
            94,
            0,
            0
        ],
        "IJ": [
            94,
            0,
            0
        ],
        "JK": [
            95,
            0,
            0
        ],
        "KL": [
            95,
            0,
            0
        ],
        "LA": [
            96,
            0,
            0
        ],
        "AB": [
            94,
            0,
            0
        ],
        "CD": [
            94,
            0,
            0
        ],
        "GH": [
            94,
            0,
            0
        ],
        "DE": [
            94,
            0,
            0
        ],
        "HI": [
            94,
            0,
            0
        ],
        "EF": [
            94,
            0,
            0
        ]
    },
    "Load_per_bus_per_stop": {
        "bus1": {
            "G": 128,
            "H": 127.9375,
            "I": 128.9375,
            "J": 129,
            "K": 129.375,
            "L": 128.8125,
            "A": 128.1875,
            "B": 134,
            "C": 134.13333333333333,
            "D": 133.66666666666666,
            "E": 134.66666666666666,
            "F": 134.33333333333334
        },
        "bus4": {
            "L": 51.5,
            "A": 52.8125,
            "B": 51.875,
            "C": 52.4375,
            "D": 53.375,
            "E": 55,
            "F": 57.0625,
            "G": 58.9375,
            "H": 59.125,
            "I": 55.4,
            "J": 56.06666666666667,
            "K": 57.2
        },
        "bus3": {
            "K": 86.0625,
            "L": 87,
            "A": 90.3125,
            "B": 90.6875,
            "C": 90.25,
            "D": 90.875,
            "E": 91.75,
            "F": 90.66666666666667,
            "G": 91.66666666666667,
            "H": 90.93333333333334,
            "I": 89.86666666666666,
            "J": 92
        },
        "bus5": {
            "A": 24,
            "B": 24.5,
            "C": 25.0625,
            "D": 25.3125,
            "E": 26.3125,
            "F": 26.6875,
            "G": 26.4375,
            "H": 26.75,
            "I": 26.8125,
            "J": 26.8125,
            "K": 24.866666666666667,
            "L": 25.333333333333332
        },
        "bus0": {
            "C": 65.125,
            "D": 65,
            "E": 65.6875,
            "F": 66.25,
            "G": 67.875,
            "H": 69.375,
            "I": 69.5625,
            "J": 69.9375,
            "K": 70.9375,
            "L": 70.25,
            "A": 72.73333333333333,
            "B": 69.8
        },
        "bus2": {
            "J": 105.6875,
            "K": 107.125,
            "L": 109.125,
            "A": 109.9375,
            "B": 110.125,
            "C": 109.5625,
            "D": 113,
            "E": 113.2,
            "F": 111.6,
            "G": 111.53333333333333,
            "H": 110.53333333333333,
            "I": 111.66666666666667
        }
    },
    "Obs_and_actions_busses": {
        "2": 352.8916819773882,
        "1": 158.6759965921764,
        "0": -321.59435069316163
    },
    "Obs_and_actions_tfls": {
        "0": 114.17938824579754
    }
}