{
    "Average_holding_time": 18.258575197889183,
    "Average_holding_actions": [
        761,
        276,
        0,
        84,
        16,
        0
    ],
    "Average_travel_time_passengers": 2696.751574715478,
    "Average_passenger_waiting_time": 336.12598655180807,
    "Average_passenger_in_vehicle_time": 2360.625588163687,
    "Average_speed_busses": 0.047375,
    "Average_experienced_crowding": 83.69976790343648,
    "Average_covariation_headway": 0.3847513672680334,
    "Average_covariation_headway_stops": {
        "J": 0.29423348159707785,
        "F": 0.2908632045385439,
        "K": 0.27332595404974996,
        "D": 0.2797160063430605,
        "B": 0.3025383015481873,
        "L": 0.2995398103122553,
        "G": 0.28141414109056107,
        "A": 0.29018039706839244,
        "C": 0.296118876894733,
        "E": 0.27798919864363,
        "H": 0.2890791772465295,
        "I": 0.29304183922924076
    },
    "Average_excess_waiting_time": {
        "J": 68.3276015292264,
        "F": 63.70526304853718,
        "K": 62.39993747380754,
        "D": 60.99435195876475,
        "B": 65.67013717010826,
        "L": 65.29000515833411,
        "G": 63.92532095288368,
        "A": 65.5734416199619,
        "C": 66.02184138524825,
        "E": 62.5819733430954,
        "H": 66.68518962562723,
        "I": 69.27427606088344
    },
    "Holding_per_stop": {
        "F": 15.789473684210526,
        "K": 12.947368421052632,
        "B": 15.789473684210526,
        "D": 21.473684210526315,
        "L": 28.105263157894736,
        "J": 20.425531914893618,
        "G": 20.526315789473685,
        "A": 8.526315789473685,
        "E": 23.05263157894737,
        "C": 21.157894736842106,
        "H": 15.319148936170214,
        "I": 15.957446808510639
    },
    "Actions_tfl_edges": {
        "AB": [
            96,
            0,
            0
        ],
        "CD": [
            96,
            0,
            0
        ],
        "EF": [
            96,
            0,
            0
        ],
        "IJ": [
            95,
            0,
            0
        ],
        "JK": [
            95,
            0,
            0
        ],
        "KL": [
            96,
            0,
            0
        ],
        "FG": [
            95,
            0,
            0
        ],
        "BC": [
            95,
            0,
            0
        ],
        "DE": [
            95,
            0,
            0
        ],
        "LA": [
            95,
            0,
            0
        ],
        "GH": [
            95,
            0,
            0
        ],
        "HI": [
            94,
            0,
            0
        ]
    },
    "Load_per_bus_per_stop": {
        "bus3": {
            "J": 63.1875,
            "K": 63.8125,
            "L": 65.5,
            "A": 65.375,
            "B": 66.625,
            "C": 68.4375,
            "D": 67.25,
            "E": 66.6875,
            "F": 64.8,
            "G": 64.46666666666667,
            "H": 64.4,
            "I": 65.06666666666666
        },
        "bus2": {
            "F": 76,
            "G": 75.9375,
            "H": 76.75,
            "I": 78.625,
            "J": 80.5625,
            "K": 81.4375,
            "L": 80.5625,
            "A": 81.1875,
            "B": 81.0625,
            "C": 82.6875,
            "D": 82.06666666666666,
            "E": 82.2
        },
        "bus4": {
            "K": 67.0625,
            "L": 68.5,
            "A": 67.6875,
            "B": 67.875,
            "C": 68.9375,
            "D": 69.375,
            "E": 72.25,
            "F": 73.5,
            "G": 75,
            "H": 74.53333333333333,
            "I": 73.26666666666667,
            "J": 72.26666666666667
        },
        "bus1": {
            "D": 81.125,
            "E": 80.375,
            "F": 82.6875,
            "G": 83.75,
            "H": 86.25,
            "I": 88.0625,
            "J": 90.8125,
            "K": 90,
            "L": 90.375,
            "A": 89.0625,
            "B": 87.46666666666667,
            "C": 87.2
        },
        "bus0": {
            "B": 80.25,
            "C": 81.1875,
            "D": 82.25,
            "E": 82.875,
            "F": 85.0625,
            "G": 85.25,
            "H": 84.875,
            "I": 84.5,
            "J": 85.375,
            "K": 87.4375,
            "L": 86.4,
            "A": 86.06666666666666
        },
        "bus5": {
            "L": 82.75,
            "A": 85.1875,
            "B": 84.4375,
            "C": 85.375,
            "D": 85.9375,
            "E": 83.75,
            "F": 83.3125,
            "G": 85.5,
            "H": 83.6875,
            "I": 86.4375,
            "J": 90.4,
            "K": 89.8
        }
    },
    "Obs_and_actions_busses": {
        "5": 494.49124279697406,
        "4": 261.67619794611466,
        "1": 97.2465467337703,
        "0": -243.08417629450753
    },
    "Obs_and_actions_tfls": {
        "0": 111.83105892923095
    }
}