{
    "Average_holding_time": 16.507798960138647,
    "Average_holding_actions": [
        911,
        63,
        0,
        32,
        0,
        0
    ],
    "Average_travel_time_passengers": 2646.0237207095897,
    "Average_passenger_waiting_time": 315.9472864981756,
    "Average_passenger_in_vehicle_time": 2330.076434211389,
    "Average_speed_busses": 0.04808333333333333,
    "Average_experienced_crowding": 77.58371769155441,
    "Average_covariation_headway": 0.2799086239298435,
    "Average_covariation_headway_stops": {
        "B": 0.2057631788553856,
        "F": 0.21314641043331164,
        "E": 0.20260669028983935,
        "K": 0.19969601523400066,
        "L": 0.20165374785916448,
        "J": 0.21187954826230954,
        "C": 0.20494239915198906,
        "G": 0.18618262847840353,
        "A": 0.17732282452291823,
        "H": 0.18884428090771538,
        "D": 0.20851200298506203,
        "I": 0.2063540191080775
    },
    "Average_excess_waiting_time": {
        "B": 44.97076582651749,
        "F": 46.05936614243228,
        "E": 46.865692726039924,
        "K": 45.95102060127027,
        "L": 44.63086210964826,
        "J": 49.62700328731711,
        "C": 46.862139671598186,
        "G": 44.91216250718014,
        "A": 43.53708773606229,
        "H": 47.03493183943158,
        "D": 49.22628823799039,
        "I": 50.37171867932142
    },
    "Holding_per_stop": {
        "B": 12.68041237113402,
        "F": 21.649484536082475,
        "K": 14.6875,
        "L": 17.628865979381445,
        "E": 15,
        "J": 17.1875,
        "C": 19.0625,
        "G": 10.625,
        "A": 11.25,
        "H": 16.875,
        "D": 15.9375,
        "I": 25.57894736842105
    },
    "Actions_tfl_edges": {
        "AB": [
            97,
            0,
            0
        ],
        "DE": [
            97,
            0,
            0
        ],
        "EF": [
            97,
            0,
            0
        ],
        "IJ": [
            96,
            0,
            0
        ],
        "JK": [
            97,
            0,
            0
        ],
        "KL": [
            97,
            0,
            0
        ],
        "BC": [
            97,
            0,
            0
        ],
        "FG": [
            97,
            0,
            0
        ],
        "LA": [
            97,
            0,
            0
        ],
        "CD": [
            96,
            0,
            0
        ],
        "GH": [
            96,
            0,
            0
        ],
        "HI": [
            96,
            0,
            0
        ]
    },
    "Load_per_bus_per_stop": {
        "bus0": {
            "B": 70.88235294117646,
            "C": 71.6875,
            "D": 73.75,
            "E": 74.5,
            "F": 74.1875,
            "G": 76.125,
            "H": 76.8125,
            "I": 75.8125,
            "J": 74.9375,
            "K": 75.5,
            "L": 74.4375,
            "A": 74.1875
        },
        "bus2": {
            "F": 78.52941176470588,
            "G": 80.0625,
            "H": 81.625,
            "I": 82.3125,
            "J": 82.75,
            "K": 84.5625,
            "L": 84.625,
            "A": 83.3125,
            "B": 83.1875,
            "C": 83.8125,
            "D": 83.375,
            "E": 84.125
        },
        "bus1": {
            "E": 75.4375,
            "F": 75.125,
            "G": 73.5625,
            "H": 75.375,
            "I": 73.875,
            "J": 73.875,
            "K": 74.625,
            "L": 75.375,
            "A": 77,
            "B": 79.5,
            "C": 81.6875,
            "D": 81.125
        },
        "bus4": {
            "K": 67.5625,
            "L": 69.4375,
            "A": 71.625,
            "B": 72.5625,
            "C": 71.5625,
            "D": 71.25,
            "E": 70.875,
            "F": 69.5625,
            "G": 70.1875,
            "H": 70.0625,
            "I": 70.75,
            "J": 70.875
        },
        "bus5": {
            "L": 76.6470588235294,
            "A": 75.125,
            "B": 76.3125,
            "C": 78.25,
            "D": 78.5,
            "E": 78.9375,
            "F": 80.6875,
            "G": 81.375,
            "H": 80.375,
            "I": 80.3125,
            "J": 81.0625,
            "K": 80.25
        },
        "bus3": {
            "J": 67.125,
            "K": 69.0625,
            "L": 71.375,
            "A": 72.375,
            "B": 73.375,
            "C": 73,
            "D": 73.1875,
            "E": 72.8125,
            "F": 70.8125,
            "G": 70.8125,
            "H": 70.75,
            "I": 72.53333333333333
        }
    },
    "Obs_and_actions_busses": {
        "0": -178.39033156357442,
        "3": 150.98379466902404,
        "1": 87.99415159613766,
        "4": 343.9476758086166
    },
    "Obs_and_actions_tfls": {
        "0": 115.3733659500535
    }
}
        "3": 151.50560358779424,
        "4": 348.85578612880477,
        "0": -199.33719756641102,
        "1": 87.9900143633004
    },
    "Obs_and_actions_tfls": {
        "0": 105.60863322029321
    }
}