{
    "Average_holding_time": 15.275109170305678,
    "Average_holding_actions": [
        773,
        170,
        199,
        0,
        3,
        0
    ],
    "Average_travel_time_passengers": 2709.4050527920645,
    "Average_passenger_waiting_time": 351.1508698329972,
    "Average_passenger_in_vehicle_time": 2358.2541829590577,
    "Average_speed_busses": 0.04770833333333333,
    "Average_experienced_crowding": 89.62553200023049,
    "Average_covariation_headway": 0.5237155801551167,
    "Average_covariation_headway_stops": {
        "K": 0.431070314555858,
        "B": 0.43953513575393394,
        "G": 0.4276325174627604,
        "E": 0.4135304038693241,
        "L": 0.42852431116648065,
        "J": 0.42194549479324417,
        "C": 0.4202385819633153,
        "H": 0.4283857126517714,
        "A": 0.4182347908795215,
        "F": 0.40960650393235204,
        "D": 0.4113641600398017,
        "I": 0.4277029328532271
    },
    "Average_excess_waiting_time": {
        "K": 93.07313367514183,
        "B": 91.47511617507661,
        "G": 94.3181857863197,
        "E": 89.21392899917043,
        "L": 88.29282495412883,
        "J": 91.66528691426055,
        "C": 88.5145085205665,
        "H": 96.45430972958707,
        "A": 87.59621922026065,
        "F": 90.99450824028372,
        "D": 88.32163118230807,
        "I": 95.47251591611172
    },
    "Holding_per_stop": {
        "K": 15.3125,
        "B": 16.082474226804123,
        "G": 11.68421052631579,
        "E": 14.526315789473685,
        "L": 20.3125,
        "J": 17.68421052631579,
        "C": 15.3125,
        "H": 15.789473684210526,
        "A": 9.375,
        "F": 14.042553191489361,
        "D": 15.9375,
        "I": 17.23404255319149
    },
    "Actions_tfl_edges": {
        "AB": [
            97,
            0,
            0
        ],
        "DE": [
            96,
            0,
            0
        ],
        "FG": [
            95,
            0,
            0
        ],
        "IJ": [
            95,
            0,
            0
        ],
        "JK": [
            96,
            0,
            0
        ],
        "KL": [
            97,
            0,
            0
        ],
        "BC": [
            97,
            0,
            0
        ],
        "GH": [
            95,
            0,
            0
        ],
        "EF": [
            95,
            0,
            0
        ],
        "LA": [
            96,
            0,
            0
        ],
        "CD": [
            96,
            0,
            0
        ],
        "HI": [
            95,
            0,
            0
        ]
    },
    "Load_per_bus_per_stop": {
        "bus4": {
            "K": 89.0625,
            "L": 90.1875,
            "A": 90.25,
            "B": 90.6875,
            "C": 90.8125,
            "D": 90.3125,
            "E": 89.9375,
            "F": 91.0625,
            "G": 92.625,
            "H": 94.9375,
            "I": 93.4,
            "J": 92.53333333333333
        },
        "bus0": {
            "B": 66.58823529411765,
            "C": 66.625,
            "D": 65.625,
            "E": 65.625,
            "F": 66.875,
            "G": 66.8125,
            "H": 69.1875,
            "I": 70.5,
            "J": 70.25,
            "K": 69.375,
            "L": 71,
            "A": 70.6875
        },
        "bus2": {
            "G": 70.1875,
            "H": 71.5625,
            "I": 73.4375,
            "J": 72.875,
            "K": 73.3125,
            "L": 74.0625,
            "A": 73.4375,
            "B": 73.25,
            "C": 73.1875,
            "D": 69.875,
            "E": 70.875,
            "F": 73.2
        },
        "bus1": {
            "E": 70.1875,
            "F": 69.8125,
            "G": 69.75,
            "H": 68.25,
            "I": 67.9375,
            "J": 67,
            "K": 67,
            "L": 67.75,
            "A": 69.875,
            "B": 70.5,
            "C": 71.4375,
            "D": 71.3125
        },
        "bus5": {
            "L": 75.75,
            "A": 77.1875,
            "B": 78.6875,
            "C": 79.0625,
            "D": 78.8125,
            "E": 78.5625,
            "F": 80.25,
            "G": 80.5,
            "H": 82.375,
            "I": 82.75,
            "J": 80.75,
            "K": 79.25
        },
        "bus3": {
            "J": 82.125,
            "K": 84.625,
            "L": 85.875,
            "A": 88.375,
            "B": 88.9375,
            "C": 89.3125,
            "D": 89.0625,
            "E": 88.4375,
            "F": 86.26666666666667,
            "G": 87.6,
            "H": 87.93333333333334,
            "I": 87.13333333333334
        }
    },
    "Obs_and_actions_busses": {
        "0": -283.157584413663,
        "1": 154.43430338442087,
        "2": 350.5242715963978,
        "5": 597.7016984490331
    },
    "Obs_and_actions_tfls": {
        "0": 98.95933875537511
    }
} 104.78690840641539
    }
}