{
    "Average_holding_time": 19.013333333333332,
    "Average_holding_actions": [
        576,
        406,
        128,
        0,
        3,
        0
    ],
    "Average_travel_time_passengers": 2713.6234561943415,
    "Average_passenger_waiting_time": 329.31525519130463,
    "Average_passenger_in_vehicle_time": 2384.308201003065,
    "Average_speed_busses": 0.046875,
    "Average_experienced_crowding": 82.60552548200936,
    "Average_covariation_headway": 0.3163405511045342,
    "Average_covariation_headway_stops": {
        "F": 0.23617304825688779,
        "J": 0.250349877956425,
        "G": 0.2546023375886297,
        "C": 0.23818238993182358,
        "E": 0.24111574284424853,
        "A": 0.245968820834708,
        "K": 0.2449596510007074,
        "H": 0.24990129258393226,
        "D": 0.23750404595214097,
        "B": 0.2355637393366536,
        "L": 0.243130711784635,
        "I": 0.23529176794053758
    },
    "Average_excess_waiting_time": {
        "F": 57.64896859697626,
        "J": 59.9234235042353,
        "G": 58.52343665576484,
        "C": 59.504508970767404,
        "E": 60.18224547869596,
        "A": 61.209151727365395,
        "K": 60.8489566291978,
        "H": 60.252016037950284,
        "D": 61.28086243512439,
        "B": 62.80682298988103,
        "L": 62.33989242485262,
        "I": 59.63784693352386
    },
    "Holding_per_stop": {
        "F": 19.46808510638298,
        "G": 18.63157894736842,
        "J": 21.06382978723404,
        "C": 23.225806451612904,
        "A": 12.127659574468085,
        "E": 16.27659574468085,
        "H": 22.02127659574468,
        "K": 21.382978723404257,
        "D": 19.677419354838708,
        "B": 17.419354838709676,
        "I": 18.51063829787234,
        "L": 18.387096774193548
    },
    "Actions_tfl_edges": {
        "BC": [
            94,
            0,
            0
        ],
        "DE": [
            94,
            0,
            0
        ],
        "EF": [
            95,
            0,
            0
        ],
        "FG": [
            95,
            0,
            0
        ],
        "IJ": [
            95,
            0,
            0
        ],
        "LA": [
            94,
            0,
            0
        ],
        "GH": [
            95,
            0,
            0
        ],
        "JK": [
            94,
            0,
            0
        ],
        "CD": [
            93,
            0,
            0
        ],
        "AB": [
            94,
            0,
            0
        ],
        "HI": [
            94,
            0,
            0
        ],
        "KL": [
            94,
            0,
            0
        ]
    },
    "Load_per_bus_per_stop": {
        "bus2": {
            "F": 72.0625,
            "G": 74,
            "H": 72.625,
            "I": 73.4375,
            "J": 74.125,
            "K": 74.875,
            "L": 76.1875,
            "A": 76.1875,
            "B": 74.33333333333333,
            "C": 74.6,
            "D": 74.8,
            "E": 74.4
        },
        "bus4": {
            "J": 82.875,
            "K": 83.3125,
            "L": 84.25,
            "A": 84.75,
            "B": 85.375,
            "C": 87.1875,
            "D": 87.25,
            "E": 89.375,
            "F": 90.53333333333333,
            "G": 90.26666666666667,
            "H": 90.33333333333333,
            "I": 88.73333333333333
        },
        "bus3": {
            "G": 79.25,
            "H": 80.0625,
            "I": 80.6875,
            "J": 84.25,
            "K": 83.3125,
            "L": 81.9375,
            "A": 80.0625,
            "B": 81.125,
            "C": 82.2,
            "D": 83.26666666666667,
            "E": 82.93333333333334,
            "F": 83.6
        },
        "bus0": {
            "C": 74.6875,
            "D": 76.375,
            "E": 75.25,
            "F": 73.5625,
            "G": 71.8125,
            "H": 71.5625,
            "I": 73.1875,
            "J": 73.2,
            "K": 74.2,
            "L": 76.4,
            "A": 79.13333333333334,
            "B": 77.86666666666666
        },
        "bus1": {
            "E": 80.1875,
            "F": 82.1875,
            "G": 83.125,
            "H": 83.375,
            "I": 84,
            "J": 84.6875,
            "K": 84.25,
            "L": 82.4,
            "A": 81.33333333333333,
            "B": 80.8,
            "C": 82.26666666666667,
            "D": 83.26666666666667
        },
        "bus5": {
            "A": 75,
            "B": 75.9375,
            "C": 76.875,
            "D": 78.3125,
            "E": 79.9375,
            "F": 79.5,
            "G": 81.75,
            "H": 83.86666666666666,
            "I": 83.33333333333333,
            "J": 82.6,
            "K": 80.73333333333333,
            "L": 80.06666666666666
        }
    },
    "Obs_and_actions_busses": {
        "1": 56.001583433566815,
        "2": 211.54488702056744,
        "3": 399.2170374447727,
        "0": -281.1130031280386,
        "5": 496.9273447287612
    },
    "Obs_and_actions_tfls": {
        "0": 125.64066424781417
    }
}62,
        "3": 392.9520396525335
    },
    "Obs_and_actions_tfls": {
        "0": 124.65338404317481
    }
}