{
    "Average_holding_time": 16.796875,
    "Average_holding_actions": [
        974,
        0,
        0,
        111,
        0,
        0
    ],
    "Average_travel_time_passengers": 2652.9185807389736,
    "Average_passenger_waiting_time": 341.1595294395963,
    "Average_passenger_in_vehicle_time": 2311.759051299349,
    "Average_speed_busses": 0.048,
    "Average_experienced_crowding": 83.05253819301524,
    "Average_covariation_headway": 0.43966532039339656,
    "Average_covariation_headway_stops": {
        "L": 0.34810238580258834,
        "I": 0.3412547084877599,
        "J": 0.3292568245883509,
        "F": 0.3156175751309557,
        "A": 0.3276542645714661,
        "D": 0.3540617891048108,
        "K": 0.34375456444814767,
        "G": 0.31064486576403316,
        "E": 0.3382215794006361,
        "B": 0.3392633021701767,
        "H": 0.31760591930564486,
        "C": 0.3424645627827303
    },
    "Average_excess_waiting_time": {
        "L": 69.5007101435441,
        "I": 71.26674345377467,
        "J": 65.24103909845093,
        "F": 65.26132576731857,
        "A": 63.46918345560795,
        "D": 73.60172813853734,
        "K": 70.62802558553739,
        "G": 65.20371405852694,
        "E": 71.77845896275522,
        "B": 67.1470298397436,
        "H": 68.28659047566191,
        "C": 70.85741017247756
    },
    "Holding_per_stop": {
        "J": 10.625,
        "F": 12.1875,
        "A": 11.443298969072165,
        "D": 24.375,
        "L": 25.051546391752577,
        "I": 18.75,
        "G": 18,
        "K": 18.75,
        "B": 11.75257731958763,
        "E": 20.842105263157894,
        "H": 18,
        "C": 11.875
    },
    "Actions_tfl_edges": {
        "CD": [
            97,
            0,
            0
        ],
        "EF": [
            96,
            0,
            0
        ],
        "HI": [
            96,
            0,
            0
        ],
        "IJ": [
            97,
            0,
            0
        ],
        "KL": [
            97,
            0,
            0
        ],
        "LA": [
            98,
            0,
            0
        ],
        "JK": [
            96,
            0,
            0
        ],
        "FG": [
            96,
            0,
            0
        ],
        "AB": [
            97,
            0,
            0
        ],
        "DE": [
            96,
            0,
            0
        ],
        "GH": [
            95,
            0,
            0
        ],
        "BC": [
            97,
            0,
            0
        ]
    },
    "Load_per_bus_per_stop": {
        "bus4": {
            "L": 75.11764705882354,
            "A": 76.25,
            "B": 76.6875,
            "C": 79.0625,
            "D": 76.75,
            "E": 74.75,
            "F": 75.25,
            "G": 74.6875,
            "H": 75.125,
            "I": 75.375,
            "J": 77.5,
            "K": 79.125
        },
        "bus2": {
            "I": 84.4375,
            "J": 85.5,
            "K": 85.8125,
            "L": 86.4375,
            "A": 87.9375,
            "B": 88.875,
            "C": 92.0625,
            "D": 91.375,
            "E": 93.75,
            "F": 92.75,
            "G": 89.53333333333333,
            "H": 91.33333333333333
        },
        "bus3": {
            "J": 76.4375,
            "K": 77,
            "L": 76.8125,
            "A": 77.4375,
            "B": 77.625,
            "C": 77.5,
            "D": 76.875,
            "E": 77.25,
            "F": 79,
            "G": 80.375,
            "H": 81.375,
            "I": 82
        },
        "bus1": {
            "F": 73.3125,
            "G": 73.25,
            "H": 74.8125,
            "I": 77.25,
            "J": 79.625,
            "K": 79.8125,
            "L": 80.75,
            "A": 81.5625,
            "B": 81.9375,
            "C": 80.3125,
            "D": 81,
            "E": 80.4
        },
        "bus5": {
            "A": 64.29411764705883,
            "B": 65.70588235294117,
            "C": 65.5625,
            "D": 64.375,
            "E": 65.6875,
            "F": 68.5,
            "G": 68.6875,
            "H": 68.625,
            "I": 67.9375,
            "J": 68.625,
            "K": 68.5625,
            "L": 68.25
        },
        "bus0": {
            "D": 71.1875,
            "E": 71.125,
            "F": 72.25,
            "G": 72.6875,
            "H": 73.0625,
            "I": 75.9375,
            "J": 76.3125,
            "K": 76.4375,
            "L": 76.25,
            "A": 74.375,
            "B": 72.125,
            "C": 71.625
        }
    },
    "Obs_and_actions_busses": {
        "4": 303.7805323417731,
        "0": -187.56921376103557,
        "3": 242.92715466151748
    },
    "Obs_and_actions_tfls": {
        "0": 103.17909767198205
    }
}