{
    "Average_holding_time": 18.296557811120916,
    "Average_holding_actions": [
        730,
        307,
        0,
        96,
        0,
        0
    ],
    "Average_travel_time_passengers": 2761.8590481710303,
    "Average_passenger_waiting_time": 376.267354815863,
    "Average_passenger_in_vehicle_time": 2385.591693355153,
    "Average_speed_busses": 0.04720833333333333,
    "Average_experienced_crowding": 93.58608291205302,
    "Average_covariation_headway": 0.6342396240588154,
    "Average_covariation_headway_stops": {
        "I": 0.4860616403329167,
        "G": 0.493710008152952,
        "D": 0.48452273700746956,
        "E": 0.49042742809310363,
        "A": 0.4813051980553841,
        "F": 0.4938304079273825,
        "J": 0.482884734073986,
        "B": 0.4781847266661391,
        "H": 0.48986084312240374,
        "C": 0.4816252757785073,
        "K": 0.48142196987064556,
        "L": 0.49268877389427246
    },
    "Average_excess_waiting_time": {
        "I": 111.69224992826753,
        "G": 110.47971823987433,
        "D": 113.00309748947683,
        "E": 112.65575570827338,
        "A": 111.63933556454168,
        "F": 111.38153082112149,
        "J": 112.7271118659466,
        "B": 112.65456987258881,
        "H": 114.24426847851487,
        "C": 115.25669246707378,
        "K": 114.71921287005188,
        "L": 117.16331717286374
    },
    "Holding_per_stop": {
        "I": 19.148936170212767,
        "G": 23.75,
        "E": 15.789473684210526,
        "F": 19.375,
        "A": 15.638297872340425,
        "D": 12.446808510638299,
        "J": 19.78723404255319,
        "H": 22.736842105263158,
        "B": 12.446808510638299,
        "K": 18.51063829787234,
        "C": 16.27659574468085,
        "L": 23.548387096774192
    },
    "Actions_tfl_edges": {
        "CD": [
            95,
            0,
            0
        ],
        "DE": [
            95,
            0,
            0
        ],
        "EF": [
            96,
            0,
            0
        ],
        "FG": [
            96,
            0,
            0
        ],
        "HI": [
            96,
            0,
            0
        ],
        "LA": [
            94,
            0,
            0
        ],
        "IJ": [
            94,
            0,
            0
        ],
        "GH": [
            96,
            0,
            0
        ],
        "AB": [
            94,
            0,
            0
        ],
        "JK": [
            94,
            0,
            0
        ],
        "BC": [
            94,
            0,
            0
        ],
        "KL": [
            94,
            0,
            0
        ]
    },
    "Load_per_bus_per_stop": {
        "bus4": {
            "I": 74.125,
            "J": 73,
            "K": 73.875,
            "L": 75,
            "A": 75.1875,
            "B": 74.8125,
            "C": 73.625,
            "D": 74.5625,
            "E": 74.6875,
            "F": 73.75,
            "G": 74.6875,
            "H": 79
        },
        "bus3": {
            "G": 60.5,
            "H": 62.5,
            "I": 62.6875,
            "J": 61,
            "K": 60.1875,
            "L": 60.625,
            "A": 60.875,
            "B": 60.625,
            "C": 63.375,
            "D": 64.875,
            "E": 64.4375,
            "F": 65.6875
        },
        "bus0": {
            "D": 105.5625,
            "E": 107.875,
            "F": 107.5625,
            "G": 105.3125,
            "H": 107.4375,
            "I": 108,
            "J": 105.46666666666667,
            "K": 105.93333333333334,
            "L": 107.86666666666666,
            "A": 107.73333333333333,
            "B": 111,
            "C": 112.4
        },
        "bus1": {
            "E": 83.3125,
            "F": 84.0625,
            "G": 83.6875,
            "H": 84.1875,
            "I": 84.75,
            "J": 85.25,
            "K": 84.6875,
            "L": 82.53333333333333,
            "A": 84.4,
            "B": 87.2,
            "C": 90.33333333333333,
            "D": 90.33333333333333
        },
        "bus5": {
            "A": 51.9375,
            "B": 52.3125,
            "C": 51.875,
            "D": 53.25,
            "E": 52.1875,
            "F": 53.0625,
            "G": 52.25,
            "H": 52.1875,
            "I": 55.46666666666667,
            "J": 55.733333333333334,
            "K": 55.86666666666667,
            "L": 54.666666666666664
        },
        "bus2": {
            "F": 80.5625,
            "G": 81.4375,
            "H": 81.75,
            "I": 82.5,
            "J": 83.3125,
            "K": 86,
            "L": 85.4375,
            "A": 86.375,
            "B": 84.6875,
            "C": 84.8125,
            "D": 83.4,
            "E": 83.6
        }
    },
    "Obs_and_actions_busses": {
        "0": -294.4394325731137,
        "1": 215.85878809360923,
        "4": 421.4386601044014
    },
    "Obs_and_actions_tfls": {
        "0": 102.01139407241739
    }
}