{
    "Average_holding_time": 19.253333333333334,
    "Average_holding_actions": [
        608,
        357,
        129,
        0,
        7,
        0
    ],
    "Average_travel_time_passengers": 2740.3197523315293,
    "Average_passenger_waiting_time": 337.46294664119375,
    "Average_passenger_in_vehicle_time": 2402.8568056902845,
    "Average_speed_busses": 0.046875,
    "Average_experienced_crowding": 83.29670313822089,
    "Average_covariation_headway": 0.3264725473328318,
    "Average_covariation_headway_stops": {
        "D": 0.25201595083537465,
        "K": 0.2831187015129133,
        "A": 0.2670647532586701,
        "L": 0.2810682966763556,
        "C": 0.26350772402193817,
        "F": 0.2443179168559952,
        "E": 0.23841355560662908,
        "B": 0.25600426471500726,
        "G": 0.24564450708339763,
        "H": 0.23733245270475561,
        "I": 0.23538130415217032,
        "J": 0.266044202262067
    },
    "Average_excess_waiting_time": {
        "D": 59.421040109776186,
        "K": 68.69556178200492,
        "A": 62.759335242436805,
        "L": 66.91516530590548,
        "C": 63.077223898624425,
        "F": 57.552725036096206,
        "E": 60.16071240739075,
        "B": 62.62848885941935,
        "G": 59.53765561412615,
        "H": 59.79446992549697,
        "I": 60.958308790382716,
        "J": 67.40790117677955
    },
    "Holding_per_stop": {
        "D": 20.106382978723403,
        "A": 16.27659574468085,
        "L": 18.829787234042552,
        "C": 19.46808510638298,
        "F": 21.70212765957447,
        "K": 22.258064516129032,
        "E": 18.829787234042552,
        "B": 14.680851063829786,
        "G": 19.148936170212767,
        "H": 19.78723404255319,
        "I": 20.967741935483872,
        "J": 19.032258064516128
    },
    "Actions_tfl_edges": {
        "BC": [
            95,
            0,
            0
        ],
        "CD": [
            95,
            0,
            0
        ],
        "EF": [
            95,
            0,
            0
        ],
        "JK": [
            94,
            0,
            0
        ],
        "KL": [
            94,
            0,
            0
        ],
        "LA": [
            95,
            0,
            0
        ],
        "DE": [
            94,
            0,
            0
        ],
        "AB": [
            94,
            0,
            0
        ],
        "FG": [
            94,
            0,
            0
        ],
        "GH": [
            94,
            0,
            0
        ],
        "HI": [
            94,
            0,
            0
        ],
        "IJ": [
            93,
            0,
            0
        ]
    },
    "Load_per_bus_per_stop": {
        "bus1": {
            "D": 70.625,
            "E": 71.125,
            "F": 70.375,
            "G": 70.75,
            "H": 71.75,
            "I": 72.3125,
            "J": 73.4375,
            "K": 75.5,
            "L": 75.875,
            "A": 74.66666666666667,
            "B": 74.53333333333333,
            "C": 74.66666666666667
        },
        "bus3": {
            "K": 85.5,
            "L": 85,
            "A": 85.125,
            "B": 85.625,
            "C": 87.375,
            "D": 88.3125,
            "E": 88.26666666666667,
            "F": 89.2,
            "G": 89.73333333333333,
            "H": 88.2,
            "I": 88.73333333333333,
            "J": 89.8
        },
        "bus5": {
            "A": 84.125,
            "B": 84.9375,
            "C": 84.6875,
            "D": 84.625,
            "E": 84.4375,
            "F": 82.0625,
            "G": 82.8125,
            "H": 83.875,
            "I": 84.46666666666667,
            "J": 84.66666666666667,
            "K": 86.6,
            "L": 88.06666666666666
        },
        "bus4": {
            "L": 83.5625,
            "A": 84.3125,
            "B": 84.75,
            "C": 85.625,
            "D": 86.0625,
            "E": 87.25,
            "F": 85.93333333333334,
            "G": 86,
            "H": 87.66666666666667,
            "I": 86,
            "J": 87.2,
            "K": 88.73333333333333
        },
        "bus0": {
            "C": 70.5,
            "D": 71.4375,
            "E": 72.75,
            "F": 72.9375,
            "G": 73.1875,
            "H": 73.6875,
            "I": 74.25,
            "J": 74.9375,
            "K": 74.13333333333334,
            "L": 75.2,
            "A": 76.13333333333334,
            "B": 75.2
        },
        "bus2": {
            "F": 71.625,
            "G": 72.625,
            "H": 73,
            "I": 73.5,
            "J": 73.0625,
            "K": 74.875,
            "L": 77.1875,
            "A": 76.9375,
            "B": 76.25,
            "C": 78.8,
            "D": 77.8,
            "E": 78.26666666666667
        }
    },
    "Obs_and_actions_busses": {
        "0": -275.77853075499604,
        "2": 184.62739449209988,
        "3": 341.95841648532354,
        "1": 58.83344946024013,
        "5": 795.1093769885366
    },
    "Obs_and_actions_tfls": {
        "0": 119.17312363332067
    }
}