{
    "Average_holding_time": 11.647972389991372,
    "Average_holding_actions": [
        872,
        124,
        163,
        0,
        0,
        0
    ],
    "Average_travel_time_passengers": 2649.111117378879,
    "Average_passenger_waiting_time": 333.3517357079077,
    "Average_passenger_in_vehicle_time": 2315.759381670995,
    "Average_speed_busses": 0.04829166666666666,
    "Average_experienced_crowding": 84.41408194781765,
    "Average_covariation_headway": 0.45542496126132076,
    "Average_covariation_headway_stops": {
        "H": 0.34985813066333693,
        "L": 0.32716498646550135,
        "J": 0.3456311755300322,
        "E": 0.32914889222870486,
        "C": 0.3157355308924455,
        "B": 0.3247693297994206,
        "I": 0.3418956548841202,
        "A": 0.32878421202112185,
        "F": 0.3337148427647801,
        "K": 0.33842292221105025,
        "D": 0.32714872147021173,
        "G": 0.34182070406524834
    },
    "Average_excess_waiting_time": {
        "H": 70.59820778207671,
        "L": 64.26570873030795,
        "J": 70.45687887695533,
        "E": 62.08299008300179,
        "C": 59.20386015508848,
        "B": 64.29116856078963,
        "I": 71.17366005573837,
        "A": 66.68639266322765,
        "F": 65.08945792150269,
        "K": 70.58526272033498,
        "D": 63.503479247016685,
        "G": 68.45236313261012
    },
    "Holding_per_stop": {
        "L": 11.5625,
        "H": 11.443298969072165,
        "E": 14.081632653061224,
        "J": 13.125,
        "C": 10.515463917525773,
        "B": 8.041237113402062,
        "I": 13.263157894736842,
        "F": 8.041237113402062,
        "A": 10.9375,
        "K": 13.4375,
        "D": 12.989690721649485,
        "G": 12.371134020618557
    },
    "Actions_tfl_edges": {
        "AB": [
            97,
            0,
            0
        ],
        "BC": [
            98,
            0,
            0
        ],
        "DE": [
            98,
            0,
            0
        ],
        "GH": [
            98,
            0,
            0
        ],
        "IJ": [
            96,
            0,
            0
        ],
        "KL": [
            97,
            0,
            0
        ],
        "LA": [
            96,
            0,
            0
        ],
        "HI": [
            96,
            0,
            0
        ],
        "EF": [
            98,
            0,
            0
        ],
        "JK": [
            96,
            0,
            0
        ],
        "CD": [
            97,
            0,
            0
        ],
        "FG": [
            97,
            0,
            0
        ]
    },
    "Load_per_bus_per_stop": {
        "bus3": {
            "H": 69.47058823529412,
            "I": 73,
            "J": 73.25,
            "K": 72.25,
            "L": 73.375,
            "A": 74.8125,
            "B": 73.625,
            "C": 71.9375,
            "D": 72.5625,
            "E": 73.625,
            "F": 72.75,
            "G": 73.125
        },
        "bus5": {
            "L": 71.625,
            "A": 72,
            "B": 72.8125,
            "C": 74.4375,
            "D": 74.125,
            "E": 74.4375,
            "F": 75.0625,
            "G": 76.875,
            "H": 77.3125,
            "I": 77.25,
            "J": 75.75,
            "K": 77.625
        },
        "bus4": {
            "J": 84.25,
            "K": 84.5625,
            "L": 85.5625,
            "A": 86.6875,
            "B": 84.8125,
            "C": 86.5,
            "D": 89.1875,
            "E": 90,
            "F": 91.375,
            "G": 91.5,
            "H": 91.125,
            "I": 89.26666666666667
        },
        "bus2": {
            "E": 84.47058823529412,
            "F": 84.82352941176471,
            "G": 85.76470588235294,
            "H": 88.5,
            "I": 89.5,
            "J": 90.6875,
            "K": 91.875,
            "L": 91.0625,
            "A": 91.5625,
            "B": 90.8125,
            "C": 90.3125,
            "D": 89.375
        },
        "bus1": {
            "C": 71.3529411764706,
            "D": 73.52941176470588,
            "E": 74.76470588235294,
            "F": 75.375,
            "G": 76.875,
            "H": 76.25,
            "I": 77.3125,
            "J": 76.125,
            "K": 76.5,
            "L": 76.375,
            "A": 76.0625,
            "B": 76.1875
        },
        "bus0": {
            "B": 65.70588235294117,
            "C": 64,
            "D": 64.5,
            "E": 65.375,
            "F": 66.25,
            "G": 67.375,
            "H": 68.375,
            "I": 68.625,
            "J": 66.875,
            "K": 66.5625,
            "L": 66.5625,
            "A": 68.25
        }
    },
    "Obs_and_actions_busses": {
        "2": 330.1234681654345,
        "0": -228.78021526610863,
        "1": 152.3373828494868
    },
    "Obs_and_actions_tfls": {
        "0": 122.01385527717893
    }
}