{
    "Average_holding_time": 21.345132743362832,
    "Average_holding_actions": [
        560,
        394,
        138,
        0,
        10,
        0
    ],
    "Average_travel_time_passengers": 2737.661648127778,
    "Average_passenger_waiting_time": 343.4146872513509,
    "Average_passenger_in_vehicle_time": 2394.246960876398,
    "Average_speed_busses": 0.04708333333333333,
    "Average_experienced_crowding": 85.43957579270887,
    "Average_covariation_headway": 0.40628745899347524,
    "Average_covariation_headway_stops": {
        "I": 0.3229138902891949,
        "K": 0.31113513436844026,
        "L": 0.3075916602307037,
        "C": 0.32124916768853234,
        "J": 0.32270174424908726,
        "E": 0.31478721746331423,
        "F": 0.3087283912655668,
        "A": 0.30450895140760903,
        "D": 0.32213028596609966,
        "B": 0.3073282122110012,
        "G": 0.32341327621684546,
        "H": 0.32005862364485216
    },
    "Average_excess_waiting_time": {
        "I": 75.3330032027016,
        "K": 70.68191352296395,
        "L": 68.38391843397142,
        "C": 71.71737593289004,
        "J": 74.73908796938247,
        "E": 69.79050608269552,
        "F": 70.75795805224277,
        "A": 68.82198790658549,
        "D": 73.30456295076056,
        "B": 71.17604414687742,
        "G": 75.52199577229453,
        "H": 77.13650018607848
    },
    "Holding_per_stop": {
        "K": 20.425531914893618,
        "L": 20.842105263157894,
        "C": 21.473684210526315,
        "J": 28.085106382978722,
        "E": 18.31578947368421,
        "I": 23.93617021276596,
        "A": 15.957446808510639,
        "F": 18.829787234042552,
        "D": 22.02127659574468,
        "B": 20.425531914893618,
        "G": 23.617021276595743,
        "H": 22.258064516129032
    },
    "Actions_tfl_edges": {
        "BC": [
            95,
            0,
            0
        ],
        "DE": [
            95,
            0,
            0
        ],
        "HI": [
            94,
            0,
            0
        ],
        "IJ": [
            95,
            0,
            0
        ],
        "JK": [
            95,
            0,
            0
        ],
        "KL": [
            95,
            0,
            0
        ],
        "LA": [
            95,
            0,
            0
        ],
        "CD": [
            94,
            0,
            0
        ],
        "EF": [
            95,
            0,
            0
        ],
        "AB": [
            94,
            0,
            0
        ],
        "FG": [
            94,
            0,
            0
        ],
        "GH": [
            94,
            0,
            0
        ]
    },
    "Load_per_bus_per_stop": {
        "bus2": {
            "I": 83.125,
            "J": 80.25,
            "K": 82,
            "L": 84.4375,
            "A": 84.125,
            "B": 83.8125,
            "C": 84.625,
            "D": 83.73333333333333,
            "E": 83.93333333333334,
            "F": 85,
            "G": 87.33333333333333,
            "H": 88.33333333333333
        },
        "bus4": {
            "K": 56.125,
            "L": 55.875,
            "A": 56.875,
            "B": 56.625,
            "C": 58.375,
            "D": 58.0625,
            "E": 58.5625,
            "F": 56.9375,
            "G": 56.375,
            "H": 57.333333333333336,
            "I": 57,
            "J": 58.53333333333333
        },
        "bus5": {
            "L": 71.25,
            "A": 73.875,
            "B": 74.875,
            "C": 73.5625,
            "D": 74.5625,
            "E": 73.5,
            "F": 74.375,
            "G": 71.875,
            "H": 72.125,
            "I": 73,
            "J": 73.33333333333333,
            "K": 74.06666666666666
        },
        "bus0": {
            "C": 91.5625,
            "D": 90.5625,
            "E": 89.375,
            "F": 90.5625,
            "G": 91.4375,
            "H": 93.5,
            "I": 92.4375,
            "J": 92.3125,
            "K": 90.8,
            "L": 92.73333333333333,
            "A": 94.86666666666666,
            "B": 96.46666666666667
        },
        "bus3": {
            "J": 69.8125,
            "K": 70.625,
            "L": 71.6875,
            "A": 71.6875,
            "B": 69.5625,
            "C": 68.6875,
            "D": 69.6875,
            "E": 70.8125,
            "F": 71.26666666666667,
            "G": 71.4,
            "H": 72.8,
            "I": 72.53333333333333
        },
        "bus1": {
            "E": 90.6875,
            "F": 90.625,
            "G": 92.8125,
            "H": 95.3125,
            "I": 96.8125,
            "J": 97.5625,
            "K": 96.6875,
            "L": 97.1875,
            "A": 97.26666666666667,
            "B": 97.66666666666667,
            "C": 96.6,
            "D": 97.4
        }
    },
    "Obs_and_actions_busses": {
        "1": 61.819433882444834,
        "0": -318.33934033751217,
        "2": 195.54709560280386,
        "5": 516.0591610087467,
        "3": 365.50950563436413
    },
    "Obs_and_actions_tfls": {
        "0": 110.33119584125784
    }
}