{
    "Average_holding_time": 16.88,
    "Average_holding_actions": [
        745,
        127,
        253,
        0,
        0,
        0
    ],
    "Average_travel_time_passengers": 2812.5207489706086,
    "Average_passenger_waiting_time": 414.4704470720722,
    "Average_passenger_in_vehicle_time": 2398.0503018985182,
    "Average_speed_busses": 0.046875,
    "Average_experienced_crowding": 103.45840488240275,
    "Average_covariation_headway": 0.6954737284982058,
    "Average_covariation_headway_stops": {
        "F": 0.5932099387053871,
        "H": 0.5746048605413747,
        "I": 0.5810399876485313,
        "J": 0.5840710828174617,
        "B": 0.5698053240714066,
        "A": 0.5793978066987435,
        "C": 0.5687600604473231,
        "G": 0.5770062168296929,
        "K": 0.5820973850073852,
        "D": 0.5751495337523083,
        "L": 0.5666957754348356,
        "E": 0.5758942736265378
    },
    "Average_excess_waiting_time": {
        "F": 155.53203060958947,
        "H": 146.35263817721432,
        "I": 146.29770612082928,
        "J": 145.18588426595352,
        "B": 137.80260987814177,
        "A": 144.28652134615152,
        "C": 139.87286032703167,
        "G": 152.00492114908258,
        "K": 144.4597016447944,
        "D": 147.55345136509015,
        "L": 141.54733127844275,
        "E": 151.46033062595086
    },
    "Holding_per_stop": {
        "I": 17.23404255319149,
        "F": 19.35483870967742,
        "J": 17.68421052631579,
        "B": 15.473684210526315,
        "H": 18.387096774193548,
        "A": 12.446808510638299,
        "C": 15.789473684210526,
        "G": 17.741935483870968,
        "K": 16.595744680851062,
        "D": 18.70967741935484,
        "L": 15.638297872340425,
        "E": 17.608695652173914
    },
    "Actions_tfl_edges": {
        "AB": [
            95,
            0,
            0
        ],
        "EF": [
            93,
            0,
            0
        ],
        "GH": [
            94,
            0,
            0
        ],
        "HI": [
            94,
            0,
            0
        ],
        "IJ": [
            95,
            0,
            0
        ],
        "LA": [
            95,
            0,
            0
        ],
        "FG": [
            93,
            0,
            0
        ],
        "JK": [
            95,
            0,
            0
        ],
        "BC": [
            95,
            0,
            0
        ],
        "CD": [
            95,
            0,
            0
        ],
        "KL": [
            94,
            0,
            0
        ],
        "DE": [
            92,
            0,
            0
        ]
    },
    "Load_per_bus_per_stop": {
        "bus1": {
            "F": 62.0625,
            "G": 63,
            "H": 63,
            "I": 64.75,
            "J": 66.6875,
            "K": 65.75,
            "L": 66.4375,
            "A": 67.875,
            "B": 66.4,
            "C": 65.46666666666667,
            "D": 66,
            "E": 67.26666666666667
        },
        "bus2": {
            "H": 63.625,
            "I": 62.875,
            "J": 62.625,
            "K": 62.75,
            "L": 63.8125,
            "A": 65.6875,
            "B": 65.8125,
            "C": 64.25,
            "D": 67.86666666666666,
            "E": 67.86666666666666,
            "F": 67.13333333333334,
            "G": 66.33333333333333
        },
        "bus3": {
            "I": 83.4375,
            "J": 82.0625,
            "K": 80.375,
            "L": 80.8125,
            "A": 80.4375,
            "B": 79.9375,
            "C": 81.125,
            "D": 78.625,
            "E": 84.46666666666667,
            "F": 84.33333333333333,
            "G": 85.8,
            "H": 87.8
        },
        "bus4": {
            "J": 103,
            "K": 101.5625,
            "L": 104.75,
            "A": 106,
            "B": 107.5625,
            "C": 109.3125,
            "D": 110,
            "E": 109.2,
            "F": 112.53333333333333,
            "G": 112.13333333333334,
            "H": 110.73333333333333,
            "I": 110.2
        },
        "bus0": {
            "B": 65.1875,
            "C": 67.8125,
            "D": 68.25,
            "E": 69.6875,
            "F": 69.6875,
            "G": 70.3125,
            "H": 71.1875,
            "I": 70.8125,
            "J": 71.125,
            "K": 66.6,
            "L": 68.46666666666667,
            "A": 69.4
        },
        "bus5": {
            "A": 82.4375,
            "B": 83.3125,
            "C": 81.1875,
            "D": 80,
            "E": 80.8125,
            "F": 83,
            "G": 84.125,
            "H": 81.2,
            "I": 82.93333333333334,
            "J": 86.26666666666667,
            "K": 88.4,
            "L": 88.4
        }
    },
    "Obs_and_actions_busses": {
        "2": 384.90752056150683,
        "0": -296.3922204331023,
        "1": 151.26513252537308
    },
    "Obs_and_actions_tfls": {
        "0": 88.49525037973117
    }
}