{
    "Average_holding_time": 13.163793103448276,
    "Average_holding_actions": [
        829,
        162,
        166,
        0,
        3,
        0
    ],
    "Average_travel_time_passengers": 2647.3078882498344,
    "Average_passenger_waiting_time": 343.06239432853437,
    "Average_passenger_in_vehicle_time": 2304.2454939213303,
    "Average_speed_busses": 0.04833333333333333,
    "Average_experienced_crowding": 84.09104977592796,
    "Average_covariation_headway": 0.4665421784094919,
    "Average_covariation_headway_stops": {
        "K": 0.34381830330163066,
        "L": 0.3331282571582384,
        "H": 0.36472948289790796,
        "F": 0.3583789542701051,
        "E": 0.3605480678034742,
        "G": 0.36314695193278984,
        "A": 0.31811928928090766,
        "I": 0.3428606064902235,
        "B": 0.3231330619872391,
        "J": 0.34622173939198464,
        "C": 0.33251951931811213,
        "D": 0.3525693471550697
    },
    "Average_excess_waiting_time": {
        "K": 67.94074027345135,
        "L": 63.34637836955142,
        "H": 71.30917976018924,
        "F": 71.29638025109489,
        "E": 73.59207965015025,
        "G": 72.0309164128563,
        "A": 61.834970441481516,
        "I": 67.98694206130733,
        "B": 64.38489077848442,
        "J": 70.26015260538406,
        "C": 68.01959063011287,
        "D": 73.77784251190997
    },
    "Holding_per_stop": {
        "H": 14.845360824742269,
        "L": 13.29896907216495,
        "F": 13.29896907216495,
        "G": 15.77319587628866,
        "K": 12.061855670103093,
        "E": 15.9375,
        "A": 9.896907216494846,
        "I": 15.154639175257731,
        "B": 9.587628865979381,
        "J": 10.3125,
        "C": 10.3125,
        "D": 17.5
    },
    "Actions_tfl_edges": {
        "DE": [
            97,
            0,
            0
        ],
        "EF": [
            97,
            0,
            0
        ],
        "FG": [
            98,
            0,
            0
        ],
        "GH": [
            98,
            0,
            0
        ],
        "JK": [
            97,
            0,
            0
        ],
        "KL": [
            98,
            0,
            0
        ],
        "HI": [
            97,
            0,
            0
        ],
        "LA": [
            97,
            0,
            0
        ],
        "AB": [
            97,
            0,
            0
        ],
        "IJ": [
            97,
            0,
            0
        ],
        "BC": [
            97,
            0,
            0
        ],
        "CD": [
            96,
            0,
            0
        ]
    },
    "Load_per_bus_per_stop": {
        "bus4": {
            "K": 44,
            "L": 43.125,
            "A": 44.3125,
            "B": 45.875,
            "C": 47.625,
            "D": 47.75,
            "E": 48.5,
            "F": 48.125,
            "G": 47.125,
            "H": 47.5,
            "I": 47.375,
            "J": 47.5625
        },
        "bus5": {
            "L": 96,
            "A": 94.82352941176471,
            "B": 93,
            "C": 91.875,
            "D": 93.9375,
            "E": 97.4375,
            "F": 98.3125,
            "G": 99.8125,
            "H": 101.3125,
            "I": 103.625,
            "J": 104.6875,
            "K": 103.875
        },
        "bus3": {
            "H": 69.05882352941177,
            "I": 69.88235294117646,
            "J": 69.625,
            "K": 70.3125,
            "L": 70.875,
            "A": 71.5625,
            "B": 71.3125,
            "C": 71.875,
            "D": 72.5,
            "E": 73.625,
            "F": 73.375,
            "G": 73.5
        },
        "bus1": {
            "F": 74.17647058823529,
            "G": 75.3125,
            "H": 74.625,
            "I": 75.5,
            "J": 75.8125,
            "K": 77.625,
            "L": 78.4375,
            "A": 78.125,
            "B": 78,
            "C": 78,
            "D": 79.25,
            "E": 77.9375
        },
        "bus0": {
            "E": 78.25,
            "F": 79.3125,
            "G": 77.9375,
            "H": 76.5,
            "I": 78.5,
            "J": 80.6875,
            "K": 81.6875,
            "L": 81.1875,
            "A": 83.875,
            "B": 84.25,
            "C": 84.25,
            "D": 81.8125
        },
        "bus2": {
            "G": 80.17647058823529,
            "H": 79.875,
            "I": 81.3125,
            "J": 81.125,
            "K": 79.625,
            "L": 79.4375,
            "A": 81,
            "B": 83.5625,
            "C": 86.1875,
            "D": 88.25,
            "E": 86,
            "F": 85.125
        }
    },
    "Obs_and_actions_busses": {
        "5": 846.3200049654389,
        "1": 154.0853676632258,
        "0": -264.2917796908873,
        "2": 339.0781966684495
    },
    "Obs_and_actions_tfls": {
        "0": 100.11018501960183
    }
}"0": 87.20029030000975
    }
}