{
    "Average_holding_time": 12.287917737789202,
    "Average_holding_actions": [
        1006,
        0,
        109,
        0,
        52,
        0
    ],
    "Average_travel_time_passengers": 2666.0430790170503,
    "Average_passenger_waiting_time": 342.57003463656304,
    "Average_passenger_in_vehicle_time": 2323.4730443804733,
    "Average_speed_busses": 0.048625,
    "Average_experienced_crowding": 85.91749959694603,
    "Average_covariation_headway": 0.48720147898800537,
    "Average_covariation_headway_stops": {
        "E": 0.3784709334737003,
        "A": 0.3528775548099522,
        "K": 0.3916241154913244,
        "J": 0.37890135545229214,
        "G": 0.3979272794274541,
        "C": 0.3586745267467509,
        "L": 0.34490399161128676,
        "F": 0.36793651656199944,
        "B": 0.36401797111669587,
        "H": 0.3765597851853606,
        "D": 0.36111861637324766,
        "I": 0.38174768726927505
    },
    "Average_excess_waiting_time": {
        "E": 72.66620590918393,
        "A": 67.41832360175852,
        "K": 75.4162481635239,
        "J": 73.50534901251217,
        "G": 76.28989331715309,
        "C": 68.11656097291609,
        "L": 67.81580974583511,
        "F": 71.56889814402564,
        "B": 72.58671330500988,
        "H": 72.49745067311653,
        "D": 70.32512498206898,
        "I": 76.17319463010631
    },
    "Holding_per_stop": {
        "E": 14.693877551020408,
        "A": 3.402061855670103,
        "K": 19.591836734693878,
        "G": 14.387755102040817,
        "C": 8.350515463917526,
        "J": 13.29896907216495,
        "L": 15.3125,
        "B": 10.206185567010309,
        "F": 8.969072164948454,
        "H": 11.63265306122449,
        "D": 11.75257731958763,
        "I": 15.77319587628866
    },
    "Actions_tfl_edges": {
        "BC": [
            98,
            0,
            0
        ],
        "DE": [
            98,
            0,
            0
        ],
        "FG": [
            98,
            0,
            0
        ],
        "IJ": [
            98,
            0,
            0
        ],
        "JK": [
            98,
            0,
            0
        ],
        "LA": [
            97,
            0,
            0
        ],
        "EF": [
            98,
            0,
            0
        ],
        "AB": [
            97,
            0,
            0
        ],
        "KL": [
            98,
            0,
            0
        ],
        "GH": [
            98,
            0,
            0
        ],
        "CD": [
            97,
            0,
            0
        ],
        "HI": [
            98,
            0,
            0
        ]
    },
    "Load_per_bus_per_stop": {
        "bus1": {
            "E": 69.82352941176471,
            "F": 70.17647058823529,
            "G": 71.94117647058823,
            "H": 72.29411764705883,
            "I": 73,
            "J": 73.75,
            "K": 76.375,
            "L": 76,
            "A": 75.9375,
            "B": 74.4375,
            "C": 74.5,
            "D": 74.6875
        },
        "bus5": {
            "A": 81.29411764705883,
            "B": 82.47058823529412,
            "C": 81.75,
            "D": 79.125,
            "E": 79.5625,
            "F": 79.25,
            "G": 78.75,
            "H": 79.3125,
            "I": 79.9375,
            "J": 82.75,
            "K": 83.4375,
            "L": 84.5625
        },
        "bus4": {
            "K": 87.29411764705883,
            "L": 86.625,
            "A": 85.9375,
            "B": 86.75,
            "C": 87.625,
            "D": 88,
            "E": 90,
            "F": 90.5625,
            "G": 89.625,
            "H": 90.125,
            "I": 90.875,
            "J": 93.1875
        },
        "bus3": {
            "J": 81.47058823529412,
            "K": 79.88235294117646,
            "L": 83.6875,
            "A": 85.1875,
            "B": 85.25,
            "C": 85.8125,
            "D": 87.375,
            "E": 87.25,
            "F": 87.4375,
            "G": 85.5625,
            "H": 86.6875,
            "I": 85.625
        },
        "bus2": {
            "G": 50.88235294117647,
            "H": 51.294117647058826,
            "I": 50.529411764705884,
            "J": 51.529411764705884,
            "K": 51.875,
            "L": 53.5625,
            "A": 55.375,
            "B": 55.5625,
            "C": 56.4375,
            "D": 55.8125,
            "E": 55,
            "F": 53.625
        },
        "bus0": {
            "C": 79.6470588235294,
            "D": 78.05882352941177,
            "E": 77.70588235294117,
            "F": 78.125,
            "G": 79.4375,
            "H": 82.375,
            "I": 84.625,
            "J": 85.4375,
            "K": 85.25,
            "L": 84.25,
            "A": 83.75,
            "B": 82.8125
        }
    },
    "Obs_and_actions_busses": {
        "0": -179.85737852506108,
        "5": 414.027586210328,
        "2": 237.6162258612206
    },
    "Obs_and_actions_tfls": {
        "0": 109.01882794425973
    }
}