{
    "Average_holding_time": 17.449781659388645,
    "Average_holding_actions": [
        741,
        323,
        0,
        62,
        19,
        0
    ],
    "Average_travel_time_passengers": 2654.9852977080423,
    "Average_passenger_waiting_time": 331.82109714618883,
    "Average_passenger_in_vehicle_time": 2323.1642005618573,
    "Average_speed_busses": 0.04770833333333333,
    "Average_experienced_crowding": 82.40603006206283,
    "Average_covariation_headway": 0.3865102251556414,
    "Average_covariation_headway_stops": {
        "D": 0.28003240307218663,
        "L": 0.2774270241634555,
        "F": 0.29287954036006525,
        "A": 0.2904875125580392,
        "J": 0.30785295400846235,
        "B": 0.2943863115874387,
        "G": 0.29327321451941396,
        "C": 0.2794989837475003,
        "E": 0.2853717376149686,
        "H": 0.2953774284608113,
        "K": 0.27624447285388254,
        "I": 0.3056935936176258
    },
    "Average_excess_waiting_time": {
        "D": 58.9766225916394,
        "L": 61.26360120145807,
        "F": 61.79982611722892,
        "A": 61.89644057416774,
        "J": 66.29080143751827,
        "B": 60.36668138475898,
        "G": 61.87394146535178,
        "C": 59.763428496392635,
        "E": 61.63221433998069,
        "H": 63.64900106385261,
        "K": 62.57896685949049,
        "I": 68.454717360718
    },
    "Holding_per_stop": {
        "F": 17.1875,
        "D": 14.375,
        "A": 20,
        "B": 12.8125,
        "L": 15.789473684210526,
        "J": 18,
        "G": 20.526315789473685,
        "C": 15,
        "E": 18.31578947368421,
        "H": 18.94736842105263,
        "K": 20.526315789473685,
        "I": 18
    },
    "Actions_tfl_edges": {
        "AB": [
            97,
            0,
            0
        ],
        "CD": [
            96,
            0,
            0
        ],
        "EF": [
            96,
            0,
            0
        ],
        "IJ": [
            96,
            0,
            0
        ],
        "KL": [
            96,
            0,
            0
        ],
        "LA": [
            96,
            0,
            0
        ],
        "FG": [
            96,
            0,
            0
        ],
        "DE": [
            96,
            0,
            0
        ],
        "BC": [
            96,
            0,
            0
        ],
        "JK": [
            95,
            0,
            0
        ],
        "GH": [
            95,
            0,
            0
        ],
        "HI": [
            95,
            0,
            0
        ]
    },
    "Load_per_bus_per_stop": {
        "bus1": {
            "D": 78.75,
            "E": 78.6875,
            "F": 78.125,
            "G": 78.5625,
            "H": 79.625,
            "I": 81.0625,
            "J": 79.4375,
            "K": 80.3125,
            "L": 81.375,
            "A": 81.375,
            "B": 79.875,
            "C": 82.875
        },
        "bus4": {
            "L": 71.5625,
            "A": 74.4375,
            "B": 74.5,
            "C": 74.3125,
            "D": 74.5625,
            "E": 73.75,
            "F": 74.125,
            "G": 72.9375,
            "H": 71.125,
            "I": 73.125,
            "J": 73.73333333333333,
            "K": 75.66666666666667
        },
        "bus2": {
            "F": 91.875,
            "G": 91.625,
            "H": 91.625,
            "I": 93.4375,
            "J": 92.3125,
            "K": 91.375,
            "L": 91.5625,
            "A": 90.4375,
            "B": 91.9375,
            "C": 92.875,
            "D": 94.5,
            "E": 95.6875
        },
        "bus5": {
            "A": 63.5,
            "B": 63.875,
            "C": 64.6875,
            "D": 65.5625,
            "E": 69.125,
            "F": 70.0625,
            "G": 67.5,
            "H": 66.3125,
            "I": 67.25,
            "J": 68,
            "K": 68.5625,
            "L": 66.66666666666667
        },
        "bus3": {
            "J": 81.125,
            "K": 81.3125,
            "L": 80.375,
            "A": 82.25,
            "B": 81.4375,
            "C": 82.875,
            "D": 85.8125,
            "E": 86.5,
            "F": 86.875,
            "G": 87.13333333333334,
            "H": 89.8,
            "I": 86.73333333333333
        },
        "bus0": {
            "B": 66.4375,
            "C": 66.6875,
            "D": 67,
            "E": 68.5,
            "F": 68.0625,
            "G": 70.25,
            "H": 71.3125,
            "I": 72.625,
            "J": 71.5625,
            "K": 69.5625,
            "L": 71.25,
            "A": 70.75
        }
    },
    "Obs_and_actions_busses": {
        "0": -249.8392927260332,
        "1": 95.27423469286164,
        "4": 245.60178322472814,
        "5": 408.0430958865824
    },
    "Obs_and_actions_tfls": {
        "0": 117.10591441138848
    }
}