{
    "Average_holding_time": 23.762376237623762,
    "Average_holding_actions": [
        518,
        370,
        177,
        0,
        9,
        0
    ],
    "Average_travel_time_passengers": 2794.3430445437552,
    "Average_passenger_waiting_time": 358.4143853093312,
    "Average_passenger_in_vehicle_time": 2435.9286592344097,
    "Average_speed_busses": 0.04629166666666667,
    "Average_experienced_crowding": 88.22336717250482,
    "Average_covariation_headway": 0.43430804335383955,
    "Average_covariation_headway_stops": {
        "L": 0.3591280811309469,
        "D": 0.35709076927803673,
        "J": 0.38412668005705863,
        "C": 0.36252529904389214,
        "K": 0.37234392482181805,
        "B": 0.35261549966227185,
        "E": 0.3611599178149506,
        "A": 0.3458489127620461,
        "F": 0.3603417438946984,
        "G": 0.34226718627366814,
        "H": 0.3423226476609235,
        "I": 0.369510585456494
    },
    "Average_excess_waiting_time": {
        "L": 85.03033457815229,
        "D": 81.87672416728003,
        "J": 96.20075358853933,
        "C": 83.51001663461648,
        "K": 90.14822252893481,
        "B": 83.49152818655233,
        "E": 84.5374323816601,
        "A": 84.25244169478458,
        "F": 86.34718038028143,
        "G": 86.24814405774686,
        "H": 87.01699367112644,
        "I": 95.08729692519739
    },
    "Holding_per_stop": {
        "L": 21.29032258064516,
        "D": 22.340425531914892,
        "C": 23.29787234042553,
        "K": 27.065217391304348,
        "B": 20.322580645161292,
        "J": 29.02173913043478,
        "E": 21.29032258064516,
        "A": 19.35483870967742,
        "F": 26.129032258064516,
        "G": 23.152173913043477,
        "H": 26.043956043956044,
        "I": 26.043956043956044
    },
    "Actions_tfl_edges": {
        "AB": [
            94,
            0,
            0
        ],
        "BC": [
            94,
            0,
            0
        ],
        "CD": [
            95,
            0,
            0
        ],
        "IJ": [
            92,
            0,
            0
        ],
        "JK": [
            93,
            0,
            0
        ],
        "KL": [
            93,
            0,
            0
        ],
        "LA": [
            93,
            0,
            0
        ],
        "DE": [
            94,
            0,
            0
        ],
        "EF": [
            93,
            0,
            0
        ],
        "FG": [
            93,
            0,
            0
        ],
        "GH": [
            92,
            0,
            0
        ],
        "HI": [
            91,
            0,
            0
        ]
    },
    "Load_per_bus_per_stop": {
        "bus5": {
            "L": 75.125,
            "A": 75.875,
            "B": 74.1875,
            "C": 74,
            "D": 76.4375,
            "E": 75.13333333333334,
            "F": 77,
            "G": 78.13333333333334,
            "H": 78,
            "I": 78.93333333333334,
            "J": 79.8,
            "K": 80.06666666666666
        },
        "bus2": {
            "D": 87.8125,
            "E": 89.5,
            "F": 88.125,
            "G": 88.625,
            "H": 89,
            "I": 91.0625,
            "J": 92.875,
            "K": 91.33333333333333,
            "L": 92.73333333333333,
            "A": 93.73333333333333,
            "B": 94.06666666666666,
            "C": 93.6
        },
        "bus3": {
            "J": 86.1875,
            "K": 87.1875,
            "L": 89.6875,
            "A": 88.5625,
            "B": 92.53333333333333,
            "C": 93.6,
            "D": 93.53333333333333,
            "E": 95.53333333333333,
            "F": 95.4,
            "G": 93.8,
            "H": 93.26666666666667,
            "I": 92.6
        },
        "bus1": {
            "C": 64.9375,
            "D": 65.9375,
            "E": 67.1875,
            "F": 68.125,
            "G": 66.9375,
            "H": 67.93333333333334,
            "I": 70.33333333333333,
            "J": 70.8,
            "K": 71.2,
            "L": 70.8,
            "A": 70.4,
            "B": 69.06666666666666
        },
        "bus4": {
            "K": 88.4375,
            "L": 91.5625,
            "A": 91.4375,
            "B": 90.25,
            "C": 90,
            "D": 90.93333333333334,
            "E": 91.46666666666667,
            "F": 91.66666666666667,
            "G": 90.13333333333334,
            "H": 90.2,
            "I": 91.53333333333333,
            "J": 92.53333333333333
        },
        "bus0": {
            "B": 64.8125,
            "C": 64.9375,
            "D": 65.0625,
            "E": 64.5,
            "F": 65.3125,
            "G": 66.2,
            "H": 67.2,
            "I": 65.06666666666666,
            "J": 65.66666666666667,
            "K": 66.2,
            "L": 67.53333333333333,
            "A": 69.86666666666666
        }
    },
    "Obs_and_actions_busses": {
        "0": -347.530082642261,
        "1": 55.731063928756306,
        "2": 206.0906459593474,
        "3": 375.64750164453966,
        "5": 717.6051247766503
    },
    "Obs_and_actions_tfls": {
        "0": 114.68505787291392
    }
}