{
    "Average_holding_time": 18.54402789886661,
    "Average_holding_actions": [
        732,
        324,
        0,
        70,
        21,
        0
    ],
    "Average_travel_time_passengers": 2699.876634278846,
    "Average_passenger_waiting_time": 334.533934312659,
    "Average_passenger_in_vehicle_time": 2365.342699966168,
    "Average_speed_busses": 0.04779166666666667,
    "Average_experienced_crowding": 81.79797243320505,
    "Average_covariation_headway": 0.38394220354098746,
    "Average_covariation_headway_stops": {
        "D": 0.3144484154385669,
        "K": 0.3110377514561154,
        "A": 0.299181029613009,
        "J": 0.30586138413445685,
        "E": 0.31302291975976204,
        "B": 0.30173216377051787,
        "L": 0.29639897383200303,
        "F": 0.2915125084044149,
        "C": 0.28957056073521903,
        "G": 0.27643445279049816,
        "H": 0.2856603483184992,
        "I": 0.29525317151324604
    },
    "Average_excess_waiting_time": {
        "D": 64.70814895663517,
        "K": 65.95129278567362,
        "A": 64.14630865814223,
        "J": 66.64751755036554,
        "E": 62.45606859550696,
        "B": 62.310112551734164,
        "L": 65.4656016323168,
        "F": 60.55847729364285,
        "C": 61.9555428962812,
        "G": 59.36736199679484,
        "H": 63.94535249001484,
        "I": 66.63015496974879
    },
    "Holding_per_stop": {
        "K": 25.3125,
        "A": 15.157894736842104,
        "B": 10.625,
        "E": 20.103092783505154,
        "D": 27.8125,
        "J": 12.31578947368421,
        "L": 25.263157894736842,
        "F": 16.875,
        "C": 16.5625,
        "G": 17.5,
        "H": 19.57894736842105,
        "I": 15.319148936170214
    },
    "Actions_tfl_edges": {
        "AB": [
            96,
            0,
            0
        ],
        "CD": [
            96,
            0,
            0
        ],
        "DE": [
            97,
            0,
            0
        ],
        "IJ": [
            95,
            0,
            0
        ],
        "JK": [
            96,
            0,
            0
        ],
        "LA": [
            96,
            0,
            0
        ],
        "KL": [
            95,
            0,
            0
        ],
        "BC": [
            96,
            0,
            0
        ],
        "EF": [
            97,
            0,
            0
        ],
        "FG": [
            96,
            0,
            0
        ],
        "GH": [
            96,
            0,
            0
        ],
        "HI": [
            95,
            0,
            0
        ]
    },
    "Load_per_bus_per_stop": {
        "bus1": {
            "D": 53,
            "E": 52.0625,
            "F": 52.6875,
            "G": 51.6875,
            "H": 53,
            "I": 53.1875,
            "J": 53.25,
            "K": 54.375,
            "L": 55.25,
            "A": 56.3125,
            "B": 57.375,
            "C": 57.875
        },
        "bus4": {
            "K": 82.6875,
            "L": 82,
            "A": 80.25,
            "B": 80.6875,
            "C": 81.5,
            "D": 81.125,
            "E": 79.5,
            "F": 80.875,
            "G": 83.9375,
            "H": 85.1875,
            "I": 86.13333333333334,
            "J": 86.53333333333333
        },
        "bus5": {
            "A": 74.3125,
            "B": 75.375,
            "C": 75,
            "D": 74.75,
            "E": 76.125,
            "F": 75.75,
            "G": 75.125,
            "H": 74.6875,
            "I": 75.5625,
            "J": 74.4375,
            "K": 73.8125,
            "L": 75.6
        },
        "bus3": {
            "J": 88.6875,
            "K": 88.8125,
            "L": 90.625,
            "A": 91.75,
            "B": 90.5625,
            "C": 90.6875,
            "D": 90.4375,
            "E": 93.25,
            "F": 94.25,
            "G": 93.5,
            "H": 94.8,
            "I": 93.8
        },
        "bus2": {
            "E": 91.88235294117646,
            "F": 92.375,
            "G": 91.125,
            "H": 91.0625,
            "I": 90.9375,
            "J": 92.625,
            "K": 93.6875,
            "L": 94.1875,
            "A": 94.4375,
            "B": 94.25,
            "C": 96.1875,
            "D": 96
        },
        "bus0": {
            "B": 61.6875,
            "C": 62.125,
            "D": 63.1875,
            "E": 67.5625,
            "F": 66.0625,
            "G": 64.6875,
            "H": 65.125,
            "I": 63,
            "J": 63.4375,
            "K": 65.0625,
            "L": 63.6875,
            "A": 64.6875
        }
    },
    "Obs_and_actions_busses": {
        "5": 504.4553981609364,
        "0": -245.7802309736467,
        "4": 246.09844975701768,
        "1": 95.02349290851063
    },
    "Obs_and_actions_tfls": {
        "0": 113.36723126188117
    }
}