{
    "Average_holding_time": 15.705412599822537,
    "Average_holding_actions": [
        786,
        258,
        0,
        83,
        0,
        0
    ],
    "Average_travel_time_passengers": 2790.0907340411172,
    "Average_passenger_waiting_time": 382.84163188159823,
    "Average_passenger_in_vehicle_time": 2407.249102159498,
    "Average_speed_busses": 0.04695833333333333,
    "Average_experienced_crowding": 96.55988350337259,
    "Average_covariation_headway": 0.585391103516889,
    "Average_covariation_headway_stops": {
        "B": 0.5055632960843306,
        "I": 0.4390418145111483,
        "C": 0.4961645465458548,
        "F": 0.47125841862533313,
        "G": 0.44595661912175993,
        "H": 0.44600309835852336,
        "J": 0.4426759954264757,
        "D": 0.49001375068046704,
        "K": 0.4509096586855095,
        "E": 0.46909529221191454,
        "L": 0.45247248249181704,
        "A": 0.4792369834860026
    },
    "Average_excess_waiting_time": {
        "B": 121.01069813203162,
        "I": 97.62570573256147,
        "C": 117.09578810002301,
        "F": 112.36175965764915,
        "G": 105.44694944494796,
        "H": 101.90088047164085,
        "J": 100.92843745134655,
        "D": 117.48535400500913,
        "K": 102.86966990357575,
        "E": 114.33621749863767,
        "L": 105.68543049763838,
        "A": 115.06023215160934
    },
    "Holding_per_stop": {
        "C": 15.638297872340425,
        "I": 16.105263157894736,
        "G": 11.48936170212766,
        "H": 11.808510638297872,
        "B": 16.914893617021278,
        "F": 19.148936170212767,
        "J": 16.914893617021278,
        "D": 21.70212765957447,
        "K": 13.72340425531915,
        "E": 18.70967741935484,
        "L": 15.638297872340425,
        "A": 10.64516129032258
    },
    "Actions_tfl_edges": {
        "AB": [
            94,
            0,
            0
        ],
        "BC": [
            95,
            0,
            0
        ],
        "EF": [
            94,
            0,
            0
        ],
        "FG": [
            95,
            0,
            0
        ],
        "GH": [
            95,
            0,
            0
        ],
        "HI": [
            95,
            0,
            0
        ],
        "CD": [
            94,
            0,
            0
        ],
        "IJ": [
            95,
            0,
            0
        ],
        "JK": [
            94,
            0,
            0
        ],
        "DE": [
            94,
            0,
            0
        ],
        "KL": [
            94,
            0,
            0
        ],
        "LA": [
            94,
            0,
            0
        ]
    },
    "Load_per_bus_per_stop": {
        "bus0": {
            "B": 91.75,
            "C": 90.6875,
            "D": 90.875,
            "E": 91.625,
            "F": 92.6875,
            "G": 95.375,
            "H": 95,
            "I": 95.26666666666667,
            "J": 97.86666666666666,
            "K": 96.8,
            "L": 97.8,
            "A": 97.66666666666667
        },
        "bus5": {
            "I": 78.5,
            "J": 75.4375,
            "K": 74.3125,
            "L": 73.4375,
            "A": 76.8125,
            "B": 77.25,
            "C": 81.25,
            "D": 83.0625,
            "E": 85.25,
            "F": 85.8125,
            "G": 86.13333333333334,
            "H": 84.73333333333333
        },
        "bus1": {
            "C": 83.1875,
            "D": 84.1875,
            "E": 83.75,
            "F": 84.125,
            "G": 84.5625,
            "H": 85.4375,
            "I": 84.875,
            "J": 86.0625,
            "K": 84.33333333333333,
            "L": 87,
            "A": 87.2,
            "B": 86.13333333333334
        },
        "bus2": {
            "F": 89.4375,
            "G": 91.3125,
            "H": 91.5625,
            "I": 92.125,
            "J": 90.8125,
            "K": 92.6875,
            "L": 95.1875,
            "A": 97.53333333333333,
            "B": 98.2,
            "C": 98.66666666666667,
            "D": 96.46666666666667,
            "E": 95.86666666666666
        },
        "bus3": {
            "G": 72.125,
            "H": 73.25,
            "I": 75.625,
            "J": 76.1875,
            "K": 76.6875,
            "L": 77.8125,
            "A": 77.6875,
            "B": 75.6875,
            "C": 75.13333333333334,
            "D": 73.33333333333333,
            "E": 73.93333333333334,
            "F": 75.53333333333333
        },
        "bus4": {
            "H": 52.3125,
            "I": 52.9375,
            "J": 53.875,
            "K": 54.1875,
            "L": 55.375,
            "A": 54.8125,
            "B": 53.1875,
            "C": 53.0625,
            "D": 52.75,
            "E": 54.53333333333333,
            "F": 56.46666666666667,
            "G": 56.333333333333336
        }
    },
    "Obs_and_actions_busses": {
        "4": 472.6122472530146,
        "0": -271.35353044611475,
        "1": 205.88429507593196
    },
    "Obs_and_actions_tfls": {
        "0": 113.03835972049178
    }
}