{
    "Average_holding_time": 30.193756727664155,
    "Average_holding_actions": [
        667,
        0,
        35,
        112,
        36,
        0
    ],
    "Average_travel_time_passengers": 3693.921254180416,
    "Average_passenger_waiting_time": 774.8721571058369,
    "Average_passenger_in_vehicle_time": 2919.049097074552,
    "Average_speed_busses": 0.03870833333333333,
    "Average_experienced_crowding": 199.79779275008877,
    "Average_covariation_headway": 1.106670569872825,
    "Average_covariation_headway_stops": {
        "B": 1.3198481634050023,
        "J": 1.2161395964011719,
        "I": 1.1658844649717395,
        "D": 1.3324794836944014,
        "K": 1.2555680520031807,
        "A": 1.2843411375914764,
        "C": 1.2913939785563702,
        "E": 1.3192002115786428,
        "L": 1.283524289622744,
        "F": 1.1432158134668386,
        "G": 1.139245194504506,
        "H": 1.1351879999583534
    },
    "Average_excess_waiting_time": {
        "B": 716.8145187764562,
        "J": 619.5389390877107,
        "I": 577.7182510588012,
        "D": 737.4374732151304,
        "K": 652.8517471043517,
        "A": 686.4338976805694,
        "C": 699.4769821097642,
        "E": 795.4817762747211,
        "L": 687.6072106515477,
        "F": 546.2440432262359,
        "G": 549.8063147893633,
        "H": 553.9494697241946
    },
    "Holding_per_stop": {
        "J": 30.77922077922078,
        "B": 24.75,
        "D": 33.7037037037037,
        "K": 29.23076923076923,
        "A": 26.582278481012658,
        "I": 30,
        "E": 32,
        "C": 31.125,
        "L": 28.846153846153847,
        "F": 28,
        "G": 29.6,
        "H": 38
    },
    "Actions_tfl_edges": {
        "AB": [
            80,
            0,
            0
        ],
        "CD": [
            81,
            0,
            0
        ],
        "HI": [
            76,
            0,
            0
        ],
        "IJ": [
            77,
            0,
            0
        ],
        "JK": [
            78,
            0,
            0
        ],
        "LA": [
            79,
            0,
            0
        ],
        "BC": [
            80,
            0,
            0
        ],
        "DE": [
            81,
            0,
            0
        ],
        "KL": [
            78,
            0,
            0
        ],
        "EF": [
            75,
            0,
            0
        ],
        "FG": [
            75,
            0,
            0
        ],
        "GH": [
            75,
            0,
            0
        ]
    },
    "Load_per_bus_per_stop": {
        "bus0": {
            "B": 37.285714285714285,
            "C": 40,
            "D": 41,
            "E": 45.46153846153846,
            "F": 44.84615384615385,
            "G": 44.46153846153846,
            "H": 43.53846153846154,
            "I": 43.30769230769231,
            "J": 42.15384615384615,
            "K": 42.53846153846154,
            "L": 40.15384615384615,
            "A": 39.92307692307692
        },
        "bus3": {
            "J": 76.6923076923077,
            "K": 78.46153846153847,
            "L": 77.84615384615384,
            "A": 77.53846153846153,
            "B": 77.6923076923077,
            "C": 78.3076923076923,
            "D": 78.15384615384616,
            "E": 82.5,
            "F": 82,
            "G": 83.41666666666667,
            "H": 85.91666666666667,
            "I": 84.41666666666667
        },
        "bus2": {
            "I": 61.84615384615385,
            "J": 61.69230769230769,
            "K": 59.92307692307692,
            "L": 60.92307692307692,
            "A": 62.38461538461539,
            "B": 63.07692307692308,
            "C": 64.53846153846153,
            "D": 64.92307692307692,
            "E": 71.08333333333333,
            "F": 70,
            "G": 67.58333333333333,
            "H": 67.5
        },
        "bus1": {
            "D": 68.28571428571429,
            "E": 73.15384615384616,
            "F": 74.23076923076923,
            "G": 75.15384615384616,
            "H": 76.38461538461539,
            "I": 76.07692307692308,
            "J": 77.53846153846153,
            "K": 77.46153846153847,
            "L": 75.46153846153847,
            "A": 75.92307692307692,
            "B": 75.53846153846153,
            "C": 74.38461538461539
        },
        "bus4": {
            "K": 173.46153846153845,
            "L": 177.84615384615384,
            "A": 185.69230769230768,
            "B": 191.6153846153846,
            "C": 199.53846153846155,
            "D": 205.07692307692307,
            "E": 210.84615384615384,
            "F": 164.75,
            "G": 171.5,
            "H": 177.58333333333334,
            "I": 179.41666666666666,
            "J": 181.33333333333334
        },
        "bus5": {
            "A": 91.07142857142857,
            "B": 90.35714285714286,
            "C": 90.71428571428571,
            "D": 90.42857142857143,
            "E": 95.15384615384616,
            "F": 95.53846153846153,
            "G": 94.84615384615384,
            "H": 95.23076923076923,
            "I": 97.23076923076923,
            "J": 99.76923076923077,
            "K": 100.38461538461539,
            "L": 100.23076923076923
        }
    },
    "Obs_and_actions_busses": {
        "0": -154.19614585144703,
        "4": 459.406726448357,
        "3": 889.7860398059646,
        "2": 5844.0120923731965,
        "5": -2690.375923050337
    },
    "Obs_and_actions_tfls": {
        "0": -5.726702988822097
    }
}