{
    "Average_holding_time": 18.05286343612335,
    "Average_holding_actions": [
        874,
        63,
        0,
        26,
        0,
        0
    ],
    "Average_travel_time_passengers": 2683.0096771843287,
    "Average_passenger_waiting_time": 331.97958529839866,
    "Average_passenger_in_vehicle_time": 2351.0300918859375,
    "Average_speed_busses": 0.04729166666666667,
    "Average_experienced_crowding": 81.83792611823247,
    "Average_covariation_headway": 0.32350681932478875,
    "Average_covariation_headway_stops": {
        "L": 0.25083454997428284,
        "J": 0.24427392165515652,
        "D": 0.23385908333914976,
        "B": 0.24199892923241376,
        "F": 0.24083091221482175,
        "G": 0.23408160339836018,
        "C": 0.23395205359653115,
        "A": 0.22815891917313977,
        "E": 0.2284133994216329,
        "K": 0.23910460070958306,
        "H": 0.2288096185476136,
        "I": 0.23633101098555956
    },
    "Average_excess_waiting_time": {
        "L": 58.49127387703038,
        "J": 57.67302997672749,
        "D": 55.546569358072645,
        "B": 56.61077493597929,
        "F": 56.39843942256107,
        "G": 53.9161327280587,
        "C": 57.22831783103874,
        "A": 56.61854182881416,
        "E": 56.579705065387714,
        "K": 58.34777996600343,
        "H": 54.594726133579286,
        "I": 58.61798425417095
    },
    "Holding_per_stop": {
        "L": 25.894736842105264,
        "D": 18.63157894736842,
        "B": 15.157894736842104,
        "F": 22.105263157894736,
        "J": 15.789473684210526,
        "G": 21.157894736842106,
        "C": 18.51063829787234,
        "A": 11.170212765957446,
        "E": 17.872340425531913,
        "H": 13.894736842105264,
        "K": 20.425531914893618,
        "I": 15.957446808510639
    },
    "Actions_tfl_edges": {
        "AB": [
            95,
            0,
            0
        ],
        "CD": [
            95,
            0,
            0
        ],
        "EF": [
            95,
            0,
            0
        ],
        "FG": [
            96,
            0,
            0
        ],
        "IJ": [
            95,
            0,
            0
        ],
        "KL": [
            95,
            0,
            0
        ],
        "LA": [
            95,
            0,
            0
        ],
        "DE": [
            95,
            0,
            0
        ],
        "BC": [
            95,
            0,
            0
        ],
        "JK": [
            95,
            0,
            0
        ],
        "GH": [
            95,
            0,
            0
        ],
        "HI": [
            95,
            0,
            0
        ]
    },
    "Load_per_bus_per_stop": {
        "bus5": {
            "L": 71.25,
            "A": 73.5,
            "B": 73.3125,
            "C": 74.0625,
            "D": 74.125,
            "E": 74.25,
            "F": 74.6875,
            "G": 76.375,
            "H": 76.5625,
            "I": 78,
            "J": 78.8,
            "K": 76.2
        },
        "bus4": {
            "J": 81.6875,
            "K": 83.3125,
            "L": 84,
            "A": 83.8125,
            "B": 82.75,
            "C": 81.875,
            "D": 82.875,
            "E": 83.8125,
            "F": 83.9375,
            "G": 83.2,
            "H": 85.46666666666667,
            "I": 85.4
        },
        "bus1": {
            "D": 78.1875,
            "E": 78.1875,
            "F": 79.25,
            "G": 80.625,
            "H": 83.1875,
            "I": 82.375,
            "J": 84.5,
            "K": 86.1875,
            "L": 85.625,
            "A": 85.66666666666667,
            "B": 84.33333333333333,
            "C": 85.2
        },
        "bus0": {
            "B": 64.3125,
            "C": 65.5,
            "D": 65.0625,
            "E": 67.4375,
            "F": 67.6875,
            "G": 70.5,
            "H": 73.625,
            "I": 71.875,
            "J": 70.5625,
            "K": 68.4,
            "L": 68.66666666666667,
            "A": 68.26666666666667
        },
        "bus2": {
            "F": 79.0625,
            "G": 80.5,
            "H": 80.5,
            "I": 80.5,
            "J": 81.375,
            "K": 82.9375,
            "L": 85.125,
            "A": 84.875,
            "B": 85.9375,
            "C": 85.53333333333333,
            "D": 84.33333333333333,
            "E": 83.93333333333334
        },
        "bus3": {
            "G": 80.8125,
            "H": 80.8125,
            "I": 81.1875,
            "J": 80.9375,
            "K": 83.375,
            "L": 82.1875,
            "A": 82.625,
            "B": 84.6875,
            "C": 85.5,
            "D": 87.75,
            "E": 88.6,
            "F": 86.6
        }
    },
    "Obs_and_actions_busses": {
        "0": -190.71881095047536,
        "3": 157.79624768421863,
        "1": 89.91447705438156,
        "4": 349.9565208196779
    },
    "Obs_and_actions_tfls": {
        "0": 110.36902966393703
    }
}