{
    "Average_holding_time": 25.501355013550135,
    "Average_holding_actions": [
        493,
        361,
        193,
        0,
        7,
        0
    ],
    "Average_travel_time_passengers": 2781.4552675158993,
    "Average_passenger_waiting_time": 372.3608694024718,
    "Average_passenger_in_vehicle_time": 2409.0943981134506,
    "Average_speed_busses": 0.046125,
    "Average_experienced_crowding": 91.03100719309086,
    "Average_covariation_headway": 0.4748897400374454,
    "Average_covariation_headway_stops": {
        "G": 0.41113620892261055,
        "D": 0.4244136956828005,
        "A": 0.4371779661633476,
        "C": 0.42507137275519125,
        "F": 0.40909027185521063,
        "L": 0.4343837411330465,
        "B": 0.417896198127371,
        "E": 0.40431008900154985,
        "H": 0.3917669876521268,
        "I": 0.3900446029328259,
        "J": 0.4082989264642351,
        "K": 0.43344540592206116
    },
    "Average_excess_waiting_time": {
        "G": 96.9153682585146,
        "D": 102.35312795982452,
        "A": 107.57526499119888,
        "C": 104.45916666533537,
        "F": 98.96351513205968,
        "L": 109.14212977538392,
        "B": 104.28110650909662,
        "E": 100.30943158615452,
        "H": 94.23505137332194,
        "I": 95.11666337425373,
        "J": 101.82520082368785,
        "K": 110.43205306640391
    },
    "Holding_per_stop": {
        "G": 23.870967741935484,
        "D": 28.06451612903226,
        "A": 18.58695652173913,
        "F": 25.483870967741936,
        "C": 28.695652173913043,
        "L": 28.043478260869566,
        "B": 21.847826086956523,
        "E": 25.76086956521739,
        "H": 21.93548387096774,
        "I": 28.043478260869566,
        "J": 29.347826086956523,
        "K": 26.373626373626372
    },
    "Actions_tfl_edges": {
        "BC": [
            93,
            0,
            0
        ],
        "CD": [
            93,
            0,
            0
        ],
        "EF": [
            93,
            0,
            0
        ],
        "FG": [
            94,
            0,
            0
        ],
        "KL": [
            92,
            0,
            0
        ],
        "LA": [
            93,
            0,
            0
        ],
        "GH": [
            93,
            0,
            0
        ],
        "DE": [
            93,
            0,
            0
        ],
        "AB": [
            92,
            0,
            0
        ],
        "HI": [
            93,
            0,
            0
        ],
        "IJ": [
            92,
            0,
            0
        ],
        "JK": [
            92,
            0,
            0
        ]
    },
    "Load_per_bus_per_stop": {
        "bus3": {
            "G": 65.9375,
            "H": 66.8125,
            "I": 67.0625,
            "J": 66.5625,
            "K": 68.375,
            "L": 69.125,
            "A": 68.6,
            "B": 70.73333333333333,
            "C": 72.73333333333333,
            "D": 71.6,
            "E": 70.46666666666667,
            "F": 69.66666666666667
        },
        "bus1": {
            "D": 74.8125,
            "E": 74.6875,
            "F": 76.8125,
            "G": 78.5,
            "H": 77.8125,
            "I": 78.4,
            "J": 80.06666666666666,
            "K": 81,
            "L": 81,
            "A": 80.93333333333334,
            "B": 80.6,
            "C": 80.6
        },
        "bus5": {
            "A": 88.75,
            "B": 89.0625,
            "C": 89,
            "D": 89.375,
            "E": 92.53333333333333,
            "F": 91.86666666666666,
            "G": 94.4,
            "H": 94.33333333333333,
            "I": 95.66666666666667,
            "J": 96.2,
            "K": 99.46666666666667,
            "L": 97.66666666666667
        },
        "bus0": {
            "C": 89.1875,
            "D": 89.3125,
            "E": 90.5625,
            "F": 93.0625,
            "G": 92.6,
            "H": 90.13333333333334,
            "I": 90.53333333333333,
            "J": 89.06666666666666,
            "K": 91.26666666666667,
            "L": 91.8,
            "A": 93.73333333333333,
            "B": 95.73333333333333
        },
        "bus2": {
            "F": 53.3125,
            "G": 54.5,
            "H": 55.125,
            "I": 57.125,
            "J": 56.6875,
            "K": 57.25,
            "L": 56.6,
            "A": 55.06666666666667,
            "B": 56.666666666666664,
            "C": 56.46666666666667,
            "D": 55.53333333333333,
            "E": 56.666666666666664
        },
        "bus4": {
            "L": 86.625,
            "A": 88.5625,
            "B": 87.5625,
            "C": 86.66666666666667,
            "D": 88.46666666666667,
            "E": 90,
            "F": 88.2,
            "G": 88.66666666666667,
            "H": 90.66666666666667,
            "I": 92.86666666666666,
            "J": 92.86666666666666,
            "K": 92.86666666666666
        }
    },
    "Obs_and_actions_busses": {
        "0": -375.4523273731222,
        "1": 56.26097955772318,
        "2": 215.33176772105477,
        "3": 373.90975031516894,
        "5": 640.8014190383251
    },
    "Obs_and_actions_tfls": {
        "0": 109.44728709287371
    }
}