{
    "Average_holding_time": 20.044014084507044,
    "Average_holding_actions": [
        868,
        52,
        0,
        35,
        12,
        0
    ],
    "Average_travel_time_passengers": 2686.6850678111446,
    "Average_passenger_waiting_time": 327.33850752030725,
    "Average_passenger_in_vehicle_time": 2359.3465602908327,
    "Average_speed_busses": 0.04733333333333333,
    "Average_experienced_crowding": 81.97209787399933,
    "Average_covariation_headway": 0.3545924528903542,
    "Average_covariation_headway_stops": {
        "L": 0.30112039553404946,
        "G": 0.2768931742879131,
        "A": 0.2749385142690892,
        "I": 0.3069938170535835,
        "H": 0.2953834470012311,
        "B": 0.265127854821117,
        "C": 0.246415206832674,
        "J": 0.2918405214157921,
        "D": 0.23819213232611006,
        "K": 0.29590271368097115,
        "E": 0.25297060475522726,
        "F": 0.2767844568129937
    },
    "Average_excess_waiting_time": {
        "L": 66.18109992197685,
        "G": 65.34420925575597,
        "A": 59.88868854628538,
        "I": 65.68496766589345,
        "H": 66.97968732204845,
        "B": 56.58832229306114,
        "C": 55.17601110560008,
        "J": 65.08258008197902,
        "D": 56.04250105798479,
        "K": 67.03778953731131,
        "E": 59.59854387765506,
        "F": 66.9084957814639
    },
    "Holding_per_stop": {
        "A": 12.947368421052632,
        "G": 15,
        "I": 24,
        "H": 21.70212765957447,
        "B": 18.75,
        "L": 25.894736842105264,
        "C": 21.789473684210527,
        "J": 16.105263157894736,
        "D": 19.57894736842105,
        "K": 24.893617021276597,
        "E": 16.27659574468085,
        "F": 23.617021276595743
    },
    "Actions_tfl_edges": {
        "AB": [
            96,
            0,
            0
        ],
        "FG": [
            95,
            0,
            0
        ],
        "GH": [
            95,
            0,
            0
        ],
        "HI": [
            95,
            0,
            0
        ],
        "KL": [
            95,
            0,
            0
        ],
        "LA": [
            96,
            0,
            0
        ],
        "IJ": [
            95,
            0,
            0
        ],
        "BC": [
            96,
            0,
            0
        ],
        "CD": [
            95,
            0,
            0
        ],
        "JK": [
            95,
            0,
            0
        ],
        "DE": [
            95,
            0,
            0
        ],
        "EF": [
            94,
            0,
            0
        ]
    },
    "Load_per_bus_per_stop": {
        "bus4": {
            "L": 73.1875,
            "A": 76.3125,
            "B": 76.875,
            "C": 78,
            "D": 77.75,
            "E": 78.0625,
            "F": 79.3125,
            "G": 79.3125,
            "H": 77.9375,
            "I": 77,
            "J": 76.4,
            "K": 78.6
        },
        "bus1": {
            "G": 80.5625,
            "H": 81.6875,
            "I": 81.1875,
            "J": 81.1875,
            "K": 82.375,
            "L": 81.6875,
            "A": 81.1875,
            "B": 83.875,
            "C": 82.4375,
            "D": 82.86666666666666,
            "E": 82.26666666666667,
            "F": 84
        },
        "bus5": {
            "A": 69.6875,
            "B": 70.3125,
            "C": 71.3125,
            "D": 71.9375,
            "E": 73.375,
            "F": 73.9375,
            "G": 73.875,
            "H": 73.5,
            "I": 74.3125,
            "J": 76.0625,
            "K": 73.66666666666667,
            "L": 74.66666666666667
        },
        "bus3": {
            "I": 75.125,
            "J": 76.375,
            "K": 76.875,
            "L": 78.125,
            "A": 78.75,
            "B": 79.875,
            "C": 79.5625,
            "D": 80.0625,
            "E": 79.5625,
            "F": 78.8125,
            "G": 78.26666666666667,
            "H": 79.8
        },
        "bus2": {
            "H": 78.75,
            "I": 80.3125,
            "J": 78.5,
            "K": 78.6875,
            "L": 79.1875,
            "A": 79.8125,
            "B": 79,
            "C": 80.8125,
            "D": 79.375,
            "E": 79.375,
            "F": 80.13333333333334,
            "G": 81.66666666666667
        },
        "bus0": {
            "B": 80.25,
            "C": 79.125,
            "D": 78.9375,
            "E": 81,
            "F": 84.75,
            "G": 85.375,
            "H": 84.0625,
            "I": 85.1875,
            "J": 86.0625,
            "K": 85.4375,
            "L": 85.1875,
            "A": 86.86666666666666
        }
    },
    "Obs_and_actions_busses": {
        "5": 727.9557968609837,
        "3": 148.63911473813326,
        "0": -198.95553820113665,
        "4": 326.5568266421325,
        "1": 83.46179033511942
    },
    "Obs_and_actions_tfls": {
        "0": 109.03777902291974
    }
}782
    }
}