{
    "Average_holding_time": 17.23404255319149,
    "Average_holding_actions": [
        752,
        134,
        232,
        0,
        10,
        0
    ],
    "Average_travel_time_passengers": 2745.2412464840754,
    "Average_passenger_waiting_time": 385.19860045696777,
    "Average_passenger_in_vehicle_time": 2360.0426460271237,
    "Average_speed_busses": 0.047,
    "Average_experienced_crowding": 95.78852553410944,
    "Average_covariation_headway": 0.6161992323094929,
    "Average_covariation_headway_stops": {
        "L": 0.47737421042222666,
        "G": 0.48364005742130495,
        "A": 0.4785177974598601,
        "I": 0.492467025273221,
        "H": 0.4813366000410444,
        "B": 0.47627850712723624,
        "C": 0.4688609512684231,
        "J": 0.4795383815915834,
        "D": 0.46706265918279993,
        "K": 0.47086363923916486,
        "E": 0.4595756294482824,
        "F": 0.46482720063955796
    },
    "Average_excess_waiting_time": {
        "L": 110.78642113772935,
        "G": 117.13016217341954,
        "A": 109.36039425450195,
        "I": 115.19319639607772,
        "H": 114.13467792524722,
        "B": 108.70075872092622,
        "C": 107.9533153638526,
        "J": 111.86943946886021,
        "D": 110.75951379493767,
        "K": 111.09164972842865,
        "E": 112.44608284754395,
        "F": 113.61165239222919
    },
    "Holding_per_stop": {
        "A": 18.94736842105263,
        "G": 17.096774193548388,
        "I": 17.68421052631579,
        "H": 14.361702127659575,
        "B": 18,
        "L": 20.106382978723403,
        "C": 14.526315789473685,
        "J": 20.425531914893618,
        "D": 16.27659574468085,
        "K": 17.5531914893617,
        "E": 15.161290322580646,
        "F": 16.630434782608695
    },
    "Actions_tfl_edges": {
        "AB": [
            96,
            0,
            0
        ],
        "FG": [
            93,
            0,
            0
        ],
        "GH": [
            94,
            0,
            0
        ],
        "HI": [
            95,
            0,
            0
        ],
        "KL": [
            95,
            0,
            0
        ],
        "LA": [
            95,
            0,
            0
        ],
        "IJ": [
            94,
            0,
            0
        ],
        "BC": [
            95,
            0,
            0
        ],
        "CD": [
            95,
            0,
            0
        ],
        "JK": [
            94,
            0,
            0
        ],
        "DE": [
            94,
            0,
            0
        ],
        "EF": [
            93,
            0,
            0
        ]
    },
    "Load_per_bus_per_stop": {
        "bus4": {
            "L": 43.125,
            "A": 44.4375,
            "B": 46.375,
            "C": 47.5625,
            "D": 47.0625,
            "E": 46.875,
            "F": 43.46666666666667,
            "G": 44,
            "H": 44.46666666666667,
            "I": 45.46666666666667,
            "J": 46.93333333333333,
            "K": 45.13333333333333
        },
        "bus1": {
            "G": 96.0625,
            "H": 97.6875,
            "I": 98.25,
            "J": 97.0625,
            "K": 94.875,
            "L": 95.9375,
            "A": 96.375,
            "B": 99.2,
            "C": 99.4,
            "D": 100.8,
            "E": 102,
            "F": 100.8
        },
        "bus5": {
            "A": 32.625,
            "B": 33.5625,
            "C": 35.5,
            "D": 34.1875,
            "E": 34.9375,
            "F": 35.625,
            "G": 36.5625,
            "H": 36.875,
            "I": 36,
            "J": 32.8,
            "K": 33.46666666666667,
            "L": 34.06666666666667
        },
        "bus3": {
            "I": 82.625,
            "J": 82.625,
            "K": 86.25,
            "L": 89.0625,
            "A": 89.6875,
            "B": 89.4375,
            "C": 87.625,
            "D": 86.75,
            "E": 86.4,
            "F": 86.06666666666666,
            "G": 87.33333333333333,
            "H": 88.33333333333333
        },
        "bus2": {
            "H": 84.8125,
            "I": 85.875,
            "J": 86.9375,
            "K": 88.6875,
            "L": 88.0625,
            "A": 86.5,
            "B": 86.5,
            "C": 86.1875,
            "D": 87.53333333333333,
            "E": 88.2,
            "F": 88.73333333333333,
            "G": 88
        },
        "bus0": {
            "B": 119.375,
            "C": 120.5,
            "D": 120.0625,
            "E": 120.1875,
            "F": 120.4375,
            "G": 121.5,
            "H": 122.3125,
            "I": 121.625,
            "J": 120.375,
            "K": 121.3125,
            "L": 121.625,
            "A": 124.73333333333333
        }
    },
    "Obs_and_actions_busses": {
        "5": 828.4795369312936,
        "2": 353.8775145377674,
        "1": 152.89299718550637,
        "0": -295.5012797260805
    },
    "Obs_and_actions_tfls": {
        "0": 121.31373947684271
    }
}4828720635
    },
    "Obs_and_actions_tfls": {
        "0": 95.82153476629311
    }
}