{
    "Average_holding_time": 19.34036939313984,
    "Average_holding_actions": [
        570,
        429,
        112,
        0,
        1,
        0
    ],
    "Average_travel_time_passengers": 2682.1741862514086,
    "Average_passenger_waiting_time": 328.4865513325378,
    "Average_passenger_in_vehicle_time": 2353.687634918867,
    "Average_speed_busses": 0.047375,
    "Average_experienced_crowding": 79.80220924439489,
    "Average_covariation_headway": 0.29760085164851274,
    "Average_covariation_headway_stops": {
        "B": 0.2282284984292301,
        "D": 0.21198557422391384,
        "A": 0.21584936490259315,
        "H": 0.26010561151886097,
        "I": 0.2566744558919043,
        "L": 0.22318849745342248,
        "C": 0.21064223702207682,
        "J": 0.22995884886599197,
        "E": 0.19033187340708993,
        "K": 0.21718982335396886,
        "F": 0.21243741648964284,
        "G": 0.2395050255857092
    },
    "Average_excess_waiting_time": {
        "B": 52.35671985829998,
        "D": 50.08023498710588,
        "A": 52.64594545729858,
        "H": 59.99091998019179,
        "I": 58.49600825109468,
        "L": 55.05343187588784,
        "C": 51.28689501486235,
        "J": 56.0518705973534,
        "E": 48.85183765706205,
        "K": 57.15911323539183,
        "F": 53.370374111510216,
        "G": 58.690061949707285
    },
    "Holding_per_stop": {
        "B": 18.63157894736842,
        "D": 16.875,
        "A": 14.526315789473685,
        "I": 22.42105263157895,
        "H": 19.894736842105264,
        "L": 20.74468085106383,
        "C": 20.526315789473685,
        "J": 23.29787234042553,
        "E": 16.736842105263158,
        "K": 22.02127659574468,
        "F": 18,
        "G": 18.51063829787234
    },
    "Actions_tfl_edges": {
        "AB": [
            96,
            0,
            0
        ],
        "CD": [
            96,
            0,
            0
        ],
        "GH": [
            95,
            0,
            0
        ],
        "HI": [
            96,
            0,
            0
        ],
        "KL": [
            95,
            0,
            0
        ],
        "LA": [
            95,
            0,
            0
        ],
        "BC": [
            95,
            0,
            0
        ],
        "DE": [
            95,
            0,
            0
        ],
        "IJ": [
            95,
            0,
            0
        ],
        "JK": [
            94,
            0,
            0
        ],
        "EF": [
            95,
            0,
            0
        ],
        "FG": [
            95,
            0,
            0
        ]
    },
    "Load_per_bus_per_stop": {
        "bus0": {
            "B": 68,
            "C": 70.1875,
            "D": 70.8125,
            "E": 71.875,
            "F": 72.6875,
            "G": 73.625,
            "H": 73.5,
            "I": 74.1875,
            "J": 74.625,
            "K": 75.4375,
            "L": 74.46666666666667,
            "A": 72.93333333333334
        },
        "bus1": {
            "D": 82.625,
            "E": 81.625,
            "F": 80.4375,
            "G": 81.625,
            "H": 83.5625,
            "I": 85.9375,
            "J": 87.1875,
            "K": 86.875,
            "L": 88.9375,
            "A": 88.625,
            "B": 88.9375,
            "C": 90.53333333333333
        },
        "bus5": {
            "A": 73.125,
            "B": 74,
            "C": 73.5,
            "D": 72.5625,
            "E": 74.0625,
            "F": 73,
            "G": 73.3125,
            "H": 72.3125,
            "I": 71.5,
            "J": 74.5,
            "K": 75.4,
            "L": 77.26666666666667
        },
        "bus2": {
            "H": 75.5625,
            "I": 75.6875,
            "J": 75.75,
            "K": 76.4375,
            "L": 74.375,
            "A": 76.875,
            "B": 77.625,
            "C": 78.5625,
            "D": 79.3125,
            "E": 78.86666666666666,
            "F": 79.8,
            "G": 81.4
        },
        "bus3": {
            "I": 73.4375,
            "J": 73.8125,
            "K": 74.5,
            "L": 75.6875,
            "A": 75.4375,
            "B": 77.3125,
            "C": 79.125,
            "D": 78.1875,
            "E": 78.375,
            "F": 78.9375,
            "G": 78.86666666666666,
            "H": 79.06666666666666
        },
        "bus4": {
            "L": 76.1875,
            "A": 75.625,
            "B": 73.3125,
            "C": 74.625,
            "D": 75.9375,
            "E": 77.0625,
            "F": 78.4375,
            "G": 78.125,
            "H": 79.375,
            "I": 82.33333333333333,
            "J": 82.26666666666667,
            "K": 83
        }
    },
    "Obs_and_actions_busses": {
        "0": -280.0478727877395,
        "1": 54.866453611963706,
        "2": 184.74614063270633,
        "3": 371.83133808045864,
        "5": 690.326406464493
    },
    "Obs_and_actions_tfls": {
        "0": 128.65970600399277
    }
}