{
    "Average_holding_time": 16.94055944055944,
    "Average_holding_actions": [
        954,
        0,
        0,
        76,
        0,
        0
    ],
    "Average_travel_time_passengers": 2675.8818439029624,
    "Average_passenger_waiting_time": 337.69264364939033,
    "Average_passenger_in_vehicle_time": 2338.18920025354,
    "Average_speed_busses": 0.04766666666666667,
    "Average_experienced_crowding": 80.4838376749651,
    "Average_covariation_headway": 0.40398912953134053,
    "Average_covariation_headway_stops": {
        "H": 0.32209424086235505,
        "B": 0.30219813054946415,
        "C": 0.3092123715511381,
        "L": 0.31615805484500886,
        "D": 0.29258044119848275,
        "K": 0.30554751948302356,
        "E": 0.29603832164153726,
        "A": 0.29762557635898584,
        "I": 0.30072087823056803,
        "F": 0.29610433356813165,
        "J": 0.29886622934620455,
        "G": 0.3025837360344642
    },
    "Average_excess_waiting_time": {
        "H": 68.31130237036604,
        "B": 64.57285486326646,
        "C": 64.22017144476234,
        "L": 67.27163343917442,
        "D": 59.12032446022863,
        "K": 66.66207317029415,
        "E": 61.03307102916159,
        "A": 65.56896450553575,
        "I": 65.96970540895052,
        "F": 62.99172274247178,
        "J": 67.61435641162029,
        "G": 65.54003374298247
    },
    "Holding_per_stop": {
        "C": 17.5,
        "L": 17.68421052631579,
        "D": 13.917525773195877,
        "H": 24.63157894736842,
        "B": 12,
        "K": 16.736842105263158,
        "E": 19.0625,
        "A": 11.052631578947368,
        "I": 17.68421052631579,
        "F": 17.1875,
        "J": 20.425531914893618,
        "G": 15.473684210526315
    },
    "Actions_tfl_edges": {
        "AB": [
            96,
            0,
            0
        ],
        "BC": [
            96,
            0,
            0
        ],
        "CD": [
            97,
            0,
            0
        ],
        "GH": [
            96,
            0,
            0
        ],
        "JK": [
            95,
            0,
            0
        ],
        "KL": [
            96,
            0,
            0
        ],
        "LA": [
            95,
            0,
            0
        ],
        "DE": [
            97,
            0,
            0
        ],
        "HI": [
            95,
            0,
            0
        ],
        "EF": [
            96,
            0,
            0
        ],
        "IJ": [
            95,
            0,
            0
        ],
        "FG": [
            96,
            0,
            0
        ]
    },
    "Load_per_bus_per_stop": {
        "bus3": {
            "H": 68.4375,
            "I": 69.125,
            "J": 68.375,
            "K": 68.625,
            "L": 69.4375,
            "A": 68.8125,
            "B": 71.0625,
            "C": 72.5625,
            "D": 74.5625,
            "E": 73.875,
            "F": 74,
            "G": 74.4
        },
        "bus0": {
            "B": 68.9375,
            "C": 68.875,
            "D": 68.625,
            "E": 68.5625,
            "F": 68.5625,
            "G": 71.375,
            "H": 73.375,
            "I": 73.9375,
            "J": 75.0625,
            "K": 75.875,
            "L": 74.53333333333333,
            "A": 74
        },
        "bus1": {
            "C": 57.9375,
            "D": 59.6875,
            "E": 62.5,
            "F": 63.0625,
            "G": 62.375,
            "H": 63.8125,
            "I": 63.3125,
            "J": 61.75,
            "K": 61.1875,
            "L": 62.6875,
            "A": 62.1875,
            "B": 61.75
        },
        "bus5": {
            "L": 79.25,
            "A": 79.625,
            "B": 79,
            "C": 78.75,
            "D": 77.75,
            "E": 78.125,
            "F": 80.4375,
            "G": 81.4375,
            "H": 82.5,
            "I": 82.75,
            "J": 82.75,
            "K": 82.66666666666667
        },
        "bus2": {
            "D": 78.11764705882354,
            "E": 75.625,
            "F": 77.9375,
            "G": 78.625,
            "H": 80.1875,
            "I": 82.625,
            "J": 84.3125,
            "K": 85.3125,
            "L": 86.9375,
            "A": 85,
            "B": 84.0625,
            "C": 82.5625
        },
        "bus4": {
            "K": 89.5,
            "L": 88.0625,
            "A": 87.1875,
            "B": 87.5625,
            "C": 86.875,
            "D": 88.75,
            "E": 90.625,
            "F": 89.125,
            "G": 88.0625,
            "H": 91,
            "I": 92.8,
            "J": 94.2
        }
    },
    "Obs_and_actions_busses": {
        "4": 358.0470075942761,
        "0": -192.21520456220972,
        "3": 154.04718069570987
    },
    "Obs_and_actions_tfls": {
        "0": 97.971553140161
    }
}