{
    "Average_holding_time": 17.12775330396476,
    "Average_holding_actions": [
        738,
        146,
        251,
        0,
        0,
        0
    ],
    "Average_travel_time_passengers": 2801.4504619908776,
    "Average_passenger_waiting_time": 401.1617739231523,
    "Average_passenger_in_vehicle_time": 2400.2886880677693,
    "Average_speed_busses": 0.04729166666666667,
    "Average_experienced_crowding": 100.11026621662013,
    "Average_covariation_headway": 0.6631090171120938,
    "Average_covariation_headway_stops": {
        "I": 0.5457425115402035,
        "H": 0.5314395919136307,
        "K": 0.5314250224861019,
        "A": 0.5403869475862945,
        "C": 0.5312196134927193,
        "L": 0.5329302916515278,
        "J": 0.5277857912320932,
        "D": 0.5234374303437196,
        "B": 0.5363252398556434,
        "E": 0.5075316072000913,
        "F": 0.5096306188886439,
        "G": 0.5143132907359244
    },
    "Average_excess_waiting_time": {
        "I": 132.05439447524958,
        "H": 129.88026538292843,
        "K": 127.94141368885005,
        "A": 126.77912695692174,
        "C": 122.6115900857306,
        "L": 126.90161958849501,
        "J": 128.99136931985595,
        "D": 123.0187190462949,
        "B": 126.59543617843104,
        "E": 119.8710935912988,
        "F": 121.93301786538484,
        "G": 125.5454318076072
    },
    "Holding_per_stop": {
        "I": 16.42105263157895,
        "K": 17.872340425531913,
        "C": 17.5,
        "A": 12.631578947368421,
        "L": 19.57894736842105,
        "H": 17.23404255319149,
        "J": 16.451612903225808,
        "D": 18.31578947368421,
        "B": 17.68421052631579,
        "E": 17.36842105263158,
        "F": 19.148936170212767,
        "G": 15.319148936170214
    },
    "Actions_tfl_edges": {
        "BC": [
            96,
            0,
            0
        ],
        "GH": [
            95,
            0,
            0
        ],
        "HI": [
            95,
            0,
            0
        ],
        "JK": [
            94,
            0,
            0
        ],
        "KL": [
            95,
            0,
            0
        ],
        "LA": [
            96,
            0,
            0
        ],
        "IJ": [
            95,
            0,
            0
        ],
        "CD": [
            96,
            0,
            0
        ],
        "AB": [
            95,
            0,
            0
        ],
        "DE": [
            95,
            0,
            0
        ],
        "EF": [
            94,
            0,
            0
        ],
        "FG": [
            94,
            0,
            0
        ]
    },
    "Load_per_bus_per_stop": {
        "bus2": {
            "I": 59.5625,
            "J": 58.6875,
            "K": 59.6875,
            "L": 59.75,
            "A": 60.125,
            "B": 60.3125,
            "C": 62.8125,
            "D": 61.125,
            "E": 60.25,
            "F": 60,
            "G": 61.4,
            "H": 61.666666666666664
        },
        "bus1": {
            "H": 75.4375,
            "I": 75.5,
            "J": 76.375,
            "K": 77.1875,
            "L": 77.9375,
            "A": 79.625,
            "B": 79.875,
            "C": 81.375,
            "D": 81.93333333333334,
            "E": 81.06666666666666,
            "F": 79.2,
            "G": 79.66666666666667
        },
        "bus3": {
            "K": 99.0625,
            "L": 99.875,
            "A": 100.3125,
            "B": 103.3125,
            "C": 105.4375,
            "D": 103.5625,
            "E": 102.875,
            "F": 102.0625,
            "G": 100.5,
            "H": 105.53333333333333,
            "I": 104.8,
            "J": 104.93333333333334
        },
        "bus5": {
            "A": 72.6875,
            "B": 72,
            "C": 71.5,
            "D": 70.625,
            "E": 73.125,
            "F": 74.125,
            "G": 77.625,
            "H": 77.5625,
            "I": 77.75,
            "J": 78.86666666666666,
            "K": 79,
            "L": 77.13333333333334
        },
        "bus0": {
            "C": 66.5625,
            "D": 67.9375,
            "E": 70.5625,
            "F": 71.8125,
            "G": 70.875,
            "H": 71.5625,
            "I": 71.3125,
            "J": 71.75,
            "K": 72,
            "L": 73.75,
            "A": 73.5,
            "B": 72.13333333333334
        },
        "bus4": {
            "L": 86.875,
            "A": 88.1875,
            "B": 90,
            "C": 91.3125,
            "D": 90.0625,
            "E": 89.5,
            "F": 87.375,
            "G": 87.1875,
            "H": 85.875,
            "I": 87.625,
            "J": 91.4,
            "K": 92.33333333333333
        }
    },
    "Obs_and_actions_busses": {
        "0": -307.6501665602102,
        "2": 373.50592862564366,
        "1": 153.290709252981
    },
    "Obs_and_actions_tfls": {
        "0": 99.92841966595641
    }
}