{
    "Average_holding_time": 17.410008779631255,
    "Average_holding_actions": [
        940,
        0,
        0,
        64,
        0,
        0
    ],
    "Average_travel_time_passengers": 2674.5962478717156,
    "Average_passenger_waiting_time": 329.72125001534874,
    "Average_passenger_in_vehicle_time": 2344.8749978563364,
    "Average_speed_busses": 0.04745833333333333,
    "Average_experienced_crowding": 82.30741752842496,
    "Average_covariation_headway": 0.3804430164802121,
    "Average_covariation_headway_stops": {
        "C": 0.2859875897923918,
        "H": 0.27656733490080476,
        "G": 0.2838899611768093,
        "A": 0.2534983151117722,
        "J": 0.2713511523944668,
        "E": 0.2807623702436926,
        "K": 0.26360633824388474,
        "D": 0.2555604400270936,
        "F": 0.26873515852426916,
        "I": 0.26058874556632494,
        "B": 0.2702543672402069,
        "L": 0.25291254660073936
    },
    "Average_excess_waiting_time": {
        "C": 61.82644201980332,
        "H": 59.82375735915099,
        "G": 62.860266740007205,
        "A": 56.40653120731065,
        "J": 57.977479990786776,
        "E": 61.899315659357455,
        "K": 58.28074804240896,
        "D": 59.38628640809867,
        "F": 61.23439957486187,
        "I": 59.35635230068095,
        "B": 60.73770062841555,
        "L": 58.04622170701356
    },
    "Holding_per_stop": {
        "H": 23.68421052631579,
        "J": 19.894736842105264,
        "C": 23.68421052631579,
        "E": 20.526315789473685,
        "A": 11.052631578947368,
        "G": 15.319148936170214,
        "K": 18,
        "D": 14.210526315789474,
        "F": 8.526315789473685,
        "I": 21.473684210526315,
        "B": 14.210526315789474,
        "L": 18.31578947368421
    },
    "Actions_tfl_edges": {
        "BC": [
            96,
            0,
            0
        ],
        "DE": [
            96,
            0,
            0
        ],
        "FG": [
            96,
            0,
            0
        ],
        "GH": [
            95,
            0,
            0
        ],
        "IJ": [
            96,
            0,
            0
        ],
        "LA": [
            96,
            0,
            0
        ],
        "HI": [
            95,
            0,
            0
        ],
        "JK": [
            95,
            0,
            0
        ],
        "CD": [
            95,
            0,
            0
        ],
        "EF": [
            95,
            0,
            0
        ],
        "AB": [
            95,
            0,
            0
        ],
        "KL": [
            95,
            0,
            0
        ]
    },
    "Load_per_bus_per_stop": {
        "bus0": {
            "C": 74.0625,
            "D": 73.9375,
            "E": 75.375,
            "F": 74.6875,
            "G": 75.5625,
            "H": 76.5,
            "I": 76.75,
            "J": 76.875,
            "K": 76.4375,
            "L": 77.375,
            "A": 77,
            "B": 78.73333333333333
        },
        "bus3": {
            "H": 86.5,
            "I": 88.1875,
            "J": 88.1875,
            "K": 88.375,
            "L": 88.5625,
            "A": 86.75,
            "B": 87.8125,
            "C": 90.125,
            "D": 90.6875,
            "E": 91.0625,
            "F": 89.75,
            "G": 94.6
        },
        "bus2": {
            "G": 67.375,
            "H": 68.4375,
            "I": 68,
            "J": 68.3125,
            "K": 69.9375,
            "L": 69,
            "A": 68.125,
            "B": 69.125,
            "C": 69.8125,
            "D": 69.5,
            "E": 70.66666666666667,
            "F": 70.4
        },
        "bus5": {
            "A": 77.875,
            "B": 77.75,
            "C": 78.5,
            "D": 79.1875,
            "E": 78.4375,
            "F": 80.6875,
            "G": 81.9375,
            "H": 84.0625,
            "I": 84.25,
            "J": 84.66666666666667,
            "K": 84.6,
            "L": 85.06666666666666
        },
        "bus4": {
            "J": 79.9375,
            "K": 78.1875,
            "L": 79.25,
            "A": 81,
            "B": 83.5625,
            "C": 83.4375,
            "D": 84.4375,
            "E": 84.25,
            "F": 82.75,
            "G": 83.06666666666666,
            "H": 83.2,
            "I": 86
        },
        "bus1": {
            "E": 69.4375,
            "F": 68.5,
            "G": 69.5,
            "H": 69.4375,
            "I": 70.625,
            "J": 71.75,
            "K": 71.6875,
            "L": 70.8125,
            "A": 70.375,
            "B": 72,
            "C": 72.86666666666666,
            "D": 73.86666666666666
        }
    },
    "Obs_and_actions_busses": {
        "3": 159.88857532102685,
        "0": -192.87690803590462,
        "4": 324.27980667339745
    },
    "Obs_and_actions_tfls": {
        "0": 99.03432638346327
    }
}