{
    "Average_holding_time": 14.582608695652175,
    "Average_holding_actions": [
        801,
        279,
        0,
        70,
        0,
        0
    ],
    "Average_travel_time_passengers": 2693.0630341352553,
    "Average_passenger_waiting_time": 361.43510772405705,
    "Average_passenger_in_vehicle_time": 2331.627926411217,
    "Average_speed_busses": 0.04791666666666667,
    "Average_experienced_crowding": 88.86833457841607,
    "Average_covariation_headway": 0.5203117152987751,
    "Average_covariation_headway_stops": {
        "C": 0.4083102171957198,
        "H": 0.4139658185729356,
        "I": 0.4063601996582061,
        "B": 0.41486995526767667,
        "L": 0.4247791507634287,
        "E": 0.3951144858859655,
        "D": 0.40174766289397523,
        "F": 0.3848782455249726,
        "J": 0.4137475556219661,
        "A": 0.4233029723311538,
        "K": 0.427339616153866,
        "G": 0.3939212674972057
    },
    "Average_excess_waiting_time": {
        "C": 83.6621744164143,
        "H": 88.81705746432397,
        "I": 85.1151702150749,
        "B": 87.07907200450961,
        "L": 90.1503639020695,
        "E": 82.68345756676666,
        "D": 84.71709960995094,
        "F": 82.00289923681311,
        "J": 88.99037653366406,
        "A": 91.26355956610013,
        "K": 93.00479226037083,
        "G": 85.66834871930558
    },
    "Holding_per_stop": {
        "C": 12.061855670103093,
        "I": 13.4375,
        "L": 13.125,
        "E": 15.3125,
        "B": 13.125,
        "H": 16.875,
        "D": 11.5625,
        "F": 12,
        "J": 13.4375,
        "A": 18.75,
        "K": 21.157894736842106,
        "G": 14.210526315789474
    },
    "Actions_tfl_edges": {
        "AB": [
            97,
            0,
            0
        ],
        "BC": [
            97,
            0,
            0
        ],
        "DE": [
            97,
            0,
            0
        ],
        "GH": [
            96,
            0,
            0
        ],
        "HI": [
            97,
            0,
            0
        ],
        "KL": [
            96,
            0,
            0
        ],
        "CD": [
            97,
            0,
            0
        ],
        "IJ": [
            96,
            0,
            0
        ],
        "LA": [
            96,
            0,
            0
        ],
        "EF": [
            96,
            0,
            0
        ],
        "FG": [
            95,
            0,
            0
        ],
        "JK": [
            95,
            0,
            0
        ]
    },
    "Load_per_bus_per_stop": {
        "bus1": {
            "C": 76.05882352941177,
            "D": 76.9375,
            "E": 75.875,
            "F": 74.25,
            "G": 75.125,
            "H": 74.625,
            "I": 75.5625,
            "J": 77.25,
            "K": 78.375,
            "L": 78,
            "A": 78.5,
            "B": 81.125
        },
        "bus3": {
            "H": 77.9375,
            "I": 77.625,
            "J": 77.6875,
            "K": 78.875,
            "L": 77.4375,
            "A": 78.75,
            "B": 76.6875,
            "C": 77.25,
            "D": 77.5625,
            "E": 78.0625,
            "F": 80.75,
            "G": 81.8
        },
        "bus4": {
            "I": 63.5,
            "J": 64.3125,
            "K": 66.875,
            "L": 67.0625,
            "A": 66.3125,
            "B": 67.4375,
            "C": 67.25,
            "D": 69.375,
            "E": 71.6875,
            "F": 69.75,
            "G": 68.875,
            "H": 69.9375
        },
        "bus0": {
            "B": 80.125,
            "C": 80.6875,
            "D": 83.375,
            "E": 84.875,
            "F": 84.25,
            "G": 84.9375,
            "H": 85.9375,
            "I": 85.9375,
            "J": 85.6875,
            "K": 83.125,
            "L": 81.8125,
            "A": 81.75
        },
        "bus5": {
            "L": 87.1875,
            "A": 86.75,
            "B": 87.625,
            "C": 87.625,
            "D": 88.4375,
            "E": 87.125,
            "F": 85.9375,
            "G": 88.5,
            "H": 90.0625,
            "I": 92.875,
            "J": 95,
            "K": 93
        },
        "bus2": {
            "E": 67.5625,
            "F": 69.1875,
            "G": 69.5,
            "H": 70.8125,
            "I": 71.75,
            "J": 73.1875,
            "K": 75.3125,
            "L": 75.1875,
            "A": 74.125,
            "B": 73.75,
            "C": 73.3125,
            "D": 70.6875
        }
    },
    "Obs_and_actions_busses": {
        "0": -264.20727352655535,
        "1": 199.25613620289568,
        "4": 417.49276611135735
    },
    "Obs_and_actions_tfls": {
        "0": 109.44234778531234
    }
}