{
    "Average_holding_time": 18.70337477797513,
    "Average_holding_actions": [
        599,
        386,
        119,
        0,
        6,
        0
    ],
    "Average_travel_time_passengers": 2684.0899557627345,
    "Average_passenger_waiting_time": 326.43920917584467,
    "Average_passenger_in_vehicle_time": 2357.650746586879,
    "Average_speed_busses": 0.04691666666666667,
    "Average_experienced_crowding": 82.04310125732609,
    "Average_covariation_headway": 0.30450822767013286,
    "Average_covariation_headway_stops": {
        "A": 0.2299894686645835,
        "E": 0.21484850117105844,
        "D": 0.21994530759785919,
        "L": 0.24562471206460074,
        "H": 0.21661499610429688,
        "G": 0.21100369777659056,
        "F": 0.21713529091641406,
        "I": 0.20695856570521265,
        "B": 0.21887551479764594,
        "J": 0.20932591133785375,
        "C": 0.2161493211041591,
        "K": 0.22130650853405515
    },
    "Average_excess_waiting_time": {
        "A": 56.37444882252561,
        "E": 53.85335430745607,
        "D": 56.29664181140879,
        "L": 61.017318873155034,
        "H": 52.8698571541629,
        "G": 53.48271553765579,
        "F": 56.31844719182783,
        "I": 55.44967995894393,
        "B": 56.45236689608896,
        "J": 55.19279813647876,
        "C": 57.52874090815072,
        "K": 58.649991075101525
    },
    "Holding_per_stop": {
        "A": 13.085106382978724,
        "E": 17.5531914893617,
        "H": 17.05263157894737,
        "D": 20.106382978723403,
        "G": 19.148936170212767,
        "L": 23.93617021276596,
        "F": 17.23404255319149,
        "I": 20.106382978723403,
        "B": 14.361702127659575,
        "C": 22.258064516129032,
        "J": 19.032258064516128,
        "K": 20.64516129032258
    },
    "Actions_tfl_edges": {
        "CD": [
            94,
            0,
            0
        ],
        "DE": [
            95,
            0,
            0
        ],
        "FG": [
            95,
            0,
            0
        ],
        "GH": [
            95,
            0,
            0
        ],
        "KL": [
            94,
            0,
            0
        ],
        "LA": [
            95,
            0,
            0
        ],
        "AB": [
            94,
            0,
            0
        ],
        "EF": [
            94,
            0,
            0
        ],
        "HI": [
            95,
            0,
            0
        ],
        "IJ": [
            94,
            0,
            0
        ],
        "BC": [
            94,
            0,
            0
        ],
        "JK": [
            93,
            0,
            0
        ]
    },
    "Load_per_bus_per_stop": {
        "bus5": {
            "A": 72.5625,
            "B": 73.0625,
            "C": 73.625,
            "D": 76.5625,
            "E": 75.875,
            "F": 78.375,
            "G": 79.375,
            "H": 79.4375,
            "I": 77.46666666666667,
            "J": 76.6,
            "K": 77.8,
            "L": 77.46666666666667
        },
        "bus1": {
            "E": 74.375,
            "F": 75,
            "G": 76.1875,
            "H": 77.5,
            "I": 77.8125,
            "J": 77.9375,
            "K": 78.4375,
            "L": 77.5,
            "A": 77,
            "B": 77.33333333333333,
            "C": 79.26666666666667,
            "D": 78.66666666666667
        },
        "bus0": {
            "D": 71.125,
            "E": 70.25,
            "F": 71.625,
            "G": 73.5625,
            "H": 73.625,
            "I": 73,
            "J": 71.33333333333333,
            "K": 70.93333333333334,
            "L": 71.46666666666667,
            "A": 73.06666666666666,
            "B": 74,
            "C": 74.46666666666667
        },
        "bus4": {
            "L": 82.3125,
            "A": 82.75,
            "B": 82.125,
            "C": 83.5625,
            "D": 84.3125,
            "E": 84.125,
            "F": 84.4375,
            "G": 85.25,
            "H": 86.93333333333334,
            "I": 88.8,
            "J": 88.8,
            "K": 86.06666666666666
        },
        "bus3": {
            "H": 79.3125,
            "I": 79.6875,
            "J": 80.1875,
            "K": 80.875,
            "L": 82.125,
            "A": 82.125,
            "B": 81.9375,
            "C": 82.0625,
            "D": 84.75,
            "E": 86.625,
            "F": 85.8,
            "G": 85.66666666666667
        },
        "bus2": {
            "G": 78.1875,
            "H": 79.4375,
            "I": 80.25,
            "J": 80,
            "K": 83.25,
            "L": 83.4375,
            "A": 83.5,
            "B": 83.5625,
            "C": 81.6875,
            "D": 80.6,
            "E": 82,
            "F": 82.73333333333333
        }
    },
    "Obs_and_actions_busses": {
        "0": -266.7877185631287,
        "1": 55.274458713605576,
        "2": 198.06404476951474,
        "3": 336.98901668595954,
        "5": 540.4102165733739
    },
    "Obs_and_actions_tfls": {
        "0": 132.08827838216243
    }
}