{
    "Average_holding_time": 19.01521933751119,
    "Average_holding_actions": [
        910,
        0,
        109,
        0,
        98,
        0
    ],
    "Average_travel_time_passengers": 2864.7203639514946,
    "Average_passenger_waiting_time": 431.23817025417117,
    "Average_passenger_in_vehicle_time": 2433.4821936973467,
    "Average_speed_busses": 0.04654166666666667,
    "Average_experienced_crowding": 107.84652615728591,
    "Average_covariation_headway": 0.7475685239493025,
    "Average_covariation_headway_stops": {
        "F": 0.5887053456227271,
        "A": 0.5845165233694488,
        "K": 0.5945482680601867,
        "I": 0.6090904075083827,
        "G": 0.6241715537401629,
        "E": 0.6016725061479362,
        "L": 0.5840888588131953,
        "B": 0.5793420195331594,
        "J": 0.5990781415814774,
        "H": 0.6054971032642628,
        "C": 0.5809412206542618,
        "D": 0.5988072349326167
    },
    "Average_excess_waiting_time": {
        "F": 151.90203930798015,
        "A": 149.49305212235862,
        "K": 156.0878330134022,
        "I": 159.3987576441611,
        "G": 164.49801789302842,
        "E": 159.18279501048357,
        "L": 154.59570166229133,
        "B": 149.8714834401365,
        "J": 160.8477355958541,
        "H": 160.76921421350085,
        "C": 152.49842746195952,
        "D": 160.9564201457419
    },
    "Holding_per_stop": {
        "F": 21.70212765957447,
        "A": 10.96774193548387,
        "K": 21.29032258064516,
        "I": 15.957446808510639,
        "G": 24.25531914893617,
        "E": 26.774193548387096,
        "L": 21.29032258064516,
        "B": 14.193548387096774,
        "J": 25.76086956521739,
        "H": 18.06451612903226,
        "C": 11.612903225806452,
        "D": 16.304347826086957
    },
    "Actions_tfl_edges": {
        "DE": [
            93,
            0,
            0
        ],
        "EF": [
            94,
            0,
            0
        ],
        "FG": [
            95,
            0,
            0
        ],
        "HI": [
            94,
            0,
            0
        ],
        "JK": [
            93,
            0,
            0
        ],
        "LA": [
            94,
            0,
            0
        ],
        "AB": [
            93,
            0,
            0
        ],
        "KL": [
            93,
            0,
            0
        ],
        "IJ": [
            94,
            0,
            0
        ],
        "GH": [
            94,
            0,
            0
        ],
        "BC": [
            93,
            0,
            0
        ],
        "CD": [
            93,
            0,
            0
        ]
    },
    "Load_per_bus_per_stop": {
        "bus1": {
            "F": 110.125,
            "G": 109.75,
            "H": 111.1875,
            "I": 113.875,
            "J": 113.5,
            "K": 111.46666666666667,
            "L": 112.93333333333334,
            "A": 112.2,
            "B": 114.93333333333334,
            "C": 114.6,
            "D": 116.26666666666667,
            "E": 116.33333333333333
        },
        "bus5": {
            "A": 58,
            "B": 57,
            "C": 56.5625,
            "D": 56.375,
            "E": 57.125,
            "F": 58.125,
            "G": 58.625,
            "H": 61,
            "I": 62.333333333333336,
            "J": 62.333333333333336,
            "K": 63.2,
            "L": 62.6
        },
        "bus4": {
            "K": 29.8125,
            "L": 31,
            "A": 31.8125,
            "B": 33.1875,
            "C": 33.1875,
            "D": 33.375,
            "E": 33.6875,
            "F": 33.9375,
            "G": 30.933333333333334,
            "H": 31.2,
            "I": 31,
            "J": 29.6
        },
        "bus3": {
            "I": 69.5,
            "J": 71.0625,
            "K": 72.625,
            "L": 70.9375,
            "A": 71.5625,
            "B": 71.3125,
            "C": 73.1875,
            "D": 72.8,
            "E": 74.33333333333333,
            "F": 74.2,
            "G": 73.06666666666666,
            "H": 73.4
        },
        "bus2": {
            "G": 94.4375,
            "H": 94.8125,
            "I": 95.5625,
            "J": 96.5625,
            "K": 97.625,
            "L": 98.5625,
            "A": 95.8,
            "B": 95.86666666666666,
            "C": 97.13333333333334,
            "D": 98.33333333333333,
            "E": 98.4,
            "F": 101.06666666666666
        },
        "bus0": {
            "E": 108.875,
            "F": 109.6875,
            "G": 111.0625,
            "H": 110.4375,
            "I": 111,
            "J": 115.73333333333333,
            "K": 115.06666666666666,
            "L": 113.53333333333333,
            "A": 113.66666666666667,
            "B": 113.73333333333333,
            "C": 114.66666666666667,
            "D": 116.4
        }
    },
    "Obs_and_actions_busses": {
        "0": -208.388439518814,
        "2": 382.81233666208277,
        "5": 395.0386105819995
    },
    "Obs_and_actions_tfls": {
        "0": 105.99908148954854
    }
}