{
    "Average_holding_time": 16.908127208480565,
    "Average_holding_actions": [
        909,
        0,
        159,
        0,
        64,
        0
    ],
    "Average_travel_time_passengers": 2763.899185140326,
    "Average_passenger_waiting_time": 376.16424358586397,
    "Average_passenger_in_vehicle_time": 2387.734941554422,
    "Average_speed_busses": 0.04716666666666667,
    "Average_experienced_crowding": 92.84987330526255,
    "Average_covariation_headway": 0.5492607097780245,
    "Average_covariation_headway_stops": {
        "D": 0.4735252035761465,
        "K": 0.4332282917541146,
        "F": 0.4414476630324812,
        "H": 0.42213967125578505,
        "C": 0.4717755603616003,
        "E": 0.4478585237318601,
        "L": 0.4402059171525875,
        "I": 0.4315584671740737,
        "G": 0.4362968743628893,
        "A": 0.43559163506449383,
        "J": 0.43129881756988325,
        "B": 0.4477896662178966
    },
    "Average_excess_waiting_time": {
        "D": 109.30519324490126,
        "K": 96.3466628126447,
        "F": 98.96860955450416,
        "H": 93.04223929059043,
        "C": 110.93674443468649,
        "E": 102.92803303855055,
        "L": 100.30416732542528,
        "I": 97.26805310317502,
        "G": 98.15112671541232,
        "A": 99.91514382058284,
        "J": 98.1925687522475,
        "B": 105.20216701169704
    },
    "Holding_per_stop": {
        "D": 23.93617021276596,
        "K": 15.157894736842104,
        "F": 19.263157894736842,
        "H": 11.368421052631579,
        "E": 18.19148936170213,
        "C": 17.872340425531913,
        "L": 17.23404255319149,
        "I": 11.68421052631579,
        "G": 25.21276595744681,
        "A": 10.212765957446809,
        "J": 16.914893617021278,
        "B": 15.957446808510639
    },
    "Actions_tfl_edges": {
        "BC": [
            95,
            0,
            0
        ],
        "CD": [
            95,
            0,
            0
        ],
        "DE": [
            95,
            0,
            0
        ],
        "EF": [
            95,
            0,
            0
        ],
        "GH": [
            95,
            0,
            0
        ],
        "JK": [
            95,
            0,
            0
        ],
        "KL": [
            95,
            0,
            0
        ],
        "FG": [
            95,
            0,
            0
        ],
        "HI": [
            95,
            0,
            0
        ],
        "LA": [
            94,
            0,
            0
        ],
        "IJ": [
            95,
            0,
            0
        ],
        "AB": [
            94,
            0,
            0
        ]
    },
    "Load_per_bus_per_stop": {
        "bus1": {
            "D": 66.875,
            "E": 69.4375,
            "F": 69.6875,
            "G": 70.4375,
            "H": 70.75,
            "I": 71.9375,
            "J": 73.625,
            "K": 76.25,
            "L": 75.875,
            "A": 75.4,
            "B": 76.66666666666667,
            "C": 74.06666666666666
        },
        "bus5": {
            "K": 105.4375,
            "L": 107,
            "A": 108.3125,
            "B": 109.3125,
            "C": 110.875,
            "D": 106.875,
            "E": 106.3125,
            "F": 107.6875,
            "G": 109.4,
            "H": 107.8,
            "I": 109.66666666666667,
            "J": 110.33333333333333
        },
        "bus3": {
            "F": 31.4375,
            "G": 33.0625,
            "H": 33.875,
            "I": 35.375,
            "J": 34.75,
            "K": 34.875,
            "L": 35.25,
            "A": 34.5625,
            "B": 34.6875,
            "C": 34.9375,
            "D": 34.3125,
            "E": 33.4
        },
        "bus4": {
            "H": 107.75,
            "I": 109.5,
            "J": 108.1875,
            "K": 110.0625,
            "L": 111.75,
            "A": 112.125,
            "B": 116.75,
            "C": 116.375,
            "D": 114.625,
            "E": 117.06666666666666,
            "F": 116.2,
            "G": 117.93333333333334
        },
        "bus0": {
            "C": 91.125,
            "D": 91,
            "E": 91.75,
            "F": 90.4375,
            "G": 89.0625,
            "H": 89.5,
            "I": 90.4375,
            "J": 90.06666666666666,
            "K": 91,
            "L": 91.33333333333333,
            "A": 92.13333333333334,
            "B": 94.06666666666666
        },
        "bus2": {
            "E": 52.6875,
            "F": 52.9375,
            "G": 52.5,
            "H": 52.8125,
            "I": 52.9375,
            "J": 53,
            "K": 51.6875,
            "L": 52.375,
            "A": 52.3125,
            "B": 53.8125,
            "C": 53.666666666666664,
            "D": 54
        }
    },
    "Obs_and_actions_busses": {
        "0": -200.9236972496688,
        "5": 408.071373447232,
        "2": 227.997083287473
    },
    "Obs_and_actions_tfls": {
        "0": 103.76163041426021
    }
}