{
    "Average_holding_time": 19.671694764862465,
    "Average_holding_actions": [
        913,
        0,
        0,
        97,
        0,
        0
    ],
    "Average_travel_time_passengers": 2727.0363878558205,
    "Average_passenger_waiting_time": 345.3871472722619,
    "Average_passenger_in_vehicle_time": 2381.64924058356,
    "Average_speed_busses": 0.04695833333333333,
    "Average_experienced_crowding": 85.94010197319614,
    "Average_covariation_headway": 0.43073924839696726,
    "Average_covariation_headway_stops": {
        "B": 0.33793166348912573,
        "A": 0.32914617135408175,
        "F": 0.3310003394544155,
        "K": 0.3542879059479682,
        "I": 0.32820114167319264,
        "H": 0.3243091825582985,
        "C": 0.3169565073382342,
        "L": 0.3505100297266896,
        "G": 0.3278048039696195,
        "J": 0.34193344093825623,
        "D": 0.302749058083692,
        "E": 0.2953002557291551
    },
    "Average_excess_waiting_time": {
        "B": 73.22332446238926,
        "A": 73.47810237341406,
        "F": 76.40004615324159,
        "K": 78.40075934693357,
        "I": 73.104337966314,
        "H": 75.6165385261587,
        "C": 70.33891129322154,
        "L": 79.82086636917887,
        "G": 77.84611732548643,
        "J": 77.31389258387088,
        "D": 70.96657061217854,
        "E": 70.44269697387597
    },
    "Holding_per_stop": {
        "B": 15.789473684210526,
        "K": 15,
        "I": 12.446808510638299,
        "A": 23.93617021276596,
        "F": 21.382978723404257,
        "H": 23.29787234042553,
        "C": 18.829787234042552,
        "L": 32.5531914893617,
        "J": 15.638297872340425,
        "G": 25.161290322580644,
        "D": 18.829787234042552,
        "E": 13.225806451612904
    },
    "Actions_tfl_edges": {
        "AB": [
            95,
            0,
            0
        ],
        "EF": [
            94,
            0,
            0
        ],
        "GH": [
            94,
            0,
            0
        ],
        "HI": [
            95,
            0,
            0
        ],
        "JK": [
            95,
            0,
            0
        ],
        "LA": [
            95,
            0,
            0
        ],
        "BC": [
            95,
            0,
            0
        ],
        "KL": [
            94,
            0,
            0
        ],
        "IJ": [
            94,
            0,
            0
        ],
        "FG": [
            94,
            0,
            0
        ],
        "CD": [
            94,
            0,
            0
        ],
        "DE": [
            94,
            0,
            0
        ]
    },
    "Load_per_bus_per_stop": {
        "bus0": {
            "B": 76.3125,
            "C": 78.375,
            "D": 79.875,
            "E": 81.5625,
            "F": 82.4375,
            "G": 83.3125,
            "H": 83.0625,
            "I": 82.5625,
            "J": 82,
            "K": 81.1875,
            "L": 79.4,
            "A": 77.66666666666667
        },
        "bus5": {
            "A": 79.3125,
            "B": 80.0625,
            "C": 81.1875,
            "D": 82.5,
            "E": 82.375,
            "F": 81.5,
            "G": 81.0625,
            "H": 81.8125,
            "I": 81.06666666666666,
            "J": 82.73333333333333,
            "K": 82.2,
            "L": 83.66666666666667
        },
        "bus1": {
            "F": 67.9375,
            "G": 69.3125,
            "H": 70.125,
            "I": 70.5625,
            "J": 73.375,
            "K": 73.125,
            "L": 73.8125,
            "A": 73.3125,
            "B": 71.66666666666667,
            "C": 69.66666666666667,
            "D": 70.53333333333333,
            "E": 71.46666666666667
        },
        "bus4": {
            "K": 88.875,
            "L": 88.25,
            "A": 89,
            "B": 88.5625,
            "C": 91.5,
            "D": 92.125,
            "E": 89.75,
            "F": 89.5625,
            "G": 94.46666666666667,
            "H": 95.8,
            "I": 95.26666666666667,
            "J": 94.73333333333333
        },
        "bus3": {
            "I": 66.9375,
            "J": 69.25,
            "K": 68,
            "L": 67.6875,
            "A": 67.5,
            "B": 67.5625,
            "C": 69.5625,
            "D": 69.6875,
            "E": 72.6,
            "F": 71.73333333333333,
            "G": 73.06666666666666,
            "H": 71.13333333333334
        },
        "bus2": {
            "H": 81.9375,
            "I": 83,
            "J": 83.75,
            "K": 83.9375,
            "L": 82.5,
            "A": 82.625,
            "B": 82.4375,
            "C": 82.5,
            "D": 84.46666666666667,
            "E": 84.66666666666667,
            "F": 82.26666666666667,
            "G": 85.66666666666667
        }
    },
    "Obs_and_actions_busses": {
        "0": -203.8860576928602,
        "3": 161.14474249629967,
        "4": 347.26380865318197
    },
    "Obs_and_actions_tfls": {
        "0": 95.37544903968991
    }
}