{
    "Average_holding_time": 24.613953488372093,
    "Average_holding_actions": [
        841,
        0,
        96,
        0,
        138,
        0
    ],
    "Average_travel_time_passengers": 2993.899084313375,
    "Average_passenger_waiting_time": 476.8858204296396,
    "Average_passenger_in_vehicle_time": 2517.0132638837354,
    "Average_speed_busses": 0.04479166666666667,
    "Average_experienced_crowding": 120.38178050868218,
    "Average_covariation_headway": 0.8162742266355736,
    "Average_covariation_headway_stops": {
        "C": 0.680013833369805,
        "K": 0.6707092462105494,
        "G": 0.6874835054830227,
        "E": 0.6818449969742308,
        "L": 0.6856516487493489,
        "H": 0.6820941246623566,
        "A": 0.6619840541475689,
        "I": 0.6684233915826651,
        "F": 0.6673249929628942,
        "D": 0.6786935065551691,
        "J": 0.6687118882326045,
        "B": 0.6506104931142339
    },
    "Average_excess_waiting_time": {
        "C": 209.72944740686683,
        "K": 200.16812141942205,
        "G": 209.91296268561518,
        "E": 210.54337134265506,
        "L": 204.5794221037774,
        "H": 204.87573574633547,
        "A": 195.8590116605314,
        "I": 199.65580690539696,
        "F": 203.31438783288337,
        "D": 211.80566425893352,
        "J": 201.89539669355855,
        "B": 201.78775789934355
    },
    "Holding_per_stop": {
        "C": 17.191011235955056,
        "E": 29.325842696629213,
        "G": 31,
        "L": 28.35164835164835,
        "H": 29.666666666666668,
        "K": 32.333333333333336,
        "A": 17.666666666666668,
        "I": 20.666666666666668,
        "D": 26.292134831460675,
        "F": 13.820224719101123,
        "J": 25.333333333333332,
        "B": 23.522727272727273
    },
    "Actions_tfl_edges": {
        "BC": [
            89,
            0,
            0
        ],
        "DE": [
            90,
            0,
            0
        ],
        "FG": [
            90,
            0,
            0
        ],
        "GH": [
            91,
            0,
            0
        ],
        "JK": [
            91,
            0,
            0
        ],
        "KL": [
            91,
            0,
            0
        ],
        "CD": [
            89,
            0,
            0
        ],
        "EF": [
            89,
            0,
            0
        ],
        "LA": [
            91,
            0,
            0
        ],
        "HI": [
            90,
            0,
            0
        ],
        "AB": [
            90,
            0,
            0
        ],
        "IJ": [
            90,
            0,
            0
        ]
    },
    "Load_per_bus_per_stop": {
        "bus0": {
            "C": 42.93333333333333,
            "D": 43.266666666666666,
            "E": 44.8,
            "F": 45.6,
            "G": 46.266666666666666,
            "H": 45.733333333333334,
            "I": 45.53333333333333,
            "J": 45.733333333333334,
            "K": 47.333333333333336,
            "L": 46.733333333333334,
            "A": 45.4,
            "B": 45.5
        },
        "bus4": {
            "K": 48.75,
            "L": 46.666666666666664,
            "A": 47.53333333333333,
            "B": 47.8,
            "C": 48.06666666666667,
            "D": 49.06666666666667,
            "E": 49.266666666666666,
            "F": 50.2,
            "G": 49.53333333333333,
            "H": 51,
            "I": 50.666666666666664,
            "J": 50.53333333333333
        },
        "bus2": {
            "G": 118.53333333333333,
            "H": 118.4,
            "I": 121.4,
            "J": 122.46666666666667,
            "K": 123.33333333333333,
            "L": 125.13333333333334,
            "A": 123.33333333333333,
            "B": 125.53333333333333,
            "C": 125.66666666666667,
            "D": 126.46666666666667,
            "E": 128.8,
            "F": 127.57142857142857
        },
        "bus1": {
            "E": 139.8,
            "F": 141.4,
            "G": 140.73333333333332,
            "H": 142.86666666666667,
            "I": 142.73333333333332,
            "J": 142.46666666666667,
            "K": 141.73333333333332,
            "L": 141.6,
            "A": 143.4,
            "B": 144.73333333333332,
            "C": 144.71428571428572,
            "D": 150
        },
        "bus5": {
            "L": 37.0625,
            "A": 38.375,
            "B": 38.666666666666664,
            "C": 39.4,
            "D": 39.93333333333333,
            "E": 39.6,
            "F": 40.13333333333333,
            "G": 39.733333333333334,
            "H": 38.266666666666666,
            "I": 39,
            "J": 40,
            "K": 40
        },
        "bus3": {
            "H": 96.0625,
            "I": 96.13333333333334,
            "J": 94.86666666666666,
            "K": 96.33333333333333,
            "L": 98.93333333333334,
            "A": 100.53333333333333,
            "B": 99.8,
            "C": 98.6,
            "D": 100.06666666666666,
            "E": 99.73333333333333,
            "F": 101.06666666666666,
            "G": 101.86666666666666
        }
    },
    "Obs_and_actions_busses": {
        "2": 384.7734090082666,
        "0": -212.12151406131974,
        "5": 392.02401767307447
    },
    "Obs_and_actions_tfls": {
        "0": 99.94537644592627
    }
}