{
    "Average_holding_time": 32.41286863270778,
    "Average_holding_actions": [
        490,
        0,
        106,
        72,
        36,
        0
    ],
    "Average_travel_time_passengers": 5451.926756553301,
    "Average_passenger_waiting_time": 1759.4213554843268,
    "Average_passenger_in_vehicle_time": 3692.5054010689573,
    "Average_speed_busses": 0.031083333333333334,
    "Average_experienced_crowding": 440.89783548590833,
    "Average_covariation_headway": 1.732925853804007,
    "Average_covariation_headway_stops": {
        "A": 1.8497331873498335,
        "B": 1.8399375918366472,
        "J": 1.8155724193534288,
        "G": 1.7942947195845018,
        "F": 1.7720700238400078,
        "I": 1.79032141889716,
        "C": 1.8389294627707207,
        "K": 1.8114756619092982,
        "H": 1.77698549776932,
        "L": 1.8240587262880783,
        "D": 1.751047592939875,
        "E": 1.7467773914616072
    },
    "Average_excess_waiting_time": {
        "A": 1710.5175875411105,
        "B": 1686.7073228272789,
        "J": 1620.1721808911282,
        "G": 1586.9638364288044,
        "F": 1563.983282289901,
        "I": 1590.6850414195171,
        "C": 1705.5727376685245,
        "K": 1634.8402227816464,
        "H": 1579.2232333571847,
        "L": 1677.5898123905474,
        "D": 1697.5556258555519,
        "E": 1531.97221291359
    },
    "Holding_per_stop": {
        "B": 31.384615384615383,
        "J": 37.142857142857146,
        "G": 37.868852459016395,
        "I": 32.41935483870968,
        "A": 22.5,
        "F": 32.5,
        "C": 29.076923076923077,
        "K": 27.142857142857142,
        "H": 33.9344262295082,
        "L": 29.047619047619047,
        "D": 37,
        "E": 40.16949152542373
    },
    "Actions_tfl_edges": {
        "AB": [
            65,
            0,
            0
        ],
        "EF": [
            60,
            0,
            0
        ],
        "FG": [
            61,
            0,
            0
        ],
        "HI": [
            62,
            0,
            0
        ],
        "IJ": [
            63,
            0,
            0
        ],
        "LA": [
            64,
            0,
            0
        ],
        "BC": [
            65,
            0,
            0
        ],
        "JK": [
            63,
            0,
            0
        ],
        "GH": [
            61,
            0,
            0
        ],
        "CD": [
            65,
            0,
            0
        ],
        "KL": [
            63,
            0,
            0
        ],
        "DE": [
            60,
            0,
            0
        ]
    },
    "Load_per_bus_per_stop": {
        "bus5": {
            "A": 25.545454545454547,
            "B": 25.363636363636363,
            "C": 26.181818181818183,
            "D": 28.7,
            "E": 28.5,
            "F": 28.4,
            "G": 28.9,
            "H": 27.9,
            "I": 27.9,
            "J": 28.2,
            "K": 26.4,
            "L": 25.7
        },
        "bus0": {
            "B": 49.72727272727273,
            "C": 49.54545454545455,
            "D": 50,
            "E": 52.1,
            "F": 54.1,
            "G": 52.9,
            "H": 53.5,
            "I": 53.9,
            "J": 54.1,
            "K": 54.9,
            "L": 55.5,
            "A": 54.2
        },
        "bus4": {
            "J": 27.272727272727273,
            "K": 26.90909090909091,
            "L": 27.363636363636363,
            "A": 27.636363636363637,
            "B": 29.363636363636363,
            "C": 28.272727272727273,
            "D": 31,
            "E": 29.9,
            "F": 29.7,
            "G": 28.9,
            "H": 29.1,
            "I": 29.9
        },
        "bus2": {
            "G": 87.36363636363636,
            "H": 87.9090909090909,
            "I": 86.9090909090909,
            "J": 87.45454545454545,
            "K": 89.54545454545455,
            "L": 87.9090909090909,
            "A": 85.54545454545455,
            "B": 84.27272727272727,
            "C": 84.27272727272727,
            "D": 90.5,
            "E": 93.3,
            "F": 95.6
        },
        "bus1": {
            "F": 401.1,
            "G": 396.4,
            "H": 406.3,
            "I": 420.9,
            "J": 423.7,
            "K": 433.1,
            "L": 445.6,
            "A": 457.4,
            "B": 466.5,
            "C": 471.8,
            "D": 479.8,
            "E": 438.77777777777777
        },
        "bus3": {
            "I": 41.81818181818182,
            "J": 42.81818181818182,
            "K": 42.54545454545455,
            "L": 42.54545454545455,
            "A": 42.90909090909091,
            "B": 41.72727272727273,
            "C": 42.63636363636363,
            "D": 48.2,
            "E": 48.1,
            "F": 48.1,
            "G": 47.6,
            "H": 46
        }
    },
    "Obs_and_actions_busses": {
        "4": 605.2687390112154,
        "3": 980.5474158484253,
        "0": -76.70431996913965,
        "2": 5991.046471022573,
        "5": -2771.762141874993
    },
    "Obs_and_actions_tfls": {
        "0": 48.261116409882966
    }
}