{
    "Average_holding_time": 20.90748898678414,
    "Average_holding_actions": [
        904,
        0,
        0,
        98,
        0,
        0
    ],
    "Average_travel_time_passengers": 2723.7822894008877,
    "Average_passenger_waiting_time": 348.7625160236248,
    "Average_passenger_in_vehicle_time": 2375.0197733772884,
    "Average_speed_busses": 0.04729166666666667,
    "Average_experienced_crowding": 87.41607706870374,
    "Average_covariation_headway": 0.48702561794904103,
    "Average_covariation_headway_stops": {
        "G": 0.37134579509285853,
        "F": 0.3828191850631375,
        "A": 0.37354845139467147,
        "B": 0.3802372197930156,
        "L": 0.37417885225458547,
        "H": 0.35282193320365285,
        "C": 0.35019212216056994,
        "I": 0.3587290733479698,
        "J": 0.34665804486073554,
        "D": 0.36094404201161606,
        "K": 0.36237872335422544,
        "E": 0.3709353979694182
    },
    "Average_excess_waiting_time": {
        "G": 80.08679642837279,
        "F": 85.2776588776847,
        "A": 81.95593452766536,
        "B": 80.99980009235986,
        "L": 83.92192229824349,
        "H": 74.46455153897853,
        "C": 76.0344637290305,
        "I": 77.99619515817574,
        "J": 77.31495595890618,
        "D": 80.06715213377214,
        "K": 83.79843305370605,
        "E": 84.5056534439866
    },
    "Holding_per_stop": {
        "G": 22.736842105263158,
        "A": 14.842105263157896,
        "B": 18,
        "H": 18.94736842105263,
        "F": 22.42105263157895,
        "L": 29.680851063829788,
        "C": 21.157894736842106,
        "I": 22.42105263157895,
        "J": 18.19148936170213,
        "D": 22.659574468085108,
        "K": 20.425531914893618,
        "E": 19.46808510638298
    },
    "Actions_tfl_edges": {
        "AB": [
            96,
            0,
            0
        ],
        "EF": [
            95,
            0,
            0
        ],
        "FG": [
            95,
            0,
            0
        ],
        "GH": [
            96,
            0,
            0
        ],
        "KL": [
            95,
            0,
            0
        ],
        "LA": [
            95,
            0,
            0
        ],
        "BC": [
            95,
            0,
            0
        ],
        "HI": [
            95,
            0,
            0
        ],
        "CD": [
            95,
            0,
            0
        ],
        "IJ": [
            95,
            0,
            0
        ],
        "JK": [
            94,
            0,
            0
        ],
        "DE": [
            94,
            0,
            0
        ]
    },
    "Load_per_bus_per_stop": {
        "bus2": {
            "G": 50.875,
            "H": 49.375,
            "I": 48.5,
            "J": 49.6875,
            "K": 50,
            "L": 50.1875,
            "A": 49.9375,
            "B": 50.375,
            "C": 52.9375,
            "D": 52.06666666666667,
            "E": 50.93333333333333,
            "F": 53.6
        },
        "bus1": {
            "F": 76.0625,
            "G": 76.875,
            "H": 78.5625,
            "I": 80.3125,
            "J": 79.75,
            "K": 80.3125,
            "L": 81.0625,
            "A": 81.6875,
            "B": 81.53333333333333,
            "C": 79.86666666666666,
            "D": 78.93333333333334,
            "E": 79.26666666666667
        },
        "bus5": {
            "A": 93.875,
            "B": 94.375,
            "C": 93.8125,
            "D": 93.875,
            "E": 92.8125,
            "F": 94.4375,
            "G": 93.625,
            "H": 95.375,
            "I": 95.5625,
            "J": 95.8125,
            "K": 99.53333333333333,
            "L": 100.8
        },
        "bus0": {
            "B": 80.8125,
            "C": 81.0625,
            "D": 82.5625,
            "E": 82.5,
            "F": 84,
            "G": 84.6875,
            "H": 85.75,
            "I": 86.875,
            "J": 86.5,
            "K": 87.625,
            "L": 89.2,
            "A": 86.33333333333333
        },
        "bus4": {
            "L": 80.25,
            "A": 80.5,
            "B": 80.4375,
            "C": 79.5625,
            "D": 79.3125,
            "E": 78.5,
            "F": 80.875,
            "G": 80.875,
            "H": 79.75,
            "I": 84.73333333333333,
            "J": 85.46666666666667,
            "K": 84.06666666666666
        },
        "bus3": {
            "H": 80.625,
            "I": 82.9375,
            "J": 83,
            "K": 81.9375,
            "L": 82.625,
            "A": 83.6875,
            "B": 84.3125,
            "C": 86.6875,
            "D": 85.4375,
            "E": 83.5625,
            "F": 84.5,
            "G": 86.6
        }
    },
    "Obs_and_actions_busses": {
        "0": -216.25543722447387,
        "3": 166.87771764027914,
        "4": 395.98203292291936
    },
    "Obs_and_actions_tfls": {
        "0": 91.37341286442198
    }
}