{
    "Average_holding_time": 20.29955947136564,
    "Average_holding_actions": [
        591,
        379,
        116,
        0,
        5,
        0
    ],
    "Average_travel_time_passengers": 2707.376703506587,
    "Average_passenger_waiting_time": 331.4506578254248,
    "Average_passenger_in_vehicle_time": 2375.9260456811585,
    "Average_speed_busses": 0.04729166666666667,
    "Average_experienced_crowding": 82.8926189154323,
    "Average_covariation_headway": 0.36203125953497894,
    "Average_covariation_headway_stops": {
        "A": 0.2958357111233708,
        "B": 0.27833749902291954,
        "J": 0.30086080700612183,
        "G": 0.28528466448129414,
        "F": 0.28257332544581876,
        "I": 0.2781908391533729,
        "C": 0.2710130507717431,
        "K": 0.2924833928868487,
        "H": 0.2786556128106054,
        "L": 0.2953362791219114,
        "D": 0.2630248719052525,
        "E": 0.26255178980178656
    },
    "Average_excess_waiting_time": {
        "A": 65.49367427346982,
        "B": 60.45967922591649,
        "J": 64.40642672846133,
        "G": 63.35453790973361,
        "F": 64.31607050921161,
        "I": 61.88000388398791,
        "C": 61.5883855984585,
        "K": 65.51582187846145,
        "H": 64.07800544539822,
        "L": 68.69289644874101,
        "D": 60.62845971446745,
        "E": 62.36847866439712
    },
    "Holding_per_stop": {
        "B": 16.42105263157895,
        "J": 20.210526315789473,
        "G": 19.263157894736842,
        "I": 18.94736842105263,
        "A": 17.872340425531913,
        "F": 22.736842105263158,
        "C": 22.105263157894736,
        "K": 19.263157894736842,
        "H": 20.425531914893618,
        "L": 24.574468085106382,
        "D": 21.70212765957447,
        "E": 20.106382978723403
    },
    "Actions_tfl_edges": {
        "AB": [
            95,
            0,
            0
        ],
        "EF": [
            95,
            0,
            0
        ],
        "FG": [
            95,
            0,
            0
        ],
        "HI": [
            95,
            0,
            0
        ],
        "IJ": [
            96,
            0,
            0
        ],
        "LA": [
            95,
            0,
            0
        ],
        "BC": [
            95,
            0,
            0
        ],
        "JK": [
            95,
            0,
            0
        ],
        "GH": [
            95,
            0,
            0
        ],
        "CD": [
            95,
            0,
            0
        ],
        "KL": [
            95,
            0,
            0
        ],
        "DE": [
            94,
            0,
            0
        ]
    },
    "Load_per_bus_per_stop": {
        "bus5": {
            "A": 74.6875,
            "B": 74.875,
            "C": 76.375,
            "D": 77.6875,
            "E": 78.4375,
            "F": 79.3125,
            "G": 76.8125,
            "H": 76.4375,
            "I": 76.1875,
            "J": 74.5625,
            "K": 76.66666666666667,
            "L": 78.06666666666666
        },
        "bus0": {
            "B": 83.625,
            "C": 81.8125,
            "D": 81.0625,
            "E": 82.625,
            "F": 82.625,
            "G": 85.0625,
            "H": 85.3125,
            "I": 86.125,
            "J": 85.125,
            "K": 87,
            "L": 88.6,
            "A": 89.86666666666666
        },
        "bus4": {
            "J": 86.6875,
            "K": 88.125,
            "L": 85.75,
            "A": 86.625,
            "B": 88.75,
            "C": 89.375,
            "D": 90.6875,
            "E": 89.9375,
            "F": 90.3125,
            "G": 90.125,
            "H": 90.13333333333334,
            "I": 91.33333333333333
        },
        "bus2": {
            "G": 75,
            "H": 75.8125,
            "I": 76.3125,
            "J": 77.0625,
            "K": 76.4375,
            "L": 77.75,
            "A": 78.875,
            "B": 77.875,
            "C": 77.875,
            "D": 80.73333333333333,
            "E": 79.8,
            "F": 80.46666666666667
        },
        "bus1": {
            "F": 78.5625,
            "G": 78.125,
            "H": 78.625,
            "I": 77.75,
            "J": 80.4375,
            "K": 80.25,
            "L": 78.8125,
            "A": 78.6,
            "B": 80.33333333333333,
            "C": 79.73333333333333,
            "D": 79.6,
            "E": 82.33333333333333
        },
        "bus3": {
            "I": 59.625,
            "J": 60.625,
            "K": 61.75,
            "L": 61.25,
            "A": 60.625,
            "B": 60.8125,
            "C": 62.1875,
            "D": 64.6875,
            "E": 64.8125,
            "F": 65.6875,
            "G": 63.6,
            "H": 63.8
        }
    },
    "Obs_and_actions_busses": {
        "5": 533.9618332404434,
        "2": 195.6039041726376,
        "1": 54.27724066238619,
        "0": -296.00491936071603,
        "3": 360.520879587929
    },
    "Obs_and_actions_tfls": {
        "0": 116.77753455523604
    }
}_tfls": {
        "0": 131.00567174962057
    }
}