{
    "Average_holding_time": 18.375992939099735,
    "Average_holding_actions": [
        909,
        0,
        142,
        0,
        82,
        0
    ],
    "Average_travel_time_passengers": 2714.6237938590757,
    "Average_passenger_waiting_time": 365.64812028879425,
    "Average_passenger_in_vehicle_time": 2348.9756735702445,
    "Average_speed_busses": 0.04720833333333333,
    "Average_experienced_crowding": 89.50685007716197,
    "Average_covariation_headway": 0.5406778791472957,
    "Average_covariation_headway_stops": {
        "L": 0.40166986118232617,
        "G": 0.4498932099204112,
        "A": 0.3995838798492055,
        "I": 0.4583768945053166,
        "H": 0.4620719034331418,
        "B": 0.4229192324124914,
        "C": 0.4038698321283724,
        "J": 0.4145111240403118,
        "D": 0.40105755947759286,
        "K": 0.3856619625516594,
        "E": 0.4215945861103009,
        "F": 0.43147602155732473
    },
    "Average_excess_waiting_time": {
        "L": 87.98683238661926,
        "G": 104.6111277257055,
        "A": 86.37370655986626,
        "I": 103.42214783098319,
        "H": 105.94500064500511,
        "B": 90.00340639438798,
        "C": 86.78048715528382,
        "J": 91.71644105639649,
        "D": 89.20444616997315,
        "K": 86.3723797117554,
        "E": 98.43986225519251,
        "F": 104.90647320081035
    },
    "Holding_per_stop": {
        "A": 12,
        "G": 18.387096774193548,
        "I": 20.526315789473685,
        "H": 19.78723404255319,
        "B": 16.5625,
        "L": 18.94736842105263,
        "C": 15.157894736842104,
        "J": 22.340425531914892,
        "D": 24.63157894736842,
        "K": 17.5531914893617,
        "E": 20.74468085106383,
        "F": 13.870967741935484
    },
    "Actions_tfl_edges": {
        "AB": [
            96,
            0,
            0
        ],
        "FG": [
            94,
            0,
            0
        ],
        "GH": [
            94,
            0,
            0
        ],
        "HI": [
            95,
            0,
            0
        ],
        "KL": [
            95,
            0,
            0
        ],
        "LA": [
            96,
            0,
            0
        ],
        "IJ": [
            95,
            0,
            0
        ],
        "BC": [
            96,
            0,
            0
        ],
        "CD": [
            95,
            0,
            0
        ],
        "JK": [
            94,
            0,
            0
        ],
        "DE": [
            95,
            0,
            0
        ],
        "EF": [
            94,
            0,
            0
        ]
    },
    "Load_per_bus_per_stop": {
        "bus4": {
            "L": 83.875,
            "A": 84.6875,
            "B": 87.875,
            "C": 90.625,
            "D": 89.3125,
            "E": 91.3125,
            "F": 93.5,
            "G": 92.13333333333334,
            "H": 91.6,
            "I": 91.6,
            "J": 90.73333333333333,
            "K": 89.26666666666667
        },
        "bus1": {
            "G": 64.75,
            "H": 65.625,
            "I": 66.0625,
            "J": 65.8125,
            "K": 66.25,
            "L": 68,
            "A": 68.25,
            "B": 68.1875,
            "C": 66.25,
            "D": 67.33333333333333,
            "E": 67.13333333333334,
            "F": 67.93333333333334
        },
        "bus5": {
            "A": 74.5625,
            "B": 75.4375,
            "C": 76.875,
            "D": 77.5625,
            "E": 77.5625,
            "F": 78.8125,
            "G": 78.5625,
            "H": 78.1875,
            "I": 80.3125,
            "J": 77.86666666666666,
            "K": 77.46666666666667,
            "L": 79.06666666666666
        },
        "bus3": {
            "I": 98.6875,
            "J": 99.125,
            "K": 99.625,
            "L": 99.5625,
            "A": 99.8125,
            "B": 99.9375,
            "C": 101.0625,
            "D": 99.625,
            "E": 101.1875,
            "F": 103.13333333333334,
            "G": 106.13333333333334,
            "H": 106.6
        },
        "bus2": {
            "H": 57.5625,
            "I": 56.6875,
            "J": 56.5,
            "K": 56.4375,
            "L": 56.8125,
            "A": 56.75,
            "B": 56.8125,
            "C": 57,
            "D": 59,
            "E": 62.13333333333333,
            "F": 61.6,
            "G": 60.86666666666667
        },
        "bus0": {
            "B": 74.125,
            "C": 75.1875,
            "D": 74.375,
            "E": 74.125,
            "F": 73.8125,
            "G": 75.8125,
            "H": 76.125,
            "I": 77.5,
            "J": 77.5625,
            "K": 78.5625,
            "L": 81.5625,
            "A": 79.46666666666667
        }
    },
    "Obs_and_actions_busses": {
        "5": 435.5995348876417,
        "2": 229.26497832293344,
        "0": -214.51134613488296
    },
    "Obs_and_actions_tfls": {
        "0": 100.5161604801338
    }
}