{
    "Average_holding_time": 43.900862068965516,
    "Average_holding_actions": [
        277,
        0,
        62,
        32,
        74,
        0
    ],
    "Average_travel_time_passengers": 9569.610225260963,
    "Average_passenger_waiting_time": 3802.6349040232667,
    "Average_passenger_in_vehicle_time": 5766.975321237467,
    "Average_speed_busses": 0.019333333333333334,
    "Average_experienced_crowding": 893.6502683841937,
    "Average_covariation_headway": 2.2806586879286623,
    "Average_covariation_headway_stops": {
        "E": 2.1636265921476383,
        "I": 2.1809376033076013,
        "H": 2.1783329033872265,
        "D": 2.1676015143088434,
        "B": 2.1607735567293407,
        "F": 2.1725905667716456,
        "G": 2.1644958891061536,
        "C": 2.141790080033854,
        "J": 2.1736527034480555,
        "K": 2.0257199915094986,
        "L": 2.149825383123529,
        "A": 2.1438865626618653
    },
    "Average_excess_waiting_time": {
        "E": 3638.3462177284964,
        "I": 3655.960498852573,
        "H": 3678.44500417667,
        "D": 3679.6250499815687,
        "B": 3620.8174285583573,
        "F": 3627.019430056134,
        "G": 3662.8515894655343,
        "C": 3631.085257426476,
        "J": 3698.8839169403914,
        "K": 3747.797851657049,
        "L": 3551.86342328772,
        "A": 3605.295974041962
    },
    "Holding_per_stop": {
        "E": 44.61538461538461,
        "F": 41.25,
        "H": 42.4390243902439,
        "D": 46.578947368421055,
        "B": 42.972972972972975,
        "I": 40.714285714285715,
        "G": 39.75,
        "C": 44.5945945945946,
        "J": 47.142857142857146,
        "K": 42.5,
        "L": 49.166666666666664,
        "A": 45.833333333333336
    },
    "Actions_tfl_edges": {
        "AB": [
            37,
            0,
            0
        ],
        "CD": [
            38,
            0,
            0
        ],
        "DE": [
            39,
            0,
            0
        ],
        "EF": [
            40,
            0,
            0
        ],
        "GH": [
            41,
            0,
            0
        ],
        "HI": [
            42,
            0,
            0
        ],
        "FG": [
            40,
            0,
            0
        ],
        "BC": [
            37,
            0,
            0
        ],
        "IJ": [
            42,
            0,
            0
        ],
        "JK": [
            42,
            0,
            0
        ],
        "KL": [
            36,
            0,
            0
        ],
        "LA": [
            36,
            0,
            0
        ]
    },
    "Load_per_bus_per_stop": {
        "bus2": {
            "E": 5.571428571428571,
            "F": 5.571428571428571,
            "G": 6.285714285714286,
            "H": 5.857142857142857,
            "I": 6,
            "J": 5.857142857142857,
            "K": 6.833333333333333,
            "L": 6.666666666666667,
            "A": 7.5,
            "B": 7.333333333333333,
            "C": 6.5,
            "D": 5.666666666666667
        },
        "bus5": {
            "I": 856.2857142857143,
            "J": 872.8571428571429,
            "K": 894.7142857142857,
            "L": 832.1666666666666,
            "A": 848.8333333333334,
            "B": 878.8333333333334,
            "C": 892.1666666666666,
            "D": 908.1666666666666,
            "E": 928.5,
            "F": 956.8333333333334,
            "G": 963.6666666666666,
            "H": 977.3333333333334
        },
        "bus4": {
            "H": 55.42857142857143,
            "I": 57.142857142857146,
            "J": 58.142857142857146,
            "K": 56.833333333333336,
            "L": 58.166666666666664,
            "A": 58.5,
            "B": 59.833333333333336,
            "C": 62.333333333333336,
            "D": 61.833333333333336,
            "E": 63.5,
            "F": 65.66666666666667,
            "G": 66.33333333333333
        },
        "bus1": {
            "D": 12.142857142857142,
            "E": 12.857142857142858,
            "F": 14,
            "G": 14.142857142857142,
            "H": 12.714285714285714,
            "I": 11.714285714285714,
            "J": 12.857142857142858,
            "K": 14.333333333333334,
            "L": 13.833333333333334,
            "A": 14.166666666666666,
            "B": 14.166666666666666,
            "C": 13.666666666666666
        },
        "bus0": {
            "B": 39.714285714285715,
            "C": 37.857142857142854,
            "D": 39.142857142857146,
            "E": 38.714285714285715,
            "F": 38.857142857142854,
            "G": 40.714285714285715,
            "H": 40.714285714285715,
            "I": 40.42857142857143,
            "J": 41.714285714285715,
            "K": 51.666666666666664,
            "L": 48.5,
            "A": 45.833333333333336
        },
        "bus3": {
            "F": 6.142857142857143,
            "G": 7.428571428571429,
            "H": 8.857142857142858,
            "I": 9.857142857142858,
            "J": 10.857142857142858,
            "K": 11.333333333333334,
            "L": 10.5,
            "A": 10.833333333333334,
            "B": 10.833333333333334,
            "C": 10.5,
            "D": 9.333333333333334,
            "E": 8.333333333333334
        }
    },
    "Obs_and_actions_busses": {
        "0": -8.22476790178946,
        "4": 550.4724464975475,
        "3": 1690.832605077183,
        "5": -6172.144603517641,
        "2": 6977.753413684439
    },
    "Obs_and_actions_tfls": {
        "0": 65.1429814081398
    }
}