{
    "Average_holding_time": 18.704028021015763,
    "Average_holding_actions": [
        920,
        0,
        0,
        46,
        0,
        0
    ],
    "Average_travel_time_passengers": 2682.0055266547433,
    "Average_passenger_waiting_time": 330.77063914670885,
    "Average_passenger_in_vehicle_time": 2351.234887508075,
    "Average_speed_busses": 0.04758333333333333,
    "Average_experienced_crowding": 79.99520403369412,
    "Average_covariation_headway": 0.3259151342182772,
    "Average_covariation_headway_stops": {
        "D": 0.26546362099760595,
        "A": 0.265680727697868,
        "B": 0.26181671040116394,
        "C": 0.2758627878319812,
        "I": 0.2483550134373089,
        "F": 0.24633996390682256,
        "E": 0.2485630148869437,
        "J": 0.23163681148123583,
        "G": 0.22574318094615514,
        "K": 0.24875943562038988,
        "H": 0.22603587900955216,
        "L": 0.26054431396186156
    },
    "Average_excess_waiting_time": {
        "D": 57.09332013523726,
        "A": 61.179180254133485,
        "B": 59.73961038741203,
        "C": 60.77614914976954,
        "I": 54.8516729490741,
        "F": 52.94031494244376,
        "E": 55.327094440706105,
        "J": 53.86310127321309,
        "G": 51.75453210283354,
        "K": 58.0278395356076,
        "H": 52.81527209189585,
        "L": 61.63093740737594
    },
    "Holding_per_stop": {
        "D": 18.4375,
        "C": 30.94736842105263,
        "B": 19.894736842105264,
        "I": 16.25,
        "A": 7.9787234042553195,
        "F": 25.9375,
        "E": 18,
        "J": 13.263157894736842,
        "G": 18.75,
        "K": 23.68421052631579,
        "H": 14.526315789473685,
        "L": 16.595744680851062
    },
    "Actions_tfl_edges": {
        "AB": [
            95,
            0,
            0
        ],
        "BC": [
            96,
            0,
            0
        ],
        "CD": [
            96,
            0,
            0
        ],
        "EF": [
            96,
            0,
            0
        ],
        "HI": [
            96,
            0,
            0
        ],
        "LA": [
            95,
            0,
            0
        ],
        "DE": [
            96,
            0,
            0
        ],
        "IJ": [
            96,
            0,
            0
        ],
        "FG": [
            96,
            0,
            0
        ],
        "JK": [
            95,
            0,
            0
        ],
        "GH": [
            96,
            0,
            0
        ],
        "KL": [
            95,
            0,
            0
        ]
    },
    "Load_per_bus_per_stop": {
        "bus2": {
            "D": 64.1875,
            "E": 66.5625,
            "F": 67.1875,
            "G": 68.375,
            "H": 68.6875,
            "I": 69.1875,
            "J": 67,
            "K": 65.5,
            "L": 66.3125,
            "A": 65.5,
            "B": 66.25,
            "C": 68
        },
        "bus5": {
            "A": 72.6875,
            "B": 73.75,
            "C": 73.1875,
            "D": 74.3125,
            "E": 75.75,
            "F": 77.3125,
            "G": 78.5625,
            "H": 78.8125,
            "I": 78.4375,
            "J": 77.33333333333333,
            "K": 76.46666666666667,
            "L": 77.06666666666666
        },
        "bus0": {
            "B": 74.25,
            "C": 75.375,
            "D": 75.1875,
            "E": 74.75,
            "F": 76.0625,
            "G": 75.625,
            "H": 76.4375,
            "I": 77.5625,
            "J": 77.5,
            "K": 77.875,
            "L": 79.33333333333333,
            "A": 78.13333333333334
        },
        "bus1": {
            "C": 71.25,
            "D": 71.9375,
            "E": 73.5625,
            "F": 72.3125,
            "G": 71.625,
            "H": 70.5625,
            "I": 71.5625,
            "J": 72.75,
            "K": 72.125,
            "L": 74.25,
            "A": 73.4375,
            "B": 75.53333333333333
        },
        "bus4": {
            "I": 79.8125,
            "J": 81.75,
            "K": 83.4375,
            "L": 82.5,
            "A": 83.875,
            "B": 85.625,
            "C": 86.3125,
            "D": 87.0625,
            "E": 87.9375,
            "F": 86,
            "G": 85.875,
            "H": 83.46666666666667
        },
        "bus3": {
            "F": 84.3125,
            "G": 84.25,
            "H": 86.1875,
            "I": 84.4375,
            "J": 85.125,
            "K": 86.75,
            "L": 86.9375,
            "A": 84.9375,
            "B": 84.375,
            "C": 86.3125,
            "D": 87.4375,
            "E": 88.66666666666667
        }
    },
    "Obs_and_actions_busses": {
        "0": -175.377673882946,
        "3": 143.06326015022069,
        "4": 336.43161705017894
    },
    "Obs_and_actions_tfls": {
        "0": 108.66343353213463
    }
}}