{
    "Average_holding_time": 18.315508021390375,
    "Average_holding_actions": [
        704,
        329,
        0,
        89,
        0,
        0
    ],
    "Average_travel_time_passengers": 2822.7766966211775,
    "Average_passenger_waiting_time": 401.36303477218416,
    "Average_passenger_in_vehicle_time": 2421.4136618490124,
    "Average_speed_busses": 0.04675,
    "Average_experienced_crowding": 100.70652038379302,
    "Average_covariation_headway": 0.6683828007454391,
    "Average_covariation_headway_stops": {
        "L": 0.5537636386134422,
        "H": 0.5459222474464414,
        "C": 0.5465532365687046,
        "J": 0.5439027930376855,
        "I": 0.562342285773055,
        "G": 0.5430490559675392,
        "D": 0.5397178730914415,
        "A": 0.5428350385315194,
        "K": 0.537407874318575,
        "B": 0.535872169750929,
        "E": 0.5386474792771477,
        "F": 0.5402989691583687
    },
    "Average_excess_waiting_time": {
        "L": 134.09231498882332,
        "H": 135.97458187282712,
        "C": 137.17736678782484,
        "J": 130.9121839624064,
        "I": 139.25486690680043,
        "G": 139.1505094405823,
        "D": 136.6054881709693,
        "A": 135.71283347493045,
        "K": 130.8218626449837,
        "B": 137.46184503900116,
        "E": 138.38618365924668,
        "F": 138.85700528064808
    },
    "Holding_per_stop": {
        "L": 24.94736842105263,
        "H": 17.419354838709676,
        "C": 17.741935483870968,
        "J": 17.05263157894737,
        "I": 19.148936170212767,
        "G": 19.35483870967742,
        "D": 19.677419354838708,
        "A": 12.76595744680851,
        "K": 18.829787234042552,
        "B": 13.870967741935484,
        "E": 19.677419354838708,
        "F": 19.23913043478261
    },
    "Actions_tfl_edges": {
        "BC": [
            94,
            0,
            0
        ],
        "FG": [
            93,
            0,
            0
        ],
        "GH": [
            94,
            0,
            0
        ],
        "HI": [
            94,
            0,
            0
        ],
        "IJ": [
            95,
            0,
            0
        ],
        "KL": [
            95,
            0,
            0
        ],
        "LA": [
            95,
            0,
            0
        ],
        "CD": [
            93,
            0,
            0
        ],
        "JK": [
            95,
            0,
            0
        ],
        "DE": [
            93,
            0,
            0
        ],
        "AB": [
            94,
            0,
            0
        ],
        "EF": [
            93,
            0,
            0
        ]
    },
    "Load_per_bus_per_stop": {
        "bus5": {
            "L": 85,
            "A": 86.0625,
            "B": 86.625,
            "C": 86.6875,
            "D": 87.75,
            "E": 89.5,
            "F": 90.3125,
            "G": 90,
            "H": 89.86666666666666,
            "I": 87.33333333333333,
            "J": 88.93333333333334,
            "K": 89.13333333333334
        },
        "bus2": {
            "H": 94,
            "I": 93.375,
            "J": 93.25,
            "K": 91.1875,
            "L": 89.1875,
            "A": 89.0625,
            "B": 94.2,
            "C": 96.2,
            "D": 97.06666666666666,
            "E": 96.6,
            "F": 97.26666666666667,
            "G": 99.26666666666667
        },
        "bus0": {
            "C": 58.4375,
            "D": 59.375,
            "E": 60.125,
            "F": 61,
            "G": 61.5,
            "H": 63,
            "I": 64.9375,
            "J": 65.625,
            "K": 64.26666666666667,
            "L": 65.53333333333333,
            "A": 65.53333333333333,
            "B": 64.93333333333334
        },
        "bus4": {
            "J": 68.8125,
            "K": 69.25,
            "L": 71.125,
            "A": 71.25,
            "B": 74.75,
            "C": 74.4375,
            "D": 74.5625,
            "E": 74.5,
            "F": 70.26666666666667,
            "G": 70.73333333333333,
            "H": 71.2,
            "I": 71.73333333333333
        },
        "bus3": {
            "I": 94.25,
            "J": 93.5625,
            "K": 93.875,
            "L": 93.9375,
            "A": 93.1875,
            "B": 94.1875,
            "C": 95,
            "D": 92.6,
            "E": 92.73333333333333,
            "F": 94.6,
            "G": 96.4,
            "H": 99.66666666666667
        },
        "bus1": {
            "G": 64.125,
            "H": 64.25,
            "I": 67.625,
            "J": 68.25,
            "K": 67.6875,
            "L": 68.3125,
            "A": 69.8,
            "B": 68.2,
            "C": 67.6,
            "D": 69.06666666666666,
            "E": 68.6,
            "F": 68.86666666666666
        }
    },
    "Obs_and_actions_busses": {
        "0": -306.3071030875784,
        "1": 212.6434137066254,
        "4": 434.37984294810246
    },
    "Obs_and_actions_tfls": {
        "0": 87.23081147671701
    }
}