{
    "Average_holding_time": 61.83673469387755,
    "Average_holding_actions": [
        379,
        40,
        35,
        0,
        281,
        0
    ],
    "Average_travel_time_passengers": 4744.722592659954,
    "Average_passenger_waiting_time": 1163.186893007721,
    "Average_passenger_in_vehicle_time": 3581.5356996521336,
    "Average_speed_busses": 0.030625,
    "Average_experienced_crowding": 311.8902115580229,
    "Average_covariation_headway": 1.5195351166880355,
    "Average_covariation_headway_stops": {
        "L": 1.4863140950516436,
        "G": 1.4172820911995443,
        "K": 1.528652486627264,
        "E": 1.3706683459359863,
        "A": 1.3166706558295749,
        "I": 1.4677809591110895,
        "H": 1.4338662739342298,
        "B": 1.3183058900343834,
        "J": 1.4938885429645392,
        "F": 1.38086968720363,
        "C": 1.3398317153479335,
        "D": 1.3525091368119257
    },
    "Average_excess_waiting_time": {
        "L": 1302.8354249495042,
        "G": 1079.4640959440721,
        "K": 1260.4406454873865,
        "E": 1006.2742034918081,
        "A": 895.779494890377,
        "I": 1160.7676581327044,
        "H": 1119.37502502042,
        "B": 912.7360287852532,
        "J": 1216.3636699404938,
        "F": 1036.0407737309636,
        "C": 955.6689077776734,
        "D": 987.0822574504461
    },
    "Holding_per_stop": {
        "L": 61.016949152542374,
        "G": 60,
        "A": 57.5,
        "K": 59.53125,
        "I": 58.095238095238095,
        "E": 61.47540983606557,
        "H": 61.935483870967744,
        "B": 59,
        "J": 66.19047619047619,
        "F": 69.8360655737705,
        "C": 65,
        "D": 62.5
    },
    "Actions_tfl_edges": {
        "DE": [
            61,
            0,
            0
        ],
        "FG": [
            62,
            0,
            0
        ],
        "HI": [
            63,
            0,
            0
        ],
        "JK": [
            64,
            0,
            0
        ],
        "KL": [
            65,
            0,
            0
        ],
        "LA": [
            60,
            0,
            0
        ],
        "GH": [
            62,
            0,
            0
        ],
        "AB": [
            60,
            0,
            0
        ],
        "IJ": [
            63,
            0,
            0
        ],
        "EF": [
            61,
            0,
            0
        ],
        "BC": [
            60,
            0,
            0
        ],
        "CD": [
            60,
            0,
            0
        ]
    },
    "Load_per_bus_per_stop": {
        "bus4": {
            "L": 27.2,
            "A": 27,
            "B": 28.2,
            "C": 28.1,
            "D": 27.3,
            "E": 28.6,
            "F": 30.2,
            "G": 29.6,
            "H": 29.2,
            "I": 29.9,
            "J": 30.2,
            "K": 30.8
        },
        "bus1": {
            "G": 59.54545454545455,
            "H": 62.27272727272727,
            "I": 65.45454545454545,
            "J": 67.0909090909091,
            "K": 64.81818181818181,
            "L": 68.2,
            "A": 68.8,
            "B": 67.1,
            "C": 67.2,
            "D": 64.7,
            "E": 66,
            "F": 65.4
        },
        "bus3": {
            "K": 7.909090909090909,
            "L": 8.4,
            "A": 8.6,
            "B": 9,
            "C": 10.3,
            "D": 10.8,
            "E": 10.3,
            "F": 10.6,
            "G": 10.6,
            "H": 10.5,
            "I": 9.5,
            "J": 8.6
        },
        "bus0": {
            "E": 200.54545454545453,
            "F": 201.72727272727272,
            "G": 199.72727272727272,
            "H": 198.0909090909091,
            "I": 196.63636363636363,
            "J": 194,
            "K": 192.9090909090909,
            "L": 211.1,
            "A": 214,
            "B": 214.5,
            "C": 217.8,
            "D": 219.4
        },
        "bus5": {
            "A": 305.6,
            "B": 308.4,
            "C": 317.4,
            "D": 327,
            "E": 337.6,
            "F": 348.5,
            "G": 360.5,
            "H": 366.3,
            "I": 373.4,
            "J": 381.2,
            "K": 382.3,
            "L": 392.5
        },
        "bus2": {
            "I": 14.090909090909092,
            "J": 14.454545454545455,
            "K": 14.181818181818182,
            "L": 15.7,
            "A": 16.1,
            "B": 15.7,
            "C": 15.9,
            "D": 15.1,
            "E": 15.5,
            "F": 15.8,
            "G": 16.7,
            "H": 15.1
        }
    },
    "Obs_and_actions_busses": {
        "0": -40.4712105925445,
        "2": 378.0667241808603,
        "5": 325.69264888225,
        "1": -1955.9759223478713
    },
    "Obs_and_actions_tfls": {
        "0": 55.379826439464445
    }
}