{
    "Average_holding_time": 11.686643835616438,
    "Average_holding_actions": [
        1047,
        0,
        50,
        0,
        71,
        0
    ],
    "Average_travel_time_passengers": 2662.666593193523,
    "Average_passenger_waiting_time": 342.44929470430145,
    "Average_passenger_in_vehicle_time": 2320.217298489199,
    "Average_speed_busses": 0.048666666666666664,
    "Average_experienced_crowding": 85.07360874906747,
    "Average_covariation_headway": 0.5007880424463185,
    "Average_covariation_headway_stops": {
        "E": 0.4032405774376122,
        "K": 0.3728783451524044,
        "H": 0.38164818010194007,
        "D": 0.3992025174955334,
        "C": 0.39135107598304314,
        "A": 0.3824191682992398,
        "F": 0.39422379362808835,
        "I": 0.37702466336964957,
        "B": 0.39472755073136867,
        "L": 0.3623675222257048,
        "G": 0.387896360559684,
        "J": 0.36693833143774857
    },
    "Average_excess_waiting_time": {
        "E": 74.07176748424433,
        "K": 72.03860351604584,
        "H": 74.07787951434341,
        "D": 74.99415251671968,
        "C": 74.51385125906461,
        "A": 74.03230450506555,
        "F": 74.59046878959037,
        "I": 76.65710869178878,
        "B": 77.29079819707033,
        "L": 71.42489192068075,
        "G": 74.81044000191639,
        "J": 72.38466784482722
    },
    "Holding_per_stop": {
        "E": 11.212121212121213,
        "H": 10.206185567010309,
        "D": 9.489795918367347,
        "A": 10.206185567010309,
        "K": 14.845360824742269,
        "C": 9.795918367346939,
        "F": 12.244897959183673,
        "I": 14.375,
        "B": 15.154639175257731,
        "L": 8.969072164948454,
        "G": 15.612244897959183,
        "J": 8.125
    },
    "Actions_tfl_edges": {
        "BC": [
            98,
            0,
            0
        ],
        "CD": [
            99,
            0,
            0
        ],
        "DE": [
            99,
            0,
            0
        ],
        "GH": [
            99,
            0,
            0
        ],
        "JK": [
            97,
            0,
            0
        ],
        "LA": [
            98,
            0,
            0
        ],
        "EF": [
            99,
            0,
            0
        ],
        "HI": [
            97,
            0,
            0
        ],
        "AB": [
            97,
            0,
            0
        ],
        "KL": [
            97,
            0,
            0
        ],
        "FG": [
            98,
            0,
            0
        ],
        "IJ": [
            96,
            0,
            0
        ]
    },
    "Load_per_bus_per_stop": {
        "bus2": {
            "E": 82.94117647058823,
            "F": 83.58823529411765,
            "G": 81.05882352941177,
            "H": 81.05882352941177,
            "I": 84.8125,
            "J": 86.5625,
            "K": 88,
            "L": 88.5,
            "A": 89.625,
            "B": 88.9375,
            "C": 89.0625,
            "D": 87.625
        },
        "bus4": {
            "K": 89.3529411764706,
            "L": 91.52941176470588,
            "A": 91.3529411764706,
            "B": 91.0625,
            "C": 91.1875,
            "D": 93.3125,
            "E": 92.9375,
            "F": 93.875,
            "G": 93.625,
            "H": 90.6875,
            "I": 93.0625,
            "J": 94.3125
        },
        "bus3": {
            "H": 60.11764705882353,
            "I": 61.35294117647059,
            "J": 55.625,
            "K": 56.3125,
            "L": 58.0625,
            "A": 60.3125,
            "B": 61,
            "C": 62.5,
            "D": 64.3125,
            "E": 65.3125,
            "F": 63.625,
            "G": 63.4375
        },
        "bus1": {
            "D": 56.11764705882353,
            "E": 54.64705882352941,
            "F": 55.294117647058826,
            "G": 55.11764705882353,
            "H": 56.5625,
            "I": 56.25,
            "J": 57.6875,
            "K": 58.0625,
            "L": 58.75,
            "A": 60.0625,
            "B": 58.4375,
            "C": 58.25
        },
        "bus0": {
            "C": 72.94117647058823,
            "D": 74.76470588235294,
            "E": 74.82352941176471,
            "F": 75.4375,
            "G": 76.5625,
            "H": 79.1875,
            "I": 79.875,
            "J": 77.625,
            "K": 78.375,
            "L": 77.375,
            "A": 75.3125,
            "B": 76.625
        },
        "bus5": {
            "A": 78.94117647058823,
            "B": 80.58823529411765,
            "C": 82.41176470588235,
            "D": 82.625,
            "E": 83.75,
            "F": 81.0625,
            "G": 81.9375,
            "H": 80.6875,
            "I": 82.375,
            "J": 82.6875,
            "K": 84.3125,
            "L": 85
        }
    },
    "Obs_and_actions_busses": {
        "0": -161.8135226265197,
        "2": 369.58079512729057,
        "5": 345.5847881229099
    },
    "Obs_and_actions_tfls": {
        "0": 114.54238939370454
    }
}