{
    "Average_holding_time": 19.947089947089946,
    "Average_holding_actions": [
        578,
        389,
        140,
        0,
        2,
        0
    ],
    "Average_travel_time_passengers": 2727.063010155199,
    "Average_passenger_waiting_time": 330.58192372642213,
    "Average_passenger_in_vehicle_time": 2396.4810864287365,
    "Average_speed_busses": 0.04725,
    "Average_experienced_crowding": 82.95486742314255,
    "Average_covariation_headway": 0.3333320853385283,
    "Average_covariation_headway_stops": {
        "D": 0.2376381452485268,
        "A": 0.2824973196396791,
        "J": 0.26265876707470875,
        "L": 0.2727024909062883,
        "F": 0.25318248267049326,
        "I": 0.2760543794065708,
        "B": 0.2644277103482652,
        "K": 0.25782404923931784,
        "G": 0.2483896009565515,
        "E": 0.22911400246149477,
        "C": 0.24452882090420275,
        "H": 0.2699024122984044
    },
    "Average_excess_waiting_time": {
        "D": 55.86308121636904,
        "A": 61.80964810625426,
        "J": 60.96787168670488,
        "L": 61.838374652757864,
        "F": 58.84941425418111,
        "I": 64.69835436622856,
        "B": 61.203808861193124,
        "K": 61.18189126245704,
        "G": 60.31574007748054,
        "E": 57.089966655494095,
        "C": 58.79493376212645,
        "H": 65.46704423490496
    },
    "Holding_per_stop": {
        "A": 15.789473684210526,
        "J": 19.263157894736842,
        "D": 18.63157894736842,
        "F": 18.94736842105263,
        "L": 19.263157894736842,
        "I": 23.29787234042553,
        "B": 20.526315789473685,
        "K": 20.74468085106383,
        "G": 19.148936170212767,
        "E": 18.829787234042552,
        "C": 23.29787234042553,
        "H": 21.70212765957447
    },
    "Actions_tfl_edges": {
        "CD": [
            95,
            0,
            0
        ],
        "EF": [
            95,
            0,
            0
        ],
        "HI": [
            95,
            0,
            0
        ],
        "IJ": [
            95,
            0,
            0
        ],
        "KL": [
            95,
            0,
            0
        ],
        "LA": [
            96,
            0,
            0
        ],
        "AB": [
            95,
            0,
            0
        ],
        "JK": [
            94,
            0,
            0
        ],
        "DE": [
            95,
            0,
            0
        ],
        "FG": [
            95,
            0,
            0
        ],
        "BC": [
            94,
            0,
            0
        ],
        "GH": [
            94,
            0,
            0
        ]
    },
    "Load_per_bus_per_stop": {
        "bus0": {
            "D": 86.25,
            "E": 84.75,
            "F": 85.125,
            "G": 85.8125,
            "H": 84.5,
            "I": 84.8125,
            "J": 84.9375,
            "K": 85.9375,
            "L": 87,
            "A": 90.33333333333333,
            "B": 91.06666666666666,
            "C": 91.53333333333333
        },
        "bus5": {
            "A": 89.1875,
            "B": 88.625,
            "C": 90.3125,
            "D": 91.875,
            "E": 92.25,
            "F": 92.1875,
            "G": 91.75,
            "H": 92.9375,
            "I": 93.625,
            "J": 94.875,
            "K": 94.33333333333333,
            "L": 93.13333333333334
        },
        "bus3": {
            "J": 74.5,
            "K": 73.5625,
            "L": 74.9375,
            "A": 74.6875,
            "B": 76.375,
            "C": 78.8125,
            "D": 79.9375,
            "E": 80.8125,
            "F": 79.5,
            "G": 79.13333333333334,
            "H": 79.6,
            "I": 79.33333333333333
        },
        "bus4": {
            "L": 63.3125,
            "A": 64.125,
            "B": 65.8125,
            "C": 67.125,
            "D": 68.0625,
            "E": 68.875,
            "F": 69.625,
            "G": 66.75,
            "H": 64.75,
            "I": 64.86666666666666,
            "J": 65.73333333333333,
            "K": 65.93333333333334
        },
        "bus1": {
            "F": 78,
            "G": 78.1875,
            "H": 77.3125,
            "I": 77.8125,
            "J": 76.25,
            "K": 78.625,
            "L": 78.5,
            "A": 78.25,
            "B": 78.75,
            "C": 78.73333333333333,
            "D": 80.33333333333333,
            "E": 82.53333333333333
        },
        "bus2": {
            "I": 72.3125,
            "J": 72.25,
            "K": 72.9375,
            "L": 72.5625,
            "A": 72.625,
            "B": 74.3125,
            "C": 75.25,
            "D": 77.0625,
            "E": 77.73333333333333,
            "F": 77.93333333333334,
            "G": 78.53333333333333,
            "H": 77.86666666666666
        }
    },
    "Obs_and_actions_busses": {
        "0": -287.7661072927633,
        "1": 55.300901114586885,
        "2": 189.034127428262,
        "3": 356.61621115173097,
        "5": 491.1588373266536
    },
    "Obs_and_actions_tfls": {
        "0": 123.3664444581117
    }
}