{
    "Average_holding_time": 17.647058823529413,
    "Average_holding_actions": [
        724,
        145,
        250,
        0,
        3,
        0
    ],
    "Average_travel_time_passengers": 2824.366189503091,
    "Average_passenger_waiting_time": 415.7797651157677,
    "Average_passenger_in_vehicle_time": 2408.5864243872857,
    "Average_speed_busses": 0.04675,
    "Average_experienced_crowding": 103.7872904466732,
    "Average_covariation_headway": 0.7182635716789707,
    "Average_covariation_headway_stops": {
        "G": 0.5631804894256325,
        "I": 0.5670760486082775,
        "C": 0.5877754238183023,
        "D": 0.5809416945707319,
        "J": 0.5689009124681836,
        "H": 0.5668425774462545,
        "E": 0.5792556531582643,
        "K": 0.5463694788333978,
        "F": 0.5655169933031035,
        "L": 0.5530943505803387,
        "A": 0.5650537861149616,
        "B": 0.5848600699022983
    },
    "Average_excess_waiting_time": {
        "G": 142.66576153101278,
        "I": 139.0689915295955,
        "C": 153.62121054103147,
        "D": 148.6911048719346,
        "J": 139.20050323611952,
        "H": 140.52438710422575,
        "E": 148.19039192156936,
        "K": 137.1259130724,
        "F": 145.25441317959934,
        "L": 140.60718296729067,
        "A": 147.58381092308156,
        "B": 154.90267900855542
    },
    "Holding_per_stop": {
        "I": 18,
        "D": 19.78723404255319,
        "J": 18.94736842105263,
        "H": 16.27659574468085,
        "G": 19.148936170212767,
        "C": 14.838709677419354,
        "E": 20.64516129032258,
        "K": 17.096774193548388,
        "F": 18.70967741935484,
        "L": 17.741935483870968,
        "A": 15.483870967741936,
        "B": 15
    },
    "Actions_tfl_edges": {
        "BC": [
            93,
            0,
            0
        ],
        "CD": [
            94,
            0,
            0
        ],
        "FG": [
            94,
            0,
            0
        ],
        "GH": [
            95,
            0,
            0
        ],
        "HI": [
            95,
            0,
            0
        ],
        "IJ": [
            96,
            0,
            0
        ],
        "DE": [
            94,
            0,
            0
        ],
        "JK": [
            95,
            0,
            0
        ],
        "EF": [
            93,
            0,
            0
        ],
        "KL": [
            93,
            0,
            0
        ],
        "LA": [
            93,
            0,
            0
        ],
        "AB": [
            93,
            0,
            0
        ]
    },
    "Load_per_bus_per_stop": {
        "bus2": {
            "G": 97.875,
            "H": 97.8125,
            "I": 97.1875,
            "J": 99.125,
            "K": 102.5,
            "L": 102.33333333333333,
            "A": 101.53333333333333,
            "B": 103.2,
            "C": 106.66666666666667,
            "D": 106.73333333333333,
            "E": 105.4,
            "F": 106.46666666666667
        },
        "bus4": {
            "I": 45.8125,
            "J": 46.3125,
            "K": 46.5,
            "L": 47.5,
            "A": 48.625,
            "B": 48.3125,
            "C": 50.0625,
            "D": 50.1875,
            "E": 46.266666666666666,
            "F": 46.6,
            "G": 48.2,
            "H": 48
        },
        "bus0": {
            "C": 73.875,
            "D": 74.125,
            "E": 75.1875,
            "F": 77.5625,
            "G": 76.0625,
            "H": 76.75,
            "I": 76.875,
            "J": 77.53333333333333,
            "K": 77.26666666666667,
            "L": 78,
            "A": 78.2,
            "B": 78.93333333333334
        },
        "bus1": {
            "D": 107.875,
            "E": 108.0625,
            "F": 108.5625,
            "G": 108.875,
            "H": 110.0625,
            "I": 111.125,
            "J": 108.8125,
            "K": 115.46666666666667,
            "L": 114,
            "A": 114.4,
            "B": 115.53333333333333,
            "C": 114.2
        },
        "bus5": {
            "J": 55.1875,
            "K": 57,
            "L": 57,
            "A": 56.875,
            "B": 57.4375,
            "C": 57.4375,
            "D": 57.8125,
            "E": 56.9375,
            "F": 56.375,
            "G": 55.8125,
            "H": 55.93333333333333,
            "I": 56.93333333333333
        },
        "bus3": {
            "H": 81.3125,
            "I": 82,
            "J": 82.9375,
            "K": 82.5,
            "L": 81.5625,
            "A": 82.375,
            "B": 81.06666666666666,
            "C": 82.6,
            "D": 84.53333333333333,
            "E": 86.33333333333333,
            "F": 87.4,
            "G": 86.13333333333334
        }
    },
    "Obs_and_actions_busses": {
        "5": 950.6511859786938,
        "2": 370.5250183988147,
        "0": -327.4301000052505,
        "1": 154.36371995361307
    },
    "Obs_and_actions_tfls": {
        "0": 88.5431895817472
    }
}