{
    "Average_holding_time": 11.994840928632845,
    "Average_holding_actions": [
        1031,
        0,
        65,
        0,
        67,
        0
    ],
    "Average_travel_time_passengers": 2638.728442127973,
    "Average_passenger_waiting_time": 334.37320556683784,
    "Average_passenger_in_vehicle_time": 2304.355236561123,
    "Average_speed_busses": 0.04845833333333333,
    "Average_experienced_crowding": 82.0690785226046,
    "Average_covariation_headway": 0.4320669653699616,
    "Average_covariation_headway_stops": {
        "E": 0.33062522253106996,
        "F": 0.322110899935263,
        "I": 0.3025580879928555,
        "L": 0.32195112611997556,
        "C": 0.3318471713506974,
        "A": 0.33568132289818353,
        "G": 0.31151317802169454,
        "J": 0.2822292136738339,
        "D": 0.3394226207452477,
        "B": 0.3297260718446934,
        "K": 0.29261018289438284,
        "H": 0.2963890691364121
    },
    "Average_excess_waiting_time": {
        "E": 62.013243641856945,
        "F": 58.23675998321613,
        "I": 59.91430386651166,
        "L": 63.90422658040518,
        "C": 62.7564811000712,
        "A": 65.8104574842522,
        "G": 58.3664520348035,
        "J": 56.65221315761153,
        "D": 66.21572584725936,
        "B": 66.18228171902541,
        "K": 60.19283470605876,
        "H": 58.29601823822571
    },
    "Holding_per_stop": {
        "F": 9.183673469387756,
        "I": 16.391752577319586,
        "E": 15.77319587628866,
        "C": 9.896907216494846,
        "L": 11.1340206185567,
        "A": 12.68041237113402,
        "G": 10.714285714285714,
        "J": 9.6875,
        "D": 19.175257731958762,
        "B": 18.125,
        "H": 5.56701030927835,
        "K": 5.625
    },
    "Actions_tfl_edges": {
        "BC": [
            97,
            0,
            0
        ],
        "DE": [
            98,
            0,
            0
        ],
        "EF": [
            98,
            0,
            0
        ],
        "HI": [
            98,
            0,
            0
        ],
        "KL": [
            97,
            0,
            0
        ],
        "LA": [
            98,
            0,
            0
        ],
        "FG": [
            98,
            0,
            0
        ],
        "IJ": [
            97,
            0,
            0
        ],
        "CD": [
            97,
            0,
            0
        ],
        "AB": [
            97,
            0,
            0
        ],
        "GH": [
            98,
            0,
            0
        ],
        "JK": [
            96,
            0,
            0
        ]
    },
    "Load_per_bus_per_stop": {
        "bus1": {
            "E": 60.94117647058823,
            "F": 61.64705882352941,
            "G": 62.35294117647059,
            "H": 61.875,
            "I": 62.8125,
            "J": 62.625,
            "K": 63.1875,
            "L": 63.8125,
            "A": 63.75,
            "B": 62.875,
            "C": 65.0625,
            "D": 64.5
        },
        "bus2": {
            "F": 70.76470588235294,
            "G": 69.11764705882354,
            "H": 68.11764705882354,
            "I": 72.6875,
            "J": 71.875,
            "K": 71.8125,
            "L": 72.8125,
            "A": 72.3125,
            "B": 72.875,
            "C": 75.0625,
            "D": 74.6875,
            "E": 74.8125
        },
        "bus3": {
            "I": 85.6470588235294,
            "J": 84.875,
            "K": 83.9375,
            "L": 84.6875,
            "A": 85,
            "B": 86.0625,
            "C": 87,
            "D": 86.625,
            "E": 86.5625,
            "F": 87.625,
            "G": 89.5625,
            "H": 90.1875
        },
        "bus4": {
            "L": 72.94117647058823,
            "A": 76.3125,
            "B": 76.4375,
            "C": 75.75,
            "D": 75.4375,
            "E": 75.6875,
            "F": 75.5,
            "G": 77.3125,
            "H": 77.6875,
            "I": 77.5,
            "J": 79.25,
            "K": 76.6875
        },
        "bus0": {
            "C": 75.76470588235294,
            "D": 76.29411764705883,
            "E": 74.5,
            "F": 73.8125,
            "G": 74.125,
            "H": 75.4375,
            "I": 77.125,
            "J": 77.5,
            "K": 78.0625,
            "L": 80.8125,
            "A": 80.25,
            "B": 79.5625
        },
        "bus5": {
            "A": 81.70588235294117,
            "B": 81.76470588235294,
            "C": 79.3125,
            "D": 81.3125,
            "E": 83.9375,
            "F": 84.5625,
            "G": 83.875,
            "H": 84.1875,
            "I": 83.6875,
            "J": 84.4375,
            "K": 85.125,
            "L": 86.375
        }
    },
    "Obs_and_actions_busses": {
        "2": 374.7320173407658,
        "0": -180.2470317253641,
        "5": 375.4745123706299
    },
    "Obs_and_actions_tfls": {
        "0": 112.73610192705804
    }
}