{
    "Average_holding_time": 17.904929577464788,
    "Average_holding_actions": [
        922,
        0,
        0,
        36,
        0,
        0
    ],
    "Average_travel_time_passengers": 2666.0075774110887,
    "Average_passenger_waiting_time": 326.93855833834976,
    "Average_passenger_in_vehicle_time": 2339.069019072728,
    "Average_speed_busses": 0.04733333333333333,
    "Average_experienced_crowding": 79.36678848641348,
    "Average_covariation_headway": 0.3097058533047799,
    "Average_covariation_headway_stops": {
        "J": 0.25210547005294975,
        "I": 0.2464340016485647,
        "H": 0.2460198782045262,
        "C": 0.24217630307310276,
        "L": 0.24283775909387756,
        "A": 0.24880797978614871,
        "D": 0.23107798437479132,
        "K": 0.2473802221150909,
        "B": 0.24930742948708667,
        "E": 0.19670819719685523,
        "F": 0.21082787844840511,
        "G": 0.2356159017440078
    },
    "Average_excess_waiting_time": {
        "J": 57.245214595580194,
        "I": 57.494959897518925,
        "H": 58.5689464045596,
        "C": 54.66109696563581,
        "L": 55.635039380160435,
        "A": 55.58120814818699,
        "D": 54.74620600401522,
        "K": 57.89382106772001,
        "B": 58.03343510032511,
        "E": 50.87330903617186,
        "F": 54.21486244676976,
        "G": 59.1506874569493
    },
    "Holding_per_stop": {
        "J": 17.05263157894737,
        "I": 8.842105263157896,
        "C": 18,
        "L": 21.789473684210527,
        "A": 18.63157894736842,
        "H": 16.27659574468085,
        "D": 18.63157894736842,
        "K": 25.57894736842105,
        "B": 17.05263157894737,
        "E": 15.638297872340425,
        "F": 16.914893617021278,
        "G": 20.425531914893618
    },
    "Actions_tfl_edges": {
        "BC": [
            96,
            0,
            0
        ],
        "GH": [
            95,
            0,
            0
        ],
        "HI": [
            95,
            0,
            0
        ],
        "IJ": [
            96,
            0,
            0
        ],
        "KL": [
            96,
            0,
            0
        ],
        "LA": [
            96,
            0,
            0
        ],
        "JK": [
            95,
            0,
            0
        ],
        "CD": [
            95,
            0,
            0
        ],
        "AB": [
            95,
            0,
            0
        ],
        "DE": [
            95,
            0,
            0
        ],
        "EF": [
            94,
            0,
            0
        ],
        "FG": [
            94,
            0,
            0
        ]
    },
    "Load_per_bus_per_stop": {
        "bus3": {
            "J": 69.5625,
            "K": 73.3125,
            "L": 70.625,
            "A": 69.875,
            "B": 72,
            "C": 73.3125,
            "D": 74.875,
            "E": 74.5,
            "F": 74.375,
            "G": 73.8125,
            "H": 71.6875,
            "I": 73.26666666666667
        },
        "bus2": {
            "I": 73.625,
            "J": 75.6875,
            "K": 76.1875,
            "L": 75.8125,
            "A": 74.625,
            "B": 75.0625,
            "C": 75.3125,
            "D": 76.9375,
            "E": 76.06666666666666,
            "F": 76.4,
            "G": 77.2,
            "H": 77.53333333333333
        },
        "bus1": {
            "H": 72.375,
            "I": 75.25,
            "J": 76.125,
            "K": 78.4375,
            "L": 77.875,
            "A": 78.6875,
            "B": 77.3125,
            "C": 77.66666666666667,
            "D": 76.86666666666666,
            "E": 77.66666666666667,
            "F": 76.93333333333334,
            "G": 78
        },
        "bus0": {
            "C": 85.375,
            "D": 83.375,
            "E": 82.4375,
            "F": 82.9375,
            "G": 84.875,
            "H": 87.75,
            "I": 87.5625,
            "J": 89.125,
            "K": 88.5625,
            "L": 90.125,
            "A": 91.6875,
            "B": 91.2
        },
        "bus4": {
            "L": 70.875,
            "A": 70.5625,
            "B": 70.3125,
            "C": 72.0625,
            "D": 72.3125,
            "E": 72.75,
            "F": 73.3125,
            "G": 73.75,
            "H": 72.5625,
            "I": 73.6875,
            "J": 73.8,
            "K": 73.33333333333333
        },
        "bus5": {
            "A": 75,
            "B": 73.75,
            "C": 73.6875,
            "D": 74.625,
            "E": 74.0625,
            "F": 75.625,
            "G": 75.5625,
            "H": 76.4375,
            "I": 75.875,
            "J": 76.125,
            "K": 77.5625,
            "L": 78.73333333333333
        }
    },
    "Obs_and_actions_busses": {
        "0": -184.55344489744314,
        "3": 162.05707214676048,
        "4": 349.8032534099289
    },
    "Obs_and_actions_tfls": {
        "0": 109.67510620010131
    }
}