{
    "Average_holding_time": 19.20424403183024,
    "Average_holding_actions": [
        913,
        0,
        0,
        70,
        0,
        0
    ],
    "Average_travel_time_passengers": 2711.449366483784,
    "Average_passenger_waiting_time": 331.3384645147915,
    "Average_passenger_in_vehicle_time": 2380.110901968999,
    "Average_speed_busses": 0.047125,
    "Average_experienced_crowding": 82.27889718766363,
    "Average_covariation_headway": 0.3576699992731852,
    "Average_covariation_headway_stops": {
        "K": 0.2563389721404107,
        "E": 0.24747743133075611,
        "J": 0.2618857484540411,
        "B": 0.276283302607676,
        "H": 0.2966321923611287,
        "C": 0.2749941020828548,
        "F": 0.25366914944526975,
        "L": 0.23392373090291224,
        "I": 0.2614128466814728,
        "D": 0.2373193902414543,
        "A": 0.26861948731345314,
        "G": 0.27315260233616173
    },
    "Average_excess_waiting_time": {
        "K": 59.10946988959648,
        "E": 57.49277957065192,
        "J": 62.04226082447417,
        "B": 63.53191143983179,
        "H": 68.22062513127332,
        "C": 61.46777458629879,
        "F": 59.69085895782899,
        "L": 56.850825337584126,
        "I": 63.407030458920474,
        "D": 56.828163667559295,
        "A": 64.95969750039723,
        "G": 64.96495714982933
    },
    "Holding_per_stop": {
        "K": 21.789473684210527,
        "E": 13.894736842105264,
        "H": 18.51063829787234,
        "C": 27.157894736842106,
        "B": 15.638297872340425,
        "J": 28.085106382978722,
        "F": 17.872340425531913,
        "L": 9.893617021276595,
        "D": 22.340425531914892,
        "I": 19.46808510638298,
        "A": 13.72340425531915,
        "G": 22.02127659574468
    },
    "Actions_tfl_edges": {
        "AB": [
            95,
            0,
            0
        ],
        "BC": [
            95,
            0,
            0
        ],
        "DE": [
            95,
            0,
            0
        ],
        "GH": [
            95,
            0,
            0
        ],
        "IJ": [
            95,
            0,
            0
        ],
        "JK": [
            95,
            0,
            0
        ],
        "KL": [
            95,
            0,
            0
        ],
        "EF": [
            95,
            0,
            0
        ],
        "HI": [
            94,
            0,
            0
        ],
        "CD": [
            95,
            0,
            0
        ],
        "FG": [
            94,
            0,
            0
        ],
        "LA": [
            94,
            0,
            0
        ]
    },
    "Load_per_bus_per_stop": {
        "bus5": {
            "K": 89.75,
            "L": 89.5,
            "A": 91.5,
            "B": 90.125,
            "C": 90.0625,
            "D": 90.375,
            "E": 90.625,
            "F": 90.3125,
            "G": 91.875,
            "H": 93.86666666666666,
            "I": 95.4,
            "J": 96.2
        },
        "bus2": {
            "E": 78.0625,
            "F": 80.5625,
            "G": 83.3125,
            "H": 84.1875,
            "I": 86.5625,
            "J": 86.875,
            "K": 88.375,
            "L": 86.625,
            "A": 85.1875,
            "B": 83.66666666666667,
            "C": 82.33333333333333,
            "D": 84
        },
        "bus4": {
            "J": 66.4375,
            "K": 66.1875,
            "L": 68.5625,
            "A": 69.375,
            "B": 70.75,
            "C": 73.4375,
            "D": 73,
            "E": 72,
            "F": 72.2,
            "G": 72.26666666666667,
            "H": 70.93333333333334,
            "I": 70.46666666666667
        },
        "bus0": {
            "B": 76,
            "C": 78.125,
            "D": 77.625,
            "E": 78.25,
            "F": 77.875,
            "G": 77.125,
            "H": 74.1875,
            "I": 77.25,
            "J": 77.26666666666667,
            "K": 77.73333333333333,
            "L": 76.6,
            "A": 80.53333333333333
        },
        "bus3": {
            "H": 77.875,
            "I": 77.125,
            "J": 77.875,
            "K": 78.8125,
            "L": 79.9375,
            "A": 80.5625,
            "B": 79.625,
            "C": 80.3125,
            "D": 82.53333333333333,
            "E": 82.53333333333333,
            "F": 81.66666666666667,
            "G": 83
        },
        "bus1": {
            "C": 65.375,
            "D": 66.4375,
            "E": 65.6875,
            "F": 67.25,
            "G": 68,
            "H": 68.5625,
            "I": 66.9375,
            "J": 66.375,
            "K": 66.375,
            "L": 67.25,
            "A": 66.93333333333334,
            "B": 69.26666666666667
        }
    },
    "Obs_and_actions_busses": {
        "0": -184.11451305319596,
        "3": 136.3963337100243,
        "4": 338.6985245151933
    },
    "Obs_and_actions_tfls": {
        "0": 108.45138897698556
    }
}