{
    "Average_holding_time": 17.893805309734514,
    "Average_holding_actions": [
        747,
        286,
        0,
        97,
        0,
        0
    ],
    "Average_travel_time_passengers": 2786.9048818195824,
    "Average_passenger_waiting_time": 390.4306819243906,
    "Average_passenger_in_vehicle_time": 2396.474199895112,
    "Average_speed_busses": 0.04708333333333333,
    "Average_experienced_crowding": 96.2789097131477,
    "Average_covariation_headway": 0.6232775494855685,
    "Average_covariation_headway_stops": {
        "L": 0.5357991016072842,
        "G": 0.5114942875226773,
        "C": 0.5079096038403697,
        "D": 0.5011851693748416,
        "I": 0.5201460251206566,
        "F": 0.4998906431088606,
        "A": 0.5263041207206319,
        "E": 0.49115152481885804,
        "J": 0.5105655232399029,
        "H": 0.50571659536626,
        "K": 0.5097928919065243,
        "B": 0.5168601485060417
    },
    "Average_excess_waiting_time": {
        "L": 127.42715686682453,
        "G": 120.80247686307513,
        "C": 123.25131774840185,
        "D": 122.34276311887197,
        "I": 121.48849057502548,
        "F": 119.52148043163709,
        "A": 126.15832275576969,
        "E": 118.16833707292807,
        "J": 120.35061575618067,
        "H": 119.25260853689076,
        "K": 121.2416997963478,
        "B": 125.83191462633965
    },
    "Holding_per_stop": {
        "L": 26.210526315789473,
        "G": 17.36842105263158,
        "D": 21.612903225806452,
        "I": 15.473684210526315,
        "F": 12.127659574468085,
        "C": 19.78723404255319,
        "A": 20.106382978723403,
        "E": 13.870967741935484,
        "J": 20.526315789473685,
        "H": 19.46808510638298,
        "K": 17.5531914893617,
        "B": 10.53191489361702
    },
    "Actions_tfl_edges": {
        "BC": [
            95,
            0,
            0
        ],
        "CD": [
            95,
            0,
            0
        ],
        "EF": [
            94,
            0,
            0
        ],
        "FG": [
            95,
            0,
            0
        ],
        "HI": [
            95,
            0,
            0
        ],
        "KL": [
            95,
            0,
            0
        ],
        "LA": [
            95,
            0,
            0
        ],
        "GH": [
            95,
            0,
            0
        ],
        "DE": [
            93,
            0,
            0
        ],
        "IJ": [
            95,
            0,
            0
        ],
        "AB": [
            94,
            0,
            0
        ],
        "JK": [
            95,
            0,
            0
        ]
    },
    "Load_per_bus_per_stop": {
        "bus5": {
            "L": 91.4375,
            "A": 92.5625,
            "B": 93.1875,
            "C": 95.875,
            "D": 95,
            "E": 96.5,
            "F": 96.4375,
            "G": 96.1875,
            "H": 95.4,
            "I": 96.53333333333333,
            "J": 97,
            "K": 97
        },
        "bus3": {
            "G": 78.1875,
            "H": 78.6875,
            "I": 77.75,
            "J": 77.375,
            "K": 77.875,
            "L": 77.75,
            "A": 77.4375,
            "B": 78.625,
            "C": 79.5,
            "D": 83.46666666666667,
            "E": 83,
            "F": 82
        },
        "bus0": {
            "C": 98.5,
            "D": 98.875,
            "E": 97.5,
            "F": 97.5,
            "G": 99.4375,
            "H": 101.9375,
            "I": 102.125,
            "J": 101.875,
            "K": 100.8,
            "L": 102.66666666666667,
            "A": 103.4,
            "B": 103.93333333333334
        },
        "bus1": {
            "D": 81.875,
            "E": 82.875,
            "F": 83.4375,
            "G": 85.1875,
            "H": 83.875,
            "I": 84.1875,
            "J": 83.0625,
            "K": 84.125,
            "L": 85.1875,
            "A": 87.9375,
            "B": 88.86666666666666,
            "C": 87.6
        },
        "bus4": {
            "I": 62.8125,
            "J": 64.625,
            "K": 66.5,
            "L": 66.8125,
            "A": 68.4375,
            "B": 67.5,
            "C": 67.9375,
            "D": 69.125,
            "E": 64.93333333333334,
            "F": 64.73333333333333,
            "G": 65.8,
            "H": 65.8
        },
        "bus2": {
            "F": 49.1875,
            "G": 49.25,
            "H": 50.875,
            "I": 51.5625,
            "J": 52.75,
            "K": 51.3125,
            "L": 51.5,
            "A": 51.4375,
            "B": 50.375,
            "C": 49.06666666666667,
            "D": 49.8,
            "E": 51.266666666666666
        }
    },
    "Obs_and_actions_busses": {
        "1": 203.7635041839207,
        "0": -283.80845132525775,
        "4": 414.9978702773654
    },
    "Obs_and_actions_tfls": {
        "0": 94.72671472170143
    }
}