{
    "Average_holding_time": 13.565891472868216,
    "Average_holding_actions": [
        1001,
        0,
        0,
        45,
        0,
        0
    ],
    "Average_travel_time_passengers": 2661.1980144190065,
    "Average_passenger_waiting_time": 319.83303145077224,
    "Average_passenger_in_vehicle_time": 2341.3649829682395,
    "Average_speed_busses": 0.048375,
    "Average_experienced_crowding": 80.27938289167992,
    "Average_covariation_headway": 0.34369267211871796,
    "Average_covariation_headway_stops": {
        "G": 0.2474529856170065,
        "B": 0.2482683066574113,
        "L": 0.2721893409223368,
        "I": 0.25508451908057933,
        "J": 0.2562236081943008,
        "C": 0.24932896896482473,
        "A": 0.24869868220742886,
        "K": 0.25320324853209764,
        "D": 0.2388123503999011,
        "H": 0.2366142591706933,
        "E": 0.22377644649715642,
        "F": 0.22320079471984378
    },
    "Average_excess_waiting_time": {
        "G": 50.855132193261625,
        "B": 48.67476499633591,
        "L": 52.910217711666974,
        "I": 51.40009219932472,
        "J": 50.34698325937768,
        "C": 47.4787777792759,
        "A": 50.51342998452117,
        "K": 51.73221254935419,
        "D": 50.156238940943695,
        "H": 50.553005383089896,
        "E": 48.682737279524986,
        "F": 50.015465503223254
    },
    "Holding_per_stop": {
        "L": 16.391752577319586,
        "B": 10.824742268041238,
        "J": 12.061855670103093,
        "C": 15.306122448979592,
        "G": 14.6875,
        "I": 19.79381443298969,
        "A": 11.75257731958763,
        "K": 13.608247422680412,
        "D": 13.917525773195877,
        "H": 14.0625,
        "E": 7.8125,
        "F": 12.5
    },
    "Actions_tfl_edges": {
        "AB": [
            98,
            0,
            0
        ],
        "BC": [
            98,
            0,
            0
        ],
        "FG": [
            97,
            0,
            0
        ],
        "HI": [
            97,
            0,
            0
        ],
        "IJ": [
            98,
            0,
            0
        ],
        "KL": [
            98,
            0,
            0
        ],
        "LA": [
            97,
            0,
            0
        ],
        "JK": [
            97,
            0,
            0
        ],
        "CD": [
            98,
            0,
            0
        ],
        "GH": [
            96,
            0,
            0
        ],
        "DE": [
            97,
            0,
            0
        ],
        "EF": [
            96,
            0,
            0
        ]
    },
    "Load_per_bus_per_stop": {
        "bus2": {
            "G": 77.8125,
            "H": 78.375,
            "I": 79.75,
            "J": 79.875,
            "K": 80.375,
            "L": 81.125,
            "A": 83.125,
            "B": 82.75,
            "C": 82.8125,
            "D": 82.9375,
            "E": 84,
            "F": 83.8125
        },
        "bus0": {
            "B": 68.88235294117646,
            "C": 67.58823529411765,
            "D": 71.625,
            "E": 72.5625,
            "F": 71.6875,
            "G": 71.1875,
            "H": 72.1875,
            "I": 69.6875,
            "J": 69.375,
            "K": 71.5,
            "L": 72.125,
            "A": 73.3125
        },
        "bus5": {
            "L": 74.94117647058823,
            "A": 75.58823529411765,
            "B": 76.52941176470588,
            "C": 78.625,
            "D": 81.6875,
            "E": 83,
            "F": 83.875,
            "G": 83.0625,
            "H": 81.8125,
            "I": 79.125,
            "J": 78.5625,
            "K": 79.625
        },
        "bus3": {
            "I": 73.76470588235294,
            "J": 74,
            "K": 72.625,
            "L": 71.25,
            "A": 71.5,
            "B": 71.9375,
            "C": 74.375,
            "D": 75,
            "E": 78.25,
            "F": 78.4375,
            "G": 79.125,
            "H": 79.4375
        },
        "bus4": {
            "J": 82.29411764705883,
            "K": 82.29411764705883,
            "L": 84.875,
            "A": 83.4375,
            "B": 83.5,
            "C": 83.875,
            "D": 85.0625,
            "E": 84.6875,
            "F": 87.625,
            "G": 86.8125,
            "H": 85.75,
            "I": 86.3125
        },
        "bus1": {
            "C": 73.47058823529412,
            "D": 73.17647058823529,
            "E": 72.125,
            "F": 70.8125,
            "G": 72.75,
            "H": 75,
            "I": 76.375,
            "J": 76.625,
            "K": 77,
            "L": 76.3125,
            "A": 77.5,
            "B": 78.625
        }
    },
    "Obs_and_actions_busses": {
        "4": 351.00031674299413,
        "3": 156.93857373374473,
        "0": -173.9632329825301
    },
    "Obs_and_actions_tfls": {
        "0": 110.84763727828265
    }
}