{
    "Average_holding_time": 12.34991423670669,
    "Average_holding_actions": [
        1032,
        0,
        0,
        78,
        0,
        0
    ],
    "Average_travel_time_passengers": 2594.97846145615,
    "Average_passenger_waiting_time": 319.43313020794864,
    "Average_passenger_in_vehicle_time": 2275.545331248223,
    "Average_speed_busses": 0.04858333333333333,
    "Average_experienced_crowding": 77.93289605708311,
    "Average_covariation_headway": 0.37567987495459493,
    "Average_covariation_headway_stops": {
        "C": 0.2757907211440387,
        "J": 0.26207590004079495,
        "F": 0.29079471514758626,
        "G": 0.26454151899198985,
        "A": 0.26499847446969366,
        "K": 0.271953204708381,
        "D": 0.24694278934553143,
        "B": 0.2622915173566203,
        "H": 0.2621086981967477,
        "L": 0.2713097975891569,
        "I": 0.2609371686657257,
        "E": 0.2650688891560573
    },
    "Average_excess_waiting_time": {
        "C": 51.2797133220522,
        "J": 50.537626490599564,
        "F": 58.06090144095157,
        "G": 51.03776634022665,
        "A": 49.995463732725966,
        "K": 50.881520450943015,
        "D": 49.04067783124589,
        "B": 50.44190659019182,
        "H": 52.622114459316776,
        "L": 52.30126809973626,
        "I": 51.70070947824735,
        "E": 53.82491555944796
    },
    "Holding_per_stop": {
        "C": 15.612244897959183,
        "A": 11.63265306122449,
        "G": 9.278350515463918,
        "K": 7.346938775510204,
        "J": 7.731958762886598,
        "F": 14.845360824742269,
        "D": 11.443298969072165,
        "B": 10.515463917525773,
        "H": 12.989690721649485,
        "L": 16.701030927835053,
        "I": 18.125,
        "E": 12.061855670103093
    },
    "Actions_tfl_edges": {
        "BC": [
            98,
            0,
            0
        ],
        "EF": [
            98,
            0,
            0
        ],
        "FG": [
            98,
            0,
            0
        ],
        "IJ": [
            97,
            0,
            0
        ],
        "JK": [
            98,
            0,
            0
        ],
        "LA": [
            98,
            0,
            0
        ],
        "CD": [
            98,
            0,
            0
        ],
        "AB": [
            98,
            0,
            0
        ],
        "GH": [
            97,
            0,
            0
        ],
        "KL": [
            98,
            0,
            0
        ],
        "DE": [
            97,
            0,
            0
        ],
        "HI": [
            97,
            0,
            0
        ]
    },
    "Load_per_bus_per_stop": {
        "bus0": {
            "C": 71.76470588235294,
            "D": 71.94117647058823,
            "E": 72.52941176470588,
            "F": 75.8125,
            "G": 74.75,
            "H": 77.4375,
            "I": 76.4375,
            "J": 77.0625,
            "K": 77.9375,
            "L": 76.25,
            "A": 77.5,
            "B": 77.25
        },
        "bus3": {
            "J": 67.76470588235294,
            "K": 68.52941176470588,
            "L": 69.375,
            "A": 68.3125,
            "B": 69.3125,
            "C": 69.9375,
            "D": 70.6875,
            "E": 69.0625,
            "F": 71.1875,
            "G": 71.8125,
            "H": 72.3125,
            "I": 71.3125
        },
        "bus1": {
            "F": 81.52941176470588,
            "G": 80.0625,
            "H": 78.8125,
            "I": 81.4375,
            "J": 80.75,
            "K": 80.25,
            "L": 80.3125,
            "A": 82.1875,
            "B": 83.75,
            "C": 85.625,
            "D": 85.375,
            "E": 87.625
        },
        "bus2": {
            "G": 77.52941176470588,
            "H": 77.3529411764706,
            "I": 77.5,
            "J": 79.125,
            "K": 82.5,
            "L": 84.125,
            "A": 85.3125,
            "B": 83.5,
            "C": 82.3125,
            "D": 83.125,
            "E": 83.25,
            "F": 82.5
        },
        "bus5": {
            "A": 75.76470588235294,
            "B": 76.47058823529412,
            "C": 77.47058823529412,
            "D": 77.1875,
            "E": 75.6875,
            "F": 75.875,
            "G": 75.3125,
            "H": 76.75,
            "I": 78.25,
            "J": 78.4375,
            "K": 79.6875,
            "L": 80.375
        },
        "bus4": {
            "K": 60.294117647058826,
            "L": 60.294117647058826,
            "A": 60.588235294117645,
            "B": 60.4375,
            "C": 62.8125,
            "D": 65.9375,
            "E": 66.3125,
            "F": 67,
            "G": 67.875,
            "H": 67.875,
            "I": 64.8125,
            "J": 63.8125
        }
    },
    "Obs_and_actions_busses": {
        "0": -174.80488625247847,
        "3": 219.68328205453653,
        "4": 300.5447332099735
    },
    "Obs_and_actions_tfls": {
        "0": 113.3154840367221
    }
}