{
    "Average_holding_time": 20.4,
    "Average_holding_actions": [
        890,
        0,
        0,
        60,
        0,
        0
    ],
    "Average_travel_time_passengers": 2698.7034729607094,
    "Average_passenger_waiting_time": 334.9444954010846,
    "Average_passenger_in_vehicle_time": 2363.7589775596584,
    "Average_speed_busses": 0.046875,
    "Average_experienced_crowding": 80.64551512976448,
    "Average_covariation_headway": 0.3459893057876266,
    "Average_covariation_headway_stops": {
        "E": 0.25571101257877543,
        "K": 0.25800633724112276,
        "H": 0.23952184807586813,
        "D": 0.2407624497026586,
        "C": 0.25885714620459327,
        "A": 0.24709634546356027,
        "F": 0.24057993041355202,
        "I": 0.2255649228874169,
        "B": 0.26085873576525886,
        "L": 0.24610320412427564,
        "J": 0.258464262685261,
        "G": 0.23892075946574587
    },
    "Average_excess_waiting_time": {
        "E": 58.82984051098242,
        "K": 62.57296198640728,
        "H": 59.247414510590886,
        "D": 58.4840834857452,
        "C": 62.73150357443842,
        "A": 60.70689757685318,
        "F": 57.841052761140986,
        "I": 59.021704843703446,
        "B": 65.05512945965074,
        "L": 62.15673694435219,
        "J": 64.65920957159,
        "G": 59.939355333791184
    },
    "Holding_per_stop": {
        "E": 24.63157894736842,
        "H": 18.51063829787234,
        "D": 19.78723404255319,
        "A": 21.70212765957447,
        "K": 16.914893617021278,
        "C": 23.93617021276596,
        "F": 20.425531914893618,
        "I": 21.29032258064516,
        "B": 14.516129032258064,
        "L": 20.967741935483872,
        "G": 17.5531914893617,
        "J": 24.516129032258064
    },
    "Actions_tfl_edges": {
        "BC": [
            94,
            0,
            0
        ],
        "CD": [
            95,
            0,
            0
        ],
        "DE": [
            95,
            0,
            0
        ],
        "GH": [
            95,
            0,
            0
        ],
        "JK": [
            94,
            0,
            0
        ],
        "LA": [
            94,
            0,
            0
        ],
        "EF": [
            95,
            0,
            0
        ],
        "HI": [
            94,
            0,
            0
        ],
        "AB": [
            94,
            0,
            0
        ],
        "KL": [
            94,
            0,
            0
        ],
        "FG": [
            94,
            0,
            0
        ],
        "IJ": [
            93,
            0,
            0
        ]
    },
    "Load_per_bus_per_stop": {
        "bus2": {
            "E": 92.625,
            "F": 93.5,
            "G": 93.375,
            "H": 92.8125,
            "I": 90.75,
            "J": 91.875,
            "K": 92.5,
            "L": 92.75,
            "A": 93.0625,
            "B": 96.66666666666667,
            "C": 97.93333333333334,
            "D": 97.66666666666667
        },
        "bus4": {
            "K": 67.875,
            "L": 69.125,
            "A": 71.3125,
            "B": 71.375,
            "C": 71.0625,
            "D": 71.5,
            "E": 70.625,
            "F": 71.1875,
            "G": 71.4,
            "H": 71,
            "I": 71,
            "J": 71
        },
        "bus3": {
            "H": 78,
            "I": 79.25,
            "J": 77.9375,
            "K": 79.9375,
            "L": 78.8125,
            "A": 79,
            "B": 79.125,
            "C": 80.25,
            "D": 81.53333333333333,
            "E": 81.73333333333333,
            "F": 83,
            "G": 82.73333333333333
        },
        "bus1": {
            "D": 77.1875,
            "E": 77.3125,
            "F": 77.25,
            "G": 76.6875,
            "H": 76.8125,
            "I": 76.25,
            "J": 75.9375,
            "K": 78.375,
            "L": 78.5,
            "A": 79.6,
            "B": 81.93333333333334,
            "C": 80.66666666666667
        },
        "bus0": {
            "C": 74.125,
            "D": 74.375,
            "E": 74.25,
            "F": 75.8125,
            "G": 75.5,
            "H": 75.875,
            "I": 76.6875,
            "J": 75.93333333333334,
            "K": 77.6,
            "L": 78.06666666666666,
            "A": 78.46666666666667,
            "B": 78.33333333333333
        },
        "bus5": {
            "A": 62.75,
            "B": 62.875,
            "C": 64.875,
            "D": 64.9375,
            "E": 66.25,
            "F": 65.0625,
            "G": 64.1875,
            "H": 64.66666666666667,
            "I": 66.26666666666667,
            "J": 66.86666666666666,
            "K": 68.46666666666667,
            "L": 68
        }
    },
    "Obs_and_actions_busses": {
        "0": -179.7095483644405,
        "3": 138.73439159498568,
        "4": 317.5640337311813
    },
    "Obs_and_actions_tfls": {
        "0": 110.71585793244552
    }
}2382234613
    }
}