{
    "Average_holding_time": 10.74742268041237,
    "Average_holding_actions": [
        888,
        229,
        0,
        47,
        0,
        0
    ],
    "Average_travel_time_passengers": 2632.446214638921,
    "Average_passenger_waiting_time": 333.20658924801245,
    "Average_passenger_in_vehicle_time": 2299.2396253909087,
    "Average_speed_busses": 0.0485,
    "Average_experienced_crowding": 83.08040507706143,
    "Average_covariation_headway": 0.41168754600599117,
    "Average_covariation_headway_stops": {
        "K": 0.31971974680301574,
        "L": 0.3270081217112867,
        "J": 0.3210293507621921,
        "H": 0.3042090263896907,
        "E": 0.3215415036055111,
        "G": 0.30334746097026744,
        "A": 0.30915782924380214,
        "I": 0.3007490218311978,
        "B": 0.32069130842524346,
        "F": 0.3085467637891922,
        "C": 0.31966290847421913,
        "D": 0.32806224804166473
    },
    "Average_excess_waiting_time": {
        "K": 59.783468499103435,
        "L": 60.27590143138332,
        "J": 62.04804789833162,
        "H": 59.24816137180312,
        "E": 63.33008558460142,
        "G": 60.098093052918614,
        "A": 58.994435294961534,
        "I": 60.28168641358451,
        "B": 61.58531078242271,
        "F": 62.70099431463041,
        "C": 62.977693301052,
        "D": 66.40950983711309
    },
    "Holding_per_stop": {
        "K": 8.877551020408163,
        "L": 10.714285714285714,
        "H": 13.917525773195877,
        "J": 9.587628865979381,
        "G": 11.75257731958763,
        "E": 11.75257731958763,
        "A": 7.731958762886598,
        "I": 11.443298969072165,
        "B": 9.278350515463918,
        "F": 7.8125,
        "C": 14.536082474226804,
        "D": 11.5625
    },
    "Actions_tfl_edges": {
        "DE": [
            97,
            0,
            0
        ],
        "FG": [
            97,
            0,
            0
        ],
        "GH": [
            98,
            0,
            0
        ],
        "IJ": [
            98,
            0,
            0
        ],
        "JK": [
            98,
            0,
            0
        ],
        "KL": [
            99,
            0,
            0
        ],
        "LA": [
            98,
            0,
            0
        ],
        "HI": [
            97,
            0,
            0
        ],
        "EF": [
            97,
            0,
            0
        ],
        "AB": [
            97,
            0,
            0
        ],
        "BC": [
            97,
            0,
            0
        ],
        "CD": [
            97,
            0,
            0
        ]
    },
    "Load_per_bus_per_stop": {
        "bus4": {
            "K": 58.588235294117645,
            "L": 58.35294117647059,
            "A": 60.1764705882353,
            "B": 59,
            "C": 60.125,
            "D": 59.5,
            "E": 60.125,
            "F": 61.3125,
            "G": 61.375,
            "H": 62.5,
            "I": 62.375,
            "J": 60.875
        },
        "bus5": {
            "L": 79.41176470588235,
            "A": 79.70588235294117,
            "B": 79.41176470588235,
            "C": 80.17647058823529,
            "D": 79.5,
            "E": 81,
            "F": 81.25,
            "G": 81.1875,
            "H": 81.875,
            "I": 82.875,
            "J": 81.9375,
            "K": 82.1875
        },
        "bus3": {
            "J": 74.47058823529412,
            "K": 76.6470588235294,
            "L": 77.75,
            "A": 76.8125,
            "B": 77.5,
            "C": 78.875,
            "D": 78.5625,
            "E": 78.125,
            "F": 79.0625,
            "G": 79.5625,
            "H": 78.25,
            "I": 78.0625
        },
        "bus2": {
            "H": 77.3529411764706,
            "I": 78.94117647058823,
            "J": 79.125,
            "K": 79.125,
            "L": 79.25,
            "A": 79.625,
            "B": 81.1875,
            "C": 82,
            "D": 79.625,
            "E": 78.5625,
            "F": 79.5,
            "G": 80.25
        },
        "bus0": {
            "E": 82.29411764705883,
            "F": 83,
            "G": 85.5625,
            "H": 87.9375,
            "I": 88.5625,
            "J": 87.0625,
            "K": 86.4375,
            "L": 86.25,
            "A": 87.5,
            "B": 89.1875,
            "C": 88.8125,
            "D": 89.125
        },
        "bus1": {
            "G": 75.11764705882354,
            "H": 76.5625,
            "I": 77.6875,
            "J": 77.3125,
            "K": 76.5625,
            "L": 77.25,
            "A": 78.3125,
            "B": 77.625,
            "C": 78.3125,
            "D": 81.125,
            "E": 81.125,
            "F": 80.125
        }
    },
    "Obs_and_actions_busses": {
        "0": -227.11499018444533,
        "1": 208.5808334909156,
        "4": 421.14939757344945
    },
    "Obs_and_actions_tfls": {
        "0": 123.22030336366501
    }
}