{
    "Average_holding_time": 19.136563876651984,
    "Average_holding_actions": [
        585,
        417,
        104,
        0,
        6,
        0
    ],
    "Average_travel_time_passengers": 2713.5192986578613,
    "Average_passenger_waiting_time": 330.88504893920083,
    "Average_passenger_in_vehicle_time": 2382.634249718719,
    "Average_speed_busses": 0.04729166666666667,
    "Average_experienced_crowding": 84.19361691719308,
    "Average_covariation_headway": 0.33658748638521185,
    "Average_covariation_headway_stops": {
        "I": 0.24420957159522957,
        "A": 0.2320751714432436,
        "L": 0.2537879084152862,
        "F": 0.23967781315841205,
        "B": 0.2576707785324346,
        "D": 0.2571295091103515,
        "J": 0.2336623383288686,
        "G": 0.25082826143123194,
        "C": 0.23803545292324318,
        "E": 0.253852825599669,
        "H": 0.24364128321768266,
        "K": 0.23420974702552513
    },
    "Average_excess_waiting_time": {
        "I": 56.72940936242247,
        "A": 56.31997800351962,
        "L": 61.121854017950284,
        "F": 54.277238960047384,
        "B": 58.764742868150506,
        "D": 56.75074121676232,
        "J": 57.94537579612438,
        "G": 57.61894706353564,
        "C": 57.311393080109326,
        "E": 57.8651240888106,
        "H": 58.1388042456075,
        "K": 59.32239131172872
    },
    "Holding_per_stop": {
        "F": 21.157894736842106,
        "A": 15.789473684210526,
        "I": 19.263157894736842,
        "B": 15.157894736842104,
        "D": 18.63157894736842,
        "L": 23.29787234042553,
        "G": 18.63157894736842,
        "J": 21.382978723404257,
        "C": 16.914893617021278,
        "E": 21.473684210526315,
        "H": 20.106382978723403,
        "K": 17.872340425531913
    },
    "Actions_tfl_edges": {
        "AB": [
            95,
            0,
            0
        ],
        "CD": [
            95,
            0,
            0
        ],
        "EF": [
            96,
            0,
            0
        ],
        "HI": [
            95,
            0,
            0
        ],
        "KL": [
            95,
            0,
            0
        ],
        "LA": [
            95,
            0,
            0
        ],
        "FG": [
            95,
            0,
            0
        ],
        "IJ": [
            95,
            0,
            0
        ],
        "BC": [
            95,
            0,
            0
        ],
        "DE": [
            95,
            0,
            0
        ],
        "GH": [
            95,
            0,
            0
        ],
        "JK": [
            94,
            0,
            0
        ]
    },
    "Load_per_bus_per_stop": {
        "bus3": {
            "I": 80.1875,
            "J": 81.875,
            "K": 81,
            "L": 82.0625,
            "A": 82.3125,
            "B": 83.125,
            "C": 83,
            "D": 83.25,
            "E": 83.625,
            "F": 85.53333333333333,
            "G": 84.93333333333334,
            "H": 85.33333333333333
        },
        "bus5": {
            "A": 72.125,
            "B": 72.6875,
            "C": 74.4375,
            "D": 73.4375,
            "E": 74.5625,
            "F": 76.3125,
            "G": 76.5625,
            "H": 78.5,
            "I": 76.9375,
            "J": 79.13333333333334,
            "K": 80.06666666666666,
            "L": 77.86666666666666
        },
        "bus4": {
            "L": 85.5,
            "A": 84.375,
            "B": 83.125,
            "C": 83.875,
            "D": 84.875,
            "E": 85.8125,
            "F": 86.0625,
            "G": 87.375,
            "H": 86.46666666666667,
            "I": 87.66666666666667,
            "J": 90.26666666666667,
            "K": 91.73333333333333
        },
        "bus2": {
            "F": 79.25,
            "G": 79.625,
            "H": 82.25,
            "I": 81.875,
            "J": 82.6875,
            "K": 84,
            "L": 85.25,
            "A": 87.375,
            "B": 87.5,
            "C": 87.0625,
            "D": 85.53333333333333,
            "E": 84.4
        },
        "bus0": {
            "B": 71.5625,
            "C": 71.75,
            "D": 71.6875,
            "E": 73.1875,
            "F": 73.5625,
            "G": 73.1875,
            "H": 72.8125,
            "I": 74,
            "J": 74.75,
            "K": 76.875,
            "L": 73.86666666666666,
            "A": 74.6
        },
        "bus1": {
            "D": 80.75,
            "E": 79.3125,
            "F": 80.5625,
            "G": 79.0625,
            "H": 80.0625,
            "I": 78.5,
            "J": 77.3125,
            "K": 77.75,
            "L": 77.5,
            "A": 79.125,
            "B": 82.6,
            "C": 85.8
        }
    },
    "Obs_and_actions_busses": {
        "1": 54.71597572245552,
        "0": -289.43448562127196,
        "5": 481.79069280501875,
        "3": 344.13691524157736,
        "2": 205.35080367530483
    },
    "Obs_and_actions_tfls": {
        "0": 123.32389735148251
    }
}