{
    "Average_holding_time": 17.013333333333332,
    "Average_holding_actions": [
        944,
        0,
        89,
        0,
        92,
        0
    ],
    "Average_travel_time_passengers": 2812.843645609308,
    "Average_passenger_waiting_time": 414.6110956358794,
    "Average_passenger_in_vehicle_time": 2398.232549973376,
    "Average_speed_busses": 0.046875,
    "Average_experienced_crowding": 103.4348198964871,
    "Average_covariation_headway": 0.7166510334176935,
    "Average_covariation_headway_stops": {
        "C": 0.5943360972492926,
        "G": 0.5783124333863484,
        "B": 0.5810508065863255,
        "I": 0.5658457575934585,
        "E": 0.5814894327006587,
        "F": 0.5847082537138493,
        "H": 0.5639598257975328,
        "D": 0.5809342080346673,
        "J": 0.5399395875295114,
        "K": 0.5436967051937865,
        "L": 0.5515057415280611,
        "A": 0.5672371737321393
    },
    "Average_excess_waiting_time": {
        "C": 150.75646659919227,
        "G": 142.38969138454814,
        "B": 148.567183414093,
        "I": 140.9926943238629,
        "E": 145.2483723029385,
        "F": 145.23844773033875,
        "H": 143.36669575158987,
        "D": 147.46203078423957,
        "J": 134.20223680499254,
        "K": 134.99612007884826,
        "L": 139.40074888670745,
        "A": 147.06828919058518
    },
    "Holding_per_stop": {
        "C": 21.06382978723404,
        "G": 12.947368421052632,
        "I": 18.19148936170213,
        "E": 14.361702127659575,
        "B": 17.419354838709676,
        "F": 19.57894736842105,
        "H": 17.419354838709676,
        "D": 17.872340425531913,
        "J": 17.872340425531913,
        "K": 14.193548387096774,
        "L": 15.483870967741936,
        "A": 17.741935483870968
    },
    "Actions_tfl_edges": {
        "AB": [
            94,
            0,
            0
        ],
        "BC": [
            94,
            0,
            0
        ],
        "DE": [
            95,
            0,
            0
        ],
        "EF": [
            95,
            0,
            0
        ],
        "FG": [
            96,
            0,
            0
        ],
        "HI": [
            94,
            0,
            0
        ],
        "CD": [
            94,
            0,
            0
        ],
        "GH": [
            95,
            0,
            0
        ],
        "IJ": [
            94,
            0,
            0
        ],
        "JK": [
            94,
            0,
            0
        ],
        "KL": [
            93,
            0,
            0
        ],
        "LA": [
            93,
            0,
            0
        ]
    },
    "Load_per_bus_per_stop": {
        "bus1": {
            "C": 100.5625,
            "D": 99.75,
            "E": 100.4375,
            "F": 98.75,
            "G": 100.125,
            "H": 100.5,
            "I": 101.33333333333333,
            "J": 102.53333333333333,
            "K": 101.46666666666667,
            "L": 102.2,
            "A": 103.73333333333333,
            "B": 104
        },
        "bus4": {
            "G": 29.9375,
            "H": 31.0625,
            "I": 32.8125,
            "J": 31.75,
            "K": 31.9375,
            "L": 33.3125,
            "A": 34.25,
            "B": 35.4375,
            "C": 34.8125,
            "D": 35.25,
            "E": 34.6875,
            "F": 33
        },
        "bus0": {
            "B": 113.875,
            "C": 113.625,
            "D": 113.375,
            "E": 115.125,
            "F": 114.5625,
            "G": 113.5,
            "H": 119.6,
            "I": 118.53333333333333,
            "J": 119.06666666666666,
            "K": 120.66666666666667,
            "L": 120.8,
            "A": 119.33333333333333
        },
        "bus5": {
            "I": 94.6875,
            "J": 95.25,
            "K": 94.375,
            "L": 92.625,
            "A": 94.0625,
            "B": 94.625,
            "C": 95.6875,
            "D": 98.125,
            "E": 100.5,
            "F": 101.6875,
            "G": 105.06666666666666,
            "H": 100.46666666666667
        },
        "bus2": {
            "E": 79.5,
            "F": 81.75,
            "G": 81.6875,
            "H": 80.9375,
            "I": 83.5,
            "J": 86.1875,
            "K": 79.6,
            "L": 79.26666666666667,
            "A": 77.73333333333333,
            "B": 78.8,
            "C": 81.26666666666667,
            "D": 83.26666666666667
        },
        "bus3": {
            "F": 47.625,
            "G": 48.875,
            "H": 50.1875,
            "I": 51.1875,
            "J": 52.3125,
            "K": 51.375,
            "L": 51.8125,
            "A": 52.125,
            "B": 49,
            "C": 49.4,
            "D": 48.666666666666664,
            "E": 49.266666666666666
        }
    },
    "Obs_and_actions_busses": {
        "0": -194.1885474025698,
        "2": 360.50887335978416,
        "5": 388.12713572743
    },
    "Obs_and_actions_tfls": {
        "0": 85.22579502266649
    }
}