{
    "Average_holding_time": 50.01912045889102,
    "Average_holding_actions": [
        292,
        0,
        51,
        66,
        82,
        0
    ],
    "Average_travel_time_passengers": 8231.432686857916,
    "Average_passenger_waiting_time": 3073.529771228632,
    "Average_passenger_in_vehicle_time": 5157.902915629594,
    "Average_speed_busses": 0.021791666666666668,
    "Average_experienced_crowding": 730.0134227576663,
    "Average_covariation_headway": 2.081530191595888,
    "Average_covariation_headway_stops": {
        "G": 2.0663562238001094,
        "I": 2.093566346540267,
        "E": 2.0542335232990405,
        "J": 2.0225517225897907,
        "H": 2.0760386431731863,
        "B": 2.057538519726583,
        "K": 2.0739860580524545,
        "C": 2.036784864202167,
        "F": 2.0467707590364985,
        "L": 2.0533503903768073,
        "D": 2.030480530496156,
        "A": 2.047369644915591
    },
    "Average_excess_waiting_time": {
        "G": 3032.382635206884,
        "I": 3075.1279919211465,
        "E": 2974.0452232780895,
        "J": 3187.899558362516,
        "H": 3044.873193317512,
        "B": 2875.5107504492175,
        "K": 2820.340084462334,
        "C": 2881.171061735776,
        "F": 3009.817513910281,
        "L": 2828.649253241831,
        "D": 2926.2125819733374,
        "A": 2869.4697694524884
    },
    "Holding_per_stop": {
        "I": 47.234042553191486,
        "J": 48.57142857142857,
        "H": 50.21739130434783,
        "G": 53.333333333333336,
        "B": 47.44186046511628,
        "E": 51.81818181818182,
        "K": 48.57142857142857,
        "C": 47.44186046511628,
        "F": 49.77272727272727,
        "D": 55.81395348837209,
        "L": 51.42857142857143,
        "A": 48.57142857142857
    },
    "Actions_tfl_edges": {
        "AB": [
            43,
            0,
            0
        ],
        "DE": [
            44,
            0,
            0
        ],
        "FG": [
            45,
            0,
            0
        ],
        "GH": [
            46,
            0,
            0
        ],
        "HI": [
            47,
            0,
            0
        ],
        "IJ": [
            48,
            0,
            0
        ],
        "JK": [
            42,
            0,
            0
        ],
        "BC": [
            43,
            0,
            0
        ],
        "EF": [
            44,
            0,
            0
        ],
        "KL": [
            42,
            0,
            0
        ],
        "CD": [
            43,
            0,
            0
        ],
        "LA": [
            42,
            0,
            0
        ]
    },
    "Load_per_bus_per_stop": {
        "bus2": {
            "G": 9,
            "H": 8.625,
            "I": 8.375,
            "J": 9.428571428571429,
            "K": 9,
            "L": 8.714285714285714,
            "A": 9.285714285714286,
            "B": 10.428571428571429,
            "C": 11.285714285714286,
            "D": 11.714285714285714,
            "E": 11,
            "F": 9.571428571428571
        },
        "bus4": {
            "I": 50.375,
            "J": 44.857142857142854,
            "K": 47.857142857142854,
            "L": 49,
            "A": 50.142857142857146,
            "B": 49.42857142857143,
            "C": 51.142857142857146,
            "D": 51.857142857142854,
            "E": 52.714285714285715,
            "F": 50.42857142857143,
            "G": 51.142857142857146,
            "H": 52.42857142857143
        },
        "bus1": {
            "E": 26.375,
            "F": 28.125,
            "G": 27.375,
            "H": 28,
            "I": 29,
            "J": 33,
            "K": 34.42857142857143,
            "L": 34.285714285714285,
            "A": 33.857142857142854,
            "B": 33,
            "C": 32,
            "D": 31.285714285714285
        },
        "bus5": {
            "J": 691.5,
            "K": 605.7142857142857,
            "L": 629.7142857142857,
            "A": 642.7142857142857,
            "B": 660.2857142857143,
            "C": 677.7142857142857,
            "D": 697.8571428571429,
            "E": 719.5714285714286,
            "F": 732.8571428571429,
            "G": 739.7142857142857,
            "H": 762.4285714285714,
            "I": 774.7142857142857
        },
        "bus3": {
            "H": 5.875,
            "I": 6.875,
            "J": 7,
            "K": 7.285714285714286,
            "L": 8,
            "A": 8.571428571428571,
            "B": 8.571428571428571,
            "C": 8.428571428571429,
            "D": 8.285714285714286,
            "E": 8.142857142857142,
            "F": 8,
            "G": 7.142857142857143
        },
        "bus0": {
            "B": 95.375,
            "C": 100.25,
            "D": 100.75,
            "E": 97.625,
            "F": 95.5,
            "G": 99.125,
            "H": 99.875,
            "I": 101.25,
            "J": 115.28571428571429,
            "K": 112.14285714285714,
            "L": 110.85714285714286,
            "A": 112
        }
    },
    "Obs_and_actions_busses": {
        "4": 494.49417179319863,
        "0": -5.964362567383953,
        "3": 1600.5473264491065,
        "5": -5005.567290571768,
        "2": 6872.760610658777
    },
    "Obs_and_actions_tfls": {
        "0": 70.16414386723305
    }
}