{
  "test_run": false,
  "monitoring": true,
  "run_logging": false,
  "passenger_logging": false,
  "kpi_logging": true,
  "result_folder": "",
  "observation_space_busses": null,
  "observation_space_tfl": null,
  "action_space_busses": null,
  "action_space_tfl": null,
  "end_trigger_range": [
    4000,
    4001
  ],
  "final_reward_option": "travel_time_only",
  "qmix": false,
  "holding_fixed": true,
  "holding_times": {
    "0": 0,
    "1": 30,
    "2": 60,
    "3": 90,
    "4": 120,
    "5": 150,
    "6": 180
  },
  "ta": false,
  "observation_option": "headway_diff",
  "reward_function_option": "headway_diff",
  "holding_punish_param": 0,
  "num_agents": 6,
  "routes": [
    [
      "A",
      "B",
      "C",
      "D",
      "E",
      "F",
      "G",
      "H",
      "I",
      "J",
      "K",
      "L"
    ],
    [
      "A",
      "B",
      "C",
      "D",
      "E",
      "F",
      "G",
      "H",
      "I",
      "J",
      "K",
      "L"
    ],
    [
      "A",
      "B",
      "C",
      "D",
      "E",
      "F",
      "G",
      "H",
      "I",
      "J",
      "K",
      "L"
    ],
    [
      "A",
      "B",
      "C",
      "D",
      "E",
      "F",
      "G",
      "H",
      "I",
      "J",
      "K",
      "L"
    ],
    [
      "A",
      "B",
      "C",
      "D",
      "E",
      "F",
      "G",
      "H",
      "I",
      "J",
      "K",
      "L"
    ],
    [
      "A",
      "B",
      "C",
      "D",
      "E",
      "F",
      "G",
      "H",
      "I",
      "J",
      "K",
      "L"
    ]
  ],
  "capacity_busses": [
    9999,
    9999,
    9999,
    9999,
    9999,
    9999
  ],
  "node_names": [
    "A",
    "B",
    "C",
    "D",
    "E",
    "F",
    "G",
    "H",
    "I",
    "J",
    "K",
    "L"
  ],
  "slot_capacity_nodes": [
    1,
    1,
    1,
    1,
    1,
    1,
    1,
    1,
    1,
    1,
    1,
    1
  ],
  "traffic_light_on_edges": [
    true,
    true,
    true,
    true,
    true,
    true,
    true,
    true,
    true,
    true,
    true,
    true
  ],
  "cycle_props": [
    [
      75,
      40
    ],
    [
      75,
      40
    ],
    [
      75,
      40
    ],
    [
      75,
      40
    ],
    [
      75,
      40
    ],
    [
      75,
      40
    ],
    [
      75,
      40
    ],
    [
      75,
      40
    ],
    [
      75,
      40
    ],
    [
      75,
      40
    ],
    [
      75,
      40
    ],
    [
      75,
      40
    ]
  ],
  "arrival_function_nodes": [
    "poisson",
    "poisson",
    "poisson",
    "poisson",
    "poisson",
    "poisson",
    "poisson",
    "poisson",
    "poisson",
    "poisson",
    "poisson",
    "poisson"
  ],
  "destination_distribution_nodes": [
    [
      0,
      0.1,
      0.1,
      0.1,
      0.1,
      0.1,
      0.1,
      0.1,
      0.1,
      0.1,
      0.1,
      0
    ],
    [
      0,
      0,
      0.1,
      0.1,
      0.1,
      0.1,
      0.1,
      0.1,
      0.1,
      0.1,
      0.1,
      0.1
    ],
    [
      0.1,
      0,
      0,
      0.1,
      0.1,
      0.1,
      0.1,
      0.1,
      0.1,
      0.1,
      0.1,
      0.1
    ],
    [
      0.1,
      0.1,
      0,
      0,
      0.1,
      0.1,
      0.1,
      0.1,
      0.1,
      0.1,
      0.1,
      0.1
    ],
    [
      0.1,
      0.1,
      0.1,
      0,
      0,
      0.1,
      0.1,
      0.1,
      0.1,
      0.1,
      0.1,
      0.1
    ],
    [
      0.1,
      0.1,
      0.1,
      0.1,
      0,
      0,
      0.1,
      0.1,
      0.1,
      0.1,
      0.1,
      0.1
    ],
    [
      0.1,
      0.1,
      0.1,
      0.1,
      0.1,
      0,
      0,
      0.1,
      0.1,
      0.1,
      0.1,
      0.1
    ],
    [
      0.1,
      0.1,
      0.1,
      0.1,
      0.1,
      0.1,
      0,
      0,
      0.1,
      0.1,
      0.1,
      0.1
    ],
    [
      0.1,
      0.1,
      0.1,
      0.1,
      0.1,
      0.1,
      0.1,
      0,
      0,
      0.1,
      0.1,
      0.1
    ],
    [
      0.1,
      0.1,
      0.1,
      0.1,
      0.1,
      0.1,
      0.1,
      0.1,
      0,
      0,
      0.1,
      0.1
    ],
    [
      0.1,
      0.1,
      0.1,
      0.1,
      0.1,
      0.1,
      0.1,
      0.1,
      0.1,
      0,
      0,
      0.1
    ],
    [
      0.1,
      0.1,
      0.1,
      0.1,
      0.1,
      0.1,
      0.1,
      0.1,
      0.1,
      0.1,
      0,
      0
    ]
  ],
  "pass_arrival_rate_nodes": [
    0.01666,
    0.01666,
    0.01666,
    0.01666,
    0.01666,
    0.01666,
    0.01666,
    0.01666,
    0.01666,
    0.01666,
    0.01666,
    0.01666
  ],
  "boarding_rate": 0.3333,
  "alighting_rate": 0.556,
  "dwell_time_function": [
    "max_board_or_alight",
    "stochastic"
  ],
  "adjacency_matrix": [
    [
      0,
      1,
      0,
      0,
      0,
      0,
      0,
      0,
      0,
      0,
      0,
      0
    ],
    [
      0,
      0,
      1,
      0,
      0,
      0,
      0,
      0,
      0,
      0,
      0,
      0
    ],
    [
      0,
      0,
      0,
      1,
      0,
      0,
      0,
      0,
      0,
      0,
      0,
      0
    ],
    [
      0,
      0,
      0,
      0,
      1,
      0,
      0,
      0,
      0,
      0,
      0,
      0
    ],
    [
      0,
      0,
      0,
      0,
      0,
      1,
      0,
      0,
      0,
      0,
      0,
      0
    ],
    [
      0,
      0,
      0,
      0,
      0,
      0,
      1,
      0,
      0,
      0,
      0,
      0
    ],
    [
      0,
      0,
      0,
      0,
      0,
      0,
      0,
      1,
      0,
      0,
      0,
      0
    ],
    [
      0,
      0,
      0,
      0,
      0,
      0,
      0,
      0,
      1,
      0,
      0,
      0
    ],
    [
      0,
      0,
      0,
      0,
      0,
      0,
      0,
      0,
      0,
      1,
      0,
      0
    ],
    [
      0,
      0,
      0,
      0,
      0,
      0,
      0,
      0,
      0,
      0,
      1,
      0
    ],
    [
      0,
      0,
      0,
      0,
      0,
      0,
      0,
      0,
      0,
      0,
      0,
      1
    ],
    [
      1,
      0,
      0,
      0,
      0,
      0,
      0,
      0,
      0,
      0,
      0,
      0
    ]
  ],
  "travel_time_edges": {
    "AB": [
      "lognormal",
      240,
      20,
      120,
      480
    ],
    "BC": [
      "lognormal",
      240,
      20,
      120,
      480
    ],
    "CD": [
      "lognormal",
      240,
      20,
      120,
      480
    ],
    "DE": [
      "lognormal",
      240,
      20,
      120,
      480
    ],
    "EF": [
      "lognormal",
      240,
      20,
      120,
      480
    ],
    "FG": [
      "lognormal",
      240,
      20,
      120,
      480
    ],
    "GH": [
      "lognormal",
      240,
      20,
      120,
      480
    ],
    "HI": [
      "lognormal",
      240,
      20,
      120,
      480
    ],
    "IJ": [
      "lognormal",
      240,
      20,
      120,
      480
    ],
    "JK": [
      "lognormal",
      240,
      20,
      120,
      480
    ],
    "KL": [
      "lognormal",
      240,
      20,
      120,
      480
    ],
    "LA": [
      "lognormal",
      240,
      20,
      120,
      480
    ]
  }
}