{
    "Average_holding_time": 59.08163265306123,
    "Average_holding_actions": [
        28,
        469,
        246,
        50,
        104,
        0
    ],
    "Average_travel_time_passengers": 2347.90151395806,
    "Average_passenger_waiting_time": 367.18706559060894,
    "Average_passenger_in_vehicle_time": 1980.714448367358,
    "Average_speed_busses": 0.04083333333333333,
    "Average_experienced_crowding": 93.80899298024843,
    "Average_covariation_headway": 0.24642372064059426,
    "Average_covariation_headway_stops": {
        "H": 0.20190210943404044,
        "G": 0.16566282893999518,
        "E": 0.14318827275177207,
        "F": 0.14273227863655435,
        "K": 0.15072790168947492,
        "I": 0.17755042749874358,
        "C": 0.13456913239740662,
        "L": 0.11966172642350899,
        "J": 0.1510413123476907,
        "D": 0.10849393193492606,
        "A": 0.10681935134580414,
        "B": 0.12463206194046354
    },
    "Average_excess_waiting_time": {
        "H": 103.07983916448183,
        "G": 101.00891082104147,
        "E": 103.47225503632,
        "F": 100.81564136483922,
        "K": 98.0887969805654,
        "I": 101.37843858900447,
        "C": 102.32724220149368,
        "L": 97.25539261108258,
        "J": 100.87840659610566,
        "D": 102.71473519202249,
        "A": 98.65036157267508,
        "B": 103.229862270652
    },
    "Holding_per_stop": {
        "H": 64.33734939759036,
        "G": 41.34146341463415,
        "K": 67.6829268292683,
        "I": 70.60975609756098,
        "F": 47.5609756097561,
        "E": 38.51851851851852,
        "C": 37.03703703703704,
        "L": 71.70731707317073,
        "J": 72.8048780487805,
        "A": 106.29629629629629,
        "D": 31.85185185185185,
        "B": 58.888888888888886
    },
    "Actions_tfl_edges": {},
    "Load_per_bus_per_stop": {
        "bus4": {
            "H": 114.57142857142857,
            "I": 108.85714285714286,
            "J": 101.64285714285714,
            "K": 91.21428571428571,
            "L": 81.85714285714286,
            "A": 71.57142857142857,
            "B": 62.07142857142857,
            "C": 54.214285714285715,
            "D": 51.92857142857143,
            "E": 49.69230769230769,
            "F": 75.23076923076923,
            "G": 113.53846153846153
        },
        "bus3": {
            "G": 107.64285714285714,
            "H": 115.14285714285714,
            "I": 109.92857142857143,
            "J": 104.28571428571429,
            "K": 94.57142857142857,
            "L": 84.85714285714286,
            "A": 74,
            "B": 63.57142857142857,
            "C": 55.61538461538461,
            "D": 53.84615384615385,
            "E": 52.30769230769231,
            "F": 78.23076923076923
        },
        "bus1": {
            "E": 49.57142857142857,
            "F": 75.21428571428571,
            "G": 111.21428571428571,
            "H": 119.57142857142857,
            "I": 117.35714285714286,
            "J": 110,
            "K": 100.76923076923077,
            "L": 88.61538461538461,
            "A": 76.92307692307692,
            "B": 66.07692307692308,
            "C": 60.76923076923077,
            "D": 56.30769230769231
        },
        "bus2": {
            "F": 72,
            "G": 110.42857142857143,
            "H": 119.57142857142857,
            "I": 114.21428571428571,
            "J": 106.5,
            "K": 96.64285714285714,
            "L": 84.64285714285714,
            "A": 70.3076923076923,
            "B": 61.46153846153846,
            "C": 56.53846153846154,
            "D": 51.53846153846154,
            "E": 50.07692307692308
        },
        "bus5": {
            "K": 95.92857142857143,
            "L": 86.71428571428571,
            "A": 73.57142857142857,
            "B": 63.857142857142854,
            "C": 58.07142857142857,
            "D": 53.214285714285715,
            "E": 52.142857142857146,
            "F": 73.21428571428571,
            "G": 115.23076923076923,
            "H": 122.84615384615384,
            "I": 118.38461538461539,
            "J": 114.61538461538461
        },
        "bus0": {
            "C": 58.642857142857146,
            "D": 54.5,
            "E": 54.214285714285715,
            "F": 80.07142857142857,
            "G": 123.5,
            "H": 135.42857142857142,
            "I": 134.14285714285714,
            "J": 123.23076923076923,
            "K": 112.38461538461539,
            "L": 98,
            "A": 83.38461538461539,
            "B": 69.46153846153847
        }
    },
    "Obs_and_actions_busses": {
        "0": -284.5499053658407,
        "1": -34.87354105576772,
        "2": -21.142276422723537,
        "3": 17.927710843373593,
        "4": 53.97999999979966,
        "5": 162.8089527957829
    },
    "Obs_and_actions_tfls": {}
}