{
    "Average_holding_time": 58.43718079673136,
    "Average_holding_actions": [
        24,
        478,
        239,
        41,
        98,
        0
    ],
    "Average_travel_time_passengers": 2331.763523761493,
    "Average_passenger_waiting_time": 368.2153721175123,
    "Average_passenger_in_vehicle_time": 1963.5481516438745,
    "Average_speed_busses": 0.040791666666666664,
    "Average_experienced_crowding": 92.88574576375093,
    "Average_covariation_headway": 0.2361448324703537,
    "Average_covariation_headway_stops": {
        "I": 0.1560712961771555,
        "E": 0.12716174542879782,
        "K": 0.1302812668784072,
        "L": 0.13282145074207,
        "D": 0.12377971924905756,
        "A": 0.12931340975562677,
        "F": 0.10383566567344478,
        "J": 0.12088208376249696,
        "G": 0.09067383482843414,
        "B": 0.1003593017575971,
        "H": 0.10966019297142608,
        "C": 0.1051437582012682
    },
    "Average_excess_waiting_time": {
        "I": 102.65144265091175,
        "E": 96.95352129840785,
        "K": 100.51455661601881,
        "L": 98.39231754864664,
        "D": 99.35461570377856,
        "A": 96.10530688762685,
        "F": 97.03942859998745,
        "J": 102.05534795911467,
        "G": 97.79075470373999,
        "B": 96.6853397822785,
        "H": 101.02123882232672,
        "C": 99.93857128024092
    },
    "Holding_per_stop": {
        "E": 33.65853658536585,
        "I": 70.2439024390244,
        "L": 72.8048780487805,
        "A": 104.26829268292683,
        "K": 72.22222222222223,
        "D": 35.48780487804878,
        "F": 46.829268292682926,
        "J": 69.25925925925925,
        "B": 61.46341463414634,
        "G": 44.81481481481482,
        "H": 53.7037037037037,
        "C": 36.2962962962963
    },
    "Actions_tfl_edges": {},
    "Load_per_bus_per_stop": {
        "bus2": {
            "I": 108.35714285714286,
            "J": 104,
            "K": 93.85714285714286,
            "L": 82.14285714285714,
            "A": 73.57142857142857,
            "B": 63.857142857142854,
            "C": 56.92307692307692,
            "D": 50.07692307692308,
            "E": 48.84615384615385,
            "F": 75.38461538461539,
            "G": 113.6923076923077,
            "H": 123.23076923076923
        },
        "bus1": {
            "E": 50,
            "F": 76.85714285714286,
            "G": 117.14285714285714,
            "H": 127.14285714285714,
            "I": 121.5,
            "J": 114.57142857142857,
            "K": 104.42857142857143,
            "L": 90.35714285714286,
            "A": 77.57142857142857,
            "B": 68.3076923076923,
            "C": 62.46153846153846,
            "D": 56
        },
        "bus3": {
            "K": 90.28571428571429,
            "L": 80.85714285714286,
            "A": 70.57142857142857,
            "B": 60.57142857142857,
            "C": 57.42857142857143,
            "D": 56.92857142857143,
            "E": 52.84615384615385,
            "F": 78.92307692307692,
            "G": 116.38461538461539,
            "H": 124.76923076923077,
            "I": 116.6923076923077,
            "J": 107.38461538461539
        },
        "bus4": {
            "L": 84.28571428571429,
            "A": 72.21428571428571,
            "B": 61.642857142857146,
            "C": 53.214285714285715,
            "D": 50.857142857142854,
            "E": 52.142857142857146,
            "F": 76.92857142857143,
            "G": 115.38461538461539,
            "H": 124.53846153846153,
            "I": 119.46153846153847,
            "J": 112.07692307692308,
            "K": 101.84615384615384
        },
        "bus0": {
            "D": 49.785714285714285,
            "E": 47.42857142857143,
            "F": 72.92857142857143,
            "G": 111.28571428571429,
            "H": 121.07142857142857,
            "I": 117.92857142857143,
            "J": 109.71428571428571,
            "K": 99.92857142857143,
            "L": 90.6923076923077,
            "A": 78.6923076923077,
            "B": 67.46153846153847,
            "C": 61.15384615384615
        },
        "bus5": {
            "A": 74.85714285714286,
            "B": 64.57142857142857,
            "C": 57.642857142857146,
            "D": 55.214285714285715,
            "E": 54.142857142857146,
            "F": 78.14285714285714,
            "G": 118.57142857142857,
            "H": 128.57142857142858,
            "I": 122.35714285714286,
            "J": 116,
            "K": 102.92307692307692,
            "L": 90.76923076923077
        }
    },
    "Obs_and_actions_busses": {
        "5": 156.34451019294244,
        "4": 76.28651401847429,
        "3": 14.343434344949564,
        "1": -33.37786106682269,
        "2": -16.439338076694362,
        "0": -297.2743035700274
    },
    "Obs_and_actions_tfls": {}
}