{
    "Average_holding_time": 59.7239263803681,
    "Average_holding_actions": [
        39,
        450,
        232,
        28,
        117,
        0
    ],
    "Average_travel_time_passengers": 2353.843592970963,
    "Average_passenger_waiting_time": 376.19104040383843,
    "Average_passenger_in_vehicle_time": 1977.652552567035,
    "Average_speed_busses": 0.04075,
    "Average_experienced_crowding": 94.63745196228034,
    "Average_covariation_headway": 0.280177034051746,
    "Average_covariation_headway_stops": {
        "H": 0.25875971431867806,
        "G": 0.23252957541101452,
        "E": 0.21070280677842762,
        "F": 0.2138507746866527,
        "K": 0.18814941313022993,
        "L": 0.18088067732937216,
        "I": 0.24057772773748817,
        "A": 0.14270123243498486,
        "J": 0.19913766906948768,
        "B": 0.13283314934124194,
        "C": 0.1531392113091835,
        "D": 0.18509764926040012
    },
    "Average_excess_waiting_time": {
        "H": 114.38317254738388,
        "G": 112.41174913861528,
        "E": 114.253989572016,
        "F": 111.72861395400611,
        "K": 103.95862855477077,
        "L": 100.61686320873918,
        "I": 113.01469681338557,
        "A": 99.48754243811942,
        "J": 108.58131470457982,
        "B": 101.87005464350761,
        "C": 106.48732295387316,
        "D": 113.26049393098936
    },
    "Holding_per_stop": {
        "H": 57.4390243902439,
        "G": 48.65853658536585,
        "L": 73.73493975903614,
        "F": 47.407407407407405,
        "I": 73.90243902439025,
        "K": 73.53658536585365,
        "E": 37.03703703703704,
        "A": 98.78048780487805,
        "J": 72.5925925925926,
        "B": 61.111111111111114,
        "C": 37.407407407407405,
        "D": 33.75
    },
    "Actions_tfl_edges": {},
    "Load_per_bus_per_stop": {
        "bus3": {
            "H": 109.78571428571429,
            "I": 107.42857142857143,
            "J": 101.07142857142857,
            "K": 92.35714285714286,
            "L": 81.92857142857143,
            "A": 73.21428571428571,
            "B": 63.92857142857143,
            "C": 56,
            "D": 51.69230769230769,
            "E": 49.46153846153846,
            "F": 71.38461538461539,
            "G": 108.84615384615384
        },
        "bus2": {
            "G": 103.28571428571429,
            "H": 110.35714285714286,
            "I": 108.78571428571429,
            "J": 102.42857142857143,
            "K": 92.64285714285714,
            "L": 84.14285714285714,
            "A": 72.14285714285714,
            "B": 64.3076923076923,
            "C": 57.92307692307692,
            "D": 54.84615384615385,
            "E": 53.23076923076923,
            "F": 76.38461538461539
        },
        "bus0": {
            "E": 47.714285714285715,
            "F": 75.92857142857143,
            "G": 113.07142857142857,
            "H": 123.42857142857143,
            "I": 120.28571428571429,
            "J": 112.14285714285714,
            "K": 99.76923076923077,
            "L": 87.92307692307692,
            "A": 76.07692307692308,
            "B": 66.61538461538461,
            "C": 61.30769230769231,
            "D": 55.61538461538461
        },
        "bus1": {
            "F": 74.64285714285714,
            "G": 111.92857142857143,
            "H": 120.14285714285714,
            "I": 116.35714285714286,
            "J": 107.28571428571429,
            "K": 97.5,
            "L": 86.57142857142857,
            "A": 75.07692307692308,
            "B": 65.07692307692308,
            "C": 59.76923076923077,
            "D": 54.46153846153846,
            "E": 50.76923076923077
        },
        "bus4": {
            "K": 93.14285714285714,
            "L": 82.14285714285714,
            "A": 72.21428571428571,
            "B": 61.714285714285715,
            "C": 57.92857142857143,
            "D": 55.357142857142854,
            "E": 54.92857142857143,
            "F": 79.3076923076923,
            "G": 116.3076923076923,
            "H": 124.84615384615384,
            "I": 119.53846153846153,
            "J": 109.76923076923077
        },
        "bus5": {
            "L": 91.71428571428571,
            "A": 81.57142857142857,
            "B": 70.92857142857143,
            "C": 61.57142857142857,
            "D": 58.785714285714285,
            "E": 57.42857142857143,
            "F": 86.5,
            "G": 126.5,
            "H": 138.30769230769232,
            "I": 133.30769230769232,
            "J": 126.53846153846153,
            "K": 111.84615384615384
        }
    },
    "Obs_and_actions_busses": {
        "1": -34.59481512576008,
        "2": -18.866804171126418,
        "3": 12.241071429107194,
        "0": -512.3998451544173,
        "5": 217.91331681927343,
        "4": 116.64285714214168
    },
    "Obs_and_actions_tfls": {}
}