{
    "Average_holding_time": 56.417004048582996,
    "Average_holding_actions": [
        38,
        457,
        272,
        34,
        80,
        0
    ],
    "Average_travel_time_passengers": 2331.0450171327984,
    "Average_passenger_waiting_time": 365.4063696036627,
    "Average_passenger_in_vehicle_time": 1965.6386475290287,
    "Average_speed_busses": 0.041166666666666664,
    "Average_experienced_crowding": 91.49583918398564,
    "Average_covariation_headway": 0.24908384236041733,
    "Average_covariation_headway_stops": {
        "H": 0.21389161098677598,
        "G": 0.17111490851700312,
        "J": 0.18495487282097084,
        "L": 0.14219924502753048,
        "I": 0.18699220852243376,
        "B": 0.10519500658634579,
        "C": 0.10963742124820948,
        "K": 0.14423787559975043,
        "A": 0.10544817198004529,
        "D": 0.08794236056411375,
        "E": 0.1027770070124067,
        "F": 0.1328995997683139
    },
    "Average_excess_waiting_time": {
        "H": 105.60157922235436,
        "G": 102.28120533338034,
        "J": 99.75859807407755,
        "L": 94.77394320758418,
        "I": 102.28287809989246,
        "B": 92.98948662318128,
        "C": 91.67123857325112,
        "K": 97.28116175794258,
        "A": 93.97073481767865,
        "D": 92.45272532978692,
        "E": 96.25830713385085,
        "F": 100.78208571714686
    },
    "Holding_per_stop": {
        "H": 52.7710843373494,
        "J": 72.28915662650603,
        "G": 44.26829268292683,
        "L": 67.2289156626506,
        "I": 64.39024390243902,
        "C": 35.06024096385542,
        "B": 60.72289156626506,
        "K": 66.21951219512195,
        "A": 101.34146341463415,
        "D": 32.5609756097561,
        "E": 29.634146341463413,
        "F": 50.370370370370374
    },
    "Actions_tfl_edges": {},
    "Load_per_bus_per_stop": {
        "bus3": {
            "H": 109.71428571428571,
            "I": 108.64285714285714,
            "J": 102.21428571428571,
            "K": 94.5,
            "L": 83.85714285714286,
            "A": 73.57142857142857,
            "B": 63.714285714285715,
            "C": 56.5,
            "D": 52.57142857142857,
            "E": 52.61538461538461,
            "F": 76.61538461538461,
            "G": 109.46153846153847
        },
        "bus2": {
            "G": 107.21428571428571,
            "H": 116.57142857142857,
            "I": 112.85714285714286,
            "J": 105.28571428571429,
            "K": 96.35714285714286,
            "L": 85.07142857142857,
            "A": 73.85714285714286,
            "B": 63.714285714285715,
            "C": 56,
            "D": 52.69230769230769,
            "E": 52,
            "F": 80.92307692307692
        },
        "bus4": {
            "J": 105.42857142857143,
            "K": 93.57142857142857,
            "L": 84.21428571428571,
            "A": 73.21428571428571,
            "B": 62.5,
            "C": 55.785714285714285,
            "D": 51.42857142857143,
            "E": 49.857142857142854,
            "F": 74.57142857142857,
            "G": 115.07692307692308,
            "H": 124.23076923076923,
            "I": 121.3076923076923
        },
        "bus5": {
            "L": 77.57142857142857,
            "A": 68.07142857142857,
            "B": 57.357142857142854,
            "C": 52,
            "D": 47.785714285714285,
            "E": 46.214285714285715,
            "F": 73.78571428571429,
            "G": 108.92857142857143,
            "H": 120.21428571428571,
            "I": 117,
            "J": 108.84615384615384,
            "K": 97.6923076923077
        },
        "bus0": {
            "B": 61.42857142857143,
            "C": 55.07142857142857,
            "D": 49.5,
            "E": 50.42857142857143,
            "F": 78.07142857142857,
            "G": 115.42857142857143,
            "H": 123.57142857142857,
            "I": 118.42857142857143,
            "J": 111.5,
            "K": 103.38461538461539,
            "L": 89,
            "A": 76.53846153846153
        },
        "bus1": {
            "C": 54.857142857142854,
            "D": 53.285714285714285,
            "E": 49.5,
            "F": 74.21428571428571,
            "G": 109.78571428571429,
            "H": 119.07142857142857,
            "I": 116.35714285714286,
            "J": 109.5,
            "K": 99.92857142857143,
            "L": 88.5,
            "A": 75.92857142857143,
            "B": 65.76923076923077
        }
    },
    "Obs_and_actions_busses": {
        "1": -24.494575706447726,
        "2": -10.620511541875272,
        "5": 207.03781319472918,
        "4": 99.0882352985293,
        "3": 1.2110217652476594,
        "0": -344.56902659438276
    },
    "Obs_and_actions_tfls": {}
}24672,
        "1": -37.33315043380147,
        "4": 88.65000682377443
    },
    "Obs_and_actions_tfls": {}
}