{
    "Average_holding_time": 18.451327433628318,
    "Average_holding_actions": [
        835,
        0,
        198,
        0,
        4,
        0
    ],
    "Average_travel_time_passengers": 2038.9630545465616,
    "Average_passenger_waiting_time": 326.60855187929235,
    "Average_passenger_in_vehicle_time": 1712.3545026672502,
    "Average_speed_busses": 0.04708333333333333,
    "Average_experienced_crowding": 57.6244130653115,
    "Average_covariation_headway": 0.308677866420262,
    "Average_covariation_headway_stops": {
        "H": 0.24211142721067927,
        "A": 0.21300880274055398,
        "E": 0.24054312020316843,
        "C": 0.2128344999184493,
        "D": 0.23056719850351262,
        "K": 0.21056707784202114,
        "B": 0.20986034695294403,
        "I": 0.23263040462940024,
        "L": 0.1982683717325727,
        "F": 0.23534737500178735,
        "J": 0.22377336075616502,
        "G": 0.22858565981990006
    },
    "Average_excess_waiting_time": {
        "H": 56.85639007210159,
        "A": 54.28854738390311,
        "E": 56.32708185424133,
        "C": 55.82893989089109,
        "D": 56.116083559933315,
        "K": 53.413263758351945,
        "B": 55.84472618753017,
        "I": 55.974417992167105,
        "L": 53.761599772957425,
        "F": 55.88022854769116,
        "J": 57.3793594187149,
        "G": 56.559198371151524
    },
    "Holding_per_stop": {
        "A": 14.361702127659575,
        "E": 19.894736842105264,
        "C": 14.361702127659575,
        "H": 22.736842105263158,
        "D": 16.914893617021278,
        "K": 17.23404255319149,
        "B": 15.319148936170214,
        "I": 21.06382978723404,
        "L": 16.595744680851062,
        "F": 21.382978723404257,
        "G": 19.148936170212767,
        "J": 22.340425531914892
    },
    "Actions_tfl_edges": {
        "BC": [
            95,
            0,
            0
        ],
        "CD": [
            95,
            0,
            0
        ],
        "DE": [
            95,
            0,
            0
        ],
        "GH": [
            95,
            0,
            0
        ],
        "JK": [
            95,
            0,
            0
        ],
        "LA": [
            95,
            0,
            0
        ],
        "AB": [
            94,
            0,
            0
        ],
        "EF": [
            95,
            0,
            0
        ],
        "HI": [
            95,
            0,
            0
        ],
        "KL": [
            94,
            0,
            0
        ],
        "IJ": [
            94,
            0,
            0
        ],
        "FG": [
            94,
            0,
            0
        ]
    },
    "Load_per_bus_per_stop": {
        "bus3": {
            "H": 55.25,
            "I": 54.1875,
            "J": 53.875,
            "K": 53,
            "L": 52.1875,
            "A": 50.3125,
            "B": 52.875,
            "C": 55.6875,
            "D": 57.266666666666666,
            "E": 57.266666666666666,
            "F": 58.93333333333333,
            "G": 60.06666666666667
        },
        "bus5": {
            "A": 53.6875,
            "B": 54.5,
            "C": 56,
            "D": 56.5625,
            "E": 60.0625,
            "F": 62.1875,
            "G": 61.875,
            "H": 60.5625,
            "I": 61.13333333333333,
            "J": 60,
            "K": 60.266666666666666,
            "L": 59.333333333333336
        },
        "bus2": {
            "E": 50.6875,
            "F": 49.25,
            "G": 47.9375,
            "H": 49.1875,
            "I": 52.0625,
            "J": 53.125,
            "K": 54.5,
            "L": 56.0625,
            "A": 57.3125,
            "B": 58.5,
            "C": 58.86666666666667,
            "D": 56.2
        },
        "bus0": {
            "C": 55.75,
            "D": 54.25,
            "E": 53.6875,
            "F": 54.5,
            "G": 53.4375,
            "H": 52.1875,
            "I": 53.375,
            "J": 55.8125,
            "K": 56.53333333333333,
            "L": 57.86666666666667,
            "A": 57.53333333333333,
            "B": 59.4
        },
        "bus1": {
            "D": 51.375,
            "E": 52.8125,
            "F": 54.3125,
            "G": 56.25,
            "H": 55,
            "I": 54.5,
            "J": 53.5625,
            "K": 52.5,
            "L": 52.625,
            "A": 53,
            "B": 52.2,
            "C": 52.93333333333333
        },
        "bus4": {
            "K": 56.3125,
            "L": 57.0625,
            "A": 58.75,
            "B": 61.0625,
            "C": 59.0625,
            "D": 59.5625,
            "E": 57.25,
            "F": 57.2,
            "G": 57.4,
            "H": 57.333333333333336,
            "I": 57.53333333333333,
            "J": 57.46666666666667
        }
    },
    "Obs_and_actions_busses": {
        "2": 158.76252488888647,
        "3": 300.82647395780486,
        "0": -92.33400664762993,
        "5": 460.9448653308362
    },
    "Obs_and_actions_tfls": {
        "0": 135.39012164564897
    }
}.282915850798
    }
}