{
    "Average_holding_time": 22.304230423042306,
    "Average_holding_actions": [
        769,
        0,
        222,
        0,
        11,
        0
    ],
    "Average_travel_time_passengers": 2116.1117658409457,
    "Average_passenger_waiting_time": 345.06404051943963,
    "Average_passenger_in_vehicle_time": 1771.0477253214956,
    "Average_speed_busses": 0.04629166666666667,
    "Average_experienced_crowding": 62.107756063332964,
    "Average_covariation_headway": 0.3749601628172836,
    "Average_covariation_headway_stops": {
        "K": 0.2885807096574458,
        "C": 0.29403107422391617,
        "B": 0.2733206122345597,
        "J": 0.29013864321211563,
        "I": 0.30360658511600613,
        "D": 0.27983841856002456,
        "L": 0.2813646291912059,
        "E": 0.2838725959233363,
        "A": 0.2667098082648768,
        "F": 0.2585523566228982,
        "G": 0.2707660372044758,
        "H": 0.27718007496366526
    },
    "Average_excess_waiting_time": {
        "K": 69.29467947361519,
        "C": 71.63947759313618,
        "B": 69.3923851687311,
        "J": 71.80382455229449,
        "I": 75.97002306425497,
        "D": 67.72572281862938,
        "L": 70.3464643344642,
        "E": 68.97414969012402,
        "A": 71.3687593378678,
        "F": 66.67077333094193,
        "G": 70.50759031030498,
        "H": 73.82554999929658
    },
    "Holding_per_stop": {
        "K": 20.967741935483872,
        "C": 23.225806451612904,
        "J": 23.548387096774192,
        "D": 24.516129032258064,
        "B": 20.543478260869566,
        "I": 24.782608695652176,
        "L": 23.548387096774192,
        "E": 23.870967741935484,
        "A": 21.52173913043478,
        "F": 20.322580645161292,
        "G": 20.217391304347824,
        "H": 20.543478260869566
    },
    "Actions_tfl_edges": {
        "AB": [
            93,
            0,
            0
        ],
        "BC": [
            93,
            0,
            0
        ],
        "CD": [
            94,
            0,
            0
        ],
        "HI": [
            93,
            0,
            0
        ],
        "IJ": [
            93,
            0,
            0
        ],
        "JK": [
            94,
            0,
            0
        ],
        "KL": [
            93,
            0,
            0
        ],
        "DE": [
            93,
            0,
            0
        ],
        "LA": [
            93,
            0,
            0
        ],
        "EF": [
            93,
            0,
            0
        ],
        "FG": [
            93,
            0,
            0
        ],
        "GH": [
            92,
            0,
            0
        ]
    },
    "Load_per_bus_per_stop": {
        "bus5": {
            "K": 55.75,
            "L": 56.875,
            "A": 57.75,
            "B": 58.75,
            "C": 58.5,
            "D": 60.625,
            "E": 60.93333333333333,
            "F": 58.93333333333333,
            "G": 57.86666666666667,
            "H": 59.666666666666664,
            "I": 59.4,
            "J": 59.733333333333334
        },
        "bus1": {
            "C": 45.875,
            "D": 46,
            "E": 46.625,
            "F": 47.625,
            "G": 47.9375,
            "H": 47.3125,
            "I": 48.733333333333334,
            "J": 49.2,
            "K": 50,
            "L": 49.666666666666664,
            "A": 50.2,
            "B": 49
        },
        "bus0": {
            "B": 50.75,
            "C": 51.875,
            "D": 52.3125,
            "E": 54.0625,
            "F": 54.6875,
            "G": 55.4,
            "H": 55.666666666666664,
            "I": 56.46666666666667,
            "J": 55.4,
            "K": 54.4,
            "L": 54.333333333333336,
            "A": 52.666666666666664
        },
        "bus4": {
            "J": 61.375,
            "K": 63.0625,
            "L": 61.0625,
            "A": 62.375,
            "B": 63,
            "C": 63.6,
            "D": 62.666666666666664,
            "E": 61.2,
            "F": 61.8,
            "G": 63.733333333333334,
            "H": 64.06666666666666,
            "I": 63.333333333333336
        },
        "bus3": {
            "I": 60.4375,
            "J": 59.3125,
            "K": 60.6875,
            "L": 61.0625,
            "A": 65.73333333333333,
            "B": 65.6,
            "C": 64.8,
            "D": 67.66666666666667,
            "E": 70.73333333333333,
            "F": 67.8,
            "G": 66.73333333333333,
            "H": 66
        },
        "bus2": {
            "D": 60.1875,
            "E": 59.875,
            "F": 61.3125,
            "G": 59.875,
            "H": 61.1875,
            "I": 62.25,
            "J": 61.125,
            "K": 62.9375,
            "L": 63.333333333333336,
            "A": 62.2,
            "B": 64.4,
            "C": 64.86666666666666
        }
    },
    "Obs_and_actions_busses": {
        "5": 650.1083828887685,
        "2": 168.13316692305918,
        "3": 298.648243432291,
        "0": -119.25403045689603
    },
    "Obs_and_actions_tfls": {
        "0": 135.33296731504223
    }
}