{
    "Average_holding_time": 22.47992863514719,
    "Average_holding_actions": [
        778,
        0,
        213,
        0,
        12,
        0
    ],
    "Average_travel_time_passengers": 2069.6891720943604,
    "Average_passenger_waiting_time": 337.22001084800456,
    "Average_passenger_in_vehicle_time": 1732.4691612463396,
    "Average_speed_busses": 0.04670833333333333,
    "Average_experienced_crowding": 61.41133646496358,
    "Average_covariation_headway": 0.37177131159324545,
    "Average_covariation_headway_stops": {
        "H": 0.29289325731276133,
        "J": 0.29626480005445593,
        "C": 0.30440901836560863,
        "I": 0.3012967421111896,
        "G": 0.30670135706468044,
        "D": 0.30364496016094417,
        "K": 0.2908817438752829,
        "E": 0.2901611716789377,
        "F": 0.2752978157088821,
        "L": 0.2716025944555012,
        "A": 0.27325904598872874,
        "B": 0.2910862799864155
    },
    "Average_excess_waiting_time": {
        "H": 68.2414169503204,
        "J": 66.34389560621378,
        "C": 74.07465209141589,
        "I": 69.10659225701744,
        "G": 72.6044178472132,
        "D": 72.02133184341903,
        "K": 66.22005392112084,
        "E": 69.64987977599799,
        "F": 68.92118900246516,
        "L": 65.19814312296069,
        "A": 68.27399441898865,
        "B": 72.66392096460498
    },
    "Holding_per_stop": {
        "H": 22.659574468085108,
        "J": 23.05263157894737,
        "I": 20.425531914893618,
        "D": 22.580645161290324,
        "C": 26.129032258064516,
        "G": 26.451612903225808,
        "K": 22.340425531914892,
        "E": 19.35483870967742,
        "F": 21.29032258064516,
        "L": 22.02127659574468,
        "A": 21.29032258064516,
        "B": 22.17391304347826
    },
    "Actions_tfl_edges": {
        "BC": [
            93,
            0,
            0
        ],
        "CD": [
            94,
            0,
            0
        ],
        "FG": [
            94,
            0,
            0
        ],
        "GH": [
            94,
            0,
            0
        ],
        "HI": [
            95,
            0,
            0
        ],
        "IJ": [
            95,
            0,
            0
        ],
        "JK": [
            95,
            0,
            0
        ],
        "DE": [
            93,
            0,
            0
        ],
        "KL": [
            94,
            0,
            0
        ],
        "EF": [
            93,
            0,
            0
        ],
        "LA": [
            94,
            0,
            0
        ],
        "AB": [
            93,
            0,
            0
        ]
    },
    "Load_per_bus_per_stop": {
        "bus3": {
            "H": 52.3125,
            "I": 52.0625,
            "J": 53.9375,
            "K": 56.4375,
            "L": 55.875,
            "A": 55.625,
            "B": 53,
            "C": 50.53333333333333,
            "D": 50.266666666666666,
            "E": 48.93333333333333,
            "F": 50.333333333333336,
            "G": 54
        },
        "bus5": {
            "J": 60.75,
            "K": 61.1875,
            "L": 61.375,
            "A": 62,
            "B": 63.5,
            "C": 62.4375,
            "D": 61.3125,
            "E": 61.1875,
            "F": 61.4375,
            "G": 61.86666666666667,
            "H": 61.86666666666667,
            "I": 63.86666666666667
        },
        "bus0": {
            "C": 60.8125,
            "D": 61.375,
            "E": 62.6875,
            "F": 62.0625,
            "G": 61.5625,
            "H": 60.875,
            "I": 61.4,
            "J": 59.2,
            "K": 61,
            "L": 60.733333333333334,
            "A": 63.266666666666666,
            "B": 63.13333333333333
        },
        "bus4": {
            "I": 42.0625,
            "J": 42.625,
            "K": 41.5,
            "L": 41.875,
            "A": 42.5625,
            "B": 44.125,
            "C": 47.375,
            "D": 47.75,
            "E": 47.8,
            "F": 48.266666666666666,
            "G": 48.13333333333333,
            "H": 46.93333333333333
        },
        "bus2": {
            "G": 58.8125,
            "H": 58.4375,
            "I": 58.8125,
            "J": 60.0625,
            "K": 59.75,
            "L": 61.3125,
            "A": 62.6,
            "B": 62.86666666666667,
            "C": 64.26666666666667,
            "D": 65.33333333333333,
            "E": 65.13333333333334,
            "F": 63
        },
        "bus1": {
            "D": 60.8125,
            "E": 61.1875,
            "F": 64.125,
            "G": 65.3125,
            "H": 65,
            "I": 63.3125,
            "J": 63.1875,
            "K": 60.733333333333334,
            "L": 60.53333333333333,
            "A": 60.6,
            "B": 60.6,
            "C": 63.2
        }
    },
    "Obs_and_actions_busses": {
        "5": 664.2554611552122,
        "3": 309.7133152920079,
        "0": -126.86000066411738,
        "2": 168.66453291272484
    },
    "Obs_and_actions_tfls": {
        "0": 129.6355344896886
    }
}