{
    "Average_holding_time": 19.690812720848058,
    "Average_holding_actions": [
        814,
        0,
        225,
        0,
        7,
        0
    ],
    "Average_travel_time_passengers": 2052.8428565831373,
    "Average_passenger_waiting_time": 330.41107915743737,
    "Average_passenger_in_vehicle_time": 1722.4317774256826,
    "Average_speed_busses": 0.04716666666666667,
    "Average_experienced_crowding": 59.503565993317494,
    "Average_covariation_headway": 0.3144687378570675,
    "Average_covariation_headway_stops": {
        "G": 0.22918701976321407,
        "E": 0.24177867036522904,
        "D": 0.2269775318002875,
        "L": 0.2529886543090737,
        "H": 0.22487846955588459,
        "A": 0.258623099240887,
        "F": 0.21883623735395358,
        "B": 0.2324824236160645,
        "I": 0.213163645281746,
        "C": 0.22010653580832967,
        "J": 0.2222144595786767,
        "K": 0.23382220337010107
    },
    "Average_excess_waiting_time": {
        "G": 54.91919424053805,
        "E": 56.616773684564805,
        "D": 56.08059174021571,
        "L": 60.795123337080156,
        "H": 52.09671828993953,
        "A": 59.467978200446055,
        "F": 55.099096409908555,
        "B": 57.675961985869776,
        "I": 52.05198299648606,
        "C": 57.551951413936706,
        "J": 54.83205863750885,
        "K": 60.12891537827568
    },
    "Holding_per_stop": {
        "E": 20.842105263157894,
        "H": 21.157894736842106,
        "G": 22.736842105263158,
        "A": 18.31578947368421,
        "D": 21.70212765957447,
        "L": 16.595744680851062,
        "F": 17.872340425531913,
        "B": 21.70212765957447,
        "I": 19.894736842105264,
        "C": 20.74468085106383,
        "J": 16.595744680851062,
        "K": 18.06451612903226
    },
    "Actions_tfl_edges": {
        "CD": [
            95,
            0,
            0
        ],
        "DE": [
            95,
            0,
            0
        ],
        "FG": [
            95,
            0,
            0
        ],
        "GH": [
            96,
            0,
            0
        ],
        "KL": [
            94,
            0,
            0
        ],
        "LA": [
            95,
            0,
            0
        ],
        "EF": [
            95,
            0,
            0
        ],
        "HI": [
            95,
            0,
            0
        ],
        "AB": [
            95,
            0,
            0
        ],
        "BC": [
            94,
            0,
            0
        ],
        "IJ": [
            95,
            0,
            0
        ],
        "JK": [
            94,
            0,
            0
        ]
    },
    "Load_per_bus_per_stop": {
        "bus2": {
            "G": 55.625,
            "H": 57.0625,
            "I": 56.5,
            "J": 55.6875,
            "K": 58.5,
            "L": 57.5,
            "A": 57.5,
            "B": 56.5,
            "C": 56.9375,
            "D": 56,
            "E": 58.666666666666664,
            "F": 58.8
        },
        "bus1": {
            "E": 55.8125,
            "F": 57.75,
            "G": 57.25,
            "H": 58.75,
            "I": 59.375,
            "J": 59.9375,
            "K": 60.125,
            "L": 59.625,
            "A": 58.4375,
            "B": 60.06666666666667,
            "C": 58.86666666666667,
            "D": 59.733333333333334
        },
        "bus0": {
            "D": 52.375,
            "E": 50.875,
            "F": 53.0625,
            "G": 53.8125,
            "H": 54.4375,
            "I": 56.375,
            "J": 55.8125,
            "K": 56.75,
            "L": 56.86666666666667,
            "A": 57.266666666666666,
            "B": 56.93333333333333,
            "C": 56.333333333333336
        },
        "bus4": {
            "L": 53.375,
            "A": 54.5,
            "B": 57.125,
            "C": 56.8125,
            "D": 56.5,
            "E": 57.5625,
            "F": 58.875,
            "G": 58.5,
            "H": 59,
            "I": 57.266666666666666,
            "J": 56.86666666666667,
            "K": 55.13333333333333
        },
        "bus3": {
            "H": 58.875,
            "I": 58.625,
            "J": 60.5625,
            "K": 60.625,
            "L": 60.6875,
            "A": 60.6875,
            "B": 60.4375,
            "C": 59.0625,
            "D": 59,
            "E": 61.4375,
            "F": 62.53333333333333,
            "G": 63.13333333333333
        },
        "bus5": {
            "A": 53.9375,
            "B": 54.625,
            "C": 54.5625,
            "D": 54.5625,
            "E": 55.5625,
            "F": 55,
            "G": 55.0625,
            "H": 54.75,
            "I": 57.25,
            "J": 56.875,
            "K": 58.13333333333333,
            "L": 56.8
        }
    },
    "Obs_and_actions_busses": {
        "3": 294.64203447569514,
        "2": 165.82030645065717,
        "0": -102.52830949443444,
        "5": 612.5677622107665
    },
    "Obs_and_actions_tfls": {
        "0": 139.94088902336978
    }
}