{
    "Average_holding_time": 21.657754010695186,
    "Average_holding_actions": [
        795,
        0,
        211,
        0,
        20,
        0
    ],
    "Average_travel_time_passengers": 2077.511991809274,
    "Average_passenger_waiting_time": 346.61783177472967,
    "Average_passenger_in_vehicle_time": 1730.894160034544,
    "Average_speed_busses": 0.04675,
    "Average_experienced_crowding": 60.7073237741403,
    "Average_covariation_headway": 0.36281295234374444,
    "Average_covariation_headway_stops": {
        "C": 0.3382610348113408,
        "A": 0.35165755967319234,
        "G": 0.2953010593645611,
        "B": 0.33570684272835916,
        "D": 0.3292173008709797,
        "F": 0.31300298091625145,
        "E": 0.31871592890669104,
        "H": 0.27307483395182625,
        "I": 0.25171668897541577,
        "J": 0.2653978754486471,
        "K": 0.2895167704205013,
        "L": 0.3301392585926321
    },
    "Average_excess_waiting_time": {
        "C": 79.07041839169398,
        "A": 84.75061315525215,
        "G": 65.99051128107158,
        "B": 80.110126195948,
        "D": 73.57881510282306,
        "F": 71.25892704610118,
        "E": 73.64081343173791,
        "H": 63.63949621712658,
        "I": 62.132353547310004,
        "J": 66.3924737957127,
        "K": 72.74394643022566,
        "L": 82.00938693954424
    },
    "Holding_per_stop": {
        "C": 21.29032258064516,
        "G": 25.894736842105264,
        "D": 20.425531914893618,
        "B": 21.93548387096774,
        "F": 22.659574468085108,
        "A": 24.838709677419356,
        "H": 26.170212765957448,
        "E": 20.425531914893618,
        "I": 21.70212765957447,
        "J": 17.741935483870968,
        "K": 15.161290322580646,
        "L": 21.52173913043478
    },
    "Actions_tfl_edges": {
        "AB": [
            94,
            0,
            0
        ],
        "BC": [
            94,
            0,
            0
        ],
        "CD": [
            94,
            0,
            0
        ],
        "EF": [
            95,
            0,
            0
        ],
        "FG": [
            95,
            0,
            0
        ],
        "LA": [
            93,
            0,
            0
        ],
        "GH": [
            95,
            0,
            0
        ],
        "DE": [
            94,
            0,
            0
        ],
        "HI": [
            94,
            0,
            0
        ],
        "IJ": [
            94,
            0,
            0
        ],
        "JK": [
            93,
            0,
            0
        ],
        "KL": [
            93,
            0,
            0
        ]
    },
    "Load_per_bus_per_stop": {
        "bus1": {
            "C": 58.25,
            "D": 58.5625,
            "E": 58.0625,
            "F": 58,
            "G": 56.8125,
            "H": 56.4375,
            "I": 55.8125,
            "J": 56.333333333333336,
            "K": 58.06666666666667,
            "L": 58.93333333333333,
            "A": 58.13333333333333,
            "B": 59.6
        },
        "bus5": {
            "A": 57.3125,
            "B": 57.3125,
            "C": 57.8125,
            "D": 59.0625,
            "E": 61.4375,
            "F": 63.266666666666666,
            "G": 63,
            "H": 62.8,
            "I": 62.733333333333334,
            "J": 62.46666666666667,
            "K": 62.666666666666664,
            "L": 62.266666666666666
        },
        "bus4": {
            "G": 56.0625,
            "H": 55.8125,
            "I": 57.0625,
            "J": 59.3125,
            "K": 58.5625,
            "L": 58.375,
            "A": 59.25,
            "B": 58.875,
            "C": 59,
            "D": 58.4,
            "E": 58.266666666666666,
            "F": 57.8
        },
        "bus0": {
            "B": 58.9375,
            "C": 59.8125,
            "D": 59.6875,
            "E": 58.4375,
            "F": 58.4375,
            "G": 60.6875,
            "H": 61.8,
            "I": 62.2,
            "J": 60.53333333333333,
            "K": 62.53333333333333,
            "L": 60,
            "A": 61.333333333333336
        },
        "bus2": {
            "D": 50.375,
            "E": 53,
            "F": 53,
            "G": 55.3125,
            "H": 57.3125,
            "I": 56.75,
            "J": 56.5,
            "K": 56.625,
            "L": 54.86666666666667,
            "A": 52.2,
            "B": 51.53333333333333,
            "C": 53.93333333333333
        },
        "bus3": {
            "F": 46.4375,
            "G": 46.375,
            "H": 47.4375,
            "I": 46.8125,
            "J": 47.875,
            "K": 49.625,
            "L": 50.0625,
            "A": 50.25,
            "B": 51.4,
            "C": 50,
            "D": 49.06666666666667,
            "E": 49.8
        }
    },
    "Obs_and_actions_busses": {
        "0": -120.88385303398525,
        "2": 163.528342201675,
        "3": 290.15153786940317,
        "5": 700.5277933990684
    },
    "Obs_and_actions_tfls": {
        "0": 126.93765959761303
    }
}