{
    "Average_holding_time": 20.8325952170062,
    "Average_holding_actions": [
        792,
        0,
        235,
        0,
        4,
        0
    ],
    "Average_travel_time_passengers": 2063.2835166376935,
    "Average_passenger_waiting_time": 333.5441551997297,
    "Average_passenger_in_vehicle_time": 1729.73936143796,
    "Average_speed_busses": 0.04704166666666667,
    "Average_experienced_crowding": 60.793692707942384,
    "Average_covariation_headway": 0.34244477966528825,
    "Average_covariation_headway_stops": {
        "D": 0.2637369510465856,
        "E": 0.252650782549691,
        "I": 0.27309878992611125,
        "J": 0.2513368467506346,
        "B": 0.2732476485525751,
        "K": 0.24964649877167938,
        "F": 0.23747348159523599,
        "L": 0.23803138605271365,
        "C": 0.2743124443170007,
        "A": 0.24897094439201106,
        "G": 0.23528649984279007,
        "H": 0.2419739181089589
    },
    "Average_excess_waiting_time": {
        "D": 61.3390502122611,
        "E": 57.92698976377295,
        "I": 65.51177791500095,
        "J": 59.96190809109612,
        "B": 62.87393424645336,
        "K": 57.757703390850224,
        "F": 59.000444432827635,
        "L": 57.297801493448105,
        "C": 64.87503985155388,
        "A": 61.33724291252298,
        "G": 60.19813452410028,
        "H": 62.50921731269915
    },
    "Holding_per_stop": {
        "E": 23.36842105263158,
        "J": 20.74468085106383,
        "D": 21.382978723404257,
        "K": 17.05263157894737,
        "B": 20.106382978723403,
        "I": 21.382978723404257,
        "F": 24.893617021276597,
        "L": 19.46808510638298,
        "C": 22.659574468085108,
        "A": 19.46808510638298,
        "G": 19.78723404255319,
        "H": 19.677419354838708
    },
    "Actions_tfl_edges": {
        "AB": [
            95,
            0,
            0
        ],
        "CD": [
            95,
            0,
            0
        ],
        "DE": [
            95,
            0,
            0
        ],
        "HI": [
            94,
            0,
            0
        ],
        "IJ": [
            95,
            0,
            0
        ],
        "JK": [
            95,
            0,
            0
        ],
        "EF": [
            95,
            0,
            0
        ],
        "KL": [
            95,
            0,
            0
        ],
        "BC": [
            94,
            0,
            0
        ],
        "FG": [
            94,
            0,
            0
        ],
        "LA": [
            94,
            0,
            0
        ],
        "GH": [
            94,
            0,
            0
        ]
    },
    "Load_per_bus_per_stop": {
        "bus1": {
            "D": 54.3125,
            "E": 54.25,
            "F": 53.5625,
            "G": 53.875,
            "H": 53.8125,
            "I": 55.875,
            "J": 57,
            "K": 57.875,
            "L": 57.4375,
            "A": 55.733333333333334,
            "B": 56.13333333333333,
            "C": 57
        },
        "bus2": {
            "E": 50.375,
            "F": 51.1875,
            "G": 51.6875,
            "H": 52.9375,
            "I": 53.0625,
            "J": 53.8125,
            "K": 56.125,
            "L": 53.1875,
            "A": 52.8125,
            "B": 50,
            "C": 50.6,
            "D": 50.46666666666667
        },
        "bus3": {
            "I": 56.9375,
            "J": 57.6875,
            "K": 58.0625,
            "L": 57.5,
            "A": 58.5,
            "B": 57.125,
            "C": 57.25,
            "D": 58.86666666666667,
            "E": 58.86666666666667,
            "F": 58.46666666666667,
            "G": 60.333333333333336,
            "H": 60.733333333333334
        },
        "bus4": {
            "J": 56.625,
            "K": 57.5625,
            "L": 57.5625,
            "A": 56.875,
            "B": 57.25,
            "C": 56.6875,
            "D": 55.8125,
            "E": 53.9375,
            "F": 57,
            "G": 57.86666666666667,
            "H": 58.86666666666667,
            "I": 59.666666666666664
        },
        "bus0": {
            "B": 58,
            "C": 59.3125,
            "D": 60.0625,
            "E": 60.25,
            "F": 60.125,
            "G": 59.3125,
            "H": 60,
            "I": 59.875,
            "J": 58.46666666666667,
            "K": 60.53333333333333,
            "L": 62.46666666666667,
            "A": 60.86666666666667
        },
        "bus5": {
            "K": 58.875,
            "L": 61,
            "A": 62.875,
            "B": 63.75,
            "C": 64.875,
            "D": 65.6875,
            "E": 64.8125,
            "F": 64.5625,
            "G": 65.75,
            "H": 61.266666666666666,
            "I": 62.06666666666667,
            "J": 62.06666666666667
        }
    },
    "Obs_and_actions_busses": {
        "3": 296.63710233846564,
        "2": 165.065222996987,
        "0": -107.51189916143683,
        "5": 617.12509233702
    },
    "Obs_and_actions_tfls": {
        "0": 136.9867756292616
    }
}