{
    "Average_holding_time": 20.688729874776385,
    "Average_holding_actions": [
        787,
        0,
        236,
        0,
        7,
        0
    ],
    "Average_travel_time_passengers": 2078.079335597924,
    "Average_passenger_waiting_time": 328.82042993596684,
    "Average_passenger_in_vehicle_time": 1749.25890566193,
    "Average_speed_busses": 0.04658333333333333,
    "Average_experienced_crowding": 60.65305254237649,
    "Average_covariation_headway": 0.32059223101219286,
    "Average_covariation_headway_stops": {
        "A": 0.2751933028658584,
        "G": 0.24705382088524602,
        "H": 0.2523757568982638,
        "C": 0.24249415790036,
        "F": 0.2409189263865577,
        "I": 0.24858242501687028,
        "D": 0.2348534575294537,
        "B": 0.241754172416963,
        "J": 0.2312670692783959,
        "E": 0.23936455225714995,
        "K": 0.23821566121464438,
        "L": 0.24065882388090734
    },
    "Average_excess_waiting_time": {
        "A": 66.1068498030956,
        "G": 62.96191447087375,
        "H": 61.98763429641434,
        "C": 61.399418397054035,
        "F": 63.84082261964687,
        "I": 59.11779700485556,
        "D": 62.67847732232951,
        "B": 62.321333356152195,
        "J": 58.388208422803245,
        "E": 65.76649544181629,
        "K": 62.01207669093748,
        "L": 63.661295495578486
    },
    "Holding_per_stop": {
        "G": 18.70967741935484,
        "C": 18.387096774193548,
        "H": 21.382978723404257,
        "I": 19.78723404255319,
        "A": 26.129032258064516,
        "F": 20.967741935483872,
        "D": 19.032258064516128,
        "J": 20.106382978723403,
        "B": 23.870967741935484,
        "E": 18.91304347826087,
        "K": 22.903225806451612,
        "L": 18.06451612903226
    },
    "Actions_tfl_edges": {
        "BC": [
            94,
            0,
            0
        ],
        "EF": [
            93,
            0,
            0
        ],
        "FG": [
            94,
            0,
            0
        ],
        "GH": [
            94,
            0,
            0
        ],
        "HI": [
            95,
            0,
            0
        ],
        "LA": [
            94,
            0,
            0
        ],
        "CD": [
            93,
            0,
            0
        ],
        "IJ": [
            94,
            0,
            0
        ],
        "AB": [
            93,
            0,
            0
        ],
        "DE": [
            93,
            0,
            0
        ],
        "JK": [
            94,
            0,
            0
        ],
        "KL": [
            93,
            0,
            0
        ]
    },
    "Load_per_bus_per_stop": {
        "bus5": {
            "A": 59.125,
            "B": 59.6875,
            "C": 61.1875,
            "D": 66.0625,
            "E": 64.75,
            "F": 64.125,
            "G": 64.93333333333334,
            "H": 63.93333333333333,
            "I": 66.6,
            "J": 66.13333333333334,
            "K": 64.86666666666666,
            "L": 65.33333333333333
        },
        "bus2": {
            "G": 50.0625,
            "H": 52.75,
            "I": 52.3125,
            "J": 53.5625,
            "K": 52.5625,
            "L": 51.0625,
            "A": 50.93333333333333,
            "B": 52.2,
            "C": 53.13333333333333,
            "D": 53.46666666666667,
            "E": 55,
            "F": 53.266666666666666
        },
        "bus3": {
            "H": 53.75,
            "I": 53.4375,
            "J": 54.4375,
            "K": 55.0625,
            "L": 54.4375,
            "A": 54,
            "B": 54.6875,
            "C": 54.3125,
            "D": 54.333333333333336,
            "E": 55.2,
            "F": 55.46666666666667,
            "G": 55.8
        },
        "bus0": {
            "C": 58.0625,
            "D": 59.3125,
            "E": 60,
            "F": 60.5,
            "G": 62.125,
            "H": 61.5625,
            "I": 61.06666666666667,
            "J": 62.2,
            "K": 60.86666666666667,
            "L": 60.333333333333336,
            "A": 61.666666666666664,
            "B": 61.46666666666667
        },
        "bus1": {
            "F": 53.625,
            "G": 52.875,
            "H": 51.6875,
            "I": 52.25,
            "J": 53.6875,
            "K": 55.53333333333333,
            "L": 58.13333333333333,
            "A": 59.06666666666667,
            "B": 56.8,
            "C": 56.93333333333333,
            "D": 56.93333333333333,
            "E": 55.8
        },
        "bus4": {
            "I": 58.6875,
            "J": 61.75,
            "K": 60.9375,
            "L": 65.125,
            "A": 66.25,
            "B": 64.5625,
            "C": 62.3125,
            "D": 63.125,
            "E": 62.6,
            "F": 61.86666666666667,
            "G": 62.06666666666667,
            "H": 62.86666666666667
        }
    },
    "Obs_and_actions_busses": {
        "5": 506.16144187580437,
        "2": 166.11729540310043,
        "0": -105.50924587300833,
        "3": 294.1011540953184
    },
    "Obs_and_actions_tfls": {
        "0": 133.5316555315501
    }
}