{
    "Average_holding_time": 18.433098591549296,
    "Average_holding_actions": [
        840,
        0,
        206,
        0,
        8,
        0
    ],
    "Average_travel_time_passengers": 2054.447194231141,
    "Average_passenger_waiting_time": 330.6436514794725,
    "Average_passenger_in_vehicle_time": 1723.803542751668,
    "Average_speed_busses": 0.04733333333333333,
    "Average_experienced_crowding": 59.18178775444892,
    "Average_covariation_headway": 0.3356734044247019,
    "Average_covariation_headway_stops": {
        "K": 0.2480738335146364,
        "G": 0.2576980909768777,
        "H": 0.24959219983489273,
        "F": 0.27391363962053983,
        "E": 0.2715206584319961,
        "L": 0.24606968649454264,
        "I": 0.2321947054523951,
        "A": 0.22682471621262937,
        "J": 0.22888987830436103,
        "B": 0.23850329681130436,
        "C": 0.23389725549697996,
        "D": 0.25170552275516356
    },
    "Average_excess_waiting_time": {
        "K": 57.90057857881993,
        "G": 57.553089865663765,
        "H": 54.442299967659835,
        "F": 62.81865985157674,
        "E": 64.1978220826864,
        "L": 55.6058867569177,
        "I": 54.6267593751715,
        "A": 54.29107943564105,
        "J": 55.617874478342344,
        "B": 57.49793130560249,
        "C": 58.57838263040787,
        "D": 62.60688237086407
    },
    "Holding_per_stop": {
        "G": 19.263157894736842,
        "H": 17.1875,
        "F": 20.842105263157894,
        "L": 19.263157894736842,
        "K": 17.68421052631579,
        "E": 18.829787234042552,
        "I": 19.57894736842105,
        "A": 14.842105263157896,
        "J": 17.36842105263158,
        "B": 19.46808510638298,
        "C": 20.74468085106383,
        "D": 16.129032258064516
    },
    "Actions_tfl_edges": {
        "DE": [
            94,
            0,
            0
        ],
        "EF": [
            95,
            0,
            0
        ],
        "FG": [
            96,
            0,
            0
        ],
        "GH": [
            96,
            0,
            0
        ],
        "JK": [
            96,
            0,
            0
        ],
        "KL": [
            96,
            0,
            0
        ],
        "HI": [
            96,
            0,
            0
        ],
        "LA": [
            95,
            0,
            0
        ],
        "IJ": [
            95,
            0,
            0
        ],
        "AB": [
            95,
            0,
            0
        ],
        "BC": [
            94,
            0,
            0
        ],
        "CD": [
            94,
            0,
            0
        ]
    },
    "Load_per_bus_per_stop": {
        "bus4": {
            "K": 56.75,
            "L": 57.0625,
            "A": 57,
            "B": 56,
            "C": 56.125,
            "D": 55.5,
            "E": 57,
            "F": 57.0625,
            "G": 58.375,
            "H": 58.5,
            "I": 57.46666666666667,
            "J": 57.46666666666667
        },
        "bus2": {
            "G": 53.9375,
            "H": 53.875,
            "I": 56.3125,
            "J": 57.375,
            "K": 57.125,
            "L": 57.9375,
            "A": 58.6875,
            "B": 59.6875,
            "C": 57.75,
            "D": 57.6,
            "E": 56.6,
            "F": 58.06666666666667
        },
        "bus3": {
            "H": 48.625,
            "I": 50.25,
            "J": 51.125,
            "K": 51.75,
            "L": 50.875,
            "A": 50.8125,
            "B": 50.25,
            "C": 48.0625,
            "D": 51.5625,
            "E": 52.25,
            "F": 53.5,
            "G": 52.666666666666664
        },
        "bus1": {
            "F": 56.625,
            "G": 57.1875,
            "H": 57.3125,
            "I": 55.9375,
            "J": 56.125,
            "K": 58.1875,
            "L": 59.5,
            "A": 60.625,
            "B": 59.53333333333333,
            "C": 59.06666666666667,
            "D": 58.53333333333333,
            "E": 59
        },
        "bus0": {
            "E": 55.375,
            "F": 55.8125,
            "G": 56.125,
            "H": 56.25,
            "I": 57.3125,
            "J": 56.6875,
            "K": 58.375,
            "L": 60.46666666666667,
            "A": 60.666666666666664,
            "B": 60.666666666666664,
            "C": 60.93333333333333,
            "D": 61.666666666666664
        },
        "bus5": {
            "L": 57.5625,
            "A": 57.625,
            "B": 56.8125,
            "C": 59.3125,
            "D": 60.375,
            "E": 61.0625,
            "F": 59.4375,
            "G": 59.75,
            "H": 58.5,
            "I": 58.25,
            "J": 58.6875,
            "K": 59.06666666666667
        }
    },
    "Obs_and_actions_busses": {
        "0": -94.2700311087742,
        "2": 164.70893411000128,
        "3": 289.5173817076957,
        "5": 727.6842737974429
    },
    "Obs_and_actions_tfls": {
        "0": 134.97781266145222
    }
}_actions_tfls": {
        "0": 127.83378619478626
    }
}