{
    "Average_holding_time": 0,
    "Average_holding_actions": [
        585,
        0,
        0,
        0,
        0,
        0
    ],
    "Average_travel_time_passengers": 7052.850603918542,
    "Average_passenger_waiting_time": 3045.824887424882,
    "Average_passenger_in_vehicle_time": 4007.0257164935647,
    "Average_speed_busses": 0.024375,
    "Average_experienced_crowding": 741.4593663729341,
    "Average_covariation_headway": 2.217116140223316,
    "Average_covariation_headway_stops": {
        "I": 2.297789685831131,
        "E": 2.320478711014244,
        "K": 2.3322501289392235,
        "L": 2.3442793856998816,
        "A": 2.3664709115379963,
        "B": 2.266522216477109,
        "J": 2.3168713872739333,
        "F": 2.0589234897299615,
        "G": 1.9032089680975954,
        "C": 2.342500809339899,
        "H": 2.1625404182791987,
        "D": 2.2934064343111262
    },
    "Average_excess_waiting_time": {
        "I": 3284.1997306547078,
        "E": 3065.9662558828636,
        "K": 3388.042181905657,
        "L": 3395.1603870665103,
        "A": 3426.297690531193,
        "B": 3419.0424028673037,
        "J": 3376.932007738693,
        "F": 2571.701425374512,
        "G": 2335.025514601328,
        "C": 3082.5963837949134,
        "H": 2972.1639395461343,
        "D": 3019.2800521152194
    },
    "Holding_per_stop": {
        "I": 0,
        "E": 0,
        "K": 0,
        "L": 0,
        "A": 0,
        "B": 0,
        "J": 0,
        "F": 0,
        "C": 0,
        "G": 0,
        "H": 0,
        "D": 0
    },
    "Actions_tfl_edges": {},
    "Load_per_bus_per_stop": {
        "bus2": {
            "I": 20.444444444444443,
            "J": 19.11111111111111,
            "K": 18,
            "L": 15.222222222222221,
            "A": 14.333333333333334,
            "B": 13.625,
            "C": 12.375,
            "D": 13.125,
            "E": 12.625,
            "F": 17,
            "G": 23.5,
            "H": 24
        },
        "bus1": {
            "E": 362.625,
            "F": 541,
            "G": 797.375,
            "H": 887.875,
            "I": 872.25,
            "J": 817.125,
            "K": 757.5,
            "L": 672.5,
            "A": 599.625,
            "B": 518.75,
            "C": 425.42857142857144,
            "D": 412
        },
        "bus3": {
            "K": 4.666666666666667,
            "L": 3.7777777777777777,
            "A": 3.2222222222222223,
            "B": 3,
            "C": 2,
            "D": 3.125,
            "E": 3.25,
            "F": 4.75,
            "G": 8.625,
            "H": 7.75,
            "I": 6.125,
            "J": 5.25
        },
        "bus4": {
            "L": 5.555555555555555,
            "A": 4.777777777777778,
            "B": 5.375,
            "C": 4.5,
            "D": 4.375,
            "E": 4.125,
            "F": 6.875,
            "G": 11.375,
            "H": 10.75,
            "I": 9.375,
            "J": 8.25,
            "K": 7.5
        },
        "bus5": {
            "A": 12.777777777777779,
            "B": 10.125,
            "C": 8,
            "D": 5.75,
            "E": 4.5,
            "F": 11.875,
            "G": 29.125,
            "H": 30,
            "I": 28.5,
            "J": 25.25,
            "K": 21.625,
            "L": 17.625
        },
        "bus0": {
            "B": 77.77777777777777,
            "C": 67.125,
            "D": 60.25,
            "E": 56.125,
            "F": 104,
            "G": 181.75,
            "H": 191.875,
            "I": 181.125,
            "J": 164.25,
            "K": 145,
            "L": 125.125,
            "A": 106.75
        }
    },
    "Obs_and_actions_busses": {
        "0": 13.579235445364192
    },
    "Obs_and_actions_tfls": {}
}