{
    "Average_holding_time": 16.914893617021278,
    "Average_holding_actions": [
        791,
        120,
        135,
        0,
        0,
        0
    ],
    "Average_travel_time_passengers": 2686.0785315032663,
    "Average_passenger_waiting_time": 323.59849682091675,
    "Average_passenger_in_vehicle_time": 2362.4800346822435,
    "Average_speed_busses": 0.047,
    "Average_experienced_crowding": 109.24277201852506,
    "Average_covariation_headway": 0.24861413088868559,
    "Average_covariation_headway_stops": {
        "I": 0.16980137456214595,
        "F": 0.15323597162380193,
        "J": 0.16695953020430124,
        "L": 0.14089938904504618,
        "D": 0.1612697192996664,
        "A": 0.13612195844876385,
        "G": 0.14209906271477582,
        "K": 0.13661022671006864,
        "E": 0.14223664468847952,
        "H": 0.14286084901579665,
        "B": 0.11943250366776646,
        "C": 0.1405950650755799
    },
    "Average_excess_waiting_time": {
        "I": 55.16991046987715,
        "F": 52.983242811345804,
        "J": 53.01081607286699,
        "L": 50.655679830840256,
        "D": 53.808209727034125,
        "A": 48.47351007774506,
        "G": 53.14010872303487,
        "K": 52.18195432677845,
        "E": 53.55934095868474,
        "H": 54.85408197002164,
        "B": 49.45670298759916,
        "C": 53.353389921875134
    },
    "Holding_per_stop": {
        "J": 24.574468085106382,
        "I": 22.340425531914892,
        "L": 11.48936170212766,
        "A": 12.631578947368421,
        "F": 12.127659574468085,
        "D": 6.382978723404255,
        "K": 26.170212765957448,
        "G": 34.787234042553195,
        "B": 5.1063829787234045,
        "E": 38.297872340425535,
        "H": 4.193548387096774,
        "C": 4.787234042553192
    },
    "Actions_tfl_edges": {},
    "Load_per_bus_per_stop": {
        "bus2": {
            "I": 126.625,
            "J": 119.5,
            "K": 111.5,
            "L": 102.5625,
            "A": 94.125,
            "B": 85.8125,
            "C": 80.0625,
            "D": 76.86666666666666,
            "E": 77.46666666666667,
            "F": 99.26666666666667,
            "G": 128.46666666666667,
            "H": 137.46666666666667
        },
        "bus1": {
            "F": 94.0625,
            "G": 128.3125,
            "H": 136.5625,
            "I": 133.875,
            "J": 127.9375,
            "K": 120.875,
            "L": 111.1875,
            "A": 101.5,
            "B": 90.4,
            "C": 83.66666666666667,
            "D": 79.2,
            "E": 76.06666666666666
        },
        "bus3": {
            "J": 112.5,
            "K": 103.5625,
            "L": 95.875,
            "A": 87.875,
            "B": 80.875,
            "C": 76.625,
            "D": 74.5,
            "E": 71.875,
            "F": 93.8,
            "G": 123.06666666666666,
            "H": 129.46666666666667,
            "I": 126.13333333333334
        },
        "bus4": {
            "L": 98.3125,
            "A": 87.6875,
            "B": 79.3125,
            "C": 74.1875,
            "D": 72.3125,
            "E": 73.5625,
            "F": 95.6875,
            "G": 126.8125,
            "H": 138.26666666666668,
            "I": 135.13333333333333,
            "J": 126.46666666666667,
            "K": 115.93333333333334
        },
        "bus0": {
            "D": 79.4375,
            "E": 80.0625,
            "F": 106.3125,
            "G": 136.4375,
            "H": 143.25,
            "I": 142.625,
            "J": 134.375,
            "K": 126.4375,
            "L": 114.875,
            "A": 104,
            "B": 93.86666666666666,
            "C": 87.53333333333333
        },
        "bus5": {
            "A": 90.875,
            "B": 83.75,
            "C": 80.25,
            "D": 75.9375,
            "E": 75.125,
            "F": 97.875,
            "G": 130,
            "H": 138.1875,
            "I": 136.4375,
            "J": 129.4375,
            "K": 118.4,
            "L": 107.33333333333333
        }
    },
    "Obs_and_actions_busses": {
        "3": 148.11817269192912,
        "0": -190.77652083073264,
        "2": 39.274911238523664,
        "1": -40.578882726056655
    },
    "Obs_and_actions_tfls": {}
}