{
    "Average_holding_time": 10.086430423509075,
    "Average_holding_actions": [
        872,
        222,
        38,
        0,
        8,
        0
    ],
    "Average_travel_time_passengers": 2605.792951933512,
    "Average_passenger_waiting_time": 310.99316627769196,
    "Average_passenger_in_vehicle_time": 2294.7997856556644,
    "Average_speed_busses": 0.04820833333333333,
    "Average_experienced_crowding": 106.25943758025059,
    "Average_covariation_headway": 0.25713154246542314,
    "Average_covariation_headway_stops": {
        "H": 0.1922055308014578,
        "E": 0.16548765578146163,
        "J": 0.16300144618876072,
        "K": 0.1514703306938089,
        "A": 0.13135823222741103,
        "B": 0.1302392652458013,
        "I": 0.17052608780325026,
        "L": 0.12912081781605012,
        "F": 0.13757951288373851,
        "C": 0.11847210168701398,
        "G": 0.15725534504442204,
        "D": 0.1380921287232827
    },
    "Average_excess_waiting_time": {
        "H": 49.49366051548941,
        "E": 45.922058202732444,
        "J": 45.93693175963443,
        "K": 43.34098086612943,
        "A": 41.89210181860045,
        "B": 40.644594203782844,
        "I": 48.19447252770493,
        "L": 42.95105612196562,
        "F": 44.83607113656461,
        "C": 41.80466629544992,
        "G": 47.83409976175642,
        "D": 45.16071799264665
    },
    "Holding_per_stop": {
        "H": 4.375,
        "K": 12.989690721649485,
        "J": 19.6875,
        "A": 6.185567010309279,
        "B": 2.783505154639175,
        "E": 14.22680412371134,
        "L": 10,
        "I": 16.5625,
        "C": 3.0927835051546393,
        "F": 12.5,
        "D": 1.875,
        "G": 16.875
    },
    "Actions_tfl_edges": {},
    "Load_per_bus_per_stop": {
        "bus2": {
            "H": 127.625,
            "I": 124.25,
            "J": 117.9375,
            "K": 110.1875,
            "L": 101.25,
            "A": 90.6875,
            "B": 83.4375,
            "C": 79.375,
            "D": 74.5,
            "E": 72.875,
            "F": 96.4375,
            "G": 129.625
        },
        "bus1": {
            "E": 73.76470588235294,
            "F": 98.625,
            "G": 132.75,
            "H": 143.1875,
            "I": 141.25,
            "J": 132.375,
            "K": 122.625,
            "L": 111.75,
            "A": 101.5,
            "B": 91.5,
            "C": 85.8125,
            "D": 79.5625
        },
        "bus3": {
            "J": 112.29411764705883,
            "K": 104.75,
            "L": 94.0625,
            "A": 86.375,
            "B": 76.6875,
            "C": 71.25,
            "D": 68.3125,
            "E": 68.3125,
            "F": 88.1875,
            "G": 117.5625,
            "H": 125.5,
            "I": 122.75
        },
        "bus4": {
            "K": 108.17647058823529,
            "L": 99.29411764705883,
            "A": 89.8125,
            "B": 82.125,
            "C": 78.6875,
            "D": 75,
            "E": 74.9375,
            "F": 96.8125,
            "G": 127.5,
            "H": 137.25,
            "I": 132.8125,
            "J": 124.5625
        },
        "bus5": {
            "A": 82.58823529411765,
            "B": 75.4375,
            "C": 70.9375,
            "D": 66.9375,
            "E": 66.0625,
            "F": 86.125,
            "G": 114.375,
            "H": 126.0625,
            "I": 121,
            "J": 114.8125,
            "K": 106.375,
            "L": 97.8125
        },
        "bus0": {
            "B": 83.05882352941177,
            "C": 79.47058823529412,
            "D": 75.4375,
            "E": 75.6875,
            "F": 99.25,
            "G": 130,
            "H": 138.75,
            "I": 134.875,
            "J": 129.625,
            "K": 118.25,
            "L": 107.1875,
            "A": 96.625
        }
    },
    "Obs_and_actions_busses": {
        "5": 344.10830195710537,
        "3": 183.26394580639513,
        "0": -195.69507580689847,
        "1": 23.672470031818197,
        "2": 99.57194474462736
    },
    "Obs_and_actions_tfls": {}
}