{
    "Average_holding_time": 15.462555066079295,
    "Average_holding_actions": [
        827,
        107,
        125,
        0,
        0,
        0
    ],
    "Average_travel_time_passengers": 2657.1731530994425,
    "Average_passenger_waiting_time": 315.9030171276089,
    "Average_passenger_in_vehicle_time": 2341.2701359717157,
    "Average_speed_busses": 0.04729166666666667,
    "Average_experienced_crowding": 108.42799287712938,
    "Average_covariation_headway": 0.25046627957565887,
    "Average_covariation_headway_stops": {
        "G": 0.18430851802477735,
        "E": 0.15352378168676625,
        "F": 0.1600675640847372,
        "K": 0.14886763985339907,
        "H": 0.17942892139473124,
        "D": 0.15215671184273852,
        "A": 0.1280789114932335,
        "I": 0.1643587498119541,
        "L": 0.13057025782501885,
        "B": 0.1119848373579351,
        "J": 0.1489683294130283,
        "C": 0.13084019450896137
    },
    "Average_excess_waiting_time": {
        "G": 50.951762984162826,
        "E": 51.515340633014205,
        "F": 50.3965812557671,
        "K": 49.53758739400854,
        "H": 51.30752485782,
        "D": 53.26620777435596,
        "A": 47.98441156021704,
        "I": 50.88820923207271,
        "L": 49.4477944377694,
        "B": 49.11123124947915,
        "J": 51.2304446882265,
        "C": 52.74641531242162
    },
    "Holding_per_stop": {
        "G": 26.842105263157894,
        "F": 14.210526315789474,
        "H": 6.947368421052632,
        "E": 32.8421052631579,
        "A": 8.210526315789474,
        "K": 18.31578947368421,
        "D": 4.148936170212766,
        "I": 25.263157894736842,
        "L": 15.319148936170214,
        "B": 3.8297872340425534,
        "J": 25.851063829787233,
        "C": 3.5106382978723403
    },
    "Actions_tfl_edges": {},
    "Load_per_bus_per_stop": {
        "bus3": {
            "G": 117.4375,
            "H": 125.1875,
            "I": 124,
            "J": 117.9375,
            "K": 111,
            "L": 100.5625,
            "A": 91.8125,
            "B": 83.8125,
            "C": 76.4375,
            "D": 73,
            "E": 71.75,
            "F": 93.66666666666667
        },
        "bus1": {
            "E": 69.375,
            "F": 92.375,
            "G": 122.875,
            "H": 131.125,
            "I": 128.375,
            "J": 121.75,
            "K": 112.1875,
            "L": 102.5,
            "A": 94.4375,
            "B": 84.8,
            "C": 81.46666666666667,
            "D": 74.86666666666666
        },
        "bus2": {
            "F": 92.8125,
            "G": 126.8125,
            "H": 137.0625,
            "I": 132.3125,
            "J": 126.6875,
            "K": 117.125,
            "L": 105.25,
            "A": 95.75,
            "B": 87.625,
            "C": 82.625,
            "D": 77.93333333333334,
            "E": 76.6
        },
        "bus4": {
            "K": 105.9375,
            "L": 96.75,
            "A": 89,
            "B": 81.125,
            "C": 76.1875,
            "D": 74,
            "E": 73.375,
            "F": 97.125,
            "G": 129,
            "H": 134.2,
            "I": 129.26666666666668,
            "J": 122.93333333333334
        },
        "bus0": {
            "D": 77.125,
            "E": 73.0625,
            "F": 96.125,
            "G": 128.875,
            "H": 138,
            "I": 136.125,
            "J": 128.625,
            "K": 119.5,
            "L": 110.125,
            "A": 99.33333333333333,
            "B": 90.6,
            "C": 85
        },
        "bus5": {
            "A": 96.5625,
            "B": 88.1875,
            "C": 82.75,
            "D": 79.9375,
            "E": 78.625,
            "F": 102.1875,
            "G": 136.25,
            "H": 143.375,
            "I": 138.625,
            "J": 131.6875,
            "K": 125.13333333333334,
            "L": 114.53333333333333
        }
    },
    "Obs_and_actions_busses": {
        "0": -184.3690223597833,
        "3": 168.2826895038366,
        "2": 41.07399415371756,
        "1": -102.68556549142686
    },
    "Obs_and_actions_tfls": {}
}