{
    "Average_holding_time": 10.64935064935065,
    "Average_holding_actions": [
        841,
        290,
        0,
        0,
        24,
        0
    ],
    "Average_travel_time_passengers": 2608.971278792227,
    "Average_passenger_waiting_time": 310.83013918022954,
    "Average_passenger_in_vehicle_time": 2298.1411396118633,
    "Average_speed_busses": 0.048125,
    "Average_experienced_crowding": 105.9393109443082,
    "Average_covariation_headway": 0.25218702657844233,
    "Average_covariation_headway_stops": {
        "E": 0.14676860195763372,
        "J": 0.17078933899842752,
        "L": 0.13520622324588155,
        "D": 0.12498913653751499,
        "B": 0.12071820671711814,
        "C": 0.11725970774761708,
        "F": 0.11877481320678204,
        "A": 0.11536949028499842,
        "K": 0.13522854585817523,
        "G": 0.1211611211681657,
        "H": 0.12924463057825092,
        "I": 0.1574929102957321
    },
    "Average_excess_waiting_time": {
        "E": 41.64000672188496,
        "J": 47.56832789173444,
        "L": 44.08579537690446,
        "D": 41.39975679709647,
        "B": 43.736374686354054,
        "C": 42.2850555158152,
        "F": 40.8283337019364,
        "A": 44.43534702411591,
        "K": 45.69432916764447,
        "G": 42.06959204971116,
        "H": 44.17429584966294,
        "I": 47.95853710490718
    },
    "Holding_per_stop": {
        "L": 10.625,
        "E": 14.536082474226804,
        "D": 2.783505154639175,
        "J": 17.8125,
        "B": 2.8125,
        "C": 2.8125,
        "F": 20.103092783505154,
        "A": 5,
        "K": 15.3125,
        "G": 17.5,
        "H": 2.5,
        "I": 15.9375
    },
    "Actions_tfl_edges": {},
    "Load_per_bus_per_stop": {
        "bus3": {
            "E": 76.6470588235294,
            "F": 98.58823529411765,
            "G": 130.76470588235293,
            "H": 138.5625,
            "I": 134.8125,
            "J": 126.3125,
            "K": 117,
            "L": 108.625,
            "A": 97.9375,
            "B": 89.25,
            "C": 83.3125,
            "D": 80.6875
        },
        "bus4": {
            "J": 119.75,
            "K": 113.6875,
            "L": 103.5625,
            "A": 93.4375,
            "B": 83.75,
            "C": 80.25,
            "D": 77.125,
            "E": 75.375,
            "F": 97.1875,
            "G": 130.0625,
            "H": 139.8125,
            "I": 137.25
        },
        "bus5": {
            "L": 106.375,
            "A": 96.8125,
            "B": 87.875,
            "C": 82.75,
            "D": 82.0625,
            "E": 81.75,
            "F": 103.0625,
            "G": 135.8125,
            "H": 143.875,
            "I": 140.9375,
            "J": 134.875,
            "K": 125
        },
        "bus2": {
            "D": 62.294117647058826,
            "E": 62.9375,
            "F": 84.375,
            "G": 112.6875,
            "H": 118.8125,
            "I": 115.1875,
            "J": 110,
            "K": 101.3125,
            "L": 91.6875,
            "A": 82.375,
            "B": 74.5625,
            "C": 70.1875
        },
        "bus0": {
            "B": 80.625,
            "C": 73.875,
            "D": 71.625,
            "E": 71.8125,
            "F": 92.6875,
            "G": 124,
            "H": 132.625,
            "I": 128.6875,
            "J": 123.5625,
            "K": 113.5,
            "L": 103.875,
            "A": 95.0625
        },
        "bus1": {
            "C": 71.0625,
            "D": 67.5,
            "E": 67.3125,
            "F": 89.625,
            "G": 121.5,
            "H": 130.1875,
            "I": 125.875,
            "J": 120.125,
            "K": 112.125,
            "L": 100.375,
            "A": 91.875,
            "B": 82.0625
        }
    },
    "Obs_and_actions_busses": {
        "5": 246.87962636741582,
        "1": 36.09151315152155,
        "0": -199.94738802788004
    },
    "Obs_and_actions_tfls": {}
}