{
    "Average_holding_time": 9.03364969801553,
    "Average_holding_actions": [
        1000,
        0,
        147,
        5,
        7,
        0
    ],
    "Average_travel_time_passengers": 2590.7138115339553,
    "Average_passenger_waiting_time": 304.3602324270963,
    "Average_passenger_in_vehicle_time": 2286.353579106705,
    "Average_speed_busses": 0.04829166666666666,
    "Average_experienced_crowding": 105.41215361023148,
    "Average_covariation_headway": 0.22835924923834688,
    "Average_covariation_headway_stops": {
        "I": 0.12956013720397144,
        "F": 0.09241838557827944,
        "J": 0.11832724781461268,
        "D": 0.08462360089056262,
        "A": 0.08531639110991956,
        "B": 0.07509866955142444,
        "G": 0.08989746514766547,
        "K": 0.0869167261794362,
        "E": 0.0663779176516349,
        "H": 0.08535601653228504,
        "C": 0.058142502519337766,
        "L": 0.07818252595068738
    },
    "Average_excess_waiting_time": {
        "I": 41.78580447382279,
        "F": 39.26767886167613,
        "J": 39.42677442011268,
        "D": 38.90417161800201,
        "A": 39.1010068245501,
        "B": 37.40889866352336,
        "G": 40.43695521644918,
        "K": 38.90464345468183,
        "E": 39.31457395563848,
        "H": 41.03520664629258,
        "C": 38.79639384626813,
        "L": 39.910189652908
    },
    "Holding_per_stop": {
        "J": 8.65979381443299,
        "I": 26.5979381443299,
        "F": 11.1340206185567,
        "B": 1.8556701030927836,
        "D": 0.6185567010309279,
        "A": 6.185567010309279,
        "K": 7.422680412371134,
        "G": 14.6875,
        "E": 21.25,
        "H": 0.625,
        "C": 0,
        "L": 9.375
    },
    "Actions_tfl_edges": {},
    "Load_per_bus_per_stop": {
        "bus3": {
            "I": 125.29411764705883,
            "J": 118,
            "K": 110.125,
            "L": 101.125,
            "A": 89.8125,
            "B": 80.375,
            "C": 75.6875,
            "D": 72.1875,
            "E": 71.8125,
            "F": 93.5625,
            "G": 129.125,
            "H": 136.125
        },
        "bus2": {
            "F": 94.88235294117646,
            "G": 126.05882352941177,
            "H": 130.375,
            "I": 128.3125,
            "J": 121.6875,
            "K": 113.375,
            "L": 103.75,
            "A": 93,
            "B": 80.75,
            "C": 74.9375,
            "D": 74.1875,
            "E": 76.3125
        },
        "bus4": {
            "J": 111.82352941176471,
            "K": 105.6470588235294,
            "L": 97.875,
            "A": 88.5625,
            "B": 80.375,
            "C": 73.8125,
            "D": 71.25,
            "E": 70.25,
            "F": 92.8125,
            "G": 120.8125,
            "H": 129.0625,
            "I": 125.3125
        },
        "bus1": {
            "D": 73.58823529411765,
            "E": 72.5625,
            "F": 95.125,
            "G": 132.25,
            "H": 142.4375,
            "I": 137,
            "J": 130.0625,
            "K": 122.1875,
            "L": 109.875,
            "A": 97.875,
            "B": 87.5,
            "C": 81.8125
        },
        "bus5": {
            "A": 89.41176470588235,
            "B": 78.625,
            "C": 73.4375,
            "D": 69.875,
            "E": 68.8125,
            "F": 89.75,
            "G": 122.1875,
            "H": 130.125,
            "I": 127.5,
            "J": 121.8125,
            "K": 113.125,
            "L": 104.9375
        },
        "bus0": {
            "B": 83.52941176470588,
            "C": 76.70588235294117,
            "D": 73.9375,
            "E": 73.75,
            "F": 98.6875,
            "G": 131.1875,
            "H": 137.375,
            "I": 133.875,
            "J": 127.375,
            "K": 119.25,
            "L": 111.625,
            "A": 100.75
        }
    },
    "Obs_and_actions_busses": {
        "4": 315.90778853407693,
        "2": 61.90101058279874,
        "0": -168.6950914109696,
        "5": 175.3006955757768
    },
    "Obs_and_actions_tfls": {}
}fls": {}
} 187.33628544089365
    },
    "Obs_and_actions_tfls": {}
}