{
    "Average_holding_time": 29.28639391056137,
    "Average_holding_actions": [
        679,
        126,
        110,
        0,
        136,
        0
    ],
    "Average_travel_time_passengers": 3041.9079893875255,
    "Average_passenger_waiting_time": 467.60856896509694,
    "Average_passenger_in_vehicle_time": 2574.299420422347,
    "Average_speed_busses": 0.043791666666666666,
    "Average_experienced_crowding": 153.06052766195896,
    "Average_covariation_headway": 0.5444992142572254,
    "Average_covariation_headway_stops": {
        "H": 0.6565520007991225,
        "G": 0.5930525734624713,
        "I": 0.6750460950586372,
        "K": 0.6442533023891769,
        "L": 0.6222738950314145,
        "A": 0.6055059448528184,
        "J": 0.655313820475954,
        "B": 0.5774811778665038,
        "C": 0.557651389828606,
        "D": 0.5497468350542456,
        "E": 0.5467016312990809,
        "F": 0.5438349015465829
    },
    "Average_excess_waiting_time": {
        "H": 214.65714743586284,
        "G": 191.14450322839986,
        "I": 220.25821913496975,
        "K": 206.61538262993355,
        "L": 194.2551283340735,
        "A": 185.46550872072254,
        "J": 213.87522895605616,
        "B": 177.76719186966147,
        "C": 173.23054014170305,
        "D": 172.9692807475849,
        "E": 173.96210588800142,
        "F": 175.77469959835304
    },
    "Holding_per_stop": {
        "H": 23.448275862068964,
        "I": 38.18181818181818,
        "L": 27.640449438202246,
        "G": 38.62068965517241,
        "K": 29.318181818181817,
        "A": 22.247191011235955,
        "J": 33.44827586206897,
        "B": 17.045454545454547,
        "C": 18.40909090909091,
        "D": 27.93103448275862,
        "E": 39.6551724137931,
        "F": 35.93023255813954
    },
    "Actions_tfl_edges": {},
    "Load_per_bus_per_stop": {
        "bus1": {
            "H": 153.8,
            "I": 149.73333333333332,
            "J": 140.2,
            "K": 132.4,
            "L": 122.73333333333333,
            "A": 111.26666666666667,
            "B": 99.78571428571429,
            "C": 92.92857142857143,
            "D": 89.35714285714286,
            "E": 85.42857142857143,
            "F": 113.28571428571429,
            "G": 157.21428571428572
        },
        "bus0": {
            "G": 164,
            "H": 173.4,
            "I": 168.2,
            "J": 160,
            "K": 148,
            "L": 135.33333333333334,
            "A": 126.42857142857143,
            "B": 114.14285714285714,
            "C": 107.14285714285714,
            "D": 102.14285714285714,
            "E": 100.14285714285714,
            "F": 129.85714285714286
        },
        "bus2": {
            "I": 100.26666666666667,
            "J": 94.86666666666666,
            "K": 88.13333333333334,
            "L": 81.2,
            "A": 74.2,
            "B": 65.73333333333333,
            "C": 61.6,
            "D": 61.07142857142857,
            "E": 61.142857142857146,
            "F": 80.64285714285714,
            "G": 104.14285714285714,
            "H": 112
        },
        "bus3": {
            "K": 80.6,
            "L": 73.2,
            "A": 66.2,
            "B": 61,
            "C": 59.06666666666667,
            "D": 56.8,
            "E": 56.46666666666667,
            "F": 73.57142857142857,
            "G": 97.35714285714286,
            "H": 105.42857142857143,
            "I": 101.57142857142857,
            "J": 92.92857142857143
        },
        "bus4": {
            "L": 82.13333333333334,
            "A": 73.66666666666667,
            "B": 67.2,
            "C": 61.333333333333336,
            "D": 55.86666666666667,
            "E": 52.53333333333333,
            "F": 71.6,
            "G": 103.66666666666667,
            "H": 110.93333333333334,
            "I": 106.57142857142857,
            "J": 101.64285714285714,
            "K": 93.42857142857143
        },
        "bus5": {
            "A": 147.13333333333333,
            "B": 132.93333333333334,
            "C": 123.2,
            "D": 118.53333333333333,
            "E": 116.06666666666666,
            "F": 154.33333333333334,
            "G": 204,
            "H": 217.53333333333333,
            "I": 211.73333333333332,
            "J": 201.73333333333332,
            "K": 194.92857142857142,
            "L": 174.07142857142858
        }
    },
    "Obs_and_actions_busses": {
        "2": 62.309606811636996,
        "1": -0.8168853950920955,
        "5": 586.7633929600338,
        "0": -299.20104811872545
    },
    "Obs_and_actions_tfls": {}
}