{
    "Average_holding_time": 8.266094420600858,
    "Average_holding_actions": [
        922,
        222,
        2,
        0,
        19,
        0
    ],
    "Average_travel_time_passengers": 2573.2755118739365,
    "Average_passenger_waiting_time": 306.38284596991855,
    "Average_passenger_in_vehicle_time": 2266.892665903848,
    "Average_speed_busses": 0.048541666666666664,
    "Average_experienced_crowding": 104.41505864730799,
    "Average_covariation_headway": 0.22726345151531693,
    "Average_covariation_headway_stops": {
        "I": 0.14234776125724527,
        "E": 0.11131681677682043,
        "K": 0.09733564918760343,
        "D": 0.08986530150883604,
        "A": 0.08414945141169367,
        "C": 0.07553276498498951,
        "F": 0.07965756102400388,
        "L": 0.0716970181062272,
        "J": 0.09517824762060913,
        "B": 0.05808911709744852,
        "G": 0.08911585786793758,
        "H": 0.10570640749283557
    },
    "Average_excess_waiting_time": {
        "I": 41.61521633883933,
        "E": 37.11596127255058,
        "K": 38.40741472289625,
        "D": 37.50992891218749,
        "A": 37.75857186814483,
        "C": 38.17004104924865,
        "F": 36.88670041690074,
        "L": 38.56794025658189,
        "J": 39.66992068450389,
        "B": 38.706574357503655,
        "G": 38.58621644331055,
        "H": 40.83620431077787
    },
    "Holding_per_stop": {
        "E": 10.408163265306122,
        "K": 10.824742268041238,
        "A": 4.948453608247423,
        "I": 17.31958762886598,
        "D": 0.30927835051546393,
        "C": 1.8556701030927836,
        "F": 12.371134020618557,
        "L": 8.65979381443299,
        "B": 0.30927835051546393,
        "J": 12.989690721649485,
        "G": 16.082474226804123,
        "H": 3.0927835051546393
    },
    "Actions_tfl_edges": {},
    "Load_per_bus_per_stop": {
        "bus3": {
            "I": 120.17647058823529,
            "J": 113.82352941176471,
            "K": 105.8125,
            "L": 96.75,
            "A": 89.5,
            "B": 81.25,
            "C": 74.125,
            "D": 71.25,
            "E": 71.5,
            "F": 91.375,
            "G": 124.4375,
            "H": 131.625
        },
        "bus2": {
            "E": 73.76470588235294,
            "F": 96.3529411764706,
            "G": 127.88235294117646,
            "H": 134.8235294117647,
            "I": 132.6875,
            "J": 129.625,
            "K": 121.5625,
            "L": 109.625,
            "A": 102.25,
            "B": 91.8125,
            "C": 85.375,
            "D": 80.0625
        },
        "bus4": {
            "K": 113.58823529411765,
            "L": 105,
            "A": 94.6875,
            "B": 83.8125,
            "C": 79.6875,
            "D": 76.625,
            "E": 76.9375,
            "F": 103.375,
            "G": 134.125,
            "H": 143.8125,
            "I": 139.25,
            "J": 132.0625
        },
        "bus1": {
            "D": 68.3529411764706,
            "E": 68.94117647058823,
            "F": 90,
            "G": 119.375,
            "H": 127.125,
            "I": 122.125,
            "J": 117.75,
            "K": 109.4375,
            "L": 98.75,
            "A": 90.125,
            "B": 80.4375,
            "C": 75.5625
        },
        "bus5": {
            "A": 88.3529411764706,
            "B": 78.6470588235294,
            "C": 73.625,
            "D": 71.8125,
            "E": 72.75,
            "F": 92.6875,
            "G": 125.4375,
            "H": 131.375,
            "I": 126.625,
            "J": 119.6875,
            "K": 111.5,
            "L": 103.875
        },
        "bus0": {
            "C": 70.58823529411765,
            "D": 68.375,
            "E": 66.125,
            "F": 89.875,
            "G": 121.8125,
            "H": 132.875,
            "I": 128.9375,
            "J": 119.3125,
            "K": 112,
            "L": 102.6875,
            "A": 91.875,
            "B": 80.6875
        }
    },
    "Obs_and_actions_busses": {
        "5": 203.81067355367531,
        "0": -184.06343350985352,
        "1": 31.44733491064471,
        "2": 124.86904603641618
    },
    "Obs_and_actions_tfls": {}
}126.46917953298839
    },
    "Obs_and_actions_tfls": {}
}