{
    "Average_holding_time": 14.710017574692444,
    "Average_holding_actions": [
        836,
        108,
        132,
        0,
        0,
        0
    ],
    "Average_travel_time_passengers": 2630.6559206705333,
    "Average_passenger_waiting_time": 313.38848723807797,
    "Average_passenger_in_vehicle_time": 2317.26743343233,
    "Average_speed_busses": 0.04741666666666667,
    "Average_experienced_crowding": 106.63600730285377,
    "Average_covariation_headway": 0.22880298140755057,
    "Average_covariation_headway_stops": {
        "G": 0.14563682915345616,
        "E": 0.10976046653994569,
        "F": 0.12056729014867554,
        "L": 0.12089866505692896,
        "H": 0.11935269573541984,
        "D": 0.09426687480412475,
        "B": 0.08730449537511442,
        "I": 0.10585546396610043,
        "A": 0.0825442578371859,
        "J": 0.09226521489161074,
        "C": 0.07393631710799449,
        "K": 0.10010657313365061
    },
    "Average_excess_waiting_time": {
        "G": 45.558110839532446,
        "E": 46.3956283321661,
        "F": 45.3894093302423,
        "L": 47.695614253855524,
        "H": 44.65500688460088,
        "D": 47.24008002512335,
        "B": 46.325424497499796,
        "I": 45.21876860582387,
        "A": 47.30192864379808,
        "J": 45.96108286593295,
        "C": 47.730507546591696,
        "K": 48.13438601941209
    },
    "Holding_per_stop": {
        "G": 30,
        "F": 13.578947368421053,
        "E": 33.78947368421053,
        "H": 2.8125,
        "L": 15.789473684210526,
        "B": 1.263157894736842,
        "D": 1.9148936170212767,
        "I": 28.736842105263158,
        "J": 22.736842105263158,
        "A": 6.702127659574468,
        "C": 2.5531914893617023,
        "K": 16.27659574468085
    },
    "Actions_tfl_edges": {},
    "Load_per_bus_per_stop": {
        "bus4": {
            "G": 117.0625,
            "H": 125.4375,
            "I": 124.1875,
            "J": 116.75,
            "K": 110,
            "L": 99.375,
            "A": 89.125,
            "B": 80.0625,
            "C": 75.25,
            "D": 73.4375,
            "E": 73.875,
            "F": 96.4375
        },
        "bus2": {
            "E": 68.625,
            "F": 87.6875,
            "G": 122.375,
            "H": 134.25,
            "I": 131.875,
            "J": 124.1875,
            "K": 116.8125,
            "L": 104.8125,
            "A": 94.5,
            "B": 85.0625,
            "C": 79.93333333333334,
            "D": 75.2
        },
        "bus3": {
            "F": 92.75,
            "G": 120,
            "H": 128.5,
            "I": 125.6875,
            "J": 118.3125,
            "K": 107.3125,
            "L": 99.375,
            "A": 89.75,
            "B": 80.5,
            "C": 76.9375,
            "D": 75.25,
            "E": 76.4
        },
        "bus5": {
            "L": 102.625,
            "A": 92.1875,
            "B": 84,
            "C": 78.3125,
            "D": 76.25,
            "E": 75.875,
            "F": 100.5625,
            "G": 132.8125,
            "H": 141.3125,
            "I": 136.13333333333333,
            "J": 130.6,
            "K": 120.33333333333333
        },
        "bus1": {
            "D": 71.8125,
            "E": 73.8125,
            "F": 94.0625,
            "G": 126.5,
            "H": 134.4375,
            "I": 131.6875,
            "J": 123.625,
            "K": 114.5,
            "L": 104.6875,
            "A": 96.4,
            "B": 87.93333333333334,
            "C": 79.66666666666667
        },
        "bus0": {
            "B": 82.8125,
            "C": 78.5,
            "D": 75.5,
            "E": 74.5,
            "F": 100.3125,
            "G": 135.4375,
            "H": 141.9375,
            "I": 139.375,
            "J": 131.875,
            "K": 120.66666666666667,
            "L": 110.33333333333333,
            "A": 99
        }
    },
    "Obs_and_actions_busses": {
        "0": -188.1864530757662,
        "1": -7.7840160401326495,
        "2": 40.82148925419946,
        "3": 123.63172054739461
    },
    "Obs_and_actions_tfls": {}
}