{
    "Average_holding_time": 8.357695614789337,
    "Average_holding_actions": [
        889,
        245,
        14,
        0,
        3,
        0
    ],
    "Average_travel_time_passengers": 2593.73741130758,
    "Average_passenger_waiting_time": 303.73155249975497,
    "Average_passenger_in_vehicle_time": 2290.0058588076977,
    "Average_speed_busses": 0.04845833333333333,
    "Average_experienced_crowding": 105.75203055129624,
    "Average_covariation_headway": 0.22156298412691586,
    "Average_covariation_headway_stops": {
        "G": 0.10806564877877088,
        "I": 0.11867207452543678,
        "F": 0.0833518888799287,
        "H": 0.08721675479131473,
        "D": 0.0780930042821453,
        "A": 0.09017780175649212,
        "B": 0.07567192289395158,
        "J": 0.08375744164665,
        "E": 0.059547592097666725,
        "K": 0.05473480928919829,
        "C": 0.052558194235300774,
        "L": 0.07178596819884872
    },
    "Average_excess_waiting_time": {
        "G": 37.66985827182265,
        "I": 37.56919997475677,
        "F": 38.10206003242189,
        "H": 37.64297648208708,
        "D": 38.10832871510314,
        "A": 39.054648823468426,
        "B": 37.25890765523775,
        "J": 37.09496609960928,
        "E": 38.86766592629226,
        "K": 37.3035389425371,
        "C": 38.42639995294883,
        "L": 39.42668763500774
    },
    "Holding_per_stop": {
        "G": 14.845360824742269,
        "I": 12.244897959183673,
        "H": 0.9278350515463918,
        "B": 1.5463917525773196,
        "D": 1.8556701030927836,
        "J": 17.31958762886598,
        "F": 9.278350515463918,
        "A": 5.56701030927835,
        "K": 14.22680412371134,
        "E": 13.125,
        "C": 0,
        "L": 9.375
    },
    "Actions_tfl_edges": {},
    "Load_per_bus_per_stop": {
        "bus3": {
            "G": 122.41176470588235,
            "H": 133.58823529411765,
            "I": 127.3529411764706,
            "J": 120,
            "K": 110.75,
            "L": 102.5625,
            "A": 93.0625,
            "B": 85.0625,
            "C": 80.375,
            "D": 77.375,
            "E": 77.4375,
            "F": 98.25
        },
        "bus4": {
            "I": 125.47058823529412,
            "J": 119.3529411764706,
            "K": 110.94117647058823,
            "L": 101.82352941176471,
            "A": 91.3125,
            "B": 83.625,
            "C": 78.875,
            "D": 76.5625,
            "E": 75.625,
            "F": 99.25,
            "G": 132.125,
            "H": 138.0625
        },
        "bus2": {
            "F": 86.76470588235294,
            "G": 117.47058823529412,
            "H": 123.5625,
            "I": 120.125,
            "J": 113.9375,
            "K": 106.8125,
            "L": 97.3125,
            "A": 87.4375,
            "B": 80.375,
            "C": 74.8125,
            "D": 72.625,
            "E": 71.6875
        },
        "bus1": {
            "D": 78.82352941176471,
            "E": 77.29411764705883,
            "F": 100.6875,
            "G": 133.375,
            "H": 142.4375,
            "I": 136.5,
            "J": 131.0625,
            "K": 120.6875,
            "L": 109,
            "A": 98.5625,
            "B": 88.875,
            "C": 84.0625
        },
        "bus5": {
            "A": 90.3529411764706,
            "B": 80.625,
            "C": 74.375,
            "D": 71.5,
            "E": 69.875,
            "F": 93.375,
            "G": 125.8125,
            "H": 133.6875,
            "I": 130.625,
            "J": 124.25,
            "K": 115.6875,
            "L": 107.0625
        },
        "bus0": {
            "B": 82.11764705882354,
            "C": 77.17647058823529,
            "D": 74.6875,
            "E": 73.1875,
            "F": 95.0625,
            "G": 126.6875,
            "H": 134.875,
            "I": 130.9375,
            "J": 123.5,
            "K": 115.5,
            "L": 105.4375,
            "A": 94.5625
        }
    },
    "Obs_and_actions_busses": {
        "0": -189.52332618424654,
        "1": 19.176837659837517,
        "3": 139.91322857298672,
        "2": 103.70256118948913,
        "5": 388.2753645723088
    },
    "Obs_and_actions_tfls": {}
}