{
    "Average_holding_time": 19.991055456171736,
    "Average_holding_actions": [
        705,
        237,
        124,
        0,
        52,
        0
    ],
    "Average_travel_time_passengers": 2714.9348561012525,
    "Average_passenger_waiting_time": 338.94319937175175,
    "Average_passenger_in_vehicle_time": 2375.991656729413,
    "Average_speed_busses": 0.04658333333333333,
    "Average_experienced_crowding": 113.79453342311785,
    "Average_covariation_headway": 0.3036931809509786,
    "Average_covariation_headway_stops": {
        "H": 0.3043595713820158,
        "G": 0.27557773546514597,
        "E": 0.2750043086677034,
        "F": 0.2591607237555304,
        "K": 0.24894366648431332,
        "L": 0.23362209376997367,
        "I": 0.29519983224124424,
        "J": 0.26430410187089964,
        "A": 0.20466343866842604,
        "B": 0.20726311700764374,
        "C": 0.22681390524298592,
        "D": 0.25642284555822803
    },
    "Average_excess_waiting_time": {
        "H": 74.78236271445866,
        "G": 71.7005437652823,
        "E": 75.9677766717287,
        "F": 71.55590656286648,
        "K": 66.55955296960582,
        "L": 62.6218596017319,
        "I": 74.42916075096912,
        "J": 70.9407270505057,
        "A": 60.56582020313908,
        "B": 63.25207648744811,
        "C": 68.2906898485951,
        "D": 74.8378511980448
    },
    "Holding_per_stop": {
        "H": 12.76595744680851,
        "G": 28.06451612903226,
        "L": 20.425531914893618,
        "I": 30.319148936170212,
        "F": 18.387096774193548,
        "K": 28.404255319148938,
        "E": 33.26086956521739,
        "J": 34.193548387096776,
        "A": 11.170212765957446,
        "B": 8.387096774193548,
        "C": 8.152173913043478,
        "D": 6.195652173913044
    },
    "Actions_tfl_edges": {},
    "Load_per_bus_per_stop": {
        "bus3": {
            "H": 124.0625,
            "I": 119.3125,
            "J": 112.625,
            "K": 107.875,
            "L": 98.875,
            "A": 89.875,
            "B": 81.25,
            "C": 75.6,
            "D": 73.26666666666667,
            "E": 73.13333333333334,
            "F": 94.6,
            "G": 124.8
        },
        "bus2": {
            "G": 118.4375,
            "H": 127.375,
            "I": 126.0625,
            "J": 119.75,
            "K": 111.1875,
            "L": 100.9375,
            "A": 92.1875,
            "B": 81,
            "C": 77.46666666666667,
            "D": 73.8,
            "E": 71.4,
            "F": 93.4
        },
        "bus0": {
            "E": 75.625,
            "F": 97.75,
            "G": 134.4375,
            "H": 142.8125,
            "I": 137.25,
            "J": 130.13333333333333,
            "K": 120,
            "L": 110.8,
            "A": 101.06666666666666,
            "B": 91.6,
            "C": 85.73333333333333,
            "D": 81.73333333333333
        },
        "bus1": {
            "F": 92.3125,
            "G": 124,
            "H": 131.375,
            "I": 129.875,
            "J": 124.75,
            "K": 117.3125,
            "L": 106.06666666666666,
            "A": 96.8,
            "B": 87.33333333333333,
            "C": 79.13333333333334,
            "D": 74.6,
            "E": 74.13333333333334
        },
        "bus4": {
            "K": 99.875,
            "L": 92.875,
            "A": 84.4375,
            "B": 76.875,
            "C": 71.875,
            "D": 69.25,
            "E": 66.53333333333333,
            "F": 87.06666666666666,
            "G": 118.13333333333334,
            "H": 125.8,
            "I": 120.73333333333333,
            "J": 114
        },
        "bus5": {
            "L": 119.3125,
            "A": 107.25,
            "B": 97.375,
            "C": 92.5625,
            "D": 88.125,
            "E": 86.1875,
            "F": 114.3125,
            "G": 157.26666666666668,
            "H": 166.86666666666667,
            "I": 160.46666666666667,
            "J": 150.53333333333333,
            "K": 139.93333333333334
        }
    },
    "Obs_and_actions_busses": {
        "0": -234.47827192466195,
        "1": -10.837210699765414,
        "2": 73.4933180129471,
        "5": 376.0945036341099
    },
    "Obs_and_actions_tfls": {}
}tions_tfls": {}
}