{
    "Average_holding_time": 12.66199649737303,
    "Average_holding_actions": [
        880,
        91,
        122,
        0,
        0,
        0
    ],
    "Average_travel_time_passengers": 2659.762121903109,
    "Average_passenger_waiting_time": 314.03414340456425,
    "Average_passenger_in_vehicle_time": 2345.727978498426,
    "Average_speed_busses": 0.04758333333333333,
    "Average_experienced_crowding": 109.1255670830966,
    "Average_covariation_headway": 0.2415336740490355,
    "Average_covariation_headway_stops": {
        "H": 0.16959808031514786,
        "I": 0.1773725772243791,
        "K": 0.14554530244943054,
        "L": 0.14875180743018013,
        "D": 0.10078431336409692,
        "B": 0.11096301458297492,
        "J": 0.1522474866719929,
        "E": 0.08872719272222004,
        "A": 0.11290578752922323,
        "C": 0.09260347745340688,
        "F": 0.09324831960390693,
        "G": 0.12017027696415367
    },
    "Average_excess_waiting_time": {
        "H": 51.99443565463491,
        "I": 50.79540793517526,
        "K": 47.34724592649684,
        "L": 46.0632758758299,
        "D": 43.578857734428254,
        "B": 43.63223807791434,
        "J": 49.64915381319514,
        "E": 44.44631035651713,
        "A": 45.0266463110803,
        "C": 44.53682358601884,
        "F": 46.214269611488646,
        "G": 49.6361083529776
    },
    "Holding_per_stop": {
        "I": 27.789473684210527,
        "H": 2.8421052631578947,
        "L": 14.6875,
        "K": 16.736842105263158,
        "D": 0.9375,
        "B": 1.5625,
        "J": 13.894736842105264,
        "A": 7.2631578947368425,
        "E": 28.42105263157895,
        "C": 1.894736842105263,
        "F": 10.421052631578947,
        "G": 25.851063829787233
    },
    "Actions_tfl_edges": {},
    "Load_per_bus_per_stop": {
        "bus2": {
            "H": 130.8125,
            "I": 127.0625,
            "J": 119.875,
            "K": 111.3125,
            "L": 101.3125,
            "A": 91.125,
            "B": 82.875,
            "C": 79.1875,
            "D": 76.4375,
            "E": 77,
            "F": 101.06666666666666,
            "G": 132.26666666666668
        },
        "bus3": {
            "I": 121.875,
            "J": 116.3125,
            "K": 108.3125,
            "L": 98.375,
            "A": 89.875,
            "B": 82.4375,
            "C": 79.75,
            "D": 77.9375,
            "E": 74.9375,
            "F": 95.9375,
            "G": 123.86666666666666,
            "H": 132.73333333333332
        },
        "bus4": {
            "K": 107.625,
            "L": 100.75,
            "A": 92.6875,
            "B": 84.5,
            "C": 79.9375,
            "D": 76.75,
            "E": 75.75,
            "F": 100.5625,
            "G": 129.1875,
            "H": 136.5,
            "I": 133.875,
            "J": 124.33333333333333
        },
        "bus5": {
            "L": 101,
            "A": 89.8125,
            "B": 82.75,
            "C": 77.3125,
            "D": 74.625,
            "E": 73.625,
            "F": 98,
            "G": 131.8125,
            "H": 137.9375,
            "I": 134.375,
            "J": 128.5,
            "K": 118.0625
        },
        "bus1": {
            "D": 78.375,
            "E": 76.1875,
            "F": 98.75,
            "G": 132.75,
            "H": 142,
            "I": 140,
            "J": 132.625,
            "K": 124,
            "L": 114.1875,
            "A": 102.4375,
            "B": 92.3125,
            "C": 86.46666666666667
        },
        "bus0": {
            "B": 88.75,
            "C": 82.9375,
            "D": 79.25,
            "E": 77.625,
            "F": 102.5,
            "G": 137.0625,
            "H": 144.875,
            "I": 141.4375,
            "J": 133.1875,
            "K": 126.25,
            "L": 115.5625,
            "A": 106.25
        }
    },
    "Obs_and_actions_busses": {
        "3": 204.08026395571645,
        "2": 39.16791927156919,
        "1": -4.367502380167314,
        "0": -189.8317388156259
    },
    "Obs_and_actions_tfls": {}
}         "G": 1389,
            "H": 1510.1666666666667,
            "I": 1494.8333333333333,
            "J": 1438.8333333333333,
            "K": 1361.6666666666667,
            "L": 1257.6666666666667,
            "A": 1149.8333333333333
        }
    },
    "Obs_and_actions_busses": {
        "2": 41.36775650154542,
        "3": 6303.310423404413,
        "0": -85.0655641795866,
        "1": -1355.481063946032
    },
    "Obs_and_actions_tfls": {}
}