{
    "Average_holding_time": 13.513043478260869,
    "Average_holding_actions": [
        872,
        94,
        128,
        0,
        0,
        0
    ],
    "Average_travel_time_passengers": 2635.8451153966357,
    "Average_passenger_waiting_time": 312.6549204408736,
    "Average_passenger_in_vehicle_time": 2323.190194955605,
    "Average_speed_busses": 0.04791666666666667,
    "Average_experienced_crowding": 104.32342774810994,
    "Average_covariation_headway": 0.2340774561028668,
    "Average_covariation_headway_stops": {
        "H": 0.13679781563378965,
        "E": 0.11726601716107525,
        "L": 0.12636244615738776,
        "I": 0.12794674173808274,
        "D": 0.09758927163389389,
        "B": 0.09772919953480565,
        "C": 0.09323917168663572,
        "F": 0.09783329291250185,
        "J": 0.113875609152222,
        "A": 0.09526819912618067,
        "G": 0.10469900511090147,
        "K": 0.11221381990491518
    },
    "Average_excess_waiting_time": {
        "H": 43.84717380978117,
        "E": 41.75434286311281,
        "L": 45.79976593396168,
        "I": 44.22526893014498,
        "D": 42.21092393287739,
        "B": 44.801952150711315,
        "C": 43.35837580178304,
        "F": 42.062592911951924,
        "J": 44.96803182758765,
        "A": 45.6319036369743,
        "G": 43.674334150789036,
        "K": 46.426254295779074
    },
    "Holding_per_stop": {
        "H": 2.8125,
        "E": 24.432989690721648,
        "L": 15.625,
        "I": 30.625,
        "D": 1.5625,
        "B": 2.526315789473684,
        "C": 3.75,
        "F": 13.4375,
        "J": 16.875,
        "A": 6.947368421052632,
        "G": 27.1875,
        "K": 16.105263157894736
    },
    "Actions_tfl_edges": {},
    "Load_per_bus_per_stop": {
        "bus4": {
            "H": 127.875,
            "I": 122.3125,
            "J": 115.375,
            "K": 106.6875,
            "L": 97.8125,
            "A": 88.4375,
            "B": 81,
            "C": 75.25,
            "D": 73.5625,
            "E": 73.5625,
            "F": 96.625,
            "G": 129.375
        },
        "bus3": {
            "E": 69.05882352941177,
            "F": 91.625,
            "G": 122.875,
            "H": 129.75,
            "I": 127.25,
            "J": 122.125,
            "K": 115.8125,
            "L": 106.875,
            "A": 96.8125,
            "B": 86.625,
            "C": 79.8125,
            "D": 75.0625
        },
        "bus5": {
            "L": 105.125,
            "A": 95.5625,
            "B": 84.0625,
            "C": 78.125,
            "D": 75.1875,
            "E": 75.75,
            "F": 96.8125,
            "G": 127.875,
            "H": 136.875,
            "I": 131.875,
            "J": 123.625,
            "K": 118.53333333333333
        },
        "bus2": {
            "D": 66.4375,
            "E": 67.9375,
            "F": 89.5,
            "G": 117.5,
            "H": 123.9375,
            "I": 120.4375,
            "J": 112.1875,
            "K": 104.8125,
            "L": 95.6875,
            "A": 88.75,
            "B": 80.875,
            "C": 76.8125
        },
        "bus0": {
            "B": 80.3125,
            "C": 74.8125,
            "D": 70.9375,
            "E": 69.25,
            "F": 91.3125,
            "G": 122,
            "H": 130.5625,
            "I": 127.375,
            "J": 123.0625,
            "K": 115.625,
            "L": 106.25,
            "A": 98.06666666666666
        },
        "bus1": {
            "C": 76.375,
            "D": 75.8125,
            "E": 73.75,
            "F": 94.9375,
            "G": 123.1875,
            "H": 132.5625,
            "I": 128.8125,
            "J": 123.875,
            "K": 116.125,
            "L": 104.3125,
            "A": 94.9375,
            "B": 87.2
        }
    },
    "Obs_and_actions_busses": {
        "0": -185.6922395013354,
        "3": 113.6130470172656,
        "2": 37.78447454602948,
        "1": -5.178189856828761
    },
    "Obs_and_actions_tfls": {}
}