{
    "Average_holding_time": 32.78089887640449,
    "Average_holding_actions": [
        370,
        410,
        219,
        26,
        43,
        0
    ],
    "Average_travel_time_passengers": 2859.3881757231406,
    "Average_passenger_waiting_time": 338.9136796384587,
    "Average_passenger_in_vehicle_time": 2520.4744960846233,
    "Average_speed_busses": 0.0445,
    "Average_experienced_crowding": 115.42474319742918,
    "Average_covariation_headway": 0.23415622859972685,
    "Average_covariation_headway_stops": {
        "G": 0.16816765803005812,
        "I": 0.15806774797991857,
        "E": 0.16438059491461596,
        "J": 0.14758228808114587,
        "L": 0.11913410352969771,
        "A": 0.11113862782246665,
        "H": 0.15405532931746826,
        "K": 0.12133812754346998,
        "F": 0.13952950286937382,
        "B": 0.08262580552481885,
        "C": 0.10158382853961881,
        "D": 0.1350533861663241
    },
    "Average_excess_waiting_time": {
        "G": 73.10263293992989,
        "I": 71.5333060578962,
        "E": 73.02575505643989,
        "J": 68.52665111213372,
        "L": 65.99116345491467,
        "A": 63.827878128630005,
        "H": 73.2521921917479,
        "K": 67.99020213344198,
        "F": 72.53430376862127,
        "B": 64.48567571964361,
        "C": 67.88479015787186,
        "D": 72.42518359352476
    },
    "Holding_per_stop": {
        "J": 58,
        "G": 51.91011235955056,
        "I": 38.08988764044944,
        "A": 24,
        "L": 36,
        "E": 64.04494382022472,
        "K": 35.39325842696629,
        "H": 42.95454545454545,
        "B": 3.033707865168539,
        "F": 30.34090909090909,
        "C": 5.056179775280899,
        "D": 4.090909090909091
    },
    "Actions_tfl_edges": {},
    "Load_per_bus_per_stop": {
        "bus1": {
            "G": 129.53333333333333,
            "H": 138.8,
            "I": 135.4,
            "J": 127.2,
            "K": 116.93333333333334,
            "L": 108.53333333333333,
            "A": 98.86666666666666,
            "B": 90.8,
            "C": 85.13333333333334,
            "D": 81.35714285714286,
            "E": 81.07142857142857,
            "F": 103.5
        },
        "bus2": {
            "I": 129.66666666666666,
            "J": 124.53333333333333,
            "K": 113.8,
            "L": 103.13333333333334,
            "A": 95.33333333333333,
            "B": 85.73333333333333,
            "C": 80.33333333333333,
            "D": 77.8,
            "E": 77,
            "F": 100.85714285714286,
            "G": 133.78571428571428,
            "H": 140.78571428571428
        },
        "bus0": {
            "E": 74.86666666666666,
            "F": 101.6,
            "G": 138.53333333333333,
            "H": 145.6,
            "I": 141.2,
            "J": 134.06666666666666,
            "K": 124.46666666666667,
            "L": 113.93333333333334,
            "A": 103,
            "B": 93.28571428571429,
            "C": 85.85714285714286,
            "D": 80.78571428571429
        },
        "bus3": {
            "J": 123.33333333333333,
            "K": 115.53333333333333,
            "L": 106.4,
            "A": 96.86666666666666,
            "B": 87.73333333333333,
            "C": 82.6,
            "D": 79.53333333333333,
            "E": 78.66666666666667,
            "F": 102.53333333333333,
            "G": 134.6,
            "H": 145.4,
            "I": 140.5
        },
        "bus4": {
            "L": 106.33333333333333,
            "A": 95.4,
            "B": 88.2,
            "C": 84.8,
            "D": 80.6,
            "E": 80.26666666666667,
            "F": 102.8,
            "G": 136,
            "H": 147.2,
            "I": 143.46666666666667,
            "J": 134.6,
            "K": 125.35714285714286
        },
        "bus5": {
            "A": 101.66666666666667,
            "B": 93.6,
            "C": 88.66666666666667,
            "D": 83.4,
            "E": 83.26666666666667,
            "F": 108.26666666666667,
            "G": 145.53333333333333,
            "H": 153.13333333333333,
            "I": 148.66666666666666,
            "J": 139.8,
            "K": 127.8,
            "L": 117.13333333333334
        }
    },
    "Obs_and_actions_busses": {
        "5": 222.71647177312045,
        "2": 29.070570038936168,
        "0": -274.88751237542317,
        "1": -58.955604881433715,
        "4": 107.40364514812723
    },
    "Obs_and_actions_tfls": {}
}