{
    "Average_holding_time": 30.446927374301676,
    "Average_holding_actions": [
        374,
        419,
        236,
        26,
        19,
        0
    ],
    "Average_travel_time_passengers": 2806.0788180045133,
    "Average_passenger_waiting_time": 331.5762085357398,
    "Average_passenger_in_vehicle_time": 2474.5026094687187,
    "Average_speed_busses": 0.04475,
    "Average_experienced_crowding": 113.80623360273688,
    "Average_covariation_headway": 0.21855165438234506,
    "Average_covariation_headway_stops": {
        "H": 0.12991886834407737,
        "I": 0.13201630816864526,
        "E": 0.09580550972030916,
        "J": 0.13368383918916746,
        "A": 0.0964374300302442,
        "C": 0.07576229218392755,
        "K": 0.09457029763993,
        "F": 0.0700480023715226,
        "D": 0.06109799536805344,
        "B": 0.06197269073876788,
        "L": 0.07557503590416137,
        "G": 0.08116915996062139
    },
    "Average_excess_waiting_time": {
        "H": 67.54115016769788,
        "I": 65.46169482358113,
        "E": 63.79806756821898,
        "J": 63.75042661644409,
        "A": 63.11470380410856,
        "C": 62.99284873703209,
        "K": 62.78486115479711,
        "F": 64.42820086816641,
        "D": 64.17013725026032,
        "B": 63.78276489531066,
        "L": 63.49753133756843,
        "G": 66.23907404657666
    },
    "Holding_per_stop": {
        "I": 35,
        "J": 56,
        "H": 41.79775280898876,
        "E": 68,
        "A": 24,
        "C": 1,
        "K": 34.666666666666664,
        "F": 19.213483146067414,
        "B": 2.696629213483146,
        "D": 4.719101123595506,
        "L": 30.674157303370787,
        "G": 47.19101123595506
    },
    "Actions_tfl_edges": {},
    "Load_per_bus_per_stop": {
        "bus2": {
            "H": 135.86666666666667,
            "I": 133.4,
            "J": 124.66666666666667,
            "K": 117.66666666666667,
            "L": 108.6,
            "A": 98.4,
            "B": 88.13333333333334,
            "C": 82.6,
            "D": 78.93333333333334,
            "E": 77.66666666666667,
            "F": 101,
            "G": 136.92857142857142
        },
        "bus3": {
            "I": 124.26666666666667,
            "J": 117.93333333333334,
            "K": 109.53333333333333,
            "L": 99.53333333333333,
            "A": 90.93333333333334,
            "B": 82.73333333333333,
            "C": 79.13333333333334,
            "D": 77.53333333333333,
            "E": 75.46666666666667,
            "F": 97.13333333333334,
            "G": 130.26666666666668,
            "H": 139
        },
        "bus1": {
            "E": 76.13333333333334,
            "F": 104,
            "G": 139.4,
            "H": 148.93333333333334,
            "I": 147.06666666666666,
            "J": 140.53333333333333,
            "K": 129.06666666666666,
            "L": 117.66666666666667,
            "A": 106.06666666666666,
            "B": 93.53333333333333,
            "C": 86.26666666666667,
            "D": 82.5
        },
        "bus4": {
            "J": 123.4375,
            "K": 113.6,
            "L": 103.6,
            "A": 96,
            "B": 86.4,
            "C": 81.26666666666667,
            "D": 76.86666666666666,
            "E": 78.46666666666667,
            "F": 104.06666666666666,
            "G": 135.33333333333334,
            "H": 143.46666666666667,
            "I": 138.2
        },
        "bus5": {
            "A": 99.13333333333334,
            "B": 89.73333333333333,
            "C": 83.13333333333334,
            "D": 79.8,
            "E": 78.46666666666667,
            "F": 101.8,
            "G": 134.93333333333334,
            "H": 145.4,
            "I": 142.66666666666666,
            "J": 135.26666666666668,
            "K": 124.4,
            "L": 114.2
        },
        "bus0": {
            "C": 80,
            "D": 76.26666666666667,
            "E": 77.33333333333333,
            "F": 104.13333333333334,
            "G": 140.2,
            "H": 148.66666666666666,
            "I": 144.6,
            "J": 136.13333333333333,
            "K": 125.6,
            "L": 114.66666666666667,
            "A": 102.4,
            "B": 91.42857142857143
        }
    },
    "Obs_and_actions_busses": {
        "5": 201.94351185941986,
        "1": -58.198250914674375,
        "0": -262.4603494045167,
        "2": 30.604623456763907,
        "4": 108.38213836447059
    },
    "Obs_and_actions_tfls": {}
}