{
    "Average_holding_time": 42.06030150753769,
    "Average_holding_actions": [
        237,
        0,
        6,
        63,
        9,
        0
    ],
    "Average_travel_time_passengers": 11209.459637835027,
    "Average_passenger_waiting_time": 4175.425859763117,
    "Average_passenger_in_vehicle_time": 7034.033778071067,
    "Average_speed_busses": 0.016583333333333332,
    "Average_experienced_crowding": 1298.113240936911,
    "Average_covariation_headway": 2.3291803750442535,
    "Average_covariation_headway_stops": {
        "H": 2.1698852058944516,
        "G": 1.9029089656028177,
        "I": 2.325158201320482,
        "E": 2.3044863108110825,
        "K": 2.3619317734311527,
        "L": 2.3920682463571823,
        "J": 2.3446418776722404,
        "F": 2.0181109678915283,
        "A": 2.368193933241734,
        "B": 2.346957225529213,
        "C": 2.156270444192584,
        "D": 2.2805158966426795
    },
    "Average_excess_waiting_time": {
        "H": 4276.570804883644,
        "G": 3443.636291791314,
        "I": 4766.453345885583,
        "E": 4431.142201814013,
        "K": 4917.994897455671,
        "L": 4969.292992483851,
        "J": 4917.139292892303,
        "F": 3719.9107620659415,
        "A": 4968.892294153017,
        "B": 4983.8350566355,
        "C": 5030.768348914402,
        "D": 4389.282718960104
    },
    "Holding_per_stop": {
        "H": 40,
        "I": 43.23529411764706,
        "K": 37.714285714285715,
        "G": 43.125,
        "E": 46.45161290322581,
        "L": 45,
        "J": 42.35294117647059,
        "F": 44.516129032258064,
        "A": 41.666666666666664,
        "B": 39.166666666666664,
        "C": 40,
        "D": 42
    },
    "Actions_tfl_edges": {},
    "Load_per_bus_per_stop": {
        "bus2": {
            "H": 10.333333333333334,
            "I": 10.5,
            "J": 9.833333333333334,
            "K": 9.166666666666666,
            "L": 8,
            "A": 7.666666666666667,
            "B": 7,
            "C": 6,
            "D": 5.4,
            "E": 5.6,
            "F": 7.6,
            "G": 10.4
        },
        "bus1": {
            "G": 14.833333333333334,
            "H": 16.166666666666668,
            "I": 16.166666666666668,
            "J": 15.333333333333334,
            "K": 14.166666666666666,
            "L": 12.333333333333334,
            "A": 12.666666666666666,
            "B": 10.833333333333334,
            "C": 12.6,
            "D": 12.8,
            "E": 13.4,
            "F": 18.8
        },
        "bus3": {
            "I": 32.5,
            "J": 30.333333333333332,
            "K": 27.333333333333332,
            "L": 24.666666666666668,
            "A": 22.333333333333332,
            "B": 19.833333333333332,
            "C": 16.6,
            "D": 13.4,
            "E": 11.8,
            "F": 20.2,
            "G": 42,
            "H": 42.4
        },
        "bus0": {
            "E": 26.333333333333332,
            "F": 36,
            "G": 51.333333333333336,
            "H": 55.833333333333336,
            "I": 56.833333333333336,
            "J": 52.833333333333336,
            "K": 48.5,
            "L": 44.333333333333336,
            "A": 41.166666666666664,
            "B": 35.666666666666664,
            "C": 37.4,
            "D": 33.8
        },
        "bus4": {
            "K": 156,
            "L": 141.66666666666666,
            "A": 124.66666666666667,
            "B": 107.5,
            "C": 82,
            "D": 74.2,
            "E": 72.4,
            "F": 124.4,
            "G": 224.8,
            "H": 238.2,
            "I": 223,
            "J": 206
        },
        "bus5": {
            "L": 1176.3333333333333,
            "A": 1080.3333333333333,
            "B": 986,
            "C": 960.1666666666666,
            "D": 805.8,
            "E": 834.6,
            "F": 1133.2,
            "G": 1537.8,
            "H": 1694.8,
            "I": 1677,
            "J": 1609,
            "K": 1510.4
        }
    },
    "Obs_and_actions_busses": {
        "0": -16.53474889537748,
        "3": 6332.0917340849755,
        "2": 98.46599441213768,
        "5": 355.1061225649566,
        "4": -8182.66659870091
    },
    "Obs_and_actions_tfls": {}
}