{
    "Average_holding_time": 29,
    "Average_holding_actions": [
        412,
        424,
        190,
        30,
        24,
        0
    ],
    "Average_travel_time_passengers": 2815.9352082594046,
    "Average_passenger_waiting_time": 336.83971376601806,
    "Average_passenger_in_vehicle_time": 2479.0954944933164,
    "Average_speed_busses": 0.045,
    "Average_experienced_crowding": 114.55448229711467,
    "Average_covariation_headway": 0.24156313384169675,
    "Average_covariation_headway_stops": {
        "H": 0.19978705441287506,
        "G": 0.18366359743004318,
        "J": 0.1649303851935563,
        "K": 0.1539117588676075,
        "L": 0.1483763670482123,
        "I": 0.17442388166203351,
        "C": 0.11193052744614622,
        "A": 0.11232054389717852,
        "D": 0.10625558568380872,
        "B": 0.10119363774885269,
        "E": 0.10661141710649491,
        "F": 0.13614462683062287
    },
    "Average_excess_waiting_time": {
        "H": 72.42481744849243,
        "G": 72.5961496785028,
        "J": 68.05095472605097,
        "K": 65.07671996106842,
        "L": 62.70258593563568,
        "I": 70.93502170771694,
        "C": 62.56960761662833,
        "A": 61.71095926847693,
        "D": 64.05331673461006,
        "B": 63.36660101282291,
        "E": 65.71299589143274,
        "F": 69.97739006920051
    },
    "Holding_per_stop": {
        "H": 37,
        "L": 32.967032967032964,
        "G": 38.08988764044944,
        "K": 33.62637362637363,
        "J": 56.666666666666664,
        "I": 36.333333333333336,
        "C": 3.3333333333333335,
        "A": 21.428571428571427,
        "D": 2.6666666666666665,
        "B": 3,
        "E": 57.30337078651685,
        "F": 25.95505617977528
    },
    "Actions_tfl_edges": {},
    "Load_per_bus_per_stop": {
        "bus2": {
            "H": 134.8,
            "I": 130.73333333333332,
            "J": 122.86666666666666,
            "K": 116.4,
            "L": 107.26666666666667,
            "A": 96.26666666666667,
            "B": 87,
            "C": 82.26666666666667,
            "D": 77,
            "E": 77.2,
            "F": 103.46666666666667,
            "G": 135.73333333333332
        },
        "bus1": {
            "G": 132,
            "H": 137.73333333333332,
            "I": 132.53333333333333,
            "J": 127.06666666666666,
            "K": 119.2,
            "L": 109.6,
            "A": 101.2,
            "B": 93.93333333333334,
            "C": 87.33333333333333,
            "D": 85.53333333333333,
            "E": 83.66666666666667,
            "F": 110.28571428571429
        },
        "bus3": {
            "J": 123.73333333333333,
            "K": 116.2,
            "L": 106.86666666666666,
            "A": 99.66666666666667,
            "B": 89.8,
            "C": 82.46666666666667,
            "D": 81.2,
            "E": 80,
            "F": 99.73333333333333,
            "G": 136.06666666666666,
            "H": 146.8,
            "I": 140.53333333333333
        },
        "bus4": {
            "K": 110,
            "L": 100.26666666666667,
            "A": 90.6,
            "B": 83.13333333333334,
            "C": 77.86666666666666,
            "D": 77.26666666666667,
            "E": 74.4,
            "F": 96.2,
            "G": 127.6,
            "H": 137.6,
            "I": 133.33333333333334,
            "J": 127.06666666666666
        },
        "bus5": {
            "L": 108.5,
            "A": 98.3125,
            "B": 89.2,
            "C": 84.06666666666666,
            "D": 79.13333333333334,
            "E": 80.13333333333334,
            "F": 104.8,
            "G": 140.73333333333332,
            "H": 149.86666666666667,
            "I": 144.53333333333333,
            "J": 136.13333333333333,
            "K": 127.2
        },
        "bus0": {
            "C": 87.66666666666667,
            "D": 83.2,
            "E": 82.33333333333333,
            "F": 107.86666666666666,
            "G": 142.26666666666668,
            "H": 154.13333333333333,
            "I": 150.33333333333334,
            "J": 143.8,
            "K": 131.33333333333334,
            "L": 119.73333333333333,
            "A": 108.06666666666666,
            "B": 98.6
        }
    },
    "Obs_and_actions_busses": {
        "1": -49.767629865565425,
        "2": 30.55407447030022,
        "5": 370.8928358930333,
        "4": 108.95198933894724,
        "0": -279.80380612874905
    },
    "Obs_and_actions_tfls": {}
}