{
    "Average_holding_time": 18.455357142857142,
    "Average_holding_actions": [
        858,
        0,
        207,
        0,
        55,
        0
    ],
    "Average_travel_time_passengers": 2717.090111420237,
    "Average_passenger_waiting_time": 352.6689746489042,
    "Average_passenger_in_vehicle_time": 2364.421136771238,
    "Average_speed_busses": 0.04666666666666667,
    "Average_experienced_crowding": 118.59455892515156,
    "Average_covariation_headway": 0.44511356726490714,
    "Average_covariation_headway_stops": {
        "H": 0.3856088144523617,
        "G": 0.3499165350557615,
        "E": 0.35626641115005925,
        "J": 0.34957455036022017,
        "K": 0.33480632523454656,
        "L": 0.32811479904955226,
        "I": 0.35840424388370296,
        "A": 0.31375210792166963,
        "F": 0.3283661704448373,
        "B": 0.312944542268405,
        "C": 0.319866271553902,
        "D": 0.3368953441658181
    },
    "Average_excess_waiting_time": {
        "H": 93.95815263887482,
        "G": 87.76791702094783,
        "E": 89.93296223389825,
        "J": 85.12956778807984,
        "K": 80.53759984606,
        "L": 77.0174439669546,
        "I": 89.20612407215276,
        "A": 77.5547868828869,
        "F": 85.235024231191,
        "B": 78.83561355890026,
        "C": 82.69945640817286,
        "D": 87.47844509262904
    },
    "Holding_per_stop": {
        "H": 28.72340425531915,
        "J": 24.25531914893617,
        "K": 15.957446808510639,
        "L": 10.421052631578947,
        "I": 26.451612903225808,
        "G": 20,
        "E": 23.870967741935484,
        "A": 10.53191489361702,
        "F": 23.152173913043477,
        "B": 10.96774193548387,
        "C": 14.838709677419354,
        "D": 12.391304347826088
    },
    "Actions_tfl_edges": {},
    "Load_per_bus_per_stop": {
        "bus2": {
            "H": 143.9375,
            "I": 140.8125,
            "J": 134.5625,
            "K": 123.6875,
            "L": 112.625,
            "A": 101.625,
            "B": 89.86666666666666,
            "C": 83,
            "D": 80.86666666666666,
            "E": 80.93333333333334,
            "F": 106.86666666666666,
            "G": 144.13333333333333
        },
        "bus1": {
            "G": 135.6875,
            "H": 143.8125,
            "I": 141.125,
            "J": 135.25,
            "K": 126.3125,
            "L": 116.0625,
            "A": 107.73333333333333,
            "B": 97.73333333333333,
            "C": 91.33333333333333,
            "D": 87,
            "E": 83.6,
            "F": 110.2
        },
        "bus0": {
            "E": 79.6875,
            "F": 104.9375,
            "G": 141.6875,
            "H": 150.0625,
            "I": 147.5,
            "J": 138.1875,
            "K": 132.4,
            "L": 121.86666666666666,
            "A": 107.8,
            "B": 99.26666666666667,
            "C": 91.73333333333333,
            "D": 87.73333333333333
        },
        "bus3": {
            "J": 105,
            "K": 100.75,
            "L": 93.8125,
            "A": 87.75,
            "B": 79.125,
            "C": 73.125,
            "D": 67,
            "E": 65.46666666666667,
            "F": 88.4,
            "G": 112.8,
            "H": 121.33333333333333,
            "I": 118.86666666666666
        },
        "bus4": {
            "K": 79.25,
            "L": 72.6875,
            "A": 65.25,
            "B": 58.75,
            "C": 56.375,
            "D": 54.25,
            "E": 53.4375,
            "F": 71.66666666666667,
            "G": 93.46666666666667,
            "H": 99,
            "I": 94.66666666666667,
            "J": 90
        },
        "bus5": {
            "L": 114.8125,
            "A": 104.6875,
            "B": 92.5625,
            "C": 87.0625,
            "D": 86.125,
            "E": 84.5,
            "F": 114.0625,
            "G": 151.4375,
            "H": 160.75,
            "I": 153.73333333333332,
            "J": 144.26666666666668,
            "K": 133.93333333333334
        }
    },
    "Obs_and_actions_busses": {
        "0": -206.8884767999496,
        "2": 129.77290126892038,
        "5": 368.3899222003543
    },
    "Obs_and_actions_tfls": {}
}