{
    "Average_holding_time": 13.71278458844133,
    "Average_holding_actions": [
        817,
        182,
        125,
        0,
        18,
        0
    ],
    "Average_travel_time_passengers": 2655.797411019399,
    "Average_passenger_waiting_time": 316.49149011048223,
    "Average_passenger_in_vehicle_time": 2339.3059209088124,
    "Average_speed_busses": 0.04758333333333333,
    "Average_experienced_crowding": 108.72838800584826,
    "Average_covariation_headway": 0.25017063582694543,
    "Average_covariation_headway_stops": {
        "G": 0.17968928212307997,
        "I": 0.18128299994530936,
        "K": 0.1406414685450594,
        "L": 0.14720278221515784,
        "D": 0.1503301264098519,
        "A": 0.1467333611558236,
        "H": 0.171218018938921,
        "J": 0.1498118002885158,
        "E": 0.1454630630239052,
        "B": 0.12926676400941192,
        "F": 0.14108503353316182,
        "C": 0.1397074420680288
    },
    "Average_excess_waiting_time": {
        "G": 52.83549054005988,
        "I": 52.20457523847108,
        "K": 47.944542872362604,
        "L": 46.85338700717392,
        "D": 48.68882310337165,
        "A": 45.41188056829077,
        "H": 53.08143501315402,
        "J": 50.52365694002509,
        "E": 49.79587127392938,
        "B": 46.076763293132785,
        "F": 51.189342326371275,
        "C": 49.23144048426468
    },
    "Holding_per_stop": {
        "I": 22.105263157894736,
        "K": 12.947368421052632,
        "L": 16.25,
        "G": 24.94736842105263,
        "A": 7.1875,
        "D": 3.1578947368421053,
        "J": 24,
        "H": 6.631578947368421,
        "B": 3.75,
        "E": 28.736842105263158,
        "C": 5.684210526315789,
        "F": 9.25531914893617
    },
    "Actions_tfl_edges": {},
    "Load_per_bus_per_stop": {
        "bus1": {
            "G": 118.9375,
            "H": 126.75,
            "I": 123.625,
            "J": 117.3125,
            "K": 111,
            "L": 102.3125,
            "A": 92.625,
            "B": 81.6875,
            "C": 77,
            "D": 75.53333333333333,
            "E": 77.4,
            "F": 98.66666666666667
        },
        "bus2": {
            "I": 127.3125,
            "J": 121.375,
            "K": 111.6875,
            "L": 101.5625,
            "A": 92.375,
            "B": 82.625,
            "C": 77.3125,
            "D": 75.375,
            "E": 75.5625,
            "F": 100.6,
            "G": 134.66666666666666,
            "H": 140.86666666666667
        },
        "bus3": {
            "K": 111.125,
            "L": 102.125,
            "A": 93.4375,
            "B": 84.0625,
            "C": 77.5625,
            "D": 74.6875,
            "E": 75.75,
            "F": 97.875,
            "G": 130.0625,
            "H": 136.9375,
            "I": 132.93333333333334,
            "J": 125.93333333333334
        },
        "bus4": {
            "L": 94.5,
            "A": 86.75,
            "B": 77,
            "C": 71.1875,
            "D": 68.6875,
            "E": 69.0625,
            "F": 90.0625,
            "G": 122.625,
            "H": 129.9375,
            "I": 123.6875,
            "J": 118.75,
            "K": 109.6
        },
        "bus0": {
            "D": 74.5,
            "E": 73.5,
            "F": 97.125,
            "G": 129.75,
            "H": 138.5,
            "I": 135.625,
            "J": 129.25,
            "K": 122.25,
            "L": 112.8125,
            "A": 102.875,
            "B": 92,
            "C": 85.33333333333333
        },
        "bus5": {
            "A": 97.25,
            "B": 89.3125,
            "C": 82.6875,
            "D": 78.5,
            "E": 77.6875,
            "F": 104.125,
            "G": 139.25,
            "H": 147.1875,
            "I": 142.875,
            "J": 133.1875,
            "K": 122.8125,
            "L": 111.9375
        }
    },
    "Obs_and_actions_busses": {
        "5": 291.48181374834724,
        "1": -3.732932140485388,
        "0": -200.65331004646103,
        "2": 73.98044113230819
    },
    "Obs_and_actions_tfls": {}
}