{
    "Average_holding_time": 37.178265014299335,
    "Average_holding_actions": [
        378,
        359,
        198,
        25,
        89,
        0
    ],
    "Average_travel_time_passengers": 2917.4431826987707,
    "Average_passenger_waiting_time": 368.86935221434914,
    "Average_passenger_in_vehicle_time": 2548.573830484246,
    "Average_speed_busses": 0.043708333333333335,
    "Average_experienced_crowding": 124.58491775121414,
    "Average_covariation_headway": 0.32268224460989137,
    "Average_covariation_headway_stops": {
        "H": 0.3411973890349054,
        "G": 0.312167704847241,
        "E": 0.2912240912342562,
        "F": 0.28867490026902937,
        "J": 0.3131447166975245,
        "I": 0.3249998044221317,
        "D": 0.2988541583641921,
        "K": 0.2845658597082769,
        "L": 0.26348718467260945,
        "A": 0.2533387673900197,
        "B": 0.2584428090654856,
        "C": 0.2878871272122477
    },
    "Average_excess_waiting_time": {
        "H": 103.70243121003767,
        "G": 99.74974956000182,
        "E": 100.26337573018799,
        "F": 97.61586672180044,
        "J": 97.24136153732093,
        "I": 102.0273972574891,
        "D": 104.29467804799941,
        "K": 93.74768082392097,
        "L": 91.77585665035463,
        "A": 92.55686105388537,
        "B": 95.84808127308696,
        "C": 104.0810838169225
    },
    "Holding_per_stop": {
        "H": 46.02272727272727,
        "G": 45.34090909090909,
        "J": 55.95505617977528,
        "E": 68.96551724137932,
        "I": 47.72727272727273,
        "F": 40.689655172413794,
        "D": 10.465116279069768,
        "K": 41.25,
        "L": 37.15909090909091,
        "A": 29.310344827586206,
        "B": 8.96551724137931,
        "C": 12.906976744186046
    },
    "Actions_tfl_edges": {},
    "Load_per_bus_per_stop": {
        "bus4": {
            "H": 126.6,
            "I": 123.53333333333333,
            "J": 117.06666666666666,
            "K": 110.4,
            "L": 101,
            "A": 93,
            "B": 83.73333333333333,
            "C": 79,
            "D": 76.21428571428571,
            "E": 75.42857142857143,
            "F": 96.85714285714286,
            "G": 126.71428571428571
        },
        "bus3": {
            "G": 117.66666666666667,
            "H": 126.06666666666666,
            "I": 121.86666666666666,
            "J": 115.26666666666667,
            "K": 106.2,
            "L": 97.46666666666667,
            "A": 89.4,
            "B": 79.13333333333334,
            "C": 72.85714285714286,
            "D": 72.14285714285714,
            "E": 71.28571428571429,
            "F": 95.5
        },
        "bus1": {
            "E": 82.26666666666667,
            "F": 104.93333333333334,
            "G": 140.26666666666668,
            "H": 150.4,
            "I": 144.46666666666667,
            "J": 138.93333333333334,
            "K": 127.42857142857143,
            "L": 116,
            "A": 107.85714285714286,
            "B": 99,
            "C": 91.78571428571429,
            "D": 90.35714285714286
        },
        "bus2": {
            "F": 100,
            "G": 135.4,
            "H": 146.06666666666666,
            "I": 141.33333333333334,
            "J": 133.4,
            "K": 124.06666666666666,
            "L": 113.6,
            "A": 102.85714285714286,
            "B": 92.78571428571429,
            "C": 86.64285714285714,
            "D": 83.5,
            "E": 82.85714285714286
        },
        "bus5": {
            "J": 148.6,
            "K": 138.6,
            "L": 126.4,
            "A": 115,
            "B": 104.26666666666667,
            "C": 96.53333333333333,
            "D": 90.6,
            "E": 92.4,
            "F": 119.13333333333334,
            "G": 162.5,
            "H": 170.14285714285714,
            "I": 165.71428571428572
        },
        "bus0": {
            "D": 83.13333333333334,
            "E": 81.26666666666667,
            "F": 109.13333333333334,
            "G": 147.73333333333332,
            "H": 157.2,
            "I": 154.92857142857142,
            "J": 144.64285714285714,
            "K": 133.42857142857142,
            "L": 120.85714285714286,
            "A": 109.85714285714286,
            "B": 99.21428571428571,
            "C": 92.92857142857143
        }
    },
    "Obs_and_actions_busses": {
        "1": -55.4751989935311,
        "0": -334.045349988771,
        "2": 32.432071396768066,
        "5": 331.86145493348164,
        "4": 106.863245395751
    },
    "Obs_and_actions_tfls": {}
}50242319
    },
    "Obs_and_actions_tfls": {}
}