{
    "Average_holding_time": 43.51744186046512,
    "Average_holding_actions": [
        178,
        398,
        384,
        29,
        43,
        0
    ],
    "Average_travel_time_passengers": 2927.884744350112,
    "Average_passenger_waiting_time": 345.0472994906524,
    "Average_passenger_in_vehicle_time": 2582.8374448593618,
    "Average_speed_busses": 0.043,
    "Average_experienced_crowding": 116.20930403895423,
    "Average_covariation_headway": 0.21646192564090033,
    "Average_covariation_headway_stops": {
        "H": 0.12141136608777772,
        "E": 0.12483239353206305,
        "F": 0.1152762638678875,
        "J": 0.11405487201078185,
        "D": 0.11291181426589716,
        "I": 0.09007012861839997,
        "B": 0.09601153775578587,
        "G": 0.11397377168828945,
        "K": 0.07399204791567116,
        "L": 0.059305625020754635,
        "C": 0.07683396874980651,
        "A": 0.08249650166278033
    },
    "Average_excess_waiting_time": {
        "H": 77.20574688929446,
        "E": 80.18897140571408,
        "F": 77.35899369486685,
        "J": 76.29159575406322,
        "D": 81.59778747462911,
        "I": 76.81845618880243,
        "B": 79.74207505773757,
        "G": 78.9602484647018,
        "K": 75.98238547122196,
        "L": 77.16347550438013,
        "C": 80.97907909028618,
        "A": 80.24909169306824
    },
    "Holding_per_stop": {
        "H": 41.03448275862069,
        "J": 57.58620689655172,
        "F": 55.116279069767444,
        "E": 67.67441860465117,
        "I": 42.55813953488372,
        "D": 2.441860465116279,
        "B": 40.116279069767444,
        "K": 38.02325581395349,
        "G": 50.23255813953488,
        "L": 33.13953488372093,
        "C": 55.05882352941177,
        "A": 39.1764705882353
    },
    "Actions_tfl_edges": {},
    "Load_per_bus_per_stop": {
        "bus4": {
            "H": 143.13333333333333,
            "I": 142.33333333333334,
            "J": 136.33333333333334,
            "K": 126.53333333333333,
            "L": 116.13333333333334,
            "A": 103.42857142857143,
            "B": 94.64285714285714,
            "C": 88.78571428571429,
            "D": 85.14285714285714,
            "E": 84,
            "F": 106.92857142857143,
            "G": 139.78571428571428
        },
        "bus2": {
            "E": 76.66666666666667,
            "F": 100,
            "G": 135.33333333333334,
            "H": 145.4,
            "I": 140.64285714285714,
            "J": 133.21428571428572,
            "K": 124.42857142857143,
            "L": 112.92857142857143,
            "A": 103.28571428571429,
            "B": 92,
            "C": 87.78571428571429,
            "D": 84.35714285714286
        },
        "bus3": {
            "F": 96.26666666666667,
            "G": 133.53333333333333,
            "H": 144.86666666666667,
            "I": 138.73333333333332,
            "J": 132.4,
            "K": 121.64285714285714,
            "L": 112.42857142857143,
            "A": 101.85714285714286,
            "B": 92.07142857142857,
            "C": 85.5,
            "D": 81.21428571428571,
            "E": 78.35714285714286
        },
        "bus5": {
            "J": 127.33333333333333,
            "K": 119.53333333333333,
            "L": 110.53333333333333,
            "A": 99.26666666666667,
            "B": 91.33333333333333,
            "C": 86,
            "D": 80.85714285714286,
            "E": 81.28571428571429,
            "F": 104.57142857142857,
            "G": 135.21428571428572,
            "H": 144.21428571428572,
            "I": 142.42857142857142
        },
        "bus1": {
            "D": 80.86666666666666,
            "E": 79.13333333333334,
            "F": 101.8,
            "G": 137.35714285714286,
            "H": 148.5,
            "I": 145.64285714285714,
            "J": 135.14285714285714,
            "K": 125.71428571428571,
            "L": 116.14285714285714,
            "A": 105.71428571428571,
            "B": 96.21428571428571,
            "C": 88.57142857142857
        },
        "bus0": {
            "B": 87.6,
            "C": 81.26666666666667,
            "D": 79.8,
            "E": 80.14285714285714,
            "F": 105.07142857142857,
            "G": 142.78571428571428,
            "H": 154.35714285714286,
            "I": 150.85714285714286,
            "J": 142,
            "K": 132.71428571428572,
            "L": 119.21428571428571,
            "A": 106.21428571428571
        }
    },
    "Obs_and_actions_busses": {
        "2": -48.620498056517896,
        "0": -290.3450000057132,
        "1": -80.49493373360887,
        "5": 168.48130724425363,
        "4": 103.71933625538688
    },
    "Obs_and_actions_tfls": {}
}