{
    "Average_holding_time": 12.928321678321678,
    "Average_holding_actions": [
        861,
        136,
        126,
        0,
        21,
        0
    ],
    "Average_travel_time_passengers": 2624.723027390495,
    "Average_passenger_waiting_time": 311.6279328237669,
    "Average_passenger_in_vehicle_time": 2313.0950945666063,
    "Average_speed_busses": 0.04766666666666667,
    "Average_experienced_crowding": 106.10686990547858,
    "Average_covariation_headway": 0.2299277650886989,
    "Average_covariation_headway_stops": {
        "G": 0.1310626974760621,
        "E": 0.12120698162145635,
        "J": 0.11968868178554116,
        "K": 0.10659398083151396,
        "L": 0.10709294568669418,
        "H": 0.11535584498679913,
        "B": 0.07917794112960312,
        "A": 0.07440665688346339,
        "I": 0.10875773913710411,
        "F": 0.09725592534276546,
        "C": 0.06531611600185412,
        "D": 0.09667739122114229
    },
    "Average_excess_waiting_time": {
        "G": 46.189432131683986,
        "E": 45.93539080696337,
        "J": 46.345328491863256,
        "K": 43.6081869301529,
        "L": 41.876449847460776,
        "H": 46.52563337895168,
        "B": 40.96434324045413,
        "A": 42.00138259136901,
        "I": 47.34458947000411,
        "F": 45.846467279712215,
        "C": 42.44658414488123,
        "D": 45.96562859832983
    },
    "Holding_per_stop": {
        "G": 23.36842105263158,
        "L": 11.875,
        "K": 16.875,
        "B": 1.25,
        "E": 32.526315789473685,
        "J": 18,
        "H": 4.105263157894737,
        "A": 5,
        "I": 23.68421052631579,
        "C": 0.3157894736842105,
        "F": 16.736842105263158,
        "D": 1.5789473684210527
    },
    "Actions_tfl_edges": {},
    "Load_per_bus_per_stop": {
        "bus2": {
            "G": 124.4375,
            "H": 130.125,
            "I": 125.5,
            "J": 117.6875,
            "K": 111.75,
            "L": 100.75,
            "A": 92.3125,
            "B": 81.625,
            "C": 78.8125,
            "D": 76.75,
            "E": 74.8,
            "F": 99.86666666666666
        },
        "bus1": {
            "E": 75.5625,
            "F": 98.25,
            "G": 128.625,
            "H": 138.6875,
            "I": 135.3125,
            "J": 128.5,
            "K": 119.8125,
            "L": 109.8125,
            "A": 98.75,
            "B": 89.1875,
            "C": 82.9375,
            "D": 81.46666666666667
        },
        "bus3": {
            "J": 115.875,
            "K": 108.75,
            "L": 99.125,
            "A": 90.125,
            "B": 79.5625,
            "C": 73.5,
            "D": 69.1875,
            "E": 68.75,
            "F": 90.25,
            "G": 122.9375,
            "H": 134.26666666666668,
            "I": 129.73333333333332
        },
        "bus4": {
            "K": 107.6875,
            "L": 98.6875,
            "A": 88.125,
            "B": 80.75,
            "C": 74.125,
            "D": 73.1875,
            "E": 72.125,
            "F": 94.375,
            "G": 125.5625,
            "H": 134.875,
            "I": 130.8125,
            "J": 122.2
        },
        "bus5": {
            "L": 93.625,
            "A": 85.3125,
            "B": 77.75,
            "C": 74,
            "D": 70.5,
            "E": 70.125,
            "F": 92.8125,
            "G": 124.25,
            "H": 131.4375,
            "I": 125.625,
            "J": 119.5,
            "K": 109.5
        },
        "bus0": {
            "B": 83.5,
            "C": 78.375,
            "D": 72.75,
            "E": 74.75,
            "F": 102.0625,
            "G": 137.8125,
            "H": 144.6875,
            "I": 141,
            "J": 134.75,
            "K": 124.9375,
            "L": 114,
            "A": 101.5
        }
    },
    "Obs_and_actions_busses": {
        "2": 61.26654833900511,
        "5": 211.2195056674821,
        "0": -187.31441432895858,
        "1": -3.537703677821561
    },
    "Obs_and_actions_tfls": {}
}