{
    "Average_holding_time": 32.55378858746492,
    "Average_holding_actions": [
        328,
        429,
        270,
        19,
        23,
        0
    ],
    "Average_travel_time_passengers": 2799.844181311936,
    "Average_passenger_waiting_time": 332.65663060278615,
    "Average_passenger_in_vehicle_time": 2467.187550709086,
    "Average_speed_busses": 0.04454166666666667,
    "Average_experienced_crowding": 111.3731298341026,
    "Average_covariation_headway": 0.2151850799753179,
    "Average_covariation_headway_stops": {
        "E": 0.10048957375847278,
        "F": 0.1158928286455188,
        "J": 0.10181367949217697,
        "D": 0.08983972454939718,
        "A": 0.09249065434250044,
        "C": 0.07992117034600739,
        "G": 0.09548600693385892,
        "K": 0.06870057887293946,
        "H": 0.07831313174388543,
        "I": 0.07391738761884042,
        "B": 0.060278304041175984,
        "L": 0.07065228272275699
    },
    "Average_excess_waiting_time": {
        "E": 64.36934144694982,
        "F": 63.719657138064235,
        "J": 65.04669214619389,
        "D": 65.75106449655823,
        "A": 66.817349873404,
        "C": 66.90736194076368,
        "G": 63.52013704274799,
        "K": 65.26386743132934,
        "H": 64.02504485046228,
        "I": 65.41428893467366,
        "B": 67.55542802487719,
        "L": 67.0702501083087
    },
    "Holding_per_stop": {
        "F": 26.333333333333332,
        "J": 58.651685393258425,
        "E": 64,
        "D": 3.3707865168539324,
        "A": 23.93258426966292,
        "G": 42.666666666666664,
        "C": 21.235955056179776,
        "H": 38.42696629213483,
        "K": 35.056179775280896,
        "I": 34.38202247191011,
        "B": 10.909090909090908,
        "L": 31.022727272727273
    },
    "Actions_tfl_edges": {},
    "Load_per_bus_per_stop": {
        "bus2": {
            "E": 78.73333333333333,
            "F": 99,
            "G": 130.86666666666667,
            "H": 137.86666666666667,
            "I": 132.93333333333334,
            "J": 123.46666666666667,
            "K": 118.06666666666666,
            "L": 110.4,
            "A": 99.8,
            "B": 92.4,
            "C": 87.26666666666667,
            "D": 85.78571428571429
        },
        "bus3": {
            "F": 99.4,
            "G": 132.26666666666668,
            "H": 140.2,
            "I": 137.2,
            "J": 130.53333333333333,
            "K": 119.46666666666667,
            "L": 108.93333333333334,
            "A": 98.53333333333333,
            "B": 88.46666666666667,
            "C": 83.13333333333334,
            "D": 79.8,
            "E": 80.53333333333333
        },
        "bus4": {
            "J": 124.26666666666667,
            "K": 116.26666666666667,
            "L": 105.6,
            "A": 96.86666666666666,
            "B": 87.73333333333333,
            "C": 81.93333333333334,
            "D": 79.26666666666667,
            "E": 76.8,
            "F": 103.26666666666667,
            "G": 139.66666666666666,
            "H": 146.85714285714286,
            "I": 142
        },
        "bus1": {
            "D": 75.26666666666667,
            "E": 73.66666666666667,
            "F": 96.2,
            "G": 131.4,
            "H": 141.73333333333332,
            "I": 138.33333333333334,
            "J": 130.33333333333334,
            "K": 121.2,
            "L": 111.2,
            "A": 100.73333333333333,
            "B": 91.5,
            "C": 85.14285714285714
        },
        "bus5": {
            "A": 92.06666666666666,
            "B": 82.33333333333333,
            "C": 79.06666666666666,
            "D": 78.26666666666667,
            "E": 78.26666666666667,
            "F": 101.73333333333333,
            "G": 138.4,
            "H": 144.4,
            "I": 139.46666666666667,
            "J": 130.86666666666667,
            "K": 121.71428571428571,
            "L": 110.28571428571429
        },
        "bus0": {
            "C": 76.33333333333333,
            "D": 75.06666666666666,
            "E": 74.33333333333333,
            "F": 99.66666666666667,
            "G": 132.2,
            "H": 140,
            "I": 135.26666666666668,
            "J": 128.46666666666667,
            "K": 119.4,
            "L": 108.2,
            "A": 97,
            "B": 87.85714285714286
        }
    },
    "Obs_and_actions_busses": {
        "2": 6.179226294179592,
        "5": 163.55824889727964,
        "0": -264.76624750658164,
        "1": -66.14274072086295,
        "4": 106.68874319434926
    },
    "Obs_and_actions_tfls": {}
}.75483607096963
    },
    "Obs_and_actions_tfls": {}
}{}
}