{
    "Average_holding_time": 35.53977272727273,
    "Average_holding_actions": [
        201,
        657,
        0,
        0,
        0,
        0
    ],
    "Average_travel_time_passengers": 2876.9242030400806,
    "Average_passenger_waiting_time": 339.0383651984226,
    "Average_passenger_in_vehicle_time": 2537.885837841575,
    "Average_speed_busses": 0.044,
    "Average_experienced_crowding": 116.8695255709257,
    "Average_covariation_headway": 0.22335128650696573,
    "Average_covariation_headway_stops": {
        "H": 0.12025312987419706,
        "E": 0.09834614210336451,
        "F": 0.10730009610782998,
        "J": 0.10123224022519144,
        "I": 0.0847924896923223,
        "B": 0.1025725048898894,
        "C": 0.09513206793792628,
        "G": 0.08229422586918866,
        "K": 0.07409657117166106,
        "D": 0.07420088109016136,
        "L": 0.05886508997407779,
        "A": 0.0864756467844766
    },
    "Average_excess_waiting_time": {
        "H": 69.78396730067027,
        "E": 70.47168256291684,
        "F": 69.35507856354639,
        "J": 67.86679189332824,
        "I": 68.89131425264088,
        "B": 72.265745252064,
        "C": 70.32661547622041,
        "G": 69.32390009636663,
        "K": 67.97530379715118,
        "D": 71.29385673442602,
        "L": 69.06707622504558,
        "A": 72.64964149113507
    },
    "Holding_per_stop": {
        "H": 29.325842696629213,
        "J": 33.70786516853933,
        "F": 25.568181818181817,
        "E": 83.86363636363636,
        "C": 30,
        "I": 36.13636363636363,
        "B": 19.772727272727273,
        "K": 46.02272727272727,
        "G": 62.04545454545455,
        "D": 1.0344827586206897,
        "L": 31.363636363636363,
        "A": 27.24137931034483
    },
    "Actions_tfl_edges": {},
    "Load_per_bus_per_stop": {
        "bus4": {
            "H": 136.66666666666666,
            "I": 134.93333333333334,
            "J": 128.33333333333334,
            "K": 119.46666666666667,
            "L": 111.26666666666667,
            "A": 102.46666666666667,
            "B": 91.4,
            "C": 84.73333333333333,
            "D": 80.86666666666666,
            "E": 78.71428571428571,
            "F": 99.92857142857143,
            "G": 137
        },
        "bus2": {
            "E": 73.86666666666666,
            "F": 98.33333333333333,
            "G": 134,
            "H": 144.66666666666666,
            "I": 142.86666666666667,
            "J": 134.66666666666666,
            "K": 125.93333333333334,
            "L": 114.6,
            "A": 103.14285714285714,
            "B": 92.92857142857143,
            "C": 86.42857142857143,
            "D": 80.78571428571429
        },
        "bus3": {
            "F": 102.8,
            "G": 138,
            "H": 146.66666666666666,
            "I": 143.4,
            "J": 135.4,
            "K": 126.13333333333334,
            "L": 116.06666666666666,
            "A": 106,
            "B": 95.93333333333334,
            "C": 87.92857142857143,
            "D": 86.07142857142857,
            "E": 85.42857142857143
        },
        "bus5": {
            "J": 135.13333333333333,
            "K": 124.26666666666667,
            "L": 113.86666666666666,
            "A": 102.93333333333334,
            "B": 93.46666666666667,
            "C": 89.4,
            "D": 86.06666666666666,
            "E": 86,
            "F": 113,
            "G": 149.07142857142858,
            "H": 158.57142857142858,
            "I": 154.21428571428572
        },
        "bus0": {
            "B": 89.8,
            "C": 84.2,
            "D": 81.8,
            "E": 77.8,
            "F": 107,
            "G": 142,
            "H": 150.4,
            "I": 147.64285714285714,
            "J": 139.42857142857142,
            "K": 128.78571428571428,
            "L": 118.42857142857143,
            "A": 105.71428571428571
        },
        "bus1": {
            "C": 80.93333333333334,
            "D": 77.53333333333333,
            "E": 77.66666666666667,
            "F": 101.93333333333334,
            "G": 138.33333333333334,
            "H": 145.8,
            "I": 141.46666666666667,
            "J": 133.33333333333334,
            "K": 123.85714285714286,
            "L": 111.35714285714286,
            "A": 100.5,
            "B": 92.35714285714286
        }
    },
    "Obs_and_actions_busses": {
        "3": 73.73095472838374,
        "1": -91.85480167877519,
        "0": -284.05405086337356
    },
    "Obs_and_actions_tfls": {}
}