{
    "Average_holding_time": 8.439108061749572,
    "Average_holding_actions": [
        928,
        214,
        2,
        0,
        22,
        0
    ],
    "Average_travel_time_passengers": 2580.76854877316,
    "Average_passenger_waiting_time": 308.24530930845333,
    "Average_passenger_in_vehicle_time": 2272.5232394645695,
    "Average_speed_busses": 0.04858333333333333,
    "Average_experienced_crowding": 104.36515126487923,
    "Average_covariation_headway": 0.24250315398569938,
    "Average_covariation_headway_stops": {
        "H": 0.19677291750340997,
        "G": 0.17841051223657706,
        "I": 0.19853367222759646,
        "A": 0.11717681721977194,
        "B": 0.0927341807455227,
        "C": 0.08940562129604838,
        "J": 0.15386417035642302,
        "K": 0.12819496082859322,
        "D": 0.07938428033528531,
        "L": 0.1264751774988144,
        "E": 0.09931731560972804,
        "F": 0.13240212665584575
    },
    "Average_excess_waiting_time": {
        "H": 46.46488496732724,
        "G": 46.35532317731423,
        "I": 44.491675225426604,
        "A": 40.159646491154376,
        "B": 37.45042587462359,
        "C": 36.154748369664844,
        "J": 41.41660984579795,
        "K": 40.96088181714384,
        "D": 37.62561079971215,
        "L": 42.34620531492618,
        "E": 40.16531621075353,
        "F": 44.020016354095674
    },
    "Holding_per_stop": {
        "H": 2.4742268041237114,
        "I": 16.836734693877553,
        "G": 14.22680412371134,
        "C": 3.36734693877551,
        "B": 2.1649484536082473,
        "J": 10.714285714285714,
        "A": 7.731958762886598,
        "K": 10.206185567010309,
        "D": 1.5463917525773196,
        "L": 10.824742268041238,
        "E": 10.515463917525773,
        "F": 10.625
    },
    "Actions_tfl_edges": {},
    "Load_per_bus_per_stop": {
        "bus3": {
            "H": 124.17647058823529,
            "I": 119.41176470588235,
            "J": 113.6470588235294,
            "K": 105.1875,
            "L": 97.125,
            "A": 87.3125,
            "B": 78.9375,
            "C": 74.0625,
            "D": 68.375,
            "E": 68.6875,
            "F": 92.625,
            "G": 122.875
        },
        "bus2": {
            "G": 120.6470588235294,
            "H": 129,
            "I": 124.3125,
            "J": 118.5625,
            "K": 110.8125,
            "L": 102.75,
            "A": 92.1875,
            "B": 81.125,
            "C": 74.875,
            "D": 71.75,
            "E": 71.875,
            "F": 94.3125
        },
        "bus4": {
            "I": 132.52941176470588,
            "J": 123.6470588235294,
            "K": 112.52941176470588,
            "L": 105.17647058823529,
            "A": 94.625,
            "B": 87.5625,
            "C": 82.9375,
            "D": 81.1875,
            "E": 79.0625,
            "F": 102.125,
            "G": 135.0625,
            "H": 144.1875
        },
        "bus5": {
            "A": 89.05882352941177,
            "B": 79.0625,
            "C": 75.1875,
            "D": 71.75,
            "E": 71.3125,
            "F": 93.5625,
            "G": 124.3125,
            "H": 133.375,
            "I": 129.125,
            "J": 123.5,
            "K": 114.6875,
            "L": 105.125
        },
        "bus0": {
            "B": 76.11764705882354,
            "C": 70.82352941176471,
            "D": 65.5,
            "E": 64.4375,
            "F": 84.75,
            "G": 113.3125,
            "H": 123.5,
            "I": 119.25,
            "J": 114.4375,
            "K": 107.125,
            "L": 99,
            "A": 89.9375
        },
        "bus1": {
            "C": 77.94117647058823,
            "D": 74.23529411764706,
            "E": 71.70588235294117,
            "F": 93.4375,
            "G": 129.125,
            "H": 137.9375,
            "I": 136.125,
            "J": 128.625,
            "K": 119.75,
            "L": 107.4375,
            "A": 99.3125,
            "B": 89
        }
    },
    "Obs_and_actions_busses": {
        "1": 32.70015040874066,
        "5": 428.90579100656436,
        "0": -186.68905646817856,
        "2": 133.04867279695253
    },
    "Obs_and_actions_tfls": {}
}