{
    "Average_holding_time": 42.70348837209303,
    "Average_holding_actions": [
        199,
        402,
        358,
        14,
        59,
        0
    ],
    "Average_travel_time_passengers": 2903.9380838913316,
    "Average_passenger_waiting_time": 351.54880437900493,
    "Average_passenger_in_vehicle_time": 2552.3892795122265,
    "Average_speed_busses": 0.043,
    "Average_experienced_crowding": 117.17551807706641,
    "Average_covariation_headway": 0.23984091810009014,
    "Average_covariation_headway_stops": {
        "G": 0.17882545474542583,
        "I": 0.16567854347425962,
        "E": 0.18147228640556434,
        "J": 0.15920398593183993,
        "L": 0.13255681204972902,
        "A": 0.12316709581907274,
        "H": 0.15597283511397733,
        "K": 0.11924206516007288,
        "F": 0.14569476313668234,
        "B": 0.09550621665270957,
        "C": 0.1122281931785138,
        "D": 0.15624475352498574
    },
    "Average_excess_waiting_time": {
        "G": 86.60805773677896,
        "I": 84.2965686365738,
        "E": 87.18120167971313,
        "J": 81.35463120621921,
        "L": 78.74572620303394,
        "A": 75.70072859978347,
        "H": 85.80631199492018,
        "K": 79.92849542366235,
        "F": 85.50202495744298,
        "B": 76.35311802414236,
        "C": 80.04964474240023,
        "D": 86.68649215583514
    },
    "Holding_per_stop": {
        "J": 56.206896551724135,
        "I": 51.97674418604651,
        "A": 34.48275862068966,
        "G": 40.81395348837209,
        "L": 38.96551724137931,
        "E": 60,
        "K": 39.06976744186046,
        "H": 42,
        "B": 36.97674418604651,
        "F": 54,
        "C": 53.372093023255815,
        "D": 4.235294117647059
    },
    "Actions_tfl_edges": {},
    "Load_per_bus_per_stop": {
        "bus1": {
            "G": 135.6,
            "H": 143.6,
            "I": 141.53333333333333,
            "J": 134.13333333333333,
            "K": 126.35714285714286,
            "L": 115.71428571428571,
            "A": 103.35714285714286,
            "B": 94.28571428571429,
            "C": 89.42857142857143,
            "D": 84.92857142857143,
            "E": 86.57142857142857,
            "F": 111.07142857142857
        },
        "bus2": {
            "I": 133,
            "J": 125.66666666666667,
            "K": 118.06666666666666,
            "L": 108,
            "A": 98.14285714285714,
            "B": 88.64285714285714,
            "C": 84.35714285714286,
            "D": 81,
            "E": 80.85714285714286,
            "F": 107.71428571428571,
            "G": 143.42857142857142,
            "H": 149.28571428571428
        },
        "bus0": {
            "E": 77.06666666666666,
            "F": 100.2,
            "G": 141.13333333333333,
            "H": 149.73333333333332,
            "I": 145.85714285714286,
            "J": 137.14285714285714,
            "K": 127.78571428571429,
            "L": 118.07142857142857,
            "A": 107.35714285714286,
            "B": 96.14285714285714,
            "C": 91.07142857142857,
            "D": 84.28571428571429
        },
        "bus3": {
            "J": 130.6,
            "K": 121.53333333333333,
            "L": 111.33333333333333,
            "A": 101.46666666666667,
            "B": 90.06666666666666,
            "C": 83.21428571428571,
            "D": 79.92857142857143,
            "E": 79.07142857142857,
            "F": 105.35714285714286,
            "G": 142.71428571428572,
            "H": 151,
            "I": 148.21428571428572
        },
        "bus4": {
            "L": 103.33333333333333,
            "A": 93.93333333333334,
            "B": 82.86666666666666,
            "C": 77.4,
            "D": 75.07142857142857,
            "E": 74.64285714285714,
            "F": 99.14285714285714,
            "G": 132.35714285714286,
            "H": 142.71428571428572,
            "I": 138.64285714285714,
            "J": 131.78571428571428,
            "K": 122.71428571428571
        },
        "bus5": {
            "A": 100.6,
            "B": 87.6,
            "C": 83.06666666666666,
            "D": 81.2,
            "E": 80.46666666666667,
            "F": 107.71428571428571,
            "G": 144.71428571428572,
            "H": 153.78571428571428,
            "I": 148.85714285714286,
            "J": 140.92857142857142,
            "K": 131.64285714285714,
            "L": 118.5
        }
    },
    "Obs_and_actions_busses": {
        "5": 203.00347559453976,
        "2": -42.252206546990344,
        "1": -73.62211676406032,
        "0": -319.9946457921512,
        "4": 104.1435782327495
    },
    "Obs_and_actions_tfls": {}
}100795
    },
    "Obs_and_actions_tfls": {}
}nd_actions_tfls": {}
}