{
    "Average_holding_time": 9.853068280034572,
    "Average_holding_actions": [
        887,
        241,
        2,
        0,
        27,
        0
    ],
    "Average_travel_time_passengers": 2615.797565364599,
    "Average_passenger_waiting_time": 312.31230542331997,
    "Average_passenger_in_vehicle_time": 2303.485259941151,
    "Average_speed_busses": 0.04820833333333333,
    "Average_experienced_crowding": 106.08420078567772,
    "Average_covariation_headway": 0.24748095714026633,
    "Average_covariation_headway_stops": {
        "G": 0.15183034025198333,
        "E": 0.14777163658985487,
        "J": 0.1476497398383852,
        "K": 0.1315719750738495,
        "L": 0.12374077147823598,
        "H": 0.15397730334744428,
        "B": 0.10736080990910274,
        "A": 0.10024466206575278,
        "I": 0.14159136811092618,
        "F": 0.11839260677669057,
        "C": 0.1003371243383801,
        "D": 0.12826301010177635
    },
    "Average_excess_waiting_time": {
        "G": 44.66065456526184,
        "E": 44.87785178624938,
        "J": 45.010481633157156,
        "K": 41.872528409514416,
        "L": 39.63587802854681,
        "H": 45.98973439421309,
        "B": 39.197403792996,
        "A": 39.86260371842735,
        "I": 46.029876335704785,
        "F": 43.95624279574611,
        "C": 40.82616263367623,
        "D": 44.816530957730095
    },
    "Holding_per_stop": {
        "G": 18.75,
        "L": 8.041237113402062,
        "K": 15.463917525773196,
        "B": 0.9278350515463918,
        "J": 14.6875,
        "E": 11.25,
        "H": 5.9375,
        "A": 3.711340206185567,
        "I": 18.125,
        "C": 2.4742268041237114,
        "F": 16.5625,
        "D": 2.5
    },
    "Actions_tfl_edges": {},
    "Load_per_bus_per_stop": {
        "bus2": {
            "G": 122.29411764705883,
            "H": 130.6875,
            "I": 126.9375,
            "J": 121.5,
            "K": 113.4375,
            "L": 103.9375,
            "A": 96.5625,
            "B": 85.5625,
            "C": 79.875,
            "D": 75.875,
            "E": 73.8125,
            "F": 97.6875
        },
        "bus1": {
            "E": 71.75,
            "F": 94.0625,
            "G": 127.5,
            "H": 136.9375,
            "I": 134.9375,
            "J": 126.4375,
            "K": 118.25,
            "L": 107.625,
            "A": 97.625,
            "B": 86.3125,
            "C": 80.8125,
            "D": 79
        },
        "bus3": {
            "J": 118.625,
            "K": 109.75,
            "L": 101.75,
            "A": 91.9375,
            "B": 81.25,
            "C": 76.5625,
            "D": 74.6875,
            "E": 72.25,
            "F": 96.0625,
            "G": 126.9375,
            "H": 135.5625,
            "I": 130.8125
        },
        "bus4": {
            "K": 108.29411764705883,
            "L": 99.8125,
            "A": 90.5625,
            "B": 82.1875,
            "C": 76.6875,
            "D": 72.125,
            "E": 72,
            "F": 93.3125,
            "G": 123,
            "H": 132.125,
            "I": 129.0625,
            "J": 124.3125
        },
        "bus5": {
            "L": 92.58823529411765,
            "A": 84.6470588235294,
            "B": 77,
            "C": 72.4375,
            "D": 69.5,
            "E": 69.8125,
            "F": 90.3125,
            "G": 120.3125,
            "H": 127.9375,
            "I": 123.6875,
            "J": 117.5625,
            "K": 107.9375
        },
        "bus0": {
            "B": 82.58823529411765,
            "C": 77.52941176470588,
            "D": 73.8125,
            "E": 72.5625,
            "F": 97.875,
            "G": 132.9375,
            "H": 139,
            "I": 136.0625,
            "J": 127.5625,
            "K": 117.9375,
            "L": 108.0625,
            "A": 98.6875
        }
    },
    "Obs_and_actions_busses": {
        "1": 39.23459149788801,
        "5": 216.65568364081048,
        "0": -190.48107857509822,
        "2": 124.9158934577921
    },
    "Obs_and_actions_tfls": {}
}