{
    "Average_holding_time": 8.170103092783505,
    "Average_holding_actions": [
        907,
        242,
        0,
        0,
        15,
        0
    ],
    "Average_travel_time_passengers": 2608.2975325958832,
    "Average_passenger_waiting_time": 304.32519448773377,
    "Average_passenger_in_vehicle_time": 2303.972338108003,
    "Average_speed_busses": 0.0485,
    "Average_experienced_crowding": 106.1922064128605,
    "Average_covariation_headway": 0.2344825119505876,
    "Average_covariation_headway_stops": {
        "E": 0.09655913174550015,
        "J": 0.14751802059660796,
        "K": 0.13322597527043453,
        "L": 0.12292944719232295,
        "D": 0.08712491721445625,
        "B": 0.08903767026782941,
        "F": 0.06957961966382598,
        "A": 0.08680623184095591,
        "G": 0.07413169531892913,
        "C": 0.08047486060821407,
        "H": 0.09716888105532592,
        "I": 0.12862747782912
    },
    "Average_excess_waiting_time": {
        "E": 36.458570259406315,
        "J": 43.79735163877132,
        "K": 41.161514576870445,
        "L": 38.656086778582164,
        "D": 37.591377272460704,
        "B": 37.16891533582259,
        "F": 36.793382213698635,
        "A": 38.16137663490639,
        "G": 38.15800461814433,
        "C": 38.80949664468665,
        "H": 40.561932126171655,
        "I": 43.929556728506554
    },
    "Holding_per_stop": {
        "L": 10.408163265306122,
        "E": 10.714285714285714,
        "K": 13.608247422680412,
        "B": 0.6185567010309279,
        "J": 13.608247422680412,
        "D": 1.5463917525773196,
        "F": 11.1340206185567,
        "A": 5.257731958762887,
        "C": 1.5463917525773196,
        "G": 17.628865979381445,
        "H": 1.25,
        "I": 10.625
    },
    "Actions_tfl_edges": {},
    "Load_per_bus_per_stop": {
        "bus2": {
            "E": 74.23529411764706,
            "F": 97.17647058823529,
            "G": 129.1764705882353,
            "H": 136.41176470588235,
            "I": 135,
            "J": 129.8125,
            "K": 119.8125,
            "L": 110.875,
            "A": 100.8125,
            "B": 90.875,
            "C": 84.3125,
            "D": 79.8125
        },
        "bus3": {
            "J": 121.47058823529412,
            "K": 113.6875,
            "L": 102.6875,
            "A": 94.1875,
            "B": 87,
            "C": 81.375,
            "D": 78.1875,
            "E": 77.0625,
            "F": 100,
            "G": 131.25,
            "H": 138.375,
            "I": 134.9375
        },
        "bus4": {
            "K": 102.58823529411765,
            "L": 93.82352941176471,
            "A": 83.5625,
            "B": 75.875,
            "C": 71.8125,
            "D": 67.6875,
            "E": 67.0625,
            "F": 88.5,
            "G": 121.875,
            "H": 129.4375,
            "I": 126.125,
            "J": 117.875
        },
        "bus5": {
            "L": 98.23529411764706,
            "A": 88.88235294117646,
            "B": 81.125,
            "C": 75.8125,
            "D": 71.9375,
            "E": 71.0625,
            "F": 93.875,
            "G": 125.125,
            "H": 130.875,
            "I": 129.9375,
            "J": 122.9375,
            "K": 114
        },
        "bus1": {
            "D": 74,
            "E": 71.82352941176471,
            "F": 94.3125,
            "G": 125.375,
            "H": 134.75,
            "I": 131.25,
            "J": 124.625,
            "K": 117.0625,
            "L": 106.3125,
            "A": 98.25,
            "B": 90,
            "C": 83.625
        },
        "bus0": {
            "B": 82.58823529411765,
            "C": 77.11764705882354,
            "D": 76.125,
            "E": 76.75,
            "F": 98.25,
            "G": 128.8125,
            "H": 138,
            "I": 134,
            "J": 126.5625,
            "K": 116.625,
            "L": 105.125,
            "A": 97.125
        }
    },
    "Obs_and_actions_busses": {
        "0": -192.37121484953659,
        "1": 35.47740753829987,
        "5": 337.59888623703137
    },
    "Obs_and_actions_tfls": {}
}