{
    "Average_holding_time": 47.31543624161074,
    "Average_holding_actions": [
        200,
        82,
        12,
        0,
        70,
        0
    ],
    "Average_travel_time_passengers": 9918.341113421173,
    "Average_passenger_waiting_time": 3589.4721766659754,
    "Average_passenger_in_vehicle_time": 6328.868936754625,
    "Average_speed_busses": 0.018625,
    "Average_experienced_crowding": 1181.4140206561526,
    "Average_covariation_headway": 2.290427702305413,
    "Average_covariation_headway_stops": {
        "G": 1.9161335949177452,
        "I": 2.3298421330211165,
        "J": 2.371637444451023,
        "K": 2.402902573093252,
        "L": 2.418947478100478,
        "H": 2.162676497039297,
        "B": 2.398632656091951,
        "A": 2.2733086018476842,
        "C": 2.352832532106549,
        "D": 2.3110082001951606,
        "E": 2.294956360380057,
        "F": 2.0095874539344822
    },
    "Average_excess_waiting_time": {
        "G": 3087.884834820704,
        "I": 4389.346459832866,
        "J": 4490.66223103468,
        "K": 4556.535331017358,
        "L": 4576.0673623689145,
        "H": 3893.7955178879765,
        "B": 3895.594171724454,
        "A": 4698.896306417839,
        "C": 3857.1765277384757,
        "D": 3828.674320120632,
        "E": 3876.630636084761,
        "F": 3245.846886868347
    },
    "Holding_per_stop": {
        "G": 51.891891891891895,
        "L": 38.048780487804876,
        "I": 50.526315789473685,
        "J": 51.53846153846154,
        "K": 44.25,
        "B": 43.333333333333336,
        "H": 51.08108108108108,
        "A": 42.857142857142854,
        "C": 45.833333333333336,
        "D": 47.5,
        "E": 48.333333333333336,
        "F": 53.333333333333336
    },
    "Actions_tfl_edges": {},
    "Load_per_bus_per_stop": {
        "bus1": {
            "G": 67.57142857142857,
            "H": 69.14285714285714,
            "I": 68.14285714285714,
            "J": 65.85714285714286,
            "K": 63,
            "L": 60.57142857142857,
            "A": 62.166666666666664,
            "B": 57.666666666666664,
            "C": 55.166666666666664,
            "D": 52.666666666666664,
            "E": 48.833333333333336,
            "F": 60.666666666666664
        },
        "bus2": {
            "I": 22.857142857142858,
            "J": 21.142857142857142,
            "K": 19.857142857142858,
            "L": 18.428571428571427,
            "A": 18,
            "B": 16.166666666666668,
            "C": 15.833333333333334,
            "D": 16,
            "E": 15.5,
            "F": 20.333333333333332,
            "G": 29,
            "H": 27.5
        },
        "bus3": {
            "J": 18.142857142857142,
            "K": 16.571428571428573,
            "L": 14.571428571428571,
            "A": 13.5,
            "B": 11.5,
            "C": 11,
            "D": 10.5,
            "E": 10.666666666666666,
            "F": 15.333333333333334,
            "G": 23.166666666666668,
            "H": 24.5,
            "I": 22.5
        },
        "bus4": {
            "K": 27.142857142857142,
            "L": 24.571428571428573,
            "A": 19.666666666666668,
            "B": 16.666666666666668,
            "C": 14.5,
            "D": 14,
            "E": 13.5,
            "F": 24.666666666666668,
            "G": 42.5,
            "H": 41.333333333333336,
            "I": 38.666666666666664,
            "J": 34.666666666666664
        },
        "bus5": {
            "L": 124.28571428571429,
            "A": 91.83333333333333,
            "B": 80.33333333333333,
            "C": 71,
            "D": 65.16666666666667,
            "E": 61.666666666666664,
            "F": 109.66666666666667,
            "G": 198.83333333333334,
            "H": 209.83333333333334,
            "I": 195.33333333333334,
            "J": 181.5,
            "K": 163.83333333333334
        },
        "bus0": {
            "B": 701.6666666666666,
            "C": 676.3333333333334,
            "D": 681.8333333333334,
            "E": 711.5,
            "F": 959.6666666666666,
            "G": 1304.1666666666667,
            "H": 1423.3333333333333,
            "I": 1414.1666666666667,
            "J": 1357.6666666666667,
            "K": 1281.1666666666667,
            "L": 1184,
            "A": 1091.3333333333333
        }
    },
    "Obs_and_actions_busses": {
        "3": 2251.781268699468,
        "1": -1582.7501580779087,
        "0": -85.88307658698332,
        "5": 9736.188121061103,
        "2": 38.12216097980707
    },
    "Obs_and_actions_tfls": {}
}