{
    "Average_holding_time": 34.132075471698116,
    "Average_holding_actions": [
        208,
        675,
        0,
        0,
        0,
        0
    ],
    "Average_travel_time_passengers": 2839.70984581457,
    "Average_passenger_waiting_time": 336.3376164910247,
    "Average_passenger_in_vehicle_time": 2503.372229323486,
    "Average_speed_busses": 0.04416666666666667,
    "Average_experienced_crowding": 115.38505818108612,
    "Average_covariation_headway": 0.22265977240257168,
    "Average_covariation_headway_stops": {
        "I": 0.13004434634589546,
        "E": 0.09447825569062518,
        "J": 0.1304805116786673,
        "A": 0.09303161109627299,
        "B": 0.0844160275975391,
        "C": 0.08397142605786115,
        "F": 0.07060244002597281,
        "K": 0.10060099057583012,
        "D": 0.0622568293437414,
        "G": 0.07050492140859481,
        "L": 0.08147615426302414,
        "H": 0.08724199022279575
    },
    "Average_excess_waiting_time": {
        "I": 72.13213327387825,
        "E": 66.63449858947268,
        "J": 70.08248797276724,
        "A": 68.99092145846981,
        "B": 67.07362280337986,
        "C": 65.84943534241205,
        "F": 67.02274081227807,
        "K": 69.65772553222871,
        "D": 66.94690040404191,
        "G": 68.74985857326863,
        "L": 70.34855653077727,
        "H": 71.3333187756121
    },
    "Holding_per_stop": {
        "I": 38.18181818181818,
        "E": 81.23595505617978,
        "J": 32.69662921348315,
        "C": 30.337078651685392,
        "A": 25.568181818181817,
        "B": 23.59550561797753,
        "K": 41.25,
        "F": 20.113636363636363,
        "D": 1.7045454545454546,
        "L": 30.681818181818183,
        "G": 54.54545454545455,
        "H": 29.318181818181817
    },
    "Actions_tfl_edges": {},
    "Load_per_bus_per_stop": {
        "bus3": {
            "I": 133.93333333333334,
            "J": 127.26666666666667,
            "K": 116.33333333333333,
            "L": 106.6,
            "A": 97.93333333333334,
            "B": 88.73333333333333,
            "C": 82.8,
            "D": 78.6,
            "E": 78.92857142857143,
            "F": 105.64285714285714,
            "G": 140.78571428571428,
            "H": 148.21428571428572
        },
        "bus2": {
            "E": 75.93333333333334,
            "F": 101.06666666666666,
            "G": 131.2,
            "H": 140.93333333333334,
            "I": 138.93333333333334,
            "J": 130.73333333333332,
            "K": 121.6,
            "L": 109.93333333333334,
            "A": 99.46666666666667,
            "B": 90.73333333333333,
            "C": 87.21428571428571,
            "D": 83.71428571428571
        },
        "bus4": {
            "J": 133.8,
            "K": 124.53333333333333,
            "L": 113.66666666666667,
            "A": 103.53333333333333,
            "B": 95.06666666666666,
            "C": 90.06666666666666,
            "D": 85.73333333333333,
            "E": 84.26666666666667,
            "F": 109.33333333333333,
            "G": 145.92857142857142,
            "H": 154.07142857142858,
            "I": 149.71428571428572
        },
        "bus5": {
            "A": 97.33333333333333,
            "B": 87.33333333333333,
            "C": 80.8,
            "D": 77.8,
            "E": 76.86666666666666,
            "F": 101.93333333333334,
            "G": 137.46666666666667,
            "H": 145.46666666666667,
            "I": 141.71428571428572,
            "J": 136.07142857142858,
            "K": 126.64285714285714,
            "L": 117
        },
        "bus0": {
            "B": 87.33333333333333,
            "C": 80.66666666666667,
            "D": 75.26666666666667,
            "E": 75.8,
            "F": 101.6,
            "G": 132.66666666666666,
            "H": 145.46666666666667,
            "I": 141.2,
            "J": 133.86666666666667,
            "K": 124.92857142857143,
            "L": 113.57142857142857,
            "A": 101.5
        },
        "bus1": {
            "C": 83.73333333333333,
            "D": 80.53333333333333,
            "E": 78.73333333333333,
            "F": 103.73333333333333,
            "G": 139.2,
            "H": 148.4,
            "I": 144.8,
            "J": 135.33333333333334,
            "K": 126.53333333333333,
            "L": 116.6,
            "A": 104.14285714285714,
            "B": 96.07142857142857
        }
    },
    "Obs_and_actions_busses": {
        "3": 84.01294457726036,
        "0": -284.86105066344396,
        "1": -89.98405138747252
    },
    "Obs_and_actions_tfls": {}
}