{
    "Average_holding_time": 14.379947229551451,
    "Average_holding_actions": [
        807,
        181,
        127,
        0,
        22,
        0
    ],
    "Average_travel_time_passengers": 2642.263210798892,
    "Average_passenger_waiting_time": 319.83885065287603,
    "Average_passenger_in_vehicle_time": 2322.4243601459343,
    "Average_speed_busses": 0.047375,
    "Average_experienced_crowding": 109.58846749549684,
    "Average_covariation_headway": 0.25197604851586747,
    "Average_covariation_headway_stops": {
        "H": 0.19692532395964574,
        "G": 0.1837493448418631,
        "J": 0.16339718018062654,
        "L": 0.13381379626958534,
        "I": 0.17591641712372597,
        "D": 0.14433097411940812,
        "A": 0.13013727899971964,
        "K": 0.13423376892135694,
        "E": 0.13761079135870058,
        "B": 0.11504434222090842,
        "F": 0.14260363876233406,
        "C": 0.12990289375020536
    },
    "Average_excess_waiting_time": {
        "H": 54.86935493885062,
        "G": 55.42677564419682,
        "J": 50.655298053779916,
        "L": 47.58894356119805,
        "I": 53.557620715693645,
        "D": 50.11813490225404,
        "A": 45.945297815297636,
        "K": 49.439866699258914,
        "E": 50.929728929222506,
        "B": 46.91392684065852,
        "F": 53.2233000354006,
        "C": 50.4466988163195
    },
    "Holding_per_stop": {
        "H": 6.315789473684211,
        "J": 20.842105263157894,
        "G": 27.76595744680851,
        "A": 8.125,
        "I": 24,
        "D": 2.210526315789474,
        "L": 16.105263157894736,
        "K": 13.263157894736842,
        "E": 31.914893617021278,
        "B": 3.789473684210526,
        "C": 3.8297872340425534,
        "F": 14.680851063829786
    },
    "Actions_tfl_edges": {},
    "Load_per_bus_per_stop": {
        "bus2": {
            "H": 131.125,
            "I": 127.625,
            "J": 121.25,
            "K": 114.5625,
            "L": 103.8125,
            "A": 95,
            "B": 84,
            "C": 76.625,
            "D": 73.75,
            "E": 72.2,
            "F": 94.4,
            "G": 132.6
        },
        "bus1": {
            "G": 124.125,
            "H": 132.125,
            "I": 129.8125,
            "J": 121.5625,
            "K": 112.4375,
            "L": 102.8125,
            "A": 91.5,
            "B": 82.8125,
            "C": 78.2,
            "D": 75.33333333333333,
            "E": 75.2,
            "F": 100.73333333333333
        },
        "bus3": {
            "J": 115.6875,
            "K": 107.8125,
            "L": 97.625,
            "A": 89.625,
            "B": 81,
            "C": 77.25,
            "D": 72.4375,
            "E": 71.4375,
            "F": 94.4375,
            "G": 127.06666666666666,
            "H": 133.53333333333333,
            "I": 129.53333333333333
        },
        "bus4": {
            "L": 95.0625,
            "A": 85.5,
            "B": 78.375,
            "C": 74.1875,
            "D": 71.9375,
            "E": 71.0625,
            "F": 93,
            "G": 124.75,
            "H": 132.1875,
            "I": 129.25,
            "J": 121.93333333333334,
            "K": 111.26666666666667
        },
        "bus0": {
            "D": 80.9375,
            "E": 81.375,
            "F": 110.25,
            "G": 143.5625,
            "H": 152.8125,
            "I": 147.9375,
            "J": 137.5,
            "K": 127.4375,
            "L": 116.125,
            "A": 105,
            "B": 93.8,
            "C": 88.93333333333334
        },
        "bus5": {
            "A": 91.875,
            "B": 82.5625,
            "C": 77.8125,
            "D": 76.375,
            "E": 76.9375,
            "F": 101.6875,
            "G": 133.3125,
            "H": 142.1875,
            "I": 135.3125,
            "J": 129.0625,
            "K": 118.875,
            "L": 107.26666666666667
        }
    },
    "Obs_and_actions_busses": {
        "0": -197.9127663800447,
        "1": -2.7401979033493404,
        "2": 74.30950748224507,
        "5": 290.4178557270105
    },
    "Obs_and_actions_tfls": {}
}