{
    "Average_holding_time": 34.165103189493436,
    "Average_holding_actions": [
        209,
        680,
        0,
        3,
        0,
        0
    ],
    "Average_travel_time_passengers": 2831.725039733819,
    "Average_passenger_waiting_time": 336.4263155649943,
    "Average_passenger_in_vehicle_time": 2495.298724168757,
    "Average_speed_busses": 0.04441666666666667,
    "Average_experienced_crowding": 113.59577802205756,
    "Average_covariation_headway": 0.24200868538184972,
    "Average_covariation_headway_stops": {
        "H": 0.1600125352847407,
        "G": 0.14330266114998655,
        "E": 0.14039100429185042,
        "I": 0.135797080966466,
        "D": 0.13518851892736028,
        "B": 0.14640697500374247,
        "C": 0.13313113353429873,
        "F": 0.11592552427665423,
        "J": 0.11293215176338273,
        "K": 0.10075913880668858,
        "L": 0.10504081367803696,
        "A": 0.1346396560806099
    },
    "Average_excess_waiting_time": {
        "H": 68.16671527949626,
        "G": 68.90914666981723,
        "E": 69.00910019542528,
        "I": 67.33184546568339,
        "D": 70.67499618802668,
        "B": 74.95402906408947,
        "C": 72.22997825390729,
        "F": 69.15949479549812,
        "J": 67.31628043542571,
        "K": 68.1698539808097,
        "L": 70.6689246603969,
        "A": 75.21035783792138
    },
    "Holding_per_stop": {
        "H": 30.666666666666668,
        "G": 49.21348314606742,
        "E": 78.20224719101124,
        "I": 35.333333333333336,
        "D": 5.393258426966292,
        "C": 31.363636363636363,
        "B": 26.25,
        "J": 35.39325842696629,
        "F": 20.56179775280899,
        "K": 42.80898876404494,
        "L": 32.38636363636363,
        "A": 22.15909090909091
    },
    "Actions_tfl_edges": {},
    "Load_per_bus_per_stop": {
        "bus5": {
            "H": 144.53333333333333,
            "I": 140.6,
            "J": 131.2,
            "K": 123.13333333333334,
            "L": 114.93333333333334,
            "A": 102.73333333333333,
            "B": 92.66666666666667,
            "C": 89.6,
            "D": 86.73333333333333,
            "E": 84.8,
            "F": 111.06666666666666,
            "G": 146.42857142857142
        },
        "bus4": {
            "G": 123.2,
            "H": 130.66666666666666,
            "I": 124.8,
            "J": 117.46666666666667,
            "K": 110.2,
            "L": 102.4,
            "A": 93.4,
            "B": 84,
            "C": 78.66666666666667,
            "D": 76.46666666666667,
            "E": 74.57142857142857,
            "F": 97.42857142857143
        },
        "bus3": {
            "E": 75.46666666666667,
            "F": 98.93333333333334,
            "G": 133.4,
            "H": 142.13333333333333,
            "I": 137.4,
            "J": 130.4,
            "K": 121.93333333333334,
            "L": 112.06666666666666,
            "A": 101.13333333333334,
            "B": 91.33333333333333,
            "C": 85.21428571428571,
            "D": 80.85714285714286
        },
        "bus2": {
            "D": 76.8,
            "E": 75.73333333333333,
            "F": 100.26666666666667,
            "G": 136.2,
            "H": 146.66666666666666,
            "I": 142,
            "J": 133.73333333333332,
            "K": 122.86666666666666,
            "L": 113.6,
            "A": 102.2,
            "B": 90.78571428571429,
            "C": 85.28571428571429
        },
        "bus0": {
            "B": 88.4,
            "C": 82.66666666666667,
            "D": 77.73333333333333,
            "E": 76.73333333333333,
            "F": 100.26666666666667,
            "G": 133.33333333333334,
            "H": 143.66666666666666,
            "I": 138.06666666666666,
            "J": 131.64285714285714,
            "K": 125.42857142857143,
            "L": 114.5,
            "A": 103.42857142857143
        },
        "bus1": {
            "C": 79.86666666666666,
            "D": 77.93333333333334,
            "E": 76.53333333333333,
            "F": 104.06666666666666,
            "G": 137.33333333333334,
            "H": 143.93333333333334,
            "I": 140.33333333333334,
            "J": 133,
            "K": 121.33333333333333,
            "L": 112.07142857142857,
            "A": 100.92857142857143,
            "B": 91.5
        }
    },
    "Obs_and_actions_busses": {
        "0": -318.36537424857,
        "1": -87.3427996988174,
        "3": 84.7831425728959,
        "4": 820.2966045491621
    },
    "Obs_and_actions_tfls": {}
}