{
    "Average_holding_time": 32.9240862230553,
    "Average_holding_actions": [
        218,
        688,
        0,
        0,
        0,
        0
    ],
    "Average_travel_time_passengers": 2837.6196373346534,
    "Average_passenger_waiting_time": 333.6851365239519,
    "Average_passenger_in_vehicle_time": 2503.9345008106047,
    "Average_speed_busses": 0.044458333333333336,
    "Average_experienced_crowding": 114.3286557436565,
    "Average_covariation_headway": 0.21791854233131033,
    "Average_covariation_headway_stops": {
        "H": 0.11224740717395222,
        "E": 0.10023452425955715,
        "J": 0.09502319196893937,
        "K": 0.10955483372602803,
        "D": 0.08628067646179884,
        "I": 0.08168081035935618,
        "B": 0.08544339056470825,
        "F": 0.07433884697078734,
        "L": 0.07783767158400873,
        "G": 0.06250695691480189,
        "C": 0.05853408962962323,
        "A": 0.07045086613744361
    },
    "Average_excess_waiting_time": {
        "H": 67.50988117880411,
        "E": 65.31195453879587,
        "J": 65.89216734217348,
        "K": 64.91643910171985,
        "D": 66.49458927291113,
        "I": 67.10930321629047,
        "B": 65.95462492496569,
        "F": 65.89252265850246,
        "L": 64.8144124015252,
        "G": 66.86142298767692,
        "C": 66.87053720331079,
        "A": 66.55833444061585
    },
    "Holding_per_stop": {
        "H": 29.325842696629213,
        "E": 79.5505617977528,
        "K": 37,
        "J": 32.02247191011236,
        "D": 1.348314606741573,
        "B": 20.89887640449438,
        "I": 37.07865168539326,
        "L": 30,
        "F": 20.89887640449438,
        "G": 51.81818181818182,
        "A": 25.280898876404493,
        "C": 30
    },
    "Actions_tfl_edges": {},
    "Load_per_bus_per_stop": {
        "bus3": {
            "H": 136.93333333333334,
            "I": 130.33333333333334,
            "J": 124.4,
            "K": 115,
            "L": 105.6,
            "A": 97.73333333333333,
            "B": 87.86666666666666,
            "C": 83.4,
            "D": 81.06666666666666,
            "E": 78.93333333333334,
            "F": 99.28571428571429,
            "G": 137.78571428571428
        },
        "bus2": {
            "E": 80.46666666666667,
            "F": 103.86666666666666,
            "G": 136.86666666666667,
            "H": 144,
            "I": 139.86666666666667,
            "J": 133.66666666666666,
            "K": 127.4,
            "L": 116.46666666666667,
            "A": 106.73333333333333,
            "B": 97.46666666666667,
            "C": 92.5,
            "D": 86.92857142857143
        },
        "bus4": {
            "J": 122.8,
            "K": 115.86666666666666,
            "L": 106.73333333333333,
            "A": 97.06666666666666,
            "B": 86.6,
            "C": 80.66666666666667,
            "D": 78.6,
            "E": 77.8,
            "F": 102,
            "G": 133.6,
            "H": 139.92857142857142,
            "I": 137.78571428571428
        },
        "bus5": {
            "K": 115.13333333333334,
            "L": 104.53333333333333,
            "A": 96.2,
            "B": 86.26666666666667,
            "C": 81.86666666666666,
            "D": 81.46666666666667,
            "E": 80.66666666666667,
            "F": 104,
            "G": 137.33333333333334,
            "H": 146,
            "I": 142.13333333333333,
            "J": 134.42857142857142
        },
        "bus1": {
            "D": 79.73333333333333,
            "E": 76.2,
            "F": 100.33333333333333,
            "G": 136.53333333333333,
            "H": 148,
            "I": 145.33333333333334,
            "J": 136.73333333333332,
            "K": 126.93333333333334,
            "L": 116.8,
            "A": 106.8,
            "B": 95.92857142857143,
            "C": 88.35714285714286
        },
        "bus0": {
            "B": 91.33333333333333,
            "C": 83.93333333333334,
            "D": 79.13333333333334,
            "E": 79.6,
            "F": 107.26666666666667,
            "G": 139,
            "H": 148.93333333333334,
            "I": 145.26666666666668,
            "J": 136.86666666666667,
            "K": 128.33333333333334,
            "L": 120.14285714285714,
            "A": 109.85714285714286
        }
    },
    "Obs_and_actions_busses": {
        "3": 76.0106559544507,
        "1": -85.3599133867093,
        "0": -282.90242951505246
    },
    "Obs_and_actions_tfls": {}
}},
    "Obs_and_actions_tfls": {}
}