{
    "Average_holding_time": 10.892547660311958,
    "Average_holding_actions": [
        873,
        170,
        102,
        0,
        9,
        0
    ],
    "Average_travel_time_passengers": 2596.3878539525917,
    "Average_passenger_waiting_time": 306.21423906663955,
    "Average_passenger_in_vehicle_time": 2290.17361488582,
    "Average_speed_busses": 0.04808333333333333,
    "Average_experienced_crowding": 105.17787370693408,
    "Average_covariation_headway": 0.2229562521305084,
    "Average_covariation_headway_stops": {
        "I": 0.1265022885473779,
        "E": 0.09453970367092791,
        "K": 0.0883962576205542,
        "L": 0.08727315112283517,
        "D": 0.08239384830069157,
        "C": 0.0841152173918149,
        "F": 0.07280216887584534,
        "A": 0.047893556627750036,
        "J": 0.08074127376435024,
        "G": 0.0752329815123254,
        "B": 0.06445321340709967,
        "H": 0.08150281950812795
    },
    "Average_excess_waiting_time": {
        "I": 43.149410503739375,
        "E": 38.95693793810284,
        "K": 40.719686484067836,
        "L": 39.05340005061669,
        "D": 40.0647641405933,
        "C": 41.87802881777782,
        "F": 39.45208959347508,
        "A": 39.22147332902671,
        "J": 41.72257319429042,
        "G": 40.7406087551181,
        "B": 41.86284034937478,
        "H": 42.37922414862078
    },
    "Holding_per_stop": {
        "E": 26.5979381443299,
        "L": 10.515463917525773,
        "I": 20.625,
        "D": 1.875,
        "K": 14.375,
        "C": 1.5625,
        "A": 6.5625,
        "F": 10.625,
        "J": 16.875,
        "G": 20.3125,
        "B": 0,
        "H": 0.625
    },
    "Actions_tfl_edges": {},
    "Load_per_bus_per_stop": {
        "bus3": {
            "I": 126.4375,
            "J": 119.75,
            "K": 111.875,
            "L": 104.75,
            "A": 94.875,
            "B": 87,
            "C": 80.25,
            "D": 77.875,
            "E": 76.5,
            "F": 97.75,
            "G": 128,
            "H": 138.1875
        },
        "bus2": {
            "E": 69.47058823529412,
            "F": 91.75,
            "G": 125.75,
            "H": 134.5625,
            "I": 132.125,
            "J": 126.625,
            "K": 117.75,
            "L": 108.1875,
            "A": 96.25,
            "B": 86.8125,
            "C": 79,
            "D": 73.75
        },
        "bus4": {
            "K": 110,
            "L": 102.125,
            "A": 92.5625,
            "B": 84.6875,
            "C": 80.3125,
            "D": 76.9375,
            "E": 75.5625,
            "F": 96.875,
            "G": 130,
            "H": 137.6875,
            "I": 132.8125,
            "J": 126
        },
        "bus5": {
            "L": 101.11764705882354,
            "A": 91.125,
            "B": 81.6875,
            "C": 76.4375,
            "D": 72.375,
            "E": 71.875,
            "F": 96.375,
            "G": 133.75,
            "H": 141.4375,
            "I": 136.0625,
            "J": 128.4375,
            "K": 117.875
        },
        "bus1": {
            "D": 69.25,
            "E": 67.625,
            "F": 87.3125,
            "G": 114.3125,
            "H": 122.4375,
            "I": 120.875,
            "J": 116.625,
            "K": 108.625,
            "L": 98.5,
            "A": 91.0625,
            "B": 82.125,
            "C": 78.6875
        },
        "bus0": {
            "C": 74,
            "D": 70.8125,
            "E": 69.25,
            "F": 92.3125,
            "G": 123.0625,
            "H": 130.9375,
            "I": 126.0625,
            "J": 119.5,
            "K": 111.3125,
            "L": 102,
            "A": 92.9375,
            "B": 81.125
        }
    },
    "Obs_and_actions_busses": {
        "5": 335.0172543590804,
        "0": -188.44261500677146,
        "1": -3.7493060223601864,
        "2": 72.95966650138534
    },
    "Obs_and_actions_tfls": {}
}81234993073893,
        "2": 71.4847836312368,
        "5": 341.51007119606805,
        "0": -200.09643680369027
    },
    "Obs_and_actions_tfls": {}
}