{
    "Average_holding_time": 18.204667863554757,
    "Average_holding_actions": [
        875,
        0,
        169,
        0,
        64,
        0
    ],
    "Average_travel_time_passengers": 2775.2007764890927,
    "Average_passenger_waiting_time": 373.3280746684889,
    "Average_passenger_in_vehicle_time": 2401.8727018205163,
    "Average_speed_busses": 0.04641666666666667,
    "Average_experienced_crowding": 123.76828931556054,
    "Average_covariation_headway": 0.4703488254722502,
    "Average_covariation_headway_stops": {
        "H": 0.4483797605430786,
        "G": 0.4108738978223798,
        "K": 0.3988504845843238,
        "L": 0.3830267175881929,
        "I": 0.4429487497320873,
        "A": 0.3778881572359768,
        "B": 0.3734352565077751,
        "J": 0.42029980245802767,
        "C": 0.36204036171285336,
        "D": 0.35746364411092835,
        "E": 0.3702144092370812,
        "F": 0.37272570979392416
    },
    "Average_excess_waiting_time": {
        "H": 112.50409558504214,
        "G": 104.88301585739464,
        "K": 100.58999572211854,
        "L": 95.02575669604585,
        "I": 112.49255448949731,
        "A": 91.94939453095435,
        "B": 90.2118957689487,
        "J": 108.46448464212182,
        "C": 89.61595810507151,
        "D": 90.63422544656942,
        "E": 95.4152189136176,
        "F": 97.8656641137838
    },
    "Holding_per_stop": {
        "H": 20,
        "L": 13.225806451612904,
        "I": 20.967741935483872,
        "G": 24.456521739130434,
        "A": 10.212765957446809,
        "B": 10.212765957446809,
        "K": 19.35483870967742,
        "J": 22.82608695652174,
        "C": 12.580645161290322,
        "D": 12.258064516129032,
        "E": 25.108695652173914,
        "F": 27.717391304347824
    },
    "Actions_tfl_edges": {},
    "Load_per_bus_per_stop": {
        "bus2": {
            "H": 145.5,
            "I": 141.25,
            "J": 135,
            "K": 124.6875,
            "L": 114.0625,
            "A": 104.625,
            "B": 95.26666666666667,
            "C": 90.13333333333334,
            "D": 86.2,
            "E": 83.06666666666666,
            "F": 108.2,
            "G": 146.4
        },
        "bus1": {
            "G": 151.625,
            "H": 161.6875,
            "I": 159.6875,
            "J": 150.25,
            "K": 138.8125,
            "L": 128.8,
            "A": 115.06666666666666,
            "B": 104.2,
            "C": 96.6,
            "D": 93,
            "E": 92.33333333333333,
            "F": 120.93333333333334
        },
        "bus3": {
            "K": 115.5,
            "L": 105.1875,
            "A": 95.1875,
            "B": 86.5625,
            "C": 81.6,
            "D": 79.53333333333333,
            "E": 78,
            "F": 102.26666666666667,
            "G": 134.86666666666667,
            "H": 145.4,
            "I": 141.73333333333332,
            "J": 134.6
        },
        "bus4": {
            "L": 79.75,
            "A": 73,
            "B": 65.125,
            "C": 62,
            "D": 59.625,
            "E": 55.46666666666667,
            "F": 74.66666666666667,
            "G": 101.6,
            "H": 111.13333333333334,
            "I": 107.93333333333334,
            "J": 101.13333333333334,
            "K": 93.73333333333333
        },
        "bus5": {
            "A": 61.75,
            "B": 55.4375,
            "C": 50.3125,
            "D": 50.0625,
            "E": 50,
            "F": 66.8125,
            "G": 90.9375,
            "H": 93.53333333333333,
            "I": 90,
            "J": 84.73333333333333,
            "K": 78.46666666666667,
            "L": 71.46666666666667
        },
        "bus0": {
            "B": 104.5,
            "C": 96,
            "D": 92.3125,
            "E": 91.0625,
            "F": 120.9375,
            "G": 160.125,
            "H": 172.875,
            "I": 166,
            "J": 159.73333333333332,
            "K": 149.53333333333333,
            "L": 137.46666666666667,
            "A": 123.53333333333333
        }
    },
    "Obs_and_actions_busses": {
        "0": -221.53277571357404,
        "2": 129.11040881587883,
        "5": 477.66298977470984,
        "3": 227.12133118493605
    },
    "Obs_and_actions_tfls": {}
}