{
    "Average_holding_time": 13.998242530755713,
    "Average_holding_actions": [
        839,
        241,
        0,
        0,
        58,
        0
    ],
    "Average_travel_time_passengers": 2652.504174796072,
    "Average_passenger_waiting_time": 329.2508290207119,
    "Average_passenger_in_vehicle_time": 2323.253345775257,
    "Average_speed_busses": 0.04741666666666667,
    "Average_experienced_crowding": 111.19004745867375,
    "Average_covariation_headway": 0.28822383702715715,
    "Average_covariation_headway_stops": {
        "G": 0.25085365141578997,
        "I": 0.24721188301463864,
        "J": 0.23001690772958686,
        "K": 0.21037433806877917,
        "L": 0.20798792059450943,
        "D": 0.2295508452701904,
        "H": 0.24468407688309426,
        "A": 0.18120438930542068,
        "E": 0.21481836743126434,
        "B": 0.1860589422343492,
        "F": 0.21887650248418347,
        "C": 0.20690282866559145
    },
    "Average_excess_waiting_time": {
        "G": 63.783668201727096,
        "I": 62.36357190346064,
        "J": 58.313413557909485,
        "K": 53.74521653369925,
        "L": 51.81359439301821,
        "D": 59.55390018942694,
        "H": 64.42114913734076,
        "A": 50.41349794228705,
        "E": 59.35028801816486,
        "B": 53.31458927748474,
        "F": 61.48870921392967,
        "C": 58.089718766706824
    },
    "Holding_per_stop": {
        "L": 13.75,
        "K": 13.75,
        "J": 22.42105263157895,
        "G": 21.70212765957447,
        "I": 23.36842105263158,
        "D": 12,
        "A": 7.8125,
        "H": 8.936170212765957,
        "E": 12.446808510638299,
        "B": 7.578947368421052,
        "F": 20.74468085106383,
        "C": 3.5106382978723403
    },
    "Actions_tfl_edges": {},
    "Load_per_bus_per_stop": {
        "bus1": {
            "G": 124.1875,
            "H": 134.125,
            "I": 130.6875,
            "J": 125.875,
            "K": 115.75,
            "L": 104.6875,
            "A": 93.0625,
            "B": 84.3125,
            "C": 79.46666666666667,
            "D": 76.6,
            "E": 75.2,
            "F": 100.86666666666666
        },
        "bus2": {
            "I": 125.625,
            "J": 120.125,
            "K": 109.625,
            "L": 100.625,
            "A": 93.0625,
            "B": 82.4375,
            "C": 77.75,
            "D": 76.0625,
            "E": 74.93333333333334,
            "F": 97.4,
            "G": 128.73333333333332,
            "H": 137.66666666666666
        },
        "bus3": {
            "J": 117.75,
            "K": 108.875,
            "L": 98.9375,
            "A": 90.3125,
            "B": 81.75,
            "C": 77.375,
            "D": 72.5,
            "E": 72.625,
            "F": 96.8125,
            "G": 126.3125,
            "H": 134.86666666666667,
            "I": 131.73333333333332
        },
        "bus4": {
            "K": 96.6875,
            "L": 90.375,
            "A": 81.8125,
            "B": 74.875,
            "C": 71.9375,
            "D": 68.25,
            "E": 67,
            "F": 84.75,
            "G": 113.9375,
            "H": 120.25,
            "I": 116.25,
            "J": 111.2
        },
        "bus5": {
            "L": 106.3125,
            "A": 94.75,
            "B": 86.3125,
            "C": 82.6875,
            "D": 79.625,
            "E": 80.4375,
            "F": 104.4375,
            "G": 136.1875,
            "H": 145.9375,
            "I": 138.9375,
            "J": 132,
            "K": 123.25
        },
        "bus0": {
            "D": 79.3125,
            "E": 77.125,
            "F": 100.4375,
            "G": 134.6875,
            "H": 146.75,
            "I": 142.625,
            "J": 134.0625,
            "K": 126.1875,
            "L": 116.9375,
            "A": 106.125,
            "B": 94.6,
            "C": 90.06666666666666
        }
    },
    "Obs_and_actions_busses": {
        "5": 252.76030945250182,
        "1": 39.27951009022037,
        "0": -204.98675084002826
    },
    "Obs_and_actions_tfls": {}
}    }
    },
    "Obs_and_actions_busses": {
        "5": 271.99945866462997,
        "0": -186.01325208485173,
        "1": 33.948253101750275,
        "2": 158.77963048661408
    },
    "Obs_and_actions_tfls": {}
}