{
    "Average_holding_time": 13.763157894736842,
    "Average_holding_actions": [
        845,
        238,
        0,
        0,
        57,
        0
    ],
    "Average_travel_time_passengers": 2630.3714104846845,
    "Average_passenger_waiting_time": 325.1508172744552,
    "Average_passenger_in_vehicle_time": 2305.220593210129,
    "Average_speed_busses": 0.0475,
    "Average_experienced_crowding": 109.9188662435924,
    "Average_covariation_headway": 0.29772778723799304,
    "Average_covariation_headway_stops": {
        "H": 0.2873059065527964,
        "J": 0.26725097399879255,
        "K": 0.24973784007805325,
        "L": 0.23957433921598348,
        "B": 0.20829808736736843,
        "C": 0.19077268749819712,
        "I": 0.28041379703901476,
        "A": 0.21509556917697362,
        "D": 0.1819254727959439,
        "E": 0.18353051937163622,
        "F": 0.19487228875939355,
        "G": 0.2178034499851691
    },
    "Average_excess_waiting_time": {
        "H": 69.26897985514984,
        "J": 65.70837729657757,
        "K": 61.10033354626535,
        "L": 57.66190951916906,
        "B": 54.123743632311744,
        "C": 50.73933248668152,
        "I": 69.90874468343014,
        "A": 56.23852175722561,
        "D": 51.64639823556604,
        "E": 53.350692658964874,
        "F": 56.52334377886473,
        "G": 60.634174457589154
    },
    "Holding_per_stop": {
        "L": 10.625,
        "H": 12.31578947368421,
        "K": 17.05263157894737,
        "C": 6.25,
        "J": 17.05263157894737,
        "B": 9.375,
        "A": 7.894736842105263,
        "I": 21.06382978723404,
        "D": 4.105263157894737,
        "E": 14.842105263157896,
        "F": 26.80851063829787,
        "G": 18.19148936170213
    },
    "Actions_tfl_edges": {},
    "Load_per_bus_per_stop": {
        "bus2": {
            "H": 135.125,
            "I": 131.625,
            "J": 127.625,
            "K": 118.6875,
            "L": 107.3125,
            "A": 98.1875,
            "B": 86,
            "C": 81.1875,
            "D": 81,
            "E": 82.06666666666666,
            "F": 106.13333333333334,
            "G": 138.53333333333333
        },
        "bus3": {
            "J": 120.5625,
            "K": 111.5625,
            "L": 103.0625,
            "A": 92.25,
            "B": 82.375,
            "C": 79.1875,
            "D": 76.6875,
            "E": 77.4375,
            "F": 101.13333333333334,
            "G": 133.33333333333334,
            "H": 141.2,
            "I": 136.06666666666666
        },
        "bus4": {
            "K": 105.3125,
            "L": 96.6875,
            "A": 88.5625,
            "B": 80.625,
            "C": 75.8125,
            "D": 73.25,
            "E": 71.5,
            "F": 95.875,
            "G": 122.6875,
            "H": 131.125,
            "I": 128.53333333333333,
            "J": 121.4
        },
        "bus5": {
            "L": 94.6875,
            "A": 87.4375,
            "B": 77.9375,
            "C": 72.5625,
            "D": 67.6875,
            "E": 67.75,
            "F": 87.4375,
            "G": 121.1875,
            "H": 129.875,
            "I": 127.125,
            "J": 119.875,
            "K": 111.26666666666667
        },
        "bus0": {
            "B": 70.5625,
            "C": 65.75,
            "D": 65.0625,
            "E": 64.125,
            "F": 83.4375,
            "G": 111.1875,
            "H": 117.375,
            "I": 113.8125,
            "J": 106.875,
            "K": 99.8125,
            "L": 91.5,
            "A": 80.93333333333334
        },
        "bus1": {
            "C": 84.4375,
            "D": 82.5625,
            "E": 80.375,
            "F": 105.125,
            "G": 142.8125,
            "H": 154.625,
            "I": 151.5,
            "J": 142.375,
            "K": 132.5,
            "L": 120,
            "A": 108.9375,
            "B": 97.9375
        }
    },
    "Obs_and_actions_busses": {
        "5": 323.8775937224136,
        "0": -206.52368333569126,
        "1": 38.203310023131216
    },
    "Obs_and_actions_tfls": {}
}