{
    "Average_holding_time": 12.162162162162161,
    "Average_holding_actions": [
        965,
        0,
        143,
        0,
        31,
        0
    ],
    "Average_travel_time_passengers": 2635.097710082575,
    "Average_passenger_waiting_time": 328.9674531911078,
    "Average_passenger_in_vehicle_time": 2306.1302568913366,
    "Average_speed_busses": 0.04779166666666667,
    "Average_experienced_crowding": 111.78337775813269,
    "Average_covariation_headway": 0.3485392909831003,
    "Average_covariation_headway_stops": {
        "G": 0.2789423841575706,
        "F": 0.25843737436148034,
        "J": 0.26970585357129345,
        "L": 0.24008247653937861,
        "H": 0.28185541108901796,
        "A": 0.23294817027943965,
        "B": 0.2340141616617594,
        "I": 0.277691139149643,
        "K": 0.24466083015533416,
        "C": 0.22109190746026472,
        "D": 0.23061133049708288,
        "E": 0.25473374419492495
    },
    "Average_excess_waiting_time": {
        "G": 63.4057925360662,
        "F": 62.1388030642355,
        "J": 62.64012819152538,
        "L": 58.408648586299364,
        "H": 65.20590238164777,
        "A": 57.087085257094714,
        "B": 55.08280263883216,
        "I": 65.93949516171222,
        "K": 61.01961759332585,
        "C": 55.470557683865934,
        "D": 58.35949096985837,
        "E": 63.58380799216985
    },
    "Holding_per_stop": {
        "G": 19.375,
        "J": 14.6875,
        "H": 11.25,
        "A": 7.5,
        "B": 9.0625,
        "L": 9.0625,
        "F": 14.526315789473685,
        "I": 18,
        "K": 14.526315789473685,
        "C": 5,
        "D": 5.052631578947368,
        "E": 18
    },
    "Actions_tfl_edges": {},
    "Load_per_bus_per_stop": {
        "bus2": {
            "G": 118.5,
            "H": 125.375,
            "I": 120.5,
            "J": 112.0625,
            "K": 104.6875,
            "L": 94,
            "A": 86,
            "B": 78.75,
            "C": 73.8125,
            "D": 73.5,
            "E": 71,
            "F": 91.26666666666667
        },
        "bus1": {
            "F": 99.1875,
            "G": 132.375,
            "H": 141.1875,
            "I": 137.75,
            "J": 132.6875,
            "K": 124.0625,
            "L": 112.9375,
            "A": 103.625,
            "B": 93.0625,
            "C": 87.5625,
            "D": 84.26666666666667,
            "E": 82.73333333333333
        },
        "bus3": {
            "J": 120.375,
            "K": 112.6875,
            "L": 102.6875,
            "A": 92.8125,
            "B": 83.75,
            "C": 79.375,
            "D": 76.8125,
            "E": 77.1875,
            "F": 100.75,
            "G": 132.75,
            "H": 140.625,
            "I": 136.66666666666666
        },
        "bus4": {
            "L": 94.4375,
            "A": 85.375,
            "B": 76.6875,
            "C": 71.5,
            "D": 69.0625,
            "E": 65.6875,
            "F": 88.1875,
            "G": 120.4375,
            "H": 128.5,
            "I": 126.4375,
            "J": 120.0625,
            "K": 111.13333333333334
        },
        "bus5": {
            "A": 78.125,
            "B": 71.25,
            "C": 67.75,
            "D": 66.375,
            "E": 65.25,
            "F": 84.6875,
            "G": 111.875,
            "H": 117,
            "I": 113.125,
            "J": 106.0625,
            "K": 97.4375,
            "L": 89.8125
        },
        "bus0": {
            "B": 95.5,
            "C": 90.1875,
            "D": 86.3125,
            "E": 85.625,
            "F": 112.1875,
            "G": 149.1875,
            "H": 158.6875,
            "I": 155.125,
            "J": 146.0625,
            "K": 135.4375,
            "L": 125.5625,
            "A": 113.375
        }
    },
    "Obs_and_actions_busses": {
        "0": -181.12637341304605,
        "2": 123.32285699111458,
        "3": 220.67616325801927,
        "5": 395.80778447418965
    },
    "Obs_and_actions_tfls": {}
}  "3": 232.3260673477252,
        "0": -166.02673954351755
    },
    "Obs_and_actions_tfls": {}
}{
        "0": -219.31331485887915,
        "2": 124.64079309870245,
        "5": 403.06758200980846,
        "3": 231.2807547922478
    },
    "Obs_and_actions_tfls": {}
}