{
    "Average_holding_time": 22.937956204379564,
    "Average_holding_actions": [
        714,
        97,
        114,
        0,
        0,
        0
    ],
    "Average_travel_time_passengers": 2789.985916413563,
    "Average_passenger_waiting_time": 361.205754233717,
    "Average_passenger_in_vehicle_time": 2428.780162179799,
    "Average_speed_busses": 0.04566666666666667,
    "Average_experienced_crowding": 121.54487686499739,
    "Average_covariation_headway": 0.371092203272133,
    "Average_covariation_headway_stops": {
        "G": 0.3401873390536248,
        "I": 0.36972094885416884,
        "E": 0.34016769118397283,
        "J": 0.36966644646900965,
        "L": 0.348113020480589,
        "A": 0.333936022036725,
        "H": 0.3555468932977941,
        "K": 0.34932518059249873,
        "F": 0.31673037832615936,
        "B": 0.3190363632473114,
        "C": 0.31839611284522235,
        "D": 0.3260246373253056
    },
    "Average_excess_waiting_time": {
        "G": 92.87646385529933,
        "I": 98.71655034506279,
        "E": 93.18443251265109,
        "J": 96.45789976067351,
        "L": 91.51257810098724,
        "A": 86.74699222169932,
        "H": 97.86924185164065,
        "K": 93.70208697954473,
        "F": 90.32436809863248,
        "B": 86.25929914641591,
        "C": 88.6312937622804,
        "D": 92.34703357172583
    },
    "Holding_per_stop": {
        "G": 37.91208791208791,
        "I": 35.934065934065934,
        "J": 29.02173913043478,
        "A": 11.73913043478261,
        "L": 22.5,
        "E": 40.54945054945055,
        "H": 14.175824175824175,
        "K": 25.714285714285715,
        "B": 12.065217391304348,
        "F": 17.802197802197803,
        "C": 12.527472527472527,
        "D": 15.494505494505495
    },
    "Actions_tfl_edges": {},
    "Load_per_bus_per_stop": {
        "bus1": {
            "G": 132.3125,
            "H": 140.9375,
            "I": 136.5,
            "J": 128.86666666666667,
            "K": 119.8,
            "L": 110.66666666666667,
            "A": 101.6,
            "B": 92.93333333333334,
            "C": 87.6,
            "D": 81.8,
            "E": 80.2,
            "F": 102.33333333333333
        },
        "bus2": {
            "I": 125.375,
            "J": 121.6875,
            "K": 114.25,
            "L": 106.06666666666666,
            "A": 95.06666666666666,
            "B": 86.46666666666667,
            "C": 79.6,
            "D": 74.53333333333333,
            "E": 73.86666666666666,
            "F": 98.73333333333333,
            "G": 131.2,
            "H": 138.8
        },
        "bus0": {
            "E": 87.75,
            "F": 113.75,
            "G": 153.53333333333333,
            "H": 164.13333333333333,
            "I": 161.26666666666668,
            "J": 152.73333333333332,
            "K": 143.4,
            "L": 133.4,
            "A": 120.73333333333333,
            "B": 108.2,
            "C": 98.66666666666667,
            "D": 94.73333333333333
        },
        "bus3": {
            "J": 104.3125,
            "K": 96.875,
            "L": 89.3125,
            "A": 80.6875,
            "B": 71.2,
            "C": 68.6,
            "D": 65.2,
            "E": 66.46666666666667,
            "F": 88.46666666666667,
            "G": 117.46666666666667,
            "H": 123.26666666666667,
            "I": 119.66666666666667
        },
        "bus4": {
            "L": 80.875,
            "A": 73.0625,
            "B": 63.625,
            "C": 59.93333333333333,
            "D": 58.86666666666667,
            "E": 57.666666666666664,
            "F": 80.06666666666666,
            "G": 107.73333333333333,
            "H": 115.33333333333333,
            "I": 110.66666666666667,
            "J": 104.06666666666666,
            "K": 96.33333333333333
        },
        "bus5": {
            "A": 113.9375,
            "B": 105.25,
            "C": 97.5625,
            "D": 93,
            "E": 91.53333333333333,
            "F": 119,
            "G": 160.93333333333334,
            "H": 171.86666666666667,
            "I": 168.6,
            "J": 157.33333333333334,
            "K": 145.26666666666668,
            "L": 132.8
        }
    },
    "Obs_and_actions_busses": {
        "3": 236.850141965656,
        "2": 36.41546638775274,
        "0": -205.79289227356188,
        "1": -240.0743521845486
    },
    "Obs_and_actions_tfls": {}
}