{
    "Average_holding_time": 6.669505962521295,
    "Average_holding_actions": [
        1058,
        0,
        95,
        0,
        4,
        0
    ],
    "Average_travel_time_passengers": 2559.6105753552165,
    "Average_passenger_waiting_time": 302.6176874645695,
    "Average_passenger_in_vehicle_time": 2256.992887890518,
    "Average_speed_busses": 0.048916666666666664,
    "Average_experienced_crowding": 103.35956257490636,
    "Average_covariation_headway": 0.2508628734838281,
    "Average_covariation_headway_stops": {
        "G": 0.1419607343430087,
        "F": 0.1206207535241613,
        "K": 0.11505187972991225,
        "H": 0.12750608626557058,
        "D": 0.1204422545509578,
        "A": 0.10139566631996845,
        "B": 0.10484619328057596,
        "I": 0.1241157941316832,
        "L": 0.08786097984336418,
        "E": 0.11617442248600077,
        "J": 0.10598949499229318,
        "C": 0.10192572783361162
    },
    "Average_excess_waiting_time": {
        "G": 37.55454712101823,
        "F": 37.7046219445632,
        "K": 37.22620993889416,
        "H": 37.54060809035326,
        "D": 37.32937733692245,
        "A": 36.422849524346475,
        "B": 35.44602498318818,
        "I": 38.43388687544666,
        "L": 37.018024901373394,
        "E": 38.462573386111444,
        "J": 38.32150794012932,
        "C": 37.32645578116177
    },
    "Holding_per_stop": {
        "G": 13.16326530612245,
        "H": 1.2244897959183674,
        "K": 6.73469387755102,
        "B": 0.6122448979591837,
        "A": 2.142857142857143,
        "D": 1.530612244897959,
        "F": 7.653061224489796,
        "I": 16.224489795918366,
        "L": 2.4742268041237114,
        "E": 20.816326530612244,
        "J": 7.422680412371134,
        "C": 0
    },
    "Actions_tfl_edges": {},
    "Load_per_bus_per_stop": {
        "bus3": {
            "G": 123.58823529411765,
            "H": 128.41176470588235,
            "I": 122.76470588235294,
            "J": 115.70588235294117,
            "K": 108.76470588235294,
            "L": 101.17647058823529,
            "A": 90.6875,
            "B": 81.3125,
            "C": 75.625,
            "D": 73.25,
            "E": 73.4375,
            "F": 98.1875
        },
        "bus2": {
            "F": 86.82352941176471,
            "G": 118.29411764705883,
            "H": 125.23529411764706,
            "I": 123.88235294117646,
            "J": 115.8125,
            "K": 108.3125,
            "L": 98.4375,
            "A": 89.6875,
            "B": 81.125,
            "C": 76.6875,
            "D": 74.3125,
            "E": 71.625
        },
        "bus4": {
            "K": 109.3529411764706,
            "L": 98.70588235294117,
            "A": 89.76470588235294,
            "B": 81.6875,
            "C": 76.0625,
            "D": 72.375,
            "E": 70.125,
            "F": 91.75,
            "G": 125.4375,
            "H": 136.75,
            "I": 132.3125,
            "J": 125.375
        },
        "bus1": {
            "D": 73.3529411764706,
            "E": 71.76470588235294,
            "F": 97.17647058823529,
            "G": 127.94117647058823,
            "H": 135.25,
            "I": 131.875,
            "J": 123.125,
            "K": 115.3125,
            "L": 105.5625,
            "A": 97.25,
            "B": 87.625,
            "C": 81.75
        },
        "bus5": {
            "A": 79.17647058823529,
            "B": 71.41176470588235,
            "C": 67.23529411764706,
            "D": 64.25,
            "E": 65.1875,
            "F": 84.3125,
            "G": 112.1875,
            "H": 118.1875,
            "I": 114.75,
            "J": 109.375,
            "K": 101.5,
            "L": 92.625
        },
        "bus0": {
            "B": 80.94117647058823,
            "C": 75.6470588235294,
            "D": 73.29411764705883,
            "E": 72.94117647058823,
            "F": 96,
            "G": 127.9375,
            "H": 135.6875,
            "I": 131.6875,
            "J": 124.1875,
            "K": 116.5625,
            "L": 106.375,
            "A": 95.3125
        }
    },
    "Obs_and_actions_busses": {
        "0": -156.92389991675753,
        "2": 80.85577296127153,
        "3": 194.10236953510244,
        "5": 300.08604960958274
    },
    "Obs_and_actions_tfls": {}
}