{
    "Average_holding_time": 22.227272727272727,
    "Average_holding_actions": [
        716,
        178,
        131,
        0,
        75,
        0
    ],
    "Average_travel_time_passengers": 2808.9341235435995,
    "Average_passenger_waiting_time": 373.72213854869676,
    "Average_passenger_in_vehicle_time": 2435.211984994792,
    "Average_speed_busses": 0.04583333333333333,
    "Average_experienced_crowding": 125.32942657939849,
    "Average_covariation_headway": 0.387615784415372,
    "Average_covariation_headway_stops": {
        "H": 0.4476114419012929,
        "G": 0.40375054810233474,
        "I": 0.4533438629094926,
        "F": 0.3791436075124094,
        "K": 0.40635887439506124,
        "L": 0.3931642185568577,
        "J": 0.424406552273134,
        "A": 0.36422298386080454,
        "B": 0.34955226759240127,
        "C": 0.34735945467662543,
        "D": 0.35368001226865947,
        "E": 0.3778780429015375
    },
    "Average_excess_waiting_time": {
        "H": 117.60702011612125,
        "G": 108.18440299493193,
        "I": 116.80057673885148,
        "F": 104.3866486423745,
        "K": 103.49373636823009,
        "L": 98.25966706957473,
        "J": 110.43175282745989,
        "A": 93.3950934779582,
        "B": 92.79682928504093,
        "C": 94.93755014611577,
        "D": 98.47681662361708,
        "E": 106.10976285015948
    },
    "Holding_per_stop": {
        "H": 16.630434782608695,
        "I": 33.58695652173913,
        "G": 30.65934065934066,
        "L": 20.967741935483872,
        "K": 24.838709677419356,
        "F": 24.065934065934066,
        "J": 30,
        "A": 16.630434782608695,
        "B": 11.41304347826087,
        "C": 14.835164835164836,
        "D": 9.89010989010989,
        "E": 33.333333333333336
    },
    "Actions_tfl_edges": {},
    "Load_per_bus_per_stop": {
        "bus2": {
            "H": 132.375,
            "I": 128.5625,
            "J": 121.75,
            "K": 114.8125,
            "L": 106.4,
            "A": 95,
            "B": 84.93333333333334,
            "C": 78.93333333333334,
            "D": 76.93333333333334,
            "E": 73.86666666666666,
            "F": 98.06666666666666,
            "G": 133.13333333333333
        },
        "bus1": {
            "G": 133.125,
            "H": 139.1875,
            "I": 134.4375,
            "J": 127.6,
            "K": 119.06666666666666,
            "L": 108.93333333333334,
            "A": 98.46666666666667,
            "B": 88.53333333333333,
            "C": 83.6,
            "D": 82,
            "E": 80.6,
            "F": 108.8
        },
        "bus3": {
            "I": 112,
            "J": 106.375,
            "K": 99.6875,
            "L": 92.25,
            "A": 83.5,
            "B": 75.26666666666667,
            "C": 69.8,
            "D": 66.33333333333333,
            "E": 65.93333333333334,
            "F": 86.46666666666667,
            "G": 114.8,
            "H": 122.33333333333333
        },
        "bus0": {
            "F": 105.75,
            "G": 141.2,
            "H": 151.86666666666667,
            "I": 147,
            "J": 139.46666666666667,
            "K": 131.8,
            "L": 122.33333333333333,
            "A": 111.33333333333333,
            "B": 101.2,
            "C": 94.93333333333334,
            "D": 88.66666666666667,
            "E": 86.53333333333333
        },
        "bus4": {
            "K": 92.875,
            "L": 85.5625,
            "A": 78.25,
            "B": 71.5,
            "C": 63.666666666666664,
            "D": 59.86666666666667,
            "E": 60.333333333333336,
            "F": 81.8,
            "G": 110.73333333333333,
            "H": 116.13333333333334,
            "I": 115.13333333333334,
            "J": 107.93333333333334
        },
        "bus5": {
            "L": 134.0625,
            "A": 119.9375,
            "B": 108.625,
            "C": 101.625,
            "D": 97.375,
            "E": 96.06666666666666,
            "F": 128,
            "G": 170.4,
            "H": 178.93333333333334,
            "I": 172.46666666666667,
            "J": 164.2,
            "K": 155
        }
    },
    "Obs_and_actions_busses": {
        "1": -3.429762739889741,
        "2": 84.9497814863784,
        "5": 498.2016927557116,
        "0": -257.1593312562793
    },
    "Obs_and_actions_tfls": {}
}