{
    "Average_holding_time": 43.80350194552529,
    "Average_holding_actions": [
        178,
        382,
        395,
        36,
        37,
        0
    ],
    "Average_travel_time_passengers": 2945.2604988737085,
    "Average_passenger_waiting_time": 347.47611118052436,
    "Average_passenger_in_vehicle_time": 2597.784387693069,
    "Average_speed_busses": 0.042833333333333334,
    "Average_experienced_crowding": 118.19928250143923,
    "Average_covariation_headway": 0.21586889830532935,
    "Average_covariation_headway_stops": {
        "G": 0.13670035817378554,
        "I": 0.12024215568749748,
        "F": 0.10545088706223738,
        "L": 0.08998932001188495,
        "H": 0.09505870718493642,
        "A": 0.09104971150959236,
        "C": 0.08180753093938993,
        "J": 0.10216914649660012,
        "K": 0.06475437670985924,
        "D": 0.08272308177941166,
        "B": 0.05361331188805435,
        "E": 0.09767773834777047
    },
    "Average_excess_waiting_time": {
        "G": 81.16800271103995,
        "I": 78.94312282680625,
        "F": 80.96607379259171,
        "L": 78.58921749617173,
        "H": 79.53869765500463,
        "A": 76.8907393461136,
        "C": 77.43396310518318,
        "J": 79.43915955597214,
        "K": 79.50109938575469,
        "D": 79.85611988199173,
        "B": 77.57838662557054,
        "E": 82.13712279879525
    },
    "Holding_per_stop": {
        "I": 47.093023255813954,
        "G": 45,
        "A": 42.55813953488372,
        "H": 44.30232558139535,
        "C": 51.627906976744185,
        "L": 36.27906976744186,
        "F": 57.529411764705884,
        "J": 55.81395348837209,
        "K": 39.1764705882353,
        "D": 0.7058823529411765,
        "B": 42.55813953488372,
        "E": 62.8235294117647
    },
    "Actions_tfl_edges": {},
    "Load_per_bus_per_stop": {
        "bus2": {
            "G": 132.53333333333333,
            "H": 140.46666666666667,
            "I": 136.86666666666667,
            "J": 129.66666666666666,
            "K": 124.57142857142857,
            "L": 115.5,
            "A": 104.57142857142857,
            "B": 93.71428571428571,
            "C": 87.78571428571429,
            "D": 83.57142857142857,
            "E": 82.57142857142857,
            "F": 107
        },
        "bus3": {
            "I": 137.66666666666666,
            "J": 130.73333333333332,
            "K": 123.8,
            "L": 113.4,
            "A": 103.35714285714286,
            "B": 93.92857142857143,
            "C": 86.85714285714286,
            "D": 82.42857142857143,
            "E": 82.21428571428571,
            "F": 107.14285714285714,
            "G": 141.92857142857142,
            "H": 152.07142857142858
        },
        "bus1": {
            "F": 101.66666666666667,
            "G": 135.73333333333332,
            "H": 146.73333333333332,
            "I": 144.85714285714286,
            "J": 138,
            "K": 128.64285714285714,
            "L": 116.85714285714286,
            "A": 105,
            "B": 93.64285714285714,
            "C": 87.07142857142857,
            "D": 83.85714285714286,
            "E": 82.71428571428571
        },
        "bus4": {
            "L": 114.73333333333333,
            "A": 106,
            "B": 96.13333333333334,
            "C": 88.42857142857143,
            "D": 85,
            "E": 83.5,
            "F": 110.85714285714286,
            "G": 146.92857142857142,
            "H": 154.07142857142858,
            "I": 148.5,
            "J": 142.71428571428572,
            "K": 133.57142857142858
        },
        "bus5": {
            "A": 101.2,
            "B": 91,
            "C": 85.46666666666667,
            "D": 80.8,
            "E": 78.14285714285714,
            "F": 104.35714285714286,
            "G": 141.92857142857142,
            "H": 151.71428571428572,
            "I": 146.42857142857142,
            "J": 139.21428571428572,
            "K": 129.35714285714286,
            "L": 118.57142857142857
        },
        "bus0": {
            "C": 82.66666666666667,
            "D": 80,
            "E": 81.66666666666667,
            "F": 111.4,
            "G": 144.21428571428572,
            "H": 151.21428571428572,
            "I": 145,
            "J": 138.14285714285714,
            "K": 127.85714285714286,
            "L": 116.57142857142857,
            "A": 106.57142857142857,
            "B": 95.21428571428571
        }
    },
    "Obs_and_actions_busses": {
        "1": -80.63631503443355,
        "2": -51.973844317722104,
        "5": 196.04716342081082,
        "0": -283.22222019265905,
        "4": 104.35928970292127
    },
    "Obs_and_actions_tfls": {}
}