{
    "Average_holding_time": 23.897338403041825,
    "Average_holding_actions": [
        768,
        0,
        86,
        0,
        36,
        0
    ],
    "Average_travel_time_passengers": 3084.9009017545495,
    "Average_passenger_waiting_time": 505.90295520428066,
    "Average_passenger_in_vehicle_time": 2578.99794655018,
    "Average_speed_busses": 0.043833333333333335,
    "Average_experienced_crowding": 167.43500205396532,
    "Average_covariation_headway": 0.7141243205482524,
    "Average_covariation_headway_stops": {
        "H": 0.7297385083630525,
        "I": 0.7433500095095906,
        "E": 0.6773177545339101,
        "F": 0.6576109753631713,
        "J": 0.7349520083134894,
        "D": 0.6794943363975398,
        "G": 0.6605649886104618,
        "K": 0.7149925559916397,
        "L": 0.7018889510531425,
        "A": 0.687869827751604,
        "B": 0.6832835078037768,
        "C": 0.6812355364276625
    },
    "Average_excess_waiting_time": {
        "H": 245.2014168308396,
        "I": 248.3732311016966,
        "E": 225.06606264316764,
        "F": 212.90354371429567,
        "J": 242.96382495844654,
        "D": 228.6828484277966,
        "G": 215.9660033595635,
        "K": 235.82412580374665,
        "L": 232.04152864221408,
        "A": 228.43229471356443,
        "B": 229.92283003767955,
        "C": 232.37954392108816
    },
    "Holding_per_stop": {
        "I": 32.02247191011236,
        "H": 27.272727272727273,
        "E": 30.344827586206897,
        "J": 21.235955056179776,
        "F": 27.613636363636363,
        "D": 21.724137931034484,
        "G": 25.17241379310345,
        "K": 17.386363636363637,
        "L": 21.477272727272727,
        "A": 22.84090909090909,
        "B": 21.724137931034484,
        "C": 17.790697674418606
    },
    "Actions_tfl_edges": {},
    "Load_per_bus_per_stop": {
        "bus3": {
            "H": 76.86666666666666,
            "I": 76.2,
            "J": 73.33333333333333,
            "K": 66.86666666666666,
            "L": 60.4,
            "A": 55.46666666666667,
            "B": 49.333333333333336,
            "C": 41.857142857142854,
            "D": 42.5,
            "E": 43.214285714285715,
            "F": 57.92857142857143,
            "G": 76.21428571428571
        },
        "bus4": {
            "I": 77.8,
            "J": 75.06666666666666,
            "K": 68.93333333333334,
            "L": 63.6,
            "A": 59,
            "B": 53.53333333333333,
            "C": 48.13333333333333,
            "D": 44.8,
            "E": 42.07142857142857,
            "F": 59.92857142857143,
            "G": 85.85714285714286,
            "H": 86.85714285714286
        },
        "bus1": {
            "E": 101.86666666666666,
            "F": 135,
            "G": 178.2,
            "H": 191.66666666666666,
            "I": 183.66666666666666,
            "J": 173.8,
            "K": 164.13333333333333,
            "L": 152.21428571428572,
            "A": 139.5,
            "B": 124.28571428571429,
            "C": 116,
            "D": 112.85714285714286
        },
        "bus2": {
            "F": 71,
            "G": 95.93333333333334,
            "H": 103,
            "I": 99.93333333333334,
            "J": 93.46666666666667,
            "K": 85,
            "L": 77.33333333333333,
            "A": 71.33333333333333,
            "B": 61.857142857142854,
            "C": 58.214285714285715,
            "D": 56.642857142857146,
            "E": 57.57142857142857
        },
        "bus5": {
            "J": 177.26666666666668,
            "K": 165.86666666666667,
            "L": 151.2,
            "A": 137.6,
            "B": 125.06666666666666,
            "C": 120.13333333333334,
            "D": 116.6,
            "E": 114,
            "F": 145.46666666666667,
            "G": 192.26666666666668,
            "H": 208.92857142857142,
            "I": 203.21428571428572
        },
        "bus0": {
            "D": 119.66666666666667,
            "E": 116.4,
            "F": 149.66666666666666,
            "G": 196.06666666666666,
            "H": 209.86666666666667,
            "I": 203.2,
            "J": 202,
            "K": 189.07142857142858,
            "L": 172.85714285714286,
            "A": 155.92857142857142,
            "B": 140.14285714285714,
            "C": 130.78571428571428
        }
    },
    "Obs_and_actions_busses": {
        "3": 635.9186510477696,
        "0": -295.65629570005467,
        "2": 96.37358942872065,
        "5": 349.42745256924405
    },
    "Obs_and_actions_tfls": {}
}