{
    "Average_holding_time": 8.369098712446352,
    "Average_holding_actions": [
        904,
        245,
        0,
        0,
        16,
        0
    ],
    "Average_travel_time_passengers": 2585.244038304337,
    "Average_passenger_waiting_time": 306.11185968125255,
    "Average_passenger_in_vehicle_time": 2279.1321786229328,
    "Average_speed_busses": 0.048541666666666664,
    "Average_experienced_crowding": 104.93593057851373,
    "Average_covariation_headway": 0.2410978817681595,
    "Average_covariation_headway_stops": {
        "G": 0.14069343705233198,
        "I": 0.1520963361258333,
        "E": 0.1343810718998127,
        "K": 0.12121349275116045,
        "L": 0.1259829463853579,
        "C": 0.12394242692589452,
        "H": 0.12285345621050447,
        "J": 0.12016426917789046,
        "F": 0.11532409423075474,
        "A": 0.10170022670559993,
        "D": 0.11427095436362776,
        "B": 0.11535063555460497
    },
    "Average_excess_waiting_time": {
        "G": 41.53086975392705,
        "I": 41.66009616667401,
        "E": 41.4810649642593,
        "K": 38.94872902425266,
        "L": 37.554005925030935,
        "C": 40.36270761969536,
        "H": 41.295989634537364,
        "J": 40.636693290114806,
        "F": 41.537944537339285,
        "A": 37.80222758638757,
        "D": 41.41706291360407,
        "B": 40.74077014907493
    },
    "Holding_per_stop": {
        "I": 11.1340206185567,
        "L": 10.408163265306122,
        "K": 14.693877551020408,
        "E": 12.371134020618557,
        "G": 18.8659793814433,
        "C": 3.0927835051546393,
        "H": 0.9278350515463918,
        "J": 12.061855670103093,
        "A": 5.257731958762887,
        "F": 7.5,
        "D": 1.2371134020618557,
        "B": 2.783505154639175
    },
    "Actions_tfl_edges": {},
    "Load_per_bus_per_stop": {
        "bus2": {
            "G": 122.47058823529412,
            "H": 129.88235294117646,
            "I": 127.70588235294117,
            "J": 120,
            "K": 112.4375,
            "L": 101.6875,
            "A": 91.3125,
            "B": 81.9375,
            "C": 76.125,
            "D": 75.9375,
            "E": 75.625,
            "F": 96.4375
        },
        "bus3": {
            "I": 114.94117647058823,
            "J": 110.88235294117646,
            "K": 102.47058823529412,
            "L": 94.5625,
            "A": 86.75,
            "B": 77.6875,
            "C": 71.75,
            "D": 68.625,
            "E": 67.8125,
            "F": 91.125,
            "G": 120.4375,
            "H": 127.3125
        },
        "bus1": {
            "E": 72.05882352941177,
            "F": 95.05882352941177,
            "G": 126.5,
            "H": 134.4375,
            "I": 131.5625,
            "J": 124.1875,
            "K": 116.625,
            "L": 109.9375,
            "A": 99.3125,
            "B": 89.0625,
            "C": 83.125,
            "D": 80.25
        },
        "bus4": {
            "K": 102.11764705882354,
            "L": 94.11764705882354,
            "A": 85.52941176470588,
            "B": 75.5,
            "C": 68.875,
            "D": 66.5,
            "E": 64.6875,
            "F": 86.625,
            "G": 118.125,
            "H": 127.4375,
            "I": 122.8125,
            "J": 116.6875
        },
        "bus5": {
            "L": 103.23529411764706,
            "A": 93.82352941176471,
            "B": 86.23529411764706,
            "C": 80.25,
            "D": 76.5625,
            "E": 74,
            "F": 98.1875,
            "G": 133.4375,
            "H": 141.25,
            "I": 135.8125,
            "J": 131.125,
            "K": 121.375
        },
        "bus0": {
            "C": 76.17647058823529,
            "D": 73.47058823529412,
            "E": 72.625,
            "F": 97.5,
            "G": 130.125,
            "H": 136.125,
            "I": 131.875,
            "J": 126,
            "K": 115.625,
            "L": 106.6875,
            "A": 97.5,
            "B": 86.1875
        }
    },
    "Obs_and_actions_busses": {
        "5": 221.95323137022288,
        "1": 31.714878293432005,
        "0": -189.1053280815236
    },
    "Obs_and_actions_tfls": {}
}