{
    "Average_holding_time": 32.329279700654816,
    "Average_holding_actions": [
        393,
        410,
        188,
        24,
        54,
        0
    ],
    "Average_travel_time_passengers": 2822.5561282044537,
    "Average_passenger_waiting_time": 343.7538938708736,
    "Average_passenger_in_vehicle_time": 2478.802234333501,
    "Average_speed_busses": 0.04454166666666667,
    "Average_experienced_crowding": 114.70111803894766,
    "Average_covariation_headway": 0.2750330716389186,
    "Average_covariation_headway_stops": {
        "I": 0.2765646926797321,
        "K": 0.23840125836870665,
        "L": 0.2180905019667737,
        "A": 0.20208118005745426,
        "B": 0.1876982251663052,
        "C": 0.18052290343874194,
        "J": 0.25228620962635506,
        "D": 0.16256925044284148,
        "E": 0.15535567773255296,
        "F": 0.17736683488401794,
        "G": 0.19652502489387347,
        "H": 0.2431342956353424
    },
    "Average_excess_waiting_time": {
        "I": 90.29300981089443,
        "K": 83.75463209298209,
        "L": 78.8023178875606,
        "A": 74.93421288093339,
        "B": 71.70945195165018,
        "C": 69.5244714967078,
        "J": 88.00541475763742,
        "D": 69.46287727143488,
        "E": 70.26851046517191,
        "F": 74.49159459232385,
        "G": 78.51158449113757,
        "H": 86.98932117980945
    },
    "Holding_per_stop": {
        "L": 35.056179775280896,
        "A": 22.333333333333332,
        "I": 42.13483146067416,
        "B": 6,
        "C": 4,
        "K": 38.42696629213483,
        "D": 10.333333333333334,
        "J": 55.22727272727273,
        "E": 54.60674157303371,
        "F": 39.7752808988764,
        "G": 43.63636363636363,
        "H": 37.84090909090909
    },
    "Actions_tfl_edges": {},
    "Load_per_bus_per_stop": {
        "bus2": {
            "I": 137.2,
            "J": 129.53333333333333,
            "K": 121,
            "L": 111.06666666666666,
            "A": 101.2,
            "B": 90.6,
            "C": 85.86666666666666,
            "D": 82.26666666666667,
            "E": 83.07142857142857,
            "F": 105.5,
            "G": 141.21428571428572,
            "H": 153.07142857142858
        },
        "bus3": {
            "K": 116.66666666666667,
            "L": 108.26666666666667,
            "A": 99.6,
            "B": 89.6,
            "C": 84.06666666666666,
            "D": 79.8,
            "E": 79.86666666666666,
            "F": 107.26666666666667,
            "G": 137.66666666666666,
            "H": 147.28571428571428,
            "I": 142.78571428571428,
            "J": 136.42857142857142
        },
        "bus4": {
            "L": 104.06666666666666,
            "A": 94.06666666666666,
            "B": 84.93333333333334,
            "C": 80,
            "D": 75.13333333333334,
            "E": 75.6,
            "F": 101.86666666666666,
            "G": 135.26666666666668,
            "H": 142.2,
            "I": 138.2,
            "J": 128.64285714285714,
            "K": 120.92857142857143
        },
        "bus5": {
            "A": 87.26666666666667,
            "B": 78,
            "C": 73.86666666666666,
            "D": 71.2,
            "E": 71.2,
            "F": 90.53333333333333,
            "G": 125.33333333333333,
            "H": 134.06666666666666,
            "I": 130.33333333333334,
            "J": 122.6,
            "K": 115.6,
            "L": 104.28571428571429
        },
        "bus0": {
            "B": 77.86666666666666,
            "C": 73.06666666666666,
            "D": 71.06666666666666,
            "E": 70.33333333333333,
            "F": 91.33333333333333,
            "G": 122,
            "H": 131.2,
            "I": 126.6,
            "J": 120.06666666666666,
            "K": 112.26666666666667,
            "L": 102.2,
            "A": 92.73333333333333
        },
        "bus1": {
            "C": 88.86666666666666,
            "D": 85.46666666666667,
            "E": 85,
            "F": 111.4,
            "G": 148.8,
            "H": 159,
            "I": 155.53333333333333,
            "J": 145.26666666666668,
            "K": 134.8,
            "L": 125.06666666666666,
            "A": 112.6,
            "B": 100.2
        }
    },
    "Obs_and_actions_busses": {
        "5": 325.7386457885395,
        "1": -51.3692896095088,
        "0": -303.90972520403085,
        "2": 28.58541717553925,
        "4": 108.46576683915202
    },
    "Obs_and_actions_tfls": {}
}