{
    "Average_holding_time": 8.755364806866952,
    "Average_holding_actions": [
        876,
        257,
        21,
        0,
        4,
        0
    ],
    "Average_travel_time_passengers": 2577.2754975155863,
    "Average_passenger_waiting_time": 307.4151243862272,
    "Average_passenger_in_vehicle_time": 2269.860373129192,
    "Average_speed_busses": 0.048541666666666664,
    "Average_experienced_crowding": 102.71024515102278,
    "Average_covariation_headway": 0.22660611425120045,
    "Average_covariation_headway_stops": {
        "G": 0.1206839077568055,
        "E": 0.09951912594202358,
        "F": 0.09688050308650362,
        "J": 0.09043806690603741,
        "H": 0.09830108947563507,
        "B": 0.11190273795731158,
        "C": 0.09800394494003763,
        "I": 0.08459752528082969,
        "K": 0.06282546058490261,
        "D": 0.07560223172385255,
        "L": 0.058839958180120625,
        "A": 0.09445203545512765
    },
    "Average_excess_waiting_time": {
        "G": 36.80866379589935,
        "E": 38.98558328575871,
        "F": 37.25489924650577,
        "J": 35.6038953467102,
        "H": 36.571325339244595,
        "B": 40.684586068032615,
        "C": 38.94140237909164,
        "I": 36.89385170385151,
        "K": 35.92671125468269,
        "D": 39.51584220462894,
        "L": 37.14552464994631,
        "A": 40.74370060449388
    },
    "Holding_per_stop": {
        "G": 17.142857142857142,
        "J": 16.53061224489796,
        "H": 1.530612244897959,
        "F": 10.824742268041238,
        "C": 1.8556701030927836,
        "E": 13.29896907216495,
        "I": 12.989690721649485,
        "B": 1.8556701030927836,
        "K": 13.608247422680412,
        "D": 0.9375,
        "L": 10.824742268041238,
        "A": 3.4375
    },
    "Actions_tfl_edges": {},
    "Load_per_bus_per_stop": {
        "bus4": {
            "G": 110.3529411764706,
            "H": 115.52941176470588,
            "I": 113.88235294117646,
            "J": 108.52941176470588,
            "K": 102.3529411764706,
            "L": 94.125,
            "A": 87.1875,
            "B": 78.0625,
            "C": 72.75,
            "D": 68.875,
            "E": 65.625,
            "F": 84.8125
        },
        "bus2": {
            "E": 68.41176470588235,
            "F": 90.11764705882354,
            "G": 120.1875,
            "H": 129.1875,
            "I": 125.875,
            "J": 121.5,
            "K": 113.375,
            "L": 102.25,
            "A": 92.1875,
            "B": 83.625,
            "C": 77.0625,
            "D": 73.75
        },
        "bus3": {
            "F": 90.11764705882354,
            "G": 119.88235294117646,
            "H": 127.6470588235294,
            "I": 121.6875,
            "J": 117.125,
            "K": 109.625,
            "L": 98.375,
            "A": 89.875,
            "B": 79.4375,
            "C": 76.4375,
            "D": 73.6875,
            "E": 73.25
        },
        "bus5": {
            "J": 116.6470588235294,
            "K": 109.05882352941177,
            "L": 99.76470588235294,
            "A": 90.0625,
            "B": 80.375,
            "C": 74.4375,
            "D": 72.75,
            "E": 72.375,
            "F": 94.5625,
            "G": 127.875,
            "H": 136.625,
            "I": 132
        },
        "bus0": {
            "B": 81.29411764705883,
            "C": 75.25,
            "D": 71.0625,
            "E": 72.1875,
            "F": 93.8125,
            "G": 124.8125,
            "H": 135,
            "I": 130.9375,
            "J": 124.1875,
            "K": 117.25,
            "L": 106.6875,
            "A": 96.4375
        },
        "bus1": {
            "C": 77.3529411764706,
            "D": 75.3529411764706,
            "E": 75.375,
            "F": 100.75,
            "G": 129.1875,
            "H": 135.625,
            "I": 131.1875,
            "J": 124.4375,
            "K": 116.125,
            "L": 106.1875,
            "A": 97,
            "B": 87.875
        }
    },
    "Obs_and_actions_busses": {
        "0": -188.36530571479526,
        "1": 15.830968985475215,
        "5": 389.2094392636761,
        "2": 94.62907094617945,
        "3": 174.1811104139052
    },
    "Obs_and_actions_tfls": {}
}