{
    "Average_holding_time": 42.22652468538238,
    "Average_holding_actions": [
        206,
        431,
        314,
        15,
        67,
        0
    ],
    "Average_travel_time_passengers": 2944.0185790230516,
    "Average_passenger_waiting_time": 347.6800812946785,
    "Average_passenger_in_vehicle_time": 2596.338497728245,
    "Average_speed_busses": 0.043041666666666666,
    "Average_experienced_crowding": 118.62009106673965,
    "Average_covariation_headway": 0.22336058570705578,
    "Average_covariation_headway_stops": {
        "G": 0.15450505192558536,
        "E": 0.12995451036908762,
        "F": 0.12350247314432201,
        "K": 0.10065099144240507,
        "H": 0.1136199067674865,
        "A": 0.09192824002224644,
        "B": 0.0806132421126285,
        "I": 0.09773010916011234,
        "L": 0.06665828843775226,
        "J": 0.08917776402902364,
        "C": 0.060335660237421734,
        "D": 0.09375783784709063
    },
    "Average_excess_waiting_time": {
        "G": 79.24733078301728,
        "E": 81.4925648832239,
        "F": 78.86614864920722,
        "K": 77.91244400999716,
        "H": 77.2300190791043,
        "A": 77.44978722606862,
        "B": 75.30939616848411,
        "I": 77.66160996020358,
        "L": 77.8083650055097,
        "J": 78.92607013407633,
        "C": 76.82067029698862,
        "D": 81.14172119255568
    },
    "Holding_per_stop": {
        "G": 35.172413793103445,
        "H": 38.62068965517241,
        "F": 73.6046511627907,
        "B": 36.97674418604651,
        "E": 61.74418604651163,
        "K": 38.372093023255815,
        "A": 33.13953488372093,
        "I": 44.30232558139535,
        "L": 31.046511627906977,
        "J": 61.04651162790697,
        "C": 51.97674418604651,
        "D": 0.35294117647058826
    },
    "Actions_tfl_edges": {},
    "Load_per_bus_per_stop": {
        "bus3": {
            "G": 137.4,
            "H": 150.13333333333333,
            "I": 146,
            "J": 140.06666666666666,
            "K": 128.46666666666667,
            "L": 116.6,
            "A": 107.57142857142857,
            "B": 99.21428571428571,
            "C": 90.78571428571429,
            "D": 86.35714285714286,
            "E": 83.21428571428571,
            "F": 106.71428571428571
        },
        "bus1": {
            "E": 76.66666666666667,
            "F": 97.73333333333333,
            "G": 134,
            "H": 144.86666666666667,
            "I": 140.21428571428572,
            "J": 135.85714285714286,
            "K": 128.14285714285714,
            "L": 118.14285714285714,
            "A": 106.14285714285714,
            "B": 94.21428571428571,
            "C": 86.5,
            "D": 84.07142857142857
        },
        "bus2": {
            "F": 104.2,
            "G": 140.46666666666667,
            "H": 147.2,
            "I": 143.66666666666666,
            "J": 137.8,
            "K": 130.21428571428572,
            "L": 118.14285714285714,
            "A": 106.42857142857143,
            "B": 96.21428571428571,
            "C": 88.57142857142857,
            "D": 86.28571428571429,
            "E": 84.92857142857143
        },
        "bus4": {
            "K": 121.2,
            "L": 111.46666666666667,
            "A": 102.6,
            "B": 93,
            "C": 86.71428571428571,
            "D": 81.85714285714286,
            "E": 79.5,
            "F": 104.35714285714286,
            "G": 138.78571428571428,
            "H": 150,
            "I": 147.57142857142858,
            "J": 139.57142857142858
        },
        "bus5": {
            "A": 96,
            "B": 86.53333333333333,
            "C": 80.8,
            "D": 78.21428571428571,
            "E": 77.78571428571429,
            "F": 100.57142857142857,
            "G": 134.5,
            "H": 144.57142857142858,
            "I": 141.5,
            "J": 132.42857142857142,
            "K": 122.21428571428571,
            "L": 112.71428571428571
        },
        "bus0": {
            "B": 91.46666666666667,
            "C": 86.6,
            "D": 85.6,
            "E": 84.93333333333334,
            "F": 110.71428571428571,
            "G": 151.85714285714286,
            "H": 159.14285714285714,
            "I": 153.21428571428572,
            "J": 145.57142857142858,
            "K": 133.92857142857142,
            "L": 121.21428571428571,
            "A": 110.71428571428571
        }
    },
    "Obs_and_actions_busses": {
        "0": -299.935496075551,
        "1": -63.534749711943455,
        "2": -64.55509109686527,
        "5": 181.44904640595038,
        "4": 103.42655408674845
    },
    "Obs_and_actions_tfls": {}
}