{
    "Average_holding_time": 34.37441204139228,
    "Average_holding_actions": [
        355,
        401,
        231,
        25,
        51,
        0
    ],
    "Average_travel_time_passengers": 2851.5693914023414,
    "Average_passenger_waiting_time": 340.1318829545892,
    "Average_passenger_in_vehicle_time": 2511.437508447673,
    "Average_speed_busses": 0.04429166666666667,
    "Average_experienced_crowding": 115.60223492710283,
    "Average_covariation_headway": 0.25310255501888734,
    "Average_covariation_headway_stops": {
        "H": 0.19894127529149638,
        "G": 0.18644799500470535,
        "I": 0.2005156164615151,
        "E": 0.19356767722554072,
        "F": 0.18338570437826937,
        "C": 0.19892358313000322,
        "J": 0.1698168021656212,
        "K": 0.14284133907530608,
        "D": 0.1815329210512612,
        "L": 0.13554578686005017,
        "A": 0.15006274894786575,
        "B": 0.18821418552022473
    },
    "Average_excess_waiting_time": {
        "H": 74.45632051989878,
        "G": 75.3953609688283,
        "I": 72.78590130092522,
        "E": 80.14602100117224,
        "F": 76.56410243209871,
        "C": 80.75586064600179,
        "J": 70.91679464453392,
        "K": 70.1265155667162,
        "D": 80.5637841469374,
        "L": 71.23908463839018,
        "A": 74.21957304964525,
        "B": 81.07846399987494
    },
    "Holding_per_stop": {
        "I": 38,
        "H": 48.20224719101124,
        "G": 47.52808988764045,
        "F": 33.06818181818182,
        "E": 73.63636363636364,
        "J": 59,
        "C": 6.818181818181818,
        "K": 35.056179775280896,
        "L": 34.38202247191011,
        "D": 5.517241379310345,
        "A": 24.886363636363637,
        "B": 5.113636363636363
    },
    "Actions_tfl_edges": {},
    "Load_per_bus_per_stop": {
        "bus4": {
            "H": 136.93333333333334,
            "I": 130.66666666666666,
            "J": 125.2,
            "K": 116.86666666666666,
            "L": 106.13333333333334,
            "A": 95.4,
            "B": 87.53333333333333,
            "C": 82.2,
            "D": 77.53333333333333,
            "E": 76.06666666666666,
            "F": 99.73333333333333,
            "G": 135.57142857142858
        },
        "bus3": {
            "G": 125.4,
            "H": 133.73333333333332,
            "I": 129.66666666666666,
            "J": 121.4,
            "K": 114,
            "L": 106.6,
            "A": 96.06666666666666,
            "B": 87,
            "C": 81.46666666666667,
            "D": 78.86666666666666,
            "E": 76.5,
            "F": 98.78571428571429
        },
        "bus5": {
            "I": 138,
            "J": 131.8,
            "K": 121.93333333333334,
            "L": 112.6,
            "A": 100.73333333333333,
            "B": 92.33333333333333,
            "C": 86.26666666666667,
            "D": 84.66666666666667,
            "E": 83.8,
            "F": 110,
            "G": 146.26666666666668,
            "H": 154.4
        },
        "bus1": {
            "E": 77.26666666666667,
            "F": 101.06666666666666,
            "G": 134,
            "H": 139.6,
            "I": 133.2,
            "J": 126.2,
            "K": 117.73333333333333,
            "L": 110.13333333333334,
            "A": 99.64285714285714,
            "B": 90.5,
            "C": 86.07142857142857,
            "D": 84.42857142857143
        },
        "bus2": {
            "F": 98.13333333333334,
            "G": 134.26666666666668,
            "H": 145.2,
            "I": 142.13333333333333,
            "J": 135.4,
            "K": 126,
            "L": 114.53333333333333,
            "A": 102.33333333333333,
            "B": 92.6,
            "C": 84.14285714285714,
            "D": 80.71428571428571,
            "E": 79.07142857142857
        },
        "bus0": {
            "C": 86.53333333333333,
            "D": 84.86666666666666,
            "E": 83.13333333333334,
            "F": 108.8,
            "G": 145.93333333333334,
            "H": 153.8,
            "I": 151,
            "J": 143.86666666666667,
            "K": 131.07142857142858,
            "L": 119.64285714285714,
            "A": 108.21428571428571,
            "B": 96.92857142857143
        }
    },
    "Obs_and_actions_busses": {
        "2": 34.183125437856276,
        "1": -64.67731942747227,
        "0": -293.12957091610883,
        "5": 242.13154740934814,
        "4": 106.18584670407553
    },
    "Obs_and_actions_tfls": {}
}