{
    "Average_holding_time": 8.116438356164384,
    "Average_holding_actions": [
        908,
        246,
        0,
        0,
        14,
        0
    ],
    "Average_travel_time_passengers": 2566.6930589147996,
    "Average_passenger_waiting_time": 306.3798180676045,
    "Average_passenger_in_vehicle_time": 2260.3132408470465,
    "Average_speed_busses": 0.048666666666666664,
    "Average_experienced_crowding": 102.93843527987143,
    "Average_covariation_headway": 0.23615605942409595,
    "Average_covariation_headway_stops": {
        "H": 0.14302675508168158,
        "E": 0.10908064293104551,
        "K": 0.11134646160525928,
        "L": 0.10606684742563752,
        "A": 0.10028412470926551,
        "C": 0.09145302905523191,
        "I": 0.11448634324767712,
        "F": 0.08784681428805954,
        "B": 0.08012864540961567,
        "D": 0.08528494623194484,
        "G": 0.09767549570494456,
        "J": 0.09948770513898837
    },
    "Average_excess_waiting_time": {
        "H": 40.8339067658398,
        "E": 37.008630613657374,
        "K": 39.39441708782607,
        "L": 37.45792025318195,
        "A": 35.602944580832286,
        "C": 35.93731603524532,
        "I": 40.09019079085709,
        "F": 37.785523840748965,
        "B": 36.58868649724019,
        "D": 37.2978350947256,
        "G": 39.55665816459475,
        "J": 40.67534989023744
    },
    "Holding_per_stop": {
        "E": 11.326530612244898,
        "H": 4.948453608247423,
        "L": 10.408163265306122,
        "A": 5.816326530612245,
        "C": 0.30612244897959184,
        "K": 15.154639175257731,
        "I": 12.061855670103093,
        "F": 12.68041237113402,
        "B": 0.6185567010309279,
        "D": 0.30927835051546393,
        "J": 11.1340206185567,
        "G": 12.68041237113402
    },
    "Actions_tfl_edges": {},
    "Load_per_bus_per_stop": {
        "bus2": {
            "H": 128.8235294117647,
            "I": 122.94117647058823,
            "J": 115.76470588235294,
            "K": 106.6875,
            "L": 99.3125,
            "A": 92.125,
            "B": 82.3125,
            "C": 76.5,
            "D": 74.5625,
            "E": 72.25,
            "F": 95,
            "G": 127.8125
        },
        "bus1": {
            "E": 70.05882352941177,
            "F": 91.70588235294117,
            "G": 123.23529411764706,
            "H": 131,
            "I": 127.9375,
            "J": 122.6875,
            "K": 114.25,
            "L": 103.5,
            "A": 93,
            "B": 82.3125,
            "C": 78.25,
            "D": 75.6875
        },
        "bus3": {
            "K": 98.88235294117646,
            "L": 91.88235294117646,
            "A": 81.125,
            "B": 73.875,
            "C": 69.6875,
            "D": 67.875,
            "E": 66,
            "F": 85.9375,
            "G": 113.5,
            "H": 122.0625,
            "I": 120.375,
            "J": 114.9375
        },
        "bus4": {
            "L": 89.41176470588235,
            "A": 81.52941176470588,
            "B": 74.05882352941177,
            "C": 69.25,
            "D": 67.25,
            "E": 65.25,
            "F": 83.6875,
            "G": 115.3125,
            "H": 124.3125,
            "I": 119.25,
            "J": 113.75,
            "K": 104.8125
        },
        "bus5": {
            "A": 96,
            "B": 87.6470588235294,
            "C": 82.41176470588235,
            "D": 75.5625,
            "E": 74,
            "F": 98.3125,
            "G": 130.5,
            "H": 142.4375,
            "I": 135.5625,
            "J": 128.5,
            "K": 120.1875,
            "L": 112.4375
        },
        "bus0": {
            "C": 75.17647058823529,
            "D": 71.41176470588235,
            "E": 70.58823529411765,
            "F": 92.375,
            "G": 125,
            "H": 134.5625,
            "I": 130.3125,
            "J": 123.25,
            "K": 115.1875,
            "L": 104.875,
            "A": 95.5625,
            "B": 85.0625
        }
    },
    "Obs_and_actions_busses": {
        "5": 221.83618338909585,
        "1": 36.43957825814337,
        "0": -183.67577115161146
    },
    "Obs_and_actions_tfls": {}
}