{
    "Average_holding_time": 17.55120213713268,
    "Average_holding_actions": [
        779,
        178,
        117,
        0,
        49,
        0
    ],
    "Average_travel_time_passengers": 2714.144565726704,
    "Average_passenger_waiting_time": 341.76159114323565,
    "Average_passenger_in_vehicle_time": 2372.3829745833523,
    "Average_speed_busses": 0.04679166666666667,
    "Average_experienced_crowding": 114.99094390490862,
    "Average_covariation_headway": 0.31443336438096325,
    "Average_covariation_headway_stops": {
        "H": 0.3393769141134267,
        "G": 0.2948369959992803,
        "I": 0.3498707664321677,
        "L": 0.2751020021949024,
        "A": 0.25068109540513334,
        "B": 0.24045467361739564,
        "J": 0.3182313918971376,
        "K": 0.2836694768323252,
        "C": 0.22128783654635026,
        "D": 0.2245327557967848,
        "E": 0.23897488895719463,
        "F": 0.26050276591998195
    },
    "Average_excess_waiting_time": {
        "H": 83.51773393458092,
        "G": 76.96598417585415,
        "I": 83.59657478619505,
        "L": 70.55109794221596,
        "A": 65.07584808621999,
        "B": 62.20569884263949,
        "J": 78.62653230370108,
        "K": 74.11546553069002,
        "C": 61.72197033074366,
        "D": 64.24777905693787,
        "E": 68.01714269017538,
        "F": 73.31198767810776
    },
    "Holding_per_stop": {
        "H": 13.404255319148936,
        "I": 26.80851063829787,
        "G": 24.516129032258064,
        "A": 8.297872340425531,
        "B": 6.631578947368421,
        "L": 22.659574468085108,
        "J": 26.48936170212766,
        "K": 15.806451612903226,
        "C": 7.9787234042553195,
        "D": 8.064516129032258,
        "E": 31.29032258064516,
        "F": 18.91304347826087
    },
    "Actions_tfl_edges": {},
    "Load_per_bus_per_stop": {
        "bus2": {
            "H": 135.625,
            "I": 132.1875,
            "J": 125.375,
            "K": 116.1875,
            "L": 105.1875,
            "A": 96.5625,
            "B": 86.1875,
            "C": 81,
            "D": 79.06666666666666,
            "E": 77.53333333333333,
            "F": 100.46666666666667,
            "G": 137.13333333333333
        },
        "bus1": {
            "G": 136.0625,
            "H": 143.6875,
            "I": 140.25,
            "J": 133.75,
            "K": 124.5625,
            "L": 114.25,
            "A": 104.53333333333333,
            "B": 93.66666666666667,
            "C": 88.2,
            "D": 85.13333333333334,
            "E": 82.2,
            "F": 108.66666666666667
        },
        "bus3": {
            "I": 127.6875,
            "J": 120.8125,
            "K": 113.875,
            "L": 103.1875,
            "A": 93.0625,
            "B": 84.0625,
            "C": 77.25,
            "D": 77.73333333333333,
            "E": 74.26666666666667,
            "F": 96.06666666666666,
            "G": 129.6,
            "H": 139.86666666666667
        },
        "bus4": {
            "L": 95.9375,
            "A": 86.6875,
            "B": 79.4375,
            "C": 73.25,
            "D": 71.5,
            "E": 70.0625,
            "F": 93.26666666666667,
            "G": 125.6,
            "H": 133.6,
            "I": 129.53333333333333,
            "J": 121.93333333333334,
            "K": 113.53333333333333
        },
        "bus5": {
            "A": 81.5625,
            "B": 73.5,
            "C": 69.4375,
            "D": 66.1875,
            "E": 64.625,
            "F": 86.5625,
            "G": 114.625,
            "H": 120.5,
            "I": 115.86666666666666,
            "J": 110.46666666666667,
            "K": 101.93333333333334,
            "L": 94.66666666666667
        },
        "bus0": {
            "B": 95.6875,
            "C": 89.1875,
            "D": 88.4375,
            "E": 87.25,
            "F": 110.625,
            "G": 149.5625,
            "H": 159.1875,
            "I": 154.4375,
            "J": 146.5625,
            "K": 138.6,
            "L": 126.66666666666667,
            "A": 114.13333333333334
        }
    },
    "Obs_and_actions_busses": {
        "1": -3.735797543348284,
        "2": 77.16853286429014,
        "5": 459.31556160805167,
        "0": -222.14951839822342
    },
    "Obs_and_actions_tfls": {}
}