{
    "Average_holding_time": 41.56521739130435,
    "Average_holding_actions": [
        203,
        404,
        361,
        27,
        40,
        0
    ],
    "Average_travel_time_passengers": 2913.9601161930577,
    "Average_passenger_waiting_time": 349.0827867171466,
    "Average_passenger_in_vehicle_time": 2564.877329475819,
    "Average_speed_busses": 0.043125,
    "Average_experienced_crowding": 118.62543359768407,
    "Average_covariation_headway": 0.23926536981828844,
    "Average_covariation_headway_stops": {
        "H": 0.18108005746371902,
        "G": 0.1687510298893971,
        "I": 0.1838575224989251,
        "E": 0.17656664243238512,
        "J": 0.1785936851548706,
        "A": 0.1360399389212964,
        "K": 0.14570984601049664,
        "F": 0.13949886860400454,
        "B": 0.10374780026292205,
        "L": 0.1327424735320665,
        "C": 0.11590304697184996,
        "D": 0.1516641215453192
    },
    "Average_excess_waiting_time": {
        "H": 84.73145501592518,
        "G": 85.83770753031962,
        "I": 82.49668263107412,
        "E": 87.12986615670917,
        "J": 79.84966800669633,
        "A": 77.46625383160193,
        "K": 78.35932865475343,
        "F": 85.10760221187223,
        "B": 77.54704871703512,
        "L": 78.92620125902977,
        "C": 80.99700175862415,
        "D": 86.71665860758094
    },
    "Holding_per_stop": {
        "H": 38.72093023255814,
        "I": 47.93103448275862,
        "J": 57.241379310344826,
        "G": 43.95348837209303,
        "A": 38.275862068965516,
        "E": 62.7906976744186,
        "K": 37.58620689655172,
        "B": 32.44186046511628,
        "L": 36.89655172413793,
        "F": 47.294117647058826,
        "C": 51.627906976744185,
        "D": 3.5294117647058822
    },
    "Actions_tfl_edges": {},
    "Load_per_bus_per_stop": {
        "bus2": {
            "H": 137.4,
            "I": 130.93333333333334,
            "J": 125.93333333333334,
            "K": 116.33333333333333,
            "L": 107.73333333333333,
            "A": 97.42857142857143,
            "B": 86.07142857142857,
            "C": 82.71428571428571,
            "D": 79.85714285714286,
            "E": 80.92857142857143,
            "F": 106.07142857142857,
            "G": 139.5
        },
        "bus1": {
            "G": 138.93333333333334,
            "H": 148.2,
            "I": 143.8,
            "J": 133.86666666666667,
            "K": 123.28571428571429,
            "L": 113.35714285714286,
            "A": 102.71428571428571,
            "B": 93.64285714285714,
            "C": 86.71428571428571,
            "D": 82.71428571428571,
            "E": 82.92857142857143,
            "F": 112.35714285714286
        },
        "bus3": {
            "I": 134.06666666666666,
            "J": 127.06666666666666,
            "K": 117.6,
            "L": 108.2,
            "A": 99.73333333333333,
            "B": 87.57142857142857,
            "C": 81.35714285714286,
            "D": 79.14285714285714,
            "E": 80.14285714285714,
            "F": 106.78571428571429,
            "G": 138.07142857142858,
            "H": 147.42857142857142
        },
        "bus0": {
            "E": 83.66666666666667,
            "F": 110.73333333333333,
            "G": 145.26666666666668,
            "H": 153.07142857142858,
            "I": 149.92857142857142,
            "J": 139.78571428571428,
            "K": 129.42857142857142,
            "L": 119.78571428571429,
            "A": 108.64285714285714,
            "B": 96.21428571428571,
            "C": 89.71428571428571,
            "D": 88.07142857142857
        },
        "bus4": {
            "J": 128.73333333333332,
            "K": 120.26666666666667,
            "L": 110,
            "A": 98.8,
            "B": 88.46666666666667,
            "C": 84.6,
            "D": 82,
            "E": 82.07142857142857,
            "F": 106.64285714285714,
            "G": 140.42857142857142,
            "H": 151.14285714285714,
            "I": 145.28571428571428
        },
        "bus5": {
            "A": 104.93333333333334,
            "B": 95.06666666666666,
            "C": 89,
            "D": 86.73333333333333,
            "E": 86.06666666666666,
            "F": 111.28571428571429,
            "G": 151.14285714285714,
            "H": 160.78571428571428,
            "I": 156.21428571428572,
            "J": 147.92857142857142,
            "K": 137.71428571428572,
            "L": 124.07142857142857
        }
    },
    "Obs_and_actions_busses": {
        "2": -35.034040644673716,
        "4": 105.29165986379368,
        "5": 249.84611360881763,
        "1": -74.08919615720639,
        "0": -312.02143273735277
    },
    "Obs_and_actions_tfls": {}
}