{
    "Average_holding_time": 46.72906403940887,
    "Average_holding_actions": [
        189,
        398,
        315,
        12,
        101,
        0
    ],
    "Average_travel_time_passengers": 2996.702481870191,
    "Average_passenger_waiting_time": 387.5308956996109,
    "Average_passenger_in_vehicle_time": 2609.1715861704683,
    "Average_speed_busses": 0.042291666666666665,
    "Average_experienced_crowding": 127.18238997869568,
    "Average_covariation_headway": 0.34809130351267054,
    "Average_covariation_headway_stops": {
        "H": 0.3754806947620358,
        "J": 0.3568303032777594,
        "K": 0.3387672690410734,
        "L": 0.3243677183950347,
        "A": 0.30907269549552313,
        "B": 0.29636487107198495,
        "I": 0.37011870126274665,
        "C": 0.28152775508539524,
        "D": 0.2758542253035236,
        "E": 0.277716133455302,
        "F": 0.28124328943683363,
        "G": 0.3182874840026226
    },
    "Average_excess_waiting_time": {
        "H": 132.46289710878955,
        "J": 127.67356043370154,
        "K": 120.68086896499625,
        "L": 115.13777794617494,
        "A": 109.81150244841871,
        "B": 105.3941996751758,
        "I": 132.86734393845364,
        "C": 104.89653757902278,
        "D": 106.3804313544992,
        "E": 108.80695471563604,
        "F": 111.70906387261226,
        "G": 121.05673022915852
    },
    "Holding_per_stop": {
        "H": 43.57142857142857,
        "L": 40.94117647058823,
        "A": 35.58139534883721,
        "K": 44.8235294117647,
        "B": 38.02325581395349,
        "J": 70,
        "I": 52.5,
        "C": 56.470588235294116,
        "D": 13.411764705882353,
        "E": 61.42857142857143,
        "F": 58.57142857142857,
        "G": 46.265060240963855
    },
    "Actions_tfl_edges": {},
    "Load_per_bus_per_stop": {
        "bus1": {
            "H": 149.71428571428572,
            "I": 147.35714285714286,
            "J": 139.42857142857142,
            "K": 131.28571428571428,
            "L": 121.71428571428571,
            "A": 110.78571428571429,
            "B": 98.42857142857143,
            "C": 91.5,
            "D": 87.78571428571429,
            "E": 86.92857142857143,
            "F": 113.21428571428571,
            "G": 151.5
        },
        "bus2": {
            "J": 128.07142857142858,
            "K": 120.57142857142857,
            "L": 108.14285714285714,
            "A": 97.5,
            "B": 89.35714285714286,
            "C": 84.5,
            "D": 82.92857142857143,
            "E": 81.92857142857143,
            "F": 106.5,
            "G": 140.57142857142858,
            "H": 149.64285714285714,
            "I": 145.57142857142858
        },
        "bus3": {
            "K": 119.46666666666667,
            "L": 108.57142857142857,
            "A": 98.64285714285714,
            "B": 90.35714285714286,
            "C": 84.92857142857143,
            "D": 81.92857142857143,
            "E": 80.5,
            "F": 103.71428571428571,
            "G": 139.85714285714286,
            "H": 146.92857142857142,
            "I": 144.42857142857142,
            "J": 136.07142857142858
        },
        "bus4": {
            "L": 102.53333333333333,
            "A": 94.13333333333334,
            "B": 83.64285714285714,
            "C": 78.21428571428571,
            "D": 77.5,
            "E": 75.5,
            "F": 99.5,
            "G": 131.92857142857142,
            "H": 142,
            "I": 136.35714285714286,
            "J": 129.71428571428572,
            "K": 121
        },
        "bus5": {
            "A": 86.2,
            "B": 78,
            "C": 71.21428571428571,
            "D": 69.28571428571429,
            "E": 68.64285714285714,
            "F": 89.64285714285714,
            "G": 118.78571428571429,
            "H": 129.42857142857142,
            "I": 127.71428571428571,
            "J": 120.28571428571429,
            "K": 110.57142857142857,
            "L": 100.57142857142857
        },
        "bus0": {
            "B": 115.33333333333333,
            "C": 107.46666666666667,
            "D": 102.93333333333334,
            "E": 101.71428571428571,
            "F": 135.28571428571428,
            "G": 176.71428571428572,
            "H": 186.57142857142858,
            "I": 181.35714285714286,
            "J": 173.21428571428572,
            "K": 162.78571428571428,
            "L": 149.21428571428572,
            "A": 136.35714285714286
        }
    },
    "Obs_and_actions_busses": {
        "5": 371.5314139640626,
        "1": -63.59018570438534,
        "2": -43.29752897592603,
        "0": -472.87914163381987,
        "4": 101.82938724401075
    },
    "Obs_and_actions_tfls": {}
}