{
    "Average_holding_time": 33.648648648648646,
    "Average_holding_actions": [
        485,
        204,
        83,
        0,
        0,
        0
    ],
    "Average_travel_time_passengers": 3033.448341582547,
    "Average_passenger_waiting_time": 434.56563292233636,
    "Average_passenger_in_vehicle_time": 2598.882708660174,
    "Average_speed_busses": 0.043166666666666666,
    "Average_experienced_crowding": 145.93027658673722,
    "Average_covariation_headway": 0.5592513227448254,
    "Average_covariation_headway_stops": {
        "I": 0.5475457614088995,
        "E": 0.5050706557816766,
        "K": 0.5314745114319629,
        "L": 0.5222398831630757,
        "D": 0.5041696045025007,
        "A": 0.5175351197030236,
        "J": 0.5334989533181609,
        "F": 0.48559095734453667,
        "B": 0.5029977116830527,
        "G": 0.4845519743905764,
        "H": 0.5280198937300559,
        "C": 0.5020888800577886
    },
    "Average_excess_waiting_time": {
        "I": 176.97106387938135,
        "E": 158.32956987591763,
        "K": 171.05160036195497,
        "L": 164.9393161562092,
        "D": 160.81906867149524,
        "A": 161.38788721769765,
        "J": 174.57459323167114,
        "F": 153.78996724965276,
        "B": 159.21577965711919,
        "G": 155.95330153064094,
        "H": 172.84119532868908,
        "C": 162.1887489032796
    },
    "Holding_per_stop": {
        "I": 43.604651162790695,
        "L": 37.241379310344826,
        "E": 31.724137931034484,
        "K": 36.627906976744185,
        "A": 27.93103448275862,
        "D": 31.3953488372093,
        "F": 34.883720930232556,
        "J": 36.627906976744185,
        "B": 23.448275862068964,
        "G": 39.06976744186046,
        "H": 34.53488372093023,
        "C": 26.86046511627907
    },
    "Actions_tfl_edges": {},
    "Load_per_bus_per_stop": {
        "bus2": {
            "I": 144.66666666666666,
            "J": 139.2,
            "K": 129.53333333333333,
            "L": 119.33333333333333,
            "A": 108.71428571428571,
            "B": 100.42857142857143,
            "C": 93.57142857142857,
            "D": 92.28571428571429,
            "E": 90.28571428571429,
            "F": 113.64285714285714,
            "G": 147.57142857142858,
            "H": 159.57142857142858
        },
        "bus1": {
            "E": 98.26666666666667,
            "F": 124.93333333333334,
            "G": 168.33333333333334,
            "H": 179.66666666666666,
            "I": 174.53333333333333,
            "J": 166.6,
            "K": 157.14285714285714,
            "L": 145.5,
            "A": 134.07142857142858,
            "B": 122.28571428571429,
            "C": 115.78571428571429,
            "D": 109.57142857142857
        },
        "bus3": {
            "K": 53.666666666666664,
            "L": 49.4,
            "A": 45.666666666666664,
            "B": 41.266666666666666,
            "C": 36.5,
            "D": 35.5,
            "E": 37.642857142857146,
            "F": 47.142857142857146,
            "G": 62.07142857142857,
            "H": 66.07142857142857,
            "I": 64.71428571428571,
            "J": 61.714285714285715
        },
        "bus4": {
            "L": 49.93333333333333,
            "A": 44.266666666666666,
            "B": 39.2,
            "C": 35.333333333333336,
            "D": 31.142857142857142,
            "E": 31.142857142857142,
            "F": 44.42857142857143,
            "G": 66.28571428571429,
            "H": 71.5,
            "I": 67.92857142857143,
            "J": 63.357142857142854,
            "K": 58.857142857142854
        },
        "bus0": {
            "D": 106.4,
            "E": 104.06666666666666,
            "F": 137.06666666666666,
            "G": 183.6,
            "H": 193.73333333333332,
            "I": 189.85714285714286,
            "J": 178.64285714285714,
            "K": 166.21428571428572,
            "L": 153.28571428571428,
            "A": 139.5,
            "B": 127.35714285714286,
            "C": 118.64285714285714
        },
        "bus5": {
            "A": 139.86666666666667,
            "B": 126.46666666666667,
            "C": 117.86666666666666,
            "D": 116.33333333333333,
            "E": 113.53333333333333,
            "F": 150.06666666666666,
            "G": 203.35714285714286,
            "H": 214.92857142857142,
            "I": 207.92857142857142,
            "J": 197.71428571428572,
            "K": 182.14285714285714,
            "L": 164.57142857142858
        }
    },
    "Obs_and_actions_busses": {
        "3": 336.03236760230556,
        "1": -458.8655600057571,
        "0": -195.46315248252043,
        "2": 37.81696290831988
    },
    "Obs_and_actions_tfls": {}
}