{
    "Average_holding_time": 12.020905923344948,
    "Average_holding_actions": [
        891,
        126,
        107,
        0,
        24,
        0
    ],
    "Average_travel_time_passengers": 2592.54820212906,
    "Average_passenger_waiting_time": 310.5250124965047,
    "Average_passenger_in_vehicle_time": 2282.023189632409,
    "Average_speed_busses": 0.04783333333333333,
    "Average_experienced_crowding": 105.47785265700132,
    "Average_covariation_headway": 0.23161738139263485,
    "Average_covariation_headway_stops": {
        "G": 0.12885390307913494,
        "E": 0.1277734080462452,
        "J": 0.1090616396801149,
        "K": 0.1067840757986625,
        "D": 0.12108081632338383,
        "A": 0.08741127896882186,
        "H": 0.10405761911823348,
        "I": 0.09761376535575936,
        "L": 0.07856441264410709,
        "F": 0.09344873666466932,
        "B": 0.06432870170693294,
        "C": 0.09533807042821375
    },
    "Average_excess_waiting_time": {
        "G": 44.41331419257364,
        "E": 44.71972762555396,
        "J": 44.093627970546606,
        "K": 42.14589739085096,
        "D": 46.05408118915665,
        "A": 40.834555118049536,
        "H": 43.822557436571174,
        "I": 45.08185546233443,
        "L": 42.01933197691068,
        "F": 43.895788315528364,
        "B": 41.878810136024526,
        "C": 45.604179939441394
    },
    "Holding_per_stop": {
        "G": 24.375,
        "K": 15.3125,
        "E": 29.375,
        "A": 6.25,
        "H": 2.8125,
        "J": 14.6875,
        "D": 4.7368421052631575,
        "L": 10.3125,
        "F": 12.31578947368421,
        "I": 23.05263157894737,
        "B": 0.9375,
        "C": 0
    },
    "Actions_tfl_edges": {},
    "Load_per_bus_per_stop": {
        "bus2": {
            "G": 123.6875,
            "H": 130.625,
            "I": 126.3125,
            "J": 120.125,
            "K": 111.25,
            "L": 104.0625,
            "A": 94.375,
            "B": 86.4375,
            "C": 80.25,
            "D": 74.8125,
            "E": 73.8125,
            "F": 98.875
        },
        "bus1": {
            "E": 69.375,
            "F": 90.9375,
            "G": 119.75,
            "H": 127,
            "I": 122.125,
            "J": 117.4375,
            "K": 109.625,
            "L": 100.0625,
            "A": 89.875,
            "B": 79.875,
            "C": 76.25,
            "D": 74.26666666666667
        },
        "bus3": {
            "J": 123.125,
            "K": 113.5,
            "L": 104.125,
            "A": 93.5625,
            "B": 84.1875,
            "C": 80.1875,
            "D": 76.0625,
            "E": 76.8125,
            "F": 99.25,
            "G": 133.375,
            "H": 140.5625,
            "I": 138.8
        },
        "bus4": {
            "K": 100.5,
            "L": 93,
            "A": 83.0625,
            "B": 74.625,
            "C": 69.1875,
            "D": 68,
            "E": 68.4375,
            "F": 91.8125,
            "G": 121.375,
            "H": 128,
            "I": 123.1875,
            "J": 117.25
        },
        "bus0": {
            "D": 70.3125,
            "E": 68.6875,
            "F": 93.0625,
            "G": 123.5,
            "H": 132.9375,
            "I": 129.4375,
            "J": 122.1875,
            "K": 114.0625,
            "L": 102.875,
            "A": 92.875,
            "B": 83.8125,
            "C": 78.73333333333333
        },
        "bus5": {
            "A": 95.0625,
            "B": 84.6875,
            "C": 80.0625,
            "D": 78.75,
            "E": 77.875,
            "F": 103.3125,
            "G": 134.125,
            "H": 145,
            "I": 140.0625,
            "J": 131.25,
            "K": 122.9375,
            "L": 111.9375
        }
    },
    "Obs_and_actions_busses": {
        "2": 60.35064547410283,
        "0": -184.72770623269352,
        "5": 186.7578920844605,
        "1": 2.0924323284244317
    },
    "Obs_and_actions_tfls": {}
}": 0.2598772163670046
    },
    "Obs_and_actions_tfls": {}
}