{
    "Average_holding_time": 9.32013769363167,
    "Average_holding_actions": [
        987,
        0,
        170,
        4,
        1,
        0
    ],
    "Average_travel_time_passengers": 2582.2060505238346,
    "Average_passenger_waiting_time": 305.1448107680115,
    "Average_passenger_in_vehicle_time": 2277.061239755679,
    "Average_speed_busses": 0.04841666666666666,
    "Average_experienced_crowding": 103.15901142631746,
    "Average_covariation_headway": 0.23257654658134477,
    "Average_covariation_headway_stops": {
        "G": 0.1330944567975123,
        "J": 0.11496101046297699,
        "K": 0.11229407992764909,
        "L": 0.11519759127006055,
        "D": 0.09255449511806427,
        "B": 0.08542127055109253,
        "H": 0.1231051067088644,
        "A": 0.08479777947641881,
        "E": 0.08310604839784239,
        "I": 0.11286922648382826,
        "C": 0.07405185835764728,
        "F": 0.08298120810008723
    },
    "Average_excess_waiting_time": {
        "G": 41.95860131249009,
        "J": 41.31917706166405,
        "K": 39.68842709124738,
        "L": 38.16675302469429,
        "D": 37.8718005191223,
        "B": 36.80262831631785,
        "H": 42.481581858665834,
        "A": 37.88009432473598,
        "E": 38.831766650100064,
        "I": 42.90922315483954,
        "C": 38.221774900253024,
        "F": 40.67655806570849
    },
    "Holding_per_stop": {
        "K": 13.29896907216495,
        "L": 7.346938775510204,
        "G": 18.556701030927837,
        "D": 0,
        "B": 1.2371134020618557,
        "J": 10.515463917525773,
        "H": 3.125,
        "A": 6.185567010309279,
        "E": 22.2680412371134,
        "C": 0.6185567010309279,
        "I": 23.75,
        "F": 5
    },
    "Actions_tfl_edges": {},
    "Load_per_bus_per_stop": {
        "bus2": {
            "G": 117.23529411764706,
            "H": 126.41176470588235,
            "I": 120.75,
            "J": 116.25,
            "K": 108.375,
            "L": 97.625,
            "A": 88.3125,
            "B": 80.5625,
            "C": 76.4375,
            "D": 74.125,
            "E": 72.9375,
            "F": 95.3125
        },
        "bus3": {
            "J": 121.41176470588235,
            "K": 111.75,
            "L": 103.375,
            "A": 95.375,
            "B": 84.9375,
            "C": 77.4375,
            "D": 73.3125,
            "E": 73.5,
            "F": 97.1875,
            "G": 130.9375,
            "H": 138.5625,
            "I": 134.3125
        },
        "bus4": {
            "K": 102.17647058823529,
            "L": 94.70588235294117,
            "A": 83.9375,
            "B": 75.5625,
            "C": 71.75,
            "D": 69.625,
            "E": 67,
            "F": 89,
            "G": 117.3125,
            "H": 127.6875,
            "I": 123.3125,
            "J": 118.4375
        },
        "bus5": {
            "L": 97.3529411764706,
            "A": 87.05882352941177,
            "B": 79.82352941176471,
            "C": 73.0625,
            "D": 71.875,
            "E": 70.0625,
            "F": 93.625,
            "G": 126.4375,
            "H": 133.25,
            "I": 128.25,
            "J": 119.875,
            "K": 111.0625
        },
        "bus1": {
            "D": 73.05882352941177,
            "E": 70.76470588235294,
            "F": 94.1875,
            "G": 124.125,
            "H": 133.5625,
            "I": 129.375,
            "J": 124.375,
            "K": 115.5625,
            "L": 104.5625,
            "A": 96.5,
            "B": 87.125,
            "C": 82.125
        },
        "bus0": {
            "B": 80.17647058823529,
            "C": 73.47058823529412,
            "D": 68.5,
            "E": 66.3125,
            "F": 91.3125,
            "G": 121,
            "H": 127.625,
            "I": 123.9375,
            "J": 119.3125,
            "K": 112.0625,
            "L": 102.75,
            "A": 94.4375
        }
    },
    "Obs_and_actions_busses": {
        "4": 356.3590805719535,
        "2": 58.3560960817735,
        "0": -169.06228926116873,
        "5": 200.57759790158659
    },
    "Obs_and_actions_tfls": {}
}