{
    "Average_holding_time": 6.90537084398977,
    "Average_holding_actions": [
        929,
        230,
        8,
        0,
        3,
        0
    ],
    "Average_travel_time_passengers": 2572.9411616732723,
    "Average_passenger_waiting_time": 301.2283727744069,
    "Average_passenger_in_vehicle_time": 2271.712788898697,
    "Average_speed_busses": 0.048875,
    "Average_experienced_crowding": 102.76083360394735,
    "Average_covariation_headway": 0.21654419979055692,
    "Average_covariation_headway_stops": {
        "I": 0.09383919749531049,
        "E": 0.08298614279055039,
        "F": 0.08088779134315,
        "L": 0.07770094683883745,
        "A": 0.07095033116063222,
        "C": 0.05880601493949071,
        "G": 0.05641974865534096,
        "J": 0.0570294886534793,
        "H": 0.04205698526282791,
        "B": 0.038464200418354945,
        "D": 0.048031986230549314,
        "K": 0.04502880001505397
    },
    "Average_excess_waiting_time": {
        "I": 35.13400238578623,
        "E": 35.6510999697245,
        "F": 33.934918970619094,
        "L": 35.61552394113852,
        "A": 33.99986177904748,
        "C": 34.667689848410305,
        "G": 34.20084512542621,
        "J": 34.92292636134766,
        "H": 35.200460035103106,
        "B": 34.92890677053282,
        "D": 35.93650252740554,
        "K": 36.09446956698571
    },
    "Holding_per_stop": {
        "I": 8.26530612244898,
        "F": 7.959183673469388,
        "A": 4.591836734693878,
        "C": 0,
        "E": 11.020408163265307,
        "L": 10.10204081632653,
        "J": 14.081632653061224,
        "G": 13.16326530612245,
        "H": 0,
        "B": 0,
        "D": 0,
        "K": 13.608247422680412
    },
    "Actions_tfl_edges": {},
    "Load_per_bus_per_stop": {
        "bus3": {
            "I": 121.11764705882354,
            "J": 114.11764705882354,
            "K": 106.41176470588235,
            "L": 98.6470588235294,
            "A": 91.0625,
            "B": 82.1875,
            "C": 77.375,
            "D": 73.9375,
            "E": 72,
            "F": 93.0625,
            "G": 123.25,
            "H": 132.25
        },
        "bus1": {
            "E": 67.41176470588235,
            "F": 89.58823529411765,
            "G": 126.17647058823529,
            "H": 133.8235294117647,
            "I": 127.5,
            "J": 120.5,
            "K": 112.875,
            "L": 104.4375,
            "A": 95.125,
            "B": 83.125,
            "C": 78.3125,
            "D": 75.5625
        },
        "bus2": {
            "F": 88.3529411764706,
            "G": 116.70588235294117,
            "H": 125.11764705882354,
            "I": 120.88235294117646,
            "J": 114.70588235294117,
            "K": 105,
            "L": 97.625,
            "A": 89.6875,
            "B": 81.0625,
            "C": 75.125,
            "D": 75.0625,
            "E": 70.6875
        },
        "bus4": {
            "L": 101.52941176470588,
            "A": 91.05882352941177,
            "B": 80.88235294117646,
            "C": 75.75,
            "D": 72.625,
            "E": 70.375,
            "F": 92.9375,
            "G": 123.8125,
            "H": 133.625,
            "I": 131.75,
            "J": 126.1875,
            "K": 117.3125
        },
        "bus5": {
            "A": 90.6470588235294,
            "B": 82.11764705882354,
            "C": 78.05882352941177,
            "D": 76.8125,
            "E": 75.9375,
            "F": 98.75,
            "G": 131.4375,
            "H": 137,
            "I": 132.4375,
            "J": 124.3125,
            "K": 118.6875,
            "L": 107.5
        },
        "bus0": {
            "C": 69.3529411764706,
            "D": 67.41176470588235,
            "E": 67.29411764705883,
            "F": 88.9375,
            "G": 120.0625,
            "H": 130,
            "I": 125.75,
            "J": 118.375,
            "K": 109.875,
            "L": 99.9375,
            "A": 89.375,
            "B": 80.625
        }
    },
    "Obs_and_actions_busses": {
        "0": -185.34721594882828,
        "1": 18.776574818993964,
        "3": 158.3519262352256,
        "5": 307.42763799563846,
        "2": 102.01073090382683
    },
    "Obs_and_actions_tfls": {}
}