{
    "Average_holding_time": 6.638297872340425,
    "Average_holding_actions": [
        958,
        194,
        13,
        0,
        5,
        0
    ],
    "Average_travel_time_passengers": 2543.9607140926328,
    "Average_passenger_waiting_time": 301.79071738136287,
    "Average_passenger_in_vehicle_time": 2242.169996711124,
    "Average_speed_busses": 0.04895833333333333,
    "Average_experienced_crowding": 101.24415852915409,
    "Average_covariation_headway": 0.22271020297098595,
    "Average_covariation_headway_stops": {
        "H": 0.11214535458250707,
        "F": 0.08783043581985157,
        "I": 0.0890654848521448,
        "D": 0.08148682934300032,
        "A": 0.10365028953277917,
        "B": 0.0856915985414305,
        "C": 0.07479350035537394,
        "G": 0.06814797780545097,
        "J": 0.0504517920343511,
        "E": 0.06667236061593496,
        "K": 0.05145713829822942,
        "L": 0.08670380674567064
    },
    "Average_excess_waiting_time": {
        "H": 34.28641749369808,
        "F": 33.65297405641917,
        "I": 34.22870064599579,
        "D": 33.295609867246355,
        "A": 38.1312147986996,
        "B": 35.989234682241715,
        "C": 34.363232451022725,
        "G": 33.85702617694733,
        "J": 34.1313470505811,
        "E": 34.299411712551546,
        "K": 35.75046629892995,
        "L": 38.716816867023965
    },
    "Holding_per_stop": {
        "H": 0.9090909090909091,
        "I": 11.326530612244898,
        "F": 10.10204081632653,
        "D": 0,
        "C": 1.836734693877551,
        "B": 1.836734693877551,
        "A": 4.329896907216495,
        "J": 11.938775510204081,
        "G": 11.020408163265307,
        "E": 8.877551020408163,
        "K": 9.587628865979381,
        "L": 8.041237113402062
    },
    "Actions_tfl_edges": {},
    "Load_per_bus_per_stop": {
        "bus4": {
            "H": 120.76470588235294,
            "I": 116.76470588235294,
            "J": 111.17647058823529,
            "K": 104.58823529411765,
            "L": 97,
            "A": 90.75,
            "B": 81.9375,
            "C": 76.6875,
            "D": 75.0625,
            "E": 73.75,
            "F": 93.5625,
            "G": 122.1875
        },
        "bus3": {
            "F": 87.94117647058823,
            "G": 121.94117647058823,
            "H": 129.64705882352942,
            "I": 126.3529411764706,
            "J": 121.23529411764706,
            "K": 113.4375,
            "L": 103.3125,
            "A": 93.5,
            "B": 83.4375,
            "C": 76.5625,
            "D": 74.4375,
            "E": 72
        },
        "bus2": {
            "D": 68.05882352941177,
            "E": 66.11764705882354,
            "F": 88.23529411764706,
            "G": 118.76470588235294,
            "H": 124.23529411764706,
            "I": 120.1875,
            "J": 113.5625,
            "K": 106.625,
            "L": 99.25,
            "A": 89.8125,
            "B": 79.125,
            "C": 73.125
        },
        "bus5": {
            "A": 89.3529411764706,
            "B": 77.52941176470588,
            "C": 70.8125,
            "D": 70.3125,
            "E": 69.0625,
            "F": 92.4375,
            "G": 125,
            "H": 133.625,
            "I": 130.6875,
            "J": 123.3125,
            "K": 113.625,
            "L": 103.75
        },
        "bus0": {
            "B": 78.76470588235294,
            "C": 74.6470588235294,
            "D": 71.17647058823529,
            "E": 68.3125,
            "F": 88.1875,
            "G": 119.5625,
            "H": 127.875,
            "I": 124.625,
            "J": 118.75,
            "K": 110.6875,
            "L": 100.75,
            "A": 91.5625
        },
        "bus1": {
            "C": 73.6470588235294,
            "D": 70.23529411764706,
            "E": 68.3529411764706,
            "F": 92.47058823529412,
            "G": 124.8125,
            "H": 130.9375,
            "I": 125.4375,
            "J": 120.5,
            "K": 110.1875,
            "L": 101.5,
            "A": 92.5,
            "B": 83.5625
        }
    },
    "Obs_and_actions_busses": {
        "0": -180.9491470456022,
        "1": 25.124216678990095,
        "3": 148.88170687216476,
        "2": 97.03819421450757,
        "5": 326.73706717235024
    },
    "Obs_and_actions_tfls": {}
}