{
    "Average_holding_time": 68.9873417721519,
    "Average_holding_actions": [
        238,
        0,
        3,
        65,
        160,
        0
    ],
    "Average_travel_time_passengers": 9336.784204254122,
    "Average_passenger_waiting_time": 3349.490147793176,
    "Average_passenger_in_vehicle_time": 5987.2940564607725,
    "Average_speed_busses": 0.01975,
    "Average_experienced_crowding": 1023.841048068848,
    "Average_covariation_headway": 2.2318809307329524,
    "Average_covariation_headway_stops": {
        "H": 2.050782880865826,
        "G": 1.795151314631375,
        "I": 2.192605469411733,
        "A": 2.219934150952762,
        "B": 2.207871480140516,
        "C": 2.2080436789967766,
        "J": 2.1981047986514684,
        "D": 2.1809678674193793,
        "K": 2.195678342849491,
        "E": 2.1545207976203717,
        "L": 2.1686491416591576,
        "F": 1.8219184150928658
    },
    "Average_excess_waiting_time": {
        "H": 3245.614654166654,
        "G": 2612.577360692709,
        "I": 3602.880601096338,
        "A": 3798.519366135036,
        "B": 3730.24597735481,
        "C": 3695.195497173932,
        "J": 3671.9686916180626,
        "D": 3673.952178879678,
        "K": 3716.2877023149654,
        "E": 3655.625686968604,
        "L": 3685.3681354053438,
        "F": 3134.8451939122824
    },
    "Holding_per_stop": {
        "H": 69.47368421052632,
        "I": 80,
        "G": 62.432432432432435,
        "B": 71.70731707317073,
        "A": 57.75,
        "C": 75,
        "J": 72.3076923076923,
        "D": 66.42857142857143,
        "K": 65.38461538461539,
        "E": 68.57142857142857,
        "L": 73.84615384615384,
        "F": 64.16666666666667
    },
    "Actions_tfl_edges": {},
    "Load_per_bus_per_stop": {
        "bus3": {
            "H": 18.285714285714285,
            "I": 17.857142857142858,
            "J": 15.857142857142858,
            "K": 14.714285714285714,
            "L": 12.857142857142858,
            "A": 11.571428571428571,
            "B": 9.571428571428571,
            "C": 9.428571428571429,
            "D": 9.142857142857142,
            "E": 8.428571428571429,
            "F": 14.333333333333334,
            "G": 20.5
        },
        "bus2": {
            "G": 15.428571428571429,
            "H": 16.571428571428573,
            "I": 16.285714285714285,
            "J": 16.571428571428573,
            "K": 15.714285714285714,
            "L": 14.285714285714286,
            "A": 14.714285714285714,
            "B": 15.142857142857142,
            "C": 15,
            "D": 15.428571428571429,
            "E": 15,
            "F": 18
        },
        "bus4": {
            "I": 93.28571428571429,
            "J": 88.14285714285714,
            "K": 81.85714285714286,
            "L": 73.85714285714286,
            "A": 67.57142857142857,
            "B": 60.285714285714285,
            "C": 58.57142857142857,
            "D": 57.42857142857143,
            "E": 60.142857142857146,
            "F": 87.16666666666667,
            "G": 112.83333333333333,
            "H": 116.33333333333333
        },
        "bus5": {
            "A": 30.857142857142858,
            "B": 26.428571428571427,
            "C": 25.285714285714285,
            "D": 24.428571428571427,
            "E": 25.857142857142858,
            "F": 41.5,
            "G": 60.833333333333336,
            "H": 61.333333333333336,
            "I": 58.166666666666664,
            "J": 54.666666666666664,
            "K": 49.333333333333336,
            "L": 42.166666666666664
        },
        "bus0": {
            "B": 85.85714285714286,
            "C": 75.14285714285714,
            "D": 67.85714285714286,
            "E": 62.42857142857143,
            "F": 97.5,
            "G": 172.16666666666666,
            "H": 182,
            "I": 174.33333333333334,
            "J": 160,
            "K": 146.33333333333334,
            "L": 130.16666666666666,
            "A": 114.33333333333333
        },
        "bus1": {
            "C": 749.7142857142857,
            "D": 741.1428571428571,
            "E": 754.2857142857143,
            "F": 1002.2857142857143,
            "G": 1209.6666666666667,
            "H": 1327.6666666666667,
            "I": 1309,
            "J": 1255,
            "K": 1174,
            "L": 1084.8333333333333,
            "A": 987,
            "B": 914.5
        }
    },
    "Obs_and_actions_busses": {
        "0": -35.7797827692415,
        "3": 159.51611323134887,
        "5": 5820.285882967887,
        "2": 104.70620027353065,
        "4": -4326.068644496526
    },
    "Obs_and_actions_tfls": {}
}