{
    "Average_holding_time": 56.103896103896105,
    "Average_holding_actions": [
        283,
        0,
        47,
        184,
        8,
        0
    ],
    "Average_travel_time_passengers": 6080.823479671647,
    "Average_passenger_waiting_time": 1708.3451071099364,
    "Average_passenger_in_vehicle_time": 4372.478372561784,
    "Average_speed_busses": 0.025666666666666667,
    "Average_experienced_crowding": 584.2638857866494,
    "Average_covariation_headway": 1.7206660775788878,
    "Average_covariation_headway_stops": {
        "H": 1.6533881045881311,
        "I": 1.776623997335089,
        "J": 1.8249003882113126,
        "L": 1.8341970907146665,
        "D": 1.7550393305699747,
        "A": 1.8540665744427824,
        "K": 1.8180518871356945,
        "E": 1.5654417854016838,
        "B": 1.8454086045995588,
        "F": 1.4793601745602203,
        "C": 1.8355362711151373,
        "G": 1.4392368998738487
    },
    "Average_excess_waiting_time": {
        "H": 1723.9057578767602,
        "I": 1935.1156560521026,
        "J": 2011.783448096985,
        "L": 2044.52009587149,
        "D": 2131.919821789222,
        "A": 2071.938735734783,
        "K": 2028.0955204257143,
        "E": 1441.6290814777226,
        "B": 2089.3542972428127,
        "F": 1371.1339840201501,
        "C": 2106.413524722699,
        "G": 1377.226872226359
    },
    "Holding_per_stop": {
        "I": 56.470588235294116,
        "H": 61.2,
        "J": 55.38461538461539,
        "A": 54.44444444444444,
        "D": 52.6530612244898,
        "L": 54.905660377358494,
        "K": 54.23076923076923,
        "E": 55.714285714285715,
        "B": 55,
        "F": 58.775510204081634,
        "C": 57.77777777777778,
        "G": 56.93877551020408
    },
    "Actions_tfl_edges": {},
    "Load_per_bus_per_stop": {
        "bus1": {
            "H": 98.11111111111111,
            "I": 97.11111111111111,
            "J": 93.77777777777777,
            "K": 87.88888888888889,
            "L": 78.11111111111111,
            "A": 71.88888888888889,
            "B": 66.55555555555556,
            "C": 63.44444444444444,
            "D": 69.375,
            "E": 69.875,
            "F": 87.125,
            "G": 107.25
        },
        "bus2": {
            "I": 26.77777777777778,
            "J": 24.444444444444443,
            "K": 21.666666666666668,
            "L": 20.444444444444443,
            "A": 18,
            "B": 16.22222222222222,
            "C": 15.88888888888889,
            "D": 16,
            "E": 16.625,
            "F": 22.375,
            "G": 31.625,
            "H": 33.375
        },
        "bus3": {
            "J": 22.666666666666668,
            "K": 20.333333333333332,
            "L": 19.11111111111111,
            "A": 16.77777777777778,
            "B": 13.777777777777779,
            "C": 12.444444444444445,
            "D": 10.125,
            "E": 9.125,
            "F": 16.25,
            "G": 29.875,
            "H": 29.125,
            "I": 26.625
        },
        "bus4": {
            "L": 72.77777777777777,
            "A": 65.44444444444444,
            "B": 57.333333333333336,
            "C": 50.888888888888886,
            "D": 40,
            "E": 37.125,
            "F": 62.25,
            "G": 113.25,
            "H": 119.125,
            "I": 111.375,
            "J": 101.25,
            "K": 92.875
        },
        "bus0": {
            "D": 174.22222222222223,
            "E": 171.22222222222223,
            "F": 214.66666666666666,
            "G": 280.8888888888889,
            "H": 299,
            "I": 295.22222222222223,
            "J": 280.55555555555554,
            "K": 261.8888888888889,
            "L": 239.77777777777777,
            "A": 220.88888888888889,
            "B": 202.55555555555554,
            "C": 187.22222222222223
        },
        "bus5": {
            "A": 510.1111111111111,
            "B": 462.55555555555554,
            "C": 443.6666666666667,
            "D": 442.44444444444446,
            "E": 357.875,
            "F": 492.625,
            "G": 685.125,
            "H": 748.875,
            "I": 738.875,
            "J": 704.875,
            "K": 669.75,
            "L": 619.625
        }
    },
    "Obs_and_actions_busses": {
        "4": 2056.9729231264773,
        "5": 222.50765183752407,
        "2": 114.55563961314445,
        "0": -42.94033381521332,
        "3": -3922.677183485804
    },
    "Obs_and_actions_tfls": {}
}