{
    "Average_holding_time": 9.360414866032844,
    "Average_holding_actions": [
        904,
        226,
        0,
        0,
        27,
        0
    ],
    "Average_travel_time_passengers": 2602.1670627369817,
    "Average_passenger_waiting_time": 313.5653900684089,
    "Average_passenger_in_vehicle_time": 2288.6016726684493,
    "Average_speed_busses": 0.04820833333333333,
    "Average_experienced_crowding": 107.77413690760287,
    "Average_covariation_headway": 0.24876956881013348,
    "Average_covariation_headway_stops": {
        "H": 0.19442516595764534,
        "G": 0.17644335595327088,
        "J": 0.1523744853620848,
        "L": 0.11864835413195796,
        "I": 0.16927310177798266,
        "D": 0.14918732396873158,
        "A": 0.12196608464564551,
        "K": 0.1215920476096038,
        "E": 0.13923314828155392,
        "B": 0.1110519582296805,
        "F": 0.13533025970394594,
        "C": 0.1272134188063857
    },
    "Average_excess_waiting_time": {
        "H": 48.51734588285848,
        "G": 48.503311947935345,
        "J": 43.567002558253876,
        "L": 40.53173156808322,
        "I": 46.992422827876624,
        "D": 44.433223803236785,
        "A": 39.45661993774195,
        "K": 42.462444985559785,
        "E": 45.32698538278413,
        "B": 40.77804337309459,
        "F": 46.54063919220056,
        "C": 44.03548237170037
    },
    "Holding_per_stop": {
        "H": 4.020618556701031,
        "J": 13.917525773195877,
        "G": 12.5,
        "A": 3.402061855670103,
        "I": 17.8125,
        "D": 4.020618556701031,
        "L": 9.278350515463918,
        "K": 13.125,
        "B": 2.783505154639175,
        "E": 11.875,
        "C": 2.1875,
        "F": 17.68421052631579
    },
    "Actions_tfl_edges": {},
    "Load_per_bus_per_stop": {
        "bus2": {
            "H": 132.64705882352942,
            "I": 129.6875,
            "J": 121.8125,
            "K": 113.0625,
            "L": 101.75,
            "A": 91.9375,
            "B": 82.25,
            "C": 76.1875,
            "D": 74.75,
            "E": 75.0625,
            "F": 98.5,
            "G": 134.375
        },
        "bus1": {
            "G": 129.0625,
            "H": 136.0625,
            "I": 132.6875,
            "J": 125.5625,
            "K": 116.3125,
            "L": 106.1875,
            "A": 94.8125,
            "B": 85.5625,
            "C": 80.6875,
            "D": 78.25,
            "E": 78.0625,
            "F": 102.9375
        },
        "bus3": {
            "J": 114.82352941176471,
            "K": 106.52941176470588,
            "L": 98.0625,
            "A": 88.4375,
            "B": 80.25,
            "C": 73.8125,
            "D": 71,
            "E": 71.25,
            "F": 92.9375,
            "G": 123.5,
            "H": 133.9375,
            "I": 129.8125
        },
        "bus4": {
            "L": 87.47058823529412,
            "A": 78.6875,
            "B": 72.1875,
            "C": 68.125,
            "D": 66.75,
            "E": 66.25,
            "F": 86.1875,
            "G": 115.75,
            "H": 122.125,
            "I": 116.25,
            "J": 109.9375,
            "K": 101.8125
        },
        "bus0": {
            "D": 75.70588235294117,
            "E": 76.375,
            "F": 100.5,
            "G": 133.375,
            "H": 141.8125,
            "I": 138.875,
            "J": 131.3125,
            "K": 122.9375,
            "L": 111.3125,
            "A": 99.875,
            "B": 87.9375,
            "C": 81.8125
        },
        "bus5": {
            "A": 93.17647058823529,
            "B": 84.88235294117646,
            "C": 80.0625,
            "D": 78.25,
            "E": 79.1875,
            "F": 103.25,
            "G": 137.1875,
            "H": 145.9375,
            "I": 140.875,
            "J": 133,
            "K": 121.125,
            "L": 108.8125
        }
    },
    "Obs_and_actions_busses": {
        "0": -190.59207281695032,
        "1": 34.08210098418734,
        "5": 279.2130708824085
    },
    "Obs_and_actions_tfls": {}
}348266,
        "2": 121.31841720528323
    },
    "Obs_and_actions_tfls": {}
}411,
        "2": 128.57813258903744,
        "5": 230.8111080860116
    },
    "Obs_and_actions_tfls": {}
}