{
    "Average_holding_time": 11.927083333333334,
    "Average_holding_actions": [
        944,
        0,
        194,
        0,
        14,
        0
    ],
    "Average_travel_time_passengers": 2645.749201831701,
    "Average_passenger_waiting_time": 314.17574677423545,
    "Average_passenger_in_vehicle_time": 2331.573455057331,
    "Average_speed_busses": 0.048,
    "Average_experienced_crowding": 107.41906556742616,
    "Average_covariation_headway": 0.2614344505437995,
    "Average_covariation_headway_stops": {
        "H": 0.17303095550189132,
        "E": 0.1779539623560534,
        "F": 0.171603878820737,
        "K": 0.14068699899619877,
        "L": 0.14154846284283898,
        "I": 0.16016566751567335,
        "D": 0.18244122238622018,
        "G": 0.1641412780064667,
        "J": 0.1374059464529051,
        "A": 0.11672340600812303,
        "B": 0.12384777843604025,
        "C": 0.16074598555616096
    },
    "Average_excess_waiting_time": {
        "H": 46.591137147829215,
        "E": 49.54323565955116,
        "F": 47.176812740485275,
        "K": 44.671476935456326,
        "L": 42.94990366063621,
        "I": 46.741012478800144,
        "D": 51.90025774824397,
        "G": 47.56452602552753,
        "J": 46.16374228280051,
        "A": 42.77449325412573,
        "B": 45.42033944602895,
        "C": 51.05789690981004
    },
    "Holding_per_stop": {
        "H": 5.56701030927835,
        "E": 24.6875,
        "L": 14.536082474226804,
        "F": 10.9375,
        "I": 23.75,
        "K": 16.5625,
        "D": 4.105263157894737,
        "G": 20.3125,
        "A": 5.625,
        "J": 10.625,
        "B": 3.75,
        "C": 2.526315789473684
    },
    "Actions_tfl_edges": {},
    "Load_per_bus_per_stop": {
        "bus3": {
            "H": 121.41176470588235,
            "I": 118.4375,
            "J": 112.8125,
            "K": 106.4375,
            "L": 98.9375,
            "A": 90.125,
            "B": 79.9375,
            "C": 73.6875,
            "D": 71.6875,
            "E": 69.5625,
            "F": 91.1875,
            "G": 120.9375
        },
        "bus1": {
            "E": 71.375,
            "F": 94.9375,
            "G": 125.3125,
            "H": 134.375,
            "I": 130.5625,
            "J": 123.6875,
            "K": 114.875,
            "L": 104.5625,
            "A": 97,
            "B": 87.1875,
            "C": 82.4375,
            "D": 77.53333333333333
        },
        "bus2": {
            "F": 94,
            "G": 126.9375,
            "H": 135.875,
            "I": 132.25,
            "J": 125.625,
            "K": 116.5625,
            "L": 106.375,
            "A": 98.4375,
            "B": 88.3125,
            "C": 83.1875,
            "D": 78.5625,
            "E": 77.0625
        },
        "bus4": {
            "K": 105.875,
            "L": 95.9375,
            "A": 87.6875,
            "B": 77.625,
            "C": 71.6875,
            "D": 69,
            "E": 67.4375,
            "F": 91.1875,
            "G": 124.4375,
            "H": 133.1875,
            "I": 130.375,
            "J": 123.0625
        },
        "bus5": {
            "L": 104.52941176470588,
            "A": 96,
            "B": 88,
            "C": 84.5,
            "D": 79.5,
            "E": 77.75,
            "F": 102.4375,
            "G": 134.5,
            "H": 141.8125,
            "I": 137.8125,
            "J": 133.375,
            "K": 124.1875
        },
        "bus0": {
            "D": 75.0625,
            "E": 73.625,
            "F": 96.0625,
            "G": 128.125,
            "H": 136.5625,
            "I": 133.375,
            "J": 126.8125,
            "K": 118.125,
            "L": 108.4375,
            "A": 99.375,
            "B": 89.6875,
            "C": 84.93333333333334
        }
    },
    "Obs_and_actions_busses": {
        "0": -175.96958026389038,
        "2": 64.83935418370781,
        "5": 398.0779438852602
    },
    "Obs_and_actions_tfls": {}
}