{
    "Average_holding_time": 11.822144725370531,
    "Average_holding_actions": [
        830,
        250,
        29,
        0,
        15,
        0
    ],
    "Average_travel_time_passengers": 2626.8410857283134,
    "Average_passenger_waiting_time": 319.6555179557825,
    "Average_passenger_in_vehicle_time": 2307.18556777241,
    "Average_speed_busses": 0.04779166666666667,
    "Average_experienced_crowding": 108.05806891327123,
    "Average_covariation_headway": 0.2738183494597073,
    "Average_covariation_headway_stops": {
        "H": 0.22244483500610696,
        "I": 0.22845132008410315,
        "J": 0.21615028631859157,
        "L": 0.18111629109590244,
        "D": 0.17313779288730868,
        "A": 0.17501362300031026,
        "K": 0.18425601337841174,
        "E": 0.16157821074694034,
        "B": 0.15072556011784516,
        "F": 0.15999763262844022,
        "C": 0.1612886403956086,
        "G": 0.17855469453051687
    },
    "Average_excess_waiting_time": {
        "H": 57.190879809120304,
        "I": 55.817301193485946,
        "J": 52.50456741275036,
        "L": 48.12901415207716,
        "D": 48.79207941449607,
        "A": 46.031910372482514,
        "K": 50.21904501310229,
        "E": 49.14055174496417,
        "B": 45.8402031024861,
        "F": 50.55152697886609,
        "C": 48.978091378838485,
        "G": 53.78957449203676
    },
    "Holding_per_stop": {
        "I": 14.0625,
        "J": 20.625,
        "H": 7.894736842105263,
        "D": 5.625,
        "A": 8.350515463917526,
        "L": 14.0625,
        "K": 15.3125,
        "E": 13.894736842105264,
        "B": 4.375,
        "F": 14.526315789473685,
        "C": 4.7368421052631575,
        "G": 18.51063829787234
    },
    "Actions_tfl_edges": {},
    "Load_per_bus_per_stop": {
        "bus1": {
            "H": 130.5625,
            "I": 128.125,
            "J": 121.875,
            "K": 111.9375,
            "L": 100.9375,
            "A": 90.0625,
            "B": 81.3125,
            "C": 76.5625,
            "D": 74.25,
            "E": 73.75,
            "F": 95.33333333333333,
            "G": 130.06666666666666
        },
        "bus2": {
            "I": 124.5625,
            "J": 117.8125,
            "K": 110.1875,
            "L": 100.3125,
            "A": 90.5625,
            "B": 82.875,
            "C": 76.8125,
            "D": 75.375,
            "E": 73.25,
            "F": 99.6875,
            "G": 130.5625,
            "H": 138
        },
        "bus3": {
            "J": 112.4375,
            "K": 103.4375,
            "L": 94.875,
            "A": 85.625,
            "B": 77.375,
            "C": 71.0625,
            "D": 69.125,
            "E": 67.3125,
            "F": 89.3125,
            "G": 117,
            "H": 125.3125,
            "I": 125.5625
        },
        "bus4": {
            "L": 89.6875,
            "A": 80.9375,
            "B": 73.625,
            "C": 70.125,
            "D": 68.9375,
            "E": 67.5625,
            "F": 86.6875,
            "G": 114.6875,
            "H": 122.5625,
            "I": 119.5,
            "J": 114.1875,
            "K": 106.4375
        },
        "bus0": {
            "D": 80.1875,
            "E": 78.5,
            "F": 100.625,
            "G": 132.9375,
            "H": 141.875,
            "I": 138.5625,
            "J": 132.5,
            "K": 124.875,
            "L": 113.875,
            "A": 101.4375,
            "B": 93.3125,
            "C": 86.625
        },
        "bus5": {
            "A": 98.76470588235294,
            "B": 89.5625,
            "C": 83.0625,
            "D": 80.125,
            "E": 78.5,
            "F": 104.0625,
            "G": 137.6875,
            "H": 148.25,
            "I": 141.875,
            "J": 134.5625,
            "K": 125.5,
            "L": 116.4375
        }
    },
    "Obs_and_actions_busses": {
        "5": 437.7599267083828,
        "1": 21.972989123502323,
        "3": 162.9609169318153,
        "2": 95.11114283361132,
        "0": -201.29579571935193
    },
    "Obs_and_actions_tfls": {}
}_and_actions_tfls": {}
}101.31923664749489,
        "5": 422.4980974464221
    },
    "Obs_and_actions_tfls": {}
}