{
    "Average_holding_time": 13.657894736842104,
    "Average_holding_actions": [
        933,
        0,
        172,
        0,
        35,
        0
    ],
    "Average_travel_time_passengers": 2665.071098543964,
    "Average_passenger_waiting_time": 331.99503597680103,
    "Average_passenger_in_vehicle_time": 2333.0760625670564,
    "Average_speed_busses": 0.0475,
    "Average_experienced_crowding": 114.01475277966698,
    "Average_covariation_headway": 0.3692160238193893,
    "Average_covariation_headway_stops": {
        "G": 0.27639278041289583,
        "I": 0.2917315685261362,
        "J": 0.2719712788365462,
        "L": 0.23811242709442298,
        "A": 0.2367898263858145,
        "C": 0.23051852083470045,
        "H": 0.29337878552765473,
        "K": 0.2476082819161481,
        "B": 0.2315884534844028,
        "D": 0.22702239931262536,
        "E": 0.24337252784496974,
        "F": 0.24929617323906667
    },
    "Average_excess_waiting_time": {
        "G": 67.10340075669609,
        "I": 69.65647658819717,
        "J": 65.29800636924813,
        "L": 59.387876641959394,
        "A": 57.698596848990974,
        "C": 57.27705965624858,
        "H": 72.07717633534497,
        "K": 62.94938688778177,
        "B": 58.671258360157196,
        "D": 58.21561833673826,
        "E": 62.17833907522845,
        "F": 64.96617598883535
    },
    "Holding_per_stop": {
        "I": 18.63157894736842,
        "J": 16.736842105263158,
        "G": 28.42105263157895,
        "A": 4.375,
        "C": 6.875,
        "L": 8.210526315789474,
        "K": 15.789473684210526,
        "H": 12.446808510638299,
        "B": 8.210526315789474,
        "D": 6.947368421052632,
        "E": 18,
        "F": 19.46808510638298
    },
    "Actions_tfl_edges": {},
    "Load_per_bus_per_stop": {
        "bus1": {
            "G": 120.75,
            "H": 127.875,
            "I": 124.3125,
            "J": 118.5625,
            "K": 110.6875,
            "L": 102.5625,
            "A": 91.9375,
            "B": 85.1875,
            "C": 80.75,
            "D": 75.66666666666667,
            "E": 74.33333333333333,
            "F": 98.6
        },
        "bus2": {
            "I": 124.6875,
            "J": 118.375,
            "K": 109,
            "L": 99.8125,
            "A": 90.875,
            "B": 80.875,
            "C": 77.4375,
            "D": 73.4375,
            "E": 72.375,
            "F": 96.8,
            "G": 127.6,
            "H": 135.93333333333334
        },
        "bus3": {
            "J": 115.9375,
            "K": 106.0625,
            "L": 98.375,
            "A": 88.125,
            "B": 80.5625,
            "C": 74.625,
            "D": 72.125,
            "E": 72.75,
            "F": 95.3125,
            "G": 126.8125,
            "H": 133.2,
            "I": 132.46666666666667
        },
        "bus4": {
            "L": 90.125,
            "A": 83.5,
            "B": 74.875,
            "C": 71.375,
            "D": 69.9375,
            "E": 67.1875,
            "F": 86.9375,
            "G": 115.0625,
            "H": 123.875,
            "I": 119.9375,
            "J": 114.86666666666666,
            "K": 107.4
        },
        "bus5": {
            "A": 99.125,
            "B": 91.5625,
            "C": 85.625,
            "D": 82.875,
            "E": 81.875,
            "F": 107.125,
            "G": 140.6875,
            "H": 149.875,
            "I": 147.4375,
            "J": 141.125,
            "K": 129.125,
            "L": 116.4
        },
        "bus0": {
            "C": 83.375,
            "D": 79.625,
            "E": 77.25,
            "F": 103.8125,
            "G": 144.5625,
            "H": 155.25,
            "I": 150.75,
            "J": 145.75,
            "K": 134.6875,
            "L": 121.75,
            "A": 109.125,
            "B": 96.2
        }
    },
    "Obs_and_actions_busses": {
        "5": 390.8216911222106,
        "2": 121.86342976334763,
        "0": -177.16108265488097
    },
    "Obs_and_actions_tfls": {}
}