{
    "Average_holding_time": 10.484429065743944,
    "Average_holding_actions": [
        884,
        155,
        112,
        0,
        5,
        0
    ],
    "Average_travel_time_passengers": 2603.291593118108,
    "Average_passenger_waiting_time": 302.6963502147967,
    "Average_passenger_in_vehicle_time": 2300.5952429031827,
    "Average_speed_busses": 0.04816666666666667,
    "Average_experienced_crowding": 105.30178571784715,
    "Average_covariation_headway": 0.22433128444878916,
    "Average_covariation_headway_stops": {
        "G": 0.11030602311329851,
        "E": 0.09859961156677169,
        "L": 0.11196112868395193,
        "H": 0.09579796762537503,
        "D": 0.07560436961072069,
        "A": 0.0917980881591819,
        "C": 0.0631352582595231,
        "I": 0.08642796891359295,
        "F": 0.06918663918692951,
        "B": 0.05084231163093601,
        "J": 0.07542420017045784,
        "K": 0.0847972741888709
    },
    "Average_excess_waiting_time": {
        "G": 38.94354448130781,
        "E": 38.50864041551762,
        "L": 42.9730809912208,
        "H": 39.44074708430219,
        "D": 39.16344272201246,
        "A": 40.376329289039575,
        "C": 40.04358145482598,
        "I": 40.182205179866,
        "F": 38.81220383850706,
        "B": 40.720583695015875,
        "J": 41.06895185233731,
        "K": 43.072717359150886
    },
    "Holding_per_stop": {
        "G": 19.175257731958762,
        "E": 25.051546391752577,
        "H": 0.6185567010309279,
        "A": 5,
        "D": 0.30927835051546393,
        "L": 15.625,
        "C": 0.625,
        "I": 20.9375,
        "F": 10.824742268041238,
        "B": 1.5625,
        "J": 15.9375,
        "K": 10.105263157894736
    },
    "Actions_tfl_edges": {},
    "Load_per_bus_per_stop": {
        "bus3": {
            "G": 122.47058823529412,
            "H": 129.76470588235293,
            "I": 127.94117647058823,
            "J": 119.75,
            "K": 112.1875,
            "L": 103.3125,
            "A": 94.25,
            "B": 84.75,
            "C": 78.8125,
            "D": 75.4375,
            "E": 74.9375,
            "F": 96.5625
        },
        "bus2": {
            "E": 73.70588235294117,
            "F": 97.76470588235294,
            "G": 130.875,
            "H": 138.6875,
            "I": 134.5,
            "J": 126.5625,
            "K": 119.25,
            "L": 108.5625,
            "A": 98.6875,
            "B": 89.125,
            "C": 83.25,
            "D": 78.625
        },
        "bus4": {
            "L": 93.8125,
            "A": 84.8125,
            "B": 79.0625,
            "C": 76.25,
            "D": 73.1875,
            "E": 72.6875,
            "F": 95.0625,
            "G": 124.375,
            "H": 131.875,
            "I": 128.375,
            "J": 120.9375,
            "K": 111.5
        },
        "bus1": {
            "D": 71.76470588235294,
            "E": 70.125,
            "F": 90.1875,
            "G": 117.875,
            "H": 125.375,
            "I": 123.4375,
            "J": 116.9375,
            "K": 108.8125,
            "L": 100.5625,
            "A": 92.625,
            "B": 84.25,
            "C": 80
        },
        "bus5": {
            "A": 90.94117647058823,
            "B": 81.125,
            "C": 77.75,
            "D": 75.9375,
            "E": 74.375,
            "F": 98.3125,
            "G": 130.0625,
            "H": 137.4375,
            "I": 134.5,
            "J": 125.875,
            "K": 117.5625,
            "L": 108.75
        },
        "bus0": {
            "C": 75.6875,
            "D": 73.3125,
            "E": 73.1875,
            "F": 96.1875,
            "G": 127.375,
            "H": 135.25,
            "I": 132.0625,
            "J": 126.5625,
            "K": 117.1875,
            "L": 106.875,
            "A": 96.125,
            "B": 87.5625
        }
    },
    "Obs_and_actions_busses": {
        "0": -189.6423600119709,
        "1": -1.8471476842376275,
        "2": 67.89553683971177,
        "5": 392.8944530320874
    },
    "Obs_and_actions_tfls": {}
}