{
    "Average_holding_time": 9.500860585197934,
    "Average_holding_actions": [
        992,
        0,
        157,
        11,
        2,
        0
    ],
    "Average_travel_time_passengers": 2582.441697824741,
    "Average_passenger_waiting_time": 307.1386552620013,
    "Average_passenger_in_vehicle_time": 2275.303042562589,
    "Average_speed_busses": 0.04841666666666666,
    "Average_experienced_crowding": 103.60798964377858,
    "Average_covariation_headway": 0.26035098174664345,
    "Average_covariation_headway_stops": {
        "E": 0.1375704620972772,
        "F": 0.13422404596138987,
        "L": 0.1768686300312463,
        "A": 0.16151688792732655,
        "B": 0.1536335414600818,
        "C": 0.14436484079031736,
        "G": 0.11784996240909477,
        "H": 0.11879530069913985,
        "D": 0.1241610018458053,
        "I": 0.12126832934752918,
        "J": 0.13189216512409135,
        "K": 0.15850820961712078
    },
    "Average_excess_waiting_time": {
        "E": 40.967671128095105,
        "F": 38.926434499182164,
        "L": 48.076920223059574,
        "A": 44.98581475089384,
        "B": 43.28346331122856,
        "C": 41.3488744688043,
        "G": 38.90705934733694,
        "H": 40.03536828810195,
        "D": 41.46247378533974,
        "I": 41.47089647086665,
        "J": 44.0581473167087,
        "K": 47.94003887904114
    },
    "Holding_per_stop": {
        "F": 10.408163265306122,
        "A": 4.329896907216495,
        "B": 4.329896907216495,
        "C": 2.4742268041237114,
        "L": 10.625,
        "E": 21.95876288659794,
        "G": 17.31958762886598,
        "H": 5.257731958762887,
        "D": 3.0927835051546393,
        "I": 18.556701030927837,
        "J": 6.25,
        "K": 9.375
    },
    "Actions_tfl_edges": {},
    "Load_per_bus_per_stop": {
        "bus2": {
            "E": 65.76470588235294,
            "F": 86.6470588235294,
            "G": 116,
            "H": 123.4375,
            "I": 121.5,
            "J": 115.0625,
            "K": 106.375,
            "L": 97.5625,
            "A": 89.0625,
            "B": 78.5625,
            "C": 73.5,
            "D": 70.3125
        },
        "bus3": {
            "F": 95.58823529411765,
            "G": 125.41176470588235,
            "H": 133.64705882352942,
            "I": 129.35294117647058,
            "J": 123,
            "K": 115.625,
            "L": 107.4375,
            "A": 99,
            "B": 91.125,
            "C": 82.9375,
            "D": 78.625,
            "E": 79.5
        },
        "bus4": {
            "L": 98.375,
            "A": 90,
            "B": 81.3125,
            "C": 75.25,
            "D": 72.6875,
            "E": 70.5,
            "F": 94.75,
            "G": 126.75,
            "H": 135.3125,
            "I": 130.3125,
            "J": 124.8125,
            "K": 115.9375
        },
        "bus5": {
            "A": 89.6470588235294,
            "B": 81.5,
            "C": 75.9375,
            "D": 72.5,
            "E": 72.0625,
            "F": 93.8125,
            "G": 126.75,
            "H": 133.875,
            "I": 128.5,
            "J": 122.5,
            "K": 112.0625,
            "L": 103.1875
        },
        "bus0": {
            "B": 80.82352941176471,
            "C": 74.3125,
            "D": 70.4375,
            "E": 70.375,
            "F": 91.75,
            "G": 122.3125,
            "H": 131.625,
            "I": 127.6875,
            "J": 122.9375,
            "K": 113.875,
            "L": 104.625,
            "A": 95.5
        },
        "bus1": {
            "C": 71.17647058823529,
            "D": 67.94117647058823,
            "E": 68.0625,
            "F": 88.4375,
            "G": 117.25,
            "H": 124.9375,
            "I": 123,
            "J": 117.9375,
            "K": 110.1875,
            "L": 103,
            "A": 91.9375,
            "B": 83.0625
        }
    },
    "Obs_and_actions_busses": {
        "4": 485.54310893821327,
        "2": 66.08332057237138,
        "0": -170.91802977974876,
        "5": 220.36026242440334
    },
    "Obs_and_actions_tfls": {}
}