{
    "Average_holding_time": 13.6077057793345,
    "Average_holding_actions": [
        817,
        174,
        137,
        0,
        14,
        0
    ],
    "Average_travel_time_passengers": 2666.6477712868686,
    "Average_passenger_waiting_time": 318.95554020132204,
    "Average_passenger_in_vehicle_time": 2347.692231085439,
    "Average_speed_busses": 0.04758333333333333,
    "Average_experienced_crowding": 110.07865965192565,
    "Average_covariation_headway": 0.25843071575404686,
    "Average_covariation_headway_stops": {
        "H": 0.21157229446195572,
        "G": 0.1952533358169979,
        "I": 0.20959040693542735,
        "F": 0.18237207151780171,
        "K": 0.16098609492708352,
        "C": 0.16058199399652376,
        "J": 0.17503926316633311,
        "L": 0.1304444518501829,
        "D": 0.15190897280443733,
        "A": 0.12440965728190127,
        "E": 0.1651583816478044,
        "B": 0.15127592326507602
    },
    "Average_excess_waiting_time": {
        "H": 53.9716921087296,
        "G": 53.950069262512216,
        "I": 51.43182205263054,
        "F": 54.44210287819146,
        "K": 45.96717897254115,
        "C": 50.53954541358729,
        "J": 49.215762538902425,
        "L": 44.76251679691478,
        "D": 51.51750635893035,
        "A": 46.25358536583411,
        "E": 54.49578169077182,
        "B": 50.66636539113563
    },
    "Holding_per_stop": {
        "H": 6.875,
        "I": 25,
        "G": 24.63157894736842,
        "K": 13.4375,
        "F": 14.042553191489361,
        "J": 20.625,
        "C": 3.1578947368421053,
        "L": 13.4375,
        "A": 6.947368421052632,
        "D": 4.787234042553192,
        "E": 26.80851063829787,
        "B": 3.473684210526316
    },
    "Actions_tfl_edges": {},
    "Load_per_bus_per_stop": {
        "bus3": {
            "H": 117,
            "I": 114.8125,
            "J": 108.8125,
            "K": 102.4375,
            "L": 92.75,
            "A": 85.0625,
            "B": 75.75,
            "C": 70,
            "D": 68.3125,
            "E": 68.1875,
            "F": 89.0625,
            "G": 118.46666666666667
        },
        "bus2": {
            "G": 124.5,
            "H": 135.75,
            "I": 132.375,
            "J": 127.125,
            "K": 118.1875,
            "L": 106.25,
            "A": 96,
            "B": 86.8125,
            "C": 81.5625,
            "D": 77.8125,
            "E": 77.66666666666667,
            "F": 100.13333333333334
        },
        "bus4": {
            "I": 114.3125,
            "J": 109.3125,
            "K": 101.8125,
            "L": 94.8125,
            "A": 86.0625,
            "B": 79.125,
            "C": 75.125,
            "D": 70.5625,
            "E": 67.875,
            "F": 88.125,
            "G": 117.75,
            "H": 125.6875
        },
        "bus1": {
            "F": 93.4375,
            "G": 125,
            "H": 133.9375,
            "I": 130.5625,
            "J": 124.125,
            "K": 115.25,
            "L": 106.4375,
            "A": 95.9375,
            "B": 86.3125,
            "C": 81.26666666666667,
            "D": 77.13333333333334,
            "E": 76.8
        },
        "bus5": {
            "K": 117.625,
            "L": 108.5,
            "A": 100.125,
            "B": 91.9375,
            "C": 89.6875,
            "D": 85.9375,
            "E": 83.9375,
            "F": 103.5,
            "G": 137.375,
            "H": 145.8125,
            "I": 143.3125,
            "J": 136
        },
        "bus0": {
            "C": 84.6875,
            "D": 80.6875,
            "E": 78,
            "F": 103.3125,
            "G": 142.5,
            "H": 149.3125,
            "I": 146.3125,
            "J": 140.125,
            "K": 131.125,
            "L": 118.6875,
            "A": 108.46666666666667,
            "B": 96.53333333333333
        }
    },
    "Obs_and_actions_busses": {
        "1": -0.8431878709240107,
        "2": 84.39330467128026,
        "0": -197.40220196988824,
        "5": 376.21374767293327
    },
    "Obs_and_actions_tfls": {}
}