{
    "Average_holding_time": 13.779527559055119,
    "Average_holding_actions": [
        819,
        186,
        117,
        0,
        21,
        0
    ],
    "Average_travel_time_passengers": 2605.6733329519666,
    "Average_passenger_waiting_time": 311.6802001768395,
    "Average_passenger_in_vehicle_time": 2293.993132774994,
    "Average_speed_busses": 0.047625,
    "Average_experienced_crowding": 105.01831679986742,
    "Average_covariation_headway": 0.23515704211677702,
    "Average_covariation_headway_stops": {
        "I": 0.15487762157461352,
        "E": 0.13261053335212641,
        "K": 0.11164448795991072,
        "L": 0.10836964162069972,
        "D": 0.13277952518233924,
        "A": 0.10672887515502268,
        "F": 0.11014622647293115,
        "J": 0.10524777699667637,
        "B": 0.08425990344069158,
        "G": 0.10781989074015166,
        "H": 0.12448701434153982,
        "C": 0.11246560641084867
    },
    "Average_excess_waiting_time": {
        "I": 49.45810694331914,
        "E": 45.45178147422371,
        "K": 45.75263925812038,
        "L": 43.83119054921235,
        "D": 47.208933201877585,
        "A": 42.321361867959524,
        "F": 45.31942870705387,
        "J": 46.988119349034775,
        "B": 43.14955347830221,
        "G": 46.39223188744762,
        "H": 48.87803655683763,
        "C": 47.07264570872064
    },
    "Holding_per_stop": {
        "E": 26.25,
        "L": 14.0625,
        "A": 8.125,
        "I": 25.263157894736842,
        "K": 13.263157894736842,
        "D": 3.473684210526316,
        "F": 16.105263157894736,
        "B": 2.210526315789474,
        "J": 26.526315789473685,
        "G": 22.736842105263158,
        "H": 3.1578947368421053,
        "C": 4.105263157894737
    },
    "Actions_tfl_edges": {},
    "Load_per_bus_per_stop": {
        "bus2": {
            "I": 127,
            "J": 121.875,
            "K": 114.1875,
            "L": 103.375,
            "A": 92.375,
            "B": 84.25,
            "C": 80,
            "D": 76.3125,
            "E": 74.6875,
            "F": 97.46666666666667,
            "G": 128.4,
            "H": 138.6
        },
        "bus1": {
            "E": 67.75,
            "F": 91.9375,
            "G": 123.4375,
            "H": 131,
            "I": 125.9375,
            "J": 119.25,
            "K": 110.9375,
            "L": 102.875,
            "A": 93.9375,
            "B": 86.1875,
            "C": 78.5625,
            "D": 73.66666666666667
        },
        "bus3": {
            "K": 103.4375,
            "L": 96,
            "A": 87.875,
            "B": 80.625,
            "C": 75.6875,
            "D": 72.75,
            "E": 70.0625,
            "F": 92.125,
            "G": 120.75,
            "H": 125.5625,
            "I": 123.86666666666666,
            "J": 118.73333333333333
        },
        "bus4": {
            "L": 96.5,
            "A": 89.4375,
            "B": 80.5,
            "C": 74,
            "D": 71.5625,
            "E": 70,
            "F": 92.75,
            "G": 125.25,
            "H": 131.75,
            "I": 127.125,
            "J": 121,
            "K": 112.33333333333333
        },
        "bus0": {
            "D": 71,
            "E": 70.8125,
            "F": 90.375,
            "G": 125.125,
            "H": 134.3125,
            "I": 129.5,
            "J": 122.125,
            "K": 113.3125,
            "L": 102.125,
            "A": 90.6875,
            "B": 81,
            "C": 75.93333333333334
        },
        "bus5": {
            "A": 90.3125,
            "B": 82.6875,
            "C": 78.875,
            "D": 75.1875,
            "E": 75.75,
            "F": 100.4375,
            "G": 134.75,
            "H": 141.5,
            "I": 136.9375,
            "J": 129.375,
            "K": 118.75,
            "L": 108.0625
        }
    },
    "Obs_and_actions_busses": {
        "5": 265.828505614474,
        "1": -6.9283168157019,
        "2": 73.4466225840311,
        "0": -198.19292443316988
    },
    "Obs_and_actions_tfls": {}
}fls": {}
}