{
    "Average_holding_time": 17.625,
    "Average_holding_actions": [
        875,
        0,
        174,
        45,
        26,
        0
    ],
    "Average_travel_time_passengers": 2711.553911451548,
    "Average_passenger_waiting_time": 354.85148142089537,
    "Average_passenger_in_vehicle_time": 2356.7024300305607,
    "Average_speed_busses": 0.04666666666666667,
    "Average_experienced_crowding": 119.02939335138855,
    "Average_covariation_headway": 0.36148237188497995,
    "Average_covariation_headway_stops": {
        "H": 0.39139975169702157,
        "G": 0.3463920636048584,
        "E": 0.3326268988576733,
        "F": 0.32161535430527793,
        "K": 0.3429940982976362,
        "L": 0.329918061898519,
        "I": 0.3872985377503752,
        "J": 0.3615739709670958,
        "A": 0.3090783366247291,
        "B": 0.2988252665281198,
        "C": 0.3042422977387292,
        "D": 0.32328194479851013
    },
    "Average_excess_waiting_time": {
        "H": 93.20728225929793,
        "G": 84.9207045050228,
        "E": 86.22406734431047,
        "F": 82.1435832693806,
        "K": 83.27418281237681,
        "L": 78.44809719882585,
        "I": 93.6915311313681,
        "J": 89.47286402149314,
        "A": 76.19679072021421,
        "B": 76.75750017572847,
        "C": 80.13261099096559,
        "D": 86.3679842834531
    },
    "Holding_per_stop": {
        "H": 11.808510638297872,
        "G": 25.483870967741936,
        "L": 16.27659574468085,
        "I": 30.319148936170212,
        "F": 22.580645161290324,
        "E": 25.806451612903224,
        "K": 21.06382978723404,
        "J": 18.387096774193548,
        "A": 9.893617021276595,
        "B": 9.03225806451613,
        "C": 11.612903225806452,
        "D": 9.130434782608695
    },
    "Actions_tfl_edges": {},
    "Load_per_bus_per_stop": {
        "bus3": {
            "H": 114.25,
            "I": 112.4375,
            "J": 108.3125,
            "K": 100.75,
            "L": 89.625,
            "A": 81.875,
            "B": 75.0625,
            "C": 68.5,
            "D": 64.46666666666667,
            "E": 64.46666666666667,
            "F": 85.13333333333334,
            "G": 113.26666666666667
        },
        "bus2": {
            "G": 117.4375,
            "H": 127.5625,
            "I": 122.8125,
            "J": 116.125,
            "K": 107.8125,
            "L": 98.375,
            "A": 87.5,
            "B": 78.06666666666666,
            "C": 73.53333333333333,
            "D": 70.53333333333333,
            "E": 68.2,
            "F": 93.8
        },
        "bus0": {
            "E": 80.6875,
            "F": 105.1875,
            "G": 144.625,
            "H": 150.75,
            "I": 148.0625,
            "J": 139.8,
            "K": 130.8,
            "L": 119.13333333333334,
            "A": 108.06666666666666,
            "B": 97.86666666666666,
            "C": 90.86666666666666,
            "D": 87.46666666666667
        },
        "bus1": {
            "F": 99.25,
            "G": 130.4375,
            "H": 139.625,
            "I": 136.5,
            "J": 128.5,
            "K": 118.3125,
            "L": 108.0625,
            "A": 99.06666666666666,
            "B": 90.33333333333333,
            "C": 85.53333333333333,
            "D": 84.4,
            "E": 80.06666666666666
        },
        "bus4": {
            "K": 91.3125,
            "L": 84.9375,
            "A": 77.5,
            "B": 70.4375,
            "C": 66.6875,
            "D": 64.375,
            "E": 63.125,
            "F": 81.86666666666666,
            "G": 109.8,
            "H": 115.8,
            "I": 112.66666666666667,
            "J": 104.66666666666667
        },
        "bus5": {
            "L": 124.4375,
            "A": 112.5625,
            "B": 100.3125,
            "C": 95.25,
            "D": 90.625,
            "E": 90.875,
            "F": 118.5,
            "G": 155.1875,
            "H": 166.53333333333333,
            "I": 163.46666666666667,
            "J": 153.8,
            "K": 143.2
        }
    },
    "Obs_and_actions_busses": {
        "0": -204.52510811464654,
        "2": 67.8774732085509,
        "5": 199.92651969850846,
        "4": 563.3392568152492
    },
    "Obs_and_actions_tfls": {}
}