{
    "Average_holding_time": 13.569553805774278,
    "Average_holding_actions": [
        937,
        0,
        135,
        0,
        17,
        0
    ],
    "Average_travel_time_passengers": 2641.6727379489394,
    "Average_passenger_waiting_time": 328.141352376013,
    "Average_passenger_in_vehicle_time": 2313.531385572815,
    "Average_speed_busses": 0.047625,
    "Average_experienced_crowding": 110.99133392085011,
    "Average_covariation_headway": 0.35182069926588694,
    "Average_covariation_headway_stops": {
        "G": 0.2692757925678012,
        "I": 0.280322258902591,
        "F": 0.24716803157698483,
        "J": 0.26894225237708175,
        "K": 0.2544583378970764,
        "H": 0.27027852011020864,
        "C": 0.2455644759011358,
        "L": 0.2370998574595009,
        "D": 0.23765626884398605,
        "A": 0.23018009695568697,
        "E": 0.2435271234687182,
        "B": 0.2437469339451484
    },
    "Average_excess_waiting_time": {
        "G": 64.10066142368157,
        "I": 65.02962081624571,
        "F": 63.009835915412225,
        "J": 61.531054204881514,
        "K": 57.37006381451528,
        "H": 65.6395834747479,
        "C": 60.45441026977727,
        "L": 56.143975035297274,
        "D": 61.165658410630954,
        "A": 57.01512205532697,
        "E": 64.36228636273427,
        "B": 61.377012180131544
    },
    "Holding_per_stop": {
        "G": 20.210526315789473,
        "I": 21.157894736842106,
        "J": 21.875,
        "K": 13.608247422680412,
        "H": 13.263157894736842,
        "F": 19.78723404255319,
        "C": 6.631578947368421,
        "L": 7.8125,
        "D": 7.894736842105263,
        "A": 7.1875,
        "E": 17.5531914893617,
        "B": 6
    },
    "Actions_tfl_edges": {},
    "Load_per_bus_per_stop": {
        "bus2": {
            "G": 126.6875,
            "H": 135.25,
            "I": 129.1875,
            "J": 122.875,
            "K": 116.0625,
            "L": 107.0625,
            "A": 99.5,
            "B": 90.5,
            "C": 85.875,
            "D": 82.0625,
            "E": 82.53333333333333,
            "F": 103.73333333333333
        },
        "bus3": {
            "I": 114.125,
            "J": 108.1875,
            "K": 102.6875,
            "L": 94,
            "A": 85.125,
            "B": 76.4375,
            "C": 71.375,
            "D": 70.5,
            "E": 69.25,
            "F": 91.1875,
            "G": 119.53333333333333,
            "H": 126.33333333333333
        },
        "bus1": {
            "F": 95.3125,
            "G": 131.6875,
            "H": 142.0625,
            "I": 137.8125,
            "J": 130.625,
            "K": 122.5,
            "L": 112.5625,
            "A": 102.25,
            "B": 91.75,
            "C": 84.73333333333333,
            "D": 79.33333333333333,
            "E": 76.73333333333333
        },
        "bus4": {
            "J": 88,
            "K": 81.5625,
            "L": 75.8125,
            "A": 68.5,
            "B": 62.875,
            "C": 58.5,
            "D": 57.25,
            "E": 56.75,
            "F": 75.0625,
            "G": 100.75,
            "H": 103.125,
            "I": 100.75
        },
        "bus5": {
            "K": 119.23529411764706,
            "L": 107.6875,
            "A": 98.375,
            "B": 89.75,
            "C": 85.5,
            "D": 82.5625,
            "E": 81.0625,
            "F": 104.5,
            "G": 142.9375,
            "H": 153.125,
            "I": 146.3125,
            "J": 137.75
        },
        "bus0": {
            "C": 84.3125,
            "D": 79.6875,
            "E": 80.75,
            "F": 105.25,
            "G": 142.5625,
            "H": 150.5625,
            "I": 145.625,
            "J": 138.5625,
            "K": 127.6875,
            "L": 115.9375,
            "A": 105.75,
            "B": 94.6
        }
    },
    "Obs_and_actions_busses": {
        "0": -178.33826293121848,
        "3": 254.14307359028723,
        "5": 328.2436764584471,
        "2": 90.33784328677336
    },
    "Obs_and_actions_tfls": {}
}},
    "Obs_and_actions_tfls": {}
}