{
    "Average_holding_time": 10.008620689655173,
    "Average_holding_actions": [
        989,
        0,
        154,
        0,
        14,
        0
    ],
    "Average_travel_time_passengers": 2596.4930030784776,
    "Average_passenger_waiting_time": 316.03020249450657,
    "Average_passenger_in_vehicle_time": 2280.462800583836,
    "Average_speed_busses": 0.04833333333333333,
    "Average_experienced_crowding": 107.05911394232557,
    "Average_covariation_headway": 0.330767780658006,
    "Average_covariation_headway_stops": {
        "E": 0.21839138155506474,
        "F": 0.21784576554566998,
        "J": 0.20878655904502572,
        "D": 0.20458406498001555,
        "A": 0.1979759544684863,
        "C": 0.1947381170406544,
        "G": 0.21174469860406755,
        "K": 0.18850199072698992,
        "H": 0.20943616454851433,
        "B": 0.19404112384867048,
        "L": 0.19011629057496743,
        "I": 0.2082495328775437
    },
    "Average_excess_waiting_time": {
        "E": 50.39698297804608,
        "F": 48.646766905496975,
        "J": 49.34313482577841,
        "D": 50.237223084543416,
        "A": 49.49933665338227,
        "C": 50.54490805249128,
        "G": 49.0002008062761,
        "K": 48.374921677941245,
        "H": 50.01202978729651,
        "B": 51.369328183029154,
        "L": 50.07441266745002,
        "I": 51.05441997161904
    },
    "Holding_per_stop": {
        "J": 11.1340206185567,
        "E": 16.391752577319586,
        "F": 17.31958762886598,
        "A": 1.8556701030927836,
        "D": 6.494845360824742,
        "C": 5,
        "G": 19.484536082474225,
        "K": 7.422680412371134,
        "H": 8.65979381443299,
        "B": 6.25,
        "L": 3.75,
        "I": 16.25
    },
    "Actions_tfl_edges": {},
    "Load_per_bus_per_stop": {
        "bus2": {
            "E": 60.88235294117647,
            "F": 80.82352941176471,
            "G": 107,
            "H": 112.125,
            "I": 108.75,
            "J": 103.9375,
            "K": 95.125,
            "L": 87.375,
            "A": 80.1875,
            "B": 72.875,
            "C": 69.4375,
            "D": 66.25
        },
        "bus3": {
            "F": 92.29411764705883,
            "G": 124.58823529411765,
            "H": 131.8235294117647,
            "I": 128.8235294117647,
            "J": 121,
            "K": 112.8125,
            "L": 104.1875,
            "A": 94,
            "B": 84.6875,
            "C": 79,
            "D": 75,
            "E": 74.375
        },
        "bus4": {
            "J": 97.41176470588235,
            "K": 89.94117647058823,
            "L": 81.8125,
            "A": 75.1875,
            "B": 68.0625,
            "C": 63.875,
            "D": 65.1875,
            "E": 63.5625,
            "F": 83.6875,
            "G": 109.875,
            "H": 115.625,
            "I": 110.5625
        },
        "bus1": {
            "D": 72.23529411764706,
            "E": 70.5625,
            "F": 96.375,
            "G": 127.5,
            "H": 135.9375,
            "I": 132.75,
            "J": 124.8125,
            "K": 118.25,
            "L": 109.4375,
            "A": 98.25,
            "B": 87.4375,
            "C": 80.4375
        },
        "bus5": {
            "A": 104.76470588235294,
            "B": 94.3125,
            "C": 89.1875,
            "D": 87.375,
            "E": 86.0625,
            "F": 109.8125,
            "G": 147.0625,
            "H": 155,
            "I": 148.75,
            "J": 142,
            "K": 131.875,
            "L": 121.8125
        },
        "bus0": {
            "C": 77.1875,
            "D": 75.875,
            "E": 76.3125,
            "F": 101.125,
            "G": 133.8125,
            "H": 139.5625,
            "I": 138.5625,
            "J": 130.8125,
            "K": 119.125,
            "L": 107.875,
            "A": 97.5625,
            "B": 87.5625
        }
    },
    "Obs_and_actions_busses": {
        "0": -162.50935472383145,
        "2": 120.9490368120837,
        "5": 324.47605826810087,
        "3": 222.74771416631663
    },
    "Obs_and_actions_tfls": {}
}      "0": -159.9659320445797,
        "5": 292.79866566692345,
        "3": 224.81969468601224
    },
    "Obs_and_actions_tfls": {}
}