{
    "Average_holding_time": 11.064935064935066,
    "Average_holding_actions": [
        986,
        0,
        117,
        0,
        18,
        0
    ],
    "Average_travel_time_passengers": 2625.2625471786837,
    "Average_passenger_waiting_time": 316.0928460616169,
    "Average_passenger_in_vehicle_time": 2309.1697011169404,
    "Average_speed_busses": 0.048125,
    "Average_experienced_crowding": 108.00872379409857,
    "Average_covariation_headway": 0.3223951315590402,
    "Average_covariation_headway_stops": {
        "E": 0.20928674783271178,
        "F": 0.2050245764032777,
        "J": 0.20036397003448644,
        "L": 0.17382780684386437,
        "D": 0.20315375940158922,
        "A": 0.1757259878713775,
        "G": 0.1944179031528991,
        "H": 0.1939064592916483,
        "K": 0.1714004930443283,
        "B": 0.1702822928315168,
        "I": 0.19755600231521847,
        "C": 0.18549952280319354
    },
    "Average_excess_waiting_time": {
        "E": 50.762028997174355,
        "F": 49.05210058136555,
        "J": 50.620733116612826,
        "L": 47.251144890625426,
        "D": 51.6595448906877,
        "A": 45.954017980821675,
        "G": 49.11005310303261,
        "H": 50.537524966066485,
        "K": 48.859849800284906,
        "B": 47.17774837689666,
        "I": 52.30694247692833,
        "C": 50.99070758071787
    },
    "Holding_per_stop": {
        "E": 18.8659793814433,
        "F": 14.22680412371134,
        "A": 4.020618556701031,
        "J": 16.25,
        "L": 5.625,
        "D": 5.3125,
        "G": 24.0625,
        "H": 7.5,
        "B": 2.8125,
        "K": 13.75,
        "I": 18.125,
        "C": 2.1875
    },
    "Actions_tfl_edges": {},
    "Load_per_bus_per_stop": {
        "bus1": {
            "E": 71.70588235294117,
            "F": 94,
            "G": 123.5625,
            "H": 129.4375,
            "I": 125.25,
            "J": 118.875,
            "K": 111.375,
            "L": 100.25,
            "A": 89.375,
            "B": 80.1875,
            "C": 76.9375,
            "D": 76.25
        },
        "bus2": {
            "F": 90.52941176470588,
            "G": 122.41176470588235,
            "H": 129.5625,
            "I": 124.1875,
            "J": 117.125,
            "K": 110.75,
            "L": 103.8125,
            "A": 96.0625,
            "B": 85.8125,
            "C": 79.9375,
            "D": 74.875,
            "E": 72.4375
        },
        "bus3": {
            "J": 119.9375,
            "K": 113.1875,
            "L": 105.1875,
            "A": 95.5625,
            "B": 85.9375,
            "C": 83,
            "D": 79.625,
            "E": 76.4375,
            "F": 99.3125,
            "G": 130.6875,
            "H": 140.25,
            "I": 137.4375
        },
        "bus4": {
            "L": 87.5,
            "A": 79.75,
            "B": 71.5,
            "C": 66.875,
            "D": 63.1875,
            "E": 64.625,
            "F": 85.4375,
            "G": 112.125,
            "H": 118.5,
            "I": 113.125,
            "J": 107.875,
            "K": 101.5625
        },
        "bus0": {
            "D": 75.4375,
            "E": 75.375,
            "F": 98.75,
            "G": 132.8125,
            "H": 141.0625,
            "I": 136.8125,
            "J": 128.5,
            "K": 119.375,
            "L": 109.625,
            "A": 98.125,
            "B": 89.625,
            "C": 85.375
        },
        "bus5": {
            "A": 95.58823529411765,
            "B": 87.125,
            "C": 81.3125,
            "D": 78.375,
            "E": 77.875,
            "F": 100.8125,
            "G": 133,
            "H": 140.4375,
            "I": 136.375,
            "J": 130.1875,
            "K": 120.9375,
            "L": 111.875
        }
    },
    "Obs_and_actions_busses": {
        "5": 304.7066867514903,
        "2": 90.78620035201978,
        "0": -165.43843261949954,
        "3": 211.130225798891
    },
    "Obs_and_actions_tfls": {}
}