{
    "Average_holding_time": 11.760624457935819,
    "Average_holding_actions": [
        886,
        142,
        105,
        0,
        20,
        0
    ],
    "Average_travel_time_passengers": 2593.649809821698,
    "Average_passenger_waiting_time": 309.7350602667273,
    "Average_passenger_in_vehicle_time": 2283.914749554809,
    "Average_speed_busses": 0.04804166666666667,
    "Average_experienced_crowding": 104.2109829797017,
    "Average_covariation_headway": 0.23332843035853243,
    "Average_covariation_headway_stops": {
        "H": 0.13718862287869177,
        "I": 0.13636267254072557,
        "F": 0.1182245635794997,
        "J": 0.135045938149132,
        "D": 0.12497402152138924,
        "A": 0.09052357687574467,
        "K": 0.09541544346545232,
        "G": 0.1089593597679372,
        "B": 0.07405718069173112,
        "E": 0.10483546308614504,
        "L": 0.08218387486626792,
        "C": 0.10332842138393582
    },
    "Average_excess_waiting_time": {
        "H": 44.988775153177016,
        "I": 42.84111365041201,
        "F": 44.440362891578445,
        "J": 41.2626637831666,
        "D": 44.94095224591098,
        "A": 39.8531537699256,
        "K": 39.980172210735134,
        "G": 44.786301600628974,
        "B": 41.16323777550963,
        "E": 44.9500263881456,
        "L": 40.84065922193605,
        "C": 44.92205949415751
    },
    "Holding_per_stop": {
        "I": 21.34020618556701,
        "J": 16.701030927835053,
        "H": 6.5625,
        "A": 4.948453608247423,
        "F": 14.375,
        "D": 2.1875,
        "K": 12.371134020618557,
        "B": 0.625,
        "L": 13.125,
        "E": 25.57894736842105,
        "G": 22.736842105263158,
        "C": 0.631578947368421
    },
    "Actions_tfl_edges": {},
    "Load_per_bus_per_stop": {
        "bus2": {
            "H": 127.3125,
            "I": 123.625,
            "J": 116.4375,
            "K": 107.375,
            "L": 99,
            "A": 88.6875,
            "B": 82.0625,
            "C": 78.375,
            "D": 74.5,
            "E": 73.75,
            "F": 95.5625,
            "G": 129.66666666666666
        },
        "bus3": {
            "I": 120.23529411764706,
            "J": 111.25,
            "K": 103.5625,
            "L": 95.125,
            "A": 86.4375,
            "B": 78.375,
            "C": 72.8125,
            "D": 70.1875,
            "E": 69.4375,
            "F": 93.125,
            "G": 124.1875,
            "H": 130.8125
        },
        "bus1": {
            "F": 87.3125,
            "G": 118.6875,
            "H": 127.125,
            "I": 127.1875,
            "J": 122.9375,
            "K": 113.4375,
            "L": 104.0625,
            "A": 93.6875,
            "B": 84.9375,
            "C": 78.3125,
            "D": 74.875,
            "E": 71.73333333333333
        },
        "bus4": {
            "J": 117.3529411764706,
            "K": 109.6470588235294,
            "L": 101.125,
            "A": 91.5,
            "B": 83.625,
            "C": 79.375,
            "D": 75.6875,
            "E": 76.375,
            "F": 98.625,
            "G": 129.5,
            "H": 136.8125,
            "I": 132.4375
        },
        "bus0": {
            "D": 72.625,
            "E": 69.875,
            "F": 93.4375,
            "G": 127.8125,
            "H": 136.625,
            "I": 130.125,
            "J": 122.8125,
            "K": 114.375,
            "L": 106.5,
            "A": 97.25,
            "B": 87.4375,
            "C": 82.06666666666666
        },
        "bus5": {
            "A": 88.76470588235294,
            "B": 79.0625,
            "C": 76.4375,
            "D": 73.5,
            "E": 72.6875,
            "F": 94.125,
            "G": 125,
            "H": 131.75,
            "I": 130.0625,
            "J": 122.8125,
            "K": 115.5,
            "L": 105.125
        }
    },
    "Obs_and_actions_busses": {
        "5": 201.15336319502626,
        "2": 65.71081428260098,
        "0": -189.4553425964272,
        "1": 2.3106878487910554
    },
    "Obs_and_actions_tfls": {}
}