{
    "Average_holding_time": 8.65236051502146,
    "Average_holding_actions": [
        893,
        256,
        0,
        0,
        16,
        0
    ],
    "Average_travel_time_passengers": 2571.734023678504,
    "Average_passenger_waiting_time": 306.67845322320136,
    "Average_passenger_in_vehicle_time": 2265.0555704551302,
    "Average_speed_busses": 0.048541666666666664,
    "Average_experienced_crowding": 104.12506132147779,
    "Average_covariation_headway": 0.2321089027648964,
    "Average_covariation_headway_stops": {
        "H": 0.1451792163027777,
        "G": 0.12453182559122496,
        "I": 0.147910857640936,
        "D": 0.10680072171025733,
        "B": 0.12839705741270577,
        "C": 0.11225844412940623,
        "J": 0.10154648113882334,
        "E": 0.08820004468606697,
        "K": 0.07356754221379377,
        "F": 0.08051166363404395,
        "L": 0.08741335681999057,
        "A": 0.11579556165262658
    },
    "Average_excess_waiting_time": {
        "H": 40.61549853907661,
        "G": 41.061422899070806,
        "I": 39.24695415845093,
        "D": 38.582335583503095,
        "B": 42.637332141772106,
        "C": 40.30704698316674,
        "J": 37.220657407207284,
        "E": 38.900404566982616,
        "K": 37.168724562785485,
        "F": 40.311632386377255,
        "L": 39.434807236469794,
        "A": 42.85610070749544
    },
    "Holding_per_stop": {
        "H": 3.061224489795918,
        "I": 13.16326530612245,
        "G": 12.68041237113402,
        "D": 1.5463917525773196,
        "C": 1.8556701030927836,
        "J": 14.081632653061224,
        "B": 1.5463917525773196,
        "E": 12.68041237113402,
        "K": 14.22680412371134,
        "L": 11.75257731958763,
        "F": 11.875,
        "A": 5.3125
    },
    "Actions_tfl_edges": {},
    "Load_per_bus_per_stop": {
        "bus4": {
            "H": 124.70588235294117,
            "I": 119.88235294117646,
            "J": 112.94117647058823,
            "K": 103.375,
            "L": 93.5625,
            "A": 86.25,
            "B": 79.375,
            "C": 76.125,
            "D": 72.9375,
            "E": 71.875,
            "F": 92.625,
            "G": 125.125
        },
        "bus3": {
            "G": 118.23529411764706,
            "H": 126.41176470588235,
            "I": 124.9375,
            "J": 118.9375,
            "K": 112,
            "L": 102.8125,
            "A": 91,
            "B": 81.625,
            "C": 75.75,
            "D": 75.125,
            "E": 73.8125,
            "F": 95.4375
        },
        "bus5": {
            "I": 121.17647058823529,
            "J": 113.94117647058823,
            "K": 106.70588235294117,
            "L": 97.47058823529412,
            "A": 86.4375,
            "B": 76.875,
            "C": 72.9375,
            "D": 70.25,
            "E": 68.875,
            "F": 91.5,
            "G": 123.4375,
            "H": 130.375
        },
        "bus2": {
            "D": 72.82352941176471,
            "E": 73.47058823529412,
            "F": 96.4375,
            "G": 127.5,
            "H": 135.9375,
            "I": 134.125,
            "J": 127.6875,
            "K": 118.625,
            "L": 106.6875,
            "A": 95.375,
            "B": 85.75,
            "C": 80.5
        },
        "bus0": {
            "B": 84.52941176470588,
            "C": 79.625,
            "D": 76,
            "E": 73.625,
            "F": 95.0625,
            "G": 125.4375,
            "H": 133.25,
            "I": 129.75,
            "J": 124.125,
            "K": 115.6875,
            "L": 106.625,
            "A": 97.5
        },
        "bus1": {
            "C": 72.58823529411765,
            "D": 69.9375,
            "E": 70.3125,
            "F": 92.5625,
            "G": 126.875,
            "H": 133.1875,
            "I": 131.125,
            "J": 124.9375,
            "K": 114.875,
            "L": 104.625,
            "A": 94.3125,
            "B": 84.6875
        }
    },
    "Obs_and_actions_busses": {
        "1": 27.596311216614037,
        "5": 364.03855939838763,
        "0": -193.12763989647456
    },
    "Obs_and_actions_tfls": {}
}