{
    "Average_holding_time": 43.75964718853363,
    "Average_holding_actions": [
        146,
        458,
        44,
        0,
        0,
        0
    ],
    "Average_travel_time_passengers": 3606.686409804839,
    "Average_passenger_waiting_time": 681.2566060219748,
    "Average_passenger_in_vehicle_time": 2925.4298037826957,
    "Average_speed_busses": 0.03779166666666667,
    "Average_experienced_crowding": 230.53172303361833,
    "Average_covariation_headway": 1.040063014506397,
    "Average_covariation_headway_stops": {
        "H": 0.882304466176955,
        "E": 0.9219842290479684,
        "J": 0.9105613651114494,
        "K": 0.9122577636349183,
        "L": 0.9260333454781833,
        "A": 0.9258578953584575,
        "I": 0.9040167931615678,
        "F": 0.8631418991421477,
        "B": 0.9137063144542891,
        "G": 0.7987408141445358,
        "C": 0.907008668672723,
        "D": 0.9169094432186742
    },
    "Average_excess_waiting_time": {
        "H": 428.72169570793875,
        "E": 437.9036032276928,
        "J": 448.9217075983932,
        "K": 445.4757478549141,
        "L": 439.49629433724425,
        "A": 435.7372422299699,
        "I": 448.8505295508225,
        "F": 403.97252888596535,
        "B": 432.6525913622399,
        "G": 388.60452401037827,
        "C": 434.0905035567417,
        "D": 438.8014898561178
    },
    "Holding_per_stop": {
        "H": 42.567567567567565,
        "L": 46.578947368421055,
        "K": 42.63157894736842,
        "J": 38.4,
        "A": 42.077922077922075,
        "E": 49.87012987012987,
        "I": 54.32432432432432,
        "B": 38.18181818181818,
        "F": 41.05263157894737,
        "G": 40.68493150684932,
        "C": 35.921052631578945,
        "D": 52.89473684210526
    },
    "Actions_tfl_edges": {},
    "Load_per_bus_per_stop": {
        "bus1": {
            "H": 252.84615384615384,
            "I": 245.53846153846155,
            "J": 235.46153846153845,
            "K": 218.69230769230768,
            "L": 201.6153846153846,
            "A": 184.15384615384616,
            "B": 166,
            "C": 156.15384615384616,
            "D": 151.41666666666666,
            "E": 150,
            "F": 197.58333333333334,
            "G": 257
        },
        "bus0": {
            "E": 170.3846153846154,
            "F": 225.46153846153845,
            "G": 301.61538461538464,
            "H": 326.53846153846155,
            "I": 317.9230769230769,
            "J": 298.7692307692308,
            "K": 275.15384615384613,
            "L": 256.75,
            "A": 233.41666666666666,
            "B": 209.41666666666666,
            "C": 195.58333333333334,
            "D": 190
        },
        "bus2": {
            "J": 14.615384615384615,
            "K": 12.846153846153847,
            "L": 12.153846153846153,
            "A": 11.076923076923077,
            "B": 10.384615384615385,
            "C": 10.384615384615385,
            "D": 10.307692307692308,
            "E": 10.384615384615385,
            "F": 13.076923076923077,
            "G": 16.416666666666668,
            "H": 16.5,
            "I": 16.083333333333332
        },
        "bus3": {
            "K": 11.615384615384615,
            "L": 10.384615384615385,
            "A": 9.615384615384615,
            "B": 8.846153846153847,
            "C": 8.615384615384615,
            "D": 8.538461538461538,
            "E": 8.615384615384615,
            "F": 11.615384615384615,
            "G": 16.75,
            "H": 17.166666666666668,
            "I": 15.833333333333334,
            "J": 13.833333333333334
        },
        "bus4": {
            "L": 33.53846153846154,
            "A": 29.76923076923077,
            "B": 26.153846153846153,
            "C": 23.846153846153847,
            "D": 20.615384615384617,
            "E": 18.615384615384617,
            "F": 29.76923076923077,
            "G": 49.833333333333336,
            "H": 52.083333333333336,
            "I": 48.5,
            "J": 45.25,
            "K": 40.833333333333336
        },
        "bus5": {
            "A": 219.6153846153846,
            "B": 198.23076923076923,
            "C": 189.30769230769232,
            "D": 183.3846153846154,
            "E": 181,
            "F": 234.84615384615384,
            "G": 318.0769230769231,
            "H": 333.6666666666667,
            "I": 325.4166666666667,
            "J": 306.5833333333333,
            "K": 283,
            "L": 258.6666666666667
        }
    },
    "Obs_and_actions_busses": {
        "3": 697.0202410888473,
        "2": 52.81343927568097,
        "0": -132.2342027228778,
        "1": -463.5379794658518
    },
    "Obs_and_actions_tfls": {}
}