{
    "Average_holding_time": 12.02608695652174,
    "Average_holding_actions": [
        881,
        128,
        124,
        0,
        17,
        0
    ],
    "Average_travel_time_passengers": 2601.5718586759235,
    "Average_passenger_waiting_time": 310.4931589148222,
    "Average_passenger_in_vehicle_time": 2291.078699760971,
    "Average_speed_busses": 0.04791666666666667,
    "Average_experienced_crowding": 104.93821511810205,
    "Average_covariation_headway": 0.2349913326669317,
    "Average_covariation_headway_stops": {
        "H": 0.15065345985351145,
        "G": 0.14590764641976067,
        "E": 0.13106986563697276,
        "F": 0.1252567965064265,
        "I": 0.13672781510117152,
        "A": 0.11775703920393986,
        "B": 0.10091450543262037,
        "J": 0.1027328857701037,
        "C": 0.07342744502792567,
        "K": 0.0903585617438345,
        "L": 0.10687023499883562,
        "D": 0.10101923949959712
    },
    "Average_excess_waiting_time": {
        "H": 42.48054231044648,
        "G": 44.08995151085202,
        "E": 46.46015333482666,
        "F": 44.24871737246826,
        "I": 42.525055028886584,
        "A": 44.50139782812607,
        "B": 42.20336279295475,
        "J": 41.653996086446796,
        "C": 42.804997625120336,
        "K": 42.544048329422935,
        "L": 44.955630649524664,
        "D": 46.14224608943573
    },
    "Holding_per_stop": {
        "H": 2.783505154639175,
        "G": 22.5,
        "I": 25.670103092783506,
        "F": 14.0625,
        "B": 2.1875,
        "E": 27.473684210526315,
        "A": 6.5625,
        "J": 16.5625,
        "C": 2.210526315789474,
        "K": 11.5625,
        "L": 11.052631578947368,
        "D": 1.5789473684210527
    },
    "Actions_tfl_edges": {},
    "Load_per_bus_per_stop": {
        "bus4": {
            "H": 125.94117647058823,
            "I": 123.05882352941177,
            "J": 114.1875,
            "K": 108.125,
            "L": 97.8125,
            "A": 88.6875,
            "B": 79.6875,
            "C": 75.3125,
            "D": 71.375,
            "E": 70.375,
            "F": 92.9375,
            "G": 128.25
        },
        "bus3": {
            "G": 118.6470588235294,
            "H": 124.5625,
            "I": 120.1875,
            "J": 114.125,
            "K": 107.5,
            "L": 99.3125,
            "A": 91.125,
            "B": 81.6875,
            "C": 74.8125,
            "D": 72.75,
            "E": 72.0625,
            "F": 95.25
        },
        "bus1": {
            "E": 70.6875,
            "F": 90.1875,
            "G": 123.6875,
            "H": 133.25,
            "I": 128.0625,
            "J": 123.8125,
            "K": 115.25,
            "L": 107.75,
            "A": 97.4375,
            "B": 87.625,
            "C": 81.4375,
            "D": 78.06666666666666
        },
        "bus2": {
            "F": 88.875,
            "G": 117.625,
            "H": 125.8125,
            "I": 122.9375,
            "J": 116.375,
            "K": 107.4375,
            "L": 96.375,
            "A": 87.75,
            "B": 79.0625,
            "C": 74.125,
            "D": 70,
            "E": 69.25
        },
        "bus5": {
            "A": 94.75,
            "B": 85.875,
            "C": 79.4375,
            "D": 76.4375,
            "E": 74.75,
            "F": 100,
            "G": 131.25,
            "H": 137.4375,
            "I": 132.25,
            "J": 127.5625,
            "K": 119.625,
            "L": 110.66666666666667
        },
        "bus0": {
            "B": 81.3125,
            "C": 74.75,
            "D": 74.8125,
            "E": 73.375,
            "F": 96.625,
            "G": 131.25,
            "H": 139.9375,
            "I": 136.5625,
            "J": 129.25,
            "K": 119.75,
            "L": 109.5,
            "A": 100.0625
        }
    },
    "Obs_and_actions_busses": {
        "0": -191.49612955799932,
        "2": 65.57157580911588,
        "1": -0.42677218931410604,
        "5": 310.7268101678576
    },
    "Obs_and_actions_tfls": {}
}