{
    "Average_holding_time": 11.85378590078329,
    "Average_holding_actions": [
        890,
        98,
        127,
        0,
        0,
        0
    ],
    "Average_travel_time_passengers": 2611.3227424595243,
    "Average_passenger_waiting_time": 307.6431571952814,
    "Average_passenger_in_vehicle_time": 2303.679585264099,
    "Average_speed_busses": 0.047875,
    "Average_experienced_crowding": 105.26161222278691,
    "Average_covariation_headway": 0.2223649122322511,
    "Average_covariation_headway_stops": {
        "G": 0.12136937977917102,
        "F": 0.09624727177626503,
        "K": 0.09107481780779483,
        "H": 0.10038301390669911,
        "D": 0.0825899237043213,
        "A": 0.07296171388975235,
        "B": 0.06933142295152094,
        "I": 0.09160359178038346,
        "L": 0.0645610322964769,
        "E": 0.06658309958417756,
        "J": 0.06948061803632893,
        "C": 0.05361639417839895
    },
    "Average_excess_waiting_time": {
        "G": 41.87061125999844,
        "F": 42.199302918718274,
        "K": 42.11673832234038,
        "H": 41.63921507507928,
        "D": 41.43272896709749,
        "A": 41.42785356253489,
        "B": 40.30070487489013,
        "I": 42.288246399674165,
        "L": 42.34827655590885,
        "E": 42.14253082260956,
        "J": 42.89419662797502,
        "C": 41.80222830266007
    },
    "Holding_per_stop": {
        "G": 25,
        "H": 2.1875,
        "K": 17.8125,
        "F": 6.25,
        "B": 0.625,
        "A": 5.625,
        "D": 0.9375,
        "I": 19.0625,
        "L": 13.578947368421053,
        "J": 18.31578947368421,
        "E": 32.8421052631579,
        "C": 0.3125
    },
    "Actions_tfl_edges": {},
    "Load_per_bus_per_stop": {
        "bus3": {
            "G": 119.3529411764706,
            "H": 126.5625,
            "I": 121.8125,
            "J": 115.75,
            "K": 108.8125,
            "L": 100.6875,
            "A": 91.5625,
            "B": 81.6875,
            "C": 74,
            "D": 70.5,
            "E": 67.4375,
            "F": 92.25
        },
        "bus2": {
            "F": 90.375,
            "G": 123.875,
            "H": 131.375,
            "I": 128.5625,
            "J": 120.8125,
            "K": 111.4375,
            "L": 104.0625,
            "A": 95.25,
            "B": 85.625,
            "C": 80,
            "D": 77.3125,
            "E": 73.625
        },
        "bus4": {
            "K": 104.4375,
            "L": 97.3125,
            "A": 88.25,
            "B": 80.625,
            "C": 77.8125,
            "D": 75.9375,
            "E": 75.0625,
            "F": 97.6875,
            "G": 131,
            "H": 135.875,
            "I": 130.125,
            "J": 120.4
        },
        "bus1": {
            "D": 75.3125,
            "E": 72.3125,
            "F": 94.875,
            "G": 131.0625,
            "H": 138.5625,
            "I": 137.5625,
            "J": 131.25,
            "K": 119.25,
            "L": 110,
            "A": 100.3125,
            "B": 91.5,
            "C": 84.1875
        },
        "bus5": {
            "A": 89.5625,
            "B": 80.625,
            "C": 74.8125,
            "D": 71.75,
            "E": 69.75,
            "F": 91.3125,
            "G": 125.375,
            "H": 134.125,
            "I": 129.5625,
            "J": 121.8125,
            "K": 114.1875,
            "L": 104.5
        },
        "bus0": {
            "B": 81.8125,
            "C": 77.9375,
            "D": 72.625,
            "E": 72.375,
            "F": 93.75,
            "G": 126,
            "H": 134.6875,
            "I": 131.5,
            "J": 124.9375,
            "K": 114.5,
            "L": 104.5,
            "A": 95.625
        }
    },
    "Obs_and_actions_busses": {
        "0": -180.5259753409173,
        "2": 41.40071296175332,
        "1": -8.1910158592963,
        "3": 121.9264318635063
    },
    "Obs_and_actions_tfls": {}
}