{
    "Average_holding_time": 7.198975234842015,
    "Average_holding_actions": [
        1053,
        0,
        85,
        0,
        6,
        0
    ],
    "Average_travel_time_passengers": 2579.2068536204365,
    "Average_passenger_waiting_time": 306.815677468632,
    "Average_passenger_in_vehicle_time": 2272.391176151648,
    "Average_speed_busses": 0.048791666666666664,
    "Average_experienced_crowding": 104.45666386818355,
    "Average_covariation_headway": 0.27050005121083603,
    "Average_covariation_headway_stops": {
        "H": 0.17969238460302003,
        "I": 0.18647115099134848,
        "E": 0.1753541092643041,
        "F": 0.1620787192488983,
        "K": 0.14793384836494008,
        "B": 0.13529875914701683,
        "G": 0.15829774297112661,
        "J": 0.15037395647266816,
        "L": 0.12827976831882376,
        "C": 0.12593685112760192,
        "A": 0.1300131175229192,
        "D": 0.15106242323813776
    },
    "Average_excess_waiting_time": {
        "H": 43.3271730458701,
        "I": 42.082830640900795,
        "E": 45.20781006586998,
        "F": 42.18583217288125,
        "K": 38.08391371986232,
        "B": 38.62423290878877,
        "G": 43.09748067428518,
        "J": 40.03656876795901,
        "L": 37.53792317652483,
        "C": 40.13716636068466,
        "A": 39.405181491288886,
        "D": 44.078251068935685
    },
    "Holding_per_stop": {
        "I": 11.938775510204081,
        "H": 3.36734693877551,
        "K": 6.122448979591836,
        "F": 9.896907216494846,
        "E": 20.412371134020617,
        "B": 3.36734693877551,
        "J": 10.714285714285714,
        "G": 12.989690721649485,
        "L": 1.836734693877551,
        "C": 0,
        "A": 3.061224489795918,
        "D": 2.783505154639175
    },
    "Actions_tfl_edges": {},
    "Load_per_bus_per_stop": {
        "bus3": {
            "H": 119.58823529411765,
            "I": 119.88235294117646,
            "J": 113.70588235294117,
            "K": 105.47058823529412,
            "L": 95.4375,
            "A": 85.75,
            "B": 77.75,
            "C": 75,
            "D": 70.25,
            "E": 69,
            "F": 91.625,
            "G": 119.3125
        },
        "bus4": {
            "I": 116.52941176470588,
            "J": 110.6470588235294,
            "K": 101.05882352941177,
            "L": 91.52941176470588,
            "A": 83.17647058823529,
            "B": 76.875,
            "C": 72.8125,
            "D": 70.8125,
            "E": 70,
            "F": 89.5,
            "G": 118.375,
            "H": 126.625
        },
        "bus1": {
            "E": 73.6470588235294,
            "F": 97.94117647058823,
            "G": 129.9375,
            "H": 136.625,
            "I": 131.8125,
            "J": 125.25,
            "K": 117.1875,
            "L": 106.6875,
            "A": 96.8125,
            "B": 88.1875,
            "C": 81,
            "D": 77.125
        },
        "bus2": {
            "F": 90.05882352941177,
            "G": 122.41176470588235,
            "H": 132.05882352941177,
            "I": 129.94117647058823,
            "J": 124.125,
            "K": 114.375,
            "L": 103.9375,
            "A": 93.3125,
            "B": 85.875,
            "C": 80.1875,
            "D": 75.9375,
            "E": 74.25
        },
        "bus5": {
            "K": 107.3529411764706,
            "L": 99.6470588235294,
            "A": 89.94117647058823,
            "B": 81.58823529411765,
            "C": 76.25,
            "D": 74.125,
            "E": 72.1875,
            "F": 93.8125,
            "G": 122.75,
            "H": 131.3125,
            "I": 127.375,
            "J": 121.5
        },
        "bus0": {
            "B": 81.94117647058823,
            "C": 75.6470588235294,
            "D": 72.52941176470588,
            "E": 71.9375,
            "F": 94.5,
            "G": 129,
            "H": 139.125,
            "I": 133.5625,
            "J": 125,
            "K": 116,
            "L": 107.1875,
            "A": 97.25
        }
    },
    "Obs_and_actions_busses": {
        "3": 239.8261754555486,
        "0": -158.29421562996657,
        "2": 81.67232794940003,
        "5": 301.32703816191037
    },
    "Obs_and_actions_tfls": {}
}