{
    "Average_holding_time": 40.987432675044886,
    "Average_holding_actions": [
        224,
        104,
        30,
        0,
        0,
        0
    ],
    "Average_travel_time_passengers": 7912.763118157573,
    "Average_passenger_waiting_time": 2671.835093586886,
    "Average_passenger_in_vehicle_time": 5240.928024570558,
    "Average_speed_busses": 0.023208333333333334,
    "Average_experienced_crowding": 876.038899420379,
    "Average_covariation_headway": 2.0961847838634884,
    "Average_covariation_headway_stops": {
        "H": 2.0459280448721757,
        "G": 1.7921847760066096,
        "I": 2.2120999077030894,
        "F": 1.90806115940153,
        "K": 2.267416318769665,
        "B": 2.27193665035747,
        "J": 2.2443907793424693,
        "L": 2.259053962358363,
        "C": 2.2332577043798425,
        "A": 2.2526015092168272,
        "D": 2.1918387677375373,
        "E": 2.1750520555899793
    },
    "Average_excess_waiting_time": {
        "H": 2664.192336713343,
        "G": 2116.6738024206484,
        "I": 3036.9820440615,
        "F": 2831.8386459867834,
        "K": 3205.1932746348953,
        "B": 3311.1240392519367,
        "J": 3168.2969827045017,
        "L": 3234.3499370037835,
        "C": 3268.811247024641,
        "A": 3274.4945939955346,
        "D": 3222.5625725631207,
        "E": 3235.682350282495
    },
    "Holding_per_stop": {
        "H": 48.666666666666664,
        "I": 35.869565217391305,
        "G": 43.63636363636363,
        "K": 37.659574468085104,
        "F": 50.23255813953488,
        "B": 35.625,
        "J": 41.73913043478261,
        "L": 37.02127659574468,
        "C": 40,
        "A": 38.93617021276596,
        "D": 42.5,
        "E": 41.25
    },
    "Actions_tfl_edges": {},
    "Load_per_bus_per_stop": {
        "bus3": {
            "H": 25.625,
            "I": 24.25,
            "J": 22.875,
            "K": 20.75,
            "L": 19.125,
            "A": 16.5,
            "B": 14.625,
            "C": 12.875,
            "D": 12.75,
            "E": 13.375,
            "F": 20,
            "G": 29
        },
        "bus2": {
            "G": 47.375,
            "H": 49.25,
            "I": 46.875,
            "J": 45.125,
            "K": 41.5,
            "L": 37.875,
            "A": 34.75,
            "B": 32.75,
            "C": 31.5,
            "D": 31.125,
            "E": 33.125,
            "F": 44.857142857142854
        },
        "bus4": {
            "I": 36.125,
            "J": 33.125,
            "K": 31.875,
            "L": 27.25,
            "A": 24.25,
            "B": 20.625,
            "C": 20.125,
            "D": 19.875,
            "E": 17.75,
            "F": 24.142857142857142,
            "G": 42.142857142857146,
            "H": 43
        },
        "bus1": {
            "F": 94.875,
            "G": 124.25,
            "H": 129.625,
            "I": 125.625,
            "J": 116.5,
            "K": 110,
            "L": 102.5,
            "A": 92.75,
            "B": 82.25,
            "C": 77.75,
            "D": 73.875,
            "E": 73.25
        },
        "bus5": {
            "K": 104.25,
            "L": 94.5,
            "A": 85.75,
            "B": 72.75,
            "C": 63.875,
            "D": 59.625,
            "E": 59.625,
            "F": 91.71428571428571,
            "G": 151.71428571428572,
            "H": 157.71428571428572,
            "I": 146.71428571428572,
            "J": 134.42857142857142
        },
        "bus0": {
            "B": 636.375,
            "C": 616.25,
            "D": 614.25,
            "E": 629.5,
            "F": 825.875,
            "G": 926.8571428571429,
            "H": 1026.4285714285713,
            "I": 1022.2857142857143,
            "J": 986.2857142857143,
            "K": 924.5714285714286,
            "L": 857.1428571428571,
            "A": 783
        }
    },
    "Obs_and_actions_busses": {
        "2": 38.52557273568351,
        "1": -1432.0124921682207,
        "0": -92.56759499396665,
        "3": 4189.436969158746
    },
    "Obs_and_actions_tfls": {}
}