{
    "Average_holding_time": 48.256972111553786,
    "Average_holding_actions": [
        287,
        218,
        100,
        0,
        0,
        0
    ],
    "Average_travel_time_passengers": 3099.297470050067,
    "Average_passenger_waiting_time": 422.2585140984168,
    "Average_passenger_in_vehicle_time": 2677.0389559515615,
    "Average_speed_busses": 0.041833333333333333,
    "Average_experienced_crowding": 145.3018881183285,
    "Average_covariation_headway": 0.587426754661925,
    "Average_covariation_headway_stops": {
        "G": 0.4327502074372026,
        "E": 0.4166303484867989,
        "J": 0.47274959202374567,
        "K": 0.4635583532551471,
        "L": 0.45071615643793295,
        "H": 0.4700226846394376,
        "B": 0.42888591688368116,
        "I": 0.47629997828883297,
        "A": 0.43173524825681864,
        "F": 0.39642445832979384,
        "C": 0.41410174686573276,
        "D": 0.40907555923466843
    },
    "Average_excess_waiting_time": {
        "G": 150.2232350518305,
        "E": 145.7875327322643,
        "J": 164.27576865282646,
        "K": 158.71620061298228,
        "L": 151.64884005427695,
        "H": 164.25768035854497,
        "B": 146.82312744661067,
        "I": 167.97087334313795,
        "A": 149.0478648024834,
        "F": 142.9304373137196,
        "C": 145.31309151483282,
        "D": 146.5332889591342
    },
    "Holding_per_stop": {
        "G": 52.5,
        "L": 47.64705882352941,
        "K": 56.42857142857143,
        "J": 51.68674698795181,
        "E": 45.357142857142854,
        "H": 48.795180722891565,
        "B": 38.214285714285715,
        "A": 38.57142857142857,
        "I": 57.83132530120482,
        "F": 46.265060240963855,
        "C": 49.285714285714285,
        "D": 46.626506024096386
    },
    "Actions_tfl_edges": {},
    "Load_per_bus_per_stop": {
        "bus2": {
            "G": 164,
            "H": 173.92857142857142,
            "I": 170.78571428571428,
            "J": 164.92857142857142,
            "K": 154.78571428571428,
            "L": 143.28571428571428,
            "A": 130,
            "B": 117,
            "C": 109.5,
            "D": 104.35714285714286,
            "E": 102.64285714285714,
            "F": 131.53846153846155
        },
        "bus1": {
            "E": 112.21428571428571,
            "F": 144.57142857142858,
            "G": 191.35714285714286,
            "H": 203.85714285714286,
            "I": 201.78571428571428,
            "J": 190.28571428571428,
            "K": 177.35714285714286,
            "L": 165.28571428571428,
            "A": 149,
            "B": 135.28571428571428,
            "C": 126.42857142857143,
            "D": 125.07692307692308
        },
        "bus3": {
            "J": 150,
            "K": 138.64285714285714,
            "L": 126.71428571428571,
            "A": 115.71428571428571,
            "B": 102.92857142857143,
            "C": 97,
            "D": 92.64285714285714,
            "E": 90.35714285714286,
            "F": 118.78571428571429,
            "G": 157.42857142857142,
            "H": 171.53846153846155,
            "I": 168
        },
        "bus4": {
            "K": 66.07142857142857,
            "L": 61,
            "A": 56.285714285714285,
            "B": 48.714285714285715,
            "C": 45.92857142857143,
            "D": 45.142857142857146,
            "E": 45.785714285714285,
            "F": 62.214285714285715,
            "G": 84,
            "H": 88.85714285714286,
            "I": 85.57142857142857,
            "J": 80.71428571428571
        },
        "bus5": {
            "L": 43.53333333333333,
            "A": 37,
            "B": 33.214285714285715,
            "C": 32.07142857142857,
            "D": 29.785714285714285,
            "E": 29.571428571428573,
            "F": 43.714285714285715,
            "G": 61.07142857142857,
            "H": 62.714285714285715,
            "I": 60.214285714285715,
            "J": 56,
            "K": 50.07142857142857
        },
        "bus0": {
            "B": 140.21428571428572,
            "C": 130.21428571428572,
            "D": 122.64285714285714,
            "E": 120.07142857142857,
            "F": 158.85714285714286,
            "G": 212.92857142857142,
            "H": 227.71428571428572,
            "I": 222.07142857142858,
            "J": 210.35714285714286,
            "K": 195.85714285714286,
            "L": 179.5,
            "A": 163
        }
    },
    "Obs_and_actions_busses": {
        "3": 223.97537553467353,
        "0": -160.92831152538773,
        "1": -592.5827266177506,
        "2": 38.78068849683645
    },
    "Obs_and_actions_tfls": {}
}