{
    "Average_holding_time": 43.80952380952381,
    "Average_holding_actions": [
        143,
        361,
        13,
        0,
        0,
        0
    ],
    "Average_travel_time_passengers": 4776.970795247034,
    "Average_passenger_waiting_time": 1245.318972694459,
    "Average_passenger_in_vehicle_time": 3531.6518225523464,
    "Average_speed_busses": 0.0315,
    "Average_experienced_crowding": 441.4581555501102,
    "Average_covariation_headway": 1.6943268589774303,
    "Average_covariation_headway_stops": {
        "H": 1.4856673823436053,
        "G": 1.453468072418391,
        "J": 1.603415235729038,
        "L": 1.6221187660772804,
        "I": 1.5824259197212427,
        "B": 1.622536167126674,
        "C": 1.6123620689929723,
        "K": 1.6091571496736958,
        "A": 1.6032677342600863,
        "D": 1.6005337089332679,
        "E": 1.6033892295288739,
        "F": 1.4737475747580122
    },
    "Average_excess_waiting_time": {
        "H": 1088.3939455983216,
        "G": 1219.607854166776,
        "J": 1248.3096918939011,
        "L": 1280.362938680977,
        "I": 1228.245561922207,
        "B": 1288.6693123276673,
        "C": 1273.8636442583854,
        "K": 1268.683353237597,
        "A": 1270.7164966838918,
        "D": 1277.2107634136867,
        "E": 1297.9582909090177,
        "F": 1163.0754700826637
    },
    "Holding_per_stop": {
        "H": 46.22950819672131,
        "G": 45,
        "L": 43.80952380952381,
        "J": 45.96774193548387,
        "I": 47.704918032786885,
        "C": 40.61538461538461,
        "B": 40.3125,
        "K": 45.483870967741936,
        "A": 40,
        "D": 42.46153846153846,
        "E": 42,
        "F": 46.61538461538461
    },
    "Actions_tfl_edges": {},
    "Load_per_bus_per_stop": {
        "bus3": {
            "H": 62.45454545454545,
            "I": 60.81818181818182,
            "J": 58.18181818181818,
            "K": 54.09090909090909,
            "L": 48.90909090909091,
            "A": 45.72727272727273,
            "B": 41.90909090909091,
            "C": 38.81818181818182,
            "D": 37.36363636363637,
            "E": 36.27272727272727,
            "F": 46,
            "G": 66.4
        },
        "bus2": {
            "G": 537.8181818181819,
            "H": 490.1,
            "I": 483.1,
            "J": 466.4,
            "K": 438,
            "L": 409.2,
            "A": 375.4,
            "B": 345.1,
            "C": 334.4,
            "D": 334.5,
            "E": 336.9,
            "F": 447.5
        },
        "bus4": {
            "J": 26.09090909090909,
            "K": 24.363636363636363,
            "L": 22.09090909090909,
            "A": 19.90909090909091,
            "B": 18,
            "C": 17.818181818181817,
            "D": 17.545454545454547,
            "E": 17.636363636363637,
            "F": 23.818181818181817,
            "G": 31.8,
            "H": 31,
            "I": 30.3
        },
        "bus5": {
            "L": 20.545454545454547,
            "A": 18.818181818181817,
            "B": 17.181818181818183,
            "C": 15.454545454545455,
            "D": 15.272727272727273,
            "E": 15.454545454545455,
            "F": 21.272727272727273,
            "G": 30.7,
            "H": 31.3,
            "I": 29.3,
            "J": 26.2,
            "K": 24.6
        },
        "bus0": {
            "B": 29.727272727272727,
            "C": 26,
            "D": 22.181818181818183,
            "E": 21.272727272727273,
            "F": 35.45454545454545,
            "G": 59.1,
            "H": 60.2,
            "I": 56.4,
            "J": 52.5,
            "K": 47.1,
            "L": 42.3,
            "A": 36.6
        },
        "bus1": {
            "C": 217.45454545454547,
            "D": 205.1818181818182,
            "E": 201.0909090909091,
            "F": 266.09090909090907,
            "G": 378.4,
            "H": 401.4,
            "I": 387.7,
            "J": 370.9,
            "K": 344.7,
            "L": 314.8,
            "A": 284.8,
            "B": 256.8
        }
    },
    "Obs_and_actions_busses": {
        "0": -115.98783975356746,
        "1": -854.4593320284105,
        "3": 2229.568226752904,
        "2": 33.353745895825966
    },
    "Obs_and_actions_tfls": {}
}