{
    "Average_holding_time": 8.476027397260275,
    "Average_holding_actions": [
        1011,
        0,
        149,
        8,
        0,
        0
    ],
    "Average_travel_time_passengers": 2586.5969007452413,
    "Average_passenger_waiting_time": 302.6300505821398,
    "Average_passenger_in_vehicle_time": 2283.966850162922,
    "Average_speed_busses": 0.048666666666666664,
    "Average_experienced_crowding": 102.9538737764975,
    "Average_covariation_headway": 0.22827744403212272,
    "Average_covariation_headway_stops": {
        "E": 0.0974901217670079,
        "F": 0.09880864395015561,
        "K": 0.12200507564532868,
        "A": 0.09208687316613058,
        "B": 0.07894328472236994,
        "C": 0.08411842932215521,
        "G": 0.06611351489831326,
        "H": 0.05352230185034523,
        "L": 0.09439806008657127,
        "D": 0.07564491480866271,
        "I": 0.07357749367517198,
        "J": 0.09583874746846792
    },
    "Average_excess_waiting_time": {
        "E": 36.93540170868363,
        "F": 35.370351490669464,
        "K": 40.67299681590697,
        "A": 38.760433616506475,
        "B": 36.878295318589494,
        "C": 36.04215165250781,
        "G": 34.87146117469382,
        "H": 35.5374451950878,
        "L": 40.35801927973063,
        "D": 37.465019907822864,
        "I": 37.70812393361342,
        "J": 40.35339076083278
    },
    "Holding_per_stop": {
        "F": 9.795918367346939,
        "K": 9.896907216494846,
        "E": 19.591836734693878,
        "B": 1.2371134020618557,
        "C": 0.6122448979591837,
        "A": 6.185567010309279,
        "G": 17.142857142857142,
        "H": 0,
        "D": 1.8556701030927836,
        "L": 9.896907216494846,
        "I": 21.649484536082475,
        "J": 3.711340206185567
    },
    "Actions_tfl_edges": {},
    "Load_per_bus_per_stop": {
        "bus2": {
            "E": 72.05882352941177,
            "F": 92.70588235294117,
            "G": 122.17647058823529,
            "H": 129.64705882352942,
            "I": 127.375,
            "J": 122.625,
            "K": 114.5625,
            "L": 104.3125,
            "A": 96.5,
            "B": 88.5,
            "C": 81.5,
            "D": 78.1875
        },
        "bus3": {
            "F": 92.47058823529412,
            "G": 122.76470588235294,
            "H": 132,
            "I": 129.58823529411765,
            "J": 124,
            "K": 116.125,
            "L": 105.6875,
            "A": 96.9375,
            "B": 87.4375,
            "C": 82.25,
            "D": 77.9375,
            "E": 76.8125
        },
        "bus4": {
            "K": 108.76470588235294,
            "L": 98.82352941176471,
            "A": 89.3125,
            "B": 81.5,
            "C": 78.625,
            "D": 76.8125,
            "E": 76.25,
            "F": 96,
            "G": 127.0625,
            "H": 134.75,
            "I": 129.8125,
            "J": 124.5625
        },
        "bus5": {
            "A": 86.52941176470588,
            "B": 77.5,
            "C": 74.5625,
            "D": 72.125,
            "E": 71.8125,
            "F": 96.3125,
            "G": 123.125,
            "H": 129.25,
            "I": 127.6875,
            "J": 119.875,
            "K": 112.1875,
            "L": 102.125
        },
        "bus0": {
            "B": 75.23529411764706,
            "C": 70.94117647058823,
            "D": 68.1875,
            "E": 66.875,
            "F": 87.875,
            "G": 117.75,
            "H": 125.4375,
            "I": 122.625,
            "J": 115.4375,
            "K": 107.1875,
            "L": 97.8125,
            "A": 88.125
        },
        "bus1": {
            "C": 72.6470588235294,
            "D": 73.29411764705883,
            "E": 72.94117647058823,
            "F": 93.875,
            "G": 122.75,
            "H": 129.875,
            "I": 126.6875,
            "J": 119.8125,
            "K": 111.4375,
            "L": 100.625,
            "A": 92,
            "B": 82.875
        }
    },
    "Obs_and_actions_busses": {
        "4": 332.43012063216037,
        "0": -165.07308147382864,
        "2": 58.48822602876694
    },
    "Obs_and_actions_tfls": {}
}