{
    "Average_holding_time": 12.5629887054735,
    "Average_holding_actions": [
        943,
        0,
        186,
        0,
        22,
        0
    ],
    "Average_travel_time_passengers": 2611.972150325294,
    "Average_passenger_waiting_time": 309.04641866585723,
    "Average_passenger_in_vehicle_time": 2302.9257316593093,
    "Average_speed_busses": 0.04795833333333333,
    "Average_experienced_crowding": 105.52339145240555,
    "Average_covariation_headway": 0.2584739102449357,
    "Average_covariation_headway_stops": {
        "H": 0.1715017235307191,
        "G": 0.1634656521063654,
        "I": 0.18080446476060955,
        "E": 0.15367972134650762,
        "D": 0.1510542618143534,
        "B": 0.16046737045182904,
        "J": 0.14866786640105215,
        "F": 0.13579607734212812,
        "K": 0.12436116289045757,
        "C": 0.141387754679429,
        "L": 0.12449128834899761,
        "A": 0.15065755529567856
    },
    "Average_excess_waiting_time": {
        "H": 46.143693778234024,
        "G": 47.43234501590143,
        "I": 45.18063549618432,
        "E": 46.990348630451024,
        "D": 48.46040267741756,
        "B": 48.645412653901644,
        "J": 43.485194052424106,
        "F": 46.94540338076638,
        "K": 42.93728308193408,
        "C": 49.16371370575649,
        "L": 44.52308800541044,
        "A": 48.88078502841984
    },
    "Holding_per_stop": {
        "H": 4.020618556701031,
        "I": 30,
        "E": 22.5,
        "G": 23.4375,
        "J": 14.536082474226804,
        "D": 2.8421052631578947,
        "B": 3.4375,
        "F": 12,
        "K": 17.5,
        "L": 11.5625,
        "C": 3.473684210526316,
        "A": 5.052631578947368
    },
    "Actions_tfl_edges": {},
    "Load_per_bus_per_stop": {
        "bus4": {
            "H": 114.41176470588235,
            "I": 113.25,
            "J": 105.9375,
            "K": 98.375,
            "L": 91.1875,
            "A": 82.6875,
            "B": 77,
            "C": 71,
            "D": 68.5,
            "E": 68.4375,
            "F": 88.1875,
            "G": 115.625
        },
        "bus3": {
            "G": 113.625,
            "H": 122,
            "I": 118.8125,
            "J": 113.375,
            "K": 105.1875,
            "L": 96.8125,
            "A": 87.0625,
            "B": 76.6875,
            "C": 71.1875,
            "D": 71.5625,
            "E": 70.375,
            "F": 93.86666666666666
        },
        "bus5": {
            "I": 126,
            "J": 120.6470588235294,
            "K": 112.9375,
            "L": 105.1875,
            "A": 95.75,
            "B": 87.8125,
            "C": 81.625,
            "D": 78.375,
            "E": 76.8125,
            "F": 100.0625,
            "G": 130.75,
            "H": 137.625
        },
        "bus2": {
            "E": 68.9375,
            "F": 94.125,
            "G": 128,
            "H": 135.125,
            "I": 129.125,
            "J": 120.6875,
            "K": 112.0625,
            "L": 102.25,
            "A": 91.875,
            "B": 82.9375,
            "C": 77.75,
            "D": 75.06666666666666
        },
        "bus1": {
            "D": 76.6875,
            "E": 73.875,
            "F": 98,
            "G": 133,
            "H": 141.625,
            "I": 139.9375,
            "J": 133.5,
            "K": 124.0625,
            "L": 112.0625,
            "A": 103.5625,
            "B": 92.5625,
            "C": 85.86666666666666
        },
        "bus0": {
            "B": 81.75,
            "C": 75.8125,
            "D": 72.6875,
            "E": 73.3125,
            "F": 97.875,
            "G": 128.375,
            "H": 134.9375,
            "I": 130.3125,
            "J": 123.375,
            "K": 112.6875,
            "L": 105,
            "A": 96.73333333333333
        }
    },
    "Obs_and_actions_busses": {
        "2": 59.523435627386306,
        "0": -176.41316232934244,
        "5": 262.02515127161996
    },
    "Obs_and_actions_tfls": {}
}