{
    "Average_holding_time": 12.454308093994777,
    "Average_holding_actions": [
        835,
        229,
        37,
        0,
        15,
        0
    ],
    "Average_travel_time_passengers": 2620.016870700574,
    "Average_passenger_waiting_time": 320.6316784981908,
    "Average_passenger_in_vehicle_time": 2299.385192202254,
    "Average_speed_busses": 0.047875,
    "Average_experienced_crowding": 107.79801927054389,
    "Average_covariation_headway": 0.2804641267910809,
    "Average_covariation_headway_stops": {
        "H": 0.2548112642384285,
        "G": 0.2200809517834434,
        "J": 0.2328412485013788,
        "L": 0.19388224975290747,
        "I": 0.24233613542814844,
        "B": 0.1666125715363553,
        "C": 0.16065558109214903,
        "K": 0.19716530320529335,
        "A": 0.1689254868988693,
        "D": 0.14872622532046195,
        "E": 0.1617839349023839,
        "F": 0.17623315605859288
    },
    "Average_excess_waiting_time": {
        "H": 59.25066601248909,
        "G": 56.168058979465684,
        "J": 55.37600730607784,
        "L": 50.113280238193624,
        "I": 58.63401376929079,
        "B": 47.90137178318702,
        "C": 46.24977752490241,
        "K": 52.17285397312912,
        "A": 49.2967281553577,
        "D": 46.923155988339715,
        "E": 49.80674850051963,
        "F": 52.83292231904352
    },
    "Holding_per_stop": {
        "H": 8.75,
        "L": 12.5,
        "J": 20.3125,
        "G": 21.473684210526315,
        "I": 17.1875,
        "C": 4.6875,
        "B": 6.875,
        "K": 16.875,
        "A": 8.125,
        "D": 3.4375,
        "E": 14.842105263157896,
        "F": 14.526315789473685
    },
    "Actions_tfl_edges": {},
    "Load_per_bus_per_stop": {
        "bus3": {
            "H": 131.0625,
            "I": 127.4375,
            "J": 119.6875,
            "K": 110,
            "L": 101.6875,
            "A": 91.5625,
            "B": 83.1875,
            "C": 78.4375,
            "D": 75.375,
            "E": 75.25,
            "F": 98.5625,
            "G": 131.375
        },
        "bus2": {
            "G": 119.75,
            "H": 127.0625,
            "I": 121.5625,
            "J": 116.5625,
            "K": 104.875,
            "L": 96.75,
            "A": 89.375,
            "B": 81.75,
            "C": 76.5625,
            "D": 74,
            "E": 73.13333333333334,
            "F": 93.6
        },
        "bus4": {
            "J": 116.5,
            "K": 108.0625,
            "L": 99.4375,
            "A": 91.6875,
            "B": 81.8125,
            "C": 76.375,
            "D": 72.875,
            "E": 71.75,
            "F": 92.5625,
            "G": 124.8125,
            "H": 133.6875,
            "I": 129.875
        },
        "bus5": {
            "L": 95.625,
            "A": 87.0625,
            "B": 79.75,
            "C": 76.4375,
            "D": 74,
            "E": 72.75,
            "F": 92.4375,
            "G": 120.9375,
            "H": 129.8125,
            "I": 124.4375,
            "J": 118,
            "K": 110.4375
        },
        "bus0": {
            "B": 68.6875,
            "C": 64.875,
            "D": 63.125,
            "E": 63.3125,
            "F": 83.6875,
            "G": 109.3125,
            "H": 116.3125,
            "I": 111.6875,
            "J": 106.625,
            "K": 98.4375,
            "L": 91.5,
            "A": 81.8125
        },
        "bus1": {
            "C": 88,
            "D": 83.8125,
            "E": 84.75,
            "F": 107.25,
            "G": 145.625,
            "H": 157.3125,
            "I": 151.9375,
            "J": 143.625,
            "K": 135.25,
            "L": 122.4375,
            "A": 112.0625,
            "B": 99.25
        }
    },
    "Obs_and_actions_busses": {
        "0": -205.68854868823905,
        "1": 22.577021036816582,
        "3": 160.0230685791315,
        "2": 100.12086969637099,
        "5": 526.82123036862
    },
    "Obs_and_actions_tfls": {}
}