{
    "Average_holding_time": 28.46908734052993,
    "Average_holding_actions": [
        681,
        0,
        99,
        0,
        26,
        0
    ],
    "Average_travel_time_passengers": 3250.8007590860693,
    "Average_passenger_waiting_time": 562.8905295066633,
    "Average_passenger_in_vehicle_time": 2687.9102295793164,
    "Average_speed_busses": 0.042458333333333334,
    "Average_experienced_crowding": 187.7726925926509,
    "Average_covariation_headway": 0.8508374719617267,
    "Average_covariation_headway_stops": {
        "G": 0.7432706371767084,
        "I": 0.8231807934735786,
        "F": 0.725444532080334,
        "J": 0.8189848189657565,
        "K": 0.8117363803023472,
        "H": 0.8101899411730484,
        "A": 0.7827111499974719,
        "L": 0.7884050776167174,
        "B": 0.7627783385075293,
        "C": 0.7544756775061974,
        "D": 0.7435186498289237,
        "E": 0.7419719261967924
    },
    "Average_excess_waiting_time": {
        "G": 272.6754841486639,
        "I": 313.79656867692785,
        "F": 267.60549302018245,
        "J": 307.50889364350786,
        "K": 300.55285871546215,
        "H": 311.05630246007814,
        "A": 284.7027513095614,
        "L": 290.4021442546669,
        "B": 277.830550416583,
        "C": 278.5387859166744,
        "D": 278.7013300345986,
        "E": 279.9899828571593
    },
    "Holding_per_stop": {
        "G": 28.58823529411765,
        "I": 39.1764705882353,
        "J": 30.348837209302324,
        "K": 28.6046511627907,
        "H": 32.857142857142854,
        "A": 20.58139534883721,
        "F": 37.857142857142854,
        "L": 23.023255813953487,
        "B": 17.294117647058822,
        "C": 26.11764705882353,
        "D": 26.428571428571427,
        "E": 31.08433734939759
    },
    "Actions_tfl_edges": {},
    "Load_per_bus_per_stop": {
        "bus1": {
            "G": 183.06666666666666,
            "H": 196.85714285714286,
            "I": 192,
            "J": 183.78571428571428,
            "K": 170.57142857142858,
            "L": 156.5,
            "A": 143.92857142857142,
            "B": 131.5,
            "C": 124,
            "D": 119.85714285714286,
            "E": 117.35714285714286,
            "F": 150.57142857142858
        },
        "bus2": {
            "I": 74.73333333333333,
            "J": 71.33333333333333,
            "K": 63.785714285714285,
            "L": 57.285714285714285,
            "A": 52.57142857142857,
            "B": 47.92857142857143,
            "C": 45.214285714285715,
            "D": 44.142857142857146,
            "E": 46,
            "F": 60.92857142857143,
            "G": 79.85714285714286,
            "H": 82.78571428571429
        },
        "bus0": {
            "F": 170.42857142857142,
            "G": 226,
            "H": 240.92857142857142,
            "I": 236.71428571428572,
            "J": 223.64285714285714,
            "K": 209.35714285714286,
            "L": 192.07142857142858,
            "A": 175.92857142857142,
            "B": 159.5,
            "C": 147.71428571428572,
            "D": 142.71428571428572,
            "E": 140
        },
        "bus3": {
            "J": 56.93333333333333,
            "K": 52.93333333333333,
            "L": 47.733333333333334,
            "A": 39.142857142857146,
            "B": 36.357142857142854,
            "C": 33.5,
            "D": 31.357142857142858,
            "E": 31.214285714285715,
            "F": 43.857142857142854,
            "G": 59.857142857142854,
            "H": 64.14285714285714,
            "I": 63.714285714285715
        },
        "bus4": {
            "K": 51.46666666666667,
            "L": 47.4,
            "A": 41.8,
            "B": 37.4,
            "C": 32.42857142857143,
            "D": 30.857142857142858,
            "E": 29.785714285714285,
            "F": 42.5,
            "G": 63.142857142857146,
            "H": 65.78571428571429,
            "I": 64.64285714285714,
            "J": 60.5
        },
        "bus5": {
            "A": 164.13333333333333,
            "B": 147.66666666666666,
            "C": 140.46666666666667,
            "D": 142.57142857142858,
            "E": 143.5,
            "F": 182,
            "G": 236.71428571428572,
            "H": 248.14285714285714,
            "I": 243.71428571428572,
            "J": 229.14285714285714,
            "K": 213.5,
            "L": 193.85714285714286
        }
    },
    "Obs_and_actions_busses": {
        "0": -347.0509067881546,
        "3": 645.2322472220407,
        "2": 99.17236989688047,
        "5": 355.36213717164674
    },
    "Obs_and_actions_tfls": {}
}