{
    "Average_holding_time": 12.125435540069686,
    "Average_holding_actions": [
        880,
        126,
        124,
        0,
        18,
        0
    ],
    "Average_travel_time_passengers": 2621.746340831597,
    "Average_passenger_waiting_time": 311.2091430086644,
    "Average_passenger_in_vehicle_time": 2310.5371978228236,
    "Average_speed_busses": 0.04783333333333333,
    "Average_experienced_crowding": 106.79495196718658,
    "Average_covariation_headway": 0.23462974528969294,
    "Average_covariation_headway_stops": {
        "E": 0.1394931061687936,
        "F": 0.1331031135025315,
        "J": 0.1231223585890462,
        "K": 0.11456106396446332,
        "A": 0.08443256691704809,
        "B": 0.09143005494331809,
        "G": 0.11293094063890775,
        "L": 0.07362928373963364,
        "H": 0.10211558607207133,
        "C": 0.07962570642628593,
        "I": 0.1152445216058981,
        "D": 0.11353323462815064
    },
    "Average_excess_waiting_time": {
        "E": 46.86752711316797,
        "F": 44.53287015826737,
        "J": 45.68750182249465,
        "K": 43.54969566327276,
        "A": 41.8577749468144,
        "B": 41.196678579001684,
        "G": 44.25838878784333,
        "L": 42.65185018812684,
        "H": 44.882133309776975,
        "C": 42.72095535101289,
        "I": 46.93358646837021,
        "D": 46.6733199312082
    },
    "Holding_per_stop": {
        "K": 16.25,
        "F": 17.5,
        "A": 2.8125,
        "B": 2.5,
        "J": 15.789473684210526,
        "E": 28.75,
        "G": 22.5,
        "L": 10.625,
        "H": 3.789473684210526,
        "C": 2.5,
        "I": 21.473684210526315,
        "D": 0.9473684210526315
    },
    "Actions_tfl_edges": {},
    "Load_per_bus_per_stop": {
        "bus1": {
            "E": 76.4375,
            "F": 97,
            "G": 128.5625,
            "H": 138.5,
            "I": 135.8125,
            "J": 129.75,
            "K": 121.8125,
            "L": 110.875,
            "A": 101.25,
            "B": 90.3125,
            "C": 83.8125,
            "D": 82.66666666666667
        },
        "bus2": {
            "F": 93.6875,
            "G": 125.1875,
            "H": 132.0625,
            "I": 128.6875,
            "J": 122.5,
            "K": 113.75,
            "L": 104.125,
            "A": 94.5,
            "B": 86.0625,
            "C": 80.5,
            "D": 79.25,
            "E": 77.4375
        },
        "bus3": {
            "J": 116.6875,
            "K": 108.25,
            "L": 99.5625,
            "A": 90.9375,
            "B": 80.8125,
            "C": 76.0625,
            "D": 74.875,
            "E": 72,
            "F": 94.5,
            "G": 124.0625,
            "H": 132.2,
            "I": 131.46666666666667
        },
        "bus4": {
            "K": 103.9375,
            "L": 97.5625,
            "A": 89.8125,
            "B": 80.8125,
            "C": 75.3125,
            "D": 70.625,
            "E": 69.1875,
            "F": 91.0625,
            "G": 120.6875,
            "H": 129.875,
            "I": 125.5,
            "J": 120.375
        },
        "bus5": {
            "A": 90.5625,
            "B": 83,
            "C": 77.5625,
            "D": 75.375,
            "E": 74.75,
            "F": 97.25,
            "G": 129,
            "H": 136.6875,
            "I": 133.5,
            "J": 125.4375,
            "K": 116.625,
            "L": 105.5625
        },
        "bus0": {
            "B": 81.0625,
            "C": 76.4375,
            "D": 75,
            "E": 74.375,
            "F": 96.75,
            "G": 131.625,
            "H": 140.125,
            "I": 136.5625,
            "J": 130.3125,
            "K": 119.125,
            "L": 108,
            "A": 94.5625
        }
    },
    "Obs_and_actions_busses": {
        "5": 309.35341968954526,
        "0": -186.35703919612547,
        "2": 66.78955025578118,
        "1": -1.8473584124708975
    },
    "Obs_and_actions_tfls": {}
}