{
    "Average_holding_time": 14.894551845342706,
    "Average_holding_actions": [
        899,
        0,
        210,
        0,
        29,
        0
    ],
    "Average_travel_time_passengers": 2655.4282362594136,
    "Average_passenger_waiting_time": 335.72611853750647,
    "Average_passenger_in_vehicle_time": 2319.70211772179,
    "Average_speed_busses": 0.04741666666666667,
    "Average_experienced_crowding": 111.62391439150663,
    "Average_covariation_headway": 0.40280412871955656,
    "Average_covariation_headway_stops": {
        "H": 0.3154723641967375,
        "K": 0.2805835969558506,
        "D": 0.2674240180526696,
        "A": 0.2711685753498038,
        "B": 0.26983907962710263,
        "C": 0.2654514987310893,
        "I": 0.29950473700481667,
        "L": 0.26679744010388173,
        "E": 0.2640721822712219,
        "J": 0.2801685854120939,
        "F": 0.2506551609551932,
        "G": 0.2742667193082346
    },
    "Average_excess_waiting_time": {
        "H": 73.18233404201396,
        "K": 67.6825525045229,
        "D": 62.01691376336316,
        "A": 66.51212110017502,
        "B": 65.02412138330732,
        "C": 63.24223002200347,
        "I": 71.49336708582524,
        "L": 67.35863309743985,
        "E": 63.483201691169484,
        "J": 69.54468523601798,
        "F": 62.98672007268459,
        "G": 67.88639043295387
    },
    "Holding_per_stop": {
        "H": 18.94736842105263,
        "K": 13.894736842105264,
        "A": 8.210526315789474,
        "D": 7.8125,
        "B": 9.157894736842104,
        "C": 8.842105263157896,
        "I": 27.473684210526315,
        "E": 18.31578947368421,
        "L": 8.617021276595745,
        "F": 18,
        "J": 14.361702127659575,
        "G": 25.21276595744681
    },
    "Actions_tfl_edges": {},
    "Load_per_bus_per_stop": {
        "bus3": {
            "H": 151.375,
            "I": 146.6875,
            "J": 138.6875,
            "K": 130.25,
            "L": 118.75,
            "A": 110.125,
            "B": 99.9375,
            "C": 93.4375,
            "D": 90.375,
            "E": 90.93333333333334,
            "F": 113.46666666666667,
            "G": 150.2
        },
        "bus4": {
            "K": 124.9375,
            "L": 115.875,
            "A": 105.375,
            "B": 94.4375,
            "C": 88.125,
            "D": 85.375,
            "E": 85.75,
            "F": 109.0625,
            "G": 142.4,
            "H": 153.13333333333333,
            "I": 151.66666666666666,
            "J": 143.53333333333333
        },
        "bus2": {
            "D": 89.625,
            "E": 88.75,
            "F": 118.125,
            "G": 158.5625,
            "H": 167.125,
            "I": 165,
            "J": 155.8125,
            "K": 145.5625,
            "L": 133.25,
            "A": 121,
            "B": 107.9375,
            "C": 101.66666666666667
        },
        "bus5": {
            "A": 85.25,
            "B": 77.0625,
            "C": 74.375,
            "D": 71.5,
            "E": 69,
            "F": 91.5625,
            "G": 122.25,
            "H": 130.25,
            "I": 125.8125,
            "J": 118.46666666666667,
            "K": 110.4,
            "L": 100.2
        },
        "bus0": {
            "B": 67.9375,
            "C": 64.0625,
            "D": 62.8125,
            "E": 61.6875,
            "F": 80.75,
            "G": 107.1875,
            "H": 114.125,
            "I": 111.9375,
            "J": 105.8125,
            "K": 98.4375,
            "L": 88.73333333333333,
            "A": 80.86666666666666
        },
        "bus1": {
            "C": 42.625,
            "D": 42,
            "E": 44.0625,
            "F": 58.6875,
            "G": 74.5,
            "H": 78.75,
            "I": 77.1875,
            "J": 73,
            "K": 67.125,
            "L": 60,
            "A": 54.0625,
            "B": 48
        }
    },
    "Obs_and_actions_busses": {
        "5": 343.3404735314772,
        "2": 127.37829395111346,
        "0": -190.12916038791738
    },
    "Obs_and_actions_tfls": {}
}