{
    "Average_holding_time": 47.83132530120482,
    "Average_holding_actions": [
        52,
        272,
        0,
        0,
        0,
        0
    ],
    "Average_travel_time_passengers": 8594.752355042474,
    "Average_passenger_waiting_time": 3085.7757320349333,
    "Average_passenger_in_vehicle_time": 5508.976623006821,
    "Average_speed_busses": 0.02075,
    "Average_experienced_crowding": 1037.7237709541828,
    "Average_covariation_headway": 2.2803804607744627,
    "Average_covariation_headway_stops": {
        "H": 2.110869961243946,
        "I": 2.2486108826127222,
        "J": 2.187554632394119,
        "L": 2.289298300462715,
        "A": 2.2964186487520784,
        "B": 2.3116386540794833,
        "K": 2.269113265118744,
        "C": 2.273639634325835,
        "D": 2.2275275946238353,
        "E": 2.2188603469983734,
        "F": 1.961418916063552,
        "G": 1.8401588902427617
    },
    "Average_excess_waiting_time": {
        "H": 3384.654182710765,
        "I": 3751.7277223662954,
        "J": 3947.5673389970225,
        "L": 3415.163654100048,
        "A": 3406.1328149864135,
        "B": 3426.299981672156,
        "K": 3396.5892669148957,
        "C": 3393.9435383324126,
        "D": 3344.4445743931783,
        "E": 3390.564359198082,
        "F": 2857.4659945422413,
        "G": 2692.7206650065664
    },
    "Holding_per_stop": {
        "H": 51.627906976744185,
        "I": 47.72727272727273,
        "J": 47.69230769230769,
        "L": 47.25,
        "A": 46.829268292682926,
        "B": 40,
        "K": 42.30769230769231,
        "C": 50.714285714285715,
        "D": 48.57142857142857,
        "E": 45.714285714285715,
        "F": 53.57142857142857,
        "G": 51.42857142857143
    },
    "Actions_tfl_edges": {},
    "Load_per_bus_per_stop": {
        "bus1": {
            "H": 57.875,
            "I": 59.25,
            "J": 63.714285714285715,
            "K": 59.57142857142857,
            "L": 54.142857142857146,
            "A": 52.57142857142857,
            "B": 47.285714285714285,
            "C": 44,
            "D": 41.857142857142854,
            "E": 44.57142857142857,
            "F": 54.42857142857143,
            "G": 65.85714285714286
        },
        "bus2": {
            "I": 25.25,
            "J": 26.714285714285715,
            "K": 24.142857142857142,
            "L": 23,
            "A": 20.571428571428573,
            "B": 18,
            "C": 16.714285714285715,
            "D": 17.428571428571427,
            "E": 18,
            "F": 23.571428571428573,
            "G": 29.428571428571427,
            "H": 31
        },
        "bus3": {
            "J": 17.714285714285715,
            "K": 17.285714285714285,
            "L": 16.285714285714285,
            "A": 15.285714285714286,
            "B": 14.285714285714286,
            "C": 15.142857142857142,
            "D": 13.857142857142858,
            "E": 14.571428571428571,
            "F": 18.571428571428573,
            "G": 24.428571428571427,
            "H": 24.571428571428573,
            "I": 22.857142857142858
        },
        "bus4": {
            "L": 28.857142857142858,
            "A": 24.857142857142858,
            "B": 22.285714285714285,
            "C": 20,
            "D": 18,
            "E": 16.857142857142858,
            "F": 28.428571428571427,
            "G": 50.857142857142854,
            "H": 52,
            "I": 48.57142857142857,
            "J": 40.333333333333336,
            "K": 35.666666666666664
        },
        "bus5": {
            "A": 85.14285714285714,
            "B": 73.28571428571429,
            "C": 65,
            "D": 57.142857142857146,
            "E": 54.142857142857146,
            "F": 101.28571428571429,
            "G": 180.57142857142858,
            "H": 186.57142857142858,
            "I": 176.42857142857142,
            "J": 143.5,
            "K": 128,
            "L": 113
        },
        "bus0": {
            "B": 701,
            "C": 672.8571428571429,
            "D": 668.4285714285714,
            "E": 676.1428571428571,
            "F": 896.4285714285714,
            "G": 1202.857142857143,
            "H": 1306,
            "I": 1302,
            "J": 1247.4285714285713,
            "K": 1013.1666666666666,
            "L": 948.1666666666666,
            "A": 885.3333333333334
        }
    },
    "Obs_and_actions_busses": {
        "3": 4764.74461499256,
        "0": -3911.019175789589,
        "1": -76.62110025379228
    },
    "Obs_and_actions_tfls": {}
}