{
    "Average_holding_time": 26.361990950226243,
    "Average_holding_actions": [
        716,
        127,
        110,
        39,
        18,
        31
    ],
    "Average_travel_time_passengers": 2742.380642263881,
    "Average_passenger_waiting_time": 332.2759938600412,
    "Average_passenger_in_vehicle_time": 2410.1046484038693,
    "Average_speed_busses": 0.04604166666666667,
    "Average_experienced_crowding": 82.13431544628367,
    "Average_covariation_headway": 0.2618837163333891,
    "Average_covariation_headway_stops": {
        "A": 0.20358768909360198,
        "C": 0.20005995732071719,
        "K": 0.1996951309320403,
        "H": 0.19214683879940034,
        "D": 0.19298754331941162,
        "B": 0.20074096123836327,
        "L": 0.19179556301189704,
        "I": 0.179303052182569,
        "E": 0.18432277071267983,
        "J": 0.201323500321211,
        "F": 0.17660664572301554,
        "G": 0.1887826685887733
    },
    "Average_excess_waiting_time": {
        "A": 62.707440116941996,
        "C": 58.606846950590636,
        "K": 62.27980365364306,
        "H": 59.19147122461976,
        "D": 55.631183857499536,
        "B": 60.827367233428504,
        "L": 63.47040086710882,
        "I": 59.4336483354096,
        "E": 56.4218469668848,
        "J": 63.82360531956732,
        "F": 57.68791446510863,
        "G": 60.58265787594877
    },
    "Holding_per_stop": {
        "K": 23.804347826086957,
        "H": 29.02173913043478,
        "D": 27.096774193548388,
        "A": 22.17391304347826,
        "C": 29.032258064516128,
        "B": 29.67391304347826,
        "I": 28.695652173913043,
        "E": 27.741935483870968,
        "L": 19.45054945054945,
        "J": 29.01098901098901,
        "F": 20.869565217391305,
        "G": 29.67391304347826
    },
    "Actions_tfl_edges": {
        "AB": [
            93,
            0,
            0
        ],
        "BC": [
            93,
            0,
            0
        ],
        "CD": [
            94,
            0,
            0
        ],
        "GH": [
            93,
            0,
            0
        ],
        "JK": [
            92,
            0,
            0
        ],
        "LA": [
            92,
            0,
            0
        ],
        "KL": [
            92,
            0,
            0
        ],
        "HI": [
            92,
            0,
            0
        ],
        "DE": [
            93,
            0,
            0
        ],
        "IJ": [
            92,
            0,
            0
        ],
        "EF": [
            93,
            0,
            0
        ],
        "FG": [
            92,
            0,
            0
        ]
    },
    "Load_per_bus_per_stop": {
        "bus5": {
            "A": 76.375,
            "B": 78.375,
            "C": 79.5,
            "D": 78.4,
            "E": 77.93333333333334,
            "F": 77.93333333333334,
            "G": 75.73333333333333,
            "H": 75.86666666666666,
            "I": 76.6,
            "J": 76.86666666666666,
            "K": 80,
            "L": 81.93333333333334
        },
        "bus1": {
            "C": 77.0625,
            "D": 78.1875,
            "E": 76.3125,
            "F": 76.875,
            "G": 74.8125,
            "H": 75.73333333333333,
            "I": 78.26666666666667,
            "J": 79.26666666666667,
            "K": 79.66666666666667,
            "L": 81.93333333333334,
            "A": 80.6,
            "B": 80
        },
        "bus4": {
            "K": 69.6875,
            "L": 70.5625,
            "A": 72.25,
            "B": 73.4,
            "C": 72.6,
            "D": 72.93333333333334,
            "E": 71.66666666666667,
            "F": 72.06666666666666,
            "G": 73.4,
            "H": 73.86666666666666,
            "I": 73.4,
            "J": 73.73333333333333
        },
        "bus3": {
            "H": 77.625,
            "I": 77.375,
            "J": 79.5625,
            "K": 80.75,
            "L": 81.6,
            "A": 81.46666666666667,
            "B": 82.13333333333334,
            "C": 81,
            "D": 81.66666666666667,
            "E": 83.46666666666667,
            "F": 85,
            "G": 84.46666666666667
        },
        "bus2": {
            "D": 81.875,
            "E": 82.375,
            "F": 84.0625,
            "G": 83.8125,
            "H": 86.3125,
            "I": 87.75,
            "J": 89.2,
            "K": 89.93333333333334,
            "L": 90.46666666666667,
            "A": 88.93333333333334,
            "B": 89.46666666666667,
            "C": 89
        },
        "bus0": {
            "B": 85.1875,
            "C": 85.5625,
            "D": 84.75,
            "E": 86.5625,
            "F": 87.06666666666666,
            "G": 87.53333333333333,
            "H": 88.33333333333333,
            "I": 88,
            "J": 88.4,
            "K": 88.26666666666667,
            "L": 89.2,
            "A": 89.53333333333333
        }
    },
    "Obs_and_actions_busses": {
        "6": 306.00009034293157,
        "2": 491.9295713854808,
        "4": 432.89633990647116,
        "0": 638.6278518011865,
        "1": 521.8039179061058,
        "3": 461.89008235055616,
        "5": 399.4955817774765
    },
    "Obs_and_actions_tfls": {
        "0": 95.31295552722607
    }
}