{
    "Average_holding_time": 28.46435100548446,
    "Average_travel_time_passengers": 2798.4444057737705,
    "Average_speed_busses": 0.04558333333333333,
    "Average_experienced_crowding": 81.5762840900793,
    "Average_covariation_headway": 0.22337689165418784,
    "Average_covariation_headway_stops": {
        "C": 0.18647150199677937,
        "F": 0.17853590302931874,
        "K": 0.13192945568713035,
        "E": 0.1883240699910374,
        "I": 0.169680528274828,
        "D": 0.18250412725110782,
        "G": 0.1745602103377365,
        "L": 0.11873513509079131,
        "J": 0.13374533550648587,
        "H": 0.16198109962998428,
        "A": 0.11680311239076835,
        "B": 0.15495873987819936
    },
    "Average_excess_waiting_time": {
        "C": 64.13964489384188,
        "F": 57.93234670506018,
        "K": 55.51799616284899,
        "E": 61.04490462267074,
        "I": 58.02710075639112,
        "D": 62.52704052004583,
        "G": 58.708612196094634,
        "L": 56.623204750876766,
        "J": 56.96567286762394,
        "H": 59.5287906386917,
        "A": 57.1514913389243,
        "B": 62.379427682144296
    },
    "Holding_per_stop": {
        "F": 22.82608695652174,
        "K": 45.16483516483517,
        "I": 29.67391304347826,
        "C": 24.725274725274726,
        "E": 27.065217391304348,
        "D": 26.703296703296704,
        "G": 18.91304347826087,
        "L": 39.89010989010989,
        "J": 40.21978021978022,
        "H": 27.36263736263736,
        "A": 17,
        "B": 22
    },
    "Load_per_bus_per_stop": {
        "bus0": {
            "C": 83.875,
            "D": 82.13333333333334,
            "E": 82.26666666666667,
            "F": 82.46666666666667,
            "G": 82.8,
            "H": 81.8,
            "I": 83.8,
            "J": 84.2,
            "K": 84.93333333333334,
            "L": 84.93333333333334,
            "A": 87.13333333333334,
            "B": 88.2
        },
        "bus3": {
            "F": 79.4375,
            "G": 81.3125,
            "H": 81.625,
            "I": 82.3125,
            "J": 85.2,
            "K": 85.4,
            "L": 85.86666666666666,
            "A": 84.6,
            "B": 81.6,
            "C": 80.8,
            "D": 81.93333333333334,
            "E": 84.93333333333334
        },
        "bus5": {
            "K": 77.3125,
            "L": 77.4375,
            "A": 79.93333333333334,
            "B": 81.26666666666667,
            "C": 81.46666666666667,
            "D": 84.26666666666667,
            "E": 85.06666666666666,
            "F": 84.4,
            "G": 83.26666666666667,
            "H": 82.66666666666667,
            "I": 82.26666666666667,
            "J": 81.86666666666666
        },
        "bus2": {
            "E": 72.6875,
            "F": 72.375,
            "G": 71.9375,
            "H": 72.93333333333334,
            "I": 74.46666666666667,
            "J": 77,
            "K": 76.86666666666666,
            "L": 75.33333333333333,
            "A": 75.13333333333334,
            "B": 74.73333333333333,
            "C": 76.4,
            "D": 76.86666666666666
        },
        "bus4": {
            "I": 79.4375,
            "J": 81.125,
            "K": 80.125,
            "L": 78.46666666666667,
            "A": 78.93333333333334,
            "B": 81.06666666666666,
            "C": 81.13333333333334,
            "D": 79.26666666666667,
            "E": 81.2,
            "F": 83.33333333333333,
            "G": 83.46666666666667,
            "H": 83.4
        },
        "bus1": {
            "D": 76.375,
            "E": 76.6875,
            "F": 76.53333333333333,
            "G": 78.4,
            "H": 79.33333333333333,
            "I": 78.46666666666667,
            "J": 78.33333333333333,
            "K": 79.86666666666666,
            "L": 81,
            "A": 80.6,
            "B": 81.53333333333333,
            "C": 80.53333333333333
        }
    }
}