{
    "Average_holding_time": 26.515426497277677,
    "Average_holding_actions": [
        712,
        114,
        114,
        48,
        19,
        20
    ],
    "Average_travel_time_passengers": 2737.9470260970147,
    "Average_passenger_waiting_time": 327.34022292065595,
    "Average_passenger_in_vehicle_time": 2410.606803176335,
    "Average_speed_busses": 0.04591666666666667,
    "Average_experienced_crowding": 81.81901599580966,
    "Average_covariation_headway": 0.2534619271911945,
    "Average_covariation_headway_stops": {
        "B": 0.1478057832527469,
        "K": 0.20333971146909494,
        "H": 0.2061104189250756,
        "J": 0.20300207119755023,
        "A": 0.16521342482971782,
        "C": 0.14494446479428638,
        "L": 0.17241887561164146,
        "I": 0.21841622192046192,
        "D": 0.14996354004938872,
        "E": 0.15066668649034515,
        "F": 0.16426088858821156,
        "G": 0.20092777888224164
    },
    "Average_excess_waiting_time": {
        "B": 53.401898729900324,
        "K": 60.662020924704564,
        "H": 63.5353713186372,
        "J": 63.054954899606685,
        "A": 57.26600637206462,
        "C": 50.716532644788344,
        "L": 59.16448422651655,
        "I": 66.83595404859727,
        "D": 52.77655032959291,
        "E": 54.8339410250656,
        "F": 57.838707542376824,
        "G": 63.85089665021155
    },
    "Holding_per_stop": {
        "H": 25.384615384615383,
        "K": 30.32608695652174,
        "C": 24.838709677419356,
        "B": 33.91304347826087,
        "A": 32.28260869565217,
        "J": 22.17391304347826,
        "D": 18.06451612903226,
        "L": 42.857142857142854,
        "I": 27.36263736263736,
        "E": 18.58695652173913,
        "F": 20.217391304347824,
        "G": 22.417582417582416
    },
    "Actions_tfl_edges": {
        "AB": [
            93,
            0,
            0
        ],
        "BC": [
            93,
            0,
            0
        ],
        "GH": [
            92,
            0,
            0
        ],
        "IJ": [
            92,
            0,
            0
        ],
        "JK": [
            93,
            0,
            0
        ],
        "LA": [
            92,
            0,
            0
        ],
        "HI": [
            91,
            0,
            0
        ],
        "KL": [
            92,
            0,
            0
        ],
        "CD": [
            93,
            0,
            0
        ],
        "DE": [
            93,
            0,
            0
        ],
        "EF": [
            92,
            0,
            0
        ],
        "FG": [
            92,
            0,
            0
        ]
    },
    "Load_per_bus_per_stop": {
        "bus0": {
            "B": 74.8125,
            "C": 74.3125,
            "D": 76,
            "E": 78.625,
            "F": 77.875,
            "G": 77.6,
            "H": 77.46666666666667,
            "I": 79.06666666666666,
            "J": 77.73333333333333,
            "K": 79.46666666666667,
            "L": 77.53333333333333,
            "A": 79
        },
        "bus4": {
            "K": 79.125,
            "L": 80.125,
            "A": 81.0625,
            "B": 78.5625,
            "C": 76.8,
            "D": 77.6,
            "E": 80.2,
            "F": 79.8,
            "G": 78.53333333333333,
            "H": 80.06666666666666,
            "I": 81.93333333333334,
            "J": 81.93333333333334
        },
        "bus2": {
            "H": 77.625,
            "I": 78.5,
            "J": 79.625,
            "K": 79.73333333333333,
            "L": 79.86666666666666,
            "A": 79.66666666666667,
            "B": 81.2,
            "C": 79.6,
            "D": 80,
            "E": 78.8,
            "F": 80.53333333333333,
            "G": 82.06666666666666
        },
        "bus3": {
            "J": 78.8125,
            "K": 78.875,
            "L": 78.375,
            "A": 79.46666666666667,
            "B": 81.93333333333334,
            "C": 82.2,
            "D": 82.2,
            "E": 82.06666666666666,
            "F": 82.66666666666667,
            "G": 83.33333333333333,
            "H": 83.8,
            "I": 83.86666666666666
        },
        "bus5": {
            "A": 78.5,
            "B": 79.8125,
            "C": 77.3125,
            "D": 78.125,
            "E": 80.2,
            "F": 82,
            "G": 83.2,
            "H": 80.6,
            "I": 79.93333333333334,
            "J": 80.46666666666667,
            "K": 81.6,
            "L": 82
        },
        "bus1": {
            "C": 82.25,
            "D": 84.0625,
            "E": 84,
            "F": 85.875,
            "G": 89.125,
            "H": 92.25,
            "I": 91.6,
            "J": 90.8,
            "K": 90.53333333333333,
            "L": 89.53333333333333,
            "A": 87.66666666666667,
            "B": 87.13333333333334
        }
    },
    "Obs_and_actions_busses": {
        "6": 329.94905100926115,
        "0": 635.3755517359976,
        "4": 435.1970987895193,
        "2": 493.1459506800928,
        "3": 463.9981114424923,
        "1": 522.6130387179614,
        "5": 403.00812864028774
    },
    "Obs_and_actions_tfls": {
        "0": 92.79153574250283
    }
}