{
    "Average_holding_time": 22.16696269982238,
    "Average_holding_actions": [
        757,
        127,
        114,
        41,
        14,
        8
    ],
    "Average_travel_time_passengers": 2688.4167461772213,
    "Average_passenger_waiting_time": 322.34903023349995,
    "Average_passenger_in_vehicle_time": 2366.0677159437146,
    "Average_speed_busses": 0.04691666666666667,
    "Average_experienced_crowding": 79.82760648787105,
    "Average_covariation_headway": 0.2335156128224854,
    "Average_covariation_headway_stops": {
        "K": 0.1638824037881516,
        "A": 0.15171544874294302,
        "J": 0.16444555154910348,
        "F": 0.19927155668967175,
        "I": 0.15945567309402087,
        "G": 0.1872774279922956,
        "B": 0.13575964207911584,
        "L": 0.13606873417394166,
        "H": 0.16599915434193685,
        "C": 0.15220174113048343,
        "D": 0.16199024991318312,
        "E": 0.17803114031709188
    },
    "Average_excess_waiting_time": {
        "K": 47.12529976869445,
        "A": 45.91522863769853,
        "J": 49.17794690078813,
        "F": 55.631524566690246,
        "I": 50.14191393333272,
        "G": 52.500814922342386,
        "B": 45.393578970963404,
        "L": 46.34556330386704,
        "H": 51.780544221693845,
        "C": 48.261711755394856,
        "D": 50.999155984613935,
        "E": 55.09350450706336
    },
    "Holding_per_stop": {
        "K": 26.210526315789473,
        "A": 15.473684210526315,
        "G": 25.851063829787233,
        "J": 28.404255319148938,
        "F": 18.70967741935484,
        "L": 28.72340425531915,
        "B": 15.319148936170214,
        "I": 27.4468085106383,
        "C": 21.06382978723404,
        "H": 22.580645161290324,
        "D": 21.29032258064516,
        "E": 14.838709677419354
    },
    "Actions_tfl_edges": {
        "EF": [
            94,
            0,
            0
        ],
        "FG": [
            94,
            0,
            0
        ],
        "HI": [
            94,
            0,
            0
        ],
        "IJ": [
            95,
            0,
            0
        ],
        "JK": [
            95,
            0,
            0
        ],
        "LA": [
            95,
            0,
            0
        ],
        "KL": [
            95,
            0,
            0
        ],
        "AB": [
            95,
            0,
            0
        ],
        "GH": [
            94,
            0,
            0
        ],
        "BC": [
            94,
            0,
            0
        ],
        "CD": [
            94,
            0,
            0
        ],
        "DE": [
            93,
            0,
            0
        ]
    },
    "Load_per_bus_per_stop": {
        "bus4": {
            "K": 75.1875,
            "L": 76.25,
            "A": 78.4375,
            "B": 79.125,
            "C": 80.875,
            "D": 82.5625,
            "E": 82.0625,
            "F": 80.1875,
            "G": 80.875,
            "H": 81.0625,
            "I": 81.33333333333333,
            "J": 82.4
        },
        "bus5": {
            "A": 79.25,
            "B": 78.5,
            "C": 77.75,
            "D": 76.625,
            "E": 79.0625,
            "F": 78.9375,
            "G": 80.625,
            "H": 83.875,
            "I": 83.3125,
            "J": 83.86666666666666,
            "K": 82.06666666666666,
            "L": 82.8
        },
        "bus3": {
            "J": 72.625,
            "K": 72.75,
            "L": 72.1875,
            "A": 74,
            "B": 74.0625,
            "C": 75.25,
            "D": 75.875,
            "E": 76.375,
            "F": 76.6875,
            "G": 76,
            "H": 77.26666666666667,
            "I": 78.06666666666666
        },
        "bus0": {
            "F": 76.6875,
            "G": 76,
            "H": 75.75,
            "I": 76.625,
            "J": 76.25,
            "K": 76.9375,
            "L": 78.53333333333333,
            "A": 79.86666666666666,
            "B": 81.2,
            "C": 79.46666666666667,
            "D": 81.46666666666667,
            "E": 82.2
        },
        "bus2": {
            "I": 71.1875,
            "J": 70.625,
            "K": 71.5625,
            "L": 72.8125,
            "A": 75.625,
            "B": 76.3125,
            "C": 74.6875,
            "D": 75.5625,
            "E": 77,
            "F": 78.2,
            "G": 76.8,
            "H": 75.2
        },
        "bus1": {
            "G": 81.5625,
            "H": 82.9375,
            "I": 83.875,
            "J": 83.375,
            "K": 84.3125,
            "L": 83.5,
            "A": 84.25,
            "B": 83.2,
            "C": 85.2,
            "D": 84.86666666666666,
            "E": 86.33333333333333,
            "F": 87.06666666666666
        }
    },
    "Obs_and_actions_busses": {
        "6": 300.43635296715325,
        "1": 522.1495284308064,
        "0": 625.0793038322711,
        "2": 492.3478090010825,
        "5": 407.58925425190495,
        "4": 433.65153934775225,
        "3": 461.67587323089816
    },
    "Obs_and_actions_tfls": {
        "0": 87.19534373350821
    }
}