{
    "Average_holding_time": 31.21435142594296,
    "Average_travel_time_passengers": 2797.0760447768666,
    "Average_speed_busses": 0.04529166666666667,
    "Average_experienced_crowding": 82.43548782138639,
    "Average_covariation_headway": 0.2440008938450982,
    "Average_covariation_headway_stops": {
        "K": 0.1636343403400243,
        "D": 0.16650685082025166,
        "G": 0.17734288310966181,
        "I": 0.1881529973521733,
        "H": 0.1752075426795156,
        "B": 0.14773139740974428,
        "E": 0.14911439572227816,
        "L": 0.1365561751890986,
        "J": 0.16362443802856994,
        "C": 0.13746618239255615,
        "F": 0.16475949778008878,
        "A": 0.1491608140914765
    },
    "Average_excess_waiting_time": {
        "K": 59.97770341866004,
        "D": 61.260437653628685,
        "G": 64.32088958588463,
        "I": 61.72303980752952,
        "H": 61.96787594666995,
        "B": 59.848720967286795,
        "E": 61.57865956379209,
        "L": 58.8881840393783,
        "J": 61.48103754832272,
        "C": 59.58256396718792,
        "F": 65.06234865443355,
        "A": 62.060166768369186
    },
    "Holding_per_stop": {
        "K": 51.42857142857143,
        "D": 29.34065934065934,
        "I": 29.34065934065934,
        "B": 31.978021978021978,
        "G": 19.333333333333332,
        "H": 31.64835164835165,
        "L": 50.43956043956044,
        "E": 21.333333333333332,
        "J": 30,
        "C": 31.333333333333332,
        "F": 18.666666666666668,
        "A": 29.333333333333332
    },
    "Load_per_bus_per_stop": {
        "bus5": {
            "K": 75,
            "L": 76.1875,
            "A": 76.26666666666667,
            "B": 78,
            "C": 77.93333333333334,
            "D": 77.26666666666667,
            "E": 77.86666666666666,
            "F": 79.66666666666667,
            "G": 79.93333333333334,
            "H": 76.46666666666667,
            "I": 77.86666666666666,
            "J": 77.2
        },
        "bus1": {
            "D": 76.3125,
            "E": 77,
            "F": 78.46666666666667,
            "G": 79.26666666666667,
            "H": 80,
            "I": 80.86666666666666,
            "J": 81.53333333333333,
            "K": 81.4,
            "L": 80.6,
            "A": 83.86666666666666,
            "B": 83.73333333333333,
            "C": 83
        },
        "bus2": {
            "G": 77.2,
            "H": 76.6,
            "I": 78.13333333333334,
            "J": 78.46666666666667,
            "K": 79,
            "L": 76.93333333333334,
            "A": 78.06666666666666,
            "B": 81,
            "C": 82.6,
            "D": 80.66666666666667,
            "E": 82.46666666666667,
            "F": 82.26666666666667
        },
        "bus4": {
            "I": 85,
            "J": 84.1875,
            "K": 84.26666666666667,
            "L": 83.53333333333333,
            "A": 85.26666666666667,
            "B": 82.93333333333334,
            "C": 84.06666666666666,
            "D": 85.8,
            "E": 89.2,
            "F": 90.06666666666666,
            "G": 91.13333333333334,
            "H": 89.73333333333333
        },
        "bus3": {
            "H": 78.25,
            "I": 78.06666666666666,
            "J": 80.6,
            "K": 83.2,
            "L": 84.4,
            "A": 83.93333333333334,
            "B": 84.46666666666667,
            "C": 86,
            "D": 87.53333333333333,
            "E": 87.8,
            "F": 87.33333333333333,
            "G": 85.4
        },
        "bus0": {
            "B": 79.5,
            "C": 79,
            "D": 81.6,
            "E": 82.53333333333333,
            "F": 81.4,
            "G": 79.93333333333334,
            "H": 78.4,
            "I": 79.73333333333333,
            "J": 80.13333333333334,
            "K": 81.2,
            "L": 82.66666666666667,
            "A": 83.8
        }
    }
}