{
    "Average_holding_time": 29.642529789184234,
    "Average_travel_time_passengers": 2775.4209362061006,
    "Average_speed_busses": 0.04545833333333334,
    "Average_experienced_crowding": 83.16188113427212,
    "Average_covariation_headway": 0.24647469703692074,
    "Average_covariation_headway_stops": {
        "D": 0.20959161200110957,
        "F": 0.19555352943548857,
        "G": 0.19938880151800425,
        "K": 0.1440289137501222,
        "E": 0.20720887913475738,
        "J": 0.17139036250547562,
        "L": 0.11293658760371679,
        "H": 0.17085829129213795,
        "A": 0.1254321146932077,
        "I": 0.16524009475023696,
        "B": 0.14352749413155588,
        "C": 0.1760660475384769
    },
    "Average_excess_waiting_time": {
        "D": 68.72349948087498,
        "F": 63.07520696720394,
        "G": 61.20952149209592,
        "K": 55.58696854081148,
        "E": 66.21866108895182,
        "J": 59.69384637965078,
        "L": 55.118567860856786,
        "H": 59.35527129862578,
        "A": 57.614890029880314,
        "I": 60.843047563707046,
        "B": 61.22210587140319,
        "C": 66.18953043419566
    },
    "Holding_per_stop": {
        "K": 55.76086956521739,
        "G": 30.97826086956522,
        "D": 24.333333333333332,
        "F": 28.021978021978022,
        "E": 29.67032967032967,
        "J": 47.472527472527474,
        "L": 36.92307692307692,
        "H": 28.681318681318682,
        "I": 36.26373626373626,
        "A": 11.868131868131869,
        "B": 12.666666666666666,
        "C": 12.333333333333334
    },
    "Load_per_bus_per_stop": {
        "bus0": {
            "D": 81.26666666666667,
            "E": 82.93333333333334,
            "F": 82,
            "G": 83.66666666666667,
            "H": 84.06666666666666,
            "I": 83.73333333333333,
            "J": 85.06666666666666,
            "K": 85.86666666666666,
            "L": 86.53333333333333,
            "A": 85.46666666666667,
            "B": 86.66666666666667,
            "C": 86.06666666666666
        },
        "bus2": {
            "F": 78.625,
            "G": 78.375,
            "H": 79.625,
            "I": 79.73333333333333,
            "J": 79.2,
            "K": 78.46666666666667,
            "L": 76.93333333333334,
            "A": 77.86666666666666,
            "B": 79.2,
            "C": 82.46666666666667,
            "D": 83.13333333333334,
            "E": 84.46666666666667
        },
        "bus3": {
            "G": 78.6875,
            "H": 80,
            "I": 81.5625,
            "J": 80.26666666666667,
            "K": 80.53333333333333,
            "L": 81.93333333333334,
            "A": 81.73333333333333,
            "B": 82.6,
            "C": 82.6,
            "D": 82.73333333333333,
            "E": 83.26666666666667,
            "F": 84.46666666666667
        },
        "bus5": {
            "K": 83.75,
            "L": 82.125,
            "A": 81.8125,
            "B": 81.2,
            "C": 82.06666666666666,
            "D": 83,
            "E": 82.46666666666667,
            "F": 82.6,
            "G": 84.4,
            "H": 86.53333333333333,
            "I": 86.46666666666667,
            "J": 87.66666666666667
        },
        "bus1": {
            "E": 78.5,
            "F": 78.33333333333333,
            "G": 81.06666666666666,
            "H": 80.33333333333333,
            "I": 81.13333333333334,
            "J": 80.86666666666666,
            "K": 80.4,
            "L": 80.93333333333334,
            "A": 80.33333333333333,
            "B": 80.86666666666666,
            "C": 82.53333333333333,
            "D": 82.73333333333333
        },
        "bus4": {
            "J": 76.0625,
            "K": 77.75,
            "L": 79.46666666666667,
            "A": 80.6,
            "B": 81.6,
            "C": 81.2,
            "D": 80.53333333333333,
            "E": 82.53333333333333,
            "F": 83.86666666666666,
            "G": 84,
            "H": 85.53333333333333,
            "I": 82.6
        }
    }
}