{
    "Average_holding_time": 32.855822550831796,
    "Average_travel_time_passengers": 2844.940491323688,
    "Average_speed_busses": 0.045083333333333336,
    "Average_experienced_crowding": 85.37274601128578,
    "Average_covariation_headway": 0.2732286786973239,
    "Average_covariation_headway_stops": {
        "C": 0.217115446196405,
        "D": 0.2166849389710361,
        "K": 0.21723894999924465,
        "I": 0.221417889100625,
        "B": 0.21085599000518113,
        "A": 0.1958406337409393,
        "E": 0.2031128457744841,
        "J": 0.21626599371491526,
        "L": 0.19436114806771804,
        "F": 0.1908916169254847,
        "G": 0.19097644993660226,
        "H": 0.2101936749796571
    },
    "Average_excess_waiting_time": {
        "C": 66.28155675025488,
        "D": 63.867032898910736,
        "K": 71.48233970819439,
        "I": 71.11368285905417,
        "B": 67.55379935877028,
        "A": 68.44046263821457,
        "E": 64.18146284881442,
        "J": 72.4579770612516,
        "L": 70.38387223068747,
        "F": 64.33289122536132,
        "G": 66.62979133362461,
        "H": 71.05941702624801
    },
    "Holding_per_stop": {
        "D": 26.41304347826087,
        "I": 29.333333333333332,
        "K": 42.666666666666664,
        "C": 37.91208791208791,
        "B": 37.666666666666664,
        "A": 20.333333333333332,
        "E": 26.703296703296704,
        "J": 30,
        "L": 38.08988764044944,
        "F": 30.32967032967033,
        "G": 37.333333333333336,
        "H": 37.752808988764045
    },
    "Load_per_bus_per_stop": {
        "bus1": {
            "C": 78.875,
            "D": 79.125,
            "E": 79.93333333333334,
            "F": 79.46666666666667,
            "G": 79.6,
            "H": 79.53333333333333,
            "I": 80.8,
            "J": 79.8,
            "K": 79.73333333333333,
            "L": 79.93333333333334,
            "A": 82.6,
            "B": 84.4
        },
        "bus2": {
            "D": 90.5,
            "E": 90.875,
            "F": 90.875,
            "G": 91.53333333333333,
            "H": 91.66666666666667,
            "I": 93.8,
            "J": 93.46666666666667,
            "K": 92.4,
            "L": 91.86666666666666,
            "A": 92.73333333333333,
            "B": 94.13333333333334,
            "C": 95.13333333333334
        },
        "bus4": {
            "K": 77.53333333333333,
            "L": 76.4,
            "A": 75.86666666666666,
            "B": 77,
            "C": 77.13333333333334,
            "D": 76,
            "E": 75.73333333333333,
            "F": 76.46666666666667,
            "G": 76.66666666666667,
            "H": 78.4,
            "I": 79.4,
            "J": 82.57142857142857
        },
        "bus3": {
            "I": 82.13333333333334,
            "J": 82.6,
            "K": 82.86666666666666,
            "L": 84.53333333333333,
            "A": 87.13333333333334,
            "B": 85.13333333333334,
            "C": 83.33333333333333,
            "D": 83.66666666666667,
            "E": 85.46666666666667,
            "F": 86.13333333333334,
            "G": 87.53333333333333,
            "H": 86.33333333333333
        },
        "bus0": {
            "B": 80.13333333333334,
            "C": 81.46666666666667,
            "D": 80,
            "E": 81.8,
            "F": 81.86666666666666,
            "G": 82.53333333333333,
            "H": 82.73333333333333,
            "I": 82,
            "J": 82.93333333333334,
            "K": 85.06666666666666,
            "L": 86.6,
            "A": 87
        },
        "bus5": {
            "A": 76.46666666666667,
            "B": 76.73333333333333,
            "C": 78.6,
            "D": 79.86666666666666,
            "E": 82.86666666666666,
            "F": 83.4,
            "G": 83.66666666666667,
            "H": 82.4,
            "I": 81.8,
            "J": 82.53333333333333,
            "K": 82.66666666666667,
            "L": 80.92857142857143
        }
    }
}