{
    "Average_holding_time": 18.68421052631579,
    "Average_holding_actions": [
        772,
        192,
        93,
        83,
        0,
        0
    ],
    "Average_travel_time_passengers": 2039.4972464827244,
    "Average_passenger_waiting_time": 325.6347797921825,
    "Average_passenger_in_vehicle_time": 1713.8624666905769,
    "Average_speed_busses": 0.0475,
    "Average_experienced_crowding": 58.9860028238764,
    "Average_covariation_headway": 0.30641144575765217,
    "Average_covariation_headway_stops": {
        "I": 0.22746128735356974,
        "C": 0.22782390903918237,
        "J": 0.22564981993951883,
        "B": 0.2223171176414744,
        "K": 0.25606478792895726,
        "F": 0.18863795864954627,
        "D": 0.21430872223183586,
        "L": 0.22861871622480506,
        "G": 0.2004139851035057,
        "E": 0.19274471383095565,
        "H": 0.20377926136421182,
        "A": 0.22120342006790691
    },
    "Average_excess_waiting_time": {
        "I": 55.4022580760477,
        "C": 52.083823361849284,
        "J": 52.90779135860811,
        "B": 52.85586802582418,
        "K": 55.6010337673344,
        "F": 48.25805611346709,
        "D": 51.687296828219246,
        "L": 54.656010051621024,
        "G": 51.36249027165417,
        "E": 50.324479264776414,
        "H": 53.99793398900721,
        "A": 54.47888273399815
    },
    "Holding_per_stop": {
        "J": 18,
        "C": 19.0625,
        "F": 16.105263157894736,
        "K": 20.9375,
        "I": 18,
        "B": 22.42105263157895,
        "D": 18.31578947368421,
        "L": 21.473684210526315,
        "G": 14.526315789473685,
        "E": 21.473684210526315,
        "H": 13.085106382978724,
        "A": 20.74468085106383
    },
    "Actions_tfl_edges": {
        "AB": [
            95,
            0,
            0
        ],
        "BC": [
            96,
            0,
            0
        ],
        "EF": [
            96,
            0,
            0
        ],
        "HI": [
            95,
            0,
            0
        ],
        "IJ": [
            96,
            0,
            0
        ],
        "JK": [
            96,
            0,
            0
        ],
        "CD": [
            96,
            0,
            0
        ],
        "FG": [
            95,
            0,
            0
        ],
        "KL": [
            96,
            0,
            0
        ],
        "DE": [
            95,
            0,
            0
        ],
        "LA": [
            95,
            0,
            0
        ],
        "GH": [
            95,
            0,
            0
        ]
    },
    "Load_per_bus_per_stop": {
        "bus3": {
            "I": 56.8125,
            "J": 58,
            "K": 59.6875,
            "L": 60.25,
            "A": 63.1875,
            "B": 64.4375,
            "C": 64.9375,
            "D": 64.25,
            "E": 66.4375,
            "F": 66,
            "G": 63.2,
            "H": 60.266666666666666
        },
        "bus1": {
            "C": 51.5625,
            "D": 53.5625,
            "E": 54.875,
            "F": 56.5,
            "G": 55.8125,
            "H": 56.75,
            "I": 57.1875,
            "J": 55.4375,
            "K": 53.6875,
            "L": 53.5,
            "A": 54.93333333333333,
            "B": 54.13333333333333
        },
        "bus4": {
            "J": 59.6875,
            "K": 58.1875,
            "L": 59.3125,
            "A": 58.875,
            "B": 57.375,
            "C": 58.875,
            "D": 60.3125,
            "E": 59.625,
            "F": 59.0625,
            "G": 58.0625,
            "H": 60.13333333333333,
            "I": 62
        },
        "bus0": {
            "B": 53.5,
            "C": 53.875,
            "D": 54.75,
            "E": 56.25,
            "F": 56.5625,
            "G": 57.0625,
            "H": 58.5625,
            "I": 58.0625,
            "J": 55.6875,
            "K": 55.3125,
            "L": 57.333333333333336,
            "A": 56.6
        },
        "bus5": {
            "K": 52.5625,
            "L": 53.4375,
            "A": 55.1875,
            "B": 55.5,
            "C": 56.375,
            "D": 56.25,
            "E": 56.6875,
            "F": 56.625,
            "G": 56.1875,
            "H": 56.1875,
            "I": 56.5625,
            "J": 57.46666666666667
        },
        "bus2": {
            "F": 50.125,
            "G": 51,
            "H": 53.5,
            "I": 52.8125,
            "J": 54.875,
            "K": 55.3125,
            "L": 54.0625,
            "A": 55.5625,
            "B": 55.3125,
            "C": 54.875,
            "D": 55.666666666666664,
            "E": 53.46666666666667
        }
    },
    "Obs_and_actions_busses": {
        "4": 297.14364638297263,
        "2": 200.17823500946267,
        "1": 120.6516876663011,
        "0": -105.24183855517968
    },
    "Obs_and_actions_tfls": {
        "0": 135.60098770642543
    }
}