{
    "Average_holding_time": 20.38086802480071,
    "Average_holding_actions": [
        724,
        231,
        80,
        94,
        0,
        0
    ],
    "Average_travel_time_passengers": 2062.289049105585,
    "Average_passenger_waiting_time": 334.1603677677393,
    "Average_passenger_in_vehicle_time": 1728.1286813378488,
    "Average_speed_busses": 0.04704166666666667,
    "Average_experienced_crowding": 60.2542519358144,
    "Average_covariation_headway": 0.33886775203467095,
    "Average_covariation_headway_stops": {
        "I": 0.26708403209690484,
        "D": 0.29294860155747815,
        "C": 0.314055231932444,
        "G": 0.2612765384050247,
        "J": 0.25213984126228867,
        "H": 0.2526401081525754,
        "E": 0.2546875217417756,
        "K": 0.23876038743491904,
        "F": 0.23166054415329285,
        "L": 0.24224410071160668,
        "A": 0.25393340423072036,
        "B": 0.2878981538499382
    },
    "Average_excess_waiting_time": {
        "I": 60.941564243896096,
        "D": 68.09402483985531,
        "C": 73.89861615165239,
        "G": 63.534021842406844,
        "J": 56.42186623702361,
        "H": 60.29764508012369,
        "E": 62.90135151496793,
        "K": 55.95253974158027,
        "F": 60.82295617078114,
        "L": 58.46178225112675,
        "A": 62.53759219040887,
        "B": 70.59734415214854
    },
    "Holding_per_stop": {
        "D": 23.29787234042553,
        "I": 21.473684210526315,
        "J": 20.210526315789473,
        "H": 16.914893617021278,
        "C": 24.25531914893617,
        "G": 21.382978723404257,
        "E": 22.02127659574468,
        "K": 21.789473684210527,
        "F": 17.419354838709676,
        "L": 20.106382978723403,
        "A": 15.957446808510639,
        "B": 19.677419354838708
    },
    "Actions_tfl_edges": {
        "BC": [
            94,
            0,
            0
        ],
        "CD": [
            95,
            0,
            0
        ],
        "FG": [
            94,
            0,
            0
        ],
        "GH": [
            95,
            0,
            0
        ],
        "HI": [
            95,
            0,
            0
        ],
        "IJ": [
            96,
            0,
            0
        ],
        "DE": [
            94,
            0,
            0
        ],
        "JK": [
            95,
            0,
            0
        ],
        "EF": [
            94,
            0,
            0
        ],
        "KL": [
            95,
            0,
            0
        ],
        "LA": [
            94,
            0,
            0
        ],
        "AB": [
            94,
            0,
            0
        ]
    },
    "Load_per_bus_per_stop": {
        "bus4": {
            "I": 52.3125,
            "J": 52.625,
            "K": 54.3125,
            "L": 55.875,
            "A": 58.4375,
            "B": 58.125,
            "C": 56.1875,
            "D": 58.3125,
            "E": 57.6875,
            "F": 55.8,
            "G": 57.2,
            "H": 54.8
        },
        "bus1": {
            "D": 54.375,
            "E": 54.3125,
            "F": 55.6875,
            "G": 55.6875,
            "H": 57.5625,
            "I": 58.625,
            "J": 57.3125,
            "K": 57.25,
            "L": 56.93333333333333,
            "A": 59.4,
            "B": 59.46666666666667,
            "C": 57.8
        },
        "bus0": {
            "C": 52.125,
            "D": 51,
            "E": 51.4375,
            "F": 53.6875,
            "G": 54.5,
            "H": 55.1875,
            "I": 58.3125,
            "J": 58.13333333333333,
            "K": 58,
            "L": 57.666666666666664,
            "A": 56.13333333333333,
            "B": 56.266666666666666
        },
        "bus2": {
            "G": 53.9375,
            "H": 55.875,
            "I": 56.75,
            "J": 57.25,
            "K": 57.625,
            "L": 56.75,
            "A": 59.375,
            "B": 62.666666666666664,
            "C": 63.13333333333333,
            "D": 61.53333333333333,
            "E": 58.8,
            "F": 58.13333333333333
        },
        "bus5": {
            "J": 59.6875,
            "K": 57.5,
            "L": 57.5625,
            "A": 59.5,
            "B": 59.25,
            "C": 63.125,
            "D": 66.75,
            "E": 66,
            "F": 67.125,
            "G": 66.25,
            "H": 66.13333333333334,
            "I": 65.6
        },
        "bus3": {
            "H": 55.5,
            "I": 54.4375,
            "J": 56.1875,
            "K": 55.6875,
            "L": 56,
            "A": 53.875,
            "B": 53.25,
            "C": 54.0625,
            "D": 56.8,
            "E": 56.8,
            "F": 58.266666666666666,
            "G": 58.53333333333333
        }
    },
    "Obs_and_actions_busses": {
        "0": -127.93577853777546,
        "2": 195.80832598609604,
        "4": 328.76001941317674,
        "1": 117.47315043508765
    },
    "Obs_and_actions_tfls": {
        "0": 130.83936767723327
    }
}9,
        "1": 125.07172618386672,
        "4": 300.52809441609054
    },
    "Obs_and_actions_tfls": {
        "0": 130.85126879030153
    }
}