{
    "Average_holding_time": 22.47978436657682,
    "Average_holding_actions": [
        700,
        222,
        76,
        115,
        0,
        0
    ],
    "Average_travel_time_passengers": 2096.780235062916,
    "Average_passenger_waiting_time": 330.84081970897137,
    "Average_passenger_in_vehicle_time": 1765.9394153539154,
    "Average_speed_busses": 0.046375,
    "Average_experienced_crowding": 60.18723614353947,
    "Average_covariation_headway": 0.3093933626443651,
    "Average_covariation_headway_stops": {
        "G": 0.22647478447505512,
        "B": 0.2013311454788977,
        "E": 0.2222424184195868,
        "K": 0.23641741628223695,
        "A": 0.22505366599278115,
        "F": 0.22047876797883667,
        "H": 0.19865797004487243,
        "C": 0.2115045140682024,
        "L": 0.2381177134280781,
        "I": 0.2117047684409689,
        "D": 0.22344745469008312,
        "J": 0.2218229816147133
    },
    "Average_excess_waiting_time": {
        "G": 59.25559573738337,
        "B": 57.14406622400202,
        "E": 61.13307679245344,
        "K": 63.91045053461323,
        "A": 62.00282835014377,
        "F": 60.35014405659342,
        "H": 57.273705681608305,
        "C": 60.156735504538915,
        "L": 65.8083086473099,
        "I": 60.55509341150332,
        "D": 62.80114265980296,
        "J": 63.49537077095982
    },
    "Holding_per_stop": {
        "G": 24.838709677419356,
        "B": 18.387096774193548,
        "E": 20.967741935483872,
        "K": 23.225806451612904,
        "A": 24.193548387096776,
        "F": 24.516129032258064,
        "H": 20.322580645161292,
        "C": 20.322580645161292,
        "I": 19.35483870967742,
        "L": 28.369565217391305,
        "D": 21.847826086956523,
        "J": 23.47826086956522
    },
    "Actions_tfl_edges": {
        "AB": [
            94,
            0,
            0
        ],
        "DE": [
            93,
            0,
            0
        ],
        "EF": [
            94,
            0,
            0
        ],
        "FG": [
            94,
            0,
            0
        ],
        "JK": [
            93,
            0,
            0
        ],
        "LA": [
            93,
            0,
            0
        ],
        "GH": [
            93,
            0,
            0
        ],
        "BC": [
            93,
            0,
            0
        ],
        "KL": [
            92,
            0,
            0
        ],
        "HI": [
            93,
            0,
            0
        ],
        "CD": [
            93,
            0,
            0
        ],
        "IJ": [
            92,
            0,
            0
        ]
    },
    "Load_per_bus_per_stop": {
        "bus3": {
            "G": 56.1875,
            "H": 57.375,
            "I": 56.3125,
            "J": 56.5625,
            "K": 56.125,
            "L": 55.125,
            "A": 56.9375,
            "B": 57.93333333333333,
            "C": 59.4,
            "D": 59.733333333333334,
            "E": 60.93333333333333,
            "F": 59.13333333333333
        },
        "bus0": {
            "B": 59.625,
            "C": 58.375,
            "D": 58.4375,
            "E": 57.6875,
            "F": 56.875,
            "G": 56.9375,
            "H": 57.13333333333333,
            "I": 58.53333333333333,
            "J": 59.6,
            "K": 61.46666666666667,
            "L": 61.93333333333333,
            "A": 64.13333333333334
        },
        "bus1": {
            "E": 59.9375,
            "F": 60.8125,
            "G": 60.6875,
            "H": 57.75,
            "I": 57.3125,
            "J": 59.333333333333336,
            "K": 59,
            "L": 58.53333333333333,
            "A": 60.46666666666667,
            "B": 61.4,
            "C": 62.333333333333336,
            "D": 62.666666666666664
        },
        "bus4": {
            "K": 54.25,
            "L": 55.125,
            "A": 58.25,
            "B": 57.25,
            "C": 57.1875,
            "D": 59.86666666666667,
            "E": 60.86666666666667,
            "F": 60.6,
            "G": 59.6,
            "H": 58.13333333333333,
            "I": 57.6,
            "J": 56.86666666666667
        },
        "bus5": {
            "A": 54.75,
            "B": 54.0625,
            "C": 55.125,
            "D": 56.125,
            "E": 56.75,
            "F": 58.733333333333334,
            "G": 59.2,
            "H": 61.4,
            "I": 59.8,
            "J": 57.86666666666667,
            "K": 57.733333333333334,
            "L": 57.13333333333333
        },
        "bus2": {
            "F": 54.75,
            "G": 55.3125,
            "H": 57.1875,
            "I": 58.3125,
            "J": 58.25,
            "K": 59.0625,
            "L": 59.6,
            "A": 59.46666666666667,
            "B": 59,
            "C": 58.333333333333336,
            "D": 57.266666666666666,
            "E": 57.86666666666667
        }
    },
    "Obs_and_actions_busses": {
        "0": -129.51704095863496,
        "1": 118.6770730258455,
        "4": 290.96790028744425,
        "2": 191.99618815266493
    },
    "Obs_and_actions_tfls": {
        "0": 134.4742883002788
    }
}