{
    "Average_holding_time": 21.850180505415164,
    "Average_holding_actions": [
        720,
        197,
        77,
        114,
        0,
        0
    ],
    "Average_travel_time_passengers": 2115.8343433662913,
    "Average_passenger_waiting_time": 338.08114609155393,
    "Average_passenger_in_vehicle_time": 1777.753197274764,
    "Average_speed_busses": 0.04616666666666667,
    "Average_experienced_crowding": 61.65058365439739,
    "Average_covariation_headway": 0.32694939878061,
    "Average_covariation_headway_stops": {
        "H": 0.24326830929500817,
        "B": 0.28390230024204766,
        "F": 0.2676152627417437,
        "K": 0.24334677633855986,
        "L": 0.25496456911057647,
        "A": 0.28064017273763475,
        "C": 0.2553414066091263,
        "I": 0.22651368601652402,
        "G": 0.26175877740090475,
        "J": 0.21243728691136293,
        "D": 0.244434796405404,
        "E": 0.2577656756224412
    },
    "Average_excess_waiting_time": {
        "H": 64.08345865749368,
        "B": 68.64906903815819,
        "F": 67.65707388292009,
        "K": 67.05160864425761,
        "L": 67.43234422333632,
        "A": 70.40810458305714,
        "C": 65.22413699891501,
        "I": 64.27393138762795,
        "G": 68.57275225932347,
        "J": 63.69149422724092,
        "D": 65.61869521919971,
        "E": 70.30132589236217
    },
    "Holding_per_stop": {
        "H": 19.677419354838708,
        "B": 25.806451612903224,
        "L": 17.934782608695652,
        "A": 20.64516129032258,
        "F": 19.565217391304348,
        "K": 20.217391304347824,
        "I": 22.5,
        "C": 25.806451612903224,
        "G": 25.76086956521739,
        "J": 15.326086956521738,
        "D": 24.130434782608695,
        "E": 24.782608695652176
    },
    "Actions_tfl_edges": {
        "AB": [
            94,
            0,
            0
        ],
        "EF": [
            93,
            0,
            0
        ],
        "GH": [
            93,
            0,
            0
        ],
        "JK": [
            93,
            0,
            0
        ],
        "KL": [
            93,
            0,
            0
        ],
        "LA": [
            93,
            0,
            0
        ],
        "HI": [
            93,
            0,
            0
        ],
        "BC": [
            93,
            0,
            0
        ],
        "FG": [
            92,
            0,
            0
        ],
        "IJ": [
            92,
            0,
            0
        ],
        "CD": [
            93,
            0,
            0
        ],
        "DE": [
            92,
            0,
            0
        ]
    },
    "Load_per_bus_per_stop": {
        "bus2": {
            "H": 57.6875,
            "I": 60.5625,
            "J": 60.0625,
            "K": 60.375,
            "L": 60.666666666666664,
            "A": 59.46666666666667,
            "B": 58.86666666666667,
            "C": 59.06666666666667,
            "D": 59.266666666666666,
            "E": 58.8,
            "F": 59.8,
            "G": 60.2
        },
        "bus0": {
            "B": 57.5625,
            "C": 57.5,
            "D": 58.9375,
            "E": 60.375,
            "F": 58.5625,
            "G": 59.25,
            "H": 62.25,
            "I": 66.33333333333333,
            "J": 67.13333333333334,
            "K": 67.06666666666666,
            "L": 64.2,
            "A": 62.266666666666666
        },
        "bus1": {
            "F": 59.625,
            "G": 57.0625,
            "H": 57,
            "I": 54.5,
            "J": 54.1875,
            "K": 54.8,
            "L": 56.666666666666664,
            "A": 61.06666666666667,
            "B": 62.6,
            "C": 63,
            "D": 64.4,
            "E": 63.93333333333333
        },
        "bus3": {
            "K": 58,
            "L": 58.375,
            "A": 59.1875,
            "B": 60.333333333333336,
            "C": 59.2,
            "D": 59.4,
            "E": 60.13333333333333,
            "F": 60.4,
            "G": 59.333333333333336,
            "H": 58.46666666666667,
            "I": 58.666666666666664,
            "J": 61.2
        },
        "bus4": {
            "L": 55.1875,
            "A": 54.8125,
            "B": 56.375,
            "C": 57.4375,
            "D": 57.5625,
            "E": 57.333333333333336,
            "F": 56.93333333333333,
            "G": 55.86666666666667,
            "H": 56.666666666666664,
            "I": 56.93333333333333,
            "J": 58.06666666666667,
            "K": 59.06666666666667
        },
        "bus5": {
            "A": 54.125,
            "B": 53.3125,
            "C": 54.5625,
            "D": 55.6875,
            "E": 55.8125,
            "F": 56.46666666666667,
            "G": 55.53333333333333,
            "H": 55.266666666666666,
            "I": 55.666666666666664,
            "J": 57.333333333333336,
            "K": 55.6,
            "L": 56.266666666666666
        }
    },
    "Obs_and_actions_busses": {
        "0": -129.3186542268774,
        "1": 122.95286440547532,
        "2": 202.75409557223117,
        "4": 303.22509856974324
    },
    "Obs_and_actions_tfls": {
        "0": 138.88248936417094
    }
}