{
    "Average_holding_time": 28.93053016453382,
    "Average_holding_actions": [
        619,
        229,
        79,
        167,
        0,
        0
    ],
    "Average_travel_time_passengers": 2171.7638967879634,
    "Average_passenger_waiting_time": 381.9351153596266,
    "Average_passenger_in_vehicle_time": 1789.8287814283237,
    "Average_speed_busses": 0.04558333333333333,
    "Average_experienced_crowding": 68.18425788917911,
    "Average_covariation_headway": 0.465107630139158,
    "Average_covariation_headway_stops": {
        "D": 0.44073158844121874,
        "G": 0.42937651698487006,
        "C": 0.44550820541986713,
        "E": 0.4281777882818173,
        "F": 0.44127833006624306,
        "H": 0.42700839833730403,
        "I": 0.41171614716234606,
        "J": 0.4046109316651878,
        "K": 0.38144446892417333,
        "L": 0.3733017460601218,
        "A": 0.4098104600016444,
        "B": 0.42871289215102987
    },
    "Average_excess_waiting_time": {
        "D": 115.59604155110492,
        "G": 106.31911459311647,
        "C": 119.39213341892486,
        "E": 110.22106521113864,
        "F": 111.5982444586266,
        "H": 103.46283601192084,
        "I": 102.44075230904684,
        "J": 102.54409162314045,
        "K": 97.72772888331764,
        "L": 98.78010595638307,
        "A": 109.37610254943633,
        "B": 116.52211563774421
    },
    "Holding_per_stop": {
        "D": 32.30769230769231,
        "E": 27.36263736263736,
        "G": 28.369565217391305,
        "F": 26.73913043478261,
        "H": 28.70967741935484,
        "C": 29,
        "I": 26.73913043478261,
        "J": 28.043478260869566,
        "K": 30.32967032967033,
        "L": 30.666666666666668,
        "A": 32,
        "B": 27
    },
    "Actions_tfl_edges": {
        "BC": [
            91,
            0,
            0
        ],
        "CD": [
            91,
            0,
            0
        ],
        "DE": [
            92,
            0,
            0
        ],
        "EF": [
            92,
            0,
            0
        ],
        "FG": [
            93,
            0,
            0
        ],
        "GH": [
            93,
            0,
            0
        ],
        "HI": [
            93,
            0,
            0
        ],
        "IJ": [
            92,
            0,
            0
        ],
        "JK": [
            91,
            0,
            0
        ],
        "KL": [
            91,
            0,
            0
        ],
        "LA": [
            90,
            0,
            0
        ],
        "AB": [
            90,
            0,
            0
        ]
    },
    "Load_per_bus_per_stop": {
        "bus1": {
            "D": 56.6875,
            "E": 55.666666666666664,
            "F": 55.06666666666667,
            "G": 54.46666666666667,
            "H": 54.4,
            "I": 54.733333333333334,
            "J": 53.6,
            "K": 55.13333333333333,
            "L": 55.53333333333333,
            "A": 55.266666666666666,
            "B": 60,
            "C": 60.86666666666667
        },
        "bus4": {
            "G": 49.1875,
            "H": 48.9375,
            "I": 48.5,
            "J": 48.5,
            "K": 49.06666666666667,
            "L": 48.13333333333333,
            "A": 47.8,
            "B": 47.2,
            "C": 50.46666666666667,
            "D": 51.733333333333334,
            "E": 52.86666666666667,
            "F": 51.93333333333333
        },
        "bus0": {
            "C": 64.2,
            "D": 63.666666666666664,
            "E": 65,
            "F": 64.93333333333334,
            "G": 64.66666666666667,
            "H": 65.8,
            "I": 67.6,
            "J": 69.2,
            "K": 68.53333333333333,
            "L": 67.53333333333333,
            "A": 68,
            "B": 68.26666666666667
        },
        "bus2": {
            "E": 51.9375,
            "F": 53.5,
            "G": 54.13333333333333,
            "H": 54.06666666666667,
            "I": 52.8,
            "J": 54,
            "K": 53.4,
            "L": 54.266666666666666,
            "A": 54,
            "B": 54.93333333333333,
            "C": 53.2,
            "D": 51.93333333333333
        },
        "bus3": {
            "F": 47.625,
            "G": 49,
            "H": 48.9375,
            "I": 49.666666666666664,
            "J": 50.93333333333333,
            "K": 51.06666666666667,
            "L": 52.266666666666666,
            "A": 53.06666666666667,
            "B": 52.333333333333336,
            "C": 52.4,
            "D": 51.733333333333334,
            "E": 50
        },
        "bus5": {
            "H": 77.25,
            "I": 78.3125,
            "J": 77.875,
            "K": 75.5,
            "L": 76.0625,
            "A": 80.26666666666667,
            "B": 78.93333333333334,
            "C": 81.53333333333333,
            "D": 80.86666666666666,
            "E": 83,
            "F": 84,
            "G": 83.6
        }
    },
    "Obs_and_actions_busses": {
        "0": -213.96656392883796,
        "1": 125.3007235045211,
        "4": 392.2180464045776,
        "2": 195.73076049931828
    },
    "Obs_and_actions_tfls": {
        "0": 121.09188069100868
    }
}