{
    "Average_holding_time": 21.570026761819804,
    "Average_holding_actions": [
        723,
        216,
        69,
        113,
        0,
        0
    ],
    "Average_travel_time_passengers": 2071.8952215175377,
    "Average_passenger_waiting_time": 337.61243884977927,
    "Average_passenger_in_vehicle_time": 1734.2827826677553,
    "Average_speed_busses": 0.04670833333333333,
    "Average_experienced_crowding": 58.89989106823328,
    "Average_covariation_headway": 0.3319961607906823,
    "Average_covariation_headway_stops": {
        "C": 0.24557441836117153,
        "A": 0.27536306320061954,
        "I": 0.2672053182638338,
        "F": 0.2705082877609679,
        "B": 0.256845690934897,
        "D": 0.2502901377143195,
        "G": 0.24207427524510616,
        "J": 0.2481568635800886,
        "E": 0.24284686529535493,
        "H": 0.2569599604724262,
        "K": 0.2520507594342701,
        "L": 0.2682921396851834
    },
    "Average_excess_waiting_time": {
        "C": 60.8781759694686,
        "A": 69.22097046418804,
        "I": 63.6586630908937,
        "F": 62.48326044114259,
        "B": 64.60014598164332,
        "D": 59.79930259038673,
        "G": 59.90038555823031,
        "J": 62.53373204714609,
        "E": 60.25863681515642,
        "H": 63.61536045790899,
        "K": 65.77160214005244,
        "L": 70.00593945851045
    },
    "Holding_per_stop": {
        "C": 22.340425531914892,
        "I": 23.29787234042553,
        "F": 19.78723404255319,
        "B": 22.903225806451612,
        "A": 26.451612903225808,
        "D": 22.97872340425532,
        "G": 15,
        "J": 19.032258064516128,
        "E": 21.70212765957447,
        "H": 16.129032258064516,
        "K": 23.870967741935484,
        "L": 25.434782608695652
    },
    "Actions_tfl_edges": {
        "AB": [
            94,
            0,
            0
        ],
        "BC": [
            94,
            0,
            0
        ],
        "CD": [
            95,
            0,
            0
        ],
        "EF": [
            95,
            0,
            0
        ],
        "HI": [
            94,
            0,
            0
        ],
        "LA": [
            93,
            0,
            0
        ],
        "IJ": [
            94,
            0,
            0
        ],
        "FG": [
            94,
            0,
            0
        ],
        "DE": [
            94,
            0,
            0
        ],
        "GH": [
            94,
            0,
            0
        ],
        "JK": [
            93,
            0,
            0
        ],
        "KL": [
            93,
            0,
            0
        ]
    },
    "Load_per_bus_per_stop": {
        "bus1": {
            "C": 48.8125,
            "D": 49.5625,
            "E": 49.1875,
            "F": 50.25,
            "G": 52.3125,
            "H": 54.125,
            "I": 55.1875,
            "J": 54.5,
            "K": 52.13333333333333,
            "L": 51.06666666666667,
            "A": 51.4,
            "B": 51.4
        },
        "bus5": {
            "A": 47.25,
            "B": 47.75,
            "C": 49.3125,
            "D": 50.875,
            "E": 53.9375,
            "F": 56.333333333333336,
            "G": 56.13333333333333,
            "H": 56.4,
            "I": 59,
            "J": 56.4,
            "K": 54.733333333333334,
            "L": 53.13333333333333
        },
        "bus4": {
            "I": 53.5,
            "J": 53.0625,
            "K": 53.3125,
            "L": 55.375,
            "A": 56.125,
            "B": 57.1875,
            "C": 57.9375,
            "D": 58.266666666666666,
            "E": 58,
            "F": 58.333333333333336,
            "G": 57.06666666666667,
            "H": 56.8
        },
        "bus3": {
            "F": 59.1875,
            "G": 60.5625,
            "H": 61.125,
            "I": 62.125,
            "J": 61.625,
            "K": 62.9375,
            "L": 62.3125,
            "A": 59,
            "B": 60,
            "C": 59.93333333333333,
            "D": 59.13333333333333,
            "E": 60.333333333333336
        },
        "bus0": {
            "B": 54.9375,
            "C": 54.6875,
            "D": 54.3125,
            "E": 54.4375,
            "F": 54.8125,
            "G": 53.0625,
            "H": 53.9375,
            "I": 54,
            "J": 55.8,
            "K": 55.53333333333333,
            "L": 56,
            "A": 55.93333333333333
        },
        "bus2": {
            "D": 60.9375,
            "E": 60,
            "F": 59.25,
            "G": 58.5,
            "H": 57.6875,
            "I": 59.4375,
            "J": 58.8125,
            "K": 58.875,
            "L": 63.266666666666666,
            "A": 64.93333333333334,
            "B": 67,
            "C": 65.8
        }
    },
    "Obs_and_actions_busses": {
        "1": 122.75697233915886,
        "4": 323.0120507650813,
        "0": -129.3182685404571,
        "2": 196.12742131788647
    },
    "Obs_and_actions_tfls": {
        "0": 133.37981550776357
    }
}