{
    "Average_holding_time": 22.265834076717216,
    "Average_holding_actions": [
        691,
        238,
        87,
        105,
        0,
        0
    ],
    "Average_travel_time_passengers": 2081.7875778677876,
    "Average_passenger_waiting_time": 335.61986268864166,
    "Average_passenger_in_vehicle_time": 1746.1677151791046,
    "Average_speed_busses": 0.04670833333333333,
    "Average_experienced_crowding": 60.733830461761414,
    "Average_covariation_headway": 0.3415119252976242,
    "Average_covariation_headway_stops": {
        "E": 0.2479014022135299,
        "D": 0.23607828550527166,
        "A": 0.27014504208005785,
        "C": 0.24630172451627733,
        "J": 0.2581585189093584,
        "F": 0.26127988072348324,
        "G": 0.26278169412269864,
        "K": 0.2668919303993077,
        "B": 0.24359492409917324,
        "H": 0.2423190912697237,
        "L": 0.26673139494113385,
        "I": 0.25242299968486387
    },
    "Average_excess_waiting_time": {
        "E": 60.28756120055721,
        "D": 59.32333152567486,
        "A": 66.95992116752848,
        "C": 62.361843611839674,
        "J": 63.3790593742134,
        "F": 60.74093653439627,
        "G": 63.22482979890793,
        "K": 65.31520027384482,
        "B": 64.73537331560243,
        "H": 61.6205703766617,
        "L": 67.70398733189114,
        "I": 64.6749725073696
    },
    "Holding_per_stop": {
        "E": 19.148936170212767,
        "D": 21.70212765957447,
        "F": 22.340425531914892,
        "A": 25.483870967741936,
        "J": 20.106382978723403,
        "C": 19.35483870967742,
        "G": 25.851063829787233,
        "K": 20.64516129032258,
        "B": 24.516129032258064,
        "H": 23.548387096774192,
        "L": 23.870967741935484,
        "I": 20.64516129032258
    },
    "Actions_tfl_edges": {
        "BC": [
            94,
            0,
            0
        ],
        "CD": [
            94,
            0,
            0
        ],
        "DE": [
            95,
            0,
            0
        ],
        "EF": [
            95,
            0,
            0
        ],
        "IJ": [
            94,
            0,
            0
        ],
        "LA": [
            94,
            0,
            0
        ],
        "FG": [
            94,
            0,
            0
        ],
        "AB": [
            93,
            0,
            0
        ],
        "JK": [
            94,
            0,
            0
        ],
        "GH": [
            94,
            0,
            0
        ],
        "KL": [
            93,
            0,
            0
        ],
        "HI": [
            93,
            0,
            0
        ]
    },
    "Load_per_bus_per_stop": {
        "bus2": {
            "E": 57.0625,
            "F": 56.25,
            "G": 56.4375,
            "H": 58.0625,
            "I": 58.1875,
            "J": 58.6875,
            "K": 57.6875,
            "L": 59.1875,
            "A": 57.53333333333333,
            "B": 58.4,
            "C": 58.6,
            "D": 60.266666666666666
        },
        "bus1": {
            "D": 52.75,
            "E": 51.6875,
            "F": 52.125,
            "G": 51.3125,
            "H": 51.8125,
            "I": 53.1875,
            "J": 53.625,
            "K": 55.2,
            "L": 56.4,
            "A": 56.93333333333333,
            "B": 57.2,
            "C": 57
        },
        "bus5": {
            "A": 56.75,
            "B": 55.125,
            "C": 55.25,
            "D": 56.25,
            "E": 56.4375,
            "F": 56.4375,
            "G": 56.666666666666664,
            "H": 55.6,
            "I": 55.666666666666664,
            "J": 57.6,
            "K": 58.4,
            "L": 58.93333333333333
        },
        "bus0": {
            "C": 54,
            "D": 55.75,
            "E": 53.9375,
            "F": 53.25,
            "G": 53.75,
            "H": 56.3125,
            "I": 56.86666666666667,
            "J": 58.86666666666667,
            "K": 55.733333333333334,
            "L": 55.46666666666667,
            "A": 58.13333333333333,
            "B": 57.2
        },
        "bus4": {
            "J": 58.6875,
            "K": 58.75,
            "L": 60.3125,
            "A": 60.1875,
            "B": 59.1875,
            "C": 60.5625,
            "D": 62.625,
            "E": 64.73333333333333,
            "F": 65.8,
            "G": 66.73333333333333,
            "H": 65.8,
            "I": 63.6
        },
        "bus3": {
            "F": 58.5625,
            "G": 56.375,
            "H": 56.3125,
            "I": 58.75,
            "J": 61.125,
            "K": 60,
            "L": 61.6875,
            "A": 60.4375,
            "B": 62.1875,
            "C": 61.6,
            "D": 61.86666666666667,
            "E": 60.93333333333333
        }
    },
    "Obs_and_actions_busses": {
        "1": 122.12735131729629,
        "0": -134.50688039419728,
        "4": 297.14761836109335,
        "2": 197.14509915206955
    },
    "Obs_and_actions_tfls": {
        "0": 134.045535951843
    }
} },
    "Obs_and_actions_tfls": {
        "0": 133.7854301434383
    }
}