{
    "Average_holding_time": 22.62826282628263,
    "Average_holding_actions": [
        721,
        164,
        101,
        97,
        0,
        0
    ],
    "Average_travel_time_passengers": 2090.185064280076,
    "Average_passenger_waiting_time": 334.4756496530722,
    "Average_passenger_in_vehicle_time": 1755.709414627,
    "Average_speed_busses": 0.04629166666666667,
    "Average_experienced_crowding": 61.044524212871885,
    "Average_covariation_headway": 0.3308132798935902,
    "Average_covariation_headway_stops": {
        "J": 0.24421967184914342,
        "G": 0.2649431397453416,
        "B": 0.2357628646063026,
        "I": 0.25323949542775925,
        "C": 0.23577080031128891,
        "L": 0.24682774580717914,
        "K": 0.23214071521733204,
        "D": 0.2238106622186492,
        "A": 0.23009609072061396,
        "H": 0.23699466763834554,
        "E": 0.2581529526574544,
        "F": 0.26789311027956114
    },
    "Average_excess_waiting_time": {
        "J": 63.188307456966356,
        "G": 68.47776208778669,
        "B": 62.529231418139034,
        "I": 66.31153271249536,
        "C": 60.143529596465044,
        "L": 63.42233115556513,
        "K": 63.003333677167575,
        "D": 59.784634120960504,
        "A": 62.323226376036075,
        "H": 65.75963238437862,
        "E": 67.08519255154692,
        "F": 73.11930657364445
    },
    "Holding_per_stop": {
        "J": 19.677419354838708,
        "C": 19.148936170212767,
        "L": 22.903225806451612,
        "G": 20.543478260869566,
        "B": 21.93548387096774,
        "I": 24.456521739130434,
        "K": 21.612903225806452,
        "D": 24.193548387096776,
        "A": 23.225806451612904,
        "H": 29.67391304347826,
        "E": 21.847826086956523,
        "F": 22.417582417582416
    },
    "Actions_tfl_edges": {
        "AB": [
            94,
            0,
            0
        ],
        "BC": [
            94,
            0,
            0
        ],
        "FG": [
            92,
            0,
            0
        ],
        "HI": [
            93,
            0,
            0
        ],
        "IJ": [
            93,
            0,
            0
        ],
        "KL": [
            94,
            0,
            0
        ],
        "JK": [
            93,
            0,
            0
        ],
        "CD": [
            94,
            0,
            0
        ],
        "LA": [
            93,
            0,
            0
        ],
        "GH": [
            92,
            0,
            0
        ],
        "DE": [
            93,
            0,
            0
        ],
        "EF": [
            92,
            0,
            0
        ]
    },
    "Load_per_bus_per_stop": {
        "bus4": {
            "J": 56.125,
            "K": 54.875,
            "L": 55.6875,
            "A": 56.75,
            "B": 55.5,
            "C": 55.9375,
            "D": 52.6,
            "E": 53,
            "F": 52.06666666666667,
            "G": 54.666666666666664,
            "H": 54.93333333333333,
            "I": 58.06666666666667
        },
        "bus2": {
            "G": 56.5,
            "H": 54.75,
            "I": 55.6875,
            "J": 55.0625,
            "K": 57.375,
            "L": 62.06666666666667,
            "A": 61.93333333333333,
            "B": 62.06666666666667,
            "C": 62.46666666666667,
            "D": 63.2,
            "E": 62.93333333333333,
            "F": 62.46666666666667
        },
        "bus0": {
            "B": 53.875,
            "C": 55.0625,
            "D": 56.125,
            "E": 59.3125,
            "F": 61.375,
            "G": 59.86666666666667,
            "H": 62.2,
            "I": 61.333333333333336,
            "J": 59.4,
            "K": 56.4,
            "L": 55.666666666666664,
            "A": 55.6
        },
        "bus3": {
            "I": 57.75,
            "J": 58.4375,
            "K": 58.3125,
            "L": 58.4375,
            "A": 58.3125,
            "B": 59,
            "C": 58.86666666666667,
            "D": 58,
            "E": 59.6,
            "F": 60.6,
            "G": 59,
            "H": 61.266666666666666
        },
        "bus1": {
            "C": 55.125,
            "D": 55,
            "E": 56.875,
            "F": 59.5,
            "G": 61.25,
            "H": 63.3125,
            "I": 61.733333333333334,
            "J": 62.8,
            "K": 62.6,
            "L": 62.666666666666664,
            "A": 61.2,
            "B": 59.4
        },
        "bus5": {
            "L": 56.375,
            "A": 58.9375,
            "B": 59.75,
            "C": 59.625,
            "D": 59.5625,
            "E": 58.0625,
            "F": 56.2,
            "G": 55.666666666666664,
            "H": 56.2,
            "I": 56.46666666666667,
            "J": 56.733333333333334,
            "K": 58.4
        }
    },
    "Obs_and_actions_busses": {
        "0": -127.09801368867267,
        "2": 189.98227092822174,
        "1": 115.30459585640669,
        "4": 312.5401989585155,
        "3": 240.79872321182074
    },
    "Obs_and_actions_tfls": {
        "0": 132.53838641040386
    }
}