{
    "Average_holding_time": 22.621184919210055,
    "Average_holding_actions": [
        721,
        182,
        93,
        118,
        0,
        0
    ],
    "Average_travel_time_passengers": 2079.483914299648,
    "Average_passenger_waiting_time": 337.1416472543492,
    "Average_passenger_in_vehicle_time": 1742.3422670453106,
    "Average_speed_busses": 0.04641666666666667,
    "Average_experienced_crowding": 59.98641937299525,
    "Average_covariation_headway": 0.330659414568938,
    "Average_covariation_headway_stops": {
        "H": 0.2667247648247989,
        "D": 0.25101330698019364,
        "A": 0.22972699005986424,
        "E": 0.2695441423319697,
        "G": 0.2475943526465034,
        "K": 0.2370383661145583,
        "B": 0.2328271483909807,
        "I": 0.26702118440858813,
        "F": 0.24580704259981606,
        "L": 0.21368406110409532,
        "C": 0.2512795554352546,
        "J": 0.24632547038948835
    },
    "Average_excess_waiting_time": {
        "H": 62.76141258598295,
        "D": 65.73801878500342,
        "A": 60.936265518040614,
        "E": 65.67684788586956,
        "G": 62.156852703211655,
        "K": 63.09694806139885,
        "B": 63.10712720825114,
        "I": 65.33263147635512,
        "F": 63.77220567946904,
        "L": 61.103807689510234,
        "C": 67.47932673860254,
        "J": 65.18972834800428
    },
    "Holding_per_stop": {
        "H": 21.70212765957447,
        "A": 20.64516129032258,
        "E": 25.161290322580644,
        "G": 22.580645161290324,
        "K": 24.516129032258064,
        "D": 20.967741935483872,
        "B": 18.91304347826087,
        "I": 21.612903225806452,
        "F": 26.451612903225808,
        "L": 22.17391304347826,
        "C": 19.565217391304348,
        "J": 27.096774193548388
    },
    "Actions_tfl_edges": {
        "CD": [
            93,
            0,
            0
        ],
        "DE": [
            94,
            0,
            0
        ],
        "FG": [
            94,
            0,
            0
        ],
        "GH": [
            94,
            0,
            0
        ],
        "JK": [
            94,
            0,
            0
        ],
        "LA": [
            93,
            0,
            0
        ],
        "HI": [
            94,
            0,
            0
        ],
        "AB": [
            93,
            0,
            0
        ],
        "EF": [
            93,
            0,
            0
        ],
        "KL": [
            93,
            0,
            0
        ],
        "BC": [
            92,
            0,
            0
        ],
        "IJ": [
            93,
            0,
            0
        ]
    },
    "Load_per_bus_per_stop": {
        "bus3": {
            "H": 56.125,
            "I": 55.5625,
            "J": 58.375,
            "K": 58.0625,
            "L": 56.375,
            "A": 56.625,
            "B": 55.666666666666664,
            "C": 58.6,
            "D": 59.6,
            "E": 61.13333333333333,
            "F": 61.733333333333334,
            "G": 61.46666666666667
        },
        "bus0": {
            "D": 54.125,
            "E": 55.375,
            "F": 53.8125,
            "G": 55.3125,
            "H": 58,
            "I": 57.625,
            "J": 59,
            "K": 58.93333333333333,
            "L": 59.333333333333336,
            "A": 60.2,
            "B": 59,
            "C": 57
        },
        "bus5": {
            "A": 57.875,
            "B": 57.875,
            "C": 60.1875,
            "D": 62.3125,
            "E": 62.875,
            "F": 62.5625,
            "G": 62.4375,
            "H": 62.333333333333336,
            "I": 63.86666666666667,
            "J": 62.333333333333336,
            "K": 61.86666666666667,
            "L": 61.8
        },
        "bus1": {
            "E": 58.5625,
            "F": 58.5,
            "G": 57.875,
            "H": 57.375,
            "I": 56.625,
            "J": 54.4375,
            "K": 54.666666666666664,
            "L": 56.266666666666666,
            "A": 57.53333333333333,
            "B": 58.6,
            "C": 58.666666666666664,
            "D": 60.266666666666666
        },
        "bus2": {
            "G": 51.3125,
            "H": 52.875,
            "I": 53.1875,
            "J": 54,
            "K": 56,
            "L": 56.8125,
            "A": 54.266666666666666,
            "B": 52.733333333333334,
            "C": 52.93333333333333,
            "D": 51.53333333333333,
            "E": 52.266666666666666,
            "F": 53.13333333333333
        },
        "bus4": {
            "K": 57.5,
            "L": 58.125,
            "A": 57.875,
            "B": 58.25,
            "C": 57.3125,
            "D": 56.4375,
            "E": 54.733333333333334,
            "F": 56.93333333333333,
            "G": 55.666666666666664,
            "H": 59.2,
            "I": 59.13333333333333,
            "J": 58.86666666666667
        }
    },
    "Obs_and_actions_busses": {
        "0": -129.77595370445192,
        "1": 124.39591610780083,
        "2": 199.63972293847465,
        "4": 307.4134954956103
    },
    "Obs_and_actions_tfls": {
        "0": 136.99683301391568
    }
}