{
    "Average_holding_time": 20.302760463045413,
    "Average_holding_actions": [
        737,
        204,
        73,
        83,
        0,
        0
    ],
    "Average_travel_time_passengers": 2054.542693911526,
    "Average_passenger_waiting_time": 330.509858558167,
    "Average_passenger_in_vehicle_time": 1724.032835353385,
    "Average_speed_busses": 0.04679166666666667,
    "Average_experienced_crowding": 60.02725213018036,
    "Average_covariation_headway": 0.311508015294664,
    "Average_covariation_headway_stops": {
        "I": 0.22616771321357027,
        "A": 0.24932447425773924,
        "F": 0.23336306464765175,
        "H": 0.23064804392649113,
        "D": 0.22135357222660085,
        "K": 0.23563810640955787,
        "J": 0.21902358397643015,
        "B": 0.2565039305155901,
        "G": 0.22035774688874432,
        "E": 0.2203210015658115,
        "L": 0.23137069859934548,
        "C": 0.23741627726941308
    },
    "Average_excess_waiting_time": {
        "I": 57.79406910723333,
        "A": 59.02123624451093,
        "F": 59.98832137050573,
        "H": 60.350771828579695,
        "D": 56.85319100450852,
        "K": 58.45648014569099,
        "J": 57.99066179111213,
        "B": 62.191071883145355,
        "G": 60.990816765998034,
        "E": 59.979120905041384,
        "L": 59.28154064679842,
        "C": 61.151058268875204
    },
    "Holding_per_stop": {
        "I": 19.148936170212767,
        "A": 21.06382978723404,
        "F": 14.680851063829786,
        "H": 19.032258064516128,
        "D": 22.659574468085108,
        "K": 18.51063829787234,
        "J": 16.774193548387096,
        "B": 24.25531914893617,
        "L": 21.06382978723404,
        "G": 17.741935483870968,
        "E": 22.580645161290324,
        "C": 26.129032258064516
    },
    "Actions_tfl_edges": {
        "CD": [
            94,
            0,
            0
        ],
        "EF": [
            94,
            0,
            0
        ],
        "GH": [
            94,
            0,
            0
        ],
        "HI": [
            94,
            0,
            0
        ],
        "JK": [
            94,
            0,
            0
        ],
        "LA": [
            95,
            0,
            0
        ],
        "IJ": [
            94,
            0,
            0
        ],
        "AB": [
            94,
            0,
            0
        ],
        "FG": [
            93,
            0,
            0
        ],
        "DE": [
            94,
            0,
            0
        ],
        "KL": [
            94,
            0,
            0
        ],
        "BC": [
            94,
            0,
            0
        ]
    },
    "Load_per_bus_per_stop": {
        "bus3": {
            "I": 55.125,
            "J": 56.25,
            "K": 55.6875,
            "L": 54.1875,
            "A": 53.5,
            "B": 53.75,
            "C": 52.6875,
            "D": 52.375,
            "E": 53.13333333333333,
            "F": 56.2,
            "G": 57.13333333333333,
            "H": 57.6
        },
        "bus5": {
            "A": 51.8125,
            "B": 51,
            "C": 55.4375,
            "D": 55.125,
            "E": 55.375,
            "F": 54.9375,
            "G": 53.0625,
            "H": 53.4,
            "I": 52.53333333333333,
            "J": 53.666666666666664,
            "K": 53.333333333333336,
            "L": 54.86666666666667
        },
        "bus1": {
            "F": 61.625,
            "G": 60.75,
            "H": 61.625,
            "I": 62.6875,
            "J": 61.75,
            "K": 59.625,
            "L": 59.8125,
            "A": 59.8,
            "B": 59.93333333333333,
            "C": 58.733333333333334,
            "D": 59.266666666666666,
            "E": 61.6
        },
        "bus2": {
            "H": 55.5,
            "I": 54.8125,
            "J": 55.9375,
            "K": 58.9375,
            "L": 60.8125,
            "A": 64.4375,
            "B": 61.75,
            "C": 61.93333333333333,
            "D": 60.733333333333334,
            "E": 60.06666666666667,
            "F": 60.86666666666667,
            "G": 60.6
        },
        "bus0": {
            "D": 65.1875,
            "E": 66.875,
            "F": 66.9375,
            "G": 67.75,
            "H": 69.1875,
            "I": 68.9375,
            "J": 65.46666666666667,
            "K": 65.53333333333333,
            "L": 65.26666666666667,
            "A": 67.66666666666667,
            "B": 68.2,
            "C": 68.8
        },
        "bus4": {
            "K": 47.125,
            "L": 48.4375,
            "A": 47.625,
            "B": 50.25,
            "C": 50.75,
            "D": 52.8125,
            "E": 52.4375,
            "F": 52.9375,
            "G": 54.2,
            "H": 54.666666666666664,
            "I": 53.333333333333336,
            "J": 51.13333333333333
        }
    },
    "Obs_and_actions_busses": {
        "1": 117.96593936531822,
        "0": -115.28500922721898,
        "2": 192.27037668192827,
        "4": 297.8818881880065,
        "3": 237.17434856805932
    },
    "Obs_and_actions_tfls": {
        "0": 140.65074814594624
    }
}