{
    "Average_holding_time": 21.569148936170212,
    "Average_holding_actions": [
        729,
        189,
        109,
        101,
        0,
        0
    ],
    "Average_travel_time_passengers": 2059.623764250621,
    "Average_passenger_waiting_time": 328.6756742634229,
    "Average_passenger_in_vehicle_time": 1730.9480899872376,
    "Average_speed_busses": 0.047,
    "Average_experienced_crowding": 58.93471647547874,
    "Average_covariation_headway": 0.31778254406567435,
    "Average_covariation_headway_stops": {
        "J": 0.24475147865975252,
        "B": 0.25613045940217205,
        "G": 0.24914667375944205,
        "C": 0.24972342083282803,
        "A": 0.2456317637773398,
        "K": 0.2510010400207423,
        "D": 0.22708498848047773,
        "H": 0.24201870909886775,
        "L": 0.26155922449783053,
        "E": 0.22189494754025757,
        "I": 0.2431004607953856,
        "F": 0.21964887225092464
    },
    "Average_excess_waiting_time": {
        "J": 60.714942789266956,
        "B": 60.9261120165973,
        "G": 60.40286593755104,
        "C": 58.43491674486887,
        "A": 60.85525299694382,
        "K": 60.56499604373511,
        "D": 55.598058520785514,
        "H": 61.22059445674853,
        "L": 64.2085766139183,
        "E": 56.74522578974978,
        "I": 62.77237743688363,
        "F": 57.88098941206823
    },
    "Holding_per_stop": {
        "B": 24.25531914893617,
        "C": 22.42105263157895,
        "K": 22.340425531914892,
        "J": 22.02127659574468,
        "G": 25.21276595744681,
        "A": 18.829787234042552,
        "D": 20.425531914893618,
        "H": 19.78723404255319,
        "L": 22.659574468085108,
        "E": 20.106382978723403,
        "I": 20.64516129032258,
        "F": 20.106382978723403
    },
    "Actions_tfl_edges": {
        "AB": [
            95,
            0,
            0
        ],
        "BC": [
            95,
            0,
            0
        ],
        "FG": [
            94,
            0,
            0
        ],
        "IJ": [
            94,
            0,
            0
        ],
        "JK": [
            95,
            0,
            0
        ],
        "LA": [
            95,
            0,
            0
        ],
        "CD": [
            95,
            0,
            0
        ],
        "KL": [
            94,
            0,
            0
        ],
        "GH": [
            94,
            0,
            0
        ],
        "DE": [
            94,
            0,
            0
        ],
        "HI": [
            94,
            0,
            0
        ],
        "EF": [
            94,
            0,
            0
        ]
    },
    "Load_per_bus_per_stop": {
        "bus3": {
            "J": 58.3125,
            "K": 59.9375,
            "L": 58,
            "A": 58,
            "B": 58.625,
            "C": 60.8125,
            "D": 59.2,
            "E": 61.53333333333333,
            "F": 60.2,
            "G": 59.733333333333334,
            "H": 60.8,
            "I": 62.53333333333333
        },
        "bus0": {
            "B": 49.8125,
            "C": 51.375,
            "D": 50.625,
            "E": 50.5,
            "F": 51.25,
            "G": 51.9375,
            "H": 50,
            "I": 51.75,
            "J": 51.5625,
            "K": 51.333333333333336,
            "L": 52.4,
            "A": 52.8
        },
        "bus2": {
            "G": 57.5,
            "H": 58.0625,
            "I": 57.4375,
            "J": 57.875,
            "K": 58.0625,
            "L": 57.9375,
            "A": 59.3125,
            "B": 59.13333333333333,
            "C": 58.333333333333336,
            "D": 58.13333333333333,
            "E": 59.333333333333336,
            "F": 58.266666666666666
        },
        "bus1": {
            "C": 60.1875,
            "D": 59.625,
            "E": 62.1875,
            "F": 62.4375,
            "G": 62.375,
            "H": 62.0625,
            "I": 60.4375,
            "J": 59.4375,
            "K": 60.8125,
            "L": 61.625,
            "A": 63.6,
            "B": 63.8
        },
        "bus5": {
            "A": 52.25,
            "B": 52.3125,
            "C": 52.875,
            "D": 54.3125,
            "E": 54.5625,
            "F": 53.75,
            "G": 53.1875,
            "H": 53.25,
            "I": 53.666666666666664,
            "J": 53.86666666666667,
            "K": 54,
            "L": 54.46666666666667
        },
        "bus4": {
            "K": 54.1875,
            "L": 57.125,
            "A": 59.25,
            "B": 60.375,
            "C": 62.125,
            "D": 61.4375,
            "E": 61.625,
            "F": 62.125,
            "G": 59.666666666666664,
            "H": 58.4,
            "I": 58,
            "J": 57.93333333333333
        }
    },
    "Obs_and_actions_busses": {
        "0": -132.89651872668594,
        "2": 192.67524040457695,
        "1": 118.88689625410419,
        "4": 328.71326737104533
    },
    "Obs_and_actions_tfls": {
        "0": 138.22679655935778
    }
}