{
    "Average_holding_time": 20.74468085106383,
    "Average_holding_actions": [
        734,
        224,
        62,
        108,
        0,
        0
    ],
    "Average_travel_time_passengers": 2068.7116622519516,
    "Average_passenger_waiting_time": 327.5061416136326,
    "Average_passenger_in_vehicle_time": 1741.2055206383213,
    "Average_speed_busses": 0.047,
    "Average_experienced_crowding": 59.50198492806667,
    "Average_covariation_headway": 0.32666317145349855,
    "Average_covariation_headway_stops": {
        "F": 0.22953625516336035,
        "D": 0.2320101888974391,
        "B": 0.24624680541090832,
        "K": 0.26714952400257747,
        "G": 0.2092165085371959,
        "A": 0.2753684085272548,
        "E": 0.21893324770947079,
        "C": 0.23205071767024846,
        "H": 0.22270437645579413,
        "L": 0.2671836055400957,
        "I": 0.23330103373264738,
        "J": 0.24130920438322004
    },
    "Average_excess_waiting_time": {
        "F": 55.61400140821479,
        "D": 56.27251074773949,
        "B": 58.36331858929509,
        "K": 63.448235785551276,
        "G": 51.985635767897065,
        "A": 65.46462469591944,
        "E": 56.21717521095644,
        "C": 57.76827997938079,
        "H": 55.72576257601696,
        "L": 64.99557141241092,
        "I": 58.69642862917806,
        "J": 61.235301295067416
    },
    "Holding_per_stop": {
        "B": 22.659574468085108,
        "D": 23.617021276595743,
        "G": 17.68421052631579,
        "F": 20.526315789473685,
        "K": 22.340425531914892,
        "A": 25.53191489361702,
        "C": 20.106382978723403,
        "E": 20.74468085106383,
        "H": 18.19148936170213,
        "L": 20.322580645161292,
        "I": 19.78723404255319,
        "J": 17.419354838709676
    },
    "Actions_tfl_edges": {
        "AB": [
            95,
            0,
            0
        ],
        "CD": [
            95,
            0,
            0
        ],
        "EF": [
            95,
            0,
            0
        ],
        "FG": [
            96,
            0,
            0
        ],
        "JK": [
            94,
            0,
            0
        ],
        "LA": [
            94,
            0,
            0
        ],
        "BC": [
            94,
            0,
            0
        ],
        "DE": [
            94,
            0,
            0
        ],
        "GH": [
            95,
            0,
            0
        ],
        "KL": [
            94,
            0,
            0
        ],
        "HI": [
            94,
            0,
            0
        ],
        "IJ": [
            94,
            0,
            0
        ]
    },
    "Load_per_bus_per_stop": {
        "bus2": {
            "F": 51.8125,
            "G": 51.5,
            "H": 50.9375,
            "I": 50.5625,
            "J": 50.625,
            "K": 51.75,
            "L": 52.625,
            "A": 52.1875,
            "B": 53.733333333333334,
            "C": 55.46666666666667,
            "D": 54.46666666666667,
            "E": 54.06666666666667
        },
        "bus1": {
            "D": 60.4375,
            "E": 59.875,
            "F": 58.25,
            "G": 58.125,
            "H": 57.25,
            "I": 57.875,
            "J": 58.8125,
            "K": 60.8125,
            "L": 59.625,
            "A": 59.86666666666667,
            "B": 60.6,
            "C": 61.733333333333334
        },
        "bus0": {
            "B": 55.1875,
            "C": 54,
            "D": 56.375,
            "E": 57.75,
            "F": 57.375,
            "G": 57.5,
            "H": 58.9375,
            "I": 57.6875,
            "J": 57.625,
            "K": 57.4,
            "L": 57.93333333333333,
            "A": 58.266666666666666
        },
        "bus4": {
            "K": 51.5,
            "L": 55.25,
            "A": 56.125,
            "B": 58.3125,
            "C": 59,
            "D": 59.1875,
            "E": 59.8125,
            "F": 59.625,
            "G": 59.733333333333334,
            "H": 59.333333333333336,
            "I": 57.46666666666667,
            "J": 55.93333333333333
        },
        "bus3": {
            "G": 58.1875,
            "H": 60.25,
            "I": 60.875,
            "J": 60.75,
            "K": 60.5,
            "L": 59.1875,
            "A": 58.6875,
            "B": 58.625,
            "C": 58.3125,
            "D": 57.0625,
            "E": 57.93333333333333,
            "F": 59.53333333333333
        },
        "bus5": {
            "A": 59.3125,
            "B": 56.875,
            "C": 56.0625,
            "D": 55.4375,
            "E": 54.625,
            "F": 54.0625,
            "G": 56.875,
            "H": 60.86666666666667,
            "I": 61.333333333333336,
            "J": 63.666666666666664,
            "K": 64.86666666666666,
            "L": 64.13333333333334
        }
    },
    "Obs_and_actions_busses": {
        "4": 294.5820081872581,
        "0": -120.92644885451392,
        "2": 197.2109815384413,
        "1": 124.38891624688138
    },
    "Obs_and_actions_tfls": {
        "0": 138.3055072998745
    }
}_and_actions_tfls": {
        "0": 131.0022029651467
    }
}