{
    "Average_holding_time": 25.91160220994475,
    "Average_travel_time_passengers": 2790.235703942684,
    "Average_speed_busses": 0.04525,
    "Average_experienced_crowding": 81.40125279745642,
    "Average_covariation_headway": 0.2527733921302751,
    "Average_covariation_headway_stops": {
        "K": 0.22875599355748993,
        "D": 0.19385328439738422,
        "E": 0.19106167565233895,
        "L": 0.22411156233769777,
        "A": 0.20830437974044816,
        "G": 0.16958453405290735,
        "B": 0.2050058163786698,
        "H": 0.16686919515654,
        "F": 0.19099238578228347,
        "I": 0.20929798233477823,
        "C": 0.19119899271849608,
        "J": 0.20921597047540824
    },
    "Average_excess_waiting_time": {
        "K": 73.86934253205521,
        "D": 64.3407743811025,
        "E": 62.16385445364887,
        "L": 69.27758778574287,
        "A": 65.10193668383062,
        "G": 59.38176101946141,
        "B": 66.5594989425287,
        "H": 61.18244619269257,
        "F": 63.776202731825435,
        "I": 68.90058088012142,
        "C": 65.7989697471155,
        "J": 71.26322095078535
    },
    "Holding_per_stop": {
        "E": 23.736263736263737,
        "A": 19.12087912087912,
        "G": 22.087912087912088,
        "L": 33,
        "K": 43,
        "D": 25.384615384615383,
        "B": 23.076923076923077,
        "H": 25.054945054945055,
        "F": 27.36263736263736,
        "I": 23.333333333333332,
        "C": 25.666666666666668,
        "J": 20.224719101123597
    },
    "Actions_tfl_edges": {
        "CD": [
            3,
            74,
            14
        ],
        "DE": [
            5,
            75,
            12
        ],
        "FG": [
            5,
            66,
            21
        ],
        "JK": [
            8,
            66,
            16
        ],
        "KL": [
            5,
            70,
            16
        ],
        "LA": [
            3,
            68,
            20
        ],
        "EF": [
            5,
            68,
            18
        ],
        "AB": [
            5,
            74,
            12
        ],
        "GH": [
            5,
            61,
            25
        ],
        "BC": [
            1,
            77,
            13
        ],
        "HI": [
            4,
            68,
            19
        ],
        "IJ": [
            6,
            61,
            23
        ]
    },
    "Load_per_bus_per_stop": {
        "bus3": {
            "K": 74.33333333333333,
            "L": 75.86666666666666,
            "A": 74.73333333333333,
            "B": 75.6,
            "C": 78,
            "D": 77.53333333333333,
            "E": 78.06666666666666,
            "F": 77.06666666666666,
            "G": 79,
            "H": 79.73333333333333,
            "I": 78.53333333333333,
            "J": 78.26666666666667
        },
        "bus0": {
            "D": 70.8125,
            "E": 71,
            "F": 69.8,
            "G": 72.6,
            "H": 74.33333333333333,
            "I": 74.26666666666667,
            "J": 73.73333333333333,
            "K": 74.93333333333334,
            "L": 76.53333333333333,
            "A": 75.2,
            "B": 76.06666666666666,
            "C": 75.73333333333333
        },
        "bus1": {
            "E": 80.6875,
            "F": 80.875,
            "G": 82.66666666666667,
            "H": 82.86666666666666,
            "I": 83.53333333333333,
            "J": 83.4,
            "K": 81.66666666666667,
            "L": 84,
            "A": 84.4,
            "B": 84.46666666666667,
            "C": 86.13333333333334,
            "D": 84.86666666666666
        },
        "bus4": {
            "L": 80.2,
            "A": 81.66666666666667,
            "B": 80.46666666666667,
            "C": 80.46666666666667,
            "D": 81.66666666666667,
            "E": 85.2,
            "F": 84.4,
            "G": 84.6,
            "H": 83.4,
            "I": 83.73333333333333,
            "J": 85.06666666666666,
            "K": 86.6
        },
        "bus5": {
            "A": 79.5,
            "B": 79.8125,
            "C": 77.06666666666666,
            "D": 77.66666666666667,
            "E": 80,
            "F": 80.93333333333334,
            "G": 84.4,
            "H": 85.46666666666667,
            "I": 86.86666666666666,
            "J": 86.13333333333334,
            "K": 87.53333333333333,
            "L": 84.4
        },
        "bus2": {
            "G": 75.25,
            "H": 77.4375,
            "I": 78.46666666666667,
            "J": 80.13333333333334,
            "K": 82,
            "L": 82,
            "A": 82.8,
            "B": 83.4,
            "C": 80.4,
            "D": 78.86666666666666,
            "E": 78.53333333333333,
            "F": 78.46666666666667
        }
    }
}            "A": 87,
            "B": 84.8,
            "C": 86.73333333333333
        }
    }
}