{
    "Average_holding_time": 22.9443447037702,
    "Average_travel_time_passengers": 2723.0007890964835,
    "Average_speed_busses": 0.04641666666666667,
    "Average_experienced_crowding": 82.35824748389521,
    "Average_covariation_headway": 0.303516277453794,
    "Average_covariation_headway_stops": {
        "E": 0.26858820428025043,
        "F": 0.26194446504030555,
        "G": 0.2522091977718701,
        "L": 0.23369842319477507,
        "K": 0.23119199402050378,
        "H": 0.260070780190316,
        "A": 0.22122091339413716,
        "I": 0.24554762148424727,
        "B": 0.20871771496975802,
        "J": 0.22801909389543343,
        "C": 0.232620982543833,
        "D": 0.24044317889497202
    },
    "Average_excess_waiting_time": {
        "E": 69.79111834385066,
        "F": 66.80190214624997,
        "G": 62.88944610278395,
        "L": 59.74836541091139,
        "K": 61.220014420536415,
        "H": 62.58765020011538,
        "A": 59.72436264449328,
        "I": 62.13460904866173,
        "B": 59.673468866200324,
        "J": 61.681252223848105,
        "C": 65.16822743674572,
        "D": 68.33224829504076
    },
    "Holding_per_stop": {
        "F": 23.870967741935484,
        "L": 23.617021276595743,
        "G": 18.06451612903226,
        "H": 24.893617021276597,
        "E": 25.434782608695652,
        "K": 28.387096774193548,
        "A": 16.774193548387096,
        "I": 30.322580645161292,
        "B": 18.06451612903226,
        "J": 22.580645161290324,
        "C": 20.869565217391305,
        "D": 22.417582417582416
    },
    "Actions_tfl_edges": {
        "DE": [
            13,
            43,
            36
        ],
        "EF": [
            12,
            41,
            40
        ],
        "FG": [
            12,
            40,
            42
        ],
        "GH": [
            10,
            36,
            48
        ],
        "JK": [
            16,
            31,
            47
        ],
        "KL": [
            15,
            40,
            39
        ],
        "LA": [
            15,
            40,
            39
        ],
        "HI": [
            14,
            36,
            44
        ],
        "AB": [
            11,
            41,
            41
        ],
        "IJ": [
            13,
            36,
            44
        ],
        "BC": [
            16,
            34,
            43
        ],
        "CD": [
            13,
            43,
            36
        ]
    },
    "Load_per_bus_per_stop": {
        "bus0": {
            "E": 84.0625,
            "F": 83.625,
            "G": 83.5,
            "H": 85.8125,
            "I": 84.375,
            "J": 84.2,
            "K": 86.93333333333334,
            "L": 88.8,
            "A": 88,
            "B": 88.06666666666666,
            "C": 87.46666666666667,
            "D": 88.93333333333334
        },
        "bus1": {
            "F": 70.875,
            "G": 72.375,
            "H": 75.125,
            "I": 76.75,
            "J": 79.375,
            "K": 78.53333333333333,
            "L": 78.2,
            "A": 78.66666666666667,
            "B": 78.06666666666666,
            "C": 76,
            "D": 74.06666666666666,
            "E": 74.86666666666666
        },
        "bus2": {
            "G": 72.125,
            "H": 73.5,
            "I": 74,
            "J": 75.25,
            "K": 76,
            "L": 78.3125,
            "A": 75.33333333333333,
            "B": 77.06666666666666,
            "C": 77.26666666666667,
            "D": 77.46666666666667,
            "E": 76.73333333333333,
            "F": 77.66666666666667
        },
        "bus5": {
            "L": 92.6875,
            "A": 90.6875,
            "B": 91.375,
            "C": 92.875,
            "D": 95.5625,
            "E": 94.5,
            "F": 95.5625,
            "G": 97.86666666666666,
            "H": 101.06666666666666,
            "I": 102.26666666666667,
            "J": 100.26666666666667,
            "K": 99.86666666666666
        },
        "bus4": {
            "K": 67.0625,
            "L": 69.375,
            "A": 72.4375,
            "B": 72.4375,
            "C": 72.25,
            "D": 73.375,
            "E": 71.13333333333334,
            "F": 71.13333333333334,
            "G": 70.93333333333334,
            "H": 70,
            "I": 68.6,
            "J": 68.53333333333333
        },
        "bus3": {
            "H": 68.625,
            "I": 69.75,
            "J": 69.8125,
            "K": 71.6875,
            "L": 72.6875,
            "A": 73.9375,
            "B": 72.8125,
            "C": 71.53333333333333,
            "D": 72.8,
            "E": 72.8,
            "F": 73.4,
            "G": 71.66666666666667
        }
    }
}"L": 75.93333333333334,
            "A": 75.8
        }
    }
}