{
    "Average_holding_time": 19.40379403794038,
    "Average_travel_time_passengers": 2746.7815633318164,
    "Average_speed_busses": 0.046125,
    "Average_experienced_crowding": 82.1741312415655,
    "Average_covariation_headway": 0.20854221793189232,
    "Average_covariation_headway_stops": {
        "G": 0.16328994850703532,
        "C": 0.16100565538797343,
        "E": 0.17047403233496908,
        "B": 0.18423814155630144,
        "L": 0.17370915943994464,
        "D": 0.17089732192478163,
        "H": 0.140956081749712,
        "F": 0.1492628714606887,
        "I": 0.13569683405778252,
        "A": 0.1495505021476954,
        "J": 0.13833682074134918,
        "K": 0.15324947326398383
    },
    "Average_excess_waiting_time": {
        "G": 52.5442774456796,
        "C": 55.36686567426739,
        "E": 53.169721661151414,
        "B": 59.8323392973781,
        "L": 58.367440845880424,
        "D": 54.70561973248624,
        "H": 51.64104238344481,
        "F": 53.0032355733656,
        "I": 52.27949395950958,
        "A": 57.70802834577671,
        "J": 54.560305160354005,
        "K": 58.088869455074985
    },
    "Holding_per_stop": {
        "G": 19.35483870967742,
        "C": 21.195652173913043,
        "E": 19.35483870967742,
        "D": 28.387096774193548,
        "B": 13.369565217391305,
        "L": 21.195652173913043,
        "H": 24.193548387096776,
        "F": 20,
        "I": 17.608695652173914,
        "J": 19.891304347826086,
        "A": 9.89010989010989,
        "K": 18.13186813186813
    },
    "Actions_tfl_edges": {
        "AB": [
            9,
            59,
            24
        ],
        "BC": [
            6,
            73,
            14
        ],
        "CD": [
            7,
            79,
            7
        ],
        "DE": [
            4,
            73,
            17
        ],
        "FG": [
            19,
            64,
            11
        ],
        "KL": [
            7,
            70,
            15
        ],
        "GH": [
            12,
            70,
            11
        ],
        "EF": [
            15,
            67,
            11
        ],
        "LA": [
            8,
            64,
            20
        ],
        "HI": [
            13,
            73,
            7
        ],
        "IJ": [
            8,
            75,
            9
        ],
        "JK": [
            9,
            76,
            7
        ]
    },
    "Load_per_bus_per_stop": {
        "bus4": {
            "G": 83.1875,
            "H": 83.375,
            "I": 81.875,
            "J": 81.5625,
            "K": 85.875,
            "L": 84.875,
            "A": 87.46666666666667,
            "B": 86.93333333333334,
            "C": 87.2,
            "D": 86.86666666666666,
            "E": 88,
            "F": 88.6
        },
        "bus1": {
            "C": 80.625,
            "D": 80.25,
            "E": 80.625,
            "F": 83.5,
            "G": 82.6,
            "H": 83.53333333333333,
            "I": 86.6,
            "J": 87.33333333333333,
            "K": 86.06666666666666,
            "L": 85.4,
            "A": 85,
            "B": 84.4
        },
        "bus3": {
            "E": 73.5,
            "F": 75.25,
            "G": 75,
            "H": 77.0625,
            "I": 79,
            "J": 80.8125,
            "K": 81.26666666666667,
            "L": 82.06666666666666,
            "A": 80.66666666666667,
            "B": 80.86666666666666,
            "C": 79.2,
            "D": 78.46666666666667
        },
        "bus0": {
            "B": 77.4375,
            "C": 79.1875,
            "D": 80.0625,
            "E": 80.33333333333333,
            "F": 79.93333333333334,
            "G": 80.6,
            "H": 80.86666666666666,
            "I": 79.8,
            "J": 81.2,
            "K": 82.4,
            "L": 81,
            "A": 81.06666666666666
        },
        "bus5": {
            "L": 81.125,
            "A": 81.6875,
            "B": 83.3125,
            "C": 83.2,
            "D": 82.53333333333333,
            "E": 81.6,
            "F": 81.73333333333333,
            "G": 85,
            "H": 84.66666666666667,
            "I": 83.8,
            "J": 85,
            "K": 86
        },
        "bus2": {
            "D": 75.25,
            "E": 76.5625,
            "F": 77.625,
            "G": 78.6875,
            "H": 77.9375,
            "I": 77.2,
            "J": 77.46666666666667,
            "K": 76.46666666666667,
            "L": 77.46666666666667,
            "A": 78,
            "B": 77.93333333333334,
            "C": 78.6
        }
    }
}