{
    "Average_holding_time": 14.057591623036648,
    "Average_travel_time_passengers": 2673.1066118787094,
    "Average_speed_busses": 0.04775,
    "Average_experienced_crowding": 81.81482743086542,
    "Average_covariation_headway": 0.29749868382147876,
    "Average_covariation_headway_stops": {
        "K": 0.2375292598515989,
        "J": 0.22775561811849973,
        "A": 0.23002270356645516,
        "F": 0.24561824379587244,
        "L": 0.24266766752253585,
        "H": 0.23487412911301525,
        "B": 0.2342286449865973,
        "I": 0.22518983565359102,
        "G": 0.2541157052793366,
        "C": 0.21943829627294886,
        "D": 0.22945747093910254,
        "E": 0.24358420737908748
    },
    "Average_excess_waiting_time": {
        "K": 53.48707459758117,
        "J": 54.313134905566756,
        "A": 48.861329557357465,
        "F": 55.73006387885323,
        "L": 52.91614997594871,
        "H": 54.60735585197705,
        "B": 50.905679220889,
        "I": 55.10460043706985,
        "G": 58.80731053505906,
        "C": 50.313023689540444,
        "D": 53.44910343362119,
        "E": 57.28962023274761
    },
    "Holding_per_stop": {
        "K": 16.5625,
        "A": 14.845360824742269,
        "L": 18.4375,
        "J": 14.210526315789474,
        "H": 11.052631578947368,
        "F": 14.210526315789474,
        "B": 10.9375,
        "I": 15.157894736842104,
        "C": 12.5,
        "G": 15.789473684210526,
        "D": 11.68421052631579,
        "E": 13.263157894736842
    },
    "Actions_tfl_edges": {
        "EF": [
            13,
            48,
            35
        ],
        "GH": [
            15,
            47,
            34
        ],
        "IJ": [
            11,
            40,
            45
        ],
        "JK": [
            11,
            45,
            40
        ],
        "KL": [
            8,
            43,
            46
        ],
        "LA": [
            12,
            42,
            43
        ],
        "AB": [
            13,
            43,
            41
        ],
        "HI": [
            16,
            49,
            30
        ],
        "FG": [
            13,
            48,
            34
        ],
        "BC": [
            16,
            45,
            35
        ],
        "CD": [
            13,
            42,
            41
        ],
        "DE": [
            14,
            43,
            38
        ]
    },
    "Load_per_bus_per_stop": {
        "bus3": {
            "K": 77.6875,
            "L": 77.0625,
            "A": 76.8125,
            "B": 78.0625,
            "C": 79.875,
            "D": 81.4375,
            "E": 82.0625,
            "F": 83.1875,
            "G": 82.25,
            "H": 81.6875,
            "I": 82.25,
            "J": 83
        },
        "bus2": {
            "J": 77.0625,
            "K": 76.9375,
            "L": 75.25,
            "A": 76.5,
            "B": 77.75,
            "C": 77.3125,
            "D": 77.625,
            "E": 78.6875,
            "F": 79.0625,
            "G": 78.125,
            "H": 79.86666666666666,
            "I": 80.66666666666667
        },
        "bus5": {
            "A": 79.70588235294117,
            "B": 79.5625,
            "C": 81.375,
            "D": 81.1875,
            "E": 82.8125,
            "F": 83.0625,
            "G": 84.9375,
            "H": 85.875,
            "I": 86.125,
            "J": 86.4375,
            "K": 86.875,
            "L": 84.875
        },
        "bus0": {
            "F": 82.3125,
            "G": 84.3125,
            "H": 83.75,
            "I": 85.625,
            "J": 85.875,
            "K": 85.8125,
            "L": 86.5625,
            "A": 85.8125,
            "B": 87.125,
            "C": 87.5,
            "D": 87.2,
            "E": 86.86666666666666
        },
        "bus4": {
            "L": 70.25,
            "A": 70.125,
            "B": 72.125,
            "C": 72.1875,
            "D": 71.6875,
            "E": 72.625,
            "F": 73.5625,
            "G": 74.8125,
            "H": 75.6875,
            "I": 74.3125,
            "J": 75.9375,
            "K": 75.5625
        },
        "bus1": {
            "H": 73.375,
            "I": 73.375,
            "J": 73.5625,
            "K": 74.375,
            "L": 74.6875,
            "A": 74.875,
            "B": 74.625,
            "C": 74.125,
            "D": 76.5625,
            "E": 80.1875,
            "F": 80.33333333333333,
            "G": 79.8
        }
    }
}