{
    "Average_holding_time": 15.354330708661417,
    "Average_travel_time_passengers": 2690.395972780192,
    "Average_speed_busses": 0.047625,
    "Average_experienced_crowding": 80.85629883192644,
    "Average_covariation_headway": 0.2686260264751317,
    "Average_covariation_headway_stops": {
        "H": 0.21743026316824016,
        "K": 0.22378036223221154,
        "C": 0.2261418321071419,
        "L": 0.21532071280757478,
        "J": 0.2096707613012532,
        "G": 0.22815766301270007,
        "D": 0.23119158082506783,
        "I": 0.1959606649661142,
        "A": 0.2064990390400164,
        "E": 0.22537551296686,
        "B": 0.2251383673145385,
        "F": 0.23182256787378785
    },
    "Average_excess_waiting_time": {
        "H": 50.97571315134343,
        "K": 50.64037318622775,
        "C": 50.65348756520228,
        "L": 47.94954926571825,
        "J": 50.69701608729025,
        "G": 54.252865864879254,
        "D": 53.33802613869324,
        "I": 50.086598220422445,
        "A": 48.53631880080934,
        "E": 54.384562346596795,
        "B": 51.95025879714666,
        "F": 57.060614375543196
    },
    "Holding_per_stop": {
        "H": 17.05263157894737,
        "C": 11.875,
        "K": 16.875,
        "L": 15.3125,
        "J": 13.578947368421053,
        "G": 17.36842105263158,
        "D": 16.736842105263158,
        "I": 15.473684210526315,
        "A": 9.0625,
        "E": 19.263157894736842,
        "B": 15.789473684210526,
        "F": 15.957446808510639
    },
    "Actions_tfl_edges": {
        "BC": [
            18,
            43,
            35
        ],
        "FG": [
            8,
            39,
            48
        ],
        "GH": [
            11,
            42,
            43
        ],
        "IJ": [
            10,
            36,
            50
        ],
        "JK": [
            11,
            42,
            43
        ],
        "KL": [
            13,
            46,
            38
        ],
        "HI": [
            7,
            42,
            46
        ],
        "CD": [
            12,
            38,
            46
        ],
        "LA": [
            17,
            38,
            41
        ],
        "DE": [
            14,
            36,
            45
        ],
        "AB": [
            16,
            40,
            40
        ],
        "EF": [
            10,
            40,
            45
        ]
    },
    "Load_per_bus_per_stop": {
        "bus2": {
            "H": 78.875,
            "I": 80.3125,
            "J": 83.0625,
            "K": 81.75,
            "L": 83.875,
            "A": 84.25,
            "B": 84.125,
            "C": 83.625,
            "D": 81.5,
            "E": 83.5,
            "F": 84.73333333333333,
            "G": 84.6
        },
        "bus4": {
            "K": 69.375,
            "L": 71.125,
            "A": 71.125,
            "B": 71.9375,
            "C": 73.3125,
            "D": 72.1875,
            "E": 70.875,
            "F": 74.125,
            "G": 71.5,
            "H": 70.3125,
            "I": 70.75,
            "J": 71.4
        },
        "bus0": {
            "C": 75.0625,
            "D": 75.375,
            "E": 75.875,
            "F": 79.375,
            "G": 79.75,
            "H": 79.625,
            "I": 80.75,
            "J": 80.625,
            "K": 80.6875,
            "L": 80.75,
            "A": 82,
            "B": 82.2
        },
        "bus5": {
            "L": 76.6875,
            "A": 78.625,
            "B": 77.25,
            "C": 78.8125,
            "D": 79.6875,
            "E": 79.5625,
            "F": 78.8125,
            "G": 82,
            "H": 83.5,
            "I": 83.375,
            "J": 83.9375,
            "K": 83.4375
        },
        "bus3": {
            "J": 74.6875,
            "K": 75.4375,
            "L": 74.25,
            "A": 73.0625,
            "B": 73.1875,
            "C": 74.5625,
            "D": 75.4375,
            "E": 75.375,
            "F": 74.25,
            "G": 75.4375,
            "H": 76.0625,
            "I": 78.2
        },
        "bus1": {
            "G": 82,
            "H": 81.625,
            "I": 81.875,
            "J": 81.125,
            "K": 83.875,
            "L": 84,
            "A": 84.6875,
            "B": 85.0625,
            "C": 83.8125,
            "D": 84.93333333333334,
            "E": 85.53333333333333,
            "F": 84.66666666666667
        }
    }
}