{
    "Average_holding_time": 14.321206743566991,
    "Average_travel_time_passengers": 2704.133173010112,
    "Average_speed_busses": 0.04695833333333333,
    "Average_experienced_crowding": 87.11251052267029,
    "Average_covariation_headway": 0.45559622057148635,
    "Average_covariation_headway_stops": {
        "A": 0.3472382431335201,
        "K": 0.34593127725483774,
        "D": 0.35682993377509764,
        "E": 0.3568722026387577,
        "I": 0.36212347627082364,
        "C": 0.3646963253177208,
        "L": 0.33891008633295266,
        "B": 0.34345891790860866,
        "F": 0.3500154123157408,
        "J": 0.3506334305223055,
        "G": 0.33191478646091355,
        "H": 0.3397911041801414
    },
    "Average_excess_waiting_time": {
        "A": 77.84511924960668,
        "K": 79.14800107431131,
        "D": 78.42904766531001,
        "E": 77.47452567391434,
        "I": 83.24354112796061,
        "C": 82.01055526007622,
        "L": 77.36793822960487,
        "B": 79.31228705535449,
        "F": 78.30043343848183,
        "J": 82.21755017842736,
        "G": 76.51706564972534,
        "H": 80.18816502160968
    },
    "Holding_per_stop": {
        "A": 9.25531914893617,
        "D": 17.36842105263158,
        "K": 17.23404255319149,
        "E": 15.157894736842104,
        "C": 15.638297872340425,
        "I": 15.319148936170214,
        "L": 12.258064516129032,
        "B": 10.851063829787234,
        "F": 17.872340425531913,
        "J": 17.419354838709676,
        "G": 12.446808510638299,
        "H": 10.96774193548387
    },
    "Actions_tfl_edges": {
        "BC": [
            0,
            63,
            32
        ],
        "CD": [
            0,
            67,
            28
        ],
        "DE": [
            0,
            64,
            32
        ],
        "HI": [
            0,
            67,
            27
        ],
        "JK": [
            0,
            61,
            33
        ],
        "LA": [
            0,
            60,
            34
        ],
        "AB": [
            0,
            59,
            35
        ],
        "KL": [
            0,
            64,
            30
        ],
        "EF": [
            0,
            64,
            31
        ],
        "IJ": [
            0,
            63,
            31
        ],
        "FG": [
            0,
            61,
            33
        ],
        "GH": [
            0,
            62,
            32
        ]
    },
    "Load_per_bus_per_stop": {
        "bus5": {
            "A": 84.0625,
            "B": 84.375,
            "C": 84.5625,
            "D": 88.25,
            "E": 90.25,
            "F": 92.375,
            "G": 93.5625,
            "H": 92.8,
            "I": 94.33333333333333,
            "J": 95.06666666666666,
            "K": 93.8,
            "L": 91.6
        },
        "bus4": {
            "K": 75.6875,
            "L": 73.25,
            "A": 74.625,
            "B": 74.1875,
            "C": 76,
            "D": 75.4375,
            "E": 76.5625,
            "F": 77.8,
            "G": 80.33333333333333,
            "H": 81.06666666666666,
            "I": 79.73333333333333,
            "J": 79.8
        },
        "bus1": {
            "D": 64.375,
            "E": 64.4375,
            "F": 63.625,
            "G": 63.8125,
            "H": 65.5625,
            "I": 67.25,
            "J": 68.9375,
            "K": 69.25,
            "L": 67.33333333333333,
            "A": 67.8,
            "B": 69.66666666666667,
            "C": 69.33333333333333
        },
        "bus2": {
            "E": 71.75,
            "F": 71.3125,
            "G": 73.0625,
            "H": 74,
            "I": 72.75,
            "J": 75.4375,
            "K": 76.5625,
            "L": 76.0625,
            "A": 75.5,
            "B": 76.4375,
            "C": 76.46666666666667,
            "D": 76.33333333333333
        },
        "bus3": {
            "I": 85.3125,
            "J": 85.875,
            "K": 86.125,
            "L": 88.4375,
            "A": 89.25,
            "B": 90,
            "C": 89.5,
            "D": 87.9375,
            "E": 87.4,
            "F": 86.73333333333333,
            "G": 86.73333333333333,
            "H": 88.6
        },
        "bus0": {
            "C": 75.25,
            "D": 75.5,
            "E": 75.9375,
            "F": 79.8125,
            "G": 81.9375,
            "H": 83.75,
            "I": 82.5,
            "J": 80.8,
            "K": 78.6,
            "L": 80.8,
            "A": 81.26666666666667,
            "B": 81.86666666666666
        }
    }
}