{
    "Average_holding_time": 22.15846994535519,
    "Average_travel_time_passengers": 2777.6119387534463,
    "Average_speed_busses": 0.04575,
    "Average_experienced_crowding": 83.77266389763341,
    "Average_covariation_headway": 0.23553122920341368,
    "Average_covariation_headway_stops": {
        "L": 0.2215265011474553,
        "G": 0.1485138908206339,
        "C": 0.17369903735764355,
        "A": 0.1985220357409401,
        "E": 0.15907237712377995,
        "H": 0.15507263614281436,
        "D": 0.15449825780247087,
        "B": 0.1713749503011155,
        "F": 0.13384162822147896,
        "I": 0.16273012692429345,
        "J": 0.17936378620832988,
        "K": 0.19171237811954123
    },
    "Average_excess_waiting_time": {
        "L": 66.69434225916928,
        "G": 55.56082491456044,
        "C": 58.332756161402926,
        "A": 61.69499224572962,
        "E": 57.18448952946579,
        "H": 54.32020340296583,
        "D": 58.21977304408648,
        "B": 60.280262091705936,
        "F": 56.01102861436573,
        "I": 57.10714943682228,
        "J": 60.87156868785826,
        "K": 64.36467547651228
    },
    "Holding_per_stop": {
        "C": 24.130434782608695,
        "A": 15.652173913043478,
        "E": 30,
        "H": 24.456521739130434,
        "L": 31.978021978021978,
        "G": 17.608695652173914,
        "D": 14.175824175824175,
        "B": 14.835164835164836,
        "F": 23.406593406593405,
        "I": 22.5,
        "J": 25.054945054945055,
        "K": 22.087912087912088
    },
    "Actions_tfl_edges": {
        "BC": [
            11,
            68,
            13
        ],
        "DE": [
            12,
            67,
            13
        ],
        "FG": [
            11,
            68,
            13
        ],
        "GH": [
            12,
            66,
            15
        ],
        "KL": [
            9,
            65,
            18
        ],
        "LA": [
            5,
            65,
            22
        ],
        "CD": [
            11,
            65,
            16
        ],
        "AB": [
            6,
            62,
            24
        ],
        "EF": [
            7,
            71,
            14
        ],
        "HI": [
            4,
            78,
            10
        ],
        "IJ": [
            3,
            77,
            12
        ],
        "JK": [
            3,
            68,
            20
        ]
    },
    "Load_per_bus_per_stop": {
        "bus4": {
            "L": 76.9375,
            "A": 77.4375,
            "B": 79.86666666666666,
            "C": 80.13333333333334,
            "D": 81.73333333333333,
            "E": 83.26666666666667,
            "F": 82.2,
            "G": 82.53333333333333,
            "H": 82.26666666666667,
            "I": 81.13333333333334,
            "J": 83,
            "K": 80.4
        },
        "bus2": {
            "G": 78.3125,
            "H": 77.375,
            "I": 77.0625,
            "J": 76.53333333333333,
            "K": 76.8,
            "L": 77.66666666666667,
            "A": 79.13333333333334,
            "B": 78.6,
            "C": 78.6,
            "D": 82.33333333333333,
            "E": 81.86666666666666,
            "F": 83.06666666666666
        },
        "bus0": {
            "C": 79.5625,
            "D": 78,
            "E": 80.25,
            "F": 81.53333333333333,
            "G": 81.73333333333333,
            "H": 83.8,
            "I": 84.26666666666667,
            "J": 85.46666666666667,
            "K": 85.93333333333334,
            "L": 86.13333333333334,
            "A": 85.93333333333334,
            "B": 84
        },
        "bus5": {
            "A": 78.375,
            "B": 80.4375,
            "C": 81.0625,
            "D": 79.6,
            "E": 80.86666666666666,
            "F": 82,
            "G": 81.4,
            "H": 82.46666666666667,
            "I": 80.6,
            "J": 79.6,
            "K": 81.13333333333334,
            "L": 81.6
        },
        "bus1": {
            "E": 79.0625,
            "F": 78.6875,
            "G": 81.0625,
            "H": 79.2,
            "I": 80.4,
            "J": 81.2,
            "K": 81.4,
            "L": 82.86666666666666,
            "A": 81.33333333333333,
            "B": 82.2,
            "C": 82.53333333333333,
            "D": 83.66666666666667
        },
        "bus3": {
            "H": 86.6875,
            "I": 86.5,
            "J": 85.5,
            "K": 86.9375,
            "L": 88.73333333333333,
            "A": 90.06666666666666,
            "B": 91.26666666666667,
            "C": 90.2,
            "D": 90.26666666666667,
            "E": 89.4,
            "F": 91.2,
            "G": 91.6
        }
    }
}