{
    "Average_holding_time": 59.471698113207545,
    "Average_travel_time_passengers": 4338.549281973523,
    "Average_speed_busses": 0.033125,
    "Average_experienced_crowding": 232.73291220402137,
    "Average_covariation_headway": 1.1340696767189566,
    "Average_covariation_headway_stops": {
        "J": 1.0886725786109905,
        "K": 1.1066776454941754,
        "C": 1.1146465280996023,
        "A": 1.109911777471011,
        "I": 1.120492458661445,
        "F": 1.1246558188738776,
        "L": 1.0971106115553397,
        "B": 1.1110539885260988,
        "D": 1.1144756053866756,
        "G": 1.118990072158063,
        "E": 1.116461929525218,
        "H": 1.113414754159983
    },
    "Average_excess_waiting_time": {
        "J": 719.9259713521931,
        "K": 691.3483980993633,
        "C": 702.8730472689415,
        "A": 698.6696998087116,
        "I": 704.1087088890788,
        "F": 695.1031958606279,
        "L": 691.424194970502,
        "B": 707.4602279072781,
        "D": 711.845814336129,
        "G": 697.4466337233871,
        "E": 692.531632097274,
        "H": 701.878255984414
    },
    "Holding_per_stop": {
        "J": 61.40625,
        "K": 54,
        "C": 61.343283582089555,
        "A": 52.27272727272727,
        "F": 62.23880597014925,
        "I": 65.73529411764706,
        "B": 54.54545454545455,
        "L": 60.92307692307692,
        "D": 60.44776119402985,
        "G": 64.02985074626865,
        "E": 60.45454545454545,
        "H": 55.97014925373134
    },
    "Actions_tfl_edges": {
        "BC": [
            12,
            34,
            21
        ],
        "EF": [
            12,
            35,
            20
        ],
        "HI": [
            12,
            37,
            19
        ],
        "IJ": [
            12,
            40,
            17
        ],
        "JK": [
            11,
            37,
            17
        ],
        "LA": [
            10,
            33,
            23
        ],
        "KL": [
            11,
            32,
            22
        ],
        "CD": [
            14,
            33,
            20
        ],
        "AB": [
            10,
            33,
            23
        ],
        "FG": [
            11,
            34,
            22
        ],
        "DE": [
            11,
            36,
            20
        ],
        "GH": [
            11,
            40,
            16
        ]
    },
    "Load_per_bus_per_stop": {
        "bus3": {
            "J": 21,
            "K": 20.363636363636363,
            "L": 20.363636363636363,
            "A": 19.818181818181817,
            "B": 19.454545454545453,
            "C": 20.454545454545453,
            "D": 19.818181818181817,
            "E": 20,
            "F": 19.454545454545453,
            "G": 20,
            "H": 20.272727272727273,
            "I": 20.727272727272727
        },
        "bus4": {
            "K": 36.72727272727273,
            "L": 38.63636363636363,
            "A": 38.54545454545455,
            "B": 38.45454545454545,
            "C": 39.54545454545455,
            "D": 40.45454545454545,
            "E": 40.09090909090909,
            "F": 39.72727272727273,
            "G": 39.09090909090909,
            "H": 38.54545454545455,
            "I": 40.18181818181818,
            "J": 39.8
        },
        "bus0": {
            "C": 223.08333333333334,
            "D": 218.5,
            "E": 209.63636363636363,
            "F": 212.27272727272728,
            "G": 218.27272727272728,
            "H": 221.9090909090909,
            "I": 222.27272727272728,
            "J": 220.63636363636363,
            "K": 225.63636363636363,
            "L": 229.45454545454547,
            "A": 235.54545454545453,
            "B": 239
        },
        "bus5": {
            "A": 229.54545454545453,
            "B": 235.27272727272728,
            "C": 243.63636363636363,
            "D": 246.72727272727272,
            "E": 248.0909090909091,
            "F": 247.63636363636363,
            "G": 251.1818181818182,
            "H": 252.54545454545453,
            "I": 257.90909090909093,
            "J": 262.8181818181818,
            "K": 247,
            "L": 248.9
        },
        "bus2": {
            "I": 26.666666666666668,
            "J": 28.545454545454547,
            "K": 29.454545454545453,
            "L": 30.363636363636363,
            "A": 30.727272727272727,
            "B": 30.545454545454547,
            "C": 30.636363636363637,
            "D": 31.181818181818183,
            "E": 31.272727272727273,
            "F": 32,
            "G": 33.36363636363637,
            "H": 31.727272727272727
        },
        "bus1": {
            "F": 88.58333333333333,
            "G": 87.83333333333333,
            "H": 88.08333333333333,
            "I": 89.83333333333333,
            "J": 101.63636363636364,
            "K": 102.0909090909091,
            "L": 101.18181818181819,
            "A": 100.27272727272727,
            "B": 97.54545454545455,
            "C": 98.27272727272727,
            "D": 98.27272727272727,
            "E": 97.9090909090909
        }
    }
}