{
    "Average_holding_time": 13.678474114441418,
    "Average_travel_time_passengers": 2779.695281091752,
    "Average_speed_busses": 0.045875,
    "Average_experienced_crowding": 87.27146453539919,
    "Average_covariation_headway": 0.43368066465176347,
    "Average_covariation_headway_stops": {
        "A": 0.30171630577093167,
        "B": 0.3285889149792928,
        "J": 0.3216043428807426,
        "G": 0.3047581809850715,
        "E": 0.3070081245008534,
        "K": 0.31614088351322733,
        "C": 0.3309090810111813,
        "F": 0.3028678286796205,
        "L": 0.2949752832198737,
        "H": 0.30484463183865285,
        "I": 0.30959406403929646,
        "D": 0.3122464441037698
    },
    "Average_excess_waiting_time": {
        "A": 78.76055930006106,
        "B": 81.97505441691914,
        "J": 81.72760759386512,
        "G": 77.16337296426997,
        "E": 77.44834854844447,
        "K": 78.77573779486619,
        "C": 84.29777901708252,
        "F": 79.37878469461174,
        "L": 76.52320307538912,
        "H": 79.3903866929054,
        "I": 80.98550563946253,
        "D": 80.73138022763419
    },
    "Holding_per_stop": {
        "B": 20.543478260869566,
        "G": 14.673913043478262,
        "E": 14.347826086956522,
        "J": 12.391304347826088,
        "K": 14.347826086956522,
        "A": 8.804347826086957,
        "C": 16.956521739130434,
        "F": 16.153846153846153,
        "H": 15.978260869565217,
        "L": 12.065217391304348,
        "I": 7.582417582417582,
        "D": 10.219780219780219
    },
    "Actions_tfl_edges": {
        "AB": [
            0,
            89,
            4
        ],
        "DE": [
            0,
            89,
            3
        ],
        "FG": [
            0,
            90,
            2
        ],
        "IJ": [
            0,
            90,
            2
        ],
        "JK": [
            0,
            90,
            3
        ],
        "LA": [
            0,
            90,
            3
        ],
        "BC": [
            0,
            86,
            6
        ],
        "GH": [
            0,
            89,
            3
        ],
        "EF": [
            0,
            88,
            4
        ],
        "KL": [
            0,
            89,
            3
        ],
        "CD": [
            0,
            88,
            4
        ],
        "HI": [
            0,
            88,
            4
        ]
    },
    "Load_per_bus_per_stop": {
        "bus5": {
            "A": 66.6875,
            "B": 67.875,
            "C": 67.125,
            "D": 67.06666666666666,
            "E": 68.33333333333333,
            "F": 71,
            "G": 73.2,
            "H": 74.13333333333334,
            "I": 72.53333333333333,
            "J": 74.26666666666667,
            "K": 74.6,
            "L": 72.13333333333334
        },
        "bus0": {
            "B": 66.1875,
            "C": 65.4375,
            "D": 66.6875,
            "E": 66,
            "F": 65.5625,
            "G": 65.06666666666666,
            "H": 66,
            "I": 67.06666666666666,
            "J": 67.6,
            "K": 67.46666666666667,
            "L": 69.66666666666667,
            "A": 70.06666666666666
        },
        "bus3": {
            "J": 71.5,
            "K": 71.9375,
            "L": 72.4375,
            "A": 76.4,
            "B": 76.86666666666666,
            "C": 78.26666666666667,
            "D": 78.2,
            "E": 76.53333333333333,
            "F": 76.2,
            "G": 76.8,
            "H": 76.46666666666667,
            "I": 75.6
        },
        "bus2": {
            "G": 84.1875,
            "H": 83.5625,
            "I": 83.875,
            "J": 86.5625,
            "K": 87.6,
            "L": 87.66666666666667,
            "A": 87.2,
            "B": 87.4,
            "C": 88.26666666666667,
            "D": 89.2,
            "E": 90,
            "F": 89.53333333333333
        },
        "bus1": {
            "E": 97.0625,
            "F": 97.4375,
            "G": 97.375,
            "H": 98.1875,
            "I": 100.4,
            "J": 100.06666666666666,
            "K": 100.4,
            "L": 100.93333333333334,
            "A": 101.4,
            "B": 104.2,
            "C": 101.93333333333334,
            "D": 102.4
        },
        "bus4": {
            "K": 86.25,
            "L": 88.8125,
            "A": 90,
            "B": 88.86666666666666,
            "C": 88.06666666666666,
            "D": 87.6,
            "E": 87.13333333333334,
            "F": 87.06666666666666,
            "G": 87.13333333333334,
            "H": 89.4,
            "I": 88,
            "J": 88.26666666666667
        }
    }
}