{
    "Average_holding_time": 20.08952551477171,
    "Average_travel_time_passengers": 2794.4541091112947,
    "Average_speed_busses": 0.04654166666666667,
    "Average_experienced_crowding": 97.85841934402325,
    "Average_covariation_headway": 0.56493805801513,
    "Average_covariation_headway_stops": {
        "H": 0.509805915140228,
        "A": 0.4894879265677699,
        "L": 0.4931248642461155,
        "J": 0.5054720131928929,
        "B": 0.49042988289427814,
        "K": 0.5035092909482508,
        "C": 0.4875134698433433,
        "I": 0.4962092848839935,
        "D": 0.48008852076813957,
        "E": 0.48140369572310976,
        "F": 0.4875854689591723,
        "G": 0.49090986944215154
    },
    "Average_excess_waiting_time": {
        "H": 127.9419727900563,
        "A": 116.71932406839193,
        "L": 119.60822721967133,
        "J": 127.54783915241512,
        "B": 116.07855420013578,
        "K": 125.26804854473426,
        "C": 116.94404810005943,
        "I": 126.72564387258433,
        "D": 115.58475690713402,
        "E": 117.8704903767752,
        "F": 121.42642079524381,
        "G": 123.92734982457972
    },
    "Holding_per_stop": {
        "A": 12.127659574468085,
        "L": 22.580645161290324,
        "B": 16.595744680851062,
        "K": 25.806451612903224,
        "J": 22.580645161290324,
        "H": 21.93548387096774,
        "C": 17.872340425531913,
        "I": 17.608695652173914,
        "D": 21.29032258064516,
        "E": 23.225806451612904,
        "F": 20.64516129032258,
        "G": 18.91304347826087
    },
    "Actions_tfl_edges": {
        "AB": [
            35,
            31,
            29
        ],
        "GH": [
            35,
            23,
            35
        ],
        "IJ": [
            33,
            25,
            35
        ],
        "JK": [
            34,
            23,
            37
        ],
        "KL": [
            38,
            23,
            33
        ],
        "LA": [
            41,
            25,
            28
        ],
        "BC": [
            39,
            27,
            28
        ],
        "HI": [
            27,
            28,
            38
        ],
        "CD": [
            38,
            24,
            32
        ],
        "DE": [
            33,
            26,
            34
        ],
        "EF": [
            33,
            30,
            30
        ],
        "FG": [
            37,
            24,
            32
        ]
    },
    "Load_per_bus_per_stop": {
        "bus1": {
            "H": 90.4375,
            "I": 91.625,
            "J": 93.25,
            "K": 91.0625,
            "L": 92.375,
            "A": 93.8,
            "B": 94.2,
            "C": 94.26666666666667,
            "D": 94.8,
            "E": 93.73333333333333,
            "F": 93.86666666666666,
            "G": 95.66666666666667
        },
        "bus5": {
            "A": 50.5625,
            "B": 50,
            "C": 50.8125,
            "D": 49.875,
            "E": 50.0625,
            "F": 51.125,
            "G": 51.5625,
            "H": 52,
            "I": 52.266666666666666,
            "J": 54.266666666666666,
            "K": 54.13333333333333,
            "L": 54.46666666666667
        },
        "bus4": {
            "L": 62.9375,
            "A": 63.5625,
            "B": 63.4375,
            "C": 63.75,
            "D": 65.25,
            "E": 68.375,
            "F": 67.9375,
            "G": 66.93333333333334,
            "H": 68,
            "I": 69,
            "J": 68.4,
            "K": 67.46666666666667
        },
        "bus2": {
            "J": 97.5,
            "K": 97.5,
            "L": 96.8125,
            "A": 97.375,
            "B": 99.86666666666666,
            "C": 102.4,
            "D": 102.26666666666667,
            "E": 102.73333333333333,
            "F": 104.93333333333334,
            "G": 102.66666666666667,
            "H": 104.73333333333333,
            "I": 103.73333333333333
        },
        "bus0": {
            "B": 80.125,
            "C": 79.1875,
            "D": 80.5,
            "E": 80.125,
            "F": 79.875,
            "G": 80.625,
            "H": 83.1875,
            "I": 83.875,
            "J": 85.375,
            "K": 86.86666666666666,
            "L": 85.86666666666666,
            "A": 86.53333333333333
        },
        "bus3": {
            "K": 80.3125,
            "L": 81.4375,
            "A": 83.1875,
            "B": 84.75,
            "C": 85.3125,
            "D": 87.66666666666667,
            "E": 85.93333333333334,
            "F": 84.86666666666666,
            "G": 88.13333333333334,
            "H": 86.86666666666666,
            "I": 85.93333333333334,
            "J": 86.6
        }
    }
}