{
    "Average_holding_time": 15.473684210526315,
    "Average_travel_time_passengers": 2687.004116427494,
    "Average_speed_busses": 0.0475,
    "Average_experienced_crowding": 81.96265612213776,
    "Average_covariation_headway": 0.341173343483151,
    "Average_covariation_headway_stops": {
        "C": 0.2698618917269513,
        "K": 0.29855101800739264,
        "E": 0.257677766757171,
        "L": 0.27878826636154264,
        "J": 0.300530745477969,
        "A": 0.2778468598644011,
        "D": 0.25394664755902274,
        "B": 0.2733864017064261,
        "F": 0.24913547555043006,
        "G": 0.22746847626804842,
        "H": 0.2625937419657134,
        "I": 0.27744162231970243
    },
    "Average_excess_waiting_time": {
        "C": 57.6731602100877,
        "K": 67.09597289324313,
        "E": 55.57919323564471,
        "L": 60.306111961401314,
        "J": 68.85934003638744,
        "A": 58.914655356892524,
        "D": 56.57442180617852,
        "B": 59.65686676568282,
        "F": 56.834327884182755,
        "G": 55.12798744973321,
        "H": 62.27793579451719,
        "I": 66.69857376187224
    },
    "Holding_per_stop": {
        "K": 18.94736842105263,
        "C": 19.0625,
        "E": 13.125,
        "L": 11.368421052631579,
        "A": 8.4375,
        "J": 20.425531914893618,
        "D": 17.05263157894737,
        "B": 12.947368421052632,
        "F": 19.57894736842105,
        "G": 13.894736842105264,
        "H": 14.361702127659575,
        "I": 16.595744680851062
    },
    "Actions_tfl_edges": {
        "BC": [
            11,
            49,
            36
        ],
        "DE": [
            13,
            38,
            45
        ],
        "IJ": [
            12,
            35,
            48
        ],
        "JK": [
            10,
            42,
            43
        ],
        "KL": [
            12,
            40,
            44
        ],
        "LA": [
            12,
            33,
            51
        ],
        "CD": [
            13,
            45,
            38
        ],
        "EF": [
            13,
            35,
            48
        ],
        "AB": [
            12,
            43,
            41
        ],
        "FG": [
            10,
            44,
            41
        ],
        "GH": [
            10,
            49,
            36
        ],
        "HI": [
            11,
            44,
            39
        ]
    },
    "Load_per_bus_per_stop": {
        "bus0": {
            "C": 63.6875,
            "D": 64.75,
            "E": 65.6875,
            "F": 68.1875,
            "G": 69.1875,
            "H": 70.125,
            "I": 71,
            "J": 69.25,
            "K": 69.4375,
            "L": 69.375,
            "A": 69.0625,
            "B": 68.53333333333333
        },
        "bus3": {
            "K": 83.9375,
            "L": 83.125,
            "A": 82.1875,
            "B": 81.75,
            "C": 81.625,
            "D": 81.6875,
            "E": 81.125,
            "F": 81.375,
            "G": 83.625,
            "H": 84,
            "I": 84.6,
            "J": 87.13333333333334
        },
        "bus1": {
            "E": 75.0625,
            "F": 74.5625,
            "G": 76.1875,
            "H": 78.0625,
            "I": 78.6875,
            "J": 80,
            "K": 80.625,
            "L": 81.5625,
            "A": 81.4375,
            "B": 81.3125,
            "C": 79.875,
            "D": 80.06666666666666
        },
        "bus4": {
            "L": 72.5,
            "A": 72.125,
            "B": 72,
            "C": 71.1875,
            "D": 71.6875,
            "E": 71.625,
            "F": 73.3125,
            "G": 74.625,
            "H": 75.625,
            "I": 75.5,
            "J": 76.06666666666666,
            "K": 76.93333333333334
        },
        "bus2": {
            "J": 85.375,
            "K": 86.875,
            "L": 86.25,
            "A": 84.8125,
            "B": 85.25,
            "C": 86.6875,
            "D": 87.125,
            "E": 88.25,
            "F": 88.73333333333333,
            "G": 89.93333333333334,
            "H": 89.46666666666667,
            "I": 91.06666666666666
        },
        "bus5": {
            "A": 73.5625,
            "B": 74.3125,
            "C": 75.4375,
            "D": 76.4375,
            "E": 76,
            "F": 77.9375,
            "G": 76.5625,
            "H": 76.625,
            "I": 76.5,
            "J": 76.5,
            "K": 77.8125,
            "L": 76.73333333333333
        }
    }
}