{
    "Average_holding_time": 19.529837251356238,
    "Average_travel_time_passengers": 2742.570749075791,
    "Average_speed_busses": 0.04608333333333333,
    "Average_experienced_crowding": 81.01977858851905,
    "Average_covariation_headway": 0.24938895079280363,
    "Average_covariation_headway_stops": {
        "G": 0.18643238313067118,
        "K": 0.1701132788073491,
        "H": 0.1813933256093242,
        "D": 0.23647824127067635,
        "F": 0.1982465299787773,
        "J": 0.1711836536979219,
        "I": 0.15857428212491054,
        "L": 0.17337061048606262,
        "E": 0.20347121872540377,
        "A": 0.17596771348387596,
        "B": 0.20384157244909065,
        "C": 0.2326628077338265
    },
    "Average_excess_waiting_time": {
        "G": 58.05819316795885,
        "K": 52.63597378562491,
        "H": 55.62832457127291,
        "D": 66.61357232120906,
        "F": 61.14348081332412,
        "J": 54.22965846022777,
        "I": 54.841387269927395,
        "L": 54.5976334260896,
        "E": 63.640334766460114,
        "A": 56.667690504663085,
        "B": 61.852687279206236,
        "C": 67.32470840924333
    },
    "Holding_per_stop": {
        "K": 19.032258064516128,
        "H": 23.870967741935484,
        "G": 18.58695652173913,
        "J": 16.774193548387096,
        "D": 16.956521739130434,
        "F": 25.76086956521739,
        "I": 22.17391304347826,
        "L": 21.93548387096774,
        "E": 21.0989010989011,
        "A": 11.08695652173913,
        "B": 15,
        "C": 22.087912087912088
    },
    "Actions_tfl_edges": {
        "CD": [
            9,
            65,
            18
        ],
        "EF": [
            5,
            68,
            19
        ],
        "FG": [
            8,
            68,
            17
        ],
        "GH": [
            11,
            67,
            15
        ],
        "IJ": [
            8,
            68,
            17
        ],
        "JK": [
            8,
            69,
            17
        ],
        "KL": [
            6,
            70,
            17
        ],
        "HI": [
            9,
            65,
            19
        ],
        "DE": [
            10,
            66,
            16
        ],
        "LA": [
            5,
            72,
            16
        ],
        "AB": [
            6,
            66,
            20
        ],
        "BC": [
            2,
            69,
            21
        ]
    },
    "Load_per_bus_per_stop": {
        "bus2": {
            "G": 77.875,
            "H": 79.25,
            "I": 80.1875,
            "J": 80.9375,
            "K": 81.4,
            "L": 80.86666666666666,
            "A": 81.13333333333334,
            "B": 80.6,
            "C": 79.93333333333334,
            "D": 79.33333333333333,
            "E": 79.86666666666666,
            "F": 81.8
        },
        "bus5": {
            "K": 78,
            "L": 79.25,
            "A": 80.0625,
            "B": 80,
            "C": 79.875,
            "D": 82.5,
            "E": 84,
            "F": 83.13333333333334,
            "G": 83.86666666666666,
            "H": 82.6,
            "I": 82,
            "J": 82.86666666666666
        },
        "bus3": {
            "H": 73.25,
            "I": 72.1875,
            "J": 74.625,
            "K": 75,
            "L": 76.5625,
            "A": 76.46666666666667,
            "B": 78.26666666666667,
            "C": 78.6,
            "D": 77.6,
            "E": 79.86666666666666,
            "F": 79.93333333333334,
            "G": 77.8
        },
        "bus0": {
            "D": 78.3125,
            "E": 80.9375,
            "F": 81.5625,
            "G": 81.86666666666666,
            "H": 83.2,
            "I": 82.4,
            "J": 83.46666666666667,
            "K": 85.4,
            "L": 85.66666666666667,
            "A": 86.33333333333333,
            "B": 86.2,
            "C": 86.33333333333333
        },
        "bus1": {
            "F": 85,
            "G": 85.1875,
            "H": 86.375,
            "I": 83.46666666666667,
            "J": 82.4,
            "K": 81.93333333333334,
            "L": 83.53333333333333,
            "A": 84.8,
            "B": 84.6,
            "C": 85.06666666666666,
            "D": 88.33333333333333,
            "E": 88
        },
        "bus4": {
            "J": 69,
            "K": 70.625,
            "L": 72.5,
            "A": 71.9375,
            "B": 73.25,
            "C": 73.66666666666667,
            "D": 74.26666666666667,
            "E": 73.53333333333333,
            "F": 73.13333333333334,
            "G": 73.73333333333333,
            "H": 73,
            "I": 73
        }
    }
}