{
    "Average_holding_time": 16.858638743455497,
    "Average_travel_time_passengers": 2657.4723867753414,
    "Average_speed_busses": 0.04775,
    "Average_experienced_crowding": 80.5439605084883,
    "Average_covariation_headway": 0.38183764448163077,
    "Average_covariation_headway_stops": {
        "L": 0.28503662764329707,
        "J": 0.28301615288666004,
        "E": 0.29664410062574814,
        "G": 0.3201944694032338,
        "F": 0.31010336355297113,
        "K": 0.29843787016528406,
        "A": 0.2582792945327735,
        "H": 0.3021067151817582,
        "B": 0.2672389517384292,
        "I": 0.28459146066831714,
        "C": 0.2822008689676134,
        "D": 0.2801342318671709
    },
    "Average_excess_waiting_time": {
        "L": 57.51072897974473,
        "J": 59.90246897840143,
        "E": 65.34520070239051,
        "G": 64.84296393364508,
        "F": 66.07341159052919,
        "K": 61.5767825649952,
        "A": 56.85265640691216,
        "H": 63.052051616478366,
        "B": 59.563735151693436,
        "I": 61.78949561384462,
        "C": 63.89226923480686,
        "D": 63.76729903199208
    },
    "Holding_per_stop": {
        "L": 23.50515463917526,
        "F": 18.31578947368421,
        "G": 22.5,
        "J": 16.25,
        "K": 21.25,
        "E": 15.789473684210526,
        "A": 11.875,
        "H": 16.25,
        "B": 13.894736842105264,
        "I": 16.42105263157895,
        "C": 17.05263157894737,
        "D": 8.936170212765957
    },
    "Actions_tfl_edges": {
        "DE": [
            38,
            28,
            29
        ],
        "EF": [
            34,
            32,
            30
        ],
        "FG": [
            35,
            27,
            34
        ],
        "IJ": [
            38,
            27,
            31
        ],
        "JK": [
            38,
            27,
            32
        ],
        "KL": [
            42,
            23,
            32
        ],
        "LA": [
            40,
            28,
            28
        ],
        "GH": [
            32,
            24,
            40
        ],
        "AB": [
            37,
            35,
            23
        ],
        "HI": [
            31,
            29,
            36
        ],
        "BC": [
            40,
            27,
            28
        ],
        "CD": [
            38,
            29,
            28
        ]
    },
    "Load_per_bus_per_stop": {
        "bus5": {
            "L": 83.94117647058823,
            "A": 83.8125,
            "B": 83.875,
            "C": 82.6875,
            "D": 84.25,
            "E": 86.875,
            "F": 86.0625,
            "G": 85.375,
            "H": 87.375,
            "I": 87.4375,
            "J": 87.5625,
            "K": 88.9375
        },
        "bus3": {
            "J": 61.875,
            "K": 62.0625,
            "L": 62.8125,
            "A": 63.5,
            "B": 63.3125,
            "C": 63.5,
            "D": 63.5,
            "E": 62.5,
            "F": 64.625,
            "G": 65.4375,
            "H": 65.625,
            "I": 65.13333333333334
        },
        "bus0": {
            "E": 84.125,
            "F": 83.625,
            "G": 83.9375,
            "H": 85.75,
            "I": 85.9375,
            "J": 85.8125,
            "K": 84.375,
            "L": 82.875,
            "A": 84,
            "B": 85.6,
            "C": 85.2,
            "D": 88.73333333333333
        },
        "bus2": {
            "G": 64.8125,
            "H": 66.625,
            "I": 66.375,
            "J": 66.5,
            "K": 67.25,
            "L": 67,
            "A": 65.3125,
            "B": 66.75,
            "C": 68.1875,
            "D": 68.4375,
            "E": 69.1875,
            "F": 69.875
        },
        "bus1": {
            "F": 70.5,
            "G": 70.4375,
            "H": 71.9375,
            "I": 72.3125,
            "J": 73.5625,
            "K": 74.0625,
            "L": 72.8125,
            "A": 73.875,
            "B": 74.125,
            "C": 75.4375,
            "D": 71.4,
            "E": 74
        },
        "bus4": {
            "K": 78.8125,
            "L": 78.5,
            "A": 80.875,
            "B": 80.875,
            "C": 80.375,
            "D": 82.3125,
            "E": 82.5625,
            "F": 81.0625,
            "G": 80.4375,
            "H": 81.8125,
            "I": 81.5,
            "J": 83.125
        }
    }
}1.75,
            "H": 63.13333333333333,
            "I": 63.86666666666667,
            "J": 64.13333333333334,
            "K": 63.8,
            "L": 63.4,
            "A": 63.8
        }
    }
}