{
    "Average_holding_time": 75.08571428571429,
    "Average_travel_time_passengers": 5024.902076828871,
    "Average_speed_busses": 0.029166666666666667,
    "Average_experienced_crowding": 318.8218830162987,
    "Average_covariation_headway": 1.5382500115227151,
    "Average_covariation_headway_stops": {
        "C": 1.3124134917426573,
        "I": 1.4289263650624473,
        "D": 1.3203170366331276,
        "J": 1.3893913972415184,
        "A": 1.3292071448558818,
        "E": 1.3591722731482283,
        "K": 1.2928179357441603,
        "F": 1.3800136749340524,
        "B": 1.2876517286677323,
        "G": 1.3946144304808552,
        "L": 1.2959972781101514,
        "H": 1.409984596985101
    },
    "Average_excess_waiting_time": {
        "C": 1021.0658630119883,
        "I": 1197.3964241414656,
        "D": 1024.4640623326386,
        "J": 1245.43631021698,
        "A": 1028.9815900102046,
        "E": 1066.759795080985,
        "K": 979.2157746686921,
        "F": 1105.6327523256903,
        "B": 995.2313488879406,
        "G": 1143.9531442581206,
        "L": 1000.8088924316878,
        "H": 1182.364763315098
    },
    "Holding_per_stop": {
        "D": 77.28813559322033,
        "J": 76.07142857142857,
        "E": 71.5,
        "C": 76.03448275862068,
        "I": 72.29508196721312,
        "A": 67.36842105263158,
        "K": 75.53571428571429,
        "F": 75.5,
        "B": 76.3157894736842,
        "L": 79.28571428571429,
        "G": 76.5,
        "H": 77.5
    },
    "Actions_tfl_edges": {
        "BC": [
            20,
            29,
            9
        ],
        "CD": [
            23,
            24,
            12
        ],
        "DE": [
            18,
            33,
            9
        ],
        "HI": [
            16,
            33,
            12
        ],
        "IJ": [
            22,
            29,
            11
        ],
        "LA": [
            16,
            30,
            11
        ],
        "JK": [
            18,
            29,
            9
        ],
        "EF": [
            19,
            30,
            11
        ],
        "AB": [
            19,
            27,
            11
        ],
        "KL": [
            19,
            31,
            6
        ],
        "FG": [
            19,
            28,
            13
        ],
        "GH": [
            22,
            28,
            10
        ]
    },
    "Load_per_bus_per_stop": {
        "bus0": {
            "C": 4,
            "D": 5.3,
            "E": 5.6,
            "F": 6.2,
            "G": 6.9,
            "H": 7.8,
            "I": 8,
            "J": 8.11111111111111,
            "K": 7.111111111111111,
            "L": 6.333333333333333,
            "A": 5.888888888888889,
            "B": 4.666666666666667
        },
        "bus3": {
            "I": 211.63636363636363,
            "J": 233,
            "K": 233.6,
            "L": 236.8,
            "A": 232.5,
            "B": 234.4,
            "C": 231.5,
            "D": 226.4,
            "E": 225.4,
            "F": 226.6,
            "G": 230.5,
            "H": 233.2
        },
        "bus1": {
            "D": 33.3,
            "E": 34.2,
            "F": 35.9,
            "G": 34.6,
            "H": 36,
            "I": 36.2,
            "J": 34.888888888888886,
            "K": 34.55555555555556,
            "L": 34.888888888888886,
            "A": 34.22222222222222,
            "B": 35.77777777777778,
            "C": 35.333333333333336
        },
        "bus4": {
            "J": 54.5,
            "K": 55.3,
            "L": 56.2,
            "A": 58.6,
            "B": 55.7,
            "C": 57.8,
            "D": 57.4,
            "E": 59.3,
            "F": 59.4,
            "G": 59.3,
            "H": 59,
            "I": 55.1
        },
        "bus5": {
            "A": 18,
            "B": 20,
            "C": 21.9,
            "D": 22.3,
            "E": 22.5,
            "F": 21.2,
            "G": 19.9,
            "H": 20.2,
            "I": 19.3,
            "J": 18.88888888888889,
            "K": 16.77777777777778,
            "L": 17
        },
        "bus2": {
            "E": 367,
            "F": 369.9,
            "G": 375.2,
            "H": 384.6,
            "I": 388.6,
            "J": 392.5,
            "K": 363.77777777777777,
            "L": 363.77777777777777,
            "A": 370.55555555555554,
            "B": 380.22222222222223,
            "C": 384.1111111111111,
            "D": 395.3333333333333
        }
    }
}