{
    "Average_holding_time": 27.195233730522457,
    "Average_travel_time_passengers": 2796.226875116354,
    "Average_speed_busses": 0.04545833333333334,
    "Average_experienced_crowding": 84.00783885117485,
    "Average_covariation_headway": 0.2599081037354984,
    "Average_covariation_headway_stops": {
        "B": 0.21374089936408217,
        "J": 0.19864695043070987,
        "C": 0.21526902425805836,
        "L": 0.19651129213149066,
        "G": 0.22484580415868946,
        "K": 0.18903071637219804,
        "A": 0.17170975530998794,
        "D": 0.18892322857946248,
        "H": 0.20956028184842274,
        "E": 0.20583174560976658,
        "I": 0.1980811852414372,
        "F": 0.21073071763197268
    },
    "Average_excess_waiting_time": {
        "B": 63.83882921467438,
        "J": 65.89194492173272,
        "C": 62.795517006822195,
        "L": 61.262559554742836,
        "G": 70.00315950728918,
        "K": 62.41195989702965,
        "A": 60.78462984783181,
        "D": 61.30658512164638,
        "H": 68.5844894804111,
        "E": 65.51036110926947,
        "I": 68.68621758251953,
        "F": 67.7822702372697
    },
    "Holding_per_stop": {
        "C": 33.91304347826087,
        "L": 21.52173913043478,
        "G": 38.666666666666664,
        "K": 23.406593406593405,
        "J": 32.666666666666664,
        "B": 21.52173913043478,
        "A": 10.87912087912088,
        "D": 22.5,
        "H": 34,
        "E": 28.021978021978022,
        "I": 30.666666666666668,
        "F": 29
    },
    "Actions_tfl_edges": {
        "AB": [
            27,
            31,
            34
        ],
        "BC": [
            36,
            28,
            29
        ],
        "FG": [
            24,
            45,
            22
        ],
        "IJ": [
            28,
            56,
            7
        ],
        "JK": [
            22,
            55,
            14
        ],
        "KL": [
            21,
            51,
            20
        ],
        "CD": [
            39,
            38,
            15
        ],
        "LA": [
            18,
            46,
            28
        ],
        "GH": [
            29,
            45,
            16
        ],
        "DE": [
            34,
            43,
            14
        ],
        "HI": [
            30,
            44,
            16
        ],
        "EF": [
            25,
            50,
            16
        ]
    },
    "Load_per_bus_per_stop": {
        "bus0": {
            "B": 73.75,
            "C": 76.4375,
            "D": 75.125,
            "E": 75.6,
            "F": 78,
            "G": 79.46666666666667,
            "H": 77,
            "I": 78.06666666666666,
            "J": 78.06666666666666,
            "K": 78.73333333333333,
            "L": 78.53333333333333,
            "A": 77.06666666666666
        },
        "bus3": {
            "J": 81.13333333333334,
            "K": 83.73333333333333,
            "L": 82.13333333333334,
            "A": 81.2,
            "B": 84.2,
            "C": 85,
            "D": 87.73333333333333,
            "E": 86.66666666666667,
            "F": 85.86666666666666,
            "G": 85.66666666666667,
            "H": 85.13333333333334,
            "I": 86.13333333333334
        },
        "bus1": {
            "C": 77.3125,
            "D": 75.9375,
            "E": 77.75,
            "F": 78.5,
            "G": 79.6,
            "H": 81.46666666666667,
            "I": 83.4,
            "J": 84,
            "K": 84.46666666666667,
            "L": 84.06666666666666,
            "A": 84.86666666666666,
            "B": 82.8
        },
        "bus5": {
            "L": 78.0625,
            "A": 80.0625,
            "B": 80.9375,
            "C": 80.13333333333334,
            "D": 79.53333333333333,
            "E": 80.06666666666666,
            "F": 80.2,
            "G": 81.93333333333334,
            "H": 85.26666666666667,
            "I": 85.93333333333334,
            "J": 84.4,
            "K": 83.86666666666666
        },
        "bus2": {
            "G": 92.0625,
            "H": 89.13333333333334,
            "I": 88.26666666666667,
            "J": 88.53333333333333,
            "K": 89.6,
            "L": 88.86666666666666,
            "A": 89.46666666666667,
            "B": 90.06666666666666,
            "C": 91.46666666666667,
            "D": 92.8,
            "E": 94.06666666666666,
            "F": 97.4
        },
        "bus4": {
            "K": 76.8125,
            "L": 79.875,
            "A": 81.46666666666667,
            "B": 82.33333333333333,
            "C": 81.6,
            "D": 81.26666666666667,
            "E": 82.26666666666667,
            "F": 83.4,
            "G": 83.4,
            "H": 82,
            "I": 82.26666666666667,
            "J": 82.26666666666667
        }
    }
}81.53333333333333,
            "F": 83.33333333333333
        }
    }
}