{
    "Average_holding_time": 24.67087466185753,
    "Average_travel_time_passengers": 2761.162554101048,
    "Average_speed_busses": 0.04620833333333333,
    "Average_experienced_crowding": 83.98608556001523,
    "Average_covariation_headway": 0.35545950373572166,
    "Average_covariation_headway_stops": {
        "A": 0.27528557910709905,
        "F": 0.29220895551859116,
        "B": 0.2757744723251921,
        "C": 0.29435936973639387,
        "D": 0.2941178127160346,
        "I": 0.25965629238919363,
        "G": 0.2601091695865119,
        "E": 0.27837459186685476,
        "J": 0.25436338947148823,
        "K": 0.2606924137647091,
        "H": 0.27274431978064606,
        "L": 0.2653677102410742
    },
    "Average_excess_waiting_time": {
        "A": 72.57927394617371,
        "F": 69.5148283619285,
        "B": 70.4932693799858,
        "C": 71.53944267775285,
        "D": 70.2776559131052,
        "I": 65.80095198051265,
        "G": 65.4460527776256,
        "E": 69.02031903883568,
        "J": 67.02943438380771,
        "K": 70.91923605756665,
        "H": 69.57122411994095,
        "L": 74.5737538661852
    },
    "Holding_per_stop": {
        "B": 17.608695652173914,
        "F": 34.193548387096776,
        "C": 25.161290322580644,
        "D": 31.612903225806452,
        "A": 17.142857142857142,
        "I": 20,
        "G": 25.161290322580644,
        "E": 22.580645161290324,
        "J": 24.130434782608695,
        "H": 30.967741935483872,
        "K": 24.782608695652176,
        "L": 22.417582417582416
    },
    "Actions_tfl_edges": {
        "AB": [
            19,
            36,
            37
        ],
        "BC": [
            15,
            31,
            47
        ],
        "CD": [
            11,
            37,
            46
        ],
        "EF": [
            9,
            38,
            47
        ],
        "HI": [
            13,
            43,
            38
        ],
        "LA": [
            11,
            42,
            39
        ],
        "FG": [
            11,
            35,
            47
        ],
        "DE": [
            8,
            42,
            43
        ],
        "IJ": [
            14,
            39,
            40
        ],
        "GH": [
            15,
            34,
            44
        ],
        "JK": [
            17,
            39,
            36
        ],
        "KL": [
            13,
            39,
            40
        ]
    },
    "Load_per_bus_per_stop": {
        "bus5": {
            "A": 70.625,
            "B": 73.5625,
            "C": 73.75,
            "D": 74.0625,
            "E": 74.2,
            "F": 75.06666666666666,
            "G": 74.73333333333333,
            "H": 76.6,
            "I": 77.46666666666667,
            "J": 77.26666666666667,
            "K": 76.86666666666666,
            "L": 74.93333333333334
        },
        "bus3": {
            "F": 96.4375,
            "G": 97.5625,
            "H": 97.875,
            "I": 95.625,
            "J": 93.6875,
            "K": 94.875,
            "L": 97.33333333333333,
            "A": 98.06666666666666,
            "B": 99.26666666666667,
            "C": 99.46666666666667,
            "D": 99.93333333333334,
            "E": 101.46666666666667
        },
        "bus0": {
            "B": 64,
            "C": 64.25,
            "D": 66.875,
            "E": 66.125,
            "F": 65.875,
            "G": 67.73333333333333,
            "H": 68.93333333333334,
            "I": 70.46666666666667,
            "J": 70.13333333333334,
            "K": 68.33333333333333,
            "L": 68.86666666666666,
            "A": 68.33333333333333
        },
        "bus1": {
            "C": 56.75,
            "D": 57.6875,
            "E": 57.25,
            "F": 57.5,
            "G": 58,
            "H": 57.4375,
            "I": 56.8,
            "J": 56.6,
            "K": 57.333333333333336,
            "L": 58.06666666666667,
            "A": 57.733333333333334,
            "B": 58.733333333333334
        },
        "bus2": {
            "D": 89.5,
            "E": 89.4375,
            "F": 87.9375,
            "G": 89.8125,
            "H": 89.6875,
            "I": 90.75,
            "J": 92.75,
            "K": 93.26666666666667,
            "L": 95,
            "A": 93.73333333333333,
            "B": 95.33333333333333,
            "C": 93.66666666666667
        },
        "bus4": {
            "I": 83.6875,
            "J": 83.3125,
            "K": 80.75,
            "L": 84.625,
            "A": 85.8,
            "B": 86.46666666666667,
            "C": 85.86666666666666,
            "D": 88.8,
            "E": 90.6,
            "F": 91.13333333333334,
            "G": 90.2,
            "H": 87.53333333333333
        }
    }
}"J": 82.46666666666667,
            "K": 83.06666666666666
        }
    }
}