{
    "Average_holding_time": 6.897435897435898,
    "Average_travel_time_passengers": 2621.7744569534507,
    "Average_speed_busses": 0.04875,
    "Average_experienced_crowding": 80.24141380086695,
    "Average_covariation_headway": 0.34156633405007664,
    "Average_covariation_headway_stops": {
        "H": 0.2331825026355656,
        "L": 0.23051180823996648,
        "J": 0.21755094728422522,
        "C": 0.24731164931754734,
        "K": 0.2266487630437897,
        "G": 0.22681922478173044,
        "A": 0.21953892484327828,
        "I": 0.2092103721672867,
        "D": 0.24205044150375876,
        "B": 0.23359210025419608,
        "E": 0.23144753257450734,
        "F": 0.23453945236941323
    },
    "Average_excess_waiting_time": {
        "H": 46.757953737509354,
        "L": 42.878426569217936,
        "J": 44.86255665979456,
        "C": 45.3244040794699,
        "K": 44.269303566374504,
        "G": 47.87502827759596,
        "A": 42.6070881996219,
        "I": 45.65728500506151,
        "D": 46.76408522735943,
        "B": 45.921514737619646,
        "E": 47.065616215761,
        "F": 49.25528915079212
    },
    "Holding_per_stop": {
        "H": 8.041237113402062,
        "L": 10.408163265306122,
        "J": 5.876288659793815,
        "C": 9.183673469387756,
        "K": 7.040816326530612,
        "G": 9.896907216494846,
        "A": 2.4489795918367347,
        "I": 4.948453608247423,
        "D": 7.959183673469388,
        "B": 5.510204081632653,
        "E": 4.948453608247423,
        "F": 6.494845360824742
    },
    "Actions_tfl_edges": {
        "BC": [
            0,
            66,
            33
        ],
        "FG": [
            0,
            61,
            37
        ],
        "GH": [
            0,
            58,
            40
        ],
        "IJ": [
            0,
            61,
            37
        ],
        "JK": [
            0,
            56,
            42
        ],
        "KL": [
            0,
            59,
            40
        ],
        "HI": [
            0,
            55,
            42
        ],
        "LA": [
            0,
            64,
            34
        ],
        "CD": [
            0,
            65,
            33
        ],
        "AB": [
            0,
            61,
            37
        ],
        "DE": [
            0,
            61,
            37
        ],
        "EF": [
            0,
            61,
            36
        ]
    },
    "Load_per_bus_per_stop": {
        "bus2": {
            "H": 74.88235294117646,
            "I": 75.23529411764706,
            "J": 74.5625,
            "K": 76,
            "L": 76.875,
            "A": 77.75,
            "B": 77.0625,
            "C": 77.25,
            "D": 77.75,
            "E": 78.6875,
            "F": 77.5,
            "G": 77.125
        },
        "bus5": {
            "L": 78.52941176470588,
            "A": 76.82352941176471,
            "B": 76.23529411764706,
            "C": 74.41176470588235,
            "D": 75.05882352941177,
            "E": 75.875,
            "F": 77.9375,
            "G": 79.875,
            "H": 83.4375,
            "I": 85.4375,
            "J": 85.75,
            "K": 85.25
        },
        "bus3": {
            "J": 73.23529411764706,
            "K": 76,
            "L": 77,
            "A": 74.125,
            "B": 75.375,
            "C": 75.125,
            "D": 74.0625,
            "E": 74.375,
            "F": 74.375,
            "G": 74.375,
            "H": 75.75,
            "I": 76.375
        },
        "bus0": {
            "C": 75.6470588235294,
            "D": 75.82352941176471,
            "E": 76.88235294117646,
            "F": 75.52941176470588,
            "G": 79.625,
            "H": 81.625,
            "I": 81.9375,
            "J": 81.6875,
            "K": 80.6875,
            "L": 80.5,
            "A": 79.1875,
            "B": 79.75
        },
        "bus4": {
            "K": 73.82352941176471,
            "L": 73.70588235294117,
            "A": 75.82352941176471,
            "B": 76.41176470588235,
            "C": 76.5,
            "D": 76.25,
            "E": 76.8125,
            "F": 77,
            "G": 75.75,
            "H": 75,
            "I": 75.4375,
            "J": 76.3125
        },
        "bus1": {
            "G": 76.17647058823529,
            "H": 74.25,
            "I": 75.8125,
            "J": 77.1875,
            "K": 79.375,
            "L": 78.8125,
            "A": 80.1875,
            "B": 80.125,
            "C": 80,
            "D": 80.1875,
            "E": 79.875,
            "F": 79.375
        }
    }
}