{
    "Average_holding_time": 8.693771626297577,
    "Average_travel_time_passengers": 2624.930140927765,
    "Average_speed_busses": 0.04816666666666667,
    "Average_experienced_crowding": 80.49990405870885,
    "Average_covariation_headway": 0.36498902353417806,
    "Average_covariation_headway_stops": {
        "B": 0.2576604380148171,
        "K": 0.25668719485888364,
        "C": 0.2677864076698195,
        "G": 0.26721479035008844,
        "J": 0.25010447716194034,
        "I": 0.24086392744616092,
        "D": 0.24392560710670982,
        "L": 0.226031604303669,
        "H": 0.2373531348091851,
        "E": 0.2494770506200727,
        "A": 0.23475472076653287,
        "F": 0.2665180448233523
    },
    "Average_excess_waiting_time": {
        "B": 53.39078108749197,
        "K": 51.851359572886736,
        "C": 52.623275805222136,
        "G": 55.57735512865901,
        "J": 51.1709963377902,
        "I": 51.58395996935673,
        "D": 50.81680559031082,
        "L": 48.91645994667044,
        "H": 52.46024527468762,
        "E": 52.759885925803644,
        "A": 51.76611638735443,
        "F": 57.13172232717341
    },
    "Holding_per_stop": {
        "C": 12.371134020618557,
        "K": 7.731958762886598,
        "J": 8.350515463917526,
        "B": 7.8125,
        "G": 9.375,
        "I": 10.3125,
        "D": 7.422680412371134,
        "L": 10.3125,
        "E": 7.8125,
        "H": 12.8125,
        "A": 0.9375,
        "F": 9.0625
    },
    "Actions_tfl_edges": {
        "AB": [
            0,
            69,
            28
        ],
        "BC": [
            0,
            67,
            30
        ],
        "FG": [
            0,
            61,
            36
        ],
        "HI": [
            0,
            64,
            33
        ],
        "IJ": [
            0,
            65,
            32
        ],
        "JK": [
            0,
            70,
            28
        ],
        "CD": [
            0,
            66,
            31
        ],
        "KL": [
            0,
            64,
            33
        ],
        "GH": [
            0,
            65,
            31
        ],
        "DE": [
            0,
            66,
            31
        ],
        "LA": [
            0,
            66,
            30
        ],
        "EF": [
            0,
            66,
            30
        ]
    },
    "Load_per_bus_per_stop": {
        "bus0": {
            "B": 81.23529411764706,
            "C": 80,
            "D": 80.5625,
            "E": 80.125,
            "F": 81.875,
            "G": 81.375,
            "H": 81.125,
            "I": 81.625,
            "J": 82.5625,
            "K": 82.25,
            "L": 84.125,
            "A": 83.375
        },
        "bus5": {
            "K": 81.41176470588235,
            "L": 81.3125,
            "A": 81.375,
            "B": 82.125,
            "C": 83.625,
            "D": 83.9375,
            "E": 84.25,
            "F": 86.125,
            "G": 88.1875,
            "H": 87.125,
            "I": 86.5,
            "J": 87.9375
        },
        "bus1": {
            "C": 69.3529411764706,
            "D": 69.94117647058823,
            "E": 69.4375,
            "F": 70.1875,
            "G": 72.125,
            "H": 72.9375,
            "I": 73.9375,
            "J": 74.3125,
            "K": 77.625,
            "L": 74,
            "A": 75.875,
            "B": 74
        },
        "bus2": {
            "G": 61.75,
            "H": 61.4375,
            "I": 62.0625,
            "J": 64.3125,
            "K": 65.6875,
            "L": 65.9375,
            "A": 66.3125,
            "B": 68.0625,
            "C": 67,
            "D": 67.8125,
            "E": 65.875,
            "F": 67.375
        },
        "bus4": {
            "J": 72.41176470588235,
            "K": 70.375,
            "L": 70.8125,
            "A": 71.9375,
            "B": 71.1875,
            "C": 73.5625,
            "D": 72.1875,
            "E": 73.1875,
            "F": 73.6875,
            "G": 74,
            "H": 74.875,
            "I": 76
        },
        "bus3": {
            "I": 83.5625,
            "J": 85.0625,
            "K": 85.0625,
            "L": 84.875,
            "A": 84.0625,
            "B": 85.375,
            "C": 85.5,
            "D": 85.125,
            "E": 84.875,
            "F": 86,
            "G": 86.1875,
            "H": 87.4375
        }
    }
}