{
    "Average_holding_time": 20.97035040431267,
    "Average_travel_time_passengers": 2743.285701517228,
    "Average_speed_busses": 0.046375,
    "Average_experienced_crowding": 80.87222277676534,
    "Average_covariation_headway": 0.2498216089608238,
    "Average_covariation_headway_stops": {
        "A": 0.18557916516525247,
        "B": 0.2002203663606125,
        "H": 0.2462900600817048,
        "I": 0.2624026804376842,
        "L": 0.2118419828461914,
        "K": 0.2351030039281427,
        "C": 0.19763865410295667,
        "J": 0.24304041675288457,
        "D": 0.16829366879358437,
        "E": 0.1890466739797633,
        "F": 0.2082250998901025,
        "G": 0.23501150256651268
    },
    "Average_excess_waiting_time": {
        "A": 52.67372443451376,
        "B": 52.54885474763182,
        "H": 67.13943583414056,
        "I": 67.54450275201492,
        "L": 59.34443771058881,
        "K": 64.61241072434592,
        "C": 54.49846844741762,
        "J": 67.799007270895,
        "D": 52.37286644406049,
        "E": 56.585850152086664,
        "F": 60.46873914427067,
        "G": 66.70006735644694
    },
    "Holding_per_stop": {
        "A": 9.35483870967742,
        "B": 12.76595744680851,
        "I": 22.903225806451612,
        "L": 28.70967741935484,
        "K": 20.217391304347824,
        "H": 24.130434782608695,
        "C": 26.80851063829787,
        "J": 18.58695652173913,
        "D": 24.516129032258064,
        "E": 30.322580645161292,
        "F": 13.369565217391305,
        "G": 19.891304347826086
    },
    "Actions_tfl_edges": {
        "AB": [
            3,
            71,
            20
        ],
        "GH": [
            5,
            68,
            20
        ],
        "HI": [
            8,
            56,
            29
        ],
        "JK": [
            8,
            64,
            21
        ],
        "KL": [
            5,
            63,
            25
        ],
        "LA": [
            9,
            55,
            30
        ],
        "BC": [
            6,
            65,
            23
        ],
        "IJ": [
            8,
            55,
            29
        ],
        "CD": [
            5,
            63,
            26
        ],
        "DE": [
            8,
            59,
            26
        ],
        "EF": [
            7,
            62,
            24
        ],
        "FG": [
            6,
            65,
            21
        ]
    },
    "Load_per_bus_per_stop": {
        "bus5": {
            "A": 73.375,
            "B": 74,
            "C": 74.75,
            "D": 75.9375,
            "E": 76.25,
            "F": 74.8125,
            "G": 75.4375,
            "H": 75.93333333333334,
            "I": 76.33333333333333,
            "J": 76.26666666666667,
            "K": 77.6,
            "L": 77.33333333333333
        },
        "bus0": {
            "B": 81.5,
            "C": 83.1875,
            "D": 84.8125,
            "E": 85.1875,
            "F": 84.0625,
            "G": 84.0625,
            "H": 85.6875,
            "I": 87.0625,
            "J": 88.86666666666666,
            "K": 87.53333333333333,
            "L": 85.66666666666667,
            "A": 84.8
        },
        "bus1": {
            "H": 79,
            "I": 79.25,
            "J": 79.5625,
            "K": 79.26666666666667,
            "L": 79.33333333333333,
            "A": 78.06666666666666,
            "B": 78.66666666666667,
            "C": 80.53333333333333,
            "D": 80.73333333333333,
            "E": 79.2,
            "F": 81.13333333333334,
            "G": 83.26666666666667
        },
        "bus2": {
            "I": 74.9375,
            "J": 76.4375,
            "K": 78.1875,
            "L": 78.6875,
            "A": 78.86666666666666,
            "B": 78.06666666666666,
            "C": 78.33333333333333,
            "D": 79.33333333333333,
            "E": 78.4,
            "F": 79,
            "G": 79.06666666666666,
            "H": 80
        },
        "bus4": {
            "L": 73,
            "A": 74.3125,
            "B": 76.0625,
            "C": 74,
            "D": 74.75,
            "E": 77,
            "F": 77.8,
            "G": 77.93333333333334,
            "H": 78.2,
            "I": 78.4,
            "J": 77.6,
            "K": 77.4
        },
        "bus3": {
            "K": 76.1875,
            "L": 77.375,
            "A": 76.5625,
            "B": 79.25,
            "C": 78.875,
            "D": 81.06666666666666,
            "E": 81.46666666666667,
            "F": 81.2,
            "G": 80.2,
            "H": 80.8,
            "I": 80.66666666666667,
            "J": 80.4
        }
    }
}    "J": 90.13333333333334
        }
    }
} "H": 83.6
        }
    }
}