{
    "Average_holding_time": 14.589585172109444,
    "Average_travel_time_passengers": 2698.5081712158235,
    "Average_speed_busses": 0.04720833333333333,
    "Average_experienced_crowding": 82.46638587942917,
    "Average_covariation_headway": 0.3381779141349016,
    "Average_covariation_headway_stops": {
        "J": 0.2640078046796927,
        "E": 0.25497815127752593,
        "G": 0.2718163289084495,
        "K": 0.25811372955226225,
        "A": 0.22976436765505545,
        "C": 0.25314463010018373,
        "L": 0.23517652198847583,
        "F": 0.24784528059334368,
        "B": 0.22505386957297197,
        "D": 0.2573157537484526,
        "H": 0.2380550106570422,
        "I": 0.24921187150216217
    },
    "Average_excess_waiting_time": {
        "J": 62.36326338224592,
        "E": 58.4941748228232,
        "G": 61.339249280999184,
        "K": 59.67976910986397,
        "A": 55.517063288670215,
        "C": 58.87040029246026,
        "L": 58.244978469919374,
        "F": 59.680188798849485,
        "B": 56.51881216920475,
        "D": 60.82082815604491,
        "H": 58.14283921792247,
        "I": 61.44401460532606
    },
    "Holding_per_stop": {
        "G": 14.842105263157896,
        "E": 16.736842105263158,
        "K": 16.42105263157895,
        "A": 9.789473684210526,
        "C": 11.68421052631579,
        "J": 17.5531914893617,
        "L": 16.27659574468085,
        "B": 12.127659574468085,
        "F": 13.404255319148936,
        "D": 17.23404255319149,
        "H": 12.127659574468085,
        "I": 16.914893617021278
    },
    "Actions_tfl_edges": {
        "BC": [
            13,
            46,
            36
        ],
        "DE": [
            15,
            46,
            34
        ],
        "FG": [
            18,
            40,
            37
        ],
        "IJ": [
            16,
            40,
            39
        ],
        "JK": [
            19,
            40,
            36
        ],
        "LA": [
            13,
            41,
            41
        ],
        "GH": [
            17,
            46,
            32
        ],
        "EF": [
            13,
            41,
            41
        ],
        "KL": [
            16,
            40,
            39
        ],
        "AB": [
            17,
            42,
            36
        ],
        "CD": [
            12,
            51,
            32
        ],
        "HI": [
            17,
            39,
            38
        ]
    },
    "Load_per_bus_per_stop": {
        "bus3": {
            "J": 83.125,
            "K": 82.625,
            "L": 82.5,
            "A": 82,
            "B": 82.9375,
            "C": 84.9375,
            "D": 85.4375,
            "E": 85.5,
            "F": 85.06666666666666,
            "G": 86.06666666666666,
            "H": 86.4,
            "I": 86.8
        },
        "bus1": {
            "E": 70,
            "F": 70.25,
            "G": 72.1875,
            "H": 72.4375,
            "I": 72.1875,
            "J": 73.5,
            "K": 74.5,
            "L": 75.0625,
            "A": 74.3125,
            "B": 74.86666666666666,
            "C": 75.26666666666667,
            "D": 75.26666666666667
        },
        "bus2": {
            "G": 84.8125,
            "H": 84.5625,
            "I": 84.3125,
            "J": 85.75,
            "K": 86.9375,
            "L": 87.0625,
            "A": 87.6875,
            "B": 87.4375,
            "C": 88.6875,
            "D": 91.13333333333334,
            "E": 89.46666666666667,
            "F": 89.33333333333333
        },
        "bus4": {
            "K": 70.5625,
            "L": 70.625,
            "A": 72.125,
            "B": 73.9375,
            "C": 75.0625,
            "D": 73.375,
            "E": 76.125,
            "F": 78.125,
            "G": 75.375,
            "H": 76.4,
            "I": 77.6,
            "J": 75.46666666666667
        },
        "bus5": {
            "A": 64.875,
            "B": 66,
            "C": 64.8125,
            "D": 64.625,
            "E": 64.6875,
            "F": 66,
            "G": 65.8125,
            "H": 67.125,
            "I": 68.1875,
            "J": 67.6,
            "K": 68.6,
            "L": 66.26666666666667
        },
        "bus0": {
            "C": 85.75,
            "D": 84.4375,
            "E": 87.5,
            "F": 88.625,
            "G": 90.8125,
            "H": 90.3125,
            "I": 89.75,
            "J": 90,
            "K": 90.125,
            "L": 90.73333333333333,
            "A": 91.26666666666667,
            "B": 89.06666666666666
        }
    }
}