{
    "Average_holding_time": 20.827338129496404,
    "Average_travel_time_passengers": 2808.9709998615963,
    "Average_speed_busses": 0.04633333333333333,
    "Average_experienced_crowding": 90.19044509271492,
    "Average_covariation_headway": 0.517295423387504,
    "Average_covariation_headway_stops": {
        "L": 0.3599991983288264,
        "C": 0.4084131000039001,
        "B": 0.39362683825781575,
        "H": 0.3853227713475351,
        "A": 0.37958741826466375,
        "G": 0.38235304184028135,
        "D": 0.40006393362247133,
        "I": 0.3856327838285464,
        "J": 0.37302908461526924,
        "E": 0.39354110742222004,
        "F": 0.38963528275700415,
        "K": 0.3670211484596531
    },
    "Average_excess_waiting_time": {
        "L": 87.81396407670968,
        "C": 93.84480656759001,
        "B": 91.52425701129965,
        "H": 89.88637319812858,
        "A": 90.39967743545725,
        "G": 91.1754167360159,
        "D": 95.34160768720102,
        "I": 92.29204228745789,
        "J": 90.91197575774373,
        "E": 95.32561497827936,
        "F": 96.78458693823069,
        "K": 91.16727732317241
    },
    "Holding_per_stop": {
        "C": 19.148936170212767,
        "H": 22.580645161290324,
        "B": 18.06451612903226,
        "A": 15.483870967741936,
        "L": 20.869565217391305,
        "G": 23.47826086956522,
        "D": 17.419354838709676,
        "I": 20.64516129032258,
        "E": 19.35483870967742,
        "J": 23.47826086956522,
        "F": 22.82608695652174,
        "K": 26.73913043478261
    },
    "Actions_tfl_edges": {
        "AB": [
            25,
            47,
            22
        ],
        "BC": [
            26,
            48,
            20
        ],
        "FG": [
            30,
            25,
            38
        ],
        "GH": [
            28,
            23,
            42
        ],
        "KL": [
            27,
            29,
            37
        ],
        "LA": [
            25,
            38,
            30
        ],
        "CD": [
            35,
            26,
            33
        ],
        "HI": [
            35,
            21,
            37
        ],
        "DE": [
            35,
            27,
            31
        ],
        "IJ": [
            27,
            36,
            30
        ],
        "EF": [
            36,
            22,
            35
        ],
        "JK": [
            30,
            29,
            33
        ]
    },
    "Load_per_bus_per_stop": {
        "bus4": {
            "L": 75.9375,
            "A": 75.875,
            "B": 73.75,
            "C": 73.375,
            "D": 74.53333333333333,
            "E": 72.66666666666667,
            "F": 74.4,
            "G": 77.46666666666667,
            "H": 78.8,
            "I": 80.33333333333333,
            "J": 80.2,
            "K": 79.53333333333333
        },
        "bus1": {
            "C": 76.875,
            "D": 79.0625,
            "E": 78.375,
            "F": 80.375,
            "G": 81.4375,
            "H": 80,
            "I": 79.0625,
            "J": 79.875,
            "K": 81.8,
            "L": 81.53333333333333,
            "A": 82.13333333333334,
            "B": 83.13333333333334
        },
        "bus0": {
            "B": 91.1875,
            "C": 91.6875,
            "D": 92.125,
            "E": 91.25,
            "F": 93.625,
            "G": 94.46666666666667,
            "H": 96,
            "I": 97.33333333333333,
            "J": 95.8,
            "K": 96.8,
            "L": 99.53333333333333,
            "A": 98.46666666666667
        },
        "bus3": {
            "H": 82.4375,
            "I": 82.375,
            "J": 83.4375,
            "K": 85.25,
            "L": 86.375,
            "A": 89.3125,
            "B": 91.25,
            "C": 89.46666666666667,
            "D": 91.06666666666666,
            "E": 91,
            "F": 88.13333333333334,
            "G": 88.4
        },
        "bus5": {
            "A": 65.875,
            "B": 66.1875,
            "C": 67.9375,
            "D": 70.625,
            "E": 71.375,
            "F": 72.26666666666667,
            "G": 70.86666666666666,
            "H": 70.33333333333333,
            "I": 71.46666666666667,
            "J": 70.93333333333334,
            "K": 70,
            "L": 70.4
        },
        "bus2": {
            "G": 78.3125,
            "H": 78.0625,
            "I": 78.8125,
            "J": 77,
            "K": 76.875,
            "L": 77,
            "A": 79.26666666666667,
            "B": 80.53333333333333,
            "C": 81.26666666666667,
            "D": 81.73333333333333,
            "E": 80,
            "F": 81.46666666666667
        }
    }
}