{
    "Average_holding_time": 16.73972602739726,
    "Average_travel_time_passengers": 2819.9717495384134,
    "Average_speed_busses": 0.045625,
    "Average_experienced_crowding": 94.89016816636155,
    "Average_covariation_headway": 0.5547871334505633,
    "Average_covariation_headway_stops": {
        "L": 0.44428620672278135,
        "G": 0.4307562280910424,
        "K": 0.45392572190374214,
        "F": 0.44036563064865103,
        "H": 0.44080320973687404,
        "I": 0.4547433708537616,
        "A": 0.4279329359336979,
        "J": 0.4439821245247802,
        "B": 0.41917363989460493,
        "C": 0.4264621623325391,
        "D": 0.42832121001124274,
        "E": 0.43345118122799386
    },
    "Average_excess_waiting_time": {
        "L": 108.83266012810793,
        "G": 110.79498918001684,
        "K": 113.73942845717147,
        "F": 116.56275284670971,
        "H": 111.42117316192031,
        "I": 113.6734265916403,
        "A": 107.0912073312843,
        "J": 112.48494699051042,
        "B": 106.63924555942452,
        "C": 111.25662444397176,
        "D": 113.69697436985808,
        "E": 117.13132890107579
    },
    "Holding_per_stop": {
        "L": 19.032258064516128,
        "G": 12.527472527472527,
        "H": 12.717391304347826,
        "K": 20.543478260869566,
        "I": 17.282608695652176,
        "F": 18.666666666666668,
        "A": 9.130434782608695,
        "J": 17.934782608695652,
        "B": 13.516483516483516,
        "C": 21.333333333333332,
        "D": 22,
        "E": 16.333333333333332
    },
    "Actions_tfl_edges": {
        "EF": [
            0,
            89,
            2
        ],
        "FG": [
            0,
            89,
            2
        ],
        "GH": [
            0,
            90,
            2
        ],
        "HI": [
            0,
            92,
            1
        ],
        "JK": [
            0,
            93,
            0
        ],
        "KL": [
            0,
            91,
            2
        ],
        "LA": [
            0,
            90,
            3
        ],
        "IJ": [
            0,
            91,
            1
        ],
        "AB": [
            0,
            90,
            2
        ],
        "BC": [
            0,
            89,
            2
        ],
        "CD": [
            0,
            88,
            2
        ],
        "DE": [
            0,
            87,
            3
        ]
    },
    "Load_per_bus_per_stop": {
        "bus5": {
            "L": 93.375,
            "A": 95.3125,
            "B": 94.3125,
            "C": 93.4,
            "D": 95.86666666666666,
            "E": 98.06666666666666,
            "F": 99.4,
            "G": 98.6,
            "H": 97.93333333333334,
            "I": 96.66666666666667,
            "J": 100.06666666666666,
            "K": 100.6
        },
        "bus1": {
            "G": 75.1875,
            "H": 77.25,
            "I": 75.86666666666666,
            "J": 74.93333333333334,
            "K": 77,
            "L": 77.2,
            "A": 77.53333333333333,
            "B": 79.33333333333333,
            "C": 79.13333333333334,
            "D": 79.93333333333334,
            "E": 79.33333333333333,
            "F": 79.13333333333334
        },
        "bus4": {
            "K": 63.25,
            "L": 65.5,
            "A": 65.8125,
            "B": 65.5,
            "C": 68.26666666666667,
            "D": 70,
            "E": 72.2,
            "F": 72,
            "G": 72.4,
            "H": 70.66666666666667,
            "I": 68.46666666666667,
            "J": 67.6
        },
        "bus0": {
            "F": 88.875,
            "G": 87.13333333333334,
            "H": 88.93333333333334,
            "I": 89.4,
            "J": 89.6,
            "K": 90.8,
            "L": 94.53333333333333,
            "A": 94.13333333333334,
            "B": 96,
            "C": 96,
            "D": 94.46666666666667,
            "E": 94.46666666666667
        },
        "bus2": {
            "H": 65.625,
            "I": 66.5625,
            "J": 68.4375,
            "K": 72.2,
            "L": 71.13333333333334,
            "A": 71.13333333333334,
            "B": 71.53333333333333,
            "C": 70.53333333333333,
            "D": 70.73333333333333,
            "E": 69.66666666666667,
            "F": 69.6,
            "G": 69.93333333333334
        },
        "bus3": {
            "I": 80.25,
            "J": 79.75,
            "K": 80.9375,
            "L": 81.75,
            "A": 84.06666666666666,
            "B": 86.33333333333333,
            "C": 87.4,
            "D": 88,
            "E": 87.33333333333333,
            "F": 86.46666666666667,
            "G": 85.93333333333334,
            "H": 84.73333333333333
        }
    }
}