{
    "Average_holding_time": 29.257561869844178,
    "Average_travel_time_passengers": 2790.340677786106,
    "Average_speed_busses": 0.04545833333333334,
    "Average_experienced_crowding": 86.1305035532209,
    "Average_covariation_headway": 0.3763661286810552,
    "Average_covariation_headway_stops": {
        "K": 0.28757781159762624,
        "F": 0.29951899315180724,
        "D": 0.30308823444760746,
        "G": 0.29045037556561215,
        "A": 0.2804342307492483,
        "B": 0.30245493574795956,
        "H": 0.28931669735060633,
        "E": 0.29947850053364783,
        "C": 0.2861150027661115,
        "L": 0.27577333346305377,
        "I": 0.2768530841512429,
        "J": 0.27497883367712306
    },
    "Average_excess_waiting_time": {
        "K": 79.80467807183902,
        "F": 79.68348444091657,
        "D": 80.32224891977398,
        "G": 75.63409296121216,
        "A": 78.38346284898995,
        "B": 80.77223440111504,
        "H": 77.91031648170423,
        "E": 81.74213586334918,
        "C": 79.51418162375074,
        "L": 79.90419077393346,
        "I": 77.56374338030122,
        "J": 78.91235561195242
    },
    "Holding_per_stop": {
        "D": 34.94505494505494,
        "G": 26.73913043478261,
        "B": 22.417582417582416,
        "K": 30.98901098901099,
        "F": 31.64835164835165,
        "A": 16.483516483516482,
        "H": 38.9010989010989,
        "C": 32.967032967032964,
        "E": 25.714285714285715,
        "L": 32,
        "I": 29.67032967032967,
        "J": 28.666666666666668
    },
    "Actions_tfl_edges": {
        "AB": [
            17,
            33,
            42
        ],
        "CD": [
            16,
            31,
            45
        ],
        "EF": [
            17,
            30,
            45
        ],
        "FG": [
            15,
            33,
            44
        ],
        "JK": [
            20,
            30,
            41
        ],
        "LA": [
            24,
            30,
            37
        ],
        "DE": [
            19,
            35,
            37
        ],
        "GH": [
            18,
            32,
            42
        ],
        "BC": [
            17,
            29,
            45
        ],
        "KL": [
            23,
            31,
            37
        ],
        "HI": [
            20,
            35,
            36
        ],
        "IJ": [
            22,
            31,
            38
        ]
    },
    "Load_per_bus_per_stop": {
        "bus4": {
            "K": 93.6875,
            "L": 94.06666666666666,
            "A": 95.13333333333334,
            "B": 96.4,
            "C": 96.66666666666667,
            "D": 96.73333333333333,
            "E": 97.13333333333334,
            "F": 95.53333333333333,
            "G": 96.33333333333333,
            "H": 97.53333333333333,
            "I": 100.06666666666666,
            "J": 99.93333333333334
        },
        "bus2": {
            "F": 69.25,
            "G": 69.8125,
            "H": 69.86666666666666,
            "I": 72.33333333333333,
            "J": 72.2,
            "K": 73.8,
            "L": 74.2,
            "A": 74.26666666666667,
            "B": 72.26666666666667,
            "C": 71.33333333333333,
            "D": 72.8,
            "E": 73.06666666666666
        },
        "bus1": {
            "D": 69.375,
            "E": 70.375,
            "F": 69.86666666666666,
            "G": 72.73333333333333,
            "H": 73.4,
            "I": 76.2,
            "J": 74.26666666666667,
            "K": 72.93333333333334,
            "L": 73.73333333333333,
            "A": 73.46666666666667,
            "B": 72.86666666666666,
            "C": 72.46666666666667
        },
        "bus3": {
            "G": 66.4375,
            "H": 67.25,
            "I": 68.6875,
            "J": 68.46666666666667,
            "K": 68.4,
            "L": 70.8,
            "A": 72.4,
            "B": 73,
            "C": 72.06666666666666,
            "D": 73.2,
            "E": 73.46666666666667,
            "F": 71.6
        },
        "bus5": {
            "A": 87.3125,
            "B": 90.33333333333333,
            "C": 93,
            "D": 95.26666666666667,
            "E": 96,
            "F": 95.66666666666667,
            "G": 95.13333333333334,
            "H": 92.6,
            "I": 92.8,
            "J": 92.33333333333333,
            "K": 93.4,
            "L": 91.6
        },
        "bus0": {
            "B": 80.3125,
            "C": 79.75,
            "D": 80.66666666666667,
            "E": 80.46666666666667,
            "F": 81.13333333333334,
            "G": 80.86666666666666,
            "H": 81.86666666666666,
            "I": 84.86666666666666,
            "J": 84.8,
            "K": 86,
            "L": 86.86666666666666,
            "A": 86.13333333333334
        }
    }
}