{
    "Average_holding_time": 10.070859167404784,
    "Average_travel_time_passengers": 2718.4188948912592,
    "Average_speed_busses": 0.04704166666666667,
    "Average_experienced_crowding": 86.16749229209454,
    "Average_covariation_headway": 0.45828326907787875,
    "Average_covariation_headway_stops": {
        "H": 0.3264464202078772,
        "F": 0.3237975422313124,
        "B": 0.3398812082779414,
        "A": 0.33328163054187965,
        "G": 0.3262364432651587,
        "E": 0.304452754998215,
        "I": 0.3325222996005595,
        "C": 0.30995162994570813,
        "J": 0.32357439713660463,
        "D": 0.3023450177623819,
        "K": 0.321438507453707,
        "L": 0.3377777661317421
    },
    "Average_excess_waiting_time": {
        "H": 70.83872335684879,
        "F": 71.96947529468696,
        "B": 75.91732598546213,
        "A": 77.2025934644451,
        "G": 71.63581063826649,
        "E": 70.40106374915462,
        "I": 73.89340918232062,
        "C": 71.32387676061285,
        "J": 72.70432189268399,
        "D": 71.71447491930041,
        "K": 73.79984983899845,
        "L": 78.87719535781122
    },
    "Holding_per_stop": {
        "H": 11.68421052631579,
        "F": 14.680851063829786,
        "B": 9.893617021276595,
        "G": 12.947368421052632,
        "E": 7.0212765957446805,
        "A": 2.872340425531915,
        "I": 14.210526315789474,
        "C": 9.893617021276595,
        "J": 9.574468085106384,
        "D": 7.741935483870968,
        "K": 9.574468085106384,
        "L": 10.64516129032258
    },
    "Actions_tfl_edges": {
        "AB": [
            0,
            91,
            4
        ],
        "DE": [
            0,
            92,
            2
        ],
        "EF": [
            0,
            92,
            3
        ],
        "FG": [
            0,
            93,
            2
        ],
        "GH": [
            0,
            93,
            3
        ],
        "LA": [
            0,
            88,
            6
        ],
        "HI": [
            0,
            91,
            4
        ],
        "BC": [
            0,
            93,
            1
        ],
        "IJ": [
            0,
            88,
            7
        ],
        "CD": [
            0,
            92,
            2
        ],
        "JK": [
            0,
            90,
            4
        ],
        "KL": [
            0,
            89,
            5
        ]
    },
    "Load_per_bus_per_stop": {
        "bus4": {
            "H": 69.1875,
            "I": 70.75,
            "J": 69.5,
            "K": 70,
            "L": 72.625,
            "A": 72.625,
            "B": 74.375,
            "C": 74.625,
            "D": 74.375,
            "E": 74.375,
            "F": 73.625,
            "G": 74.06666666666666
        },
        "bus2": {
            "F": 81.375,
            "G": 80.125,
            "H": 81.3125,
            "I": 83.375,
            "J": 81.9375,
            "K": 83.125,
            "L": 83.4375,
            "A": 80.875,
            "B": 81.46666666666667,
            "C": 78.46666666666667,
            "D": 80.66666666666667,
            "E": 83.86666666666666
        },
        "bus0": {
            "B": 97.875,
            "C": 96.6875,
            "D": 97.8125,
            "E": 99.6875,
            "F": 100.875,
            "G": 99.5,
            "H": 99.25,
            "I": 100.25,
            "J": 100.73333333333333,
            "K": 102.46666666666667,
            "L": 102.46666666666667,
            "A": 104.2
        },
        "bus5": {
            "A": 61,
            "B": 60.625,
            "C": 61,
            "D": 62.5625,
            "E": 61,
            "F": 63.125,
            "G": 63.5,
            "H": 62.666666666666664,
            "I": 62.733333333333334,
            "J": 62.6,
            "K": 64.46666666666667,
            "L": 63.86666666666667
        },
        "bus3": {
            "G": 70.875,
            "H": 71.6875,
            "I": 73.125,
            "J": 73.8125,
            "K": 74.5625,
            "L": 75.25,
            "A": 74.9375,
            "B": 75.125,
            "C": 74.0625,
            "D": 71.375,
            "E": 71.4,
            "F": 73.33333333333333
        },
        "bus1": {
            "E": 89.4375,
            "F": 87.75,
            "G": 88,
            "H": 88.375,
            "I": 90.4375,
            "J": 89.6875,
            "K": 88.9375,
            "L": 89.875,
            "A": 93.2,
            "B": 94.53333333333333,
            "C": 94.73333333333333,
            "D": 95.53333333333333
        }
    }
}