{
    "Average_holding_time": 8.8666085440279,
    "Average_travel_time_passengers": 2664.650173100608,
    "Average_speed_busses": 0.04779166666666667,
    "Average_experienced_crowding": 80.65326034556979,
    "Average_covariation_headway": 0.38480035096066506,
    "Average_covariation_headway_stops": {
        "B": 0.28372531759008923,
        "G": 0.28143232753566116,
        "F": 0.27882153292991035,
        "K": 0.2854207541305091,
        "A": 0.2859279875038636,
        "D": 0.282159148200167,
        "H": 0.2597439995183148,
        "C": 0.26716782669550354,
        "E": 0.275238389384292,
        "L": 0.267731086006528,
        "I": 0.24310464862033182,
        "J": 0.26548784142753123
    },
    "Average_excess_waiting_time": {
        "B": 58.744996918975176,
        "G": 56.9761602339039,
        "F": 57.74584031833842,
        "K": 62.10388779148616,
        "A": 60.715590448348564,
        "D": 57.84752076476161,
        "H": 55.57286479294743,
        "C": 57.4034139295116,
        "E": 58.31264847692114,
        "L": 60.67408209165825,
        "I": 56.03851424050936,
        "J": 61.470829689797824
    },
    "Holding_per_stop": {
        "B": 8.125,
        "G": 7.731958762886598,
        "D": 10.9375,
        "A": 10.105263157894736,
        "F": 9.6875,
        "K": 13.263157894736842,
        "H": 8.4375,
        "C": 7.8125,
        "E": 5.9375,
        "I": 9.157894736842104,
        "L": 6.631578947368421,
        "J": 8.617021276595745
    },
    "Actions_tfl_edges": {
        "AB": [
            0,
            65,
            31
        ],
        "CD": [
            0,
            70,
            27
        ],
        "EF": [
            0,
            59,
            38
        ],
        "FG": [
            0,
            65,
            32
        ],
        "JK": [
            0,
            66,
            29
        ],
        "LA": [
            0,
            64,
            32
        ],
        "BC": [
            0,
            69,
            27
        ],
        "GH": [
            0,
            68,
            29
        ],
        "DE": [
            0,
            67,
            29
        ],
        "KL": [
            0,
            66,
            29
        ],
        "HI": [
            0,
            67,
            29
        ],
        "IJ": [
            0,
            68,
            27
        ]
    },
    "Load_per_bus_per_stop": {
        "bus0": {
            "B": 69.5,
            "C": 68.875,
            "D": 70.3125,
            "E": 70,
            "F": 70.4375,
            "G": 71.9375,
            "H": 71.6875,
            "I": 74.0625,
            "J": 74.5625,
            "K": 75.75,
            "L": 76.9375,
            "A": 73.86666666666666
        },
        "bus3": {
            "G": 82,
            "H": 83.375,
            "I": 83.3125,
            "J": 82.9375,
            "K": 84.75,
            "L": 83.9375,
            "A": 83.25,
            "B": 84.3125,
            "C": 83.9375,
            "D": 82.875,
            "E": 85.25,
            "F": 86.125
        },
        "bus2": {
            "F": 65.5,
            "G": 65,
            "H": 65.1875,
            "I": 67.4375,
            "J": 67.8125,
            "K": 68.5,
            "L": 69.75,
            "A": 68.75,
            "B": 67.5625,
            "C": 67.8125,
            "D": 68.1875,
            "E": 69.25
        },
        "bus4": {
            "K": 80.5625,
            "L": 84.5,
            "A": 86.75,
            "B": 86.875,
            "C": 86.875,
            "D": 85.375,
            "E": 83.875,
            "F": 84.125,
            "G": 83.8125,
            "H": 82.1875,
            "I": 83,
            "J": 83.73333333333333
        },
        "bus5": {
            "A": 82.5,
            "B": 85,
            "C": 86.5,
            "D": 86.9375,
            "E": 86.8125,
            "F": 86.4375,
            "G": 88.5,
            "H": 89.3125,
            "I": 89.125,
            "J": 89.5,
            "K": 88.33333333333333,
            "L": 87.93333333333334
        },
        "bus1": {
            "D": 63.4375,
            "E": 64,
            "F": 66.1875,
            "G": 66,
            "H": 66.375,
            "I": 68.3125,
            "J": 69.8125,
            "K": 70.9375,
            "L": 71.0625,
            "A": 70.125,
            "B": 69.1875,
            "C": 68.4375
        }
    }
}