{
    "Average_holding_time": 19.068934646374217,
    "Average_travel_time_passengers": 2743.7129932798725,
    "Average_speed_busses": 0.04654166666666667,
    "Average_experienced_crowding": 85.399486198806,
    "Average_covariation_headway": 0.43047783788095517,
    "Average_covariation_headway_stops": {
        "I": 0.3317727384854727,
        "B": 0.31554312539197116,
        "F": 0.3412399318609706,
        "G": 0.3441071332911332,
        "A": 0.33476198742951585,
        "J": 0.327240889982292,
        "H": 0.31005760510055264,
        "C": 0.32064694700486573,
        "K": 0.32256546064665675,
        "D": 0.32769916565747403,
        "L": 0.3320275189469284,
        "E": 0.3347910257898374
    },
    "Average_excess_waiting_time": {
        "I": 78.17766321514983,
        "B": 72.92331333259966,
        "F": 81.65725789673377,
        "G": 80.41342482584713,
        "A": 78.48870616384812,
        "J": 75.22526824104602,
        "H": 75.48076073119131,
        "C": 75.54424897385996,
        "K": 75.87175601803932,
        "D": 78.68199659140572,
        "L": 80.45879782048894,
        "E": 81.97946645481551
    },
    "Holding_per_stop": {
        "B": 16.595744680851062,
        "G": 18.06451612903226,
        "I": 22.580645161290324,
        "J": 16.595744680851062,
        "F": 20.64516129032258,
        "A": 16.774193548387096,
        "H": 14.193548387096774,
        "C": 26.451612903225808,
        "K": 20,
        "D": 22.580645161290324,
        "L": 19.35483870967742,
        "E": 15
    },
    "Actions_tfl_edges": {
        "AB": [
            28,
            36,
            30
        ],
        "EF": [
            32,
            28,
            33
        ],
        "FG": [
            35,
            28,
            31
        ],
        "HI": [
            26,
            36,
            32
        ],
        "IJ": [
            27,
            32,
            35
        ],
        "LA": [
            36,
            26,
            32
        ],
        "BC": [
            25,
            32,
            37
        ],
        "GH": [
            26,
            37,
            30
        ],
        "JK": [
            30,
            34,
            30
        ],
        "CD": [
            29,
            28,
            36
        ],
        "KL": [
            33,
            29,
            31
        ],
        "DE": [
            35,
            25,
            33
        ]
    },
    "Load_per_bus_per_stop": {
        "bus3": {
            "I": 74.75,
            "J": 75.5625,
            "K": 77,
            "L": 77.25,
            "A": 76.6875,
            "B": 77.25,
            "C": 77.4,
            "D": 77.4,
            "E": 77.06666666666666,
            "F": 78.8,
            "G": 79.66666666666667,
            "H": 79.46666666666667
        },
        "bus0": {
            "B": 87,
            "C": 86.75,
            "D": 87.5,
            "E": 87.375,
            "F": 89.1875,
            "G": 89.6875,
            "H": 89.4375,
            "I": 89,
            "J": 89.2,
            "K": 89.4,
            "L": 91.33333333333333,
            "A": 92.86666666666666
        },
        "bus1": {
            "F": 75.6875,
            "G": 75,
            "H": 75,
            "I": 75.9375,
            "J": 79.4375,
            "K": 80,
            "L": 78.8,
            "A": 79.26666666666667,
            "B": 78.53333333333333,
            "C": 79.2,
            "D": 80.4,
            "E": 79.73333333333333
        },
        "bus2": {
            "G": 83,
            "H": 83.5,
            "I": 83.8125,
            "J": 83.5625,
            "K": 84.4375,
            "L": 86.0625,
            "A": 87.13333333333334,
            "B": 87.93333333333334,
            "C": 89.2,
            "D": 88.46666666666667,
            "E": 87.33333333333333,
            "F": 88.33333333333333
        },
        "bus5": {
            "A": 63.3125,
            "B": 63.3125,
            "C": 63.6875,
            "D": 64.25,
            "E": 64.625,
            "F": 65,
            "G": 65.0625,
            "H": 64.86666666666666,
            "I": 64.53333333333333,
            "J": 65.86666666666666,
            "K": 66.46666666666667,
            "L": 66.2
        },
        "bus4": {
            "J": 74.9375,
            "K": 77.25,
            "L": 78.75,
            "A": 81.125,
            "B": 80.6875,
            "C": 82.9375,
            "D": 84.1875,
            "E": 83.25,
            "F": 83.46666666666667,
            "G": 82.86666666666666,
            "H": 80.93333333333334,
            "I": 80.73333333333333
        }
    }
}