{
    "Average_holding_time": 17.239819004524886,
    "Average_travel_time_passengers": 2725.0362651803725,
    "Average_speed_busses": 0.04604166666666667,
    "Average_experienced_crowding": 81.4865661502304,
    "Average_covariation_headway": 0.2712702316341143,
    "Average_covariation_headway_stops": {
        "B": 0.19840478783419094,
        "I": 0.1981243749804545,
        "F": 0.1943864300276526,
        "G": 0.22292953756936743,
        "A": 0.19465938869008625,
        "J": 0.1912978703262298,
        "H": 0.20574963703205396,
        "C": 0.17730878676539058,
        "K": 0.18396925058209132,
        "D": 0.1848646298759301,
        "L": 0.1792990632622033,
        "E": 0.18347895731584898
    },
    "Average_excess_waiting_time": {
        "B": 57.617209535976656,
        "I": 60.32685022132267,
        "F": 60.49850454161884,
        "G": 63.7240715699827,
        "A": 58.45088881306589,
        "J": 57.59440800002017,
        "H": 62.96743588049941,
        "C": 56.7877949198305,
        "K": 57.609746141484436,
        "D": 59.219173551260155,
        "L": 59.17702094391905,
        "E": 60.80751972607146
    },
    "Holding_per_stop": {
        "B": 16.451612903225808,
        "G": 17.934782608695652,
        "J": 15.483870967741936,
        "I": 18.26086956521739,
        "F": 16.630434782608695,
        "A": 11.41304347826087,
        "H": 16.956521739130434,
        "C": 20.869565217391305,
        "K": 16.630434782608695,
        "D": 18.58695652173913,
        "L": 21.847826086956523,
        "E": 15.824175824175825
    },
    "Actions_tfl_edges": {
        "AB": [
            0,
            93,
            0
        ],
        "EF": [
            0,
            92,
            0
        ],
        "FG": [
            0,
            93,
            0
        ],
        "HI": [
            0,
            93,
            0
        ],
        "IJ": [
            0,
            93,
            0
        ],
        "LA": [
            0,
            93,
            0
        ],
        "BC": [
            0,
            93,
            0
        ],
        "GH": [
            0,
            92,
            0
        ],
        "JK": [
            0,
            93,
            0
        ],
        "CD": [
            0,
            92,
            0
        ],
        "KL": [
            0,
            92,
            0
        ],
        "DE": [
            0,
            92,
            0
        ]
    },
    "Load_per_bus_per_stop": {
        "bus0": {
            "B": 74.8125,
            "C": 74.3125,
            "D": 74.875,
            "E": 75.25,
            "F": 75.4375,
            "G": 76.2,
            "H": 79.26666666666667,
            "I": 79,
            "J": 79.86666666666666,
            "K": 80.66666666666667,
            "L": 81,
            "A": 80.73333333333333
        },
        "bus3": {
            "I": 87,
            "J": 86.75,
            "K": 88.125,
            "L": 91.6875,
            "A": 92.2,
            "B": 92,
            "C": 92,
            "D": 90.46666666666667,
            "E": 87.86666666666666,
            "F": 88.8,
            "G": 90.8,
            "H": 91.53333333333333
        },
        "bus1": {
            "F": 67.5,
            "G": 64.75,
            "H": 63.6875,
            "I": 63.93333333333333,
            "J": 66.46666666666667,
            "K": 66.53333333333333,
            "L": 68,
            "A": 69.46666666666667,
            "B": 71.2,
            "C": 71.86666666666666,
            "D": 71.53333333333333,
            "E": 71
        },
        "bus2": {
            "G": 76.5,
            "H": 76.3125,
            "I": 77.125,
            "J": 77.625,
            "K": 75.73333333333333,
            "L": 76.73333333333333,
            "A": 77.6,
            "B": 78.53333333333333,
            "C": 80.4,
            "D": 81.73333333333333,
            "E": 80.6,
            "F": 81.6
        },
        "bus5": {
            "A": 81.875,
            "B": 83.0625,
            "C": 82.875,
            "D": 84.625,
            "E": 85.4375,
            "F": 85.4,
            "G": 85.13333333333334,
            "H": 85.8,
            "I": 84.33333333333333,
            "J": 84.33333333333333,
            "K": 84.86666666666666,
            "L": 84.86666666666666
        },
        "bus4": {
            "J": 75.75,
            "K": 75.375,
            "L": 76.3125,
            "A": 77.5,
            "B": 78.5,
            "C": 80.53333333333333,
            "D": 82.2,
            "E": 82.06666666666666,
            "F": 81.2,
            "G": 81.46666666666667,
            "H": 80,
            "I": 79.86666666666666
        }
    }
}
            "L": 71.13333333333334
        }
    }
}    "A": 91.93333333333334,
            "B": 91.8,
            "C": 94.33333333333333,
            "D": 93.93333333333334
        }
    }
}