{
    "Average_holding_time": 12.362068965517242,
    "Average_travel_time_passengers": 2638.1508014130127,
    "Average_speed_busses": 0.04833333333333333,
    "Average_experienced_crowding": 79.3779934582232,
    "Average_covariation_headway": 0.3015713233766652,
    "Average_covariation_headway_stops": {
        "D": 0.21936246363112175,
        "I": 0.22612452472836825,
        "A": 0.2005524474517228,
        "H": 0.2148686023365973,
        "C": 0.21668241653724865,
        "K": 0.21975405018444633,
        "E": 0.1993082667535501,
        "B": 0.21923295264473847,
        "J": 0.23124099545191532,
        "L": 0.20780470406177942,
        "F": 0.1962758577506681,
        "G": 0.19117113997396853
    },
    "Average_excess_waiting_time": {
        "D": 43.78568749957378,
        "I": 46.54729915898753,
        "A": 43.58885451579033,
        "H": 47.03147555459833,
        "C": 46.31753561312371,
        "K": 45.41160825061269,
        "E": 43.429775174867416,
        "B": 47.20324259688215,
        "J": 48.89063257050441,
        "L": 46.23511587708214,
        "F": 44.957235353279884,
        "G": 45.611084083823016
    },
    "Holding_per_stop": {
        "D": 8.350515463917526,
        "I": 13.29896907216495,
        "A": 7.731958762886598,
        "C": 13.608247422680412,
        "K": 10.515463917525773,
        "H": 14.375,
        "E": 12.989690721649485,
        "B": 11.443298969072165,
        "J": 13.608247422680412,
        "L": 18.125,
        "F": 13.125,
        "G": 11.25
    },
    "Actions_tfl_edges": {
        "BC": [
            12,
            46,
            39
        ],
        "CD": [
            14,
            45,
            39
        ],
        "GH": [
            13,
            46,
            38
        ],
        "HI": [
            13,
            41,
            43
        ],
        "JK": [
            11,
            37,
            50
        ],
        "LA": [
            14,
            42,
            41
        ],
        "DE": [
            14,
            33,
            50
        ],
        "IJ": [
            13,
            42,
            42
        ],
        "AB": [
            12,
            41,
            44
        ],
        "KL": [
            10,
            41,
            46
        ],
        "EF": [
            14,
            47,
            36
        ],
        "FG": [
            11,
            48,
            37
        ]
    },
    "Load_per_bus_per_stop": {
        "bus1": {
            "D": 70.17647058823529,
            "E": 72.58823529411765,
            "F": 72.29411764705883,
            "G": 74.5625,
            "H": 77.875,
            "I": 78.6875,
            "J": 77.75,
            "K": 78,
            "L": 77.4375,
            "A": 76.3125,
            "B": 74.8125,
            "C": 74.625
        },
        "bus3": {
            "I": 66.82352941176471,
            "J": 67.17647058823529,
            "K": 68.875,
            "L": 69,
            "A": 70.3125,
            "B": 69.5625,
            "C": 69.75,
            "D": 68.375,
            "E": 67,
            "F": 67.625,
            "G": 68.25,
            "H": 68.875
        },
        "bus5": {
            "A": 66.70588235294117,
            "B": 68.6470588235294,
            "C": 68.375,
            "D": 68.125,
            "E": 68.625,
            "F": 68.1875,
            "G": 69.8125,
            "H": 71.1875,
            "I": 70.375,
            "J": 71.5625,
            "K": 70.1875,
            "L": 70.5
        },
        "bus2": {
            "H": 76.47058823529412,
            "I": 76.4375,
            "J": 74.5,
            "K": 75.1875,
            "L": 74.4375,
            "A": 75.875,
            "B": 77.375,
            "C": 78.3125,
            "D": 77.3125,
            "E": 77.5,
            "F": 78.625,
            "G": 79.375
        },
        "bus0": {
            "C": 80.82352941176471,
            "D": 79.125,
            "E": 81.4375,
            "F": 82.25,
            "G": 84.125,
            "H": 83.75,
            "I": 82.6875,
            "J": 84.9375,
            "K": 85.75,
            "L": 84.6875,
            "A": 83.4375,
            "B": 84.6875
        },
        "bus4": {
            "K": 82.70588235294117,
            "L": 84.11764705882354,
            "A": 83.125,
            "B": 83.75,
            "C": 83.9375,
            "D": 85,
            "E": 85.625,
            "F": 86.125,
            "G": 88.125,
            "H": 88.5,
            "I": 88,
            "J": 86.8125
        }
    }
}