{
    "Average_holding_time": 24.422382671480143,
    "Average_travel_time_passengers": 2746.997720959091,
    "Average_speed_busses": 0.04616666666666667,
    "Average_experienced_crowding": 82.59111569977898,
    "Average_covariation_headway": 0.3064502264536925,
    "Average_covariation_headway_stops": {
        "C": 0.28393307328955775,
        "E": 0.2385496542736164,
        "L": 0.22058245137156113,
        "F": 0.22222615117275987,
        "K": 0.22675049272803,
        "H": 0.22364525892598816,
        "G": 0.21131165693494716,
        "A": 0.23184630627218483,
        "D": 0.2381891036978082,
        "I": 0.20421402685031578,
        "B": 0.23862058685375323,
        "J": 0.20864396833327697
    },
    "Average_excess_waiting_time": {
        "C": 71.43211905116061,
        "E": 66.7307116317516,
        "L": 59.13180685092402,
        "F": 60.40934807624649,
        "K": 62.366797296296966,
        "H": 61.06076003453575,
        "G": 61.03714700737231,
        "A": 62.48710363017517,
        "D": 67.13118871437831,
        "I": 59.309182685171265,
        "B": 65.87476117240311,
        "J": 61.69916478241731
    },
    "Holding_per_stop": {
        "L": 27.741935483870968,
        "F": 28.695652173913043,
        "C": 29.347826086956523,
        "H": 23.225806451612904,
        "E": 22.82608695652174,
        "K": 26.451612903225808,
        "G": 25.434782608695652,
        "A": 16.774193548387096,
        "I": 24.130434782608695,
        "D": 22.82608695652174,
        "B": 18.26086956521739,
        "J": 27.391304347826086
    },
    "Actions_tfl_edges": {
        "BC": [
            16,
            31,
            46
        ],
        "DE": [
            15,
            42,
            36
        ],
        "EF": [
            9,
            43,
            41
        ],
        "GH": [
            10,
            37,
            46
        ],
        "JK": [
            14,
            40,
            39
        ],
        "KL": [
            17,
            35,
            42
        ],
        "LA": [
            16,
            40,
            37
        ],
        "FG": [
            10,
            37,
            45
        ],
        "CD": [
            18,
            39,
            35
        ],
        "HI": [
            11,
            37,
            45
        ],
        "AB": [
            11,
            42,
            40
        ],
        "IJ": [
            13,
            35,
            44
        ]
    },
    "Load_per_bus_per_stop": {
        "bus0": {
            "C": 85.625,
            "D": 86.5625,
            "E": 87.3125,
            "F": 83.13333333333334,
            "G": 87.06666666666666,
            "H": 89.06666666666666,
            "I": 91.2,
            "J": 92.2,
            "K": 91,
            "L": 90.6,
            "A": 92,
            "B": 91.26666666666667
        },
        "bus1": {
            "E": 76.3125,
            "F": 77.25,
            "G": 77.1875,
            "H": 78,
            "I": 75.26666666666667,
            "J": 73.53333333333333,
            "K": 75.26666666666667,
            "L": 77,
            "A": 78.46666666666667,
            "B": 79.26666666666667,
            "C": 79.73333333333333,
            "D": 80.73333333333333
        },
        "bus5": {
            "L": 77.875,
            "A": 78.25,
            "B": 78.75,
            "C": 80,
            "D": 81.5,
            "E": 84.26666666666667,
            "F": 85.46666666666667,
            "G": 84.93333333333334,
            "H": 84.4,
            "I": 85.06666666666666,
            "J": 83.6,
            "K": 81.8
        },
        "bus2": {
            "F": 76.875,
            "G": 80.125,
            "H": 80.5,
            "I": 81.375,
            "J": 81.9375,
            "K": 82.375,
            "L": 82.46666666666667,
            "A": 80.26666666666667,
            "B": 80.6,
            "C": 80.4,
            "D": 79.8,
            "E": 79.66666666666667
        },
        "bus4": {
            "K": 71.8125,
            "L": 72.4375,
            "A": 73.0625,
            "B": 75.0625,
            "C": 74.0625,
            "D": 74.8,
            "E": 73.33333333333333,
            "F": 73.06666666666666,
            "G": 73.2,
            "H": 73.26666666666667,
            "I": 74.4,
            "J": 75.8
        },
        "bus3": {
            "H": 75.875,
            "I": 77.0625,
            "J": 79.8125,
            "K": 79.8125,
            "L": 80.0625,
            "A": 79.25,
            "B": 81.13333333333334,
            "C": 82.13333333333334,
            "D": 81.66666666666667,
            "E": 81.73333333333333,
            "F": 82.26666666666667,
            "G": 82.13333333333334
        }
    }
}