{
    "Average_holding_time": 71.5100154083205,
    "Average_travel_time_passengers": 5507.542411240894,
    "Average_speed_busses": 0.027041666666666665,
    "Average_experienced_crowding": 386.548196671074,
    "Average_covariation_headway": 1.640233559398052,
    "Average_covariation_headway_stops": {
        "H": 1.4304194351661035,
        "B": 1.5571395059893844,
        "D": 1.5781160779928107,
        "J": 1.4547582029865072,
        "F": 1.5939669676098027,
        "K": 1.4943469848255297,
        "I": 1.4323434667524924,
        "G": 1.5243711143154766,
        "E": 1.5763598972687718,
        "C": 1.5578448427689702,
        "L": 1.5098607530005779,
        "A": 1.5282950117270422
    },
    "Average_excess_waiting_time": {
        "H": 1215.3279719147267,
        "B": 1451.0628122478001,
        "D": 1502.5595936584784,
        "J": 1263.0987509116824,
        "F": 1546.3938506452264,
        "K": 1314.700877004078,
        "I": 1239.6303566497263,
        "G": 1602.2039038672108,
        "E": 1524.0008500500544,
        "C": 1477.3844445259206,
        "L": 1360.1064262630966,
        "A": 1410.797025395921
    },
    "Holding_per_stop": {
        "H": 76.15384615384616,
        "D": 66.42857142857143,
        "J": 71.88679245283019,
        "F": 69.47368421052632,
        "B": 69.81818181818181,
        "K": 77.22222222222223,
        "I": 73.26923076923077,
        "E": 73.92857142857143,
        "G": 74.70588235294117,
        "C": 69.81818181818181,
        "L": 70.55555555555556,
        "A": 65.55555555555556
    },
    "Actions_tfl_edges": {
        "AB": [
            11,
            32,
            12
        ],
        "CD": [
            11,
            36,
            9
        ],
        "EF": [
            10,
            35,
            12
        ],
        "GH": [
            13,
            32,
            7
        ],
        "IJ": [
            9,
            32,
            12
        ],
        "JK": [
            9,
            33,
            12
        ],
        "HI": [
            11,
            32,
            9
        ],
        "DE": [
            10,
            34,
            12
        ],
        "FG": [
            11,
            37,
            9
        ],
        "BC": [
            9,
            36,
            10
        ],
        "KL": [
            10,
            35,
            9
        ],
        "LA": [
            11,
            32,
            11
        ]
    },
    "Load_per_bus_per_stop": {
        "bus3": {
            "H": 5.111111111111111,
            "I": 6,
            "J": 6.444444444444445,
            "K": 8.11111111111111,
            "L": 8.777777777777779,
            "A": 9.333333333333334,
            "B": 9.222222222222221,
            "C": 9,
            "D": 8.666666666666666,
            "E": 8.333333333333334,
            "F": 6.888888888888889,
            "G": 5.875
        },
        "bus0": {
            "B": 194.2,
            "C": 196.2,
            "D": 197.8,
            "E": 197.3,
            "F": 196.7,
            "G": 217.44444444444446,
            "H": 220.11111111111111,
            "I": 218.88888888888889,
            "J": 217.33333333333334,
            "K": 216.44444444444446,
            "L": 218.66666666666666,
            "A": 219.77777777777777
        },
        "bus1": {
            "D": 49.3,
            "E": 49.4,
            "F": 49.2,
            "G": 55,
            "H": 55.111111111111114,
            "I": 57.44444444444444,
            "J": 57.55555555555556,
            "K": 58.44444444444444,
            "L": 58.77777777777778,
            "A": 57.888888888888886,
            "B": 57.111111111111114,
            "C": 56
        },
        "bus4": {
            "J": 34.111111111111114,
            "K": 36.333333333333336,
            "L": 36.44444444444444,
            "A": 36.666666666666664,
            "B": 37.111111111111114,
            "C": 37.55555555555556,
            "D": 36,
            "E": 34.888888888888886,
            "F": 36.22222222222222,
            "G": 34.625,
            "H": 35.5,
            "I": 36.875
        },
        "bus2": {
            "F": 12.4,
            "G": 15.11111111111111,
            "H": 15.777777777777779,
            "I": 15.333333333333334,
            "J": 15.333333333333334,
            "K": 15.666666666666666,
            "L": 16.11111111111111,
            "A": 15.444444444444445,
            "B": 14.333333333333334,
            "C": 14.666666666666666,
            "D": 14.666666666666666,
            "E": 14.222222222222221
        },
        "bus5": {
            "K": 388.3333333333333,
            "L": 398,
            "A": 409.8888888888889,
            "B": 419.77777777777777,
            "C": 433.55555555555554,
            "D": 443,
            "E": 450.22222222222223,
            "F": 463.6666666666667,
            "G": 474.1111111111111,
            "H": 411.875,
            "I": 414.125,
            "J": 424.25
        }
    }
}