{
    "Average_holding_time": 21.514598540145986,
    "Average_travel_time_passengers": 2782.090958239345,
    "Average_speed_busses": 0.04566666666666667,
    "Average_experienced_crowding": 82.2640608055428,
    "Average_covariation_headway": 0.25823245504872977,
    "Average_covariation_headway_stops": {
        "D": 0.29081587056324804,
        "I": 0.2058933406618521,
        "E": 0.28592742739154287,
        "H": 0.20493196723625554,
        "K": 0.19047970301616185,
        "G": 0.22111936821076306,
        "J": 0.19091872554917244,
        "F": 0.2506255342770489,
        "L": 0.1907783947135743,
        "A": 0.20117647904004435,
        "B": 0.21455247516188447,
        "C": 0.2630182864489559
    },
    "Average_excess_waiting_time": {
        "D": 79.89955160777782,
        "I": 61.015660812774684,
        "E": 77.57316847610622,
        "H": 62.436126431919035,
        "K": 58.47098876592884,
        "G": 66.32146821263433,
        "J": 60.70979554042924,
        "F": 72.82758499670433,
        "L": 60.92241201094248,
        "A": 63.311521155622756,
        "B": 67.35836810967254,
        "C": 77.31009670901369
    },
    "Holding_per_stop": {
        "I": 24.456521739130434,
        "H": 17.934782608695652,
        "E": 20.10989010989011,
        "K": 20.869565217391305,
        "G": 27.032967032967033,
        "D": 22.747252747252748,
        "J": 22.17391304347826,
        "F": 28.021978021978022,
        "L": 18.26086956521739,
        "A": 11.208791208791208,
        "B": 17.47252747252747,
        "C": 28
    },
    "Actions_tfl_edges": {
        "CD": [
            5,
            72,
            14
        ],
        "DE": [
            7,
            67,
            18
        ],
        "FG": [
            6,
            70,
            16
        ],
        "GH": [
            11,
            67,
            14
        ],
        "HI": [
            7,
            75,
            11
        ],
        "JK": [
            4,
            75,
            14
        ],
        "IJ": [
            3,
            78,
            11
        ],
        "EF": [
            3,
            71,
            17
        ],
        "KL": [
            3,
            70,
            19
        ],
        "LA": [
            1,
            68,
            23
        ],
        "AB": [
            5,
            67,
            19
        ],
        "BC": [
            5,
            70,
            16
        ]
    },
    "Load_per_bus_per_stop": {
        "bus0": {
            "D": 85.875,
            "E": 86.2,
            "F": 83.33333333333333,
            "G": 83.26666666666667,
            "H": 83.06666666666666,
            "I": 84,
            "J": 85.93333333333334,
            "K": 87.86666666666666,
            "L": 87.06666666666666,
            "A": 88,
            "B": 90.2,
            "C": 90.6
        },
        "bus4": {
            "I": 73.6875,
            "J": 75.6875,
            "K": 74.375,
            "L": 74.6875,
            "A": 74.26666666666667,
            "B": 75.33333333333333,
            "C": 75.46666666666667,
            "D": 75.86666666666666,
            "E": 75,
            "F": 75,
            "G": 76.4,
            "H": 78.53333333333333
        },
        "bus1": {
            "E": 76.75,
            "F": 79.125,
            "G": 78.4,
            "H": 78.26666666666667,
            "I": 77.86666666666666,
            "J": 77.4,
            "K": 79.06666666666666,
            "L": 78.33333333333333,
            "A": 79.4,
            "B": 79.2,
            "C": 81.2,
            "D": 81.86666666666666
        },
        "bus3": {
            "H": 71.75,
            "I": 72.5625,
            "J": 72.9375,
            "K": 72.46666666666667,
            "L": 74.06666666666666,
            "A": 75.2,
            "B": 77.33333333333333,
            "C": 79.33333333333333,
            "D": 77,
            "E": 78.53333333333333,
            "F": 78.13333333333334,
            "G": 77.06666666666666
        },
        "bus5": {
            "K": 78.6875,
            "L": 79.3125,
            "A": 79,
            "B": 80.125,
            "C": 82.66666666666667,
            "D": 83.53333333333333,
            "E": 82.86666666666666,
            "F": 84.86666666666666,
            "G": 83.46666666666667,
            "H": 82.66666666666667,
            "I": 83,
            "J": 82.8
        },
        "bus2": {
            "G": 80.4375,
            "H": 81.5625,
            "I": 82.4,
            "J": 83.26666666666667,
            "K": 83.26666666666667,
            "L": 84.13333333333334,
            "A": 86,
            "B": 87.8,
            "C": 87.4,
            "D": 86.33333333333333,
            "E": 85.53333333333333,
            "F": 85.33333333333333
        }
    }
}