{
    "Average_holding_time": 19.299191374663074,
    "Average_travel_time_passengers": 2729.4451567872657,
    "Average_speed_busses": 0.046375,
    "Average_experienced_crowding": 80.82159946334987,
    "Average_covariation_headway": 0.20203675985557223,
    "Average_covariation_headway_stops": {
        "I": 0.17190471610604569,
        "C": 0.16269369895224364,
        "K": 0.15571610031116714,
        "G": 0.16757263816798318,
        "A": 0.1462252533277869,
        "H": 0.16725542911391197,
        "J": 0.14313935004465106,
        "L": 0.14113671985501539,
        "D": 0.13277446915106134,
        "B": 0.13778681720258446,
        "E": 0.13043845596988812,
        "F": 0.14233387452128626
    },
    "Average_excess_waiting_time": {
        "I": 53.028445797228926,
        "C": 52.704071162486,
        "K": 51.38350391582276,
        "G": 55.83920853781251,
        "A": 51.11099841569103,
        "H": 54.17680889157157,
        "J": 51.76865431419185,
        "L": 52.20865615048194,
        "D": 51.72622097873443,
        "B": 52.271848682803466,
        "E": 52.23347824429476,
        "F": 55.237165929681396
    },
    "Holding_per_stop": {
        "I": 17.096774193548388,
        "C": 26.774193548387096,
        "K": 22.903225806451612,
        "A": 10.96774193548387,
        "H": 21.93548387096774,
        "G": 27.065217391304348,
        "J": 25.161290322580644,
        "L": 21.93548387096774,
        "D": 13.870967741935484,
        "B": 11.290322580645162,
        "E": 10.434782608695652,
        "F": 22.17391304347826
    },
    "Actions_tfl_edges": {
        "BC": [
            9,
            62,
            22
        ],
        "FG": [
            7,
            69,
            17
        ],
        "GH": [
            7,
            72,
            14
        ],
        "HI": [
            7,
            68,
            19
        ],
        "JK": [
            10,
            69,
            15
        ],
        "LA": [
            13,
            68,
            13
        ],
        "IJ": [
            13,
            66,
            14
        ],
        "CD": [
            10,
            61,
            22
        ],
        "KL": [
            13,
            66,
            14
        ],
        "AB": [
            18,
            48,
            27
        ],
        "DE": [
            11,
            62,
            20
        ],
        "EF": [
            10,
            62,
            20
        ]
    },
    "Load_per_bus_per_stop": {
        "bus3": {
            "I": 76.75,
            "J": 78.625,
            "K": 78.1875,
            "L": 77.75,
            "A": 78.625,
            "B": 82.375,
            "C": 82.26666666666667,
            "D": 82.33333333333333,
            "E": 82.53333333333333,
            "F": 80.6,
            "G": 79.13333333333334,
            "H": 80.33333333333333
        },
        "bus0": {
            "C": 78.8125,
            "D": 79.1875,
            "E": 81.8125,
            "F": 81.9375,
            "G": 83.6875,
            "H": 84.25,
            "I": 83.8,
            "J": 84.86666666666666,
            "K": 85.93333333333334,
            "L": 85.33333333333333,
            "A": 85,
            "B": 84.06666666666666
        },
        "bus4": {
            "K": 77.75,
            "L": 79.1875,
            "A": 81.75,
            "B": 81.75,
            "C": 82.5625,
            "D": 83.0625,
            "E": 82.6,
            "F": 80.8,
            "G": 79.66666666666667,
            "H": 80.46666666666667,
            "I": 81.4,
            "J": 82.4
        },
        "bus1": {
            "G": 77.5,
            "H": 77.25,
            "I": 78,
            "J": 78.25,
            "K": 77.33333333333333,
            "L": 78.93333333333334,
            "A": 78.93333333333334,
            "B": 79,
            "C": 80,
            "D": 79.13333333333334,
            "E": 81,
            "F": 82.93333333333334
        },
        "bus5": {
            "A": 77.25,
            "B": 77.5625,
            "C": 77.25,
            "D": 77.9375,
            "E": 78.4375,
            "F": 78.8125,
            "G": 81.4,
            "H": 80.26666666666667,
            "I": 80.53333333333333,
            "J": 79.86666666666666,
            "K": 79.93333333333334,
            "L": 82.6
        },
        "bus2": {
            "H": 73.9375,
            "I": 74.5,
            "J": 75.5625,
            "K": 76.0625,
            "L": 76.25,
            "A": 77.93333333333334,
            "B": 76.4,
            "C": 77,
            "D": 77.4,
            "E": 76.46666666666667,
            "F": 77.46666666666667,
            "G": 77.93333333333334
        }
    }
}