{
    "Average_holding_time": 16.239782016348773,
    "Average_travel_time_passengers": 2835.231403289413,
    "Average_speed_busses": 0.045875,
    "Average_experienced_crowding": 92.27400399156666,
    "Average_covariation_headway": 0.5016793556696183,
    "Average_covariation_headway_stops": {
        "L": 0.43458271400314596,
        "K": 0.41616748194467396,
        "B": 0.4083124696721441,
        "E": 0.4140297716259867,
        "J": 0.40193821459793316,
        "I": 0.41115665534711204,
        "A": 0.4031450256234696,
        "F": 0.3978237826417329,
        "C": 0.3859410918125724,
        "G": 0.3929546973583973,
        "D": 0.38496295600816344,
        "H": 0.38403843319145087
    },
    "Average_excess_waiting_time": {
        "L": 105.30970939025684,
        "K": 102.61919653269166,
        "B": 99.78251908053915,
        "E": 102.56512409810693,
        "J": 100.8176346231536,
        "I": 105.22878913014245,
        "A": 100.78209428278933,
        "F": 100.27779282191557,
        "C": 96.13821936327088,
        "G": 100.5815947330866,
        "D": 97.69329484275738,
        "H": 100.32631462455265
    },
    "Holding_per_stop": {
        "L": 30,
        "K": 15,
        "E": 16.956521739130434,
        "B": 15.978260869565217,
        "J": 11.08695652173913,
        "I": 20.10989010989011,
        "A": 10.434782608695652,
        "F": 14.021739130434783,
        "C": 16.630434782608695,
        "G": 20.76923076923077,
        "D": 11.538461538461538,
        "H": 12.197802197802197
    },
    "Actions_tfl_edges": {
        "AB": [
            0,
            92,
            1
        ],
        "DE": [
            0,
            90,
            2
        ],
        "HI": [
            0,
            91,
            1
        ],
        "IJ": [
            0,
            90,
            2
        ],
        "JK": [
            0,
            92,
            1
        ],
        "KL": [
            0,
            92,
            1
        ],
        "LA": [
            0,
            92,
            1
        ],
        "EF": [
            0,
            89,
            3
        ],
        "BC": [
            0,
            91,
            1
        ],
        "FG": [
            0,
            90,
            2
        ],
        "CD": [
            0,
            91,
            1
        ],
        "GH": [
            0,
            91,
            0
        ]
    },
    "Load_per_bus_per_stop": {
        "bus5": {
            "L": 79.3125,
            "A": 79.9375,
            "B": 80.375,
            "C": 79.5,
            "D": 79.8125,
            "E": 77.93333333333334,
            "F": 78.73333333333333,
            "G": 77.46666666666667,
            "H": 78.2,
            "I": 80.2,
            "J": 81.2,
            "K": 82.4
        },
        "bus4": {
            "K": 81.5,
            "L": 81.5625,
            "A": 81.5625,
            "B": 84.06666666666666,
            "C": 86.46666666666667,
            "D": 88.93333333333334,
            "E": 87.8,
            "F": 89.26666666666667,
            "G": 88.66666666666667,
            "H": 88.6,
            "I": 88.4,
            "J": 87.26666666666667
        },
        "bus0": {
            "B": 75,
            "C": 73.875,
            "D": 73.5625,
            "E": 73.125,
            "F": 73.4375,
            "G": 74.4,
            "H": 76.33333333333333,
            "I": 76.53333333333333,
            "J": 77.46666666666667,
            "K": 80.33333333333333,
            "L": 80.66666666666667,
            "A": 80.66666666666667
        },
        "bus1": {
            "E": 66.5625,
            "F": 65.75,
            "G": 67.4375,
            "H": 65.5625,
            "I": 64.46666666666667,
            "J": 67.8,
            "K": 68.8,
            "L": 70.26666666666667,
            "A": 70,
            "B": 71,
            "C": 70.46666666666667,
            "D": 70.86666666666666
        },
        "bus3": {
            "J": 103.5,
            "K": 102.75,
            "L": 104.6875,
            "A": 107.26666666666667,
            "B": 108.46666666666667,
            "C": 109.46666666666667,
            "D": 109.4,
            "E": 110,
            "F": 108.4,
            "G": 108.86666666666666,
            "H": 108.53333333333333,
            "I": 109.33333333333333
        },
        "bus2": {
            "I": 70.8125,
            "J": 70.875,
            "K": 71.33333333333333,
            "L": 70.93333333333334,
            "A": 69.2,
            "B": 69.73333333333333,
            "C": 69.26666666666667,
            "D": 70.33333333333333,
            "E": 72.2,
            "F": 72.4,
            "G": 73.4,
            "H": 73.53333333333333
        }
    }
}