{
    "Average_holding_time": 11.530249110320284,
    "Average_travel_time_passengers": 2700.3423832042445,
    "Average_speed_busses": 0.04683333333333333,
    "Average_experienced_crowding": 82.25535109872199,
    "Average_covariation_headway": 0.4420282051651291,
    "Average_covariation_headway_stops": {
        "I": 0.32376025250643475,
        "A": 0.3105815820574122,
        "B": 0.3185458243202388,
        "D": 0.31669563656268385,
        "H": 0.3272906535350337,
        "L": 0.3073982034818352,
        "J": 0.3186680859417016,
        "E": 0.3008704512319104,
        "C": 0.3054078762115645,
        "K": 0.31992821527857185,
        "F": 0.29432043860482354,
        "G": 0.3046521965923071
    },
    "Average_excess_waiting_time": {
        "I": 73.24796736045397,
        "A": 72.30823441066195,
        "B": 72.60364104376964,
        "D": 70.98662953095254,
        "H": 76.03999780182079,
        "L": 71.48930106143678,
        "J": 73.76224343220917,
        "E": 69.71676997953045,
        "C": 71.89059631127253,
        "K": 76.12896230805774,
        "F": 70.85700629255746,
        "G": 75.35229335938482
    },
    "Holding_per_stop": {
        "I": 11.48936170212766,
        "A": 5.74468085106383,
        "B": 7.0212765957446805,
        "D": 13.085106382978724,
        "H": 14.193548387096774,
        "L": 14.042553191489361,
        "J": 9.893617021276595,
        "E": 7.9787234042553195,
        "C": 15,
        "K": 17.741935483870968,
        "F": 11.612903225806452,
        "G": 10.64516129032258
    },
    "Actions_tfl_edges": {
        "AB": [
            0,
            94,
            1
        ],
        "CD": [
            0,
            94,
            1
        ],
        "GH": [
            0,
            93,
            1
        ],
        "HI": [
            0,
            92,
            2
        ],
        "KL": [
            0,
            94,
            0
        ],
        "LA": [
            0,
            95,
            0
        ],
        "IJ": [
            0,
            93,
            1
        ],
        "BC": [
            0,
            94,
            0
        ],
        "DE": [
            0,
            92,
            2
        ],
        "JK": [
            0,
            93,
            1
        ],
        "EF": [
            0,
            93,
            1
        ],
        "FG": [
            0,
            92,
            1
        ]
    },
    "Load_per_bus_per_stop": {
        "bus3": {
            "I": 79.8125,
            "J": 82.25,
            "K": 85.6875,
            "L": 85.0625,
            "A": 83.6875,
            "B": 83.875,
            "C": 84.1875,
            "D": 86.46666666666667,
            "E": 87.53333333333333,
            "F": 88.46666666666667,
            "G": 88.6,
            "H": 86.4
        },
        "bus5": {
            "A": 69.6875,
            "B": 69.0625,
            "C": 69.4375,
            "D": 71.4375,
            "E": 72.875,
            "F": 76.125,
            "G": 76.125,
            "H": 74.2,
            "I": 73.06666666666666,
            "J": 73.4,
            "K": 75.2,
            "L": 73.46666666666667
        },
        "bus0": {
            "B": 62.9375,
            "C": 64.6875,
            "D": 65.375,
            "E": 66.3125,
            "F": 67.625,
            "G": 66.75,
            "H": 66.9375,
            "I": 66.3125,
            "J": 65.3125,
            "K": 65.13333333333334,
            "L": 66.4,
            "A": 66.73333333333333
        },
        "bus1": {
            "D": 80.0625,
            "E": 80.4375,
            "F": 81.375,
            "G": 80.75,
            "H": 81.4375,
            "I": 81.625,
            "J": 82.6875,
            "K": 81.75,
            "L": 83.8125,
            "A": 84.6,
            "B": 84.73333333333333,
            "C": 83.86666666666666
        },
        "bus2": {
            "H": 80.3125,
            "I": 81.6875,
            "J": 82.1875,
            "K": 82.5,
            "L": 81.6875,
            "A": 80.875,
            "B": 83.86666666666666,
            "C": 82.26666666666667,
            "D": 83.6,
            "E": 83.26666666666667,
            "F": 82.8,
            "G": 82.13333333333334
        },
        "bus4": {
            "L": 76.0625,
            "A": 75.75,
            "B": 74.375,
            "C": 74.0625,
            "D": 73.5625,
            "E": 73.3125,
            "F": 72.4,
            "G": 75.4,
            "H": 78.53333333333333,
            "I": 79,
            "J": 79.6,
            "K": 80.73333333333333
        }
    }
}