{
    "Average_holding_time": 62.54980079681275,
    "Average_travel_time_passengers": 4691.1897726094785,
    "Average_speed_busses": 0.031375,
    "Average_experienced_crowding": 273.9648250643416,
    "Average_covariation_headway": 1.373348413763284,
    "Average_covariation_headway_stops": {
        "D": 1.2959163429453653,
        "B": 1.2769597727139201,
        "E": 1.3021103763049457,
        "J": 1.2601583889688825,
        "K": 1.256934545748961,
        "G": 1.2137386672942145,
        "F": 1.2540590798223132,
        "L": 1.2602293545025574,
        "H": 1.225388076164875,
        "C": 1.2926703397733443,
        "I": 1.2268242068933681,
        "A": 1.27932046183846
    },
    "Average_excess_waiting_time": {
        "D": 926.0183356209286,
        "B": 903.2700663736989,
        "E": 929.9092414554707,
        "J": 882.0245208935601,
        "K": 869.9435415241433,
        "G": 820.8090507248344,
        "F": 969.6569858039868,
        "L": 882.355535890161,
        "H": 843.2742153100899,
        "C": 930.3736409162764,
        "I": 854.0611112987281,
        "A": 910.2087994481205
    },
    "Holding_per_stop": {
        "E": 65.9090909090909,
        "K": 63.80952380952381,
        "G": 57.049180327868854,
        "D": 69.23076923076923,
        "B": 60,
        "J": 67.25806451612904,
        "F": 63.5,
        "L": 52.38095238095238,
        "H": 68.85245901639344,
        "C": 60,
        "I": 65.90163934426229,
        "A": 56.666666666666664
    },
    "Actions_tfl_edges": {
        "AB": [
            13,
            34,
            17
        ],
        "CD": [
            12,
            32,
            21
        ],
        "DE": [
            15,
            33,
            18
        ],
        "FG": [
            14,
            32,
            15
        ],
        "IJ": [
            9,
            36,
            17
        ],
        "JK": [
            10,
            39,
            14
        ],
        "EF": [
            12,
            35,
            19
        ],
        "KL": [
            12,
            37,
            14
        ],
        "GH": [
            12,
            35,
            14
        ],
        "BC": [
            14,
            29,
            21
        ],
        "LA": [
            9,
            39,
            15
        ],
        "HI": [
            14,
            32,
            15
        ]
    },
    "Load_per_bus_per_stop": {
        "bus1": {
            "D": 32,
            "E": 33.18181818181818,
            "F": 32.1,
            "G": 32.8,
            "H": 35.5,
            "I": 37.1,
            "J": 36.9,
            "K": 37.6,
            "L": 37,
            "A": 36.4,
            "B": 35,
            "C": 33.2
        },
        "bus0": {
            "B": 19.454545454545453,
            "C": 19.363636363636363,
            "D": 20.636363636363637,
            "E": 20.818181818181817,
            "F": 22.5,
            "G": 23.1,
            "H": 23.6,
            "I": 23.5,
            "J": 22.9,
            "K": 22.2,
            "L": 20.7,
            "A": 20.7
        },
        "bus2": {
            "E": 305.1818181818182,
            "F": 313.72727272727275,
            "G": 280.5,
            "H": 295.6,
            "I": 300.1,
            "J": 298.8,
            "K": 308.5,
            "L": 316.5,
            "A": 321.2,
            "B": 321.4,
            "C": 323.8,
            "D": 324.4
        },
        "bus4": {
            "J": 48.90909090909091,
            "K": 50.45454545454545,
            "L": 51.54545454545455,
            "A": 50.45454545454545,
            "B": 52.63636363636363,
            "C": 53.90909090909091,
            "D": 53.54545454545455,
            "E": 53.27272727272727,
            "F": 57.8,
            "G": 57,
            "H": 56.4,
            "I": 56.1
        },
        "bus5": {
            "K": 30.727272727272727,
            "L": 30.636363636363637,
            "A": 33.54545454545455,
            "B": 34.90909090909091,
            "C": 34.45454545454545,
            "D": 36.90909090909091,
            "E": 37.63636363636363,
            "F": 38.7,
            "G": 36.2,
            "H": 34.8,
            "I": 33.7,
            "J": 34.3
        },
        "bus3": {
            "G": 212.8181818181818,
            "H": 215.0909090909091,
            "I": 213.8181818181818,
            "J": 213.1818181818182,
            "K": 217.27272727272728,
            "L": 219,
            "A": 221.27272727272728,
            "B": 220.63636363636363,
            "C": 220.36363636363637,
            "D": 217.27272727272728,
            "E": 216.72727272727272,
            "F": 230.2
        }
    }
}