{
    "Average_holding_time": 27.358665430954588,
    "Average_travel_time_passengers": 2860.81457383455,
    "Average_speed_busses": 0.044958333333333336,
    "Average_experienced_crowding": 85.86122686649978,
    "Average_covariation_headway": 0.25569118099556926,
    "Average_covariation_headway_stops": {
        "H": 0.2025961461440146,
        "G": 0.20473574825202295,
        "J": 0.17961074195862503,
        "C": 0.2117864415078218,
        "L": 0.1959002874778738,
        "B": 0.18465001107681916,
        "I": 0.18233264364518434,
        "D": 0.20561133064716394,
        "A": 0.169315563437983,
        "K": 0.18767973793511644,
        "E": 0.18661550644058666,
        "F": 0.20017374642224423
    },
    "Average_excess_waiting_time": {
        "H": 67.75090904533414,
        "G": 69.8795980138288,
        "J": 64.84582684664775,
        "C": 66.9438856397739,
        "L": 67.92204844363107,
        "B": 65.52894700200926,
        "I": 67.2454474806766,
        "D": 68.34114815507081,
        "A": 66.6628788658897,
        "K": 68.19546668498344,
        "E": 68.08776634692742,
        "F": 71.65084734864462
    },
    "Holding_per_stop": {
        "H": 23.666666666666668,
        "J": 25.333333333333332,
        "C": 35.27472527472528,
        "L": 29.333333333333332,
        "B": 22.333333333333332,
        "G": 29.333333333333332,
        "I": 27.333333333333332,
        "D": 26.666666666666668,
        "A": 17.191011235955056,
        "K": 31.333333333333332,
        "E": 28.666666666666668,
        "F": 31.685393258426966
    },
    "Actions_tfl_edges": {
        "AB": [
            30,
            46,
            14
        ],
        "BC": [
            38,
            36,
            17
        ],
        "FG": [
            25,
            52,
            13
        ],
        "GH": [
            30,
            48,
            13
        ],
        "IJ": [
            27,
            54,
            10
        ],
        "KL": [
            27,
            53,
            11
        ],
        "HI": [
            29,
            49,
            12
        ],
        "JK": [
            34,
            43,
            13
        ],
        "CD": [
            30,
            47,
            14
        ],
        "LA": [
            17,
            56,
            17
        ],
        "DE": [
            24,
            55,
            11
        ],
        "EF": [
            30,
            51,
            9
        ]
    },
    "Load_per_bus_per_stop": {
        "bus3": {
            "H": 83.66666666666667,
            "I": 84.73333333333333,
            "J": 86.4,
            "K": 87.53333333333333,
            "L": 88,
            "A": 89.66666666666667,
            "B": 91.4,
            "C": 90.26666666666667,
            "D": 90.26666666666667,
            "E": 91.06666666666666,
            "F": 89.66666666666667,
            "G": 89.26666666666667
        },
        "bus2": {
            "G": 76.33333333333333,
            "H": 77.2,
            "I": 79.53333333333333,
            "J": 79.13333333333334,
            "K": 78.46666666666667,
            "L": 79.4,
            "A": 81.6,
            "B": 82.26666666666667,
            "C": 83,
            "D": 82.33333333333333,
            "E": 83.26666666666667,
            "F": 82.14285714285714
        },
        "bus4": {
            "J": 80.8,
            "K": 82.26666666666667,
            "L": 83.06666666666666,
            "A": 83.13333333333334,
            "B": 83.66666666666667,
            "C": 84.2,
            "D": 84.06666666666666,
            "E": 84.33333333333333,
            "F": 84.33333333333333,
            "G": 83.8,
            "H": 86.73333333333333,
            "I": 86.46666666666667
        },
        "bus1": {
            "C": 80.5,
            "D": 81.53333333333333,
            "E": 83,
            "F": 84.33333333333333,
            "G": 85,
            "H": 83.8,
            "I": 86.33333333333333,
            "J": 87.26666666666667,
            "K": 88.53333333333333,
            "L": 86.53333333333333,
            "A": 84.06666666666666,
            "B": 86.06666666666666
        },
        "bus5": {
            "L": 84.46666666666667,
            "A": 86.46666666666667,
            "B": 86.73333333333333,
            "C": 85.66666666666667,
            "D": 88.06666666666666,
            "E": 87.2,
            "F": 87.06666666666666,
            "G": 87,
            "H": 87.53333333333333,
            "I": 86.46666666666667,
            "J": 85.53333333333333,
            "K": 88.13333333333334
        },
        "bus0": {
            "B": 77.4,
            "C": 78.86666666666666,
            "D": 79.4,
            "E": 79.33333333333333,
            "F": 81.06666666666666,
            "G": 80.13333333333334,
            "H": 80.53333333333333,
            "I": 79.86666666666666,
            "J": 81.46666666666667,
            "K": 81.4,
            "L": 81.53333333333333,
            "A": 82.8
        }
    }
}