{
    "Average_holding_time": 18.913624220837043,
    "Average_travel_time_passengers": 2732.813343139029,
    "Average_speed_busses": 0.04679166666666667,
    "Average_experienced_crowding": 86.55192423253051,
    "Average_covariation_headway": 0.449791439287981,
    "Average_covariation_headway_stops": {
        "A": 0.3371247165807091,
        "L": 0.3440546583534276,
        "H": 0.3247999258351424,
        "G": 0.34718722890886744,
        "I": 0.3391748259925716,
        "F": 0.3371249350274989,
        "B": 0.33485933272670015,
        "J": 0.34288492012727023,
        "C": 0.33637661914891187,
        "K": 0.3297172933911335,
        "D": 0.33650775576563213,
        "E": 0.3546951733440824
    },
    "Average_excess_waiting_time": {
        "A": 74.10513019521909,
        "L": 79.10764094071584,
        "H": 75.39901242782571,
        "G": 81.86121758559256,
        "I": 77.05690262892995,
        "F": 82.13025516708291,
        "B": 75.34725343489282,
        "J": 79.47866077978415,
        "C": 77.81208127326266,
        "K": 76.95799836535713,
        "D": 80.02354697507997,
        "E": 85.40103088210776
    },
    "Holding_per_stop": {
        "A": 15.957446808510639,
        "H": 12.127659574468085,
        "G": 16.774193548387096,
        "I": 19.78723404255319,
        "L": 21.70212765957447,
        "F": 20,
        "B": 20.425531914893618,
        "J": 20.425531914893618,
        "C": 16.595744680851062,
        "K": 25.161290322580644,
        "D": 18.06451612903226,
        "E": 20
    },
    "Actions_tfl_edges": {
        "EF": [
            32,
            29,
            33
        ],
        "FG": [
            26,
            40,
            28
        ],
        "GH": [
            28,
            29,
            37
        ],
        "HI": [
            25,
            32,
            38
        ],
        "KL": [
            27,
            35,
            32
        ],
        "LA": [
            31,
            36,
            28
        ],
        "AB": [
            33,
            39,
            22
        ],
        "IJ": [
            29,
            27,
            38
        ],
        "BC": [
            27,
            41,
            26
        ],
        "JK": [
            25,
            34,
            35
        ],
        "CD": [
            34,
            26,
            34
        ],
        "DE": [
            31,
            32,
            30
        ]
    },
    "Load_per_bus_per_stop": {
        "bus5": {
            "A": 85.75,
            "B": 86.0625,
            "C": 86.75,
            "D": 84.75,
            "E": 86.125,
            "F": 89.8125,
            "G": 90.625,
            "H": 91.75,
            "I": 91.26666666666667,
            "J": 89.86666666666666,
            "K": 90.13333333333334,
            "L": 88.86666666666666
        },
        "bus4": {
            "L": 61.375,
            "A": 61.4375,
            "B": 61.8125,
            "C": 60.4375,
            "D": 63.75,
            "E": 62.9375,
            "F": 64.0625,
            "G": 63.4,
            "H": 63.733333333333334,
            "I": 63.06666666666667,
            "J": 63.46666666666667,
            "K": 64.46666666666667
        },
        "bus2": {
            "H": 77.375,
            "I": 79.9375,
            "J": 81.125,
            "K": 81.75,
            "L": 83.9375,
            "A": 84,
            "B": 81.9375,
            "C": 80.8125,
            "D": 80,
            "E": 78.46666666666667,
            "F": 79.8,
            "G": 81.2
        },
        "bus1": {
            "G": 63,
            "H": 63.4375,
            "I": 64.25,
            "J": 63.9375,
            "K": 64.4375,
            "L": 65.5625,
            "A": 66.13333333333334,
            "B": 65.53333333333333,
            "C": 64.93333333333334,
            "D": 65.66666666666667,
            "E": 66.26666666666667,
            "F": 66.73333333333333
        },
        "bus3": {
            "I": 73.5,
            "J": 73.6875,
            "K": 73.5625,
            "L": 74.8125,
            "A": 76.3125,
            "B": 77,
            "C": 79.75,
            "D": 81.0625,
            "E": 80.5625,
            "F": 80.26666666666667,
            "G": 79.93333333333334,
            "H": 79.26666666666667
        },
        "bus0": {
            "F": 91.0625,
            "G": 93.3125,
            "H": 93.8125,
            "I": 96.9375,
            "J": 96.0625,
            "K": 96.93333333333334,
            "L": 99,
            "A": 100.33333333333333,
            "B": 99.73333333333333,
            "C": 99.46666666666667,
            "D": 99.53333333333333,
            "E": 100.26666666666667
        }
    }
}