{
    "Average_holding_time": 25.399274047186932,
    "Average_travel_time_passengers": 2751.6170004095734,
    "Average_speed_busses": 0.04591666666666667,
    "Average_experienced_crowding": 81.48037876584425,
    "Average_covariation_headway": 0.2531487702631174,
    "Average_covariation_headway_stops": {
        "D": 0.19655323050492932,
        "B": 0.19456965509194651,
        "C": 0.20712613389290474,
        "H": 0.1741108193432977,
        "L": 0.2011894895950674,
        "G": 0.1735727825978478,
        "E": 0.1813997332555645,
        "I": 0.16394154861657018,
        "F": 0.1767460909665704,
        "A": 0.17480889720991163,
        "J": 0.1664706856405826,
        "K": 0.1775571760414023
    },
    "Average_excess_waiting_time": {
        "D": 58.065540214175144,
        "B": 61.514193980607615,
        "C": 61.653946625708556,
        "H": 55.647827779635406,
        "L": 62.34654291241941,
        "G": 57.34418345812725,
        "E": 58.11270486419136,
        "I": 56.65277562746445,
        "F": 59.6398732941268,
        "A": 61.18447720458363,
        "J": 58.83880651266077,
        "K": 62.72818023670118
    },
    "Holding_per_stop": {
        "D": 25.161290322580644,
        "C": 34.23913043478261,
        "H": 24.193548387096776,
        "B": 25.434782608695652,
        "L": 32.30769230769231,
        "G": 28.369565217391305,
        "E": 24.130434782608695,
        "I": 27.065217391304348,
        "F": 24.782608695652176,
        "A": 16.483516483516482,
        "J": 20.76923076923077,
        "K": 21.75824175824176
    },
    "Actions_tfl_edges": {
        "AB": [
            27,
            46,
            19
        ],
        "BC": [
            45,
            29,
            19
        ],
        "CD": [
            35,
            38,
            20
        ],
        "FG": [
            28,
            45,
            20
        ],
        "GH": [
            27,
            49,
            17
        ],
        "KL": [
            32,
            44,
            16
        ],
        "DE": [
            29,
            46,
            18
        ],
        "HI": [
            33,
            44,
            16
        ],
        "LA": [
            21,
            47,
            23
        ],
        "EF": [
            31,
            50,
            11
        ],
        "IJ": [
            31,
            47,
            14
        ],
        "JK": [
            29,
            44,
            18
        ]
    },
    "Load_per_bus_per_stop": {
        "bus2": {
            "D": 71.8125,
            "E": 70.75,
            "F": 71.9375,
            "G": 71.5625,
            "H": 72.125,
            "I": 75.4,
            "J": 77.13333333333334,
            "K": 77.53333333333333,
            "L": 78.66666666666667,
            "A": 78.26666666666667,
            "B": 76.4,
            "C": 74.86666666666666
        },
        "bus0": {
            "B": 81.875,
            "C": 81.5,
            "D": 81.3125,
            "E": 81.33333333333333,
            "F": 82.26666666666667,
            "G": 84.73333333333333,
            "H": 85.06666666666666,
            "I": 87.53333333333333,
            "J": 87.2,
            "K": 87.46666666666667,
            "L": 89.6,
            "A": 87.26666666666667
        },
        "bus1": {
            "C": 72.75,
            "D": 73.875,
            "E": 73.875,
            "F": 74.5625,
            "G": 76.06666666666666,
            "H": 77.53333333333333,
            "I": 78,
            "J": 78.73333333333333,
            "K": 79.06666666666666,
            "L": 80.93333333333334,
            "A": 79.06666666666666,
            "B": 78.46666666666667
        },
        "bus4": {
            "H": 84.6875,
            "I": 85.625,
            "J": 85.375,
            "K": 86.75,
            "L": 86.06666666666666,
            "A": 85.4,
            "B": 86.46666666666667,
            "C": 87.13333333333334,
            "D": 87.13333333333334,
            "E": 87,
            "F": 88.2,
            "G": 89.73333333333333
        },
        "bus5": {
            "L": 80.625,
            "A": 82.1875,
            "B": 81.875,
            "C": 79.46666666666667,
            "D": 80.26666666666667,
            "E": 81.06666666666666,
            "F": 80.86666666666666,
            "G": 80,
            "H": 81.33333333333333,
            "I": 81.73333333333333,
            "J": 82.73333333333333,
            "K": 83.73333333333333
        },
        "bus3": {
            "G": 74.125,
            "H": 74.125,
            "I": 75.125,
            "J": 75.5,
            "K": 78.93333333333334,
            "L": 80.66666666666667,
            "A": 77.8,
            "B": 79.4,
            "C": 80.53333333333333,
            "D": 81.4,
            "E": 79.8,
            "F": 79.6
        }
    }
}