{
    "Average_holding_time": 18.524590163934427,
    "Average_travel_time_passengers": 2760.857891023377,
    "Average_speed_busses": 0.04575,
    "Average_experienced_crowding": 82.931018891808,
    "Average_covariation_headway": 0.2994365671720447,
    "Average_covariation_headway_stops": {
        "J": 0.2164076700605194,
        "F": 0.2116229763432364,
        "G": 0.21609967290724996,
        "A": 0.20586430956744434,
        "B": 0.22887096166262794,
        "C": 0.23766033436611927,
        "K": 0.22296441452507973,
        "D": 0.2091280850041996,
        "H": 0.20086675733301326,
        "E": 0.21369451968528694,
        "I": 0.20635254766330577,
        "L": 0.20618993052024212
    },
    "Average_excess_waiting_time": {
        "J": 63.50610255637008,
        "F": 63.654569689834716,
        "G": 61.91378738526413,
        "A": 65.51776349242425,
        "B": 66.68685111374884,
        "C": 65.57610999282184,
        "K": 66.69722721343862,
        "D": 63.05983246808944,
        "H": 61.71527312686311,
        "E": 65.71224329339748,
        "I": 64.2653893076872,
        "L": 65.85881042223508
    },
    "Holding_per_stop": {
        "J": 19.565217391304348,
        "G": 14.673913043478262,
        "B": 12.857142857142858,
        "C": 23.804347826086957,
        "F": 18.58695652173913,
        "A": 12.527472527472527,
        "D": 15.978260869565217,
        "H": 18.58695652173913,
        "K": 24.065934065934066,
        "E": 18.46153846153846,
        "I": 18.46153846153846,
        "L": 24.725274725274726
    },
    "Actions_tfl_edges": {
        "AB": [
            0,
            92,
            0
        ],
        "BC": [
            0,
            92,
            0
        ],
        "EF": [
            0,
            92,
            0
        ],
        "FG": [
            0,
            93,
            0
        ],
        "IJ": [
            0,
            92,
            0
        ],
        "LA": [
            0,
            92,
            0
        ],
        "JK": [
            0,
            92,
            0
        ],
        "GH": [
            0,
            92,
            0
        ],
        "CD": [
            0,
            92,
            0
        ],
        "DE": [
            0,
            92,
            0
        ],
        "HI": [
            0,
            92,
            0
        ],
        "KL": [
            0,
            91,
            0
        ]
    },
    "Load_per_bus_per_stop": {
        "bus4": {
            "J": 73.625,
            "K": 74.5625,
            "L": 75.9375,
            "A": 75,
            "B": 75.33333333333333,
            "C": 75.73333333333333,
            "D": 74.26666666666667,
            "E": 75.4,
            "F": 76.53333333333333,
            "G": 77.86666666666666,
            "H": 78.26666666666667,
            "I": 77.66666666666667
        },
        "bus2": {
            "F": 87.0625,
            "G": 85.5625,
            "H": 84.875,
            "I": 86.73333333333333,
            "J": 86.33333333333333,
            "K": 87.86666666666666,
            "L": 89.33333333333333,
            "A": 90.66666666666667,
            "B": 90.73333333333333,
            "C": 92,
            "D": 91.6,
            "E": 93.33333333333333
        },
        "bus3": {
            "G": 80.3125,
            "H": 80.875,
            "I": 81.3125,
            "J": 81.375,
            "K": 83.2,
            "L": 84.2,
            "A": 84.66666666666667,
            "B": 85.13333333333334,
            "C": 83.86666666666666,
            "D": 84.4,
            "E": 84.06666666666666,
            "F": 85.33333333333333
        },
        "bus5": {
            "A": 67.625,
            "B": 69.4375,
            "C": 69.6,
            "D": 71.26666666666667,
            "E": 73.4,
            "F": 73.4,
            "G": 72.2,
            "H": 70.33333333333333,
            "I": 71.33333333333333,
            "J": 71.6,
            "K": 73.46666666666667,
            "L": 72.46666666666667
        },
        "bus0": {
            "B": 81,
            "C": 80,
            "D": 81.25,
            "E": 81.4,
            "F": 83.13333333333334,
            "G": 83.93333333333334,
            "H": 84.93333333333334,
            "I": 84.8,
            "J": 85.73333333333333,
            "K": 86.33333333333333,
            "L": 85.33333333333333,
            "A": 85.6
        },
        "bus1": {
            "C": 77.4375,
            "D": 79.0625,
            "E": 79.9375,
            "F": 79.25,
            "G": 79.66666666666667,
            "H": 82.8,
            "I": 82.73333333333333,
            "J": 82.06666666666666,
            "K": 82.53333333333333,
            "L": 82.2,
            "A": 82.8,
            "B": 83.06666666666666
        }
    }
}   }
}