{
    "Average_holding_time": 17.30257320319432,
    "Average_travel_time_passengers": 2715.4853084337515,
    "Average_speed_busses": 0.04695833333333333,
    "Average_experienced_crowding": 83.45291739386867,
    "Average_covariation_headway": 0.3829584841523764,
    "Average_covariation_headway_stops": {
        "D": 0.3135871343289214,
        "A": 0.2923531345230199,
        "I": 0.29263248456568025,
        "H": 0.2814780736243906,
        "K": 0.2920271915837959,
        "F": 0.27681145127416645,
        "B": 0.29072590829194683,
        "L": 0.2862463992070924,
        "E": 0.29544548202856535,
        "J": 0.2935892191604324,
        "G": 0.2718319753375563,
        "C": 0.3042439861452607
    },
    "Average_excess_waiting_time": {
        "D": 73.40424866139841,
        "A": 65.88706363312224,
        "I": 65.69942968591033,
        "H": 65.1371714872389,
        "K": 66.2953637856138,
        "F": 64.31868757158117,
        "B": 69.62330704100395,
        "L": 66.79596005210328,
        "E": 69.10172447592231,
        "J": 67.501484434534,
        "G": 65.41820734416046,
        "C": 73.3767591899828
    },
    "Holding_per_stop": {
        "I": 17.68421052631579,
        "A": 8.842105263157896,
        "K": 20.425531914893618,
        "D": 22.340425531914892,
        "F": 14.042553191489361,
        "H": 15.957446808510639,
        "B": 12.903225806451612,
        "L": 20.425531914893618,
        "J": 18.51063829787234,
        "E": 17.419354838709676,
        "G": 18.51063829787234,
        "C": 20.64516129032258
    },
    "Actions_tfl_edges": {
        "CD": [
            30,
            26,
            38
        ],
        "EF": [
            31,
            27,
            36
        ],
        "GH": [
            37,
            27,
            31
        ],
        "HI": [
            39,
            19,
            37
        ],
        "JK": [
            26,
            36,
            33
        ],
        "LA": [
            29,
            38,
            28
        ],
        "IJ": [
            37,
            21,
            37
        ],
        "AB": [
            29,
            31,
            34
        ],
        "KL": [
            28,
            37,
            29
        ],
        "DE": [
            35,
            26,
            33
        ],
        "FG": [
            39,
            23,
            32
        ],
        "BC": [
            29,
            24,
            40
        ]
    },
    "Load_per_bus_per_stop": {
        "bus0": {
            "D": 83.4375,
            "E": 83.4375,
            "F": 84.375,
            "G": 87,
            "H": 88.375,
            "I": 89.5625,
            "J": 86.9375,
            "K": 88.0625,
            "L": 89.13333333333334,
            "A": 89.8,
            "B": 88.73333333333333,
            "C": 89.13333333333334
        },
        "bus5": {
            "A": 78.8125,
            "B": 79.3125,
            "C": 79.6875,
            "D": 80.25,
            "E": 82.8125,
            "F": 84.0625,
            "G": 86.1875,
            "H": 86.625,
            "I": 85.8125,
            "J": 85.8,
            "K": 83.93333333333334,
            "L": 85
        },
        "bus3": {
            "I": 64.6875,
            "J": 66.1875,
            "K": 68.625,
            "L": 69.5,
            "A": 69,
            "B": 69.8125,
            "C": 69.5625,
            "D": 70.375,
            "E": 66.86666666666666,
            "F": 69.2,
            "G": 70.53333333333333,
            "H": 70
        },
        "bus2": {
            "H": 76.75,
            "I": 77.5,
            "J": 78,
            "K": 77.8125,
            "L": 78.0625,
            "A": 79.3125,
            "B": 80.25,
            "C": 77.13333333333334,
            "D": 78.66666666666667,
            "E": 77.73333333333333,
            "F": 78.46666666666667,
            "G": 79.93333333333334
        },
        "bus4": {
            "K": 76.75,
            "L": 75.8125,
            "A": 76.0625,
            "B": 77.9375,
            "C": 78.0625,
            "D": 80.4375,
            "E": 80.75,
            "F": 80.0625,
            "G": 81.0625,
            "H": 81.53333333333333,
            "I": 81.2,
            "J": 81.66666666666667
        },
        "bus1": {
            "F": 73.5,
            "G": 74.9375,
            "H": 75.375,
            "I": 75.6875,
            "J": 75.625,
            "K": 75.4375,
            "L": 73.5625,
            "A": 74.3125,
            "B": 78.4,
            "C": 79.13333333333334,
            "D": 81.26666666666667,
            "E": 81.53333333333333
        }
    }
}