{
    "Average_holding_time": 21.80821917808219,
    "Average_travel_time_passengers": 2770.3252041150135,
    "Average_speed_busses": 0.045625,
    "Average_experienced_crowding": 83.35630171287215,
    "Average_covariation_headway": 0.2538804494583169,
    "Average_covariation_headway_stops": {
        "L": 0.23180328663601102,
        "C": 0.20794719061156278,
        "J": 0.25276221954454975,
        "I": 0.25893164412085107,
        "D": 0.20227072394651574,
        "A": 0.2139019688412614,
        "K": 0.23655358433097096,
        "B": 0.1825485717722791,
        "E": 0.18857053397440754,
        "F": 0.18031510812046161,
        "G": 0.20896933473343815,
        "H": 0.24563076855068164
    },
    "Average_excess_waiting_time": {
        "L": 67.20814971130329,
        "C": 62.50457198846988,
        "J": 71.23945716629754,
        "I": 73.67234812914711,
        "D": 59.966993197305555,
        "A": 63.69664647009358,
        "K": 69.93492226448666,
        "B": 60.78108039251026,
        "E": 60.510584825426804,
        "F": 60.20453616968058,
        "G": 66.61159157813398,
        "H": 73.24905680097339
    },
    "Holding_per_stop": {
        "J": 28.35164835164835,
        "D": 21.847826086956523,
        "A": 8.478260869565217,
        "L": 27.36263736263736,
        "C": 30,
        "I": 26.373626373626372,
        "K": 25.054945054945055,
        "B": 12.197802197802197,
        "E": 20.543478260869566,
        "F": 18.791208791208792,
        "G": 19.45054945054945,
        "H": 23.333333333333332
    },
    "Actions_tfl_edges": {
        "BC": [
            7,
            68,
            17
        ],
        "CD": [
            4,
            71,
            18
        ],
        "HI": [
            10,
            67,
            14
        ],
        "IJ": [
            11,
            62,
            19
        ],
        "KL": [
            5,
            61,
            26
        ],
        "LA": [
            7,
            54,
            31
        ],
        "JK": [
            9,
            63,
            19
        ],
        "DE": [
            5,
            70,
            17
        ],
        "AB": [
            3,
            56,
            33
        ],
        "EF": [
            10,
            66,
            16
        ],
        "FG": [
            6,
            61,
            24
        ],
        "GH": [
            5,
            65,
            21
        ]
    },
    "Load_per_bus_per_stop": {
        "bus4": {
            "L": 77.75,
            "A": 78.75,
            "B": 78.53333333333333,
            "C": 80.06666666666666,
            "D": 79.8,
            "E": 82.33333333333333,
            "F": 84.46666666666667,
            "G": 86.06666666666666,
            "H": 86.6,
            "I": 86.66666666666667,
            "J": 84.06666666666666,
            "K": 83.33333333333333
        },
        "bus0": {
            "C": 74.25,
            "D": 75.875,
            "E": 75.8125,
            "F": 74.2,
            "G": 72.2,
            "H": 71.93333333333334,
            "I": 72.53333333333333,
            "J": 72.13333333333334,
            "K": 75.33333333333333,
            "L": 75.13333333333334,
            "A": 75.73333333333333,
            "B": 78.86666666666666
        },
        "bus3": {
            "J": 77.9375,
            "K": 79.25,
            "L": 80.4375,
            "A": 81.66666666666667,
            "B": 82.46666666666667,
            "C": 82.46666666666667,
            "D": 83.66666666666667,
            "E": 83.13333333333334,
            "F": 80,
            "G": 78.73333333333333,
            "H": 81.6,
            "I": 82.53333333333333
        },
        "bus2": {
            "I": 80,
            "J": 81.4,
            "K": 79.86666666666666,
            "L": 77.33333333333333,
            "A": 79.53333333333333,
            "B": 81.33333333333333,
            "C": 83.6,
            "D": 84.2,
            "E": 83.93333333333334,
            "F": 82.8,
            "G": 85.06666666666666,
            "H": 84.13333333333334
        },
        "bus1": {
            "D": 84.125,
            "E": 85.4375,
            "F": 85.5,
            "G": 87.8125,
            "H": 89.6,
            "I": 88.4,
            "J": 86.66666666666667,
            "K": 87.26666666666667,
            "L": 88.13333333333334,
            "A": 87.53333333333333,
            "B": 87.86666666666666,
            "C": 88.4
        },
        "bus5": {
            "A": 79.3125,
            "B": 79.375,
            "C": 78.75,
            "D": 79.2,
            "E": 78.66666666666667,
            "F": 80,
            "G": 79.8,
            "H": 80.86666666666666,
            "I": 84.33333333333333,
            "J": 81.73333333333333,
            "K": 82.66666666666667,
            "L": 83.8
        }
    }
}