{
    "Average_holding_time": 24.065040650406505,
    "Average_travel_time_passengers": 2781.8182329733704,
    "Average_speed_busses": 0.046125,
    "Average_experienced_crowding": 85.00181819722705,
    "Average_covariation_headway": 0.35736556758949395,
    "Average_covariation_headway_stops": {
        "J": 0.3074301977060729,
        "E": 0.2590695150564232,
        "L": 0.2567637518439522,
        "B": 0.2732789566274166,
        "A": 0.2550211245218602,
        "G": 0.24285963445184305,
        "C": 0.2662753838772198,
        "K": 0.28444135590264163,
        "F": 0.23612714972910678,
        "H": 0.26018546177007834,
        "D": 0.27070534525066997,
        "I": 0.28159875541721363
    },
    "Average_excess_waiting_time": {
        "J": 77.96483089966404,
        "E": 66.86198143778506,
        "L": 70.10750234963314,
        "B": 67.40767165030923,
        "A": 66.34666243742492,
        "G": 63.90107216788624,
        "C": 68.36641135058636,
        "K": 75.39801074776187,
        "F": 64.96736465785409,
        "H": 68.69863713322513,
        "D": 70.30366461182672,
        "I": 74.94602524732528
    },
    "Holding_per_stop": {
        "B": 25.806451612903224,
        "A": 16.304347826086957,
        "G": 32.903225806451616,
        "J": 25.434782608695652,
        "E": 20,
        "L": 24.782608695652176,
        "C": 27.096774193548388,
        "H": 19.565217391304348,
        "K": 30.98901098901099,
        "F": 24.130434782608695,
        "D": 20.869565217391305,
        "I": 20.869565217391305
    },
    "Actions_tfl_edges": {
        "AB": [
            12,
            36,
            45
        ],
        "DE": [
            14,
            39,
            40
        ],
        "FG": [
            23,
            28,
            42
        ],
        "IJ": [
            17,
            38,
            38
        ],
        "KL": [
            17,
            30,
            45
        ],
        "LA": [
            16,
            37,
            40
        ],
        "BC": [
            23,
            29,
            41
        ],
        "GH": [
            23,
            32,
            38
        ],
        "JK": [
            14,
            31,
            47
        ],
        "EF": [
            21,
            31,
            41
        ],
        "CD": [
            21,
            32,
            40
        ],
        "HI": [
            16,
            40,
            36
        ]
    },
    "Load_per_bus_per_stop": {
        "bus3": {
            "J": 77.1875,
            "K": 77.5625,
            "L": 79.875,
            "A": 77.26666666666667,
            "B": 77.4,
            "C": 80.66666666666667,
            "D": 80.26666666666667,
            "E": 80.26666666666667,
            "F": 81.86666666666666,
            "G": 82.2,
            "H": 79.66666666666667,
            "I": 80.13333333333334
        },
        "bus1": {
            "E": 79.9375,
            "F": 81.5,
            "G": 81.625,
            "H": 81.25,
            "I": 84.875,
            "J": 87.13333333333334,
            "K": 85.93333333333334,
            "L": 82.73333333333333,
            "A": 84.06666666666666,
            "B": 83.73333333333333,
            "C": 85.66666666666667,
            "D": 85
        },
        "bus4": {
            "L": 82.125,
            "A": 82.375,
            "B": 83.1875,
            "C": 84.3125,
            "D": 83.66666666666667,
            "E": 85.2,
            "F": 86.46666666666667,
            "G": 86.46666666666667,
            "H": 85.66666666666667,
            "I": 85.53333333333333,
            "J": 83.46666666666667,
            "K": 86.8
        },
        "bus0": {
            "B": 79.25,
            "C": 79.8125,
            "D": 79.5625,
            "E": 81.5,
            "F": 82.5625,
            "G": 81.5,
            "H": 80.06666666666666,
            "I": 80,
            "J": 79.13333333333334,
            "K": 78.4,
            "L": 81.73333333333333,
            "A": 83.66666666666667
        },
        "bus5": {
            "A": 73.3125,
            "B": 72.4375,
            "C": 73.875,
            "D": 75.25,
            "E": 75.3125,
            "F": 73.66666666666667,
            "G": 74,
            "H": 74.06666666666666,
            "I": 74.4,
            "J": 76.73333333333333,
            "K": 76.2,
            "L": 77.66666666666667
        },
        "bus2": {
            "G": 78.5,
            "H": 78.3125,
            "I": 78.0625,
            "J": 77.5625,
            "K": 78.875,
            "L": 81.26666666666667,
            "A": 80.86666666666666,
            "B": 80.33333333333333,
            "C": 80.66666666666667,
            "D": 83.06666666666666,
            "E": 83.66666666666667,
            "F": 83.86666666666666
        }
    }
}