{
    "Average_holding_time": 10.532751091703057,
    "Average_travel_time_passengers": 2689.9028609468364,
    "Average_speed_busses": 0.04770833333333333,
    "Average_experienced_crowding": 83.40146049635287,
    "Average_covariation_headway": 0.4115612989909196,
    "Average_covariation_headway_stops": {
        "C": 0.3132721034204222,
        "K": 0.3368567818105674,
        "I": 0.34808462708198684,
        "J": 0.35006808356941527,
        "L": 0.34012992305961237,
        "B": 0.3111360579639522,
        "D": 0.29624660126088953,
        "A": 0.3184848227742224,
        "E": 0.28347806622075095,
        "F": 0.2961310724902894,
        "G": 0.31349857692213645,
        "H": 0.35388975606167994
    },
    "Average_excess_waiting_time": {
        "C": 62.60731358316343,
        "K": 71.36494144315469,
        "I": 77.99296771360196,
        "J": 76.17272056636125,
        "L": 69.95131936992021,
        "B": 64.11861692712239,
        "D": 61.28973723327141,
        "A": 67.05738992123526,
        "E": 60.598102962154314,
        "F": 65.14819979293947,
        "G": 70.09378126190364,
        "H": 80.78147054330225
    },
    "Holding_per_stop": {
        "C": 10.515463917525773,
        "K": 9.157894736842104,
        "J": 11.052631578947368,
        "L": 10.625,
        "B": 6.5625,
        "I": 9.893617021276595,
        "D": 13.4375,
        "A": 9.375,
        "E": 9.0625,
        "F": 10.105263157894736,
        "G": 12,
        "H": 14.680851063829786
    },
    "Actions_tfl_edges": {
        "AB": [
            0,
            64,
            33
        ],
        "BC": [
            0,
            62,
            35
        ],
        "HI": [
            0,
            57,
            38
        ],
        "IJ": [
            0,
            56,
            39
        ],
        "JK": [
            0,
            65,
            31
        ],
        "KL": [
            0,
            66,
            30
        ],
        "CD": [
            0,
            62,
            35
        ],
        "LA": [
            0,
            65,
            31
        ],
        "DE": [
            0,
            66,
            30
        ],
        "EF": [
            0,
            61,
            35
        ],
        "FG": [
            0,
            60,
            35
        ],
        "GH": [
            0,
            63,
            32
        ]
    },
    "Load_per_bus_per_stop": {
        "bus1": {
            "C": 87.05882352941177,
            "D": 86.1875,
            "E": 86.5,
            "F": 86.875,
            "G": 88.8125,
            "H": 89.125,
            "I": 89.6875,
            "J": 88.75,
            "K": 90.1875,
            "L": 91.625,
            "A": 91.1875,
            "B": 91.375
        },
        "bus4": {
            "K": 67.4375,
            "L": 65.3125,
            "A": 66.75,
            "B": 67.125,
            "C": 67.75,
            "D": 68.8125,
            "E": 70,
            "F": 69.5625,
            "G": 68.5,
            "H": 69.1875,
            "I": 69.73333333333333,
            "J": 69.2
        },
        "bus2": {
            "I": 85.4375,
            "J": 85.9375,
            "K": 85.625,
            "L": 86.5625,
            "A": 88.9375,
            "B": 89.25,
            "C": 88.5625,
            "D": 88.3125,
            "E": 88.75,
            "F": 90.13333333333334,
            "G": 89,
            "H": 90.26666666666667
        },
        "bus3": {
            "J": 72.1875,
            "K": 72.375,
            "L": 70.625,
            "A": 72.5625,
            "B": 71.8125,
            "C": 74.625,
            "D": 76.25,
            "E": 75.5625,
            "F": 74.875,
            "G": 75.625,
            "H": 76.6,
            "I": 77.2
        },
        "bus5": {
            "L": 73.5625,
            "A": 74.375,
            "B": 73.5625,
            "C": 73.625,
            "D": 72.6875,
            "E": 73.1875,
            "F": 74.0625,
            "G": 74.1875,
            "H": 75.6875,
            "I": 77.375,
            "J": 78.5,
            "K": 78.5
        },
        "bus0": {
            "B": 69.875,
            "C": 69.5625,
            "D": 70,
            "E": 70.875,
            "F": 72,
            "G": 71.8125,
            "H": 72.25,
            "I": 71.4375,
            "J": 73.5,
            "K": 73.875,
            "L": 75.25,
            "A": 73.375
        }
    }
}       }
    }
}