{
    "Average_holding_time": 10.374564459930314,
    "Average_travel_time_passengers": 2673.353108937437,
    "Average_speed_busses": 0.04783333333333333,
    "Average_experienced_crowding": 80.56180916837813,
    "Average_covariation_headway": 0.37880557312026397,
    "Average_covariation_headway_stops": {
        "E": 0.2847738744475685,
        "K": 0.2633419680206777,
        "D": 0.2955521048505165,
        "L": 0.28831104839763294,
        "A": 0.2911624062102501,
        "G": 0.26536957766502656,
        "B": 0.28616855070014635,
        "H": 0.25399879618184384,
        "F": 0.2597419646902842,
        "C": 0.3052656990944981,
        "I": 0.23778052629459542,
        "J": 0.2629768860633535
    },
    "Average_excess_waiting_time": {
        "E": 58.41468632255231,
        "K": 58.959885419304726,
        "D": 61.76044250798674,
        "L": 61.1351993771616,
        "A": 60.36696491907253,
        "G": 55.6230386855143,
        "B": 61.15105070354565,
        "H": 55.277256680236746,
        "F": 56.02357468988464,
        "C": 65.22054724294037,
        "I": 55.1188069813345,
        "J": 60.55867935568841
    },
    "Holding_per_stop": {
        "E": 15.625,
        "L": 8.4375,
        "G": 5.625,
        "A": 6.875,
        "K": 9.473684210526315,
        "D": 15.625,
        "B": 5.625,
        "F": 10,
        "H": 10.3125,
        "C": 18,
        "I": 9.473684210526315,
        "J": 9.473684210526315
    },
    "Actions_tfl_edges": {
        "CD": [
            0,
            67,
            29
        ],
        "DE": [
            0,
            60,
            37
        ],
        "FG": [
            0,
            55,
            42
        ],
        "JK": [
            0,
            66,
            30
        ],
        "KL": [
            0,
            67,
            29
        ],
        "LA": [
            0,
            67,
            30
        ],
        "EF": [
            0,
            62,
            34
        ],
        "GH": [
            0,
            60,
            36
        ],
        "AB": [
            0,
            61,
            35
        ],
        "BC": [
            0,
            64,
            32
        ],
        "HI": [
            0,
            59,
            37
        ],
        "IJ": [
            0,
            55,
            40
        ]
    },
    "Load_per_bus_per_stop": {
        "bus1": {
            "E": 62.8125,
            "F": 65.875,
            "G": 64.8125,
            "H": 66.0625,
            "I": 70.0625,
            "J": 70.9375,
            "K": 71.875,
            "L": 69.9375,
            "A": 69.625,
            "B": 70.8125,
            "C": 69.25,
            "D": 68.1875
        },
        "bus3": {
            "K": 61.25,
            "L": 62.25,
            "A": 62.875,
            "B": 63.375,
            "C": 62.375,
            "D": 63.5625,
            "E": 65.125,
            "F": 64.4375,
            "G": 64.5,
            "H": 64.0625,
            "I": 64.26666666666667,
            "J": 64.86666666666666
        },
        "bus0": {
            "D": 80.6875,
            "E": 82.375,
            "F": 82.6875,
            "G": 83.9375,
            "H": 84.9375,
            "I": 85.125,
            "J": 85.125,
            "K": 83.375,
            "L": 82.3125,
            "A": 82.9375,
            "B": 82.3125,
            "C": 83.66666666666667
        },
        "bus4": {
            "L": 86.25,
            "A": 87.4375,
            "B": 86.6875,
            "C": 87.4375,
            "D": 87.125,
            "E": 87.25,
            "F": 86.4375,
            "G": 87.5625,
            "H": 88.9375,
            "I": 89.75,
            "J": 89.75,
            "K": 90.13333333333334
        },
        "bus5": {
            "A": 81.6875,
            "B": 81,
            "C": 82.1875,
            "D": 83.8125,
            "E": 85.625,
            "F": 87.0625,
            "G": 87.8125,
            "H": 85.8125,
            "I": 86.25,
            "J": 86.75,
            "K": 87.5625,
            "L": 87.1875
        },
        "bus2": {
            "G": 68.6875,
            "H": 68.4375,
            "I": 70.5625,
            "J": 70.5,
            "K": 71.6875,
            "L": 70.875,
            "A": 72.8125,
            "B": 70.3125,
            "C": 70.4375,
            "D": 72.5625,
            "E": 72.5625,
            "F": 73.875
        }
    }
}       "B": 85.8
        }
    }
}