{
    "Average_holding_time": 27.566820276497698,
    "Average_travel_time_passengers": 2821.7146228527504,
    "Average_speed_busses": 0.045208333333333336,
    "Average_experienced_crowding": 84.14966121012671,
    "Average_covariation_headway": 0.301438711296231,
    "Average_covariation_headway_stops": {
        "K": 0.22427891763959262,
        "B": 0.24517834910551006,
        "G": 0.26791582100890954,
        "A": 0.22993031473001552,
        "H": 0.2451308706281896,
        "L": 0.23154494013419574,
        "C": 0.22215489839204472,
        "I": 0.22662078132143587,
        "D": 0.22669846099106483,
        "J": 0.2265931866963016,
        "E": 0.21757988518665033,
        "F": 0.2507995920121805
    },
    "Average_excess_waiting_time": {
        "K": 70.38711376624633,
        "B": 68.33978953023262,
        "G": 77.7472030712434,
        "A": 68.1122518564539,
        "H": 71.86782575790335,
        "L": 69.38905176322896,
        "C": 67.8834672164636,
        "I": 70.66728226856299,
        "D": 70.65149261940792,
        "J": 72.39437001914916,
        "E": 70.99185732604155,
        "F": 77.87404400882917
    },
    "Holding_per_stop": {
        "B": 26.41304347826087,
        "A": 13.186813186813186,
        "H": 28.681318681318682,
        "K": 32,
        "L": 30.65934065934066,
        "G": 31.333333333333332,
        "C": 27.032967032967033,
        "I": 25,
        "D": 29.333333333333332,
        "J": 34,
        "E": 19.666666666666668,
        "F": 33.70786516853933
    },
    "Actions_tfl_edges": {
        "AB": [
            27,
            41,
            24
        ],
        "FG": [
            31,
            39,
            20
        ],
        "GH": [
            28,
            44,
            19
        ],
        "JK": [
            36,
            33,
            22
        ],
        "KL": [
            28,
            41,
            22
        ],
        "LA": [
            29,
            46,
            17
        ],
        "BC": [
            32,
            36,
            24
        ],
        "HI": [
            28,
            41,
            22
        ],
        "CD": [
            35,
            39,
            17
        ],
        "IJ": [
            32,
            39,
            19
        ],
        "DE": [
            23,
            49,
            18
        ],
        "EF": [
            29,
            44,
            17
        ]
    },
    "Load_per_bus_per_stop": {
        "bus3": {
            "K": 78.2,
            "L": 78.6,
            "A": 80.53333333333333,
            "B": 81.06666666666666,
            "C": 83.06666666666666,
            "D": 84.8,
            "E": 84.26666666666667,
            "F": 83.66666666666667,
            "G": 82.6,
            "H": 81.86666666666666,
            "I": 81.26666666666667,
            "J": 81.33333333333333
        },
        "bus0": {
            "B": 85.125,
            "C": 85.625,
            "D": 85.33333333333333,
            "E": 87.06666666666666,
            "F": 87.8,
            "G": 89.6,
            "H": 90.6,
            "I": 93.06666666666666,
            "J": 95,
            "K": 94.2,
            "L": 92.33333333333333,
            "A": 93
        },
        "bus1": {
            "G": 82.26666666666667,
            "H": 82.26666666666667,
            "I": 80.86666666666666,
            "J": 81.4,
            "K": 82.6,
            "L": 82.53333333333333,
            "A": 82.66666666666667,
            "B": 85.2,
            "C": 86.73333333333333,
            "D": 87.2,
            "E": 87.06666666666666,
            "F": 87.46666666666667
        },
        "bus5": {
            "A": 70.25,
            "B": 73,
            "C": 73.46666666666667,
            "D": 73.2,
            "E": 72.6,
            "F": 72.66666666666667,
            "G": 74.2,
            "H": 75.26666666666667,
            "I": 76,
            "J": 76.26666666666667,
            "K": 76.46666666666667,
            "L": 76.2
        },
        "bus2": {
            "H": 76.25,
            "I": 76.26666666666667,
            "J": 76.86666666666666,
            "K": 76.2,
            "L": 74.8,
            "A": 77.66666666666667,
            "B": 77.4,
            "C": 78.13333333333334,
            "D": 78.73333333333333,
            "E": 79.86666666666666,
            "F": 81.46666666666667,
            "G": 81.93333333333334
        },
        "bus4": {
            "L": 78.8125,
            "A": 81.4,
            "B": 81.6,
            "C": 80.6,
            "D": 79.93333333333334,
            "E": 81.86666666666666,
            "F": 81.6,
            "G": 80.66666666666667,
            "H": 81.33333333333333,
            "I": 81.46666666666667,
            "J": 83.73333333333333,
            "K": 83.06666666666666
        }
    }
}       "H": 94.93333333333334
        }
    }
}