{
    "Average_holding_time": 16.75153643546971,
    "Average_travel_time_passengers": 2723.9506997978287,
    "Average_speed_busses": 0.04745833333333333,
    "Average_experienced_crowding": 87.3716795876352,
    "Average_covariation_headway": 0.4417902697754636,
    "Average_covariation_headway_stops": {
        "C": 0.3551969497223691,
        "J": 0.3218193246366418,
        "F": 0.35509421725750345,
        "K": 0.33747320103757433,
        "D": 0.3612752109842958,
        "B": 0.33283948640826405,
        "G": 0.34113221285984385,
        "L": 0.33050428524639575,
        "E": 0.3496622959610231,
        "A": 0.32023157517656226,
        "H": 0.3175953419313741,
        "I": 0.33221673915519506
    },
    "Average_excess_waiting_time": {
        "C": 76.99894653250419,
        "J": 70.70809965824122,
        "F": 74.16778208253817,
        "K": 73.11790212566586,
        "D": 76.24006849882642,
        "B": 73.73800206631961,
        "G": 72.72717814083956,
        "L": 73.16143303147942,
        "E": 75.17544358754589,
        "A": 73.76779559698417,
        "H": 69.53470763201324,
        "I": 74.52055866376804
    },
    "Holding_per_stop": {
        "C": 15.789473684210526,
        "F": 20,
        "K": 17.68421052631579,
        "D": 16.875,
        "J": 17.05263157894737,
        "B": 14.042553191489361,
        "G": 17.05263157894737,
        "L": 19.57894736842105,
        "E": 19.57894736842105,
        "A": 13.404255319148936,
        "H": 14.526315789473685,
        "I": 15.319148936170214
    },
    "Actions_tfl_edges": {
        "AB": [
            31,
            44,
            20
        ],
        "BC": [
            23,
            41,
            31
        ],
        "CD": [
            29,
            33,
            34
        ],
        "EF": [
            41,
            25,
            30
        ],
        "IJ": [
            28,
            37,
            30
        ],
        "JK": [
            26,
            43,
            27
        ],
        "FG": [
            30,
            32,
            34
        ],
        "KL": [
            28,
            38,
            29
        ],
        "DE": [
            34,
            32,
            30
        ],
        "GH": [
            35,
            22,
            38
        ],
        "LA": [
            27,
            41,
            27
        ],
        "HI": [
            32,
            30,
            33
        ]
    },
    "Load_per_bus_per_stop": {
        "bus1": {
            "C": 68.625,
            "D": 68.625,
            "E": 67.6875,
            "F": 70.0625,
            "G": 71.6875,
            "H": 71.375,
            "I": 72.6875,
            "J": 72.8125,
            "K": 71.75,
            "L": 72.125,
            "A": 73.2,
            "B": 73.6
        },
        "bus4": {
            "J": 97.0625,
            "K": 97.25,
            "L": 95.375,
            "A": 96.3125,
            "B": 97.8125,
            "C": 98.0625,
            "D": 99.75,
            "E": 100.25,
            "F": 101.5625,
            "G": 103.33333333333333,
            "H": 103.73333333333333,
            "I": 103
        },
        "bus3": {
            "F": 85.5,
            "G": 85.6875,
            "H": 84.5625,
            "I": 84.3125,
            "J": 86.6875,
            "K": 87.625,
            "L": 86.625,
            "A": 88.4375,
            "B": 88.6875,
            "C": 89.0625,
            "D": 88.8125,
            "E": 90.06666666666666
        },
        "bus5": {
            "K": 84.875,
            "L": 87.375,
            "A": 88.8125,
            "B": 87.375,
            "C": 88.75,
            "D": 88.5,
            "E": 87.4375,
            "F": 88.25,
            "G": 89.5,
            "H": 90.25,
            "I": 90.46666666666667,
            "J": 91.26666666666667
        },
        "bus2": {
            "D": 60.375,
            "E": 60.25,
            "F": 61.4375,
            "G": 61.75,
            "H": 61.75,
            "I": 61.75,
            "J": 63.25,
            "K": 63,
            "L": 64.5,
            "A": 62.6875,
            "B": 61.333333333333336,
            "C": 63.6
        },
        "bus0": {
            "B": 71.375,
            "C": 72.5,
            "D": 71.5,
            "E": 69.4375,
            "F": 68.375,
            "G": 67.625,
            "H": 68.75,
            "I": 70.625,
            "J": 72.1875,
            "K": 74.66666666666667,
            "L": 74.4,
            "A": 74.6
        }
    }
}