{
    "Average_holding_time": 18.330324909747294,
    "Average_travel_time_passengers": 2742.8084487034616,
    "Average_speed_busses": 0.04616666666666667,
    "Average_experienced_crowding": 81.63830387791597,
    "Average_covariation_headway": 0.2280530591684492,
    "Average_covariation_headway_stops": {
        "J": 0.16993397371470248,
        "K": 0.17347254347658636,
        "E": 0.17575607311962738,
        "G": 0.1583414122342188,
        "B": 0.17273125005003373,
        "A": 0.16990338918701486,
        "L": 0.14239060123158626,
        "H": 0.16080949198924113,
        "C": 0.16245689855713463,
        "F": 0.16303476223089783,
        "I": 0.16905363228035974,
        "D": 0.15165755419614602
    },
    "Average_excess_waiting_time": {
        "J": 57.87310407642758,
        "K": 55.174928831253226,
        "E": 54.86864757144917,
        "G": 53.55426386328628,
        "B": 53.02149606218535,
        "A": 54.66113778365116,
        "L": 53.739795500140474,
        "H": 56.82450378454229,
        "C": 53.46948966743605,
        "F": 56.149581909313895,
        "I": 59.733558002114535,
        "D": 54.47970791946818
    },
    "Holding_per_stop": {
        "K": 18.58695652173913,
        "G": 18.70967741935484,
        "B": 19.032258064516128,
        "J": 17.608695652173914,
        "A": 10.64516129032258,
        "E": 18.70967741935484,
        "L": 18.26086956521739,
        "H": 18.91304347826087,
        "C": 21.93548387096774,
        "F": 22.82608695652174,
        "I": 17.47252747252747,
        "D": 17.282608695652176
    },
    "Actions_tfl_edges": {
        "AB": [
            8,
            62,
            24
        ],
        "DE": [
            8,
            67,
            18
        ],
        "FG": [
            7,
            64,
            22
        ],
        "IJ": [
            9,
            69,
            14
        ],
        "JK": [
            10,
            69,
            14
        ],
        "LA": [
            7,
            60,
            26
        ],
        "KL": [
            8,
            65,
            19
        ],
        "GH": [
            11,
            64,
            18
        ],
        "BC": [
            4,
            70,
            19
        ],
        "EF": [
            9,
            65,
            19
        ],
        "HI": [
            6,
            67,
            19
        ],
        "CD": [
            13,
            65,
            15
        ]
    },
    "Load_per_bus_per_stop": {
        "bus3": {
            "J": 77.6875,
            "K": 78.125,
            "L": 79.875,
            "A": 79.5625,
            "B": 77.73333333333333,
            "C": 79.13333333333334,
            "D": 80,
            "E": 78.73333333333333,
            "F": 78.6,
            "G": 80.2,
            "H": 81.13333333333334,
            "I": 80.86666666666666
        },
        "bus4": {
            "K": 76.125,
            "L": 78.1875,
            "A": 79.25,
            "B": 79.375,
            "C": 78.875,
            "D": 77.66666666666667,
            "E": 77.8,
            "F": 76.53333333333333,
            "G": 78.33333333333333,
            "H": 79.53333333333333,
            "I": 77.73333333333333,
            "J": 79.2
        },
        "bus1": {
            "E": 75.8125,
            "F": 76.1875,
            "G": 77.8125,
            "H": 78.75,
            "I": 81.93333333333334,
            "J": 82.93333333333334,
            "K": 83.93333333333334,
            "L": 83.13333333333334,
            "A": 82.26666666666667,
            "B": 81.86666666666666,
            "C": 82.2,
            "D": 79.8
        },
        "bus2": {
            "G": 80.1875,
            "H": 78.3125,
            "I": 79.5,
            "J": 81.375,
            "K": 80.53333333333333,
            "L": 81.8,
            "A": 82,
            "B": 82.2,
            "C": 83.8,
            "D": 84.13333333333334,
            "E": 82.8,
            "F": 82.53333333333333
        },
        "bus0": {
            "B": 82.3125,
            "C": 82.4375,
            "D": 83.5625,
            "E": 84.25,
            "F": 85.0625,
            "G": 85.125,
            "H": 88.66666666666667,
            "I": 88.46666666666667,
            "J": 89.13333333333334,
            "K": 87.26666666666667,
            "L": 86.26666666666667,
            "A": 86.2
        },
        "bus5": {
            "A": 77.3125,
            "B": 77.6875,
            "C": 77,
            "D": 77.1875,
            "E": 79.125,
            "F": 81.06666666666666,
            "G": 83.53333333333333,
            "H": 82.86666666666666,
            "I": 82.8,
            "J": 83.06666666666666,
            "K": 82.46666666666667,
            "L": 83.93333333333334
        }
    }
}