{
    "Average_holding_time": 26.81564245810056,
    "Average_travel_time_passengers": 2830.0375002041987,
    "Average_speed_busses": 0.04475,
    "Average_experienced_crowding": 84.1938960441173,
    "Average_covariation_headway": 0.26412551015986047,
    "Average_covariation_headway_stops": {
        "D": 0.22297480840782147,
        "I": 0.20553927166866745,
        "H": 0.21064679060183383,
        "A": 0.20348470603557745,
        "C": 0.20753151092362385,
        "K": 0.1965378593417051,
        "J": 0.19903455283303292,
        "B": 0.1961087133583678,
        "L": 0.18396117228059883,
        "E": 0.21583914207747884,
        "F": 0.1951722400639904,
        "G": 0.19173370382319982
    },
    "Average_excess_waiting_time": {
        "D": 70.94852919029239,
        "I": 70.53031344537834,
        "H": 73.2189140564218,
        "A": 69.90623066450854,
        "C": 70.7771500194462,
        "K": 68.94954009114309,
        "J": 70.69846534949272,
        "B": 71.42515808006726,
        "L": 69.25968474401287,
        "E": 71.71986383387798,
        "F": 70.02529434178268,
        "G": 71.5558972234623
    },
    "Holding_per_stop": {
        "D": 23.666666666666668,
        "I": 26.333333333333332,
        "A": 20.666666666666668,
        "C": 24,
        "K": 37.333333333333336,
        "H": 24.269662921348313,
        "J": 31.685393258426966,
        "L": 24.9438202247191,
        "E": 26,
        "B": 26.292134831460675,
        "F": 28.314606741573034,
        "G": 28.314606741573034
    },
    "Actions_tfl_edges": {
        "BC": [
            5,
            66,
            19
        ],
        "CD": [
            5,
            72,
            14
        ],
        "GH": [
            5,
            66,
            19
        ],
        "HI": [
            4,
            70,
            16
        ],
        "JK": [
            2,
            68,
            20
        ],
        "LA": [
            7,
            61,
            22
        ],
        "DE": [
            5,
            71,
            14
        ],
        "IJ": [
            4,
            61,
            25
        ],
        "AB": [
            3,
            73,
            14
        ],
        "KL": [
            4,
            70,
            16
        ],
        "EF": [
            5,
            74,
            11
        ],
        "FG": [
            5,
            67,
            17
        ]
    },
    "Load_per_bus_per_stop": {
        "bus1": {
            "D": 75.53333333333333,
            "E": 77.13333333333334,
            "F": 77.66666666666667,
            "G": 79.33333333333333,
            "H": 81.33333333333333,
            "I": 81.86666666666666,
            "J": 81.73333333333333,
            "K": 81.66666666666667,
            "L": 81.4,
            "A": 81,
            "B": 79.4,
            "C": 80.06666666666666
        },
        "bus3": {
            "I": 89.4,
            "J": 90.93333333333334,
            "K": 92.33333333333333,
            "L": 92.4,
            "A": 94.4,
            "B": 95.66666666666667,
            "C": 94.6,
            "D": 93.26666666666667,
            "E": 91.6,
            "F": 91.13333333333334,
            "G": 90.8,
            "H": 93.78571428571429
        },
        "bus2": {
            "H": 73.6,
            "I": 74.46666666666667,
            "J": 74.73333333333333,
            "K": 73.66666666666667,
            "L": 74,
            "A": 74.33333333333333,
            "B": 75.93333333333334,
            "C": 76.4,
            "D": 76.46666666666667,
            "E": 77,
            "F": 77.42857142857143,
            "G": 78.35714285714286
        },
        "bus5": {
            "A": 80.33333333333333,
            "B": 81.86666666666666,
            "C": 83.86666666666666,
            "D": 83.73333333333333,
            "E": 84.13333333333334,
            "F": 82.73333333333333,
            "G": 83.8,
            "H": 84.66666666666667,
            "I": 82.4,
            "J": 83.13333333333334,
            "K": 82.86666666666666,
            "L": 83.5
        },
        "bus0": {
            "C": 79.26666666666667,
            "D": 79.4,
            "E": 80.6,
            "F": 80.93333333333334,
            "G": 82.33333333333333,
            "H": 82.6,
            "I": 83.26666666666667,
            "J": 84,
            "K": 83.26666666666667,
            "L": 82.8,
            "A": 83.53333333333333,
            "B": 83.07142857142857
        },
        "bus4": {
            "K": 75.4,
            "L": 76.73333333333333,
            "A": 78,
            "B": 78.73333333333333,
            "C": 78.2,
            "D": 78.53333333333333,
            "E": 80.6,
            "F": 80.2,
            "G": 81.46666666666667,
            "H": 80.13333333333334,
            "I": 80.8,
            "J": 81.42857142857143
        }
    }
}333334,
            "F": 77.73333333333333,
            "G": 76.78571428571429
        }
    }
}