{
    "Average_holding_time": 77.97450424929178,
    "Average_travel_time_passengers": 4903.566712412116,
    "Average_speed_busses": 0.029416666666666667,
    "Average_experienced_crowding": 298.5889984096756,
    "Average_covariation_headway": 1.4767276603225121,
    "Average_covariation_headway_stops": {
        "A": 1.253578127439928,
        "E": 1.254024585540369,
        "L": 1.308050016294502,
        "F": 1.2833152132286303,
        "C": 1.236976665465324,
        "J": 1.34021360717424,
        "B": 1.22807766893213,
        "D": 1.2318898657972266,
        "G": 1.2798505732168886,
        "K": 1.3491364052738188,
        "H": 1.2967411994440299,
        "I": 1.294830738539222
    },
    "Average_excess_waiting_time": {
        "A": 924.335538883319,
        "E": 936.776188620242,
        "L": 1134.3122253834854,
        "F": 960.2899703539731,
        "C": 911.1275016300156,
        "J": 1069.5007291919305,
        "B": 905.8139472118892,
        "D": 915.7738972495245,
        "G": 974.7496181254753,
        "K": 1096.2502466950866,
        "H": 1004.5193024920836,
        "I": 1018.513230322641
    },
    "Holding_per_stop": {
        "A": 76.84210526315789,
        "C": 75.51724137931035,
        "E": 85.42372881355932,
        "F": 78,
        "L": 78.75,
        "J": 80.65573770491804,
        "B": 82.10526315789474,
        "D": 73.96551724137932,
        "G": 79.5,
        "K": 77.5,
        "H": 75.5,
        "I": 72
    },
    "Actions_tfl_edges": {
        "BC": [
            20,
            29,
            9
        ],
        "DE": [
            18,
            30,
            11
        ],
        "EF": [
            18,
            31,
            11
        ],
        "IJ": [
            16,
            37,
            8
        ],
        "KL": [
            17,
            33,
            10
        ],
        "LA": [
            16,
            32,
            9
        ],
        "AB": [
            22,
            26,
            9
        ],
        "CD": [
            16,
            30,
            12
        ],
        "FG": [
            20,
            33,
            7
        ],
        "JK": [
            16,
            35,
            10
        ],
        "GH": [
            20,
            36,
            4
        ],
        "HI": [
            17,
            35,
            8
        ]
    },
    "Load_per_bus_per_stop": {
        "bus5": {
            "A": 14,
            "B": 14.8,
            "C": 16.1,
            "D": 16.7,
            "E": 17.7,
            "F": 17.3,
            "G": 17.5,
            "H": 17,
            "I": 17.7,
            "J": 16.5,
            "K": 16.8,
            "L": 15.444444444444445
        },
        "bus1": {
            "E": 29.3,
            "F": 30.2,
            "G": 31.1,
            "H": 32.5,
            "I": 32.6,
            "J": 30.8,
            "K": 31.3,
            "L": 30.333333333333332,
            "A": 29.77777777777778,
            "B": 30.444444444444443,
            "C": 32.44444444444444,
            "D": 32.77777777777778
        },
        "bus4": {
            "L": 75.8,
            "A": 76,
            "B": 73.3,
            "C": 72.3,
            "D": 73.8,
            "E": 73.4,
            "F": 73.9,
            "G": 78.2,
            "H": 78,
            "I": 78.8,
            "J": 79.1,
            "K": 76.5
        },
        "bus2": {
            "F": 345.7,
            "G": 345.4,
            "H": 346.5,
            "I": 357.7,
            "J": 367.6,
            "K": 370.5,
            "L": 382.4,
            "A": 351.8888888888889,
            "B": 359.77777777777777,
            "C": 368.22222222222223,
            "D": 374.44444444444446,
            "E": 381.77777777777777
        },
        "bus0": {
            "C": 4.6,
            "D": 4.8,
            "E": 6.1,
            "F": 6.2,
            "G": 6.3,
            "H": 7.2,
            "I": 8.1,
            "J": 7.8,
            "K": 7.5,
            "L": 6.666666666666667,
            "A": 6,
            "B": 5.333333333333333
        },
        "bus3": {
            "J": 215.8181818181818,
            "K": 214.9090909090909,
            "L": 230.2,
            "A": 228.7,
            "B": 227.9,
            "C": 228.8,
            "D": 233.6,
            "E": 229.3,
            "F": 231.5,
            "G": 234.9,
            "H": 233.9,
            "I": 236
        }
    }
}