{
    "Average_holding_time": 19.88245931283906,
    "Average_travel_time_passengers": 2773.901074918945,
    "Average_speed_busses": 0.04608333333333333,
    "Average_experienced_crowding": 81.00029315417389,
    "Average_covariation_headway": 0.24017608843095,
    "Average_covariation_headway_stops": {
        "D": 0.2055132764804772,
        "I": 0.1696834837123673,
        "C": 0.209497686533081,
        "F": 0.18731572431198384,
        "B": 0.2158104089202519,
        "H": 0.1447311724918909,
        "J": 0.14672371200453183,
        "E": 0.19520927897479967,
        "G": 0.16139395546890067,
        "K": 0.17760193802690832,
        "L": 0.16667632549409894,
        "A": 0.19309713076207044
    },
    "Average_excess_waiting_time": {
        "D": 59.479830669201704,
        "I": 53.83591768255229,
        "C": 62.11506027669873,
        "F": 57.22641494242521,
        "B": 64.40195643287745,
        "H": 52.47593106070866,
        "J": 53.140046303650706,
        "E": 59.970625338575076,
        "G": 55.5789559055695,
        "K": 57.636542309978665,
        "L": 58.81699134354352,
        "A": 63.479927463728814
    },
    "Holding_per_stop": {
        "D": 20.64516129032258,
        "I": 21.93548387096774,
        "F": 26.451612903225808,
        "C": 29.67391304347826,
        "H": 17.096774193548388,
        "B": 16.304347826086957,
        "J": 18.91304347826087,
        "E": 19.23913043478261,
        "G": 20.869565217391305,
        "K": 19.891304347826086,
        "L": 19.12087912087912,
        "A": 8.241758241758241
    },
    "Actions_tfl_edges": {
        "AB": [
            8,
            62,
            22
        ],
        "BC": [
            10,
            61,
            22
        ],
        "CD": [
            6,
            62,
            25
        ],
        "EF": [
            9,
            69,
            15
        ],
        "GH": [
            4,
            70,
            19
        ],
        "HI": [
            2,
            68,
            23
        ],
        "DE": [
            3,
            74,
            16
        ],
        "IJ": [
            8,
            66,
            19
        ],
        "FG": [
            4,
            70,
            19
        ],
        "JK": [
            8,
            64,
            20
        ],
        "KL": [
            6,
            54,
            32
        ],
        "LA": [
            7,
            59,
            25
        ]
    },
    "Load_per_bus_per_stop": {
        "bus2": {
            "D": 72.375,
            "E": 73,
            "F": 74.5625,
            "G": 76.125,
            "H": 76.9375,
            "I": 78.86666666666666,
            "J": 78.93333333333334,
            "K": 79.46666666666667,
            "L": 79.8,
            "A": 82.73333333333333,
            "B": 81,
            "C": 79.33333333333333
        },
        "bus5": {
            "I": 78.9375,
            "J": 81.375,
            "K": 82.4375,
            "L": 85.375,
            "A": 86.6875,
            "B": 86.8125,
            "C": 86.13333333333334,
            "D": 85.8,
            "E": 86.06666666666666,
            "F": 85.13333333333334,
            "G": 84.53333333333333,
            "H": 83.73333333333333
        },
        "bus1": {
            "C": 73.5625,
            "D": 73.75,
            "E": 74.9375,
            "F": 77.6875,
            "G": 78.53333333333333,
            "H": 77.6,
            "I": 76.8,
            "J": 75.2,
            "K": 76,
            "L": 77.46666666666667,
            "A": 78.06666666666666,
            "B": 79.26666666666667
        },
        "bus3": {
            "F": 76.3125,
            "G": 76.1875,
            "H": 75.625,
            "I": 75.1875,
            "J": 74.9375,
            "K": 75.06666666666666,
            "L": 76.6,
            "A": 78.26666666666667,
            "B": 80.06666666666666,
            "C": 79.13333333333334,
            "D": 79.53333333333333,
            "E": 79.73333333333333
        },
        "bus0": {
            "B": 82.5625,
            "C": 84.875,
            "D": 85.5,
            "E": 88.13333333333334,
            "F": 87.2,
            "G": 86.06666666666666,
            "H": 84.93333333333334,
            "I": 86.33333333333333,
            "J": 87.86666666666666,
            "K": 88,
            "L": 85.93333333333334,
            "A": 86.26666666666667
        },
        "bus4": {
            "H": 74.4375,
            "I": 74.25,
            "J": 76,
            "K": 76.5,
            "L": 77,
            "A": 76.6,
            "B": 76.26666666666667,
            "C": 75.66666666666667,
            "D": 78.26666666666667,
            "E": 78.6,
            "F": 78.93333333333334,
            "G": 78.6
        }
    }
}