{
    "Average_holding_time": 25.810055865921786,
    "Average_travel_time_passengers": 2850.248737739858,
    "Average_speed_busses": 0.04475,
    "Average_experienced_crowding": 85.4087458965574,
    "Average_covariation_headway": 0.24120082486872504,
    "Average_covariation_headway_stops": {
        "J": 0.17894436491011237,
        "L": 0.19267757360948992,
        "H": 0.18694630955925265,
        "G": 0.20098693314020036,
        "C": 0.21130468898258623,
        "B": 0.20720641685398203,
        "I": 0.16991698350355874,
        "K": 0.16784975662497473,
        "A": 0.17497167103279818,
        "D": 0.2022243806089629,
        "E": 0.19060898144104244,
        "F": 0.19659141922407358
    },
    "Average_excess_waiting_time": {
        "J": 66.84834168252229,
        "L": 68.6532985943357,
        "H": 67.81551169014165,
        "G": 70.45516632781408,
        "C": 67.89229308352202,
        "B": 69.5964610363418,
        "I": 68.1209726708459,
        "K": 67.08788351777076,
        "A": 67.77267062218414,
        "D": 68.158873374716,
        "E": 68.80684344920064,
        "F": 71.6227170823426
    },
    "Holding_per_stop": {
        "H": 24.666666666666668,
        "C": 28.333333333333332,
        "J": 33.666666666666664,
        "L": 32.333333333333336,
        "B": 22.666666666666668,
        "G": 22.921348314606742,
        "I": 26.292134831460675,
        "K": 34.04494382022472,
        "D": 23.666666666666668,
        "A": 13.820224719101123,
        "E": 20.56179775280899,
        "F": 26.629213483146067
    },
    "Actions_tfl_edges": {
        "AB": [
            5,
            71,
            14
        ],
        "BC": [
            4,
            75,
            12
        ],
        "FG": [
            4,
            74,
            12
        ],
        "GH": [
            6,
            74,
            10
        ],
        "IJ": [
            2,
            72,
            16
        ],
        "KL": [
            4,
            76,
            10
        ],
        "HI": [
            3,
            70,
            17
        ],
        "CD": [
            5,
            64,
            21
        ],
        "JK": [
            3,
            65,
            22
        ],
        "LA": [
            3,
            67,
            20
        ],
        "DE": [
            4,
            72,
            14
        ],
        "EF": [
            2,
            72,
            15
        ]
    },
    "Load_per_bus_per_stop": {
        "bus4": {
            "J": 80.73333333333333,
            "K": 81,
            "L": 79.73333333333333,
            "A": 81.26666666666667,
            "B": 82.13333333333334,
            "C": 85.8,
            "D": 86.73333333333333,
            "E": 87.53333333333333,
            "F": 86.06666666666666,
            "G": 86.86666666666666,
            "H": 86.26666666666667,
            "I": 86.85714285714286
        },
        "bus5": {
            "L": 83.6,
            "A": 84.4,
            "B": 86.46666666666667,
            "C": 87.6,
            "D": 86.6,
            "E": 84,
            "F": 84.46666666666667,
            "G": 85.33333333333333,
            "H": 86.26666666666667,
            "I": 85.8,
            "J": 88,
            "K": 88.5
        },
        "bus3": {
            "H": 87.93333333333334,
            "I": 87.06666666666666,
            "J": 86.66666666666667,
            "K": 88.53333333333333,
            "L": 89.13333333333334,
            "A": 89.46666666666667,
            "B": 89.6,
            "C": 89.33333333333333,
            "D": 89.53333333333333,
            "E": 90.46666666666667,
            "F": 91.66666666666667,
            "G": 92.13333333333334
        },
        "bus2": {
            "G": 74.6,
            "H": 74.33333333333333,
            "I": 75.73333333333333,
            "J": 77.93333333333334,
            "K": 75.33333333333333,
            "L": 77.86666666666666,
            "A": 77.53333333333333,
            "B": 76.6,
            "C": 78.66666666666667,
            "D": 78.8,
            "E": 79.06666666666666,
            "F": 79
        },
        "bus1": {
            "C": 81.6875,
            "D": 81.86666666666666,
            "E": 84.13333333333334,
            "F": 84.06666666666666,
            "G": 84.13333333333334,
            "H": 86,
            "I": 85.4,
            "J": 85.4,
            "K": 87.53333333333333,
            "L": 85.73333333333333,
            "A": 85.53333333333333,
            "B": 85.73333333333333
        },
        "bus0": {
            "B": 78.93333333333334,
            "C": 80.2,
            "D": 81.4,
            "E": 81.66666666666667,
            "F": 84.4,
            "G": 81.93333333333334,
            "H": 82.4,
            "I": 80.73333333333333,
            "J": 80.6,
            "K": 80.06666666666666,
            "L": 82.8,
            "A": 82.57142857142857
        }
    }
}