{
    "Average_holding_time": 21.56505914467698,
    "Average_travel_time_passengers": 2759.9067683737812,
    "Average_speed_busses": 0.04579166666666667,
    "Average_experienced_crowding": 82.57533172725958,
    "Average_covariation_headway": 0.21199869054397424,
    "Average_covariation_headway_stops": {
        "A": 0.16985761992405743,
        "D": 0.1755557314149868,
        "C": 0.1685756983787311,
        "H": 0.14981761511619013,
        "G": 0.15706101162129227,
        "L": 0.16493988617751768,
        "E": 0.15623027658211586,
        "B": 0.1448367064428927,
        "I": 0.14575264305334643,
        "F": 0.15102412574738663,
        "J": 0.1469050098255721,
        "K": 0.15438688087070407
    },
    "Average_excess_waiting_time": {
        "A": 58.341905875226644,
        "D": 57.28338988274396,
        "C": 57.92517427842523,
        "H": 54.77539993672349,
        "G": 57.4752333989191,
        "L": 59.38142038622141,
        "E": 56.779254432213065,
        "B": 57.65680594393126,
        "I": 55.7426974546504,
        "F": 58.9222849869314,
        "J": 57.7749329301422,
        "K": 60.206901902701816
    },
    "Holding_per_stop": {
        "A": 6.8478260869565215,
        "D": 20.217391304347824,
        "C": 31.630434782608695,
        "H": 17.934782608695652,
        "G": 19.891304347826086,
        "L": 25.714285714285715,
        "E": 23.152173913043477,
        "B": 10.219780219780219,
        "I": 23.804347826086957,
        "F": 27.032967032967033,
        "J": 26.373626373626372,
        "K": 26.043956043956044
    },
    "Actions_tfl_edges": {
        "BC": [
            4,
            70,
            18
        ],
        "CD": [
            7,
            67,
            19
        ],
        "FG": [
            7,
            72,
            13
        ],
        "GH": [
            6,
            67,
            20
        ],
        "KL": [
            15,
            60,
            17
        ],
        "LA": [
            8,
            59,
            25
        ],
        "AB": [
            7,
            64,
            21
        ],
        "DE": [
            11,
            61,
            20
        ],
        "HI": [
            7,
            66,
            19
        ],
        "EF": [
            6,
            74,
            12
        ],
        "IJ": [
            4,
            69,
            19
        ],
        "JK": [
            6,
            69,
            16
        ]
    },
    "Load_per_bus_per_stop": {
        "bus5": {
            "A": 77.5,
            "B": 78.625,
            "C": 81.3125,
            "D": 81.46666666666667,
            "E": 81.26666666666667,
            "F": 81.93333333333334,
            "G": 83.06666666666666,
            "H": 83.46666666666667,
            "I": 84.13333333333334,
            "J": 84.2,
            "K": 83.4,
            "L": 84.8
        },
        "bus1": {
            "D": 79.3125,
            "E": 79.625,
            "F": 81.375,
            "G": 81.8125,
            "H": 82.13333333333334,
            "I": 82.93333333333334,
            "J": 82.46666666666667,
            "K": 83.8,
            "L": 86.13333333333334,
            "A": 86.33333333333333,
            "B": 86.4,
            "C": 86.26666666666667
        },
        "bus0": {
            "C": 75.75,
            "D": 78.1875,
            "E": 79.375,
            "F": 81,
            "G": 81.73333333333333,
            "H": 81.46666666666667,
            "I": 82.33333333333333,
            "J": 82.46666666666667,
            "K": 84.93333333333334,
            "L": 85.73333333333333,
            "A": 84.46666666666667,
            "B": 82.86666666666666
        },
        "bus3": {
            "H": 83.4375,
            "I": 83,
            "J": 84.125,
            "K": 85.9375,
            "L": 87,
            "A": 86.8,
            "B": 88.13333333333334,
            "C": 88.4,
            "D": 90.73333333333333,
            "E": 91,
            "F": 90.2,
            "G": 89.93333333333334
        },
        "bus2": {
            "G": 75.0625,
            "H": 76.375,
            "I": 76.4375,
            "J": 74.4,
            "K": 74.8,
            "L": 76.13333333333334,
            "A": 75.06666666666666,
            "B": 76.33333333333333,
            "C": 75.26666666666667,
            "D": 76.66666666666667,
            "E": 78.4,
            "F": 80.26666666666667
        },
        "bus4": {
            "L": 77.5625,
            "A": 78.8125,
            "B": 79.6,
            "C": 78.33333333333333,
            "D": 78.53333333333333,
            "E": 77.73333333333333,
            "F": 80.26666666666667,
            "G": 81.13333333333334,
            "H": 81.26666666666667,
            "I": 80.6,
            "J": 81.6,
            "K": 82.73333333333333
        }
    }
}