{
    "Average_holding_time": 73.32298136645963,
    "Average_travel_time_passengers": 5636.81699645428,
    "Average_speed_busses": 0.026833333333333334,
    "Average_experienced_crowding": 402.76137424529446,
    "Average_covariation_headway": 1.7046564980333787,
    "Average_covariation_headway_stops": {
        "H": 1.5759704992519772,
        "B": 1.5954640589233378,
        "F": 1.5125399067505059,
        "C": 1.6183658986038403,
        "A": 1.5816915157763067,
        "G": 1.538655141673907,
        "D": 1.5427923719304613,
        "I": 1.5673940696833903,
        "E": 1.4818627027492037,
        "J": 1.568094506324796,
        "K": 1.560463668258046,
        "L": 1.5569525828076685
    },
    "Average_excess_waiting_time": {
        "H": 1463.6633489144494,
        "B": 1572.9612208877852,
        "F": 1380.2824744569427,
        "C": 1600.240564646965,
        "A": 1558.2659296348645,
        "G": 1413.6353616350355,
        "D": 1643.8046928820918,
        "I": 1474.9610173737758,
        "E": 1343.4202963781238,
        "J": 1501.2561920649964,
        "K": 1511.9342802679414,
        "L": 1528.219583396521
    },
    "Holding_per_stop": {
        "B": 73.39285714285714,
        "C": 69.64285714285714,
        "G": 63.9622641509434,
        "H": 73.88888888888889,
        "F": 71.53846153846153,
        "A": 73.0909090909091,
        "D": 74.11764705882354,
        "I": 78.88888888888889,
        "E": 73.52941176470588,
        "J": 78.33333333333333,
        "K": 78.33333333333333,
        "L": 71.11111111111111
    },
    "Actions_tfl_edges": {
        "AB": [
            19,
            26,
            11
        ],
        "BC": [
            18,
            30,
            9
        ],
        "EF": [
            13,
            31,
            8
        ],
        "FG": [
            14,
            33,
            6
        ],
        "GH": [
            17,
            31,
            6
        ],
        "LA": [
            17,
            30,
            8
        ],
        "CD": [
            18,
            31,
            7
        ],
        "HI": [
            17,
            32,
            5
        ],
        "DE": [
            13,
            29,
            9
        ],
        "IJ": [
            20,
            29,
            5
        ],
        "JK": [
            17,
            29,
            8
        ],
        "KL": [
            18,
            29,
            7
        ]
    },
    "Load_per_bus_per_stop": {
        "bus4": {
            "H": 417.22222222222223,
            "I": 424.77777777777777,
            "J": 431.44444444444446,
            "K": 437.6666666666667,
            "L": 454.3333333333333,
            "A": 469.1111111111111,
            "B": 475,
            "C": 482,
            "D": 492.1111111111111,
            "E": 440.75,
            "F": 451.125,
            "G": 461.625
        },
        "bus0": {
            "B": 35.9,
            "C": 35.6,
            "D": 40.666666666666664,
            "E": 39.888888888888886,
            "F": 38.77777777777778,
            "G": 39,
            "H": 37.333333333333336,
            "I": 38.22222222222222,
            "J": 38.55555555555556,
            "K": 38.666666666666664,
            "L": 38.111111111111114,
            "A": 39.77777777777778
        },
        "bus2": {
            "F": 5,
            "G": 4.888888888888889,
            "H": 5.777777777777778,
            "I": 6.333333333333333,
            "J": 5.888888888888889,
            "K": 6,
            "L": 6,
            "A": 5.555555555555555,
            "B": 5.666666666666667,
            "C": 5.222222222222222,
            "D": 5.5,
            "E": 5.625
        },
        "bus1": {
            "C": 10,
            "D": 12.333333333333334,
            "E": 13.666666666666666,
            "F": 14.222222222222221,
            "G": 13.777777777777779,
            "H": 12.666666666666666,
            "I": 12.88888888888889,
            "J": 11.777777777777779,
            "K": 12.11111111111111,
            "L": 12,
            "A": 11.555555555555555,
            "B": 12
        },
        "bus5": {
            "A": 203.6,
            "B": 205.7,
            "C": 207.4,
            "D": 227.44444444444446,
            "E": 227.88888888888889,
            "F": 226.66666666666666,
            "G": 223.22222222222223,
            "H": 218.77777777777777,
            "I": 218.77777777777777,
            "J": 220.77777777777777,
            "K": 224.22222222222223,
            "L": 224.55555555555554
        },
        "bus3": {
            "G": 34.666666666666664,
            "H": 34.44444444444444,
            "I": 34.666666666666664,
            "J": 36.888888888888886,
            "K": 35.333333333333336,
            "L": 36.666666666666664,
            "A": 37.22222222222222,
            "B": 36.55555555555556,
            "C": 37.111111111111114,
            "D": 34.25,
            "E": 37.25,
            "F": 38.625
        }
    }
}