{
    "Average_holding_time": 26.549165120593692,
    "Average_travel_time_passengers": 2814.609953481394,
    "Average_speed_busses": 0.04491666666666667,
    "Average_experienced_crowding": 84.7379036423822,
    "Average_covariation_headway": 0.23660916858104408,
    "Average_covariation_headway_stops": {
        "D": 0.18318933092634632,
        "B": 0.21688027045497033,
        "C": 0.20584538406728248,
        "E": 0.2194415411945181,
        "J": 0.19155118782617814,
        "G": 0.21030457132011332,
        "F": 0.205088996646853,
        "H": 0.1923798683606739,
        "K": 0.1802752475640737,
        "I": 0.1829993917046191,
        "L": 0.17167902100420515,
        "A": 0.20275948982326172
    },
    "Average_excess_waiting_time": {
        "D": 65.57636170572619,
        "B": 74.3961241234868,
        "C": 70.76623460840528,
        "E": 68.40817780075776,
        "J": 66.66102289430142,
        "G": 67.99038537277983,
        "F": 69.66717693008007,
        "H": 66.6495771041437,
        "K": 67.26209528541744,
        "I": 67.4304068707333,
        "L": 68.35951820312613,
        "A": 74.20682983682133
    },
    "Holding_per_stop": {
        "D": 26,
        "C": 28,
        "J": 29.333333333333332,
        "E": 23.736263736263737,
        "G": 23,
        "B": 20.89887640449438,
        "F": 27.333333333333332,
        "H": 24.333333333333332,
        "K": 37.333333333333336,
        "I": 29,
        "L": 33.03370786516854,
        "A": 16.51685393258427
    },
    "Actions_tfl_edges": {
        "AB": [
            2,
            67,
            21
        ],
        "BC": [
            4,
            74,
            12
        ],
        "CD": [
            6,
            69,
            16
        ],
        "DE": [
            6,
            65,
            20
        ],
        "FG": [
            3,
            68,
            20
        ],
        "IJ": [
            2,
            61,
            28
        ],
        "JK": [
            3,
            63,
            24
        ],
        "EF": [
            6,
            70,
            15
        ],
        "GH": [
            1,
            74,
            15
        ],
        "HI": [
            4,
            60,
            26
        ],
        "KL": [
            2,
            58,
            30
        ],
        "LA": [
            2,
            62,
            25
        ]
    },
    "Load_per_bus_per_stop": {
        "bus2": {
            "D": 84.33333333333333,
            "E": 85.2,
            "F": 87.66666666666667,
            "G": 85.6,
            "H": 84,
            "I": 84.06666666666666,
            "J": 85.8,
            "K": 87.13333333333334,
            "L": 87.4,
            "A": 88.86666666666666,
            "B": 90.33333333333333,
            "C": 88.53333333333333
        },
        "bus0": {
            "B": 73.26666666666667,
            "C": 74.53333333333333,
            "D": 74.53333333333333,
            "E": 75.2,
            "F": 79.06666666666666,
            "G": 78.26666666666667,
            "H": 78.6,
            "I": 79,
            "J": 80.06666666666666,
            "K": 81.66666666666667,
            "L": 80.5,
            "A": 81.21428571428571
        },
        "bus1": {
            "C": 74.13333333333334,
            "D": 74.46666666666667,
            "E": 76.2,
            "F": 76.86666666666666,
            "G": 77.6,
            "H": 78.06666666666666,
            "I": 78.06666666666666,
            "J": 78.26666666666667,
            "K": 76.13333333333334,
            "L": 77.33333333333333,
            "A": 79.86666666666666,
            "B": 79.5
        },
        "bus3": {
            "E": 85.3125,
            "F": 86.66666666666667,
            "G": 84.6,
            "H": 84.73333333333333,
            "I": 85.2,
            "J": 85.66666666666667,
            "K": 86.13333333333334,
            "L": 86.06666666666666,
            "A": 88.6,
            "B": 88.53333333333333,
            "C": 90.53333333333333,
            "D": 90.46666666666667
        },
        "bus5": {
            "J": 84.6,
            "K": 85.93333333333334,
            "L": 85.2,
            "A": 86.8,
            "B": 86.53333333333333,
            "C": 85.66666666666667,
            "D": 86.53333333333333,
            "E": 88.2,
            "F": 89.86666666666666,
            "G": 91.33333333333333,
            "H": 89.73333333333333,
            "I": 89.06666666666666
        },
        "bus4": {
            "G": 78.625,
            "H": 77.86666666666666,
            "I": 79.26666666666667,
            "J": 80.13333333333334,
            "K": 81.26666666666667,
            "L": 82.86666666666666,
            "A": 84.13333333333334,
            "B": 82.6,
            "C": 83.53333333333333,
            "D": 84.93333333333334,
            "E": 84.93333333333334,
            "F": 84.06666666666666
        }
    }
}