{
    "Average_holding_time": 27.381818181818183,
    "Average_travel_time_passengers": 2778.526261778975,
    "Average_speed_busses": 0.04583333333333333,
    "Average_experienced_crowding": 84.85370525220954,
    "Average_covariation_headway": 0.37046584201711596,
    "Average_covariation_headway_stops": {
        "K": 0.2848779820352225,
        "D": 0.31619043774333866,
        "E": 0.3080637085215681,
        "L": 0.2927515735987599,
        "A": 0.31425317564635713,
        "G": 0.28951432198921095,
        "B": 0.3178954315227824,
        "F": 0.2866472657689736,
        "H": 0.2766329027170448,
        "C": 0.29799402837608024,
        "I": 0.2723418858662384,
        "J": 0.2764632558623453
    },
    "Average_excess_waiting_time": {
        "K": 77.30048503690813,
        "D": 79.75159591588567,
        "E": 76.30806296610541,
        "L": 77.21186130473149,
        "A": 77.62367803738323,
        "G": 74.41953221736873,
        "B": 79.77544321215356,
        "F": 74.44933234082771,
        "H": 74.08354962417116,
        "C": 78.09913189135426,
        "I": 74.01086522122228,
        "J": 76.88483341792124
    },
    "Holding_per_stop": {
        "E": 29.347826086956523,
        "L": 24.782608695652176,
        "A": 20.217391304347824,
        "G": 26.73913043478261,
        "K": 23.736263736263737,
        "D": 27.391304347826086,
        "B": 27.391304347826086,
        "F": 29.347826086956523,
        "H": 28.695652173913043,
        "C": 34.94505494505494,
        "I": 27.692307692307693,
        "J": 28.35164835164835
    },
    "Actions_tfl_edges": {
        "CD": [
            17,
            37,
            38
        ],
        "DE": [
            21,
            37,
            35
        ],
        "FG": [
            22,
            31,
            40
        ],
        "JK": [
            17,
            36,
            39
        ],
        "KL": [
            14,
            35,
            43
        ],
        "LA": [
            21,
            34,
            38
        ],
        "EF": [
            14,
            39,
            39
        ],
        "AB": [
            22,
            29,
            41
        ],
        "GH": [
            23,
            34,
            35
        ],
        "BC": [
            17,
            26,
            49
        ],
        "HI": [
            22,
            32,
            38
        ],
        "IJ": [
            19,
            38,
            34
        ]
    },
    "Load_per_bus_per_stop": {
        "bus3": {
            "K": 89.5,
            "L": 88.3125,
            "A": 86.93333333333334,
            "B": 85.33333333333333,
            "C": 88.93333333333334,
            "D": 89.46666666666667,
            "E": 92.13333333333334,
            "F": 92.06666666666666,
            "G": 93.2,
            "H": 92.26666666666667,
            "I": 94.53333333333333,
            "J": 94.86666666666666
        },
        "bus0": {
            "D": 57.9375,
            "E": 57.4375,
            "F": 56.3125,
            "G": 58.06666666666667,
            "H": 58.6,
            "I": 59.266666666666666,
            "J": 60.93333333333333,
            "K": 63.46666666666667,
            "L": 63.6,
            "A": 63.06666666666667,
            "B": 61.6,
            "C": 62.666666666666664
        },
        "bus1": {
            "E": 82.375,
            "F": 82,
            "G": 82.875,
            "H": 84.5,
            "I": 84.46666666666667,
            "J": 85.26666666666667,
            "K": 85.53333333333333,
            "L": 88.13333333333334,
            "A": 87.53333333333333,
            "B": 88.46666666666667,
            "C": 88.66666666666667,
            "D": 87.26666666666667
        },
        "bus4": {
            "L": 72.1875,
            "A": 73.75,
            "B": 73.875,
            "C": 73.625,
            "D": 74.93333333333334,
            "E": 73.53333333333333,
            "F": 73.6,
            "G": 75.26666666666667,
            "H": 75.93333333333334,
            "I": 77.4,
            "J": 75.13333333333334,
            "K": 77.93333333333334
        },
        "bus5": {
            "A": 66.0625,
            "B": 67.75,
            "C": 67.5625,
            "D": 68.625,
            "E": 70.125,
            "F": 71.6,
            "G": 74.13333333333334,
            "H": 72.93333333333334,
            "I": 72.93333333333334,
            "J": 74.2,
            "K": 72,
            "L": 71.66666666666667
        },
        "bus2": {
            "G": 92.5,
            "H": 93.4375,
            "I": 93.4375,
            "J": 94.4375,
            "K": 96.86666666666666,
            "L": 97.46666666666667,
            "A": 95.73333333333333,
            "B": 95.53333333333333,
            "C": 95.06666666666666,
            "D": 97.13333333333334,
            "E": 99.66666666666667,
            "F": 98.73333333333333
        }
    }
}