{
    "Average_holding_time": 16.431095406360424,
    "Average_travel_time_passengers": 2701.1286929780845,
    "Average_speed_busses": 0.04716666666666667,
    "Average_experienced_crowding": 81.34805582370011,
    "Average_covariation_headway": 0.35478076273747994,
    "Average_covariation_headway_stops": {
        "E": 0.2845330636590751,
        "K": 0.2609807654392064,
        "L": 0.2618911374810628,
        "H": 0.25305659780307244,
        "G": 0.2742377455539387,
        "A": 0.26749050895831117,
        "I": 0.24122788101805331,
        "B": 0.2531071098941237,
        "F": 0.27110274558984343,
        "J": 0.24297309652852975,
        "C": 0.23996591967488126,
        "D": 0.27168434008213754
    },
    "Average_excess_waiting_time": {
        "E": 66.13853099343265,
        "K": 61.22164290660902,
        "L": 59.927390470372586,
        "H": 58.739617459794545,
        "G": 63.89843753611888,
        "A": 58.640943485298294,
        "I": 59.117771417734104,
        "B": 57.94268689616155,
        "F": 65.99275354688137,
        "J": 61.02581303129887,
        "C": 57.709564375415255,
        "D": 64.81513245578236
    },
    "Holding_per_stop": {
        "L": 18.94736842105263,
        "H": 13.894736842105264,
        "K": 22.97872340425532,
        "E": 17.872340425531913,
        "A": 12.631578947368421,
        "G": 17.23404255319149,
        "I": 17.23404255319149,
        "B": 15.157894736842104,
        "F": 18.51063829787234,
        "J": 13.404255319148936,
        "C": 13.404255319148936,
        "D": 15.957446808510639
    },
    "Actions_tfl_edges": {
        "DE": [
            25,
            27,
            43
        ],
        "FG": [
            24,
            33,
            37
        ],
        "GH": [
            24,
            35,
            36
        ],
        "JK": [
            30,
            28,
            37
        ],
        "KL": [
            30,
            33,
            32
        ],
        "LA": [
            32,
            38,
            26
        ],
        "HI": [
            32,
            28,
            35
        ],
        "EF": [
            23,
            33,
            38
        ],
        "AB": [
            27,
            42,
            26
        ],
        "IJ": [
            33,
            27,
            34
        ],
        "BC": [
            28,
            37,
            30
        ],
        "CD": [
            28,
            32,
            34
        ]
    },
    "Load_per_bus_per_stop": {
        "bus0": {
            "E": 62.0625,
            "F": 61.6875,
            "G": 60.3125,
            "H": 61.8125,
            "I": 63,
            "J": 63.25,
            "K": 62.25,
            "L": 63,
            "A": 63.6,
            "B": 63.733333333333334,
            "C": 64.66666666666667,
            "D": 64.73333333333333
        },
        "bus3": {
            "K": 81,
            "L": 80.0625,
            "A": 81.375,
            "B": 82.625,
            "C": 83.3125,
            "D": 84.5625,
            "E": 84.8125,
            "F": 85.375,
            "G": 85.13333333333334,
            "H": 86.4,
            "I": 87.13333333333334,
            "J": 86.2
        },
        "bus4": {
            "L": 72.8125,
            "A": 73,
            "B": 71.8125,
            "C": 73.0625,
            "D": 74,
            "E": 75.625,
            "F": 73.625,
            "G": 72.875,
            "H": 72.75,
            "I": 75.2,
            "J": 76.6,
            "K": 76.66666666666667
        },
        "bus2": {
            "H": 81.75,
            "I": 83.6875,
            "J": 85,
            "K": 87.1875,
            "L": 86,
            "A": 86.5625,
            "B": 86.375,
            "C": 87.0625,
            "D": 88.4375,
            "E": 91.06666666666666,
            "F": 89.53333333333333,
            "G": 87.46666666666667
        },
        "bus1": {
            "G": 78.6875,
            "H": 79.75,
            "I": 80.875,
            "J": 82.0625,
            "K": 83.75,
            "L": 84.6875,
            "A": 84.0625,
            "B": 85.1875,
            "C": 87.9375,
            "D": 86.53333333333333,
            "E": 86.73333333333333,
            "F": 83.86666666666666
        },
        "bus5": {
            "A": 79.1875,
            "B": 77,
            "C": 78.5,
            "D": 77.75,
            "E": 77.5625,
            "F": 77.75,
            "G": 79.125,
            "H": 81.375,
            "I": 80.625,
            "J": 81.75,
            "K": 80.33333333333333,
            "L": 82
        }
    }
}