{
    "Average_holding_time": 17.967914438502675,
    "Average_travel_time_passengers": 2749.922636334686,
    "Average_speed_busses": 0.04675,
    "Average_experienced_crowding": 85.065927734786,
    "Average_covariation_headway": 0.39603681287937753,
    "Average_covariation_headway_stops": {
        "G": 0.30313247656733694,
        "A": 0.3173655115448156,
        "D": 0.30168250114700595,
        "K": 0.30317871444611677,
        "B": 0.31610833168220936,
        "I": 0.31889951831277724,
        "E": 0.3009850783017341,
        "L": 0.29706863203221434,
        "H": 0.3038618556041067,
        "C": 0.30060600320781244,
        "J": 0.2989762008961117,
        "F": 0.2976255939002646
    },
    "Average_excess_waiting_time": {
        "G": 72.7183087539035,
        "A": 73.89222410607158,
        "D": 69.82974182781061,
        "K": 70.94107473321793,
        "B": 72.19194677200369,
        "I": 74.60083146623083,
        "E": 71.36016356578085,
        "L": 72.08939920750578,
        "H": 74.63251258073615,
        "C": 70.71453403279924,
        "J": 72.4716748092481,
        "F": 72.61022859932007
    },
    "Holding_per_stop": {
        "D": 14.042553191489361,
        "G": 17.419354838709676,
        "A": 13.404255319148936,
        "B": 14.680851063829786,
        "K": 18.51063829787234,
        "I": 21.29032258064516,
        "E": 17.23404255319149,
        "C": 21.06382978723404,
        "L": 19.35483870967742,
        "H": 21.93548387096774,
        "J": 19.35483870967742,
        "F": 17.419354838709676
    },
    "Actions_tfl_edges": {
        "AB": [
            23,
            51,
            21
        ],
        "CD": [
            31,
            31,
            33
        ],
        "FG": [
            32,
            31,
            31
        ],
        "HI": [
            35,
            30,
            29
        ],
        "JK": [
            28,
            32,
            34
        ],
        "LA": [
            28,
            43,
            23
        ],
        "DE": [
            30,
            35,
            29
        ],
        "GH": [
            35,
            29,
            29
        ],
        "BC": [
            29,
            37,
            28
        ],
        "KL": [
            35,
            31,
            28
        ],
        "IJ": [
            33,
            28,
            32
        ],
        "EF": [
            34,
            25,
            34
        ]
    },
    "Load_per_bus_per_stop": {
        "bus2": {
            "G": 71.4375,
            "H": 73.1875,
            "I": 75.125,
            "J": 76.9375,
            "K": 77.0625,
            "L": 78.75,
            "A": 77.6875,
            "B": 75.66666666666667,
            "C": 76.06666666666666,
            "D": 75.53333333333333,
            "E": 75.2,
            "F": 75.93333333333334
        },
        "bus5": {
            "A": 90.1875,
            "B": 90.375,
            "C": 92.4375,
            "D": 94.25,
            "E": 91.5,
            "F": 89.3125,
            "G": 89.86666666666666,
            "H": 89.46666666666667,
            "I": 89.86666666666666,
            "J": 93.53333333333333,
            "K": 94.13333333333334,
            "L": 94.93333333333334
        },
        "bus1": {
            "D": 84.375,
            "E": 85.75,
            "F": 87.3125,
            "G": 86.9375,
            "H": 87.3125,
            "I": 87.1875,
            "J": 88.875,
            "K": 88.9375,
            "L": 89.13333333333334,
            "A": 89.93333333333334,
            "B": 90.66666666666667,
            "C": 90.46666666666667
        },
        "bus4": {
            "K": 57,
            "L": 58.375,
            "A": 58.1875,
            "B": 56.75,
            "C": 58,
            "D": 58,
            "E": 59.5,
            "F": 58.93333333333333,
            "G": 60.46666666666667,
            "H": 61.46666666666667,
            "I": 58.86666666666667,
            "J": 61
        },
        "bus0": {
            "B": 87.25,
            "C": 89,
            "D": 88.8125,
            "E": 89.5625,
            "F": 90.5,
            "G": 90.8125,
            "H": 90.4375,
            "I": 89.33333333333333,
            "J": 89.46666666666667,
            "K": 92.33333333333333,
            "L": 91.8,
            "A": 92.4
        },
        "bus3": {
            "I": 69.9375,
            "J": 69.875,
            "K": 68.875,
            "L": 70.6875,
            "A": 71.0625,
            "B": 71.5,
            "C": 73.4375,
            "D": 73.8,
            "E": 75.13333333333334,
            "F": 75.8,
            "G": 74.86666666666666,
            "H": 74.46666666666667
        }
    }
}