{
    "Average_holding_time": 27.769516728624534,
    "Average_travel_time_passengers": 2831.196795313607,
    "Average_speed_busses": 0.044833333333333336,
    "Average_experienced_crowding": 85.00655273820716,
    "Average_covariation_headway": 0.30938422526341486,
    "Average_covariation_headway_stops": {
        "H": 0.24760056631829994,
        "I": 0.24757790562911605,
        "E": 0.24519571320079586,
        "B": 0.27202441368474967,
        "J": 0.25827730697128487,
        "G": 0.24752304866961689,
        "K": 0.250500769101601,
        "C": 0.26781232199057525,
        "F": 0.2366988978777838,
        "D": 0.24133348154708864,
        "L": 0.25540015617899425,
        "A": 0.2527520923396226
    },
    "Average_excess_waiting_time": {
        "H": 75.3972640241767,
        "I": 73.41410732989522,
        "E": 76.75580851891942,
        "B": 79.03651014256735,
        "J": 73.55105109136719,
        "G": 77.35173204813026,
        "K": 73.24968407984767,
        "C": 80.26039636728768,
        "F": 78.41111120406669,
        "D": 78.29012599227428,
        "L": 76.4592645284136,
        "A": 78.14179533230231
    },
    "Holding_per_stop": {
        "H": 28.333333333333332,
        "J": 26.703296703296704,
        "I": 27.333333333333332,
        "B": 23.666666666666668,
        "G": 26.629213483146067,
        "E": 27.97752808988764,
        "K": 37,
        "C": 32,
        "F": 24.9438202247191,
        "L": 39.333333333333336,
        "D": 21.235955056179776,
        "A": 17.865168539325843
    },
    "Actions_tfl_edges": {
        "AB": [
            3,
            68,
            19
        ],
        "DE": [
            8,
            64,
            18
        ],
        "FG": [
            7,
            64,
            19
        ],
        "GH": [
            3,
            71,
            16
        ],
        "HI": [
            5,
            65,
            21
        ],
        "IJ": [
            7,
            68,
            16
        ],
        "JK": [
            7,
            67,
            17
        ],
        "BC": [
            4,
            70,
            16
        ],
        "EF": [
            6,
            65,
            18
        ],
        "KL": [
            6,
            64,
            20
        ],
        "CD": [
            8,
            67,
            14
        ],
        "LA": [
            4,
            66,
            20
        ]
    },
    "Load_per_bus_per_stop": {
        "bus3": {
            "H": 72.86666666666666,
            "I": 73.4,
            "J": 74.93333333333334,
            "K": 77.2,
            "L": 78.06666666666666,
            "A": 79.4,
            "B": 79.06666666666666,
            "C": 79.2,
            "D": 80.06666666666666,
            "E": 81.13333333333334,
            "F": 79.86666666666666,
            "G": 78.21428571428571
        },
        "bus4": {
            "I": 69.8125,
            "J": 70.6,
            "K": 69.73333333333333,
            "L": 70.8,
            "A": 69.6,
            "B": 69.93333333333334,
            "C": 69.6,
            "D": 68.33333333333333,
            "E": 70.8,
            "F": 71.86666666666666,
            "G": 73.46666666666667,
            "H": 74.6
        },
        "bus1": {
            "E": 82.66666666666667,
            "F": 85.53333333333333,
            "G": 88.13333333333334,
            "H": 88.26666666666667,
            "I": 88.06666666666666,
            "J": 90.33333333333333,
            "K": 90.06666666666666,
            "L": 90.2,
            "A": 89.86666666666666,
            "B": 90.33333333333333,
            "C": 89.6,
            "D": 87.92857142857143
        },
        "bus0": {
            "B": 83.8,
            "C": 81.93333333333334,
            "D": 83.4,
            "E": 85.2,
            "F": 85.13333333333334,
            "G": 86.8,
            "H": 85.86666666666666,
            "I": 85.33333333333333,
            "J": 87.66666666666667,
            "K": 89,
            "L": 90.06666666666666,
            "A": 89.8
        },
        "bus5": {
            "J": 83.5625,
            "K": 81.86666666666666,
            "L": 83.06666666666666,
            "A": 85.86666666666666,
            "B": 88.66666666666667,
            "C": 89.33333333333333,
            "D": 89.66666666666667,
            "E": 88.06666666666666,
            "F": 87.86666666666666,
            "G": 87.46666666666667,
            "H": 88.53333333333333,
            "I": 90.06666666666666
        },
        "bus2": {
            "G": 78.6,
            "H": 79.66666666666667,
            "I": 78.93333333333334,
            "J": 80.06666666666666,
            "K": 80.86666666666666,
            "L": 81.4,
            "A": 81.73333333333333,
            "B": 84.53333333333333,
            "C": 85.33333333333333,
            "D": 84.93333333333334,
            "E": 84.6,
            "F": 82.5
        }
    }
}