{
    "Average_holding_time": 35.61068702290076,
    "Average_travel_time_passengers": 2908.6956733333873,
    "Average_speed_busses": 0.043666666666666666,
    "Average_experienced_crowding": 120.84767374885382,
    "Average_covariation_headway": 0.402529024945384,
    "Average_covariation_headway_stops": {
        "H": 0.28463457330966385,
        "G": 0.2575294565343754,
        "I": 0.2974292569570114,
        "E": 0.28163282325575545,
        "F": 0.27061453270827923,
        "J": 0.3137965316060434,
        "B": 0.27198746277474034,
        "K": 0.2876095388072514,
        "C": 0.27123092593209386,
        "L": 0.26008769185231406,
        "D": 0.2648074825626284,
        "A": 0.248745242921714
    },
    "Average_excess_waiting_time": {
        "H": 88.70451870820722,
        "G": 85.54686614068339,
        "I": 88.66083332549886,
        "E": 94.44990726431081,
        "F": 90.00428288845598,
        "J": 94.40747411760418,
        "B": 89.94448383314273,
        "K": 90.68383459547215,
        "C": 92.37269406595414,
        "L": 87.83788435925112,
        "D": 93.6167850707655,
        "A": 88.47575650985607
    },
    "Holding_per_stop": {
        "I": 19.55056179775281,
        "H": 41.59090909090909,
        "G": 45.172413793103445,
        "E": 35.172413793103445,
        "J": 32.38636363636363,
        "B": 31.379310344827587,
        "F": 68.27586206896552,
        "K": 28.977272727272727,
        "C": 27.586206896551722,
        "L": 36.206896551724135,
        "D": 31.3953488372093,
        "A": 30
    },
    "Actions_tfl_edges": {
        "FG": [
            88,
            0,
            0
        ],
        "GH": [
            88,
            0,
            0
        ],
        "HI": [
            89,
            0,
            0
        ],
        "JK": [
            88,
            0,
            0
        ],
        "CD": [
            87,
            0,
            0
        ]
    },
    "Load_per_bus_per_stop": {
        "bus4": {
            "H": 120.13333333333334,
            "I": 115.13333333333334,
            "J": 108.73333333333333,
            "K": 101.73333333333333,
            "L": 92.26666666666667,
            "A": 84.46666666666667,
            "B": 77.2,
            "C": 73.13333333333334,
            "D": 68.64285714285714,
            "E": 67.78571428571429,
            "F": 88.5,
            "G": 120.28571428571429
        },
        "bus3": {
            "G": 131.33333333333334,
            "H": 139.13333333333333,
            "I": 134,
            "J": 126.73333333333333,
            "K": 116.13333333333334,
            "L": 107.93333333333334,
            "A": 98.4,
            "B": 89.07142857142857,
            "C": 84.07142857142857,
            "D": 80.92857142857143,
            "E": 79.42857142857143,
            "F": 104.92857142857143
        },
        "bus5": {
            "I": 180.4,
            "J": 171.13333333333333,
            "K": 160.66666666666666,
            "L": 146.06666666666666,
            "A": 131.73333333333332,
            "B": 119.86666666666666,
            "C": 113.8,
            "D": 106.93333333333334,
            "E": 107.86666666666666,
            "F": 138.14285714285714,
            "G": 183.5,
            "H": 196.57142857142858
        },
        "bus1": {
            "E": 70.33333333333333,
            "F": 93.8,
            "G": 126.8,
            "H": 134.33333333333334,
            "I": 131.46666666666667,
            "J": 122.14285714285714,
            "K": 113.21428571428571,
            "L": 103.57142857142857,
            "A": 93.71428571428571,
            "B": 84.21428571428571,
            "C": 80.07142857142857,
            "D": 77.35714285714286
        },
        "bus2": {
            "F": 95.73333333333333,
            "G": 128.06666666666666,
            "H": 136.13333333333333,
            "I": 133.53333333333333,
            "J": 126.93333333333334,
            "K": 120.13333333333334,
            "L": 112.35714285714286,
            "A": 100.71428571428571,
            "B": 89.85714285714286,
            "C": 82.57142857142857,
            "D": 77.64285714285714,
            "E": 77.35714285714286
        },
        "bus0": {
            "B": 86.33333333333333,
            "C": 82.66666666666667,
            "D": 79,
            "E": 77,
            "F": 102.46666666666667,
            "G": 135.33333333333334,
            "H": 144,
            "I": 140,
            "J": 133.71428571428572,
            "K": 126,
            "L": 115.28571428571429,
            "A": 103.92857142857143
        }
    }
}