{
    "Average_holding_time": 27.990697674418605,
    "Average_holding_actions": [
        718,
        107,
        80,
        41,
        22,
        47
    ],
    "Average_travel_time_passengers": 2818.085901837936,
    "Average_passenger_waiting_time": 336.9326443199106,
    "Average_passenger_in_vehicle_time": 2481.1532575180167,
    "Average_speed_busses": 0.04479166666666667,
    "Average_experienced_crowding": 113.8090506196203,
    "Average_covariation_headway": 0.29837106893366544,
    "Average_covariation_headway_stops": {
        "G": 0.1718606422568689,
        "F": 0.17481458603733901,
        "E": 0.17099525283309489,
        "H": 0.1666812786127974,
        "K": 0.1793305104927299,
        "C": 0.18063605213386438,
        "A": 0.16727017567459268,
        "I": 0.17071242144332402,
        "L": 0.15312986514670876,
        "D": 0.1763811640967452,
        "B": 0.17915661879149516,
        "J": 0.18524781359427805
    },
    "Average_excess_waiting_time": {
        "G": 63.22697485045802,
        "F": 65.20382535056427,
        "E": 66.25341349452322,
        "H": 64.23062755992504,
        "K": 66.8144223389566,
        "C": 66.83058961375923,
        "A": 64.81917128696597,
        "I": 65.85247909818531,
        "L": 65.35178831957182,
        "D": 68.8839520406454,
        "B": 68.27881895014303,
        "J": 69.82226479310765
    },
    "Holding_per_stop": {
        "G": 22,
        "K": 15.333333333333334,
        "H": 12.333333333333334,
        "C": 36.666666666666664,
        "A": 24,
        "F": 71.66666666666667,
        "E": 38.42696629213483,
        "I": 6.333333333333333,
        "L": 23.93258426966292,
        "D": 29.325842696629213,
        "B": 35.73033707865169,
        "J": 20.224719101123597
    },
    "Actions_tfl_edges": {
        "FG": [
            91,
            0,
            0
        ],
        "JK": [
            90,
            0,
            0
        ],
        "GH": [
            90,
            0,
            0
        ],
        "HI": [
            90,
            0,
            0
        ],
        "CD": [
            90,
            0,
            0
        ]
    },
    "Load_per_bus_per_stop": {
        "bus3": {
            "G": 127.46666666666667,
            "H": 133.53333333333333,
            "I": 130.6,
            "J": 125.93333333333334,
            "K": 117.86666666666666,
            "L": 108.33333333333333,
            "A": 99.93333333333334,
            "B": 91.06666666666666,
            "C": 82.6,
            "D": 79.2,
            "E": 78.13333333333334,
            "F": 104.53333333333333
        },
        "bus2": {
            "F": 96.13333333333334,
            "G": 126.53333333333333,
            "H": 137.2,
            "I": 131.2,
            "J": 125.53333333333333,
            "K": 116.73333333333333,
            "L": 108.13333333333334,
            "A": 96.93333333333334,
            "B": 87.2,
            "C": 81.13333333333334,
            "D": 76.26666666666667,
            "E": 76.6
        },
        "bus1": {
            "E": 78.53333333333333,
            "F": 100.66666666666667,
            "G": 133.93333333333334,
            "H": 142.6,
            "I": 140.8,
            "J": 134.8,
            "K": 124.06666666666666,
            "L": 112.8,
            "A": 101.53333333333333,
            "B": 90.93333333333334,
            "C": 84.73333333333333,
            "D": 84
        },
        "bus4": {
            "K": 111.6,
            "L": 101.13333333333334,
            "A": 92.06666666666666,
            "B": 82.46666666666667,
            "C": 79,
            "D": 77.93333333333334,
            "E": 74,
            "F": 98.26666666666667,
            "G": 128.2,
            "H": 137,
            "I": 134.66666666666666,
            "J": 129.35714285714286
        },
        "bus0": {
            "C": 86.6,
            "D": 86.53333333333333,
            "E": 82.73333333333333,
            "F": 106.2,
            "G": 142.93333333333334,
            "H": 154.06666666666666,
            "I": 151.46666666666667,
            "J": 144.4,
            "K": 134.13333333333333,
            "L": 122.06666666666666,
            "A": 109.26666666666667,
            "B": 97.92857142857143
        },
        "bus5": {
            "A": 102.8,
            "B": 94.93333333333334,
            "C": 87.66666666666667,
            "D": 80.46666666666667,
            "E": 78,
            "F": 101.53333333333333,
            "G": 137.93333333333334,
            "H": 147.53333333333333,
            "I": 144.6,
            "J": 138.4,
            "K": 131.26666666666668,
            "L": 121.42857142857143
        }
    },
    "Obs_and_actions_busses": {
        "0": 652.5124415385465,
        "3": 463.49272585210537,
        "6": 354.51942867394615,
        "5": 402.3652137441861,
        "2": 494.3365362201461,
        "1": 525.1121022546359,
        "4": 437.0021418760082
    },
    "Obs_and_actions_tfls": {
        "0": 39.630672566430334
    }
}