{
    "Average_holding_time": 25.83639705882353,
    "Average_travel_time_passengers": 2773.8534859842744,
    "Average_speed_busses": 0.04533333333333334,
    "Average_experienced_crowding": 112.01320842554242,
    "Average_covariation_headway": 0.30328045517414903,
    "Average_covariation_headway_stops": {
        "H": 0.18667464892569208,
        "K": 0.19790832305137135,
        "I": 0.17957155763302238,
        "F": 0.16698696105222455,
        "L": 0.19128702475316176,
        "D": 0.18916896903273828,
        "G": 0.15249247264620494,
        "B": 0.1957531779775925,
        "E": 0.16719973532483512,
        "A": 0.17287051662706648,
        "J": 0.18730176855871455,
        "C": 0.19249166313037278
    },
    "Average_excess_waiting_time": {
        "H": 62.65763705387059,
        "K": 65.47362026730781,
        "I": 63.2276911507754,
        "F": 60.2496978491381,
        "L": 62.241455815174675,
        "D": 63.63472151928295,
        "G": 60.33545459697882,
        "B": 62.623387610397174,
        "E": 62.58718212293752,
        "A": 61.980064496348575,
        "J": 65.52534721920802,
        "C": 65.17597433025321
    },
    "Holding_per_stop": {
        "H": 21.75824175824176,
        "I": 8.901098901098901,
        "L": 23.406593406593405,
        "F": 49.120879120879124,
        "D": 29.01098901098901,
        "K": 23.736263736263737,
        "B": 23.076923076923077,
        "G": 26.333333333333332,
        "E": 29,
        "A": 19.45054945054945,
        "J": 27.666666666666668,
        "C": 28.666666666666668
    },
    "Actions_tfl_edges": {
        "CD": [
            91,
            0,
            0
        ],
        "GH": [
            91,
            0,
            0
        ],
        "JK": [
            91,
            0,
            0
        ],
        "HI": [
            91,
            0,
            0
        ],
        "FG": [
            91,
            0,
            0
        ]
    },
    "Load_per_bus_per_stop": {
        "bus3": {
            "H": 125.3125,
            "I": 123.375,
            "J": 115.66666666666667,
            "K": 108.66666666666667,
            "L": 100,
            "A": 89.26666666666667,
            "B": 80.53333333333333,
            "C": 76.93333333333334,
            "D": 74.13333333333334,
            "E": 73.06666666666666,
            "F": 96.26666666666667,
            "G": 125.66666666666667
        },
        "bus4": {
            "K": 115.625,
            "L": 106.53333333333333,
            "A": 97.73333333333333,
            "B": 88.6,
            "C": 83.13333333333334,
            "D": 79.53333333333333,
            "E": 79.8,
            "F": 104.4,
            "G": 137.53333333333333,
            "H": 146,
            "I": 142.13333333333333,
            "J": 133.93333333333334
        },
        "bus2": {
            "F": 104,
            "G": 135.5625,
            "H": 144.26666666666668,
            "I": 139.53333333333333,
            "J": 134.13333333333333,
            "K": 124.46666666666667,
            "L": 112.6,
            "A": 101.26666666666667,
            "B": 90.73333333333333,
            "C": 85.86666666666666,
            "D": 83.93333333333334,
            "E": 83.66666666666667
        },
        "bus5": {
            "L": 98.5625,
            "A": 90.5625,
            "B": 80.53333333333333,
            "C": 76.4,
            "D": 73.53333333333333,
            "E": 71,
            "F": 92.86666666666666,
            "G": 125.66666666666667,
            "H": 131.8,
            "I": 129.06666666666666,
            "J": 121.73333333333333,
            "K": 113.26666666666667
        },
        "bus1": {
            "D": 80.0625,
            "E": 77.53333333333333,
            "F": 103.66666666666667,
            "G": 135,
            "H": 144.13333333333333,
            "I": 139.06666666666666,
            "J": 131.8,
            "K": 124.8,
            "L": 115.53333333333333,
            "A": 102.93333333333334,
            "B": 92.13333333333334,
            "C": 88.66666666666667
        },
        "bus0": {
            "B": 89.375,
            "C": 83.0625,
            "D": 82,
            "E": 81.46666666666667,
            "F": 105.66666666666667,
            "G": 140.06666666666666,
            "H": 146.93333333333334,
            "I": 143.73333333333332,
            "J": 136.8,
            "K": 127.86666666666666,
            "L": 117.93333333333334,
            "A": 108.73333333333333
        }
    }
}