{
    "Average_holding_time": 34.05714285714286,
    "Average_holding_actions": [
        650,
        114,
        89,
        39,
        30,
        70
    ],
    "Average_travel_time_passengers": 2867.6533738197554,
    "Average_passenger_waiting_time": 361.45235665301686,
    "Average_passenger_in_vehicle_time": 2506.2010171667057,
    "Average_speed_busses": 0.04375,
    "Average_experienced_crowding": 120.80024904511556,
    "Average_covariation_headway": 0.3601422829625375,
    "Average_covariation_headway_stops": {
        "H": 0.3035062845018601,
        "G": 0.2734056476061698,
        "J": 0.2758190667526695,
        "F": 0.2811578490839613,
        "E": 0.2955967476443522,
        "L": 0.2511454614519083,
        "I": 0.27965397321049223,
        "A": 0.2286829793134507,
        "K": 0.24615576835036657,
        "B": 0.23793447789377634,
        "C": 0.2507033782106131,
        "D": 0.28089090969764646
    },
    "Average_excess_waiting_time": {
        "H": 92.97492366278033,
        "G": 89.48973662250302,
        "J": 86.43295324600263,
        "F": 93.49544731688104,
        "E": 97.88227579945305,
        "L": 81.38871188054179,
        "I": 90.0384943233123,
        "A": 79.74698668137825,
        "K": 83.09963282603695,
        "B": 83.22463380474136,
        "C": 88.94239104909076,
        "D": 96.82395449717342
    },
    "Holding_per_stop": {
        "L": 27.97752808988764,
        "J": 28.636363636363637,
        "H": 22.5,
        "G": 22.413793103448278,
        "E": 45.172413793103445,
        "F": 75.51724137931035,
        "A": 34.09090909090909,
        "I": 15.681818181818182,
        "K": 22.5,
        "B": 33.793103448275865,
        "C": 36.55172413793103,
        "D": 44.651162790697676
    },
    "Actions_tfl_edges": {
        "FG": [
            88,
            0,
            0
        ],
        "GH": [
            88,
            0,
            0
        ],
        "JK": [
            88,
            0,
            0
        ],
        "HI": [
            88,
            0,
            0
        ],
        "CD": [
            87,
            0,
            0
        ]
    },
    "Load_per_bus_per_stop": {
        "bus3": {
            "H": 131,
            "I": 127.4,
            "J": 119.06666666666666,
            "K": 109.86666666666666,
            "L": 100.8,
            "A": 92.53333333333333,
            "B": 84,
            "C": 78.13333333333334,
            "D": 77.5,
            "E": 77.35714285714286,
            "F": 100.57142857142857,
            "G": 132.42857142857142
        },
        "bus2": {
            "G": 138.66666666666666,
            "H": 146.73333333333332,
            "I": 143.53333333333333,
            "J": 135.26666666666668,
            "K": 125.06666666666666,
            "L": 113.4,
            "A": 101.73333333333333,
            "B": 90.93333333333334,
            "C": 88.14285714285714,
            "D": 83.85714285714286,
            "E": 84,
            "F": 107.35714285714286
        },
        "bus4": {
            "J": 125.93333333333334,
            "K": 119.6,
            "L": 110.06666666666666,
            "A": 99.73333333333333,
            "B": 90.33333333333333,
            "C": 86.6,
            "D": 82.93333333333334,
            "E": 83.06666666666666,
            "F": 106.21428571428571,
            "G": 139.57142857142858,
            "H": 146.78571428571428,
            "I": 142.78571428571428
        },
        "bus1": {
            "F": 99.2,
            "G": 133.93333333333334,
            "H": 144.6,
            "I": 141.53333333333333,
            "J": 134.46666666666667,
            "K": 123.53333333333333,
            "L": 113.6,
            "A": 103.42857142857143,
            "B": 94.14285714285714,
            "C": 86.57142857142857,
            "D": 82.28571428571429,
            "E": 79.92857142857143
        },
        "bus0": {
            "E": 72.26666666666667,
            "F": 99.13333333333334,
            "G": 131.26666666666668,
            "H": 138.66666666666666,
            "I": 133.26666666666668,
            "J": 125.64285714285714,
            "K": 117.14285714285714,
            "L": 106.35714285714286,
            "A": 97.57142857142857,
            "B": 89.57142857142857,
            "C": 81.28571428571429,
            "D": 77.64285714285714
        },
        "bus5": {
            "L": 130.6,
            "A": 118.4,
            "B": 105,
            "C": 100.66666666666667,
            "D": 99.8,
            "E": 100.13333333333334,
            "F": 131.86666666666667,
            "G": 171.4,
            "H": 183.85714285714286,
            "I": 178.71428571428572,
            "J": 168.5,
            "K": 154.28571428571428
        }
    },
    "Obs_and_actions_busses": {
        "6": 319.02156038741765,
        "4": 436.7928745534078,
        "1": 526.0451198839636,
        "0": 678.1796398485142,
        "2": 496.44448750810767,
        "3": 465.6495464754685,
        "5": 406.22987157941725
    },
    "Obs_and_actions_tfls": {
        "0": 44.07012893306216
    }
}