{
    "Average_holding_time": 29.303621169916436,
    "Average_holding_actions": [
        695,
        120,
        76,
        41,
        26,
        43
    ],
    "Average_travel_time_passengers": 2783.875131959925,
    "Average_passenger_waiting_time": 339.63310339293054,
    "Average_passenger_in_vehicle_time": 2444.242028567008,
    "Average_speed_busses": 0.044875,
    "Average_experienced_crowding": 111.36928897439378,
    "Average_covariation_headway": 0.3092350043679221,
    "Average_covariation_headway_stops": {
        "G": 0.17854355517393805,
        "J": 0.2300311724162103,
        "H": 0.19215685011879843,
        "E": 0.17614144859247832,
        "K": 0.20600216284352296,
        "B": 0.21485269775540045,
        "C": 0.21418980299978624,
        "F": 0.16440655415460398,
        "I": 0.1772014086454108,
        "L": 0.19506536027521293,
        "D": 0.18375475566114913,
        "A": 0.1819597933245549
    },
    "Average_excess_waiting_time": {
        "G": 64.72897245432233,
        "J": 72.16563100241825,
        "H": 67.65968857905506,
        "E": 64.98991831006009,
        "K": 67.15456072587546,
        "B": 71.32101213038214,
        "C": 69.52534151427415,
        "F": 65.10766862990909,
        "I": 67.46408925597433,
        "L": 66.97162935764266,
        "D": 67.68853708535732,
        "A": 67.58886770163423
    },
    "Holding_per_stop": {
        "G": 11.333333333333334,
        "E": 46.333333333333336,
        "K": 19,
        "J": 30,
        "H": 16.666666666666668,
        "C": 36.666666666666664,
        "B": 34.666666666666664,
        "F": 51.333333333333336,
        "I": 6.404494382022472,
        "L": 30,
        "D": 36.741573033707866,
        "A": 32.359550561797754
    },
    "Actions_tfl_edges": {
        "FG": [
            90,
            0,
            0
        ],
        "JK": [
            91,
            0,
            0
        ],
        "GH": [
            90,
            0,
            0
        ],
        "HI": [
            90,
            0,
            0
        ],
        "CD": [
            90,
            0,
            0
        ]
    },
    "Load_per_bus_per_stop": {
        "bus3": {
            "G": 127.8,
            "H": 133.2,
            "I": 131.26666666666668,
            "J": 125.26666666666667,
            "K": 119.06666666666666,
            "L": 107.73333333333333,
            "A": 98.46666666666667,
            "B": 89.4,
            "C": 83.53333333333333,
            "D": 79.06666666666666,
            "E": 77.66666666666667,
            "F": 103.13333333333334
        },
        "bus4": {
            "J": 117.4,
            "K": 108.93333333333334,
            "L": 100.66666666666667,
            "A": 93.06666666666666,
            "B": 83.93333333333334,
            "C": 79.8,
            "D": 79.2,
            "E": 76.4,
            "F": 97.06666666666666,
            "G": 130.4,
            "H": 139.26666666666668,
            "I": 132.5
        },
        "bus2": {
            "E": 68.66666666666667,
            "F": 88.4,
            "G": 118.8,
            "H": 125.86666666666666,
            "I": 122.66666666666667,
            "J": 116.86666666666666,
            "K": 109,
            "L": 100.13333333333334,
            "A": 92.06666666666666,
            "B": 81.73333333333333,
            "C": 77.2,
            "D": 74.85714285714286
        },
        "bus5": {
            "K": 134.66666666666666,
            "L": 121.86666666666666,
            "A": 110.73333333333333,
            "B": 102.73333333333333,
            "C": 98.13333333333334,
            "D": 93.66666666666667,
            "E": 90.4,
            "F": 114.93333333333334,
            "G": 153,
            "H": 162.4,
            "I": 158.2,
            "J": 151.93333333333334
        },
        "bus0": {
            "B": 86.46666666666667,
            "C": 79.6,
            "D": 76.66666666666667,
            "E": 76.86666666666666,
            "F": 100.33333333333333,
            "G": 131.73333333333332,
            "H": 140.93333333333334,
            "I": 137.66666666666666,
            "J": 130.46666666666667,
            "K": 123.66666666666667,
            "L": 113.66666666666667,
            "A": 102.42857142857143
        },
        "bus1": {
            "C": 76.06666666666666,
            "D": 72.6,
            "E": 71.53333333333333,
            "F": 92.8,
            "G": 125.2,
            "H": 134.8,
            "I": 131.73333333333332,
            "J": 125.73333333333333,
            "K": 119,
            "L": 107.93333333333334,
            "A": 96.33333333333333,
            "B": 85.8
        }
    },
    "Obs_and_actions_busses": {
        "1": 525.7132580294713,
        "3": 464.7213485587227,
        "0": 654.0246445254013,
        "5": 408.30441754117595,
        "6": 351.7909357521939,
        "2": 495.66822199176465,
        "4": 435.95589090092295
    },
    "Obs_and_actions_tfls": {
        "0": 52.35787509731695
    }
}