{
    "Average_holding_time": 23.983440662373503,
    "Average_holding_actions": [
        597,
        331,
        0,
        61,
        0,
        0
    ],
    "Average_travel_time_passengers": 2158.6845220400633,
    "Average_passenger_waiting_time": 354.7803418689272,
    "Average_passenger_in_vehicle_time": 1803.9041801711237,
    "Average_speed_busses": 0.04529166666666667,
    "Average_experienced_crowding": 64.16395783216656,
    "Average_covariation_headway": 0.3558760581282366,
    "Average_covariation_headway_stops": {
        "I": 0.29868012862194937,
        "J": 0.3100635956146476,
        "G": 0.3064636158899212,
        "H": 0.2992456366830176,
        "E": 0.312716540849912,
        "L": 0.3161211541744053,
        "K": 0.2990838336027907,
        "A": 0.3095136856414098,
        "F": 0.30948940016470294,
        "B": 0.2924176579597332,
        "C": 0.2862702440799602,
        "D": 0.30177412617280597
    },
    "Average_excess_waiting_time": {
        "I": 80.0763654187594,
        "J": 80.25227363849865,
        "G": 84.9253060136785,
        "H": 81.20622741522368,
        "E": 87.04579577430547,
        "L": 80.94929442238998,
        "K": 79.6527287897922,
        "A": 82.15055330413918,
        "F": 88.77116758819074,
        "B": 80.5575599154617,
        "C": 83.12859944125682,
        "D": 86.63183412229802
    },
    "Holding_per_stop": {
        "J": 22.17391304347826,
        "I": 28.681318681318682,
        "H": 24.065934065934066,
        "L": 24.782608695652176,
        "G": 21.666666666666668,
        "E": 22.333333333333332,
        "K": 26.043956043956044,
        "A": 23.736263736263737,
        "F": 25.95505617977528,
        "B": 24.065934065934066,
        "C": 21.666666666666668,
        "D": 22.584269662921347
    },
    "Actions_tfl_edges": {
        "DE": [
            14,
            76,
            0
        ],
        "FG": [
            15,
            75,
            0
        ],
        "GH": [
            21,
            70,
            0
        ],
        "HI": [
            18,
            74,
            0
        ],
        "IJ": [
            11,
            81,
            0
        ],
        "KL": [
            17,
            75,
            0
        ],
        "JK": [
            13,
            79,
            0
        ],
        "LA": [
            13,
            79,
            0
        ],
        "EF": [
            18,
            72,
            0
        ],
        "AB": [
            7,
            84,
            0
        ],
        "BC": [
            10,
            81,
            0
        ],
        "CD": [
            15,
            75,
            0
        ]
    },
    "Load_per_bus_per_stop": {
        "bus3": {
            "I": 53.5625,
            "J": 53.75,
            "K": 55.2,
            "L": 55.46666666666667,
            "A": 55.666666666666664,
            "B": 55.4,
            "C": 57.46666666666667,
            "D": 57.733333333333334,
            "E": 58.266666666666666,
            "F": 57.8,
            "G": 55.733333333333334,
            "H": 56.733333333333334
        },
        "bus4": {
            "J": 47.5,
            "K": 49.125,
            "L": 49.3125,
            "A": 50.733333333333334,
            "B": 51.4,
            "C": 50.733333333333334,
            "D": 49.733333333333334,
            "E": 51.4,
            "F": 51,
            "G": 50.2,
            "H": 50.6,
            "I": 49.86666666666667
        },
        "bus1": {
            "G": 62.666666666666664,
            "H": 64.06666666666666,
            "I": 64.2,
            "J": 63.733333333333334,
            "K": 62.86666666666667,
            "L": 63,
            "A": 62.666666666666664,
            "B": 62.733333333333334,
            "C": 64.73333333333333,
            "D": 65.66666666666667,
            "E": 64.93333333333334,
            "F": 64.66666666666667
        },
        "bus2": {
            "H": 56.3125,
            "I": 56.53333333333333,
            "J": 56.733333333333334,
            "K": 56.733333333333334,
            "L": 57.6,
            "A": 58.266666666666666,
            "B": 59.733333333333334,
            "C": 60.93333333333333,
            "D": 63.2,
            "E": 63.266666666666666,
            "F": 60.06666666666667,
            "G": 58.6
        },
        "bus0": {
            "E": 55.266666666666666,
            "F": 56.266666666666666,
            "G": 59.266666666666666,
            "H": 62.46666666666667,
            "I": 63.333333333333336,
            "J": 65.4,
            "K": 66.66666666666667,
            "L": 67.46666666666667,
            "A": 63.666666666666664,
            "B": 63.53333333333333,
            "C": 63.13333333333333,
            "D": 60.57142857142857
        },
        "bus5": {
            "L": 64.125,
            "A": 64.9375,
            "B": 64.5,
            "C": 64.73333333333333,
            "D": 67.86666666666666,
            "E": 70.26666666666667,
            "F": 68.66666666666667,
            "G": 68.6,
            "H": 68.73333333333333,
            "I": 67.46666666666667,
            "J": 67.06666666666666,
            "K": 67.46666666666667
        }
    },
    "Obs_and_actions_busses": {
        "1": 117.53532681480736,
        "0": -180.8331709121106,
        "4": 229.28443860182637,
        "3": 382.24032397565526
    },
    "Obs_and_actions_tfls": {
        "0": 449.3009280545358,
        "1": 71.55743020853761
    }
}