{
    "Average_holding_time": 25.27340129749768,
    "Average_holding_actions": [
        565,
        337,
        0,
        41,
        0,
        0
    ],
    "Average_travel_time_passengers": 2169.7272486824136,
    "Average_passenger_waiting_time": 362.11961562839633,
    "Average_passenger_in_vehicle_time": 1807.6076330540047,
    "Average_speed_busses": 0.044958333333333336,
    "Average_experienced_crowding": 64.4114623884554,
    "Average_covariation_headway": 0.40308791459684923,
    "Average_covariation_headway_stops": {
        "K": 0.31818786334950955,
        "A": 0.3378365158244281,
        "H": 0.32272512824198923,
        "B": 0.32997366586397475,
        "L": 0.3310199854857829,
        "G": 0.32810489998118236,
        "I": 0.3014919393046909,
        "C": 0.31684211674390544,
        "J": 0.31913378785278623,
        "D": 0.30518116968781617,
        "E": 0.3150922804805001,
        "F": 0.3326952588820135
    },
    "Average_excess_waiting_time": {
        "K": 88.87481065351187,
        "A": 88.80375650974003,
        "H": 88.79919324267013,
        "B": 85.00438117111986,
        "L": 89.4268362541377,
        "G": 92.75352094427092,
        "I": 86.84937752391346,
        "C": 83.69199209415427,
        "J": 91.07800658791507,
        "D": 83.30742672487895,
        "E": 88.7226201049279,
        "F": 95.9623416699157
    },
    "Holding_per_stop": {
        "H": 24,
        "A": 28.681318681318682,
        "B": 25.054945054945055,
        "L": 23.333333333333332,
        "K": 24.666666666666668,
        "G": 25.617977528089888,
        "I": 23.258426966292134,
        "C": 26.043956043956044,
        "J": 25.280898876404493,
        "D": 26,
        "E": 25.333333333333332,
        "F": 25.95505617977528
    },
    "Actions_tfl_edges": {
        "AB": [
            12,
            80,
            0
        ],
        "FG": [
            17,
            73,
            0
        ],
        "GH": [
            16,
            74,
            0
        ],
        "JK": [
            21,
            69,
            0
        ],
        "KL": [
            19,
            72,
            0
        ],
        "LA": [
            20,
            71,
            0
        ],
        "HI": [
            15,
            75,
            0
        ],
        "BC": [
            13,
            78,
            0
        ],
        "IJ": [
            18,
            71,
            0
        ],
        "CD": [
            15,
            76,
            0
        ],
        "DE": [
            17,
            73,
            0
        ],
        "EF": [
            15,
            75,
            0
        ]
    },
    "Load_per_bus_per_stop": {
        "bus3": {
            "K": 60.13333333333333,
            "L": 61.2,
            "A": 61.86666666666667,
            "B": 60.86666666666667,
            "C": 60.733333333333334,
            "D": 61.53333333333333,
            "E": 60.53333333333333,
            "F": 62.333333333333336,
            "G": 63.6,
            "H": 62.46666666666667,
            "I": 63.666666666666664,
            "J": 62.42857142857143
        },
        "bus5": {
            "A": 40.9375,
            "B": 41.4375,
            "C": 40.13333333333333,
            "D": 41,
            "E": 43,
            "F": 43.6,
            "G": 44.666666666666664,
            "H": 44.6,
            "I": 44.2,
            "J": 44.06666666666667,
            "K": 44.333333333333336,
            "L": 45.333333333333336
        },
        "bus2": {
            "H": 58.333333333333336,
            "I": 59.53333333333333,
            "J": 61.2,
            "K": 60.733333333333334,
            "L": 62,
            "A": 65.4,
            "B": 68,
            "C": 70.66666666666667,
            "D": 70.8,
            "E": 68.33333333333333,
            "F": 67.73333333333333,
            "G": 66.26666666666667
        },
        "bus0": {
            "B": 62.8125,
            "C": 63.6875,
            "D": 62.6875,
            "E": 64.53333333333333,
            "F": 66.8,
            "G": 65.6,
            "H": 63.93333333333333,
            "I": 66.26666666666667,
            "J": 65.8,
            "K": 65.86666666666666,
            "L": 65,
            "A": 65.93333333333334
        },
        "bus4": {
            "L": 52.46666666666667,
            "A": 53.6,
            "B": 53.266666666666666,
            "C": 52.733333333333334,
            "D": 54,
            "E": 54.53333333333333,
            "F": 53.266666666666666,
            "G": 53.266666666666666,
            "H": 54.13333333333333,
            "I": 56.06666666666667,
            "J": 58.2,
            "K": 56.53333333333333
        },
        "bus1": {
            "G": 63.2,
            "H": 63.333333333333336,
            "I": 65.06666666666666,
            "J": 65,
            "K": 65.06666666666666,
            "L": 63.86666666666667,
            "A": 64.06666666666666,
            "B": 66.26666666666667,
            "C": 66.53333333333333,
            "D": 66.26666666666667,
            "E": 67.53333333333333,
            "F": 67.14285714285714
        }
    },
    "Obs_and_actions_busses": {
        "3": 369.73844777964035,
        "4": 228.08019661109157,
        "1": 112.41265483096193,
        "0": -203.56113144904222
    },
    "Obs_and_actions_tfls": {
        "1": 63.01668126368224,
        "0": 488.14939165992354
    }
}