{
    "Average_holding_time": 22.362132352941178,
    "Average_holding_actions": [
        599,
        352,
        0,
        48,
        0,
        0
    ],
    "Average_travel_time_passengers": 2142.66170914092,
    "Average_passenger_waiting_time": 340.3443043691655,
    "Average_passenger_in_vehicle_time": 1802.3174047717573,
    "Average_speed_busses": 0.04533333333333334,
    "Average_experienced_crowding": 61.81756250206834,
    "Average_covariation_headway": 0.3097171996183346,
    "Average_covariation_headway_stops": {
        "D": 0.22919624430052096,
        "I": 0.23158167207389463,
        "B": 0.23790013461347734,
        "G": 0.2400080307788223,
        "K": 0.21768606811162006,
        "E": 0.22784362798896235,
        "J": 0.22791533335046343,
        "H": 0.23668583981608243,
        "F": 0.24545631437960302,
        "L": 0.20471614132398633,
        "C": 0.21839045490729456,
        "A": 0.20457566870374885
    },
    "Average_excess_waiting_time": {
        "D": 69.17604015550734,
        "I": 68.45274407940292,
        "B": 70.65327197101755,
        "G": 70.08334387546591,
        "K": 66.83811576473562,
        "E": 66.6274317753714,
        "J": 70.1029575159344,
        "H": 71.55226886761778,
        "F": 71.40774167405789,
        "L": 67.0037669845434,
        "C": 71.2798903890029,
        "A": 68.13458033077734
    },
    "Holding_per_stop": {
        "I": 26.043956043956044,
        "G": 20.439560439560438,
        "D": 24.333333333333332,
        "K": 22.747252747252748,
        "B": 21.75824175824176,
        "E": 25.384615384615383,
        "J": 21.0989010989011,
        "H": 22.666666666666668,
        "F": 25.384615384615383,
        "L": 23.076923076923077,
        "C": 20,
        "A": 15.333333333333334
    },
    "Actions_tfl_edges": {
        "AB": [
            12,
            79,
            0
        ],
        "CD": [
            17,
            74,
            0
        ],
        "DE": [
            16,
            75,
            0
        ],
        "FG": [
            11,
            81,
            0
        ],
        "HI": [
            14,
            77,
            0
        ],
        "JK": [
            11,
            80,
            0
        ],
        "IJ": [
            16,
            75,
            0
        ],
        "GH": [
            12,
            79,
            0
        ],
        "KL": [
            12,
            79,
            0
        ],
        "BC": [
            12,
            79,
            0
        ],
        "EF": [
            12,
            79,
            0
        ],
        "LA": [
            10,
            80,
            0
        ]
    },
    "Load_per_bus_per_stop": {
        "bus1": {
            "D": 57.666666666666664,
            "E": 58.8,
            "F": 61.13333333333333,
            "G": 58.333333333333336,
            "H": 56.13333333333333,
            "I": 55.8,
            "J": 56.266666666666666,
            "K": 54.93333333333333,
            "L": 55.333333333333336,
            "A": 56.93333333333333,
            "B": 59.733333333333334,
            "C": 62.266666666666666
        },
        "bus4": {
            "I": 61.0625,
            "J": 60.3125,
            "K": 61.53333333333333,
            "L": 62.13333333333333,
            "A": 61,
            "B": 59.53333333333333,
            "C": 60.4,
            "D": 60.93333333333333,
            "E": 58.86666666666667,
            "F": 60.666666666666664,
            "G": 60.53333333333333,
            "H": 63.333333333333336
        },
        "bus0": {
            "B": 55.625,
            "C": 54.06666666666667,
            "D": 52.86666666666667,
            "E": 52.6,
            "F": 54.13333333333333,
            "G": 54.93333333333333,
            "H": 55.666666666666664,
            "I": 58.13333333333333,
            "J": 60.06666666666667,
            "K": 60,
            "L": 59.2,
            "A": 58.13333333333333
        },
        "bus3": {
            "G": 62.5,
            "H": 64.125,
            "I": 63.2,
            "J": 63.333333333333336,
            "K": 64.33333333333333,
            "L": 65.6,
            "A": 64.06666666666666,
            "B": 65,
            "C": 65,
            "D": 65.73333333333333,
            "E": 65.46666666666667,
            "F": 65.86666666666666
        },
        "bus5": {
            "K": 56.3125,
            "L": 59.5,
            "A": 59.8,
            "B": 60.266666666666666,
            "C": 61.86666666666667,
            "D": 63.6,
            "E": 65.13333333333334,
            "F": 64,
            "G": 64.8,
            "H": 64.13333333333334,
            "I": 62.6,
            "J": 61
        },
        "bus2": {
            "E": 50.8125,
            "F": 49.875,
            "G": 51.06666666666667,
            "H": 54.6,
            "I": 56.8,
            "J": 57.6,
            "K": 57.86666666666667,
            "L": 58.333333333333336,
            "A": 59.333333333333336,
            "B": 59,
            "C": 56.6,
            "D": 55.93333333333333
        }
    },
    "Obs_and_actions_busses": {
        "3": 328.85519801663656,
        "4": 228.5320824864607,
        "1": 109.84733133824636,
        "0": -154.73064784332675
    },
    "Obs_and_actions_tfls": {
        "1": 89.78462007564544,
        "0": 433.0150953479335
    }
}