{
    "Average_holding_time": 22.776752767527675,
    "Average_holding_actions": [
        581,
        359,
        0,
        32,
        0,
        0
    ],
    "Average_travel_time_passengers": 2136.509089421476,
    "Average_passenger_waiting_time": 345.49844816914526,
    "Average_passenger_in_vehicle_time": 1791.0106412523508,
    "Average_speed_busses": 0.04516666666666667,
    "Average_experienced_crowding": 62.896882881658655,
    "Average_covariation_headway": 0.3304664289366281,
    "Average_covariation_headway_stops": {
        "F": 0.2598388244121687,
        "A": 0.23899173946392244,
        "B": 0.23068347583736717,
        "L": 0.24569145829557212,
        "G": 0.2652796657088364,
        "J": 0.24702543062744511,
        "H": 0.24890942183399986,
        "K": 0.2464872725532874,
        "C": 0.22542244934681396,
        "I": 0.24555987483713126,
        "D": 0.21771998717217936,
        "E": 0.2386134254980845
    },
    "Average_excess_waiting_time": {
        "F": 75.13969177802664,
        "A": 71.07712292237994,
        "B": 68.50777326513582,
        "L": 73.32209505768981,
        "G": 74.14315333135482,
        "J": 74.00673629110332,
        "H": 75.686666312439,
        "K": 75.86897116449762,
        "C": 69.59451164172913,
        "I": 76.60197611768513,
        "D": 69.12911095647144,
        "E": 73.95794263681961
    },
    "Holding_per_stop": {
        "A": 22.087912087912088,
        "B": 26.043956043956044,
        "G": 21.0989010989011,
        "J": 24,
        "F": 20,
        "L": 25.666666666666668,
        "H": 20.333333333333332,
        "K": 28.666666666666668,
        "C": 22.087912087912088,
        "I": 22.666666666666668,
        "D": 19.666666666666668,
        "E": 21
    },
    "Actions_tfl_edges": {
        "AB": [
            14,
            78,
            0
        ],
        "EF": [
            14,
            77,
            0
        ],
        "FG": [
            13,
            78,
            0
        ],
        "IJ": [
            17,
            74,
            0
        ],
        "KL": [
            23,
            68,
            0
        ],
        "LA": [
            15,
            76,
            0
        ],
        "BC": [
            10,
            81,
            0
        ],
        "GH": [
            17,
            74,
            0
        ],
        "JK": [
            16,
            74,
            0
        ],
        "HI": [
            18,
            72,
            0
        ],
        "CD": [
            8,
            83,
            0
        ],
        "DE": [
            14,
            76,
            0
        ]
    },
    "Load_per_bus_per_stop": {
        "bus1": {
            "F": 58.266666666666666,
            "G": 56.8,
            "H": 56.13333333333333,
            "I": 57.06666666666667,
            "J": 55.86666666666667,
            "K": 57,
            "L": 58.06666666666667,
            "A": 59.93333333333333,
            "B": 60.93333333333333,
            "C": 62.46666666666667,
            "D": 63.13333333333333,
            "E": 62.733333333333334
        },
        "bus5": {
            "A": 60.125,
            "B": 61.733333333333334,
            "C": 63.666666666666664,
            "D": 63.666666666666664,
            "E": 61.2,
            "F": 58.266666666666666,
            "G": 58.06666666666667,
            "H": 58.333333333333336,
            "I": 61.333333333333336,
            "J": 60.8,
            "K": 62.733333333333334,
            "L": 62.8
        },
        "bus0": {
            "B": 59.9375,
            "C": 61,
            "D": 60.8,
            "E": 62.2,
            "F": 62.86666666666667,
            "G": 65.33333333333333,
            "H": 64.86666666666666,
            "I": 69,
            "J": 65.13333333333334,
            "K": 65.6,
            "L": 65.73333333333333,
            "A": 66.53333333333333
        },
        "bus4": {
            "L": 58.8,
            "A": 61.266666666666666,
            "B": 61,
            "C": 62.8,
            "D": 63.2,
            "E": 62.06666666666667,
            "F": 60.8,
            "G": 58.8,
            "H": 60.86666666666667,
            "I": 63.46666666666667,
            "J": 63.266666666666666,
            "K": 63.266666666666666
        },
        "bus2": {
            "G": 54.125,
            "H": 55.46666666666667,
            "I": 56.6,
            "J": 58,
            "K": 58.666666666666664,
            "L": 58.4,
            "A": 58.13333333333333,
            "B": 57.6,
            "C": 58.333333333333336,
            "D": 58.93333333333333,
            "E": 58.53333333333333,
            "F": 57.333333333333336
        },
        "bus3": {
            "J": 54.46666666666667,
            "K": 54.8,
            "L": 55.8,
            "A": 56.6,
            "B": 57.8,
            "C": 58.86666666666667,
            "D": 59.06666666666667,
            "E": 60.93333333333333,
            "F": 62.13333333333333,
            "G": 61.93333333333333,
            "H": 62,
            "I": 60.266666666666666
        }
    },
    "Obs_and_actions_busses": {
        "3": 342.15357750238434,
        "1": 116.90639755435919,
        "0": -179.64951687280995,
        "4": 229.14729813020512
    },
    "Obs_and_actions_tfls": {
        "1": 73.03971584472376,
        "0": 454.37305129110575
    }
}