{
    "Average_holding_time": 25.257249766136574,
    "Average_holding_actions": [
        588,
        296,
        1,
        50,
        0,
        0
    ],
    "Average_travel_time_passengers": 2180.63902934567,
    "Average_passenger_waiting_time": 357.90781319368887,
    "Average_passenger_in_vehicle_time": 1822.73121615198,
    "Average_speed_busses": 0.04454166666666667,
    "Average_experienced_crowding": 63.88202651431027,
    "Average_covariation_headway": 0.38810973449298786,
    "Average_covariation_headway_stops": {
        "K": 0.3119282449048582,
        "A": 0.3226958045063301,
        "D": 0.28983895831807693,
        "H": 0.3234984117493558,
        "I": 0.31093942262146557,
        "C": 0.299715519177825,
        "E": 0.2993315015761451,
        "J": 0.31092609631560264,
        "L": 0.3009824778534423,
        "B": 0.30002217852580815,
        "F": 0.30104636507353777,
        "G": 0.31419132101555686
    },
    "Average_excess_waiting_time": {
        "K": 88.80156940818637,
        "A": 91.85053447725244,
        "D": 83.53475595363233,
        "H": 93.44003257162649,
        "I": 89.11808462493366,
        "C": 87.46785240981802,
        "E": 86.82269448231312,
        "J": 90.73113905958633,
        "L": 89.52730129416898,
        "B": 89.69202124408321,
        "F": 89.35109853332614,
        "G": 93.79729541681706
    },
    "Holding_per_stop": {
        "D": 22.666666666666668,
        "K": 29.666666666666668,
        "A": 24.60674157303371,
        "I": 28.314606741573034,
        "H": 24.269662921348313,
        "C": 23.258426966292134,
        "E": 26.96629213483146,
        "J": 25.95505617977528,
        "L": 26.292134831460675,
        "B": 22.584269662921347,
        "F": 24.269662921348313,
        "G": 24.204545454545453
    },
    "Actions_tfl_edges": {
        "BC": [
            14,
            76,
            0
        ],
        "CD": [
            11,
            79,
            0
        ],
        "GH": [
            18,
            71,
            0
        ],
        "HI": [
            18,
            72,
            0
        ],
        "JK": [
            18,
            72,
            0
        ],
        "LA": [
            19,
            71,
            0
        ],
        "DE": [
            14,
            76,
            0
        ],
        "KL": [
            19,
            71,
            0
        ],
        "AB": [
            12,
            77,
            0
        ],
        "IJ": [
            15,
            74,
            0
        ],
        "EF": [
            15,
            74,
            0
        ],
        "FG": [
            14,
            75,
            0
        ]
    },
    "Load_per_bus_per_stop": {
        "bus4": {
            "K": 57.93333333333333,
            "L": 57.333333333333336,
            "A": 58.333333333333336,
            "B": 56.4,
            "C": 55.46666666666667,
            "D": 55.266666666666666,
            "E": 57.86666666666667,
            "F": 57.2,
            "G": 58.06666666666667,
            "H": 58.6,
            "I": 59.46666666666667,
            "J": 59.357142857142854
        },
        "bus5": {
            "A": 51.13333333333333,
            "B": 51.2,
            "C": 51.6,
            "D": 50.2,
            "E": 50.8,
            "F": 53.06666666666667,
            "G": 55.4,
            "H": 56,
            "I": 56,
            "J": 57.46666666666667,
            "K": 55.6,
            "L": 56.285714285714285
        },
        "bus1": {
            "D": 67.46666666666667,
            "E": 68.46666666666667,
            "F": 69.33333333333333,
            "G": 70.46666666666667,
            "H": 71,
            "I": 70.8,
            "J": 69.33333333333333,
            "K": 68.93333333333334,
            "L": 67.26666666666667,
            "A": 67.4,
            "B": 70,
            "C": 71.42857142857143
        },
        "bus2": {
            "H": 61.8,
            "I": 63.86666666666667,
            "J": 63.46666666666667,
            "K": 66,
            "L": 67.86666666666666,
            "A": 69,
            "B": 70.4,
            "C": 69.13333333333334,
            "D": 67.06666666666666,
            "E": 66.73333333333333,
            "F": 65.07142857142857,
            "G": 66.64285714285714
        },
        "bus3": {
            "I": 61.2,
            "J": 59.333333333333336,
            "K": 59.2,
            "L": 57.6,
            "A": 57.4,
            "B": 59.13333333333333,
            "C": 59.6,
            "D": 59.13333333333333,
            "E": 59.666666666666664,
            "F": 60.93333333333333,
            "G": 63.266666666666666,
            "H": 65.14285714285714
        },
        "bus0": {
            "C": 48.8,
            "D": 47.86666666666667,
            "E": 47.733333333333334,
            "F": 48.93333333333333,
            "G": 50.666666666666664,
            "H": 51,
            "I": 52.733333333333334,
            "J": 53.86666666666667,
            "K": 53.333333333333336,
            "L": 53.666666666666664,
            "A": 51.92857142857143,
            "B": 51.07142857142857
        }
    },
    "Obs_and_actions_busses": {
        "1": 113.07956288240415,
        "0": -193.49815824601905,
        "3": 404.93655127725606,
        "4": 230.18918573200182,
        "2": 28.527778723342635
    },
    "Obs_and_actions_tfls": {
        "1": 58.641885764502774,
        "0": 465.90983924298985
    }
}