{
    "Average_holding_time": 25.639374425023,
    "Average_holding_actions": [
        579,
        326,
        0,
        57,
        0,
        0
    ],
    "Average_travel_time_passengers": 2136.353031897362,
    "Average_passenger_waiting_time": 348.9916145695778,
    "Average_passenger_in_vehicle_time": 1787.3614173278095,
    "Average_speed_busses": 0.04529166666666667,
    "Average_experienced_crowding": 62.87190573677343,
    "Average_covariation_headway": 0.38151060380085644,
    "Average_covariation_headway_stops": {
        "K": 0.29969704523700674,
        "B": 0.29705747896096774,
        "L": 0.2990399728879005,
        "D": 0.3096774232135576,
        "H": 0.2984923299430274,
        "C": 0.30289072427817826,
        "A": 0.30088463116218217,
        "E": 0.2924594776648407,
        "I": 0.28358394660008746,
        "F": 0.29003216587031644,
        "J": 0.2680839672504059,
        "G": 0.28630485753257007
    },
    "Average_excess_waiting_time": {
        "K": 83.4462802744622,
        "B": 81.00410408209973,
        "L": 81.22820327365974,
        "D": 79.82972424010774,
        "H": 81.84037197482519,
        "C": 80.6040678819632,
        "A": 83.9816209632574,
        "E": 79.9238936814753,
        "I": 80.71486025789176,
        "F": 79.71291323509803,
        "J": 79.51577674744954,
        "G": 81.6151009002952
    },
    "Holding_per_stop": {
        "D": 26.73913043478261,
        "L": 21.75824175824176,
        "C": 26.373626373626372,
        "K": 25,
        "B": 25.714285714285715,
        "H": 25.384615384615383,
        "A": 22,
        "E": 24.725274725274726,
        "I": 29.333333333333332,
        "F": 28.333333333333332,
        "J": 25.333333333333332,
        "G": 27
    },
    "Actions_tfl_edges": {
        "AB": [
            14,
            77,
            0
        ],
        "BC": [
            13,
            79,
            0
        ],
        "CD": [
            12,
            80,
            0
        ],
        "GH": [
            15,
            75,
            1
        ],
        "JK": [
            17,
            74,
            0
        ],
        "KL": [
            16,
            75,
            0
        ],
        "DE": [
            11,
            81,
            0
        ],
        "LA": [
            16,
            75,
            0
        ],
        "HI": [
            15,
            76,
            0
        ],
        "EF": [
            16,
            75,
            0
        ],
        "IJ": [
            12,
            78,
            0
        ],
        "FG": [
            17,
            72,
            1
        ]
    },
    "Load_per_bus_per_stop": {
        "bus4": {
            "K": 60,
            "L": 61.46666666666667,
            "A": 60.93333333333333,
            "B": 58.53333333333333,
            "C": 57.733333333333334,
            "D": 58.333333333333336,
            "E": 60.8,
            "F": 59.06666666666667,
            "G": 61.8,
            "H": 61.666666666666664,
            "I": 63.06666666666667,
            "J": 62.266666666666666
        },
        "bus0": {
            "B": 52.4375,
            "C": 50.13333333333333,
            "D": 50.4,
            "E": 52.266666666666666,
            "F": 53.53333333333333,
            "G": 53.6,
            "H": 55.6,
            "I": 55.86666666666667,
            "J": 55,
            "K": 54.4,
            "L": 53.86666666666667,
            "A": 54.2
        },
        "bus5": {
            "L": 58.3125,
            "A": 58.53333333333333,
            "B": 57.13333333333333,
            "C": 57.333333333333336,
            "D": 55.733333333333334,
            "E": 56,
            "F": 59.53333333333333,
            "G": 59,
            "H": 59.8,
            "I": 60.86666666666667,
            "J": 60.53333333333333,
            "K": 62.13333333333333
        },
        "bus2": {
            "D": 59.4375,
            "E": 58.375,
            "F": 57.2,
            "G": 58.733333333333334,
            "H": 60.733333333333334,
            "I": 61.4,
            "J": 60,
            "K": 63.86666666666667,
            "L": 64.66666666666667,
            "A": 64.53333333333333,
            "B": 63.93333333333333,
            "C": 64
        },
        "bus3": {
            "H": 59.5,
            "I": 58.93333333333333,
            "J": 57.6,
            "K": 59.46666666666667,
            "L": 59.86666666666667,
            "A": 58.86666666666667,
            "B": 60.733333333333334,
            "C": 61.13333333333333,
            "D": 64.33333333333333,
            "E": 65.06666666666666,
            "F": 63.2,
            "G": 63.8
        },
        "bus1": {
            "C": 55.9375,
            "D": 55.9375,
            "E": 55.733333333333334,
            "F": 57.733333333333334,
            "G": 61.46666666666667,
            "H": 61.6,
            "I": 63.666666666666664,
            "J": 62.93333333333333,
            "K": 63.06666666666667,
            "L": 63.13333333333333,
            "A": 61.266666666666666,
            "B": 60.46666666666667
        }
    },
    "Obs_and_actions_busses": {
        "3": 386.931590670442,
        "1": 117.74015763892876,
        "0": -200.23340533684382,
        "4": 233.81129808922717
    },
    "Obs_and_actions_tfls": {
        "1": 73.591988707804,
        "0": 453.95347076413736,
        "2": -762.2689833708941
    }
}