{
    "Average_holding_time": 14.384279475982533,
    "Average_holding_actions": [
        707,
        401,
        0,
        37,
        0,
        0
    ],
    "Average_travel_time_passengers": 2023.8431087288727,
    "Average_passenger_waiting_time": 327.2139999476336,
    "Average_passenger_in_vehicle_time": 1696.629108781231,
    "Average_speed_busses": 0.04770833333333333,
    "Average_experienced_crowding": 57.97313253916646,
    "Average_covariation_headway": 0.3204116548167307,
    "Average_covariation_headway_stops": {
        "E": 0.26010253889210605,
        "J": 0.2206430269563383,
        "D": 0.26929948301064716,
        "F": 0.2495469413630524,
        "L": 0.22677382442428762,
        "H": 0.24633804708913082,
        "G": 0.24149762664207552,
        "K": 0.2135192417071609,
        "A": 0.20620705504758097,
        "I": 0.2315533914799909,
        "B": 0.21562911073374308,
        "C": 0.24499365867109574
    },
    "Average_excess_waiting_time": {
        "E": 56.527752955336666,
        "J": 50.84634070195551,
        "D": 59.72373483676171,
        "F": 54.25448383718651,
        "L": 50.75907861333002,
        "H": 53.500662908641914,
        "G": 55.04654067297599,
        "K": 50.78864268511825,
        "A": 49.60930178852095,
        "I": 52.97185843956265,
        "B": 51.43341650673278,
        "C": 57.60694916285888
    },
    "Holding_per_stop": {
        "J": 11.875,
        "E": 14.6875,
        "F": 12.1875,
        "L": 13.4375,
        "D": 16.42105263157895,
        "H": 12.5,
        "G": 15.473684210526315,
        "K": 13.578947368421053,
        "A": 14.526315789473685,
        "I": 14.210526315789474,
        "B": 17.68421052631579,
        "C": 16.105263157894736
    },
    "Actions_tfl_edges": {
        "CD": [
            25,
            36,
            35
        ],
        "DE": [
            21,
            34,
            41
        ],
        "EF": [
            20,
            35,
            42
        ],
        "GH": [
            24,
            30,
            42
        ],
        "IJ": [
            25,
            30,
            41
        ],
        "KL": [
            26,
            32,
            38
        ],
        "JK": [
            23,
            32,
            41
        ],
        "FG": [
            29,
            33,
            34
        ],
        "LA": [
            22,
            29,
            45
        ],
        "HI": [
            25,
            35,
            36
        ],
        "AB": [
            21,
            29,
            45
        ],
        "BC": [
            21,
            30,
            44
        ]
    },
    "Load_per_bus_per_stop": {
        "bus1": {
            "E": 55.625,
            "F": 56.125,
            "G": 57.375,
            "H": 56,
            "I": 56.25,
            "J": 56.4375,
            "K": 57.375,
            "L": 59,
            "A": 58,
            "B": 57.375,
            "C": 57,
            "D": 57.666666666666664
        },
        "bus4": {
            "J": 53.25,
            "K": 53.3125,
            "L": 52.875,
            "A": 53.3125,
            "B": 54.875,
            "C": 54.0625,
            "D": 52.75,
            "E": 53.75,
            "F": 54.875,
            "G": 54.875,
            "H": 55.75,
            "I": 56.625
        },
        "bus0": {
            "D": 58.25,
            "E": 59.875,
            "F": 60,
            "G": 61.25,
            "H": 59.5625,
            "I": 58.5,
            "J": 61.125,
            "K": 59.3125,
            "L": 58.4375,
            "A": 61.0625,
            "B": 58.6,
            "C": 60.93333333333333
        },
        "bus2": {
            "F": 50.9375,
            "G": 50.875,
            "H": 50.6875,
            "I": 50.5625,
            "J": 50.375,
            "K": 50.875,
            "L": 51.0625,
            "A": 53.375,
            "B": 53,
            "C": 52.875,
            "D": 54.3125,
            "E": 54.25
        },
        "bus5": {
            "L": 55.625,
            "A": 57.8125,
            "B": 58.9375,
            "C": 59.875,
            "D": 58.625,
            "E": 58.375,
            "F": 58.125,
            "G": 58.125,
            "H": 59.0625,
            "I": 60.75,
            "J": 61,
            "K": 59.86666666666667
        },
        "bus3": {
            "H": 51.1875,
            "I": 52,
            "J": 51.8125,
            "K": 52.75,
            "L": 51.6875,
            "A": 52.4375,
            "B": 52.875,
            "C": 55,
            "D": 52.75,
            "E": 51.8125,
            "F": 53.25,
            "G": 54.8
        }
    },
    "Obs_and_actions_busses": {
        "1": 146.16612803514832,
        "0": -119.97958494542169,
        "4": 344.8994800396232
    },
    "Obs_and_actions_tfls": {
        "1": 355.84724955348634,
        "0": -133.51458799686495,
        "2": 127.09407631969808
    }
}