{
    "Average_holding_time": 16.93717277486911,
    "Average_holding_actions": [
        646,
        451,
        0,
        49,
        0,
        0
    ],
    "Average_travel_time_passengers": 2052.2451834354774,
    "Average_passenger_waiting_time": 332.3290395140886,
    "Average_passenger_in_vehicle_time": 1719.9161439213917,
    "Average_speed_busses": 0.04775,
    "Average_experienced_crowding": 61.20757508018045,
    "Average_covariation_headway": 0.3735105876212002,
    "Average_covariation_headway_stops": {
        "E": 0.29111707199269876,
        "J": 0.2861059719417738,
        "G": 0.28073460271292866,
        "D": 0.2982174960857792,
        "C": 0.3013725273146175,
        "B": 0.2893441521441994,
        "K": 0.27730098721153873,
        "F": 0.2719934351796374,
        "H": 0.2691316261655104,
        "L": 0.27022321387834064,
        "I": 0.2740033185730646,
        "A": 0.2701028974545463
    },
    "Average_excess_waiting_time": {
        "E": 59.14721140224066,
        "J": 59.633553370937875,
        "G": 57.334586929668376,
        "D": 62.50109218629893,
        "C": 64.9189169200913,
        "B": 64.66586489249153,
        "K": 60.04621503635178,
        "F": 57.225063401383125,
        "H": 57.14035349487017,
        "L": 61.7464918799638,
        "I": 59.41424454675115,
        "A": 63.57949580387037
    },
    "Holding_per_stop": {
        "E": 20.3125,
        "J": 16.5625,
        "D": 18.4375,
        "G": 14.375,
        "C": 22.105263157894736,
        "B": 15.789473684210526,
        "K": 14.526315789473685,
        "F": 13.75,
        "H": 17.5,
        "L": 17.36842105263158,
        "I": 14.0625,
        "A": 18.51063829787234
    },
    "Actions_tfl_edges": {
        "AB": [
            22,
            33,
            40
        ],
        "BC": [
            23,
            35,
            38
        ],
        "CD": [
            21,
            40,
            35
        ],
        "DE": [
            20,
            37,
            40
        ],
        "FG": [
            22,
            37,
            38
        ],
        "IJ": [
            22,
            38,
            36
        ],
        "EF": [
            25,
            32,
            39
        ],
        "JK": [
            21,
            33,
            42
        ],
        "GH": [
            18,
            32,
            46
        ],
        "KL": [
            21,
            41,
            33
        ],
        "HI": [
            21,
            38,
            37
        ],
        "LA": [
            18,
            39,
            38
        ]
    },
    "Load_per_bus_per_stop": {
        "bus3": {
            "E": 59.9375,
            "F": 59.375,
            "G": 60.75,
            "H": 59,
            "I": 59.5,
            "J": 57.875,
            "K": 58.375,
            "L": 59.875,
            "A": 60.25,
            "B": 60.25,
            "C": 60.8125,
            "D": 62.5
        },
        "bus5": {
            "J": 63,
            "K": 64.5625,
            "L": 64.625,
            "A": 66.625,
            "B": 66.75,
            "C": 67.5,
            "D": 67.875,
            "E": 65.5,
            "F": 62.0625,
            "G": 62.0625,
            "H": 61,
            "I": 63.4375
        },
        "bus4": {
            "G": 55.6875,
            "H": 53.3125,
            "I": 55.4375,
            "J": 58.6875,
            "K": 59.1875,
            "L": 59.1875,
            "A": 58.375,
            "B": 57.3125,
            "C": 59.25,
            "D": 56.125,
            "E": 57.5625,
            "F": 58.875
        },
        "bus2": {
            "D": 48,
            "E": 48.9375,
            "F": 48.4375,
            "G": 49.875,
            "H": 50.3125,
            "I": 50.8125,
            "J": 53.25,
            "K": 53.6875,
            "L": 52.75,
            "A": 53.0625,
            "B": 52.1875,
            "C": 51.333333333333336
        },
        "bus1": {
            "C": 48.5625,
            "D": 50.4375,
            "E": 52.1875,
            "F": 52.9375,
            "G": 54.375,
            "H": 55.8125,
            "I": 58.1875,
            "J": 57.625,
            "K": 58.3125,
            "L": 57.0625,
            "A": 56.8,
            "B": 55.333333333333336
        },
        "bus0": {
            "B": 50.8125,
            "C": 53.9375,
            "D": 54.8125,
            "E": 56.9375,
            "F": 56.375,
            "G": 55.9375,
            "H": 55.5625,
            "I": 52.75,
            "J": 50.5,
            "K": 50.4375,
            "L": 51.06666666666667,
            "A": 53.06666666666667
        }
    },
    "Obs_and_actions_busses": {
        "0": -153.7001954054069,
        "1": 149.1246057014562,
        "4": 345.5361809129405
    },
    "Obs_and_actions_tfls": {
        "1": 344.415383494521,
        "0": -200.74672514469376,
        "2": 130.2444189976565
    }
}