{
    "Average_holding_time": 17.097345132743364,
    "Average_holding_actions": [
        675,
        392,
        0,
        63,
        0,
        0
    ],
    "Average_travel_time_passengers": 2047.1274092321896,
    "Average_passenger_waiting_time": 330.3340112771707,
    "Average_passenger_in_vehicle_time": 1716.793397954974,
    "Average_speed_busses": 0.04708333333333333,
    "Average_experienced_crowding": 59.7117237666363,
    "Average_covariation_headway": 0.3390360822545973,
    "Average_covariation_headway_stops": {
        "A": 0.265044860055902,
        "H": 0.2623741782682786,
        "B": 0.2668224300716813,
        "C": 0.2703000433890077,
        "D": 0.26554908690973406,
        "I": 0.25713594025592107,
        "E": 0.24830114667971995,
        "J": 0.2461559462292995,
        "K": 0.25391318585155764,
        "F": 0.2599357620604407,
        "L": 0.2708256437524583,
        "G": 0.2587863990768214
    },
    "Average_excess_waiting_time": {
        "A": 63.405383154134654,
        "H": 60.94750860083548,
        "B": 62.02389334850244,
        "C": 60.99062793516987,
        "D": 57.77259776336598,
        "I": 59.922753184404144,
        "E": 56.62393035345758,
        "J": 59.85925595398459,
        "K": 62.869123169900035,
        "F": 60.82680301174662,
        "L": 67.3922829782677,
        "G": 62.270557577496845
    },
    "Holding_per_stop": {
        "B": 16.27659574468085,
        "C": 20.526315789473685,
        "D": 13.263157894736842,
        "I": 18.63157894736842,
        "A": 15.483870967741936,
        "H": 15.957446808510639,
        "E": 17.68421052631579,
        "J": 15,
        "K": 16.914893617021278,
        "F": 16.595744680851062,
        "L": 21.612903225806452,
        "G": 17.23404255319149
    },
    "Actions_tfl_edges": {
        "AB": [
            26,
            28,
            40
        ],
        "BC": [
            23,
            26,
            46
        ],
        "CD": [
            24,
            28,
            44
        ],
        "GH": [
            23,
            26,
            46
        ],
        "HI": [
            22,
            35,
            38
        ],
        "LA": [
            24,
            26,
            44
        ],
        "DE": [
            26,
            27,
            42
        ],
        "IJ": [
            26,
            33,
            36
        ],
        "EF": [
            27,
            26,
            42
        ],
        "JK": [
            21,
            38,
            35
        ],
        "KL": [
            22,
            37,
            35
        ],
        "FG": [
            19,
            32,
            43
        ]
    },
    "Load_per_bus_per_stop": {
        "bus5": {
            "A": 55.4375,
            "B": 58.5625,
            "C": 59.3125,
            "D": 59,
            "E": 58.875,
            "F": 58.8125,
            "G": 59.1875,
            "H": 57.4375,
            "I": 57.06666666666667,
            "J": 58.53333333333333,
            "K": 58.13333333333333,
            "L": 59.53333333333333
        },
        "bus3": {
            "H": 55.6875,
            "I": 58,
            "J": 59.4375,
            "K": 60.5,
            "L": 59.9375,
            "A": 59.75,
            "B": 60.375,
            "C": 60,
            "D": 59,
            "E": 58.53333333333333,
            "F": 56.733333333333334,
            "G": 56.06666666666667
        },
        "bus0": {
            "B": 51.25,
            "C": 50.9375,
            "D": 52.5625,
            "E": 53.25,
            "F": 53.1875,
            "G": 53.125,
            "H": 54.375,
            "I": 53.0625,
            "J": 53.733333333333334,
            "K": 52.46666666666667,
            "L": 51.4,
            "A": 53.333333333333336
        },
        "bus1": {
            "C": 52.125,
            "D": 51.75,
            "E": 50.9375,
            "F": 51.25,
            "G": 51.3125,
            "H": 49.4375,
            "I": 50.6875,
            "J": 52.8125,
            "K": 53.8125,
            "L": 55.266666666666666,
            "A": 54.8,
            "B": 54.86666666666667
        },
        "bus2": {
            "D": 52.125,
            "E": 51.5625,
            "F": 52.4375,
            "G": 54.375,
            "H": 54.625,
            "I": 55.625,
            "J": 56.6875,
            "K": 58.5625,
            "L": 58.25,
            "A": 56.266666666666666,
            "B": 55.733333333333334,
            "C": 56
        },
        "bus4": {
            "I": 59.5625,
            "J": 60.3125,
            "K": 61.375,
            "L": 62.5,
            "A": 65.6875,
            "B": 66.75,
            "C": 66.75,
            "D": 67.3125,
            "E": 65.8125,
            "F": 66.0625,
            "G": 65.86666666666666,
            "H": 64.86666666666666
        }
    },
    "Obs_and_actions_busses": {
        "4": 398.82806989453815,
        "0": -146.9335964362674,
        "1": 152.45951314730385
    },
    "Obs_and_actions_tfls": {
        "2": 119.32804135480106,
        "1": 373.33872662270744,
        "0": -181.5812218808739
    }
}