{
    "Average_holding_time": 12.91304347826087,
    "Average_travel_time_passengers": 2668.1935585838864,
    "Average_speed_busses": 0.04791666666666667,
    "Average_experienced_crowding": 84.56087783182443,
    "Average_covariation_headway": 0.44872274785755684,
    "Average_covariation_headway_stops": {
        "I": 0.35650897513042495,
        "E": 0.3322612752745262,
        "L": 0.3337816120921147,
        "K": 0.3197906540733418,
        "C": 0.3296592303522791,
        "F": 0.3365582311858784,
        "A": 0.3148615195831291,
        "D": 0.305759102861859,
        "G": 0.32230693546032635,
        "J": 0.3232840819414215,
        "B": 0.3267827336466191,
        "H": 0.3329208547683595
    },
    "Average_excess_waiting_time": {
        "I": 73.48931843481643,
        "E": 67.98123707976981,
        "L": 67.35597965397517,
        "K": 66.97680422031641,
        "C": 68.08670867866573,
        "F": 66.8605160079868,
        "A": 65.21624064474668,
        "D": 65.04103183710987,
        "G": 65.83950819582964,
        "J": 67.80002273234271,
        "B": 69.62029557210991,
        "H": 69.75747590653691
    },
    "Holding_per_stop": {
        "L": 15.9375,
        "F": 8.041237113402062,
        "C": 18.125,
        "I": 21.5625,
        "E": 15.9375,
        "K": 13.125,
        "A": 12.8125,
        "D": 9.157894736842104,
        "G": 12.5,
        "J": 10.105263157894736,
        "B": 8.526315789473685,
        "H": 9.0625
    },
    "Load_per_bus_per_stop": {
        "bus3": {
            "I": 65.9375,
            "J": 66.9375,
            "K": 68,
            "L": 68.75,
            "A": 69.5625,
            "B": 69.1875,
            "C": 69.0625,
            "D": 67.875,
            "E": 69.625,
            "F": 69.375,
            "G": 69.625,
            "H": 71
        },
        "bus1": {
            "E": 64.8125,
            "F": 66.5625,
            "G": 67.5,
            "H": 69.375,
            "I": 69.0625,
            "J": 69.8125,
            "K": 68.625,
            "L": 68.75,
            "A": 70.0625,
            "B": 70.4375,
            "C": 70.625,
            "D": 71
        },
        "bus5": {
            "L": 88.3125,
            "A": 91.1875,
            "B": 93.0625,
            "C": 92.0625,
            "D": 90.4375,
            "E": 90.875,
            "F": 91.5,
            "G": 93.0625,
            "H": 93.0625,
            "I": 92.4375,
            "J": 92.8125,
            "K": 94.875
        },
        "bus4": {
            "K": 77.5625,
            "L": 79.1875,
            "A": 75.6875,
            "B": 74.3125,
            "C": 73.9375,
            "D": 74.3125,
            "E": 74.9375,
            "F": 78.375,
            "G": 81.5,
            "H": 80.625,
            "I": 80.5625,
            "J": 80.625
        },
        "bus0": {
            "C": 79.875,
            "D": 80.1875,
            "E": 82.125,
            "F": 82.375,
            "G": 81.8125,
            "H": 80.4375,
            "I": 81.875,
            "J": 83.125,
            "K": 83.6875,
            "L": 83.375,
            "A": 82.0625,
            "B": 83.4
        },
        "bus2": {
            "F": 79.47058823529412,
            "G": 81.75,
            "H": 82.4375,
            "I": 82.5625,
            "J": 82.625,
            "K": 83.0625,
            "L": 82.125,
            "A": 82.1875,
            "B": 79.8125,
            "C": 80.9375,
            "D": 81.875,
            "E": 83.5625
        }
    }
}