{
    "Average_holding_time": 16.701570680628272,
    "Average_travel_time_passengers": 2652.5184667006806,
    "Average_speed_busses": 0.04775,
    "Average_experienced_crowding": 79.67750000041768,
    "Average_covariation_headway": 0.3543580287781003,
    "Average_covariation_headway_stops": {
        "K": 0.24812459436273068,
        "J": 0.2631646886614403,
        "A": 0.2462779048091735,
        "I": 0.26253998713935195,
        "F": 0.25882956267649065,
        "D": 0.25199894561345476,
        "L": 0.2393350420678166,
        "G": 0.2716909730252979,
        "B": 0.254048629451329,
        "E": 0.2504344095308067,
        "C": 0.2688487721883377,
        "H": 0.2684320213212449
    },
    "Average_excess_waiting_time": {
        "K": 52.33194728917982,
        "J": 56.06916323657305,
        "A": 51.67403112358494,
        "I": 57.82545616870851,
        "F": 56.01903164568182,
        "D": 55.21327603739735,
        "L": 53.425273429950266,
        "G": 60.10724638335455,
        "B": 55.29960915000777,
        "E": 58.14457265049458,
        "C": 59.703673120165774,
        "H": 61.38065618738642
    },
    "Holding_per_stop": {
        "K": 14.375,
        "J": 21.25,
        "A": 10.9375,
        "F": 18.31578947368421,
        "D": 10.625,
        "I": 22.736842105263158,
        "L": 12.5,
        "G": 24.63157894736842,
        "B": 15.3125,
        "E": 10.105263157894736,
        "C": 20.526315789473685,
        "H": 19.263157894736842
    },
    "Load_per_bus_per_stop": {
        "bus4": {
            "K": 74.0625,
            "L": 72.6875,
            "A": 73.4375,
            "B": 74.875,
            "C": 74,
            "D": 74.6875,
            "E": 76.6875,
            "F": 76.5625,
            "G": 77.0625,
            "H": 78.25,
            "I": 77.125,
            "J": 78
        },
        "bus3": {
            "J": 79.1875,
            "K": 79.3125,
            "L": 77.5625,
            "A": 79.3125,
            "B": 79.75,
            "C": 79.0625,
            "D": 79.125,
            "E": 79.75,
            "F": 81.25,
            "G": 83.125,
            "H": 83.25,
            "I": 83.26666666666667
        },
        "bus5": {
            "A": 74.3125,
            "B": 76,
            "C": 75.6875,
            "D": 76.3125,
            "E": 78.5,
            "F": 77.1875,
            "G": 78.8125,
            "H": 79,
            "I": 79.875,
            "J": 79.125,
            "K": 80.9375,
            "L": 80.3125
        },
        "bus2": {
            "I": 76.3125,
            "J": 77.4375,
            "K": 78.3125,
            "L": 80,
            "A": 84.1875,
            "B": 86.125,
            "C": 87.25,
            "D": 87.25,
            "E": 85.875,
            "F": 83.46666666666667,
            "G": 82.46666666666667,
            "H": 82.46666666666667
        },
        "bus1": {
            "F": 71.4375,
            "G": 72.6875,
            "H": 73.875,
            "I": 74.5,
            "J": 73.5,
            "K": 75.625,
            "L": 77.3125,
            "A": 78.1875,
            "B": 78.125,
            "C": 78,
            "D": 76.75,
            "E": 76.4
        },
        "bus0": {
            "D": 65.6875,
            "E": 67.875,
            "F": 68.0625,
            "G": 70.4375,
            "H": 69.125,
            "I": 69.25,
            "J": 69.8125,
            "K": 67.75,
            "L": 66.875,
            "A": 68.4375,
            "B": 70.1875,
            "C": 69
        }
    }
}