{
    "Average_holding_time": 12.853425845620121,
    "Average_travel_time_passengers": 2687.120946934282,
    "Average_speed_busses": 0.04804166666666667,
    "Average_experienced_crowding": 84.48380655820563,
    "Average_covariation_headway": 0.4387826889592818,
    "Average_covariation_headway_stops": {
        "G": 0.3104569026321757,
        "J": 0.32063252962955757,
        "H": 0.30857021520383826,
        "B": 0.3303911733511055,
        "E": 0.32207429462869924,
        "I": 0.3054916231548758,
        "C": 0.32200832556176245,
        "F": 0.30855799011403934,
        "K": 0.32704173103392925,
        "L": 0.33781937083689706,
        "D": 0.33616945354269717,
        "A": 0.33734538619968457
    },
    "Average_excess_waiting_time": {
        "G": 63.95957451187559,
        "J": 60.04173262882307,
        "H": 61.67883892662263,
        "B": 69.82685512696463,
        "E": 67.95315583661221,
        "I": 59.05253558098531,
        "C": 67.63063229914962,
        "F": 65.4735157676576,
        "K": 63.947231068923884,
        "L": 67.69335524093253,
        "D": 72.29649094961286,
        "A": 70.09102133928462
    },
    "Holding_per_stop": {
        "J": 11.020408163265307,
        "H": 12.1875,
        "B": 12.947368421052632,
        "E": 12.1875,
        "I": 4.948453608247423,
        "G": 12.8125,
        "K": 16.701030927835053,
        "C": 12.31578947368421,
        "F": 13.894736842105264,
        "L": 16.082474226804123,
        "D": 19.263157894736842,
        "A": 10
    },
    "Load_per_bus_per_stop": {
        "bus2": {
            "G": 69.5,
            "H": 69.6875,
            "I": 70.875,
            "J": 71.1875,
            "K": 71.625,
            "L": 71.9375,
            "A": 70,
            "B": 71.3125,
            "C": 72.125,
            "D": 72.5625,
            "E": 72.5625,
            "F": 73.66666666666667
        },
        "bus5": {
            "J": 89.88235294117646,
            "K": 90.17647058823529,
            "L": 91.05882352941177,
            "A": 94.6875,
            "B": 96.8125,
            "C": 99.1875,
            "D": 98.75,
            "E": 100,
            "F": 98.25,
            "G": 97.375,
            "H": 96.6875,
            "I": 95.1875
        },
        "bus3": {
            "H": 52.25,
            "I": 50.8125,
            "J": 52.4375,
            "K": 52.9375,
            "L": 52.5625,
            "A": 53.5,
            "B": 55.625,
            "C": 55.4375,
            "D": 55.875,
            "E": 57.875,
            "F": 57.1875,
            "G": 55.6875
        },
        "bus0": {
            "B": 84.8125,
            "C": 84.6875,
            "D": 86.125,
            "E": 88.4375,
            "F": 87,
            "G": 85.875,
            "H": 85.3125,
            "I": 86.5625,
            "J": 88.5,
            "K": 88.875,
            "L": 88,
            "A": 87.625
        },
        "bus1": {
            "E": 90.625,
            "F": 91.0625,
            "G": 91.0625,
            "H": 93.6875,
            "I": 93.6875,
            "J": 96,
            "K": 96.25,
            "L": 96.5,
            "A": 97.25,
            "B": 98.5,
            "C": 94.86666666666666,
            "D": 94.73333333333333
        },
        "bus4": {
            "I": 68.23529411764706,
            "J": 68.29411764705883,
            "K": 69.4375,
            "L": 70.375,
            "A": 70.1875,
            "B": 70.625,
            "C": 68.8125,
            "D": 66.9375,
            "E": 69.125,
            "F": 69.75,
            "G": 69.0625,
            "H": 70.8125
        }
    }
}