{
    "Average_holding_time": 13.301642178046672,
    "Average_travel_time_passengers": 2656.0555180122774,
    "Average_speed_busses": 0.04820833333333333,
    "Average_experienced_crowding": 82.46382796881242,
    "Average_covariation_headway": 0.44266949725101856,
    "Average_covariation_headway_stops": {
        "J": 0.32679041588291385,
        "C": 0.335579811657386,
        "H": 0.3061109658468952,
        "K": 0.336929297522977,
        "L": 0.335646651266248,
        "E": 0.3343162991817026,
        "F": 0.33546186616294627,
        "A": 0.31835049647249414,
        "I": 0.3154107975378438,
        "D": 0.3572155408626289,
        "G": 0.30479418127091296,
        "B": 0.32545295908452737
    },
    "Average_excess_waiting_time": {
        "J": 64.86183140971991,
        "C": 63.6342906408795,
        "H": 62.1341027217851,
        "K": 65.60142375167419,
        "L": 63.89631052925017,
        "E": 65.80166518827201,
        "F": 67.61579240986146,
        "A": 60.17973892463624,
        "I": 66.89505200804973,
        "D": 70.46118363879202,
        "G": 63.99617877598638,
        "B": 63.23517022222018
    },
    "Holding_per_stop": {
        "K": 12.68041237113402,
        "L": 15.77319587628866,
        "E": 8.65979381443299,
        "J": 14.0625,
        "H": 13.125,
        "C": 11.443298969072165,
        "F": 13.125,
        "A": 8.041237113402062,
        "I": 11.368421052631579,
        "D": 21.34020618556701,
        "G": 17.36842105263158,
        "B": 12.68041237113402
    },
    "Load_per_bus_per_stop": {
        "bus3": {
            "J": 70.625,
            "K": 71.375,
            "L": 72.3125,
            "A": 71.75,
            "B": 74.25,
            "C": 75,
            "D": 76.375,
            "E": 74.8125,
            "F": 76.375,
            "G": 75.8125,
            "H": 76.75,
            "I": 76.0625
        },
        "bus0": {
            "C": 66.58823529411765,
            "D": 67.05882352941177,
            "E": 69.125,
            "F": 69.3125,
            "G": 69.0625,
            "H": 67.75,
            "I": 69.5,
            "J": 70.8125,
            "K": 71.6875,
            "L": 70.875,
            "A": 71.3125,
            "B": 69.5625
        },
        "bus2": {
            "H": 90.125,
            "I": 90.9375,
            "J": 92.8125,
            "K": 93.9375,
            "L": 94.4375,
            "A": 93.3125,
            "B": 94.4375,
            "C": 94.875,
            "D": 95.9375,
            "E": 96.3125,
            "F": 95.625,
            "G": 94.53333333333333
        },
        "bus4": {
            "K": 72.05882352941177,
            "L": 73.17647058823529,
            "A": 71.125,
            "B": 71.75,
            "C": 74.1875,
            "D": 73.4375,
            "E": 73.25,
            "F": 74.6875,
            "G": 75.1875,
            "H": 75.9375,
            "I": 76.875,
            "J": 76
        },
        "bus5": {
            "L": 63.11764705882353,
            "A": 62.529411764705884,
            "B": 66.05882352941177,
            "C": 65.23529411764706,
            "D": 64.75,
            "E": 67.25,
            "F": 67.625,
            "G": 69.375,
            "H": 69.4375,
            "I": 68.25,
            "J": 67.25,
            "K": 68.75
        },
        "bus1": {
            "E": 81.05882352941177,
            "F": 79.76470588235294,
            "G": 84.1875,
            "H": 83.625,
            "I": 82,
            "J": 80.5,
            "K": 80.3125,
            "L": 78.25,
            "A": 79.75,
            "B": 80.125,
            "C": 82.25,
            "D": 85.1875
        }
    }
}6.66666666666667
        }
    }
}       "L": 63.333333333333336,
            "A": 62
        }
    }
}