{
    "Average_holding_time": 18.508928571428573,
    "Average_travel_time_passengers": 2836.915610120703,
    "Average_speed_busses": 0.04666666666666667,
    "Average_experienced_crowding": 107.64838973192774,
    "Average_covariation_headway": 0.7612318321648384,
    "Average_covariation_headway_stops": {
        "G": 0.6301149736114153,
        "F": 0.6255249771484936,
        "B": 0.6311761434237042,
        "K": 0.6282375700223555,
        "E": 0.6252124554817013,
        "H": 0.6265043168211741,
        "C": 0.6223055025389241,
        "L": 0.6287078294793044,
        "I": 0.614549133633809,
        "D": 0.623987381062148,
        "A": 0.6253082781037179,
        "J": 0.6301282511101192
    },
    "Average_excess_waiting_time": {
        "G": 165.96698774231606,
        "F": 170.32889746775606,
        "B": 166.58930445645137,
        "K": 163.4795566424977,
        "E": 173.07289508807992,
        "H": 162.5152514711719,
        "C": 164.92519323085543,
        "L": 166.09804367527983,
        "I": 160.09679481364316,
        "D": 169.92680775599615,
        "A": 166.49932343182837,
        "J": 166.36679531354008
    },
    "Holding_per_stop": {
        "G": 17.096774193548388,
        "F": 17.741935483870968,
        "B": 20.425531914893618,
        "K": 18.829787234042552,
        "E": 20.869565217391305,
        "H": 19.46808510638298,
        "C": 17.096774193548388,
        "L": 20.425531914893618,
        "I": 15.638297872340425,
        "D": 18.387096774193548,
        "A": 18.387096774193548,
        "J": 17.741935483870968
    },
    "Load_per_bus_per_stop": {
        "bus3": {
            "G": 24,
            "H": 25.0625,
            "I": 25.4375,
            "J": 25.875,
            "K": 27.375,
            "L": 26.6875,
            "A": 25.1875,
            "B": 25.25,
            "C": 25.5,
            "D": 25.066666666666666,
            "E": 24.733333333333334,
            "F": 26.066666666666666
        },
        "bus2": {
            "F": 48.125,
            "G": 49.4375,
            "H": 49.25,
            "I": 48.3125,
            "J": 50.125,
            "K": 49.5,
            "L": 50.4375,
            "A": 51.375,
            "B": 51.6,
            "C": 52.86666666666667,
            "D": 52.06666666666667,
            "E": 51.53333333333333
        },
        "bus0": {
            "B": 125.1875,
            "C": 125.875,
            "D": 124.625,
            "E": 125.0625,
            "F": 125.75,
            "G": 125.33333333333333,
            "H": 125.6,
            "I": 126.6,
            "J": 129,
            "K": 130.33333333333334,
            "L": 131.8,
            "A": 132
        },
        "bus5": {
            "K": 118,
            "L": 117.75,
            "A": 118.0625,
            "B": 117.1875,
            "C": 116,
            "D": 116.3125,
            "E": 119.6,
            "F": 121.33333333333333,
            "G": 124.86666666666666,
            "H": 125.6,
            "I": 125.66666666666667,
            "J": 126.26666666666667
        },
        "bus1": {
            "E": 86.125,
            "F": 87.75,
            "G": 86.8125,
            "H": 87.375,
            "I": 90,
            "J": 90.26666666666667,
            "K": 90.86666666666666,
            "L": 92.13333333333334,
            "A": 93.33333333333333,
            "B": 92.26666666666667,
            "C": 93.66666666666667,
            "D": 93.26666666666667
        },
        "bus4": {
            "H": 58.6875,
            "I": 61,
            "J": 60.875,
            "K": 60.1875,
            "L": 60.125,
            "A": 60.5625,
            "B": 61.1875,
            "C": 60.3125,
            "D": 60.1875,
            "E": 62.266666666666666,
            "F": 61,
            "G": 61.13333333333333
        }
    }
}