{
    "Average_holding_time": 34.666666666666664,
    "Average_travel_time_passengers": 5246.683740056981,
    "Average_speed_busses": 0.031875,
    "Average_experienced_crowding": 410.75452227653676,
    "Average_covariation_headway": 1.6240222980762975,
    "Average_covariation_headway_stops": {
        "L": 1.7797133042124946,
        "D": 1.743533807055523,
        "K": 1.7714797793436183,
        "A": 1.806648625838495,
        "C": 1.7239030000468034,
        "H": 1.7763775409228657,
        "E": 1.7412739856528001,
        "B": 1.7360890897899752,
        "I": 1.7759121250697403,
        "F": 1.7508244136146505,
        "J": 1.7797567873797526,
        "G": 1.74063087209766
    },
    "Average_excess_waiting_time": {
        "L": 1563.3168679764447,
        "D": 1423.6958567555803,
        "K": 1555.080208318355,
        "A": 1598.7679747555408,
        "C": 1398.4735944680353,
        "H": 1527.9166943940727,
        "E": 1440.7989016067202,
        "B": 1634.3060943308108,
        "I": 1549.079857237581,
        "F": 1473.4360410921227,
        "J": 1576.7385358222664,
        "G": 1480.5103423846078
    },
    "Holding_per_stop": {
        "L": 36.81818181818182,
        "D": 37.61904761904762,
        "A": 29.55223880597015,
        "H": 32.8125,
        "K": 32.30769230769231,
        "C": 40.16129032258065,
        "E": 34.76190476190476,
        "B": 35.90163934426229,
        "I": 31.40625,
        "F": 34.76190476190476,
        "J": 30.46875,
        "G": 40
    },
    "Load_per_bus_per_stop": {
        "bus4": {
            "L": 387.45454545454544,
            "A": 398.72727272727275,
            "B": 407.72727272727275,
            "C": 358.7,
            "D": 366.3,
            "E": 371,
            "F": 373.3,
            "G": 380.2,
            "H": 389.9,
            "I": 398.4,
            "J": 403,
            "K": 414.9
        },
        "bus1": {
            "D": 39.18181818181818,
            "E": 39.09090909090909,
            "F": 37.63636363636363,
            "G": 38.54545454545455,
            "H": 38.81818181818182,
            "I": 38.81818181818182,
            "J": 37.90909090909091,
            "K": 38,
            "L": 40.36363636363637,
            "A": 39.36363636363637,
            "B": 42.8,
            "C": 42.1
        },
        "bus3": {
            "K": 48.36363636363637,
            "L": 48.18181818181818,
            "A": 48.90909090909091,
            "B": 48.6,
            "C": 48.3,
            "D": 49.6,
            "E": 49.4,
            "F": 50,
            "G": 50.2,
            "H": 51.8,
            "I": 51.8,
            "J": 51
        },
        "bus5": {
            "A": 87.25,
            "B": 95.63636363636364,
            "C": 95.81818181818181,
            "D": 96.36363636363636,
            "E": 96.54545454545455,
            "F": 96,
            "G": 95.45454545454545,
            "H": 94.18181818181819,
            "I": 91.9090909090909,
            "J": 91.36363636363636,
            "K": 94,
            "L": 96.36363636363636
        },
        "bus0": {
            "C": 41.63636363636363,
            "D": 40.54545454545455,
            "E": 43.09090909090909,
            "F": 43.63636363636363,
            "G": 43.36363636363637,
            "H": 45.45454545454545,
            "I": 44.72727272727273,
            "J": 46.09090909090909,
            "K": 45,
            "L": 44.72727272727273,
            "A": 43.09090909090909,
            "B": 47.2
        },
        "bus2": {
            "H": 38.72727272727273,
            "I": 37.81818181818182,
            "J": 38.54545454545455,
            "K": 38.27272727272727,
            "L": 38.36363636363637,
            "A": 39.18181818181818,
            "B": 43.1,
            "C": 45.2,
            "D": 45.1,
            "E": 42.2,
            "F": 43.1,
            "G": 43.9
        }
    }
}