{
    "Average_holding_time": 16.999117387466903,
    "Average_travel_time_passengers": 2783.989275583138,
    "Average_speed_busses": 0.04720833333333333,
    "Average_experienced_crowding": 97.62345059027301,
    "Average_covariation_headway": 0.6369682726901337,
    "Average_covariation_headway_stops": {
        "A": 0.5014654635940167,
        "B": 0.5217057200423822,
        "J": 0.5160261264169149,
        "G": 0.5244062530010936,
        "F": 0.5220728682563057,
        "I": 0.5139523922502092,
        "C": 0.5208755143247452,
        "H": 0.5029700201366556,
        "K": 0.5082411731005398,
        "D": 0.5183628442204223,
        "L": 0.5177835228013594,
        "E": 0.522539373029401
    },
    "Average_excess_waiting_time": {
        "A": 117.3447147776551,
        "B": 119.90637155272196,
        "J": 122.11325700293929,
        "G": 124.98363199403713,
        "F": 126.4335016908114,
        "I": 123.63413186133789,
        "C": 121.64249524846468,
        "H": 121.98369894509045,
        "K": 119.18973536753487,
        "D": 122.91964502878915,
        "L": 124.80903712673285,
        "E": 126.18741553969465
    },
    "Holding_per_stop": {
        "B": 15.473684210526315,
        "J": 13.263157894736842,
        "G": 21.157894736842106,
        "I": 17.5531914893617,
        "A": 11.68421052631579,
        "F": 15,
        "C": 17.36842105263158,
        "H": 20.322580645161292,
        "K": 13.72340425531915,
        "D": 19.57894736842105,
        "L": 19.148936170212767,
        "E": 19.78723404255319
    },
    "Load_per_bus_per_stop": {
        "bus5": {
            "A": 108,
            "B": 107.6875,
            "C": 106.3125,
            "D": 108.75,
            "E": 109.9375,
            "F": 111.1875,
            "G": 111.5625,
            "H": 112.8,
            "I": 112.53333333333333,
            "J": 114.13333333333334,
            "K": 113.53333333333333,
            "L": 113.6
        },
        "bus0": {
            "B": 101.375,
            "C": 104.0625,
            "D": 107.1875,
            "E": 106.5625,
            "F": 107.5,
            "G": 107.0625,
            "H": 108.1875,
            "I": 108.5,
            "J": 109.25,
            "K": 108.93333333333334,
            "L": 108.8,
            "A": 108.8
        },
        "bus4": {
            "J": 86.5625,
            "K": 86.375,
            "L": 86.125,
            "A": 85.6875,
            "B": 86.6875,
            "C": 89.9375,
            "D": 91.375,
            "E": 91.6875,
            "F": 90.375,
            "G": 89.6875,
            "H": 93.73333333333333,
            "I": 91.6
        },
        "bus2": {
            "G": 52.875,
            "H": 53.75,
            "I": 55.625,
            "J": 58,
            "K": 59.5,
            "L": 59.375,
            "A": 59.75,
            "B": 60.25,
            "C": 59.6875,
            "D": 58.6875,
            "E": 56.86666666666667,
            "F": 56.46666666666667
        },
        "bus1": {
            "F": 79.5,
            "G": 80.625,
            "H": 80.5,
            "I": 81.125,
            "J": 80.9375,
            "K": 81.125,
            "L": 80.5,
            "A": 81,
            "B": 80.6,
            "C": 83.13333333333334,
            "D": 80.93333333333334,
            "E": 83.26666666666667
        },
        "bus3": {
            "I": 25.5,
            "J": 26.375,
            "K": 26.6875,
            "L": 27.375,
            "A": 28.5,
            "B": 28.8125,
            "C": 29.3125,
            "D": 29.5,
            "E": 28.6875,
            "F": 26.533333333333335,
            "G": 26.666666666666668,
            "H": 26.466666666666665
        }
    }
}