{
    "Average_holding_time": 12.590673575129534,
    "Average_travel_time_passengers": 2711.4615809720162,
    "Average_speed_busses": 0.04825,
    "Average_experienced_crowding": 91.5675535350755,
    "Average_covariation_headway": 0.5875686853690334,
    "Average_covariation_headway_stops": {
        "K": 0.4359585651444561,
        "L": 0.4349232853863679,
        "B": 0.4517641747856645,
        "D": 0.4641160622011465,
        "G": 0.4717536786810242,
        "C": 0.4663813637107356,
        "A": 0.44195715428372784,
        "H": 0.4607035410965283,
        "E": 0.46445382325145546,
        "I": 0.45028024620600526,
        "F": 0.4625589823005339,
        "J": 0.44379838513322534
    },
    "Average_excess_waiting_time": {
        "K": 93.59870467452168,
        "L": 89.51127991037106,
        "B": 94.01060709349201,
        "D": 92.44484892006881,
        "G": 99.24179344632779,
        "C": 95.12714817099993,
        "A": 93.3532897236692,
        "H": 97.9452430760312,
        "E": 94.21079497211531,
        "I": 97.26316811013425,
        "F": 96.1862978847546,
        "J": 97.63593845324857
    },
    "Holding_per_stop": {
        "L": 11.25,
        "B": 12.061855670103093,
        "G": 13.29896907216495,
        "C": 13.29896907216495,
        "D": 11.020408163265307,
        "K": 12.1875,
        "A": 10.3125,
        "H": 12.1875,
        "E": 12.551020408163266,
        "I": 14.210526315789474,
        "F": 13.608247422680412,
        "J": 15.157894736842104
    },
    "Load_per_bus_per_stop": {
        "bus4": {
            "K": 86.875,
            "L": 87.125,
            "A": 88.5625,
            "B": 87.4375,
            "C": 87.3125,
            "D": 90.3125,
            "E": 91.3125,
            "F": 91.5625,
            "G": 90.125,
            "H": 88.5625,
            "I": 87,
            "J": 89.66666666666667
        },
        "bus5": {
            "L": 70.3125,
            "A": 69.8125,
            "B": 70.9375,
            "C": 71.8125,
            "D": 72.75,
            "E": 74.5625,
            "F": 75.875,
            "G": 75.875,
            "H": 76.1875,
            "I": 76.375,
            "J": 76.8125,
            "K": 76.5625
        },
        "bus0": {
            "B": 68.88235294117646,
            "C": 69.6875,
            "D": 70,
            "E": 70.375,
            "F": 71.375,
            "G": 72.25,
            "H": 74.3125,
            "I": 74.6875,
            "J": 74.5,
            "K": 75.1875,
            "L": 74.875,
            "A": 73.75
        },
        "bus2": {
            "D": 68.29411764705883,
            "E": 68.88235294117646,
            "F": 69.29411764705883,
            "G": 71.6875,
            "H": 71.25,
            "I": 71.1875,
            "J": 70.125,
            "K": 70.875,
            "L": 70.375,
            "A": 69.375,
            "B": 69.9375,
            "C": 71.4375
        },
        "bus3": {
            "G": 89.23529411764706,
            "H": 88.70588235294117,
            "I": 91,
            "J": 92.375,
            "K": 94.25,
            "L": 94.875,
            "A": 96,
            "B": 96,
            "C": 96.875,
            "D": 98.1875,
            "E": 96.375,
            "F": 95.3125
        },
        "bus1": {
            "C": 66.11764705882354,
            "D": 65.6470588235294,
            "E": 68.11764705882354,
            "F": 70.375,
            "G": 70.625,
            "H": 72,
            "I": 71.0625,
            "J": 70.25,
            "K": 70.0625,
            "L": 72.75,
            "A": 71.0625,
            "B": 70.375
        }
    }
}