{
    "Average_holding_time": 18.89487870619946,
    "Average_travel_time_passengers": 2884.6090228463913,
    "Average_speed_busses": 0.046375,
    "Average_experienced_crowding": 108.03574700923204,
    "Average_covariation_headway": 0.7311641828790538,
    "Average_covariation_headway_stops": {
        "H": 0.5814358561364469,
        "B": 0.598880621225563,
        "E": 0.5827037391192786,
        "F": 0.5730422825585723,
        "C": 0.5915390968606823,
        "J": 0.5852165985953017,
        "I": 0.5790517151360048,
        "G": 0.5806217706990339,
        "K": 0.6048135210104745,
        "D": 0.5931315970694668,
        "L": 0.5880874198029492,
        "A": 0.5819810778130384
    },
    "Average_excess_waiting_time": {
        "H": 151.43425167216077,
        "B": 157.89717970222534,
        "E": 149.8705802483925,
        "F": 148.05048757931291,
        "C": 152.9636075854781,
        "J": 149.83716463469415,
        "I": 152.82073784146615,
        "G": 153.2355037220492,
        "K": 159.4015367265473,
        "D": 156.44879865999542,
        "L": 155.16588548185393,
        "A": 153.9775758852229
    },
    "Holding_per_stop": {
        "H": 18.06451612903226,
        "F": 18.26086956521739,
        "C": 19.46808510638298,
        "E": 16.774193548387096,
        "J": 18.387096774193548,
        "B": 18.387096774193548,
        "I": 21.195652173913043,
        "G": 19.23913043478261,
        "K": 25.161290322580644,
        "D": 17.419354838709676,
        "L": 19.35483870967742,
        "A": 15
    },
    "Load_per_bus_per_stop": {
        "bus4": {
            "H": 18.375,
            "I": 18.375,
            "J": 19.6875,
            "K": 20.3125,
            "L": 21.3125,
            "A": 21.8125,
            "B": 22.1875,
            "C": 22.625,
            "D": 19.866666666666667,
            "E": 18.933333333333334,
            "F": 18.933333333333334,
            "G": 19.266666666666666
        },
        "bus0": {
            "B": 112.9375,
            "C": 111.5625,
            "D": 109.3125,
            "E": 109.125,
            "F": 119.66666666666667,
            "G": 122,
            "H": 122.86666666666666,
            "I": 124.93333333333334,
            "J": 125.13333333333334,
            "K": 123.06666666666666,
            "L": 122.46666666666667,
            "A": 120.4
        },
        "bus2": {
            "E": 80.125,
            "F": 79.75,
            "G": 79.75,
            "H": 80.125,
            "I": 81.3125,
            "J": 78,
            "K": 77.4,
            "L": 79.26666666666667,
            "A": 80,
            "B": 82.93333333333334,
            "C": 84.86666666666666,
            "D": 85.86666666666666
        },
        "bus3": {
            "F": 49.6875,
            "G": 50.625,
            "H": 52.6875,
            "I": 53.25,
            "J": 52.875,
            "K": 52.9375,
            "L": 54,
            "A": 50.8,
            "B": 50.4,
            "C": 50.8,
            "D": 51.8,
            "E": 50.93333333333333
        },
        "bus1": {
            "C": 112.625,
            "D": 113.8125,
            "E": 113.4375,
            "F": 111.26666666666667,
            "G": 111.86666666666666,
            "H": 112.53333333333333,
            "I": 113.13333333333334,
            "J": 112.13333333333334,
            "K": 112.8,
            "L": 117.2,
            "A": 116.73333333333333,
            "B": 116.8
        },
        "bus5": {
            "J": 99.125,
            "K": 100.6875,
            "L": 102.125,
            "A": 102.4375,
            "B": 103.5,
            "C": 101.375,
            "D": 100.5,
            "E": 99.3125,
            "F": 105.33333333333333,
            "G": 105.53333333333333,
            "H": 104.26666666666667,
            "I": 104.8
        }
    }
}