{
    "Average_holding_time": 16.56441717791411,
    "Average_travel_time_passengers": 2676.5686977901764,
    "Average_speed_busses": 0.04754166666666667,
    "Average_experienced_crowding": 82.48063543593778,
    "Average_covariation_headway": 0.41158991744530476,
    "Average_covariation_headway_stops": {
        "I": 0.32479320222951136,
        "J": 0.3057407226416499,
        "D": 0.31263139352244823,
        "E": 0.312259192595925,
        "L": 0.2953566648663328,
        "G": 0.316626289773206,
        "K": 0.2777693379622306,
        "F": 0.315981801025756,
        "H": 0.30504885497345163,
        "A": 0.2894868776086859,
        "B": 0.3154853188276367,
        "C": 0.30575146394844
    },
    "Average_excess_waiting_time": {
        "I": 68.2485232991528,
        "J": 62.37279222947484,
        "D": 69.907813051282,
        "E": 66.90179605231134,
        "L": 62.002036686647386,
        "G": 67.2466408578303,
        "K": 59.6493117844322,
        "F": 69.40815280716004,
        "H": 66.28981642573228,
        "A": 65.72499826629007,
        "B": 70.86123375127357,
        "C": 70.55722666774881
    },
    "Holding_per_stop": {
        "J": 19.0625,
        "E": 21.789473684210527,
        "L": 12.8125,
        "I": 21.5625,
        "G": 16.736842105263158,
        "D": 13.263157894736842,
        "K": 14.375,
        "F": 15.473684210526315,
        "H": 14.210526315789474,
        "A": 8.617021276595745,
        "B": 21.382978723404257,
        "C": 19.46808510638298
    },
    "Load_per_bus_per_stop": {
        "bus3": {
            "I": 79.5,
            "J": 81.25,
            "K": 81.75,
            "L": 80.5,
            "A": 81.875,
            "B": 82.75,
            "C": 84.25,
            "D": 85.25,
            "E": 84.75,
            "F": 84.6875,
            "G": 85.9375,
            "H": 83.93333333333334
        },
        "bus4": {
            "J": 67.3125,
            "K": 68.375,
            "L": 70.5625,
            "A": 69.8125,
            "B": 70.9375,
            "C": 73.3125,
            "D": 71.625,
            "E": 71.25,
            "F": 72.8125,
            "G": 72.5,
            "H": 71.1875,
            "I": 71.3125
        },
        "bus0": {
            "D": 65.25,
            "E": 66.0625,
            "F": 65.6875,
            "G": 65.8125,
            "H": 67.625,
            "I": 69.125,
            "J": 69.125,
            "K": 70.4375,
            "L": 70.0625,
            "A": 72.06666666666666,
            "B": 70.26666666666667,
            "C": 69.46666666666667
        },
        "bus1": {
            "E": 76.25,
            "F": 78.8125,
            "G": 78.625,
            "H": 80.25,
            "I": 80.6875,
            "J": 80.6875,
            "K": 80,
            "L": 80.5,
            "A": 80.5625,
            "B": 78.93333333333334,
            "C": 81.53333333333333,
            "D": 80.26666666666667
        },
        "bus5": {
            "L": 70.75,
            "A": 71.0625,
            "B": 71.375,
            "C": 70.4375,
            "D": 72.6875,
            "E": 72.4375,
            "F": 73.4375,
            "G": 73,
            "H": 73.5,
            "I": 74.125,
            "J": 73.4375,
            "K": 74.125
        },
        "bus2": {
            "G": 83.8125,
            "H": 85.1875,
            "I": 88.4375,
            "J": 90.1875,
            "K": 91.9375,
            "L": 92,
            "A": 90.75,
            "B": 89.5625,
            "C": 88.6875,
            "D": 89.625,
            "E": 87.4,
            "F": 87.13333333333334
        }
    }
}