{
    "Average_holding_time": 28.204868154158216,
    "Average_travel_time_passengers": 3268.9977038017437,
    "Average_speed_busses": 0.04108333333333333,
    "Average_experienced_crowding": 151.77824611028026,
    "Average_covariation_headway": 0.9663102060214389,
    "Average_covariation_headway_stops": {
        "K": 0.9118876715047111,
        "D": 0.9878921769870819,
        "G": 0.8675223476871162,
        "F": 0.8539388928527534,
        "I": 0.8949113169582363,
        "E": 0.9950887630960106,
        "L": 0.8991813837094876,
        "H": 0.8856985264322037,
        "J": 0.8913700794825209,
        "A": 0.9338716903729161,
        "B": 0.945475152040734,
        "C": 0.9641973851112592
    },
    "Average_excess_waiting_time": {
        "K": 364.4594917885366,
        "D": 424.0030532764824,
        "G": 330.4521114634777,
        "F": 324.1295895741968,
        "I": 350.21487205458567,
        "E": 428.87501920205756,
        "L": 359.8952435715789,
        "H": 348.17055286011583,
        "J": 353.9295663722933,
        "A": 388.0064205753735,
        "B": 401.4776754035292,
        "C": 409.28412557066036
    },
    "Holding_per_stop": {
        "K": 33.975903614457835,
        "G": 25.555555555555557,
        "F": 26.625,
        "I": 25.975609756097562,
        "D": 36.506024096385545,
        "E": 29.63855421686747,
        "H": 26.666666666666668,
        "L": 27.83132530120482,
        "J": 24.146341463414632,
        "A": 22.048192771084338,
        "B": 28.55421686746988,
        "C": 30.73170731707317
    },
    "Load_per_bus_per_stop": {
        "bus5": {
            "K": 69.92857142857143,
            "L": 68.78571428571429,
            "A": 69.78571428571429,
            "B": 70.92857142857143,
            "C": 73.5,
            "D": 75.78571428571429,
            "E": 77.42857142857143,
            "F": 81.46153846153847,
            "G": 81.3076923076923,
            "H": 81.23076923076923,
            "I": 80.15384615384616,
            "J": 77
        },
        "bus0": {
            "D": 173.57142857142858,
            "E": 177.28571428571428,
            "F": 159.76923076923077,
            "G": 163.23076923076923,
            "H": 167.30769230769232,
            "I": 165.46153846153845,
            "J": 170.69230769230768,
            "K": 176.69230769230768,
            "L": 184.07692307692307,
            "A": 185.23076923076923,
            "B": 183.84615384615384,
            "C": 184.3846153846154
        },
        "bus3": {
            "G": 42.5,
            "H": 42.92857142857143,
            "I": 42.714285714285715,
            "J": 42,
            "K": 43.357142857142854,
            "L": 44.214285714285715,
            "A": 46,
            "B": 47.5,
            "C": 46.07142857142857,
            "D": 45.357142857142854,
            "E": 43.714285714285715,
            "F": 45.69230769230769
        },
        "bus2": {
            "F": 76.5,
            "G": 76.85714285714286,
            "H": 77.64285714285714,
            "I": 77.71428571428571,
            "J": 78.35714285714286,
            "K": 78.57142857142857,
            "L": 76.42857142857143,
            "A": 75.92857142857143,
            "B": 76,
            "C": 76.78571428571429,
            "D": 77.42857142857143,
            "E": 77.07142857142857
        },
        "bus4": {
            "I": 22.142857142857142,
            "J": 22,
            "K": 23.714285714285715,
            "L": 23.928571428571427,
            "A": 24.571428571428573,
            "B": 23.928571428571427,
            "C": 23.142857142857142,
            "D": 23.071428571428573,
            "E": 23.357142857142858,
            "F": 24.53846153846154,
            "G": 24.384615384615383,
            "H": 25
        },
        "bus1": {
            "E": 123.14285714285714,
            "F": 125.07142857142857,
            "G": 127,
            "H": 129.5,
            "I": 135.5,
            "J": 136.35714285714286,
            "K": 137.57142857142858,
            "L": 137.35714285714286,
            "A": 138,
            "B": 139.28571428571428,
            "C": 129.92307692307693,
            "D": 131.46153846153845
        }
    }
}