{
    "Average_holding_time": 11.917808219178083,
    "Average_travel_time_passengers": 2636.5014189615645,
    "Average_speed_busses": 0.048666666666666664,
    "Average_experienced_crowding": 81.21646725552067,
    "Average_covariation_headway": 0.40772732257653627,
    "Average_covariation_headway_stops": {
        "G": 0.307076462264793,
        "K": 0.3029794410490843,
        "F": 0.3144283212180952,
        "J": 0.2994698658298026,
        "E": 0.3059638088627717,
        "B": 0.27329646092800575,
        "L": 0.2851657105201047,
        "H": 0.3014643967496154,
        "C": 0.30621896680126864,
        "A": 0.25553693130709554,
        "I": 0.2998512817573567,
        "D": 0.28962160222691535
    },
    "Average_excess_waiting_time": {
        "G": 56.025481386236265,
        "K": 56.19265696035825,
        "F": 59.83328397319792,
        "J": 57.088237143903086,
        "E": 60.13188343653769,
        "B": 51.507422354310506,
        "L": 52.6649515983687,
        "H": 57.08024747658669,
        "C": 58.66960736868697,
        "A": 50.37974376385523,
        "I": 58.83333312563934,
        "D": 57.826445167016175
    },
    "Holding_per_stop": {
        "G": 12.551020408163266,
        "F": 18.24742268041237,
        "K": 11.326530612244898,
        "B": 7.346938775510204,
        "J": 12.061855670103093,
        "E": 8.969072164948454,
        "L": 22.88659793814433,
        "H": 13.775510204081632,
        "C": 15.154639175257731,
        "I": 10.515463917525773,
        "A": 6.185567010309279,
        "D": 4.020618556701031
    },
    "Load_per_bus_per_stop": {
        "bus3": {
            "G": 74.23529411764706,
            "H": 73.05882352941177,
            "I": 74.82352941176471,
            "J": 73.52941176470588,
            "K": 73.4375,
            "L": 74.75,
            "A": 76.5625,
            "B": 77.3125,
            "C": 77.875,
            "D": 78.0625,
            "E": 78.75,
            "F": 79.4375
        },
        "bus5": {
            "K": 78.6470588235294,
            "L": 80.41176470588235,
            "A": 79.82352941176471,
            "B": 80.23529411764706,
            "C": 78.875,
            "D": 82,
            "E": 83.3125,
            "F": 84.125,
            "G": 84.0625,
            "H": 84.625,
            "I": 83.75,
            "J": 85.25
        },
        "bus2": {
            "F": 68.94117647058823,
            "G": 68.88235294117646,
            "H": 67.82352941176471,
            "I": 68.5625,
            "J": 68.75,
            "K": 69.3125,
            "L": 68.4375,
            "A": 70.25,
            "B": 71.5,
            "C": 71.5,
            "D": 72.5,
            "E": 72.9375
        },
        "bus4": {
            "J": 75,
            "K": 77.52941176470588,
            "L": 74.8125,
            "A": 73,
            "B": 74.5,
            "C": 74.3125,
            "D": 75.0625,
            "E": 75.75,
            "F": 75.9375,
            "G": 78.125,
            "H": 79.0625,
            "I": 78.9375
        },
        "bus1": {
            "E": 68.94117647058823,
            "F": 69.94117647058823,
            "G": 70.5625,
            "H": 70.8125,
            "I": 72.125,
            "J": 73.75,
            "K": 75,
            "L": 74.4375,
            "A": 73.3125,
            "B": 74.8125,
            "C": 75.25,
            "D": 73.4375
        },
        "bus0": {
            "B": 82.94117647058823,
            "C": 83.52941176470588,
            "D": 82.82352941176471,
            "E": 82.875,
            "F": 83.0625,
            "G": 83.75,
            "H": 84.5,
            "I": 85.5625,
            "J": 85.875,
            "K": 85.4375,
            "L": 86.1875,
            "A": 85.5625
        }
    }
}