{
    "Average_holding_time": 14.882914137033826,
    "Average_travel_time_passengers": 2644.42106637139,
    "Average_speed_busses": 0.04804166666666667,
    "Average_experienced_crowding": 80.05569829661471,
    "Average_covariation_headway": 0.34868002666885706,
    "Average_covariation_headway_stops": {
        "C": 0.23362738612951545,
        "A": 0.2495731128549253,
        "G": 0.26035233439901495,
        "L": 0.25696593809155366,
        "I": 0.27288774637909335,
        "H": 0.27800823538489194,
        "D": 0.2345264493010656,
        "J": 0.27214438713025024,
        "B": 0.23004124853631544,
        "K": 0.24566860228303414,
        "E": 0.23900556248669072,
        "F": 0.26120944805300317
    },
    "Average_excess_waiting_time": {
        "C": 49.30305081621282,
        "A": 51.97095949145199,
        "G": 56.71186828567295,
        "L": 54.90329697349671,
        "I": 55.64062722521135,
        "H": 58.37518651461244,
        "D": 51.52942907948477,
        "J": 57.1337892603305,
        "B": 51.88066429514424,
        "K": 54.50963517250136,
        "E": 53.721408775280906,
        "F": 58.16180282382834
    },
    "Holding_per_stop": {
        "C": 15,
        "A": 11.1340206185567,
        "I": 11.443298969072165,
        "H": 10.3125,
        "G": 12.1875,
        "L": 20.625,
        "D": 16.5625,
        "J": 19.0625,
        "B": 12.5,
        "K": 15.9375,
        "E": 14.375,
        "F": 19.57894736842105
    },
    "Load_per_bus_per_stop": {
        "bus0": {
            "C": 81.8125,
            "D": 82.75,
            "E": 84.3125,
            "F": 86.3125,
            "G": 85.25,
            "H": 85.375,
            "I": 86.8125,
            "J": 88.5625,
            "K": 88.9375,
            "L": 87.625,
            "A": 88.8125,
            "B": 86.75
        },
        "bus5": {
            "A": 67,
            "B": 66.6875,
            "C": 68.6875,
            "D": 66.6875,
            "E": 65.9375,
            "F": 67.125,
            "G": 67.125,
            "H": 67.75,
            "I": 68.875,
            "J": 69.3125,
            "K": 70.875,
            "L": 70.5
        },
        "bus1": {
            "G": 72.8125,
            "H": 73.25,
            "I": 73.0625,
            "J": 73.75,
            "K": 74.5625,
            "L": 76,
            "A": 76.375,
            "B": 77.5,
            "C": 78.6875,
            "D": 77.5,
            "E": 77.625,
            "F": 77.6
        },
        "bus4": {
            "L": 72.25,
            "A": 74.8125,
            "B": 74.1875,
            "C": 75,
            "D": 73.9375,
            "E": 75.75,
            "F": 75.1875,
            "G": 72.5625,
            "H": 72.0625,
            "I": 72.8125,
            "J": 73.625,
            "K": 75.25
        },
        "bus3": {
            "I": 72.94117647058823,
            "J": 73,
            "K": 72.375,
            "L": 73.6875,
            "A": 75.3125,
            "B": 75.5625,
            "C": 74.375,
            "D": 73,
            "E": 71.6875,
            "F": 71.5,
            "G": 73.875,
            "H": 76.3125
        },
        "bus2": {
            "H": 82.0625,
            "I": 82.625,
            "J": 83.0625,
            "K": 82.6875,
            "L": 82.625,
            "A": 83.5,
            "B": 81.375,
            "C": 81.625,
            "D": 83.25,
            "E": 85.9375,
            "F": 84.875,
            "G": 85.375
        }
    }
}