{
    "Average_holding_time": 19.35053380782918,
    "Average_travel_time_passengers": 2738.472890829104,
    "Average_speed_busses": 0.04683333333333333,
    "Average_experienced_crowding": 83.76968669493664,
    "Average_covariation_headway": 0.3379494118454283,
    "Average_covariation_headway_stops": {
        "G": 0.26968129421384907,
        "J": 0.25613394107037724,
        "K": 0.2726545595660207,
        "D": 0.247101335794491,
        "L": 0.25883622212427326,
        "H": 0.2669331368334421,
        "I": 0.2704014742009793,
        "A": 0.2535876856053247,
        "E": 0.2536713658587964,
        "B": 0.23318756889665945,
        "F": 0.27052804960046806,
        "C": 0.25385886895207505
    },
    "Average_excess_waiting_time": {
        "G": 65.85222668674521,
        "J": 61.941543752607345,
        "K": 63.27718262248982,
        "D": 60.77877902472562,
        "L": 59.26021407555777,
        "H": 64.38247988397137,
        "I": 66.53919536745434,
        "A": 59.812998386661945,
        "E": 63.50440583938439,
        "B": 58.870392681271824,
        "F": 68.11599836727106,
        "C": 64.03191428644868
    },
    "Holding_per_stop": {
        "K": 19.148936170212767,
        "H": 14.680851063829786,
        "L": 14.526315789473685,
        "G": 18.06451612903226,
        "J": 18.829787234042552,
        "D": 22.340425531914892,
        "A": 15.319148936170214,
        "I": 25.161290322580644,
        "E": 16.774193548387096,
        "B": 20.74468085106383,
        "F": 21.612903225806452,
        "C": 25.161290322580644
    },
    "Load_per_bus_per_stop": {
        "bus1": {
            "G": 79.125,
            "H": 78.5,
            "I": 80.5,
            "J": 79.4375,
            "K": 81.8125,
            "L": 81.5,
            "A": 82.5625,
            "B": 84.46666666666667,
            "C": 85.33333333333333,
            "D": 85.53333333333333,
            "E": 84.26666666666667,
            "F": 84
        },
        "bus3": {
            "J": 84.375,
            "K": 83.1875,
            "L": 83.5625,
            "A": 83.625,
            "B": 85,
            "C": 85.625,
            "D": 85.125,
            "E": 87,
            "F": 88.26666666666667,
            "G": 89.33333333333333,
            "H": 89,
            "I": 89.66666666666667
        },
        "bus4": {
            "K": 73.8125,
            "L": 74.5625,
            "A": 74.5625,
            "B": 76,
            "C": 77.5,
            "D": 77,
            "E": 76.5,
            "F": 76.375,
            "G": 76.0625,
            "H": 75.53333333333333,
            "I": 77.06666666666666,
            "J": 78.4
        },
        "bus0": {
            "D": 84.5625,
            "E": 86.375,
            "F": 87.1875,
            "G": 88.1875,
            "H": 88,
            "I": 90.125,
            "J": 91.5625,
            "K": 94.2,
            "L": 93.93333333333334,
            "A": 91.4,
            "B": 92,
            "C": 88.93333333333334
        },
        "bus5": {
            "L": 75.125,
            "A": 75.9375,
            "B": 76.4375,
            "C": 77.5,
            "D": 77.9375,
            "E": 78.75,
            "F": 81.25,
            "G": 81.75,
            "H": 82.9375,
            "I": 83.33333333333333,
            "J": 82.6,
            "K": 81.53333333333333
        },
        "bus2": {
            "H": 67,
            "I": 67.5,
            "J": 68.75,
            "K": 70.5,
            "L": 70.6875,
            "A": 69.625,
            "B": 70.125,
            "C": 72.13333333333334,
            "D": 71.6,
            "E": 72.06666666666666,
            "F": 72,
            "G": 71.8
        }
    }
}