{
    "Average_holding_time": 15.896309314586995,
    "Average_travel_time_passengers": 2741.7025199176696,
    "Average_speed_busses": 0.04741666666666667,
    "Average_experienced_crowding": 89.8556042094013,
    "Average_covariation_headway": 0.5416525932965857,
    "Average_covariation_headway_stops": {
        "D": 0.4303662679373193,
        "H": 0.4223678696262696,
        "L": 0.40172082913432894,
        "C": 0.4256079110125404,
        "I": 0.4184164201123246,
        "G": 0.4406512280521545,
        "E": 0.41692164544699445,
        "A": 0.40817305525494635,
        "J": 0.40551768747915534,
        "F": 0.43972144364471677,
        "B": 0.42321572891214815,
        "K": 0.3979741358670786
    },
    "Average_excess_waiting_time": {
        "D": 93.56397963535625,
        "H": 94.71891202350344,
        "L": 86.97486662349456,
        "C": 94.39498904640607,
        "I": 90.17463215444877,
        "G": 98.60259887204535,
        "E": 91.77168599172364,
        "A": 90.41358041831967,
        "J": 88.39536972082232,
        "F": 99.39714908431222,
        "B": 95.88819962332508,
        "K": 88.9648080266395
    },
    "Holding_per_stop": {
        "D": 14.842105263157896,
        "H": 14.842105263157896,
        "L": 8.210526315789474,
        "I": 15.789473684210526,
        "C": 17.05263157894737,
        "G": 19.894736842105264,
        "E": 8.210526315789474,
        "A": 12.947368421052632,
        "J": 21.473684210526315,
        "B": 13.72340425531915,
        "F": 22.42105263157895,
        "K": 21.382978723404257
    },
    "Load_per_bus_per_stop": {
        "bus1": {
            "D": 94.625,
            "E": 93.5625,
            "F": 95.75,
            "G": 97.0625,
            "H": 98.4375,
            "I": 99.6875,
            "J": 99.8125,
            "K": 98.75,
            "L": 96.9375,
            "A": 98.8125,
            "B": 99.46666666666667,
            "C": 99.46666666666667
        },
        "bus3": {
            "H": 48.5625,
            "I": 49.6875,
            "J": 50.75,
            "K": 50.375,
            "L": 50.75,
            "A": 49.4375,
            "B": 49.1875,
            "C": 49.125,
            "D": 50.0625,
            "E": 51.5625,
            "F": 51.5625,
            "G": 49.666666666666664
        },
        "bus5": {
            "L": 105,
            "A": 104.125,
            "B": 104.625,
            "C": 108.5625,
            "D": 110,
            "E": 112.8125,
            "F": 112.4375,
            "G": 109.375,
            "H": 111.5625,
            "I": 110.93333333333334,
            "J": 113.6,
            "K": 113.13333333333334
        },
        "bus0": {
            "C": 90.9375,
            "D": 91.375,
            "E": 94.1875,
            "F": 95.3125,
            "G": 93.25,
            "H": 92.4375,
            "I": 92.125,
            "J": 92.125,
            "K": 93.0625,
            "L": 96,
            "A": 96.26666666666667,
            "B": 95.8
        },
        "bus4": {
            "I": 42.5625,
            "J": 43.25,
            "K": 44.375,
            "L": 44.8125,
            "A": 44.8125,
            "B": 44.3125,
            "C": 44.6875,
            "D": 44.3125,
            "E": 43.6875,
            "F": 43.1875,
            "G": 43.75,
            "H": 44.53333333333333
        },
        "bus2": {
            "G": 76.3125,
            "H": 77.375,
            "I": 77.625,
            "J": 79.25,
            "K": 78.625,
            "L": 80.1875,
            "A": 77.0625,
            "B": 76.375,
            "C": 77.5,
            "D": 78.875,
            "E": 79.93333333333334,
            "F": 79.66666666666667
        }
    }
}