{
    "Average_holding_time": 42.21052631578947,
    "Average_travel_time_passengers": 7939.7072481962605,
    "Average_speed_busses": 0.02375,
    "Average_experienced_crowding": 708.0662705253382,
    "Average_covariation_headway": 1.9944676244019954,
    "Average_covariation_headway_stops": {
        "C": 2.1507020049469756,
        "F": 2.1450760850553743,
        "K": 2.143513963534509,
        "B": 2.1266641365979124,
        "D": 2.1633093456260455,
        "J": 2.1109399329786083,
        "G": 2.122803905081083,
        "L": 2.126644188036937,
        "E": 2.065604404996628,
        "H": 2.1200124760790793,
        "A": 2.1135837611908666,
        "I": 2.09237409930194
    },
    "Average_excess_waiting_time": {
        "C": 2967.6503107357175,
        "F": 2725.167072540461,
        "K": 2873.757610632812,
        "B": 2922.933292584761,
        "D": 2986.2297588659594,
        "J": 2806.087601868314,
        "G": 2728.917815086431,
        "L": 2886.973319063487,
        "E": 3085.3941168857464,
        "H": 2775.9496164412276,
        "A": 2906.427200919765,
        "I": 2770.8891136852353
    },
    "Holding_per_stop": {
        "C": 45,
        "F": 41.73913043478261,
        "K": 45,
        "D": 41.1764705882353,
        "B": 39.183673469387756,
        "J": 44.680851063829785,
        "G": 41.73913043478261,
        "L": 45,
        "E": 36,
        "H": 38.47826086956522,
        "A": 45.625,
        "I": 42.391304347826086
    },
    "Load_per_bus_per_stop": {
        "bus1": {
            "C": 28.77777777777778,
            "D": 28.666666666666668,
            "E": 32.625,
            "F": 33.5,
            "G": 34.625,
            "H": 34.125,
            "I": 33.375,
            "J": 32.875,
            "K": 33.375,
            "L": 32,
            "A": 31.75,
            "B": 32.875
        },
        "bus3": {
            "F": 28.75,
            "G": 29.875,
            "H": 31.625,
            "I": 31.625,
            "J": 31.375,
            "K": 31.5,
            "L": 31.125,
            "A": 30.375,
            "B": 30.625,
            "C": 30.5,
            "D": 30.625,
            "E": 34.42857142857143
        },
        "bus5": {
            "K": 594.75,
            "L": 605.125,
            "A": 618.125,
            "B": 631.75,
            "C": 648,
            "D": 666.75,
            "E": 686.25,
            "F": 598.5714285714286,
            "G": 614.5714285714286,
            "H": 630.2857142857143,
            "I": 651.7142857142857,
            "J": 667.5714285714286
        },
        "bus0": {
            "B": 64.33333333333333,
            "C": 64.33333333333333,
            "D": 62.44444444444444,
            "E": 67.875,
            "F": 67.75,
            "G": 69,
            "H": 69.125,
            "I": 67.625,
            "J": 69,
            "K": 70.25,
            "L": 72.5,
            "A": 70.875
        },
        "bus2": {
            "D": 17.555555555555557,
            "E": 20.125,
            "F": 21,
            "G": 23,
            "H": 22.625,
            "I": 23.5,
            "J": 23.875,
            "K": 24,
            "L": 23.375,
            "A": 22,
            "B": 22.25,
            "C": 21
        },
        "bus4": {
            "J": 55.75,
            "K": 54.75,
            "L": 56.75,
            "A": 58.375,
            "B": 58.375,
            "C": 62.25,
            "D": 63.125,
            "E": 61.285714285714285,
            "F": 62.714285714285715,
            "G": 62.714285714285715,
            "H": 61.42857142857143,
            "I": 62.714285714285715
        }
    }
}666
        },
        "bus4": {
            "L": 60.714285714285715,
            "A": 60,
            "B": 61.285714285714285,
            "C": 61.166666666666664,
            "D": 62.333333333333336,
            "E": 61.333333333333336,
            "F": 63.333333333333336,
            "G": 63.833333333333336,
            "H": 64.5,
            "I": 63.5,
            "J": 67.5,
            "K": 67.5
        }
    }
}