{
    "Average_holding_time": 17.96279893711249,
    "Average_travel_time_passengers": 2755.3306443487927,
    "Average_speed_busses": 0.04704166666666667,
    "Average_experienced_crowding": 91.77205343340799,
    "Average_covariation_headway": 0.5440481593642678,
    "Average_covariation_headway_stops": {
        "A": 0.43860749084419043,
        "D": 0.4388075449409327,
        "L": 0.44182945146781927,
        "H": 0.43680226838903186,
        "B": 0.4487141010335497,
        "G": 0.4389012392762775,
        "E": 0.41390638405645575,
        "C": 0.44283403764795914,
        "I": 0.42081242065388264,
        "F": 0.4208347881588212,
        "J": 0.435075086428695,
        "K": 0.42924008290111365
    },
    "Average_excess_waiting_time": {
        "A": 99.72952362307842,
        "D": 97.64466033008279,
        "L": 102.87275451414416,
        "H": 97.73312381975734,
        "B": 101.48398605317993,
        "G": 100.48168277891358,
        "E": 94.06214965583757,
        "C": 102.64017296719271,
        "I": 95.56107945673813,
        "F": 98.17006965107191,
        "J": 100.99989921359924,
        "K": 101.26181390359488
    },
    "Holding_per_stop": {
        "A": 15.957446808510639,
        "D": 21.06382978723404,
        "L": 11.170212765957446,
        "B": 15.157894736842104,
        "H": 21.473684210526315,
        "G": 26.48936170212766,
        "E": 18.829787234042552,
        "C": 22.97872340425532,
        "I": 12.446808510638299,
        "F": 18.19148936170213,
        "J": 18.19148936170213,
        "K": 13.548387096774194
    },
    "Load_per_bus_per_stop": {
        "bus5": {
            "A": 86,
            "B": 87.3125,
            "C": 86.5625,
            "D": 87.8125,
            "E": 88.1875,
            "F": 91.4375,
            "G": 89.8125,
            "H": 88.875,
            "I": 89.53333333333333,
            "J": 88.8,
            "K": 88.73333333333333,
            "L": 91.6
        },
        "bus1": {
            "D": 54.5625,
            "E": 55.5,
            "F": 56.1875,
            "G": 55.375,
            "H": 56.6875,
            "I": 57.125,
            "J": 57.4375,
            "K": 58.375,
            "L": 59.3125,
            "A": 57.9375,
            "B": 56.666666666666664,
            "C": 56.8
        },
        "bus4": {
            "L": 77.625,
            "A": 77.375,
            "B": 75.5625,
            "C": 74.6875,
            "D": 76.6875,
            "E": 76.8125,
            "F": 77.125,
            "G": 78.86666666666666,
            "H": 79.86666666666666,
            "I": 80.13333333333334,
            "J": 81.33333333333333,
            "K": 82.53333333333333
        },
        "bus3": {
            "H": 92.75,
            "I": 95.625,
            "J": 97.75,
            "K": 96,
            "L": 96.25,
            "A": 98.5625,
            "B": 101.5625,
            "C": 103.1875,
            "D": 100.73333333333333,
            "E": 99.66666666666667,
            "F": 98.66666666666667,
            "G": 98.33333333333333
        },
        "bus0": {
            "B": 62.75,
            "C": 60.125,
            "D": 59.875,
            "E": 61.5,
            "F": 61.9375,
            "G": 63.0625,
            "H": 64,
            "I": 65.625,
            "J": 67.3125,
            "K": 67.4375,
            "L": 67.93333333333334,
            "A": 67.2
        },
        "bus2": {
            "G": 78.25,
            "H": 79.125,
            "I": 80.875,
            "J": 80.3125,
            "K": 81.375,
            "L": 82.75,
            "A": 84.0625,
            "B": 85.125,
            "C": 85.26666666666667,
            "D": 83.93333333333334,
            "E": 85.06666666666666,
            "F": 83.73333333333333
        }
    }
}