{
    "Average_holding_time": 17.75241439859526,
    "Average_travel_time_passengers": 2693.3464877968263,
    "Average_speed_busses": 0.04745833333333333,
    "Average_experienced_crowding": 80.28288097916634,
    "Average_covariation_headway": 0.28746562299045825,
    "Average_covariation_headway_stops": {
        "E": 0.18747293026369885,
        "H": 0.19571272949848356,
        "I": 0.2096944990463901,
        "C": 0.21459015235876017,
        "A": 0.22476335753026133,
        "J": 0.23559854201378921,
        "F": 0.1648959230918263,
        "D": 0.18875267806388785,
        "K": 0.2347138466819551,
        "B": 0.20101626772036824,
        "G": 0.165916829783005,
        "L": 0.21374526140799432
    },
    "Average_excess_waiting_time": {
        "E": 49.518841721563604,
        "H": 50.978490093927235,
        "I": 49.92169658440167,
        "C": 52.16314803422313,
        "A": 53.30402291030504,
        "J": 52.11704044454217,
        "F": 47.19566045969913,
        "D": 50.61698939458432,
        "K": 53.73117318570894,
        "B": 51.658759940735706,
        "G": 48.802490430930106,
        "L": 53.116273803343404
    },
    "Holding_per_stop": {
        "E": 13.894736842105264,
        "I": 17.68421052631579,
        "C": 19.57894736842105,
        "H": 16.42105263157895,
        "J": 21.5625,
        "A": 16.42105263157895,
        "F": 13.72340425531915,
        "D": 17.36842105263158,
        "K": 21.789473684210527,
        "B": 17.68421052631579,
        "G": 18.19148936170213,
        "L": 18.63157894736842
    },
    "Load_per_bus_per_stop": {
        "bus1": {
            "E": 77.3125,
            "F": 77.1875,
            "G": 77.8125,
            "H": 78.4375,
            "I": 77.375,
            "J": 78.8125,
            "K": 79.75,
            "L": 80.5625,
            "A": 80.375,
            "B": 80.125,
            "C": 80.6,
            "D": 81.86666666666666
        },
        "bus2": {
            "H": 73.875,
            "I": 72.25,
            "J": 73,
            "K": 74.4375,
            "L": 75.875,
            "A": 76.5,
            "B": 74.9375,
            "C": 73.3125,
            "D": 75.4375,
            "E": 76.66666666666667,
            "F": 78.4,
            "G": 76.8
        },
        "bus3": {
            "I": 69.3125,
            "J": 70.25,
            "K": 69.25,
            "L": 69.625,
            "A": 69.375,
            "B": 72.125,
            "C": 74.5625,
            "D": 77.75,
            "E": 78.1875,
            "F": 75.66666666666667,
            "G": 74.13333333333334,
            "H": 73.86666666666666
        },
        "bus0": {
            "C": 74.8125,
            "D": 73.625,
            "E": 72.25,
            "F": 73.25,
            "G": 74.375,
            "H": 73.4375,
            "I": 73.125,
            "J": 73.6875,
            "K": 74.5625,
            "L": 77.6875,
            "A": 80,
            "B": 79.86666666666666
        },
        "bus5": {
            "A": 85.875,
            "B": 86.5625,
            "C": 86.75,
            "D": 86.0625,
            "E": 86.5,
            "F": 86.5,
            "G": 87.75,
            "H": 88.8125,
            "I": 91.5625,
            "J": 91.125,
            "K": 92.2,
            "L": 92.06666666666666
        },
        "bus4": {
            "J": 77.1875,
            "K": 79.875,
            "L": 79.6875,
            "A": 80.875,
            "B": 80.375,
            "C": 80.125,
            "D": 81,
            "E": 80.6875,
            "F": 81.5625,
            "G": 80.875,
            "H": 80.25,
            "I": 78.93333333333334
        }
    }
}333333,
            "C": 80.06666666666666,
            "D": 79.8,
            "E": 80.73333333333333
        }
    }
}