{
    "Average_holding_time": 34.96960486322188,
    "Average_travel_time_passengers": 6475.196836572491,
    "Average_speed_busses": 0.027416666666666666,
    "Average_experienced_crowding": 570.9968546614788,
    "Average_covariation_headway": 2.0360363326183695,
    "Average_covariation_headway_stops": {
        "J": 1.9719111320299008,
        "F": 1.9595047020562588,
        "H": 1.9769458870472192,
        "B": 1.9444886075212757,
        "D": 1.9462259326650746,
        "A": 1.9494737733582113,
        "G": 1.9555974275344754,
        "I": 1.966189088717363,
        "K": 1.9714873975985265,
        "E": 1.9405822600669738,
        "C": 1.9420433173685745,
        "L": 1.9403364599333572
    },
    "Average_excess_waiting_time": {
        "J": 2205.711892934968,
        "F": 2160.8672041212913,
        "H": 2207.0068153037355,
        "B": 2105.362979421789,
        "D": 2119.7299171252535,
        "A": 2128.4262653310925,
        "G": 2181.277257364739,
        "I": 2212.6416530801753,
        "K": 2231.434836160955,
        "E": 2136.8363206060426,
        "C": 2125.9111842068437,
        "L": 2195.44287067041
    },
    "Holding_per_stop": {
        "J": 32.63157894736842,
        "F": 36.54545454545455,
        "H": 31.607142857142858,
        "B": 32.264150943396224,
        "D": 41.111111111111114,
        "A": 32.30769230769231,
        "G": 40.36363636363637,
        "I": 32.142857142857146,
        "K": 29.473684210526315,
        "E": 37.77777777777778,
        "C": 38.490566037735846,
        "L": 35.357142857142854
    },
    "Load_per_bus_per_stop": {
        "bus4": {
            "J": 14.8,
            "K": 12.8,
            "L": 13.8,
            "A": 16.555555555555557,
            "B": 17.22222222222222,
            "C": 17.666666666666668,
            "D": 17.333333333333332,
            "E": 17.555555555555557,
            "F": 18,
            "G": 18.22222222222222,
            "H": 17.555555555555557,
            "I": 16.88888888888889
        },
        "bus2": {
            "F": 76.3,
            "G": 77.1,
            "H": 75.8,
            "I": 75.7,
            "J": 72.8,
            "K": 71.7,
            "L": 73.6,
            "A": 80,
            "B": 79.44444444444444,
            "C": 81.66666666666667,
            "D": 83,
            "E": 83.88888888888889
        },
        "bus3": {
            "H": 25.7,
            "I": 25.5,
            "J": 26.3,
            "K": 25.8,
            "L": 25.4,
            "A": 27.88888888888889,
            "B": 29.333333333333332,
            "C": 29.333333333333332,
            "D": 30.333333333333332,
            "E": 31,
            "F": 30.666666666666668,
            "G": 30.88888888888889
        },
        "bus0": {
            "B": 39.333333333333336,
            "C": 40.55555555555556,
            "D": 41.333333333333336,
            "E": 41.55555555555556,
            "F": 42.77777777777778,
            "G": 42.888888888888886,
            "H": 44,
            "I": 45.333333333333336,
            "J": 46,
            "K": 46,
            "L": 46.333333333333336,
            "A": 45
        },
        "bus1": {
            "D": 549.3333333333334,
            "E": 561.8888888888889,
            "F": 571.2222222222222,
            "G": 574.5555555555555,
            "H": 583,
            "I": 601.3333333333334,
            "J": 606.6666666666666,
            "K": 614.7777777777778,
            "L": 625.7777777777778,
            "A": 594,
            "B": 602.75,
            "C": 609.875
        },
        "bus5": {
            "A": 13.88888888888889,
            "B": 15.88888888888889,
            "C": 15.666666666666666,
            "D": 16.333333333333332,
            "E": 16.22222222222222,
            "F": 15.333333333333334,
            "G": 15.333333333333334,
            "H": 15.222222222222221,
            "I": 14.88888888888889,
            "J": 15.333333333333334,
            "K": 14.333333333333334,
            "L": 14
        }
    }
}