{
    "Average_holding_time": 18.92511013215859,
    "Average_travel_time_passengers": 2692.9097835057573,
    "Average_speed_busses": 0.04729166666666667,
    "Average_experienced_crowding": 80.64817186129194,
    "Average_covariation_headway": 0.28707008539377155,
    "Average_covariation_headway_stops": {
        "K": 0.22776747079854756,
        "C": 0.2177107579483501,
        "D": 0.21646679924613546,
        "I": 0.24023042424108237,
        "L": 0.2199129395013962,
        "E": 0.22598117441782142,
        "A": 0.2150703593433473,
        "J": 0.23067727125946066,
        "F": 0.20947457563509148,
        "B": 0.22310909778618768,
        "G": 0.2012834390412144,
        "H": 0.22263661988849512
    },
    "Average_excess_waiting_time": {
        "K": 55.94364290010941,
        "C": 54.1921167907239,
        "D": 52.39558710755239,
        "I": 57.15520213044334,
        "L": 53.303881668217684,
        "E": 51.743628213672025,
        "A": 54.129291945708985,
        "J": 57.61082318760958,
        "F": 51.34347971062567,
        "B": 56.964771395985224,
        "G": 51.51888996708249,
        "H": 56.33036334053884
    },
    "Holding_per_stop": {
        "D": 13.263157894736842,
        "L": 25.57894736842105,
        "K": 17.5531914893617,
        "C": 17.23404255319149,
        "I": 22.736842105263158,
        "E": 20.3125,
        "A": 16.914893617021278,
        "F": 21.473684210526315,
        "J": 19.46808510638298,
        "B": 18.829787234042552,
        "G": 12.947368421052632,
        "H": 20.74468085106383
    },
    "Load_per_bus_per_stop": {
        "bus4": {
            "K": 70.8125,
            "L": 72.0625,
            "A": 71.6875,
            "B": 71.5625,
            "C": 72.9375,
            "D": 72.4375,
            "E": 75.125,
            "F": 77.875,
            "G": 76.0625,
            "H": 74.93333333333334,
            "I": 74.6,
            "J": 74.93333333333334
        },
        "bus0": {
            "C": 76.5625,
            "D": 75.5625,
            "E": 77,
            "F": 77.6875,
            "G": 77.625,
            "H": 79.625,
            "I": 81.9375,
            "J": 81,
            "K": 79.125,
            "L": 80,
            "A": 80.4,
            "B": 82.13333333333334
        },
        "bus1": {
            "D": 80.1875,
            "E": 80,
            "F": 80.25,
            "G": 81.1875,
            "H": 79.3125,
            "I": 80.625,
            "J": 81.9375,
            "K": 83.25,
            "L": 82.6875,
            "A": 85.1875,
            "B": 86.8,
            "C": 85.13333333333334
        },
        "bus3": {
            "I": 78.5,
            "J": 78.5625,
            "K": 78.25,
            "L": 81.625,
            "A": 81.3125,
            "B": 83.1875,
            "C": 82.1875,
            "D": 82.4375,
            "E": 81.5625,
            "F": 80.73333333333333,
            "G": 80.13333333333334,
            "H": 80.66666666666667
        },
        "bus5": {
            "L": 72.6875,
            "A": 72.5,
            "B": 72.4375,
            "C": 73.8125,
            "D": 73.875,
            "E": 74.375,
            "F": 74.1875,
            "G": 75.9375,
            "H": 77.4375,
            "I": 78.625,
            "J": 77.73333333333333,
            "K": 77.66666666666667
        },
        "bus2": {
            "E": 79.3125,
            "F": 79.4375,
            "G": 78.75,
            "H": 80.0625,
            "I": 82.6875,
            "J": 84.6875,
            "K": 84.4375,
            "L": 83.0625,
            "A": 83.875,
            "B": 83.9375,
            "C": 84.26666666666667,
            "D": 83.4
        }
    }
}}