{
    "Average_holding_time": 26.38862559241706,
    "Average_travel_time_passengers": 3121.8344772004375,
    "Average_speed_busses": 0.043958333333333335,
    "Average_experienced_crowding": 130.72976499489857,
    "Average_covariation_headway": 0.901719486710142,
    "Average_covariation_headway_stops": {
        "E": 0.7573301742387193,
        "H": 0.7460775953864356,
        "D": 0.7606639704797158,
        "I": 0.7304138921740289,
        "K": 0.7444162851932322,
        "F": 0.7543206545461404,
        "L": 0.7350344971161265,
        "J": 0.7340366773692429,
        "G": 0.7372116938429849,
        "A": 0.7332842776787513,
        "B": 0.7383270120238692,
        "C": 0.7667768044346485
    },
    "Average_excess_waiting_time": {
        "E": 251.18917477761903,
        "H": 244.50233702607107,
        "D": 258.82627475710086,
        "I": 244.1978402052777,
        "K": 245.71105177021144,
        "F": 247.6274250245644,
        "L": 243.61435525326743,
        "J": 242.81945041251691,
        "G": 241.84666016665886,
        "A": 245.4001685199425,
        "B": 245.87877153396397,
        "C": 263.24155368267014
    },
    "Holding_per_stop": {
        "E": 31.704545454545453,
        "I": 22.413793103448278,
        "K": 30.34090909090909,
        "F": 23.59550561797753,
        "H": 39.10112359550562,
        "D": 33.40909090909091,
        "L": 15.681818181818182,
        "J": 25.862068965517242,
        "G": 21.910112359550563,
        "A": 21.818181818181817,
        "B": 27.93103448275862,
        "C": 22.75862068965517
    },
    "Load_per_bus_per_stop": {
        "bus1": {
            "E": 127.26666666666667,
            "F": 127.13333333333334,
            "G": 129.26666666666668,
            "H": 130.93333333333334,
            "I": 133.86666666666667,
            "J": 132.07142857142858,
            "K": 135.14285714285714,
            "L": 137.42857142857142,
            "A": 137.28571428571428,
            "B": 138.85714285714286,
            "C": 139.85714285714286,
            "D": 138.35714285714286
        },
        "bus3": {
            "H": 39.8,
            "I": 39,
            "J": 40.2,
            "K": 40.53333333333333,
            "L": 42.86666666666667,
            "A": 44.733333333333334,
            "B": 44.2,
            "C": 43.46666666666667,
            "D": 42.93333333333333,
            "E": 37.92857142857143,
            "F": 39.42857142857143,
            "G": 40.142857142857146
        },
        "bus0": {
            "D": 150.4,
            "E": 150.53333333333333,
            "F": 150.33333333333334,
            "G": 153.13333333333333,
            "H": 155.73333333333332,
            "I": 163.28571428571428,
            "J": 163.78571428571428,
            "K": 159.85714285714286,
            "L": 160.85714285714286,
            "A": 160.21428571428572,
            "B": 161,
            "C": 159.42857142857142
        },
        "bus4": {
            "I": 10.133333333333333,
            "J": 11.333333333333334,
            "K": 12.333333333333334,
            "L": 13,
            "A": 12.866666666666667,
            "B": 13.333333333333334,
            "C": 13.533333333333333,
            "D": 13.533333333333333,
            "E": 13.533333333333333,
            "F": 12.933333333333334,
            "G": 12.733333333333333,
            "H": 10.285714285714286
        },
        "bus5": {
            "K": 74.73333333333333,
            "L": 76.4,
            "A": 76.6,
            "B": 76.26666666666667,
            "C": 77.8,
            "D": 78.13333333333334,
            "E": 79.6,
            "F": 78,
            "G": 77.13333333333334,
            "H": 77.4,
            "I": 80.21428571428571,
            "J": 78.42857142857143
        },
        "bus2": {
            "F": 84.93333333333334,
            "G": 88,
            "H": 87.8,
            "I": 89.2,
            "J": 89.8,
            "K": 90.33333333333333,
            "L": 89.46666666666667,
            "A": 90.2,
            "B": 88.42857142857143,
            "C": 90.5,
            "D": 92.21428571428571,
            "E": 92.21428571428571
        }
    }
}