{
    "Average_holding_time": 20.142857142857142,
    "Average_travel_time_passengers": 2770.4897559226165,
    "Average_speed_busses": 0.04666666666666667,
    "Average_experienced_crowding": 91.90041452408519,
    "Average_covariation_headway": 0.5477238490680739,
    "Average_covariation_headway_stops": {
        "J": 0.45350981433372345,
        "C": 0.4602573824767245,
        "F": 0.4572492809446426,
        "E": 0.4507415113144724,
        "B": 0.45421538504800324,
        "D": 0.4600943225814961,
        "K": 0.4280668417610935,
        "G": 0.4422302181467124,
        "L": 0.42686535260232716,
        "H": 0.4508104155775521,
        "I": 0.4552976434936782,
        "A": 0.4335590597058063
    },
    "Average_excess_waiting_time": {
        "J": 107.52815575320403,
        "C": 110.29720362421119,
        "F": 101.77774418710442,
        "E": 102.15901840119278,
        "B": 110.88517078496864,
        "D": 108.56634551195538,
        "K": 104.69177768799454,
        "G": 100.145458163846,
        "L": 106.61831842007541,
        "H": 104.35084706012844,
        "I": 107.4294996921555,
        "A": 110.65091714516763
    },
    "Holding_per_stop": {
        "C": 20,
        "J": 21.06382978723404,
        "F": 23.68421052631579,
        "E": 18.829787234042552,
        "D": 24.25531914893617,
        "B": 16.956521739130434,
        "G": 18.63157894736842,
        "K": 19.23913043478261,
        "H": 28.404255319148938,
        "L": 21.52173913043478,
        "I": 15.319148936170214,
        "A": 13.516483516483516
    },
    "Load_per_bus_per_stop": {
        "bus5": {
            "J": 72.5625,
            "K": 74.4375,
            "L": 75.6875,
            "A": 76.25,
            "B": 77.25,
            "C": 78.125,
            "D": 79.25,
            "E": 77.8,
            "F": 78.6,
            "G": 78.86666666666666,
            "H": 77.6,
            "I": 78
        },
        "bus1": {
            "C": 63.875,
            "D": 65.875,
            "E": 67.875,
            "F": 67.0625,
            "G": 67.125,
            "H": 67.5625,
            "I": 67.4375,
            "J": 69.33333333333333,
            "K": 65.73333333333333,
            "L": 67.6,
            "A": 67.46666666666667,
            "B": 66.4
        },
        "bus4": {
            "F": 87.3125,
            "G": 90.1875,
            "H": 91.5,
            "I": 91.375,
            "J": 93.75,
            "K": 95.125,
            "L": 94.75,
            "A": 96.25,
            "B": 94.93333333333334,
            "C": 95.06666666666666,
            "D": 94.4,
            "E": 93.4
        },
        "bus3": {
            "E": 90.4375,
            "F": 91,
            "G": 91.375,
            "H": 90.25,
            "I": 91.6875,
            "J": 92.5625,
            "K": 91.86666666666666,
            "L": 94.26666666666667,
            "A": 96.06666666666666,
            "B": 95.53333333333333,
            "C": 95.73333333333333,
            "D": 96.33333333333333
        },
        "bus0": {
            "B": 79.5,
            "C": 81.75,
            "D": 80.25,
            "E": 81.4375,
            "F": 80.375,
            "G": 80.6875,
            "H": 82.4,
            "I": 83.53333333333333,
            "J": 83.53333333333333,
            "K": 83.2,
            "L": 82.33333333333333,
            "A": 82.33333333333333
        },
        "bus2": {
            "D": 57.125,
            "E": 57.875,
            "F": 58.1875,
            "G": 56.3125,
            "H": 57.625,
            "I": 59.8125,
            "J": 57.6875,
            "K": 60.53333333333333,
            "L": 60.4,
            "A": 61.333333333333336,
            "B": 59.666666666666664,
            "C": 59.93333333333333
        }
    }
}   "J": 83.33333333333333,
            "K": 82.86666666666666,
            "L": 83.06666666666666,
            "A": 83.66666666666667,
            "B": 84,
            "C": 85.33333333333333,
            "D": 86.33333333333333,
            "E": 85.33333333333333
        }
    }
}