{
    "Average_holding_time": 20.291704649042845,
    "Average_travel_time_passengers": 2897.573356748565,
    "Average_speed_busses": 0.04570833333333333,
    "Average_experienced_crowding": 108.41228506575405,
    "Average_covariation_headway": 0.7483512924488823,
    "Average_covariation_headway_stops": {
        "K": 0.5849309772467916,
        "B": 0.5998996011023192,
        "G": 0.5950574597827859,
        "E": 0.5879187042772163,
        "L": 0.5922523742776297,
        "J": 0.5840677896707592,
        "H": 0.579919657302134,
        "A": 0.581091250906378,
        "C": 0.5886891373611967,
        "F": 0.5873308245588019,
        "D": 0.5672979730429563,
        "I": 0.5798606777525263
    },
    "Average_excess_waiting_time": {
        "K": 159.10068869085973,
        "B": 159.48189323912607,
        "G": 163.48939982560591,
        "E": 161.87669397247203,
        "L": 156.6803777499121,
        "J": 160.11289693007456,
        "H": 160.12309699153872,
        "A": 154.7467922608497,
        "C": 161.30485122207824,
        "F": 164.5157640501834,
        "D": 156.33501530434205,
        "I": 162.50127375195643
    },
    "Holding_per_stop": {
        "K": 20.217391304347824,
        "B": 19.032258064516128,
        "G": 22.747252747252748,
        "E": 19.12087912087912,
        "L": 20.869565217391305,
        "J": 17.802197802197803,
        "H": 23.736263736263737,
        "A": 16.304347826086957,
        "C": 19.891304347826086,
        "F": 23.076923076923077,
        "D": 21.333333333333332,
        "I": 19.45054945054945
    },
    "Load_per_bus_per_stop": {
        "bus4": {
            "K": 27.875,
            "L": 28.125,
            "A": 29.625,
            "B": 28.0625,
            "C": 27.066666666666666,
            "D": 27.866666666666667,
            "E": 29.133333333333333,
            "F": 29.2,
            "G": 30.266666666666666,
            "H": 31.266666666666666,
            "I": 30.733333333333334,
            "J": 30.2
        },
        "bus0": {
            "B": 125.5625,
            "C": 123.625,
            "D": 122.33333333333333,
            "E": 126.46666666666667,
            "F": 127.93333333333334,
            "G": 129.53333333333333,
            "H": 132.26666666666668,
            "I": 132.46666666666667,
            "J": 135.6,
            "K": 134.93333333333334,
            "L": 137.06666666666666,
            "A": 136.8
        },
        "bus2": {
            "G": 116,
            "H": 115.1875,
            "I": 117.375,
            "J": 116.6,
            "K": 116.26666666666667,
            "L": 118.66666666666667,
            "A": 118.13333333333334,
            "B": 120.2,
            "C": 122.66666666666667,
            "D": 121.4,
            "E": 120.6,
            "F": 121.33333333333333
        },
        "bus1": {
            "E": 107.5,
            "F": 108.5625,
            "G": 110.2,
            "H": 110.6,
            "I": 111.66666666666667,
            "J": 111.2,
            "K": 113.13333333333334,
            "L": 116.33333333333333,
            "A": 118.13333333333334,
            "B": 115.93333333333334,
            "C": 115.53333333333333,
            "D": 112.6
        },
        "bus5": {
            "L": 15.375,
            "A": 16,
            "B": 16,
            "C": 16.5625,
            "D": 17.266666666666666,
            "E": 16.666666666666668,
            "F": 17.466666666666665,
            "G": 17.8,
            "H": 18.4,
            "I": 17.533333333333335,
            "J": 17.2,
            "K": 16.933333333333334
        },
        "bus3": {
            "J": 81.375,
            "K": 83.6875,
            "L": 82.73333333333333,
            "A": 83.4,
            "B": 84.53333333333333,
            "C": 85.53333333333333,
            "D": 83.2,
            "E": 81.6,
            "F": 82.6,
            "G": 83.26666666666667,
            "H": 84.86666666666666,
            "I": 86.93333333333334
        }
    }
}