{
    "Average_holding_time": 18.46984698469847,
    "Average_travel_time_passengers": 2836.195440465209,
    "Average_speed_busses": 0.04629166666666667,
    "Average_experienced_crowding": 105.5096773061522,
    "Average_covariation_headway": 0.7252469314266796,
    "Average_covariation_headway_stops": {
        "C": 0.6007160370280966,
        "D": 0.585742348929493,
        "F": 0.5849397251996781,
        "B": 0.5931303784597312,
        "H": 0.58873210019714,
        "E": 0.5739697970450575,
        "I": 0.5883964196071133,
        "G": 0.5772722968020582,
        "J": 0.5899462997219487,
        "K": 0.5800828636670563,
        "L": 0.5811271892988012,
        "A": 0.5841768536794517
    },
    "Average_excess_waiting_time": {
        "C": 159.66228271971335,
        "D": 154.79576116454302,
        "F": 150.98296273799832,
        "B": 159.8731030449485,
        "H": 149.91937539774796,
        "E": 149.19126588586516,
        "I": 152.03035827066583,
        "G": 151.08690929802015,
        "J": 154.9939675552307,
        "K": 153.66720201111463,
        "L": 155.06981658469198,
        "A": 158.50327980424947
    },
    "Holding_per_stop": {
        "C": 20.322580645161292,
        "D": 18.387096774193548,
        "F": 15.161290322580646,
        "H": 16.451612903225808,
        "E": 16.304347826086957,
        "B": 15,
        "I": 18.387096774193548,
        "G": 19.35483870967742,
        "J": 22.903225806451612,
        "K": 23.804347826086957,
        "L": 17.934782608695652,
        "A": 17.608695652173914
    },
    "Load_per_bus_per_stop": {
        "bus1": {
            "C": 113.125,
            "D": 112.6875,
            "E": 112.53333333333333,
            "F": 114.13333333333334,
            "G": 111.86666666666666,
            "H": 112.26666666666667,
            "I": 114.46666666666667,
            "J": 114.73333333333333,
            "K": 117.6,
            "L": 118.73333333333333,
            "A": 120.73333333333333,
            "B": 121.73333333333333
        },
        "bus2": {
            "D": 79.625,
            "E": 80.8125,
            "F": 82.625,
            "G": 83.5625,
            "H": 79.26666666666667,
            "I": 78.46666666666667,
            "J": 79.13333333333334,
            "K": 80.13333333333334,
            "L": 81.8,
            "A": 82.13333333333334,
            "B": 84.06666666666666,
            "C": 82.2
        },
        "bus4": {
            "F": 35.5,
            "G": 34.9375,
            "H": 34.3125,
            "I": 35,
            "J": 33.8125,
            "K": 34.8125,
            "L": 35.8125,
            "A": 37.1875,
            "B": 34.46666666666667,
            "C": 35.8,
            "D": 37.266666666666666,
            "E": 36.6
        },
        "bus0": {
            "B": 89.5625,
            "C": 89.5625,
            "D": 88.1875,
            "E": 94.86666666666666,
            "F": 95.2,
            "G": 95.53333333333333,
            "H": 95.73333333333333,
            "I": 96.66666666666667,
            "J": 96.53333333333333,
            "K": 97.06666666666666,
            "L": 97.06666666666666,
            "A": 96.2
        },
        "bus5": {
            "H": 98.125,
            "I": 100.25,
            "J": 100.125,
            "K": 100.5625,
            "L": 101.4375,
            "A": 101.3125,
            "B": 103.3125,
            "C": 104.5,
            "D": 107.2,
            "E": 106.2,
            "F": 104.66666666666667,
            "G": 103.73333333333333
        },
        "bus3": {
            "E": 50.375,
            "F": 51.125,
            "G": 52.75,
            "H": 54.375,
            "I": 55.9375,
            "J": 56.125,
            "K": 55.875,
            "L": 51.6,
            "A": 52.666666666666664,
            "B": 51.8,
            "C": 50.86666666666667,
            "D": 52.266666666666666
        }
    }
}