{
    "Average_holding_time": 20.824468085106382,
    "Average_travel_time_passengers": 2716.2752954487714,
    "Average_speed_busses": 0.047,
    "Average_experienced_crowding": 82.99503323871285,
    "Average_covariation_headway": 0.35498390728347723,
    "Average_covariation_headway_stops": {
        "K": 0.2505310219849936,
        "B": 0.2765862206335426,
        "G": 0.28155884245554114,
        "E": 0.28397206508290534,
        "L": 0.2677788309024955,
        "J": 0.2509270906414927,
        "C": 0.279890783186309,
        "H": 0.2607680302852689,
        "F": 0.2693606352583437,
        "A": 0.2725705490418764,
        "D": 0.28630564262917196,
        "I": 0.24880297349430788
    },
    "Average_excess_waiting_time": {
        "K": 60.66098692617197,
        "B": 63.312046085787244,
        "G": 65.03916154860735,
        "E": 65.772308733361,
        "L": 61.26336332163521,
        "J": 61.357091280711074,
        "C": 65.29624766030099,
        "H": 63.24499238958333,
        "F": 65.69210586985594,
        "A": 64.55375866147705,
        "D": 68.07516832786513,
        "I": 63.109138488342865
    },
    "Holding_per_stop": {
        "B": 17.5531914893617,
        "K": 20.425531914893618,
        "G": 23.93617021276596,
        "E": 22.340425531914892,
        "L": 24,
        "J": 18.19148936170213,
        "C": 19.78723404255319,
        "H": 21.06382978723404,
        "A": 19.148936170212767,
        "F": 21.70212765957447,
        "D": 22.97872340425532,
        "I": 18.70967741935484
    },
    "Load_per_bus_per_stop": {
        "bus4": {
            "K": 67.8125,
            "L": 67.5625,
            "A": 67.75,
            "B": 67.5625,
            "C": 67.25,
            "D": 68.75,
            "E": 68.75,
            "F": 69.5625,
            "G": 67.26666666666667,
            "H": 67.73333333333333,
            "I": 69.8,
            "J": 72.8
        },
        "bus0": {
            "B": 71.1875,
            "C": 71.5,
            "D": 71.875,
            "E": 74.4375,
            "F": 76.375,
            "G": 78.875,
            "H": 77.4375,
            "I": 75.375,
            "J": 75.6875,
            "K": 76.46666666666667,
            "L": 77.93333333333334,
            "A": 76.6
        },
        "bus2": {
            "G": 87.625,
            "H": 87.125,
            "I": 88.375,
            "J": 90.125,
            "K": 90,
            "L": 92,
            "A": 92.8125,
            "B": 92.9375,
            "C": 94.46666666666667,
            "D": 93.8,
            "E": 92.86666666666666,
            "F": 93.4
        },
        "bus1": {
            "E": 70.75,
            "F": 72.0625,
            "G": 71.1875,
            "H": 70.8125,
            "I": 72.4375,
            "J": 73.625,
            "K": 73.25,
            "L": 75.1875,
            "A": 75.06666666666666,
            "B": 74.93333333333334,
            "C": 75.46666666666667,
            "D": 75.13333333333334
        },
        "bus5": {
            "L": 81.3125,
            "A": 83.25,
            "B": 83.9375,
            "C": 85.375,
            "D": 83.9375,
            "E": 86.4375,
            "F": 86.1875,
            "G": 83.8125,
            "H": 83.8125,
            "I": 84.4,
            "J": 84.8,
            "K": 86.06666666666666
        },
        "bus3": {
            "J": 79.625,
            "K": 80.9375,
            "L": 82.6875,
            "A": 83.3125,
            "B": 84,
            "C": 82.8125,
            "D": 81,
            "E": 80.6,
            "F": 80.46666666666667,
            "G": 81.86666666666666,
            "H": 81.4,
            "I": 83.46666666666667
        }
    }
}           "H": 70.93333333333334
        }
    }
}