{
    "Average_holding_time": 19.67081850533808,
    "Average_travel_time_passengers": 2693.4006283828467,
    "Average_speed_busses": 0.04683333333333333,
    "Average_experienced_crowding": 81.79881476237404,
    "Average_covariation_headway": 0.3307211217353476,
    "Average_covariation_headway_stops": {
        "D": 0.2561552987063003,
        "E": 0.26822406925754716,
        "F": 0.2814060543858907,
        "C": 0.2588680242323019,
        "K": 0.26134626119317717,
        "J": 0.25023431987339473,
        "G": 0.2644902303055547,
        "L": 0.23751380869169997,
        "H": 0.26986213869342085,
        "A": 0.23421540073756472,
        "I": 0.258246631604629,
        "B": 0.2442678962331024
    },
    "Average_excess_waiting_time": {
        "D": 62.688637252309775,
        "E": 63.17326033599437,
        "F": 63.51971994239784,
        "C": 64.35511705302139,
        "K": 61.036938139150095,
        "J": 61.6476586285533,
        "G": 63.50269209910749,
        "L": 59.64839903961547,
        "H": 65.8851015434816,
        "A": 60.88032083814278,
        "I": 65.09436130990258,
        "B": 64.26544111693306
    },
    "Holding_per_stop": {
        "D": 18.51063829787234,
        "E": 14.361702127659575,
        "F": 17.05263157894737,
        "K": 23.93617021276596,
        "C": 23.225806451612904,
        "J": 21.70212765957447,
        "G": 25.21276595744681,
        "L": 18.19148936170213,
        "H": 21.612903225806452,
        "A": 11.290322580645162,
        "I": 22.903225806451612,
        "B": 18.06451612903226
    },
    "Load_per_bus_per_stop": {
        "bus1": {
            "D": 74.125,
            "E": 76.1875,
            "F": 78.125,
            "G": 78.8125,
            "H": 77.75,
            "I": 78.125,
            "J": 78.25,
            "K": 79.46666666666667,
            "L": 79.26666666666667,
            "A": 79,
            "B": 80.2,
            "C": 79.33333333333333
        },
        "bus2": {
            "E": 75.75,
            "F": 76.3125,
            "G": 77.5625,
            "H": 77.0625,
            "I": 77.625,
            "J": 77.1875,
            "K": 77.4375,
            "L": 76.4375,
            "A": 76.4,
            "B": 78.4,
            "C": 79.2,
            "D": 79.4
        },
        "bus3": {
            "F": 78.5,
            "G": 78.5,
            "H": 79.0625,
            "I": 82.625,
            "J": 80.75,
            "K": 82.0625,
            "L": 83.25,
            "A": 82.75,
            "B": 83.5625,
            "C": 84.73333333333333,
            "D": 87.33333333333333,
            "E": 86.6
        },
        "bus0": {
            "C": 83.375,
            "D": 83.0625,
            "E": 85.125,
            "F": 85.8125,
            "G": 85.8125,
            "H": 88.5625,
            "I": 88.46666666666667,
            "J": 87.66666666666667,
            "K": 89.46666666666667,
            "L": 89.13333333333334,
            "A": 89.26666666666667,
            "B": 87.66666666666667
        },
        "bus5": {
            "K": 77.375,
            "L": 74.0625,
            "A": 75.375,
            "B": 77,
            "C": 76.9375,
            "D": 76.6875,
            "E": 76.4375,
            "F": 78.125,
            "G": 82.06666666666666,
            "H": 82.33333333333333,
            "I": 82.13333333333334,
            "J": 82.73333333333333
        },
        "bus4": {
            "J": 68.5,
            "K": 69.125,
            "L": 69.8125,
            "A": 70.9375,
            "B": 71.75,
            "C": 73.875,
            "D": 75.125,
            "E": 78,
            "F": 76.8,
            "G": 74.73333333333333,
            "H": 73.93333333333334,
            "I": 73.66666666666667
        }
    }
}