{
    "Average_holding_time": 15.503533568904594,
    "Average_travel_time_passengers": 2665.6351191760177,
    "Average_speed_busses": 0.04716666666666667,
    "Average_experienced_crowding": 79.77119842745357,
    "Average_covariation_headway": 0.3178236379911257,
    "Average_covariation_headway_stops": {
        "C": 0.2371155792703389,
        "F": 0.2346988203738551,
        "D": 0.24423398752422917,
        "G": 0.24216431400327487,
        "A": 0.2023526679066919,
        "K": 0.19477453771461067,
        "E": 0.22878018980301787,
        "H": 0.21802723923152711,
        "B": 0.2029450826143787,
        "L": 0.18536876850341386,
        "I": 0.2092608703389332,
        "J": 0.21897238347923706
    },
    "Average_excess_waiting_time": {
        "C": 57.75981753427476,
        "F": 56.3754780406241,
        "D": 57.22025598520844,
        "G": 55.1015728894489,
        "A": 53.275277769204365,
        "K": 52.230177482930344,
        "E": 57.388131839503444,
        "H": 52.9071616332547,
        "B": 54.6186448593873,
        "L": 52.48018078193985,
        "I": 53.568044276532476,
        "J": 56.84196126456396
    },
    "Holding_per_stop": {
        "G": 16.736842105263158,
        "D": 19.263157894736842,
        "A": 7.340425531914893,
        "C": 20.106382978723403,
        "F": 17.36842105263158,
        "K": 15.957446808510639,
        "E": 19.46808510638298,
        "H": 13.578947368421053,
        "B": 12.446808510638299,
        "I": 15.319148936170214,
        "L": 17.23404255319149,
        "J": 11.170212765957446
    },
    "Load_per_bus_per_stop": {
        "bus0": {
            "C": 77.875,
            "D": 77.9375,
            "E": 79.1875,
            "F": 79.8125,
            "G": 81.125,
            "H": 79.75,
            "I": 80.4375,
            "J": 81.0625,
            "K": 82.8,
            "L": 82.86666666666666,
            "A": 83.06666666666666,
            "B": 83.86666666666666
        },
        "bus2": {
            "F": 70.625,
            "G": 71.875,
            "H": 71.5,
            "I": 72.9375,
            "J": 71.25,
            "K": 72.3125,
            "L": 72.875,
            "A": 73.0625,
            "B": 74,
            "C": 74.93333333333334,
            "D": 76.13333333333334,
            "E": 75.4
        },
        "bus1": {
            "D": 76.9375,
            "E": 79,
            "F": 79.0625,
            "G": 81.875,
            "H": 82.1875,
            "I": 83.1875,
            "J": 82.875,
            "K": 82.125,
            "L": 80,
            "A": 79.6,
            "B": 80.33333333333333,
            "C": 81.13333333333334
        },
        "bus3": {
            "G": 77.8125,
            "H": 77.6875,
            "I": 78.625,
            "J": 80.5625,
            "K": 83.0625,
            "L": 84.375,
            "A": 85.125,
            "B": 84.125,
            "C": 84,
            "D": 83.8125,
            "E": 82.13333333333334,
            "F": 83
        },
        "bus5": {
            "A": 73.5625,
            "B": 72.9375,
            "C": 72.6875,
            "D": 71.4375,
            "E": 71.3125,
            "F": 72.375,
            "G": 72.4375,
            "H": 74.875,
            "I": 76.66666666666667,
            "J": 78.33333333333333,
            "K": 79.26666666666667,
            "L": 78.66666666666667
        },
        "bus4": {
            "K": 74.625,
            "L": 75.25,
            "A": 75.25,
            "B": 74.4375,
            "C": 75.375,
            "D": 76.0625,
            "E": 76.0625,
            "F": 76.3125,
            "G": 75.6,
            "H": 76.8,
            "I": 77.33333333333333,
            "J": 76.46666666666667
        }
    }
}