{
    "Average_holding_time": 19.174714661984197,
    "Average_travel_time_passengers": 2691.9154549204586,
    "Average_speed_busses": 0.04745833333333333,
    "Average_experienced_crowding": 81.98894775169754,
    "Average_covariation_headway": 0.33795133175682346,
    "Average_covariation_headway_stops": {
        "A": 0.2541980531025451,
        "I": 0.24654912528529987,
        "F": 0.2561257528477251,
        "J": 0.24653161149841077,
        "H": 0.2458836527598349,
        "C": 0.25038129191347985,
        "K": 0.2273162234071323,
        "B": 0.23826143092823318,
        "G": 0.23863319287053536,
        "D": 0.24082300958086278,
        "L": 0.24392871110433823,
        "E": 0.254791368195186
    },
    "Average_excess_waiting_time": {
        "A": 56.38533702450144,
        "I": 56.110072606841186,
        "F": 59.257168096780106,
        "J": 54.286109433572676,
        "H": 57.48798193444884,
        "C": 55.680573777237385,
        "K": 52.60762881509737,
        "B": 55.77003851553343,
        "G": 58.167989146581874,
        "D": 56.01744046293106,
        "L": 56.72973744262447,
        "E": 60.782126065336456
    },
    "Holding_per_stop": {
        "I": 21.789473684210527,
        "J": 19.375,
        "A": 14.526315789473685,
        "H": 23.05263157894737,
        "C": 23.36842105263158,
        "F": 18,
        "K": 19.263157894736842,
        "B": 14.842105263157896,
        "D": 16.736842105263158,
        "G": 19.78723404255319,
        "L": 18.31578947368421,
        "E": 21.06382978723404
    },
    "Load_per_bus_per_stop": {
        "bus5": {
            "A": 81,
            "B": 80.1875,
            "C": 80.4375,
            "D": 81.125,
            "E": 80.5625,
            "F": 80.9375,
            "G": 84.5,
            "H": 86,
            "I": 87.0625,
            "J": 88.9375,
            "K": 90,
            "L": 86.86666666666666
        },
        "bus3": {
            "I": 69.4375,
            "J": 68.8125,
            "K": 68.3125,
            "L": 68.5625,
            "A": 68,
            "B": 69.5625,
            "C": 71.625,
            "D": 72.375,
            "E": 72.6875,
            "F": 73.0625,
            "G": 72.53333333333333,
            "H": 73.66666666666667
        },
        "bus1": {
            "F": 83.375,
            "G": 85.5625,
            "H": 85.375,
            "I": 85.4375,
            "J": 85.875,
            "K": 84.25,
            "L": 84.5,
            "A": 84,
            "B": 82.625,
            "C": 84.8125,
            "D": 85.86666666666666,
            "E": 85.8
        },
        "bus4": {
            "J": 74,
            "K": 75.625,
            "L": 76.3125,
            "A": 76.8125,
            "B": 75.4375,
            "C": 75.8125,
            "D": 77.0625,
            "E": 78,
            "F": 76.875,
            "G": 76.625,
            "H": 78.4375,
            "I": 79.8
        },
        "bus2": {
            "H": 74,
            "I": 76,
            "J": 78.125,
            "K": 77.3125,
            "L": 78.1875,
            "A": 77.375,
            "B": 76.9375,
            "C": 75.6875,
            "D": 74.5,
            "E": 76.73333333333333,
            "F": 78.4,
            "G": 79
        },
        "bus0": {
            "C": 78.4375,
            "D": 78.375,
            "E": 76.9375,
            "F": 78.4375,
            "G": 77.5,
            "H": 78.25,
            "I": 79.375,
            "J": 80.6875,
            "K": 80.9375,
            "L": 79.6875,
            "A": 79.8,
            "B": 82.06666666666666
        }
    }
}": 65.9375,
            "K": 66.9375,
            "L": 68.1875,
            "A": 67.875,
            "B": 66.6,
            "C": 69,
            "D": 68.2,
            "E": 69.4
        }
    }
}