{
    "Average_holding_time": 68.98450946643717,
    "Average_travel_time_passengers": 6931.129644188461,
    "Average_speed_busses": 0.02420833333333333,
    "Average_experienced_crowding": 592.232363214597,
    "Average_covariation_headway": 2.0057968977949905,
    "Average_covariation_headway_stops": {
        "F": 1.8525293732731067,
        "E": 1.8215289571620645,
        "G": 1.8587878429973483,
        "C": 1.8755795412928145,
        "L": 1.856477938452147,
        "A": 1.901993081499554,
        "D": 1.8147896389665992,
        "B": 1.869256442940294,
        "H": 1.8588662314703785,
        "I": 1.869098094262147,
        "J": 1.8680473824566561,
        "K": 1.864205214539471
    },
    "Average_excess_waiting_time": {
        "F": 2161.8553808656734,
        "E": 2115.7967581760795,
        "G": 2157.991573134802,
        "C": 2307.9106208181297,
        "L": 2274.2412811798436,
        "A": 2347.376668868954,
        "D": 2305.881059694726,
        "B": 2311.902713839117,
        "H": 2190.803640894485,
        "I": 2246.774948349121,
        "J": 2277.729531803865,
        "K": 2304.849988211906
    },
    "Holding_per_stop": {
        "F": 70.2127659574468,
        "C": 71.76470588235294,
        "A": 58.2,
        "E": 75.65217391304348,
        "G": 70.625,
        "L": 74.6938775510204,
        "D": 66.25,
        "B": 67.8,
        "H": 71.875,
        "I": 69.375,
        "J": 65.625,
        "K": 66.25
    },
    "Load_per_bus_per_stop": {
        "bus2": {
            "F": 41.625,
            "G": 41.625,
            "H": 40.875,
            "I": 42.625,
            "J": 43.125,
            "K": 44.25,
            "L": 47,
            "A": 45.875,
            "B": 46.5,
            "C": 47.875,
            "D": 52.125,
            "E": 48.57142857142857
        },
        "bus1": {
            "E": 4.125,
            "F": 4.75,
            "G": 5.875,
            "H": 6.5,
            "I": 7.125,
            "J": 6.875,
            "K": 5.875,
            "L": 6,
            "A": 6,
            "B": 5.625,
            "C": 4.75,
            "D": 4
        },
        "bus3": {
            "G": 584.25,
            "H": 595.5,
            "I": 597.375,
            "J": 607.125,
            "K": 616,
            "L": 635.625,
            "A": 646.125,
            "B": 655.875,
            "C": 669.125,
            "D": 685,
            "E": 636.2857142857143,
            "F": 647
        },
        "bus0": {
            "C": 5.222222222222222,
            "D": 5.666666666666667,
            "E": 6.75,
            "F": 6,
            "G": 6.375,
            "H": 6.875,
            "I": 8,
            "J": 7.625,
            "K": 8.25,
            "L": 8.625,
            "A": 7,
            "B": 6.25
        },
        "bus4": {
            "L": 120.88888888888889,
            "A": 121.88888888888889,
            "B": 119.66666666666667,
            "C": 120.44444444444444,
            "D": 133.25,
            "E": 134.125,
            "F": 133,
            "G": 136.5,
            "H": 133.5,
            "I": 133.75,
            "J": 135.125,
            "K": 134.375
        },
        "bus5": {
            "A": 29.666666666666668,
            "B": 30.11111111111111,
            "C": 33.77777777777778,
            "D": 35,
            "E": 35.125,
            "F": 36,
            "G": 34.625,
            "H": 33.5,
            "I": 33.75,
            "J": 33.125,
            "K": 31.375,
            "L": 31.25
        }
    }
}