{
    "Average_holding_time": 16.024518388791595,
    "Average_travel_time_passengers": 2705.1454787434577,
    "Average_speed_busses": 0.04758333333333333,
    "Average_experienced_crowding": 88.82511308306447,
    "Average_covariation_headway": 0.5371236571612017,
    "Average_covariation_headway_stops": {
        "B": 0.39989273961944116,
        "C": 0.39713111707167636,
        "D": 0.4075771227880862,
        "J": 0.4336355234184398,
        "I": 0.43350261186293365,
        "L": 0.42355606817841096,
        "E": 0.4058403744639307,
        "K": 0.4134033985004497,
        "A": 0.41329130059429625,
        "F": 0.4082251898503833,
        "G": 0.41817907589662556,
        "H": 0.42834975974598893
    },
    "Average_excess_waiting_time": {
        "B": 86.34899386509738,
        "C": 83.96137094076613,
        "D": 84.84407449862681,
        "J": 92.88559005917995,
        "I": 95.04431537081138,
        "L": 90.8224478797639,
        "E": 87.07445263121264,
        "K": 90.22820164316926,
        "A": 92.43910086579183,
        "F": 87.60534300474734,
        "G": 91.87771820895466,
        "H": 96.08089359392176
    },
    "Holding_per_stop": {
        "D": 20,
        "C": 13.894736842105264,
        "J": 25,
        "L": 19.375,
        "B": 13.404255319148936,
        "I": 13.894736842105264,
        "E": 17.05263157894737,
        "K": 14.526315789473685,
        "A": 11.368421052631579,
        "F": 12.31578947368421,
        "G": 17.05263157894737,
        "H": 14.210526315789474
    },
    "Load_per_bus_per_stop": {
        "bus0": {
            "B": 66.4375,
            "C": 66.25,
            "D": 69.125,
            "E": 67.8125,
            "F": 67.9375,
            "G": 67.875,
            "H": 66.5625,
            "I": 66.25,
            "J": 68.25,
            "K": 68,
            "L": 68.375,
            "A": 71.46666666666667
        },
        "bus1": {
            "C": 68.25,
            "D": 67.25,
            "E": 68.1875,
            "F": 68.875,
            "G": 69.5625,
            "H": 70.0625,
            "I": 71.5,
            "J": 72.1875,
            "K": 72.375,
            "L": 71.8125,
            "A": 70.6875,
            "B": 72.8
        },
        "bus2": {
            "D": 81.75,
            "E": 82.75,
            "F": 84.3125,
            "G": 84.625,
            "H": 85.6875,
            "I": 88.5,
            "J": 89.625,
            "K": 90.375,
            "L": 88.25,
            "A": 89,
            "B": 86.93333333333334,
            "C": 86.73333333333333
        },
        "bus4": {
            "J": 89.875,
            "K": 91.25,
            "L": 93.8125,
            "A": 94.5,
            "B": 95.75,
            "C": 92.75,
            "D": 93.4375,
            "E": 95.1875,
            "F": 95.6875,
            "G": 96.3125,
            "H": 96.5,
            "I": 94.86666666666666
        },
        "bus3": {
            "I": 64.125,
            "J": 64.25,
            "K": 64.3125,
            "L": 65.625,
            "A": 66.625,
            "B": 67.9375,
            "C": 68.0625,
            "D": 69.125,
            "E": 69.0625,
            "F": 68.4,
            "G": 69.8,
            "H": 70.13333333333334
        },
        "bus5": {
            "L": 79.6875,
            "A": 78.8125,
            "B": 78.5625,
            "C": 78.9375,
            "D": 78.875,
            "E": 80,
            "F": 79.5,
            "G": 81.25,
            "H": 82.3125,
            "I": 83.8125,
            "J": 83.25,
            "K": 83.66666666666667
        }
    }
}