{
    "Average_holding_time": 20.654867256637168,
    "Average_travel_time_passengers": 2783.996372529605,
    "Average_speed_busses": 0.04708333333333333,
    "Average_experienced_crowding": 95.68306238862877,
    "Average_covariation_headway": 0.6027634408650688,
    "Average_covariation_headway_stops": {
        "F": 0.4705419230193137,
        "A": 0.4833687983791168,
        "J": 0.4846946087053727,
        "B": 0.4784418096719084,
        "I": 0.4726234381481279,
        "K": 0.4909953528863837,
        "C": 0.47563818290489457,
        "G": 0.4587593586692224,
        "L": 0.48838562544660313,
        "D": 0.4614307571292409,
        "H": 0.47205577354142764,
        "E": 0.4505029492369698
    },
    "Average_excess_waiting_time": {
        "F": 112.53628338213184,
        "A": 109.86032676674597,
        "J": 114.23320332710676,
        "B": 106.87833113487119,
        "I": 112.60483950540907,
        "K": 113.76455884436552,
        "C": 108.81178481888077,
        "G": 110.51125027154666,
        "L": 113.84797310270352,
        "D": 108.08892187620745,
        "H": 116.32722242349564,
        "E": 106.54613964373397
    },
    "Holding_per_stop": {
        "J": 21.382978723404257,
        "B": 17.8125,
        "F": 22.02127659574468,
        "A": 18,
        "K": 28.736842105263158,
        "I": 21.612903225806452,
        "C": 22.105263157894736,
        "G": 14.193548387096774,
        "L": 18.829787234042552,
        "D": 24.893617021276597,
        "H": 21.93548387096774,
        "E": 16.27659574468085
    },
    "Load_per_bus_per_stop": {
        "bus1": {
            "F": 56.1875,
            "G": 55.875,
            "H": 58.5625,
            "I": 57,
            "J": 57.3125,
            "K": 57.9375,
            "L": 59.625,
            "A": 58.9375,
            "B": 58.8125,
            "C": 58.666666666666664,
            "D": 60.46666666666667,
            "E": 59.6
        },
        "bus5": {
            "A": 86.0625,
            "B": 87.875,
            "C": 88.375,
            "D": 89.375,
            "E": 90.9375,
            "F": 91.1875,
            "G": 92.9375,
            "H": 92.75,
            "I": 90.6,
            "J": 89,
            "K": 90.4,
            "L": 90.86666666666666
        },
        "bus3": {
            "J": 65.0625,
            "K": 64.8125,
            "L": 63.5,
            "A": 62.625,
            "B": 59.875,
            "C": 61.8125,
            "D": 62,
            "E": 63.8125,
            "F": 68.6,
            "G": 68.13333333333334,
            "H": 67.6,
            "I": 68.73333333333333
        },
        "bus0": {
            "B": 81,
            "C": 81.4375,
            "D": 80.8125,
            "E": 83.8125,
            "F": 83.4375,
            "G": 84.75,
            "H": 84,
            "I": 85.625,
            "J": 85.6875,
            "K": 87.125,
            "L": 85.86666666666666,
            "A": 86.86666666666666
        },
        "bus2": {
            "I": 67.4375,
            "J": 66.3125,
            "K": 67.5625,
            "L": 66.5,
            "A": 67.1875,
            "B": 66.75,
            "C": 67.25,
            "D": 67.13333333333334,
            "E": 68.4,
            "F": 69.53333333333333,
            "G": 69.93333333333334,
            "H": 70
        },
        "bus4": {
            "K": 101.0625,
            "L": 102,
            "A": 103.8125,
            "B": 105.0625,
            "C": 106.625,
            "D": 106.875,
            "E": 110.375,
            "F": 110.875,
            "G": 111.33333333333333,
            "H": 108.2,
            "I": 106.4,
            "J": 106.86666666666666
        }
    }
}