{
    "Average_holding_time": 20.621669626998223,
    "Average_travel_time_passengers": 2703.263584408344,
    "Average_speed_busses": 0.04691666666666667,
    "Average_experienced_crowding": 80.87154116192092,
    "Average_covariation_headway": 0.29556844188984527,
    "Average_covariation_headway_stops": {
        "J": 0.2153406941698451,
        "L": 0.2007595777121158,
        "K": 0.22564106131705522,
        "G": 0.22587404485966633,
        "F": 0.24407472968506083,
        "C": 0.20833216254364273,
        "A": 0.19140720427540756,
        "H": 0.20194229952342665,
        "D": 0.20747672364102526,
        "B": 0.1928381989287479,
        "I": 0.1988733862287554,
        "E": 0.21344126072306904
    },
    "Average_excess_waiting_time": {
        "J": 56.89669300502334,
        "L": 52.048163916756494,
        "K": 56.319010088715686,
        "G": 56.763900564822734,
        "F": 61.61406097029868,
        "C": 54.788679090872904,
        "A": 52.44488470764202,
        "H": 55.617767643225534,
        "D": 56.23291358438621,
        "B": 54.2834370883964,
        "I": 56.87337281105874,
        "E": 59.19964773870777
    },
    "Holding_per_stop": {
        "L": 23.05263157894737,
        "K": 21.70212765957447,
        "G": 20.74468085106383,
        "C": 22.02127659574468,
        "J": 28.404255319148938,
        "F": 28.085106382978722,
        "A": 10.53191489361702,
        "H": 18.387096774193548,
        "D": 18.51063829787234,
        "B": 19.148936170212767,
        "I": 18.70967741935484,
        "E": 18.06451612903226
    },
    "Load_per_bus_per_stop": {
        "bus3": {
            "J": 72.875,
            "K": 72.9375,
            "L": 73.3125,
            "A": 74,
            "B": 75.875,
            "C": 75.1875,
            "D": 76.6875,
            "E": 74.8,
            "F": 75.66666666666667,
            "G": 78.13333333333334,
            "H": 77,
            "I": 76.8
        },
        "bus5": {
            "L": 68.75,
            "A": 69.375,
            "B": 69.75,
            "C": 68.6875,
            "D": 68.25,
            "E": 68.8125,
            "F": 70.375,
            "G": 71.8125,
            "H": 70.33333333333333,
            "I": 69.06666666666666,
            "J": 71.06666666666666,
            "K": 72.13333333333334
        },
        "bus4": {
            "K": 83.125,
            "L": 83.1875,
            "A": 81.9375,
            "B": 81.3125,
            "C": 80.9375,
            "D": 80,
            "E": 77.0625,
            "F": 79.0625,
            "G": 82.2,
            "H": 83.66666666666667,
            "I": 86.06666666666666,
            "J": 87.53333333333333
        },
        "bus2": {
            "G": 71.3125,
            "H": 71.3125,
            "I": 71.125,
            "J": 73.375,
            "K": 73.5625,
            "L": 76.3125,
            "A": 76.4375,
            "B": 77,
            "C": 79,
            "D": 78.2,
            "E": 76.93333333333334,
            "F": 77.46666666666667
        },
        "bus1": {
            "F": 82.125,
            "G": 80.5,
            "H": 80.5,
            "I": 81.3125,
            "J": 80.5625,
            "K": 79.125,
            "L": 79.9375,
            "A": 81.8,
            "B": 85.4,
            "C": 86.73333333333333,
            "D": 87.2,
            "E": 87.86666666666666
        },
        "bus0": {
            "C": 81.75,
            "D": 83.3125,
            "E": 87.4375,
            "F": 85.625,
            "G": 85,
            "H": 85.9375,
            "I": 85.625,
            "J": 87.0625,
            "K": 86.66666666666667,
            "L": 85.53333333333333,
            "A": 85.73333333333333,
            "B": 86.8
        }
    }
}}}
    }
}