{
    "Average_holding_time": 16.55447298494243,
    "Average_travel_time_passengers": 2767.5384551606044,
    "Average_speed_busses": 0.04704166666666667,
    "Average_experienced_crowding": 92.21198059027473,
    "Average_covariation_headway": 0.5775608674450514,
    "Average_covariation_headway_stops": {
        "L": 0.4323409560518589,
        "G": 0.45000802484093266,
        "A": 0.4245127561923983,
        "I": 0.46457738145801647,
        "H": 0.44428670244687957,
        "B": 0.4306731861371054,
        "J": 0.4552725593447301,
        "C": 0.42776428671383815,
        "K": 0.43787846366988586,
        "D": 0.4206812592433441,
        "E": 0.42180733379648705,
        "F": 0.43810769436818364
    },
    "Average_excess_waiting_time": {
        "L": 100.28440245279705,
        "G": 104.90475900107873,
        "A": 95.94439325676854,
        "I": 105.11076689312506,
        "H": 101.58712325201469,
        "B": 95.20362161785584,
        "J": 104.38347669009852,
        "C": 96.25719777213027,
        "K": 102.71210028587501,
        "D": 96.53022321980194,
        "E": 98.68528827729529,
        "F": 105.20998714294689
    },
    "Holding_per_stop": {
        "A": 17.872340425531913,
        "G": 17.419354838709676,
        "I": 18.31578947368421,
        "H": 13.404255319148936,
        "B": 13.263157894736842,
        "L": 17.5531914893617,
        "J": 19.46808510638298,
        "C": 19.57894736842105,
        "K": 18.829787234042552,
        "D": 16.27659574468085,
        "E": 14.042553191489361,
        "F": 12.580645161290322
    },
    "Load_per_bus_per_stop": {
        "bus4": {
            "L": 69.5625,
            "A": 68.8125,
            "B": 72.0625,
            "C": 73.25,
            "D": 73.5625,
            "E": 75.1875,
            "F": 76.5,
            "G": 75.33333333333333,
            "H": 75.4,
            "I": 76.53333333333333,
            "J": 76.26666666666667,
            "K": 75.13333333333334
        },
        "bus1": {
            "G": 79.75,
            "H": 79.625,
            "I": 79.375,
            "J": 79.9375,
            "K": 82.0625,
            "L": 83,
            "A": 82.75,
            "B": 79.93333333333334,
            "C": 79.66666666666667,
            "D": 80.66666666666667,
            "E": 81.06666666666666,
            "F": 82.06666666666666
        },
        "bus5": {
            "A": 50.3125,
            "B": 50.25,
            "C": 50.75,
            "D": 51.4375,
            "E": 52.5625,
            "F": 54.4375,
            "G": 53.75,
            "H": 53.3125,
            "I": 55.3125,
            "J": 55.0625,
            "K": 53.666666666666664,
            "L": 51.8
        },
        "bus3": {
            "I": 94.25,
            "J": 94.5625,
            "K": 96.125,
            "L": 99.875,
            "A": 99.25,
            "B": 100.125,
            "C": 98.5,
            "D": 98.5625,
            "E": 99.5625,
            "F": 101,
            "G": 100.73333333333333,
            "H": 99.2
        },
        "bus2": {
            "H": 78.75,
            "I": 76.75,
            "J": 77.75,
            "K": 78.5,
            "L": 79.0625,
            "A": 80.9375,
            "B": 79.75,
            "C": 80.25,
            "D": 81.73333333333333,
            "E": 83.33333333333333,
            "F": 85.4,
            "G": 85.53333333333333
        },
        "bus0": {
            "B": 90.3125,
            "C": 90.3125,
            "D": 90.4375,
            "E": 91.625,
            "F": 91.3125,
            "G": 91.4375,
            "H": 91.8125,
            "I": 90.6875,
            "J": 92.625,
            "K": 92.5,
            "L": 96.86666666666666,
            "A": 96.86666666666666
        }
    }
}