{
    "Average_holding_time": 18.021201413427562,
    "Average_travel_time_passengers": 2729.4525196531054,
    "Average_speed_busses": 0.04716666666666667,
    "Average_experienced_crowding": 85.21890661952665,
    "Average_covariation_headway": 0.3369632995336261,
    "Average_covariation_headway_stops": {
        "G": 0.266414141525208,
        "K": 0.2539201565086019,
        "L": 0.23560165065702823,
        "F": 0.2615363433819478,
        "A": 0.2501722660386451,
        "D": 0.2531892806273281,
        "H": 0.262799832547402,
        "B": 0.26852691534212053,
        "E": 0.24793764134486437,
        "I": 0.2350761510271867,
        "C": 0.24557538313668215,
        "J": 0.2551288233520419
    },
    "Average_excess_waiting_time": {
        "G": 59.69136850548955,
        "K": 61.59917631591435,
        "L": 57.00346467261937,
        "F": 60.286445806675204,
        "A": 57.204317217785444,
        "D": 59.13925537741085,
        "H": 60.83004721302143,
        "B": 61.80124847509114,
        "E": 60.484608190781046,
        "I": 58.60416196101079,
        "C": 59.920389266824714,
        "J": 63.234915025108364
    },
    "Holding_per_stop": {
        "G": 18,
        "A": 7.2631578947368425,
        "L": 15.319148936170214,
        "F": 18.829787234042552,
        "D": 23.68421052631579,
        "K": 16.914893617021278,
        "H": 21.157894736842106,
        "B": 16.736842105263158,
        "E": 22.340425531914892,
        "I": 19.148936170212767,
        "C": 15,
        "J": 21.93548387096774
    },
    "Load_per_bus_per_stop": {
        "bus2": {
            "G": 94.5625,
            "H": 95,
            "I": 98.3125,
            "J": 97.6875,
            "K": 95.0625,
            "L": 94.25,
            "A": 91.5625,
            "B": 92.8125,
            "C": 94.625,
            "D": 96.6875,
            "E": 101.2,
            "F": 101.46666666666667
        },
        "bus3": {
            "K": 81.3125,
            "L": 81.625,
            "A": 82.1875,
            "B": 85.875,
            "C": 87.8125,
            "D": 89.625,
            "E": 91.1875,
            "F": 90.33333333333333,
            "G": 90.73333333333333,
            "H": 89.33333333333333,
            "I": 88.13333333333334,
            "J": 86.4
        },
        "bus4": {
            "L": 73.25,
            "A": 75.125,
            "B": 77,
            "C": 78.5,
            "D": 79.5,
            "E": 78.5625,
            "F": 78.3125,
            "G": 75.625,
            "H": 77.0625,
            "I": 74.4,
            "J": 74.86666666666666,
            "K": 75.26666666666667
        },
        "bus1": {
            "F": 73.5,
            "G": 73.6875,
            "H": 73.5,
            "I": 73.75,
            "J": 76.125,
            "K": 77.4375,
            "L": 77,
            "A": 77.5625,
            "B": 77.5625,
            "C": 76.4,
            "D": 76.86666666666666,
            "E": 77.53333333333333
        },
        "bus5": {
            "A": 78.375,
            "B": 77.75,
            "C": 79.1875,
            "D": 77.8125,
            "E": 78.4375,
            "F": 78.9375,
            "G": 79.375,
            "H": 81.1875,
            "I": 82.4375,
            "J": 82.3125,
            "K": 82.53333333333333,
            "L": 81.86666666666666
        },
        "bus0": {
            "D": 71.875,
            "E": 71,
            "F": 74.875,
            "G": 76.9375,
            "H": 77.375,
            "I": 78.5625,
            "J": 79.3125,
            "K": 79.4375,
            "L": 78.26666666666667,
            "A": 77.6,
            "B": 76.8,
            "C": 75.73333333333333
        }
    }
}