{
    "Average_holding_time": 20.86294416243655,
    "Average_travel_time_passengers": 5194.462147737019,
    "Average_speed_busses": 0.03283333333333333,
    "Average_experienced_crowding": 449.91208468231343,
    "Average_covariation_headway": 2.0272560369395447,
    "Average_covariation_headway_stops": {
        "A": 1.8806260375390385,
        "F": 1.8785209637933262,
        "B": 1.8292155514507633,
        "L": 1.8735887175635895,
        "E": 1.8654185345820113,
        "C": 1.8661527549488082,
        "G": 1.8684314703581228,
        "D": 1.8541571463670268,
        "H": 1.854468244119801,
        "I": 1.8566577197485616,
        "J": 1.8569202705246832,
        "K": 1.858889606865625
    },
    "Average_excess_waiting_time": {
        "A": 1687.8195468789804,
        "F": 1605.7516313055496,
        "B": 1705.571017914822,
        "L": 1686.7204187559887,
        "E": 1593.262361290448,
        "C": 1582.9932360021976,
        "G": 1608.4813815717798,
        "D": 1585.605822400777,
        "H": 1605.3552645817858,
        "I": 1627.7822070602326,
        "J": 1648.8296523383506,
        "K": 1672.5770864539754
    },
    "Holding_per_stop": {
        "A": 24.705882352941178,
        "F": 20.90909090909091,
        "B": 20.15625,
        "C": 22.5,
        "L": 21.044776119402986,
        "E": 22.153846153846153,
        "G": 20.90909090909091,
        "D": 22.96875,
        "H": 20,
        "I": 19.545454545454547,
        "J": 18.636363636363637,
        "K": 16.818181818181817
    },
    "Load_per_bus_per_stop": {
        "bus5": {
            "A": 12.583333333333334,
            "B": 12.727272727272727,
            "C": 12.909090909090908,
            "D": 14.636363636363637,
            "E": 15.090909090909092,
            "F": 15,
            "G": 14.909090909090908,
            "H": 14.818181818181818,
            "I": 14.090909090909092,
            "J": 13.636363636363637,
            "K": 13,
            "L": 12.909090909090908
        },
        "bus3": {
            "F": 454.1818181818182,
            "G": 457.6363636363636,
            "H": 465.3636363636364,
            "I": 467.6363636363636,
            "J": 475.3636363636364,
            "K": 487.27272727272725,
            "L": 492.27272727272725,
            "A": 499.3636363636364,
            "B": 507.45454545454544,
            "C": 477.8,
            "D": 486,
            "E": 491.9
        },
        "bus0": {
            "B": 3.8181818181818183,
            "C": 4.181818181818182,
            "D": 4,
            "E": 4,
            "F": 4.363636363636363,
            "G": 4.545454545454546,
            "H": 4.363636363636363,
            "I": 4.7272727272727275,
            "J": 4.2727272727272725,
            "K": 4.2727272727272725,
            "L": 4.363636363636363,
            "A": 3.909090909090909
        },
        "bus4": {
            "L": 94.25,
            "A": 94.91666666666667,
            "B": 102,
            "C": 100.72727272727273,
            "D": 101.45454545454545,
            "E": 100.54545454545455,
            "F": 99.18181818181819,
            "G": 102.18181818181819,
            "H": 102,
            "I": 103.45454545454545,
            "J": 103.9090909090909,
            "K": 101.81818181818181
        },
        "bus2": {
            "E": 23.09090909090909,
            "F": 24.454545454545453,
            "G": 25.454545454545453,
            "H": 25.90909090909091,
            "I": 26.818181818181817,
            "J": 26.636363636363637,
            "K": 26.818181818181817,
            "L": 27.363636363636363,
            "A": 27.454545454545453,
            "B": 28.09090909090909,
            "C": 25.7,
            "D": 26.4
        },
        "bus1": {
            "C": 8.181818181818182,
            "D": 8.909090909090908,
            "E": 9.636363636363637,
            "F": 9.818181818181818,
            "G": 9.545454545454545,
            "H": 9,
            "I": 8.363636363636363,
            "J": 7.090909090909091,
            "K": 8,
            "L": 8.454545454545455,
            "A": 8.545454545454545,
            "B": 9
        }
    }
}