{
    "Average_holding_time": 19.665198237885463,
    "Average_travel_time_passengers": 2693.5085292939343,
    "Average_speed_busses": 0.04729166666666667,
    "Average_experienced_crowding": 80.55077996095534,
    "Average_covariation_headway": 0.32945819315881675,
    "Average_covariation_headway_stops": {
        "D": 0.25937558897096585,
        "K": 0.25082249429090075,
        "C": 0.25927216706728023,
        "F": 0.274613235411975,
        "I": 0.26536630649017734,
        "E": 0.27244755758533945,
        "G": 0.2543108391701455,
        "L": 0.21990252688929124,
        "J": 0.2431246938323825,
        "H": 0.25976175689685743,
        "A": 0.21559011844268694,
        "B": 0.25006882869314406
    },
    "Average_excess_waiting_time": {
        "D": 60.30088833228501,
        "K": 57.77303989047101,
        "C": 61.77355045547324,
        "F": 59.01801200965497,
        "I": 59.81975644577949,
        "E": 60.730428347021814,
        "G": 58.48224726106491,
        "L": 54.4145722652612,
        "J": 58.02817601697501,
        "H": 61.0364330529755,
        "A": 55.21549799784145,
        "B": 62.08477371277246
    },
    "Holding_per_stop": {
        "F": 23.75,
        "K": 21.157894736842106,
        "D": 21.473684210526315,
        "I": 18.63157894736842,
        "E": 19.894736842105264,
        "C": 22.02127659574468,
        "G": 18.63157894736842,
        "L": 18.19148936170213,
        "J": 20.425531914893618,
        "H": 19.46808510638298,
        "A": 10.851063829787234,
        "B": 21.382978723404257
    },
    "Load_per_bus_per_stop": {
        "bus1": {
            "D": 67.0625,
            "E": 68.6875,
            "F": 69.875,
            "G": 71.75,
            "H": 70.6875,
            "I": 71.8125,
            "J": 70.9375,
            "K": 70.5625,
            "L": 70.06666666666666,
            "A": 71.93333333333334,
            "B": 71.73333333333333,
            "C": 72.06666666666666
        },
        "bus5": {
            "K": 81.625,
            "L": 84.1875,
            "A": 85.25,
            "B": 85.25,
            "C": 87.5,
            "D": 86.3125,
            "E": 86.75,
            "F": 86.875,
            "G": 86.0625,
            "H": 86.33333333333333,
            "I": 86.26666666666667,
            "J": 88.4
        },
        "bus0": {
            "C": 59.6875,
            "D": 59.375,
            "E": 59,
            "F": 60,
            "G": 59.8125,
            "H": 60.9375,
            "I": 62,
            "J": 62.5,
            "K": 63.266666666666666,
            "L": 63.8,
            "A": 63.53333333333333,
            "B": 63.13333333333333
        },
        "bus3": {
            "F": 74.0625,
            "G": 74.6875,
            "H": 74.4375,
            "I": 75.6875,
            "J": 78.0625,
            "K": 77.625,
            "L": 78.875,
            "A": 80.25,
            "B": 80.6875,
            "C": 80.8125,
            "D": 79.9375,
            "E": 79.73333333333333
        },
        "bus4": {
            "I": 73.6875,
            "J": 76.125,
            "K": 76.3125,
            "L": 77.4375,
            "A": 76.375,
            "B": 76.375,
            "C": 77.625,
            "D": 80.375,
            "E": 81.3125,
            "F": 81.75,
            "G": 82.4,
            "H": 80.26666666666667
        },
        "bus2": {
            "E": 86.125,
            "F": 87.125,
            "G": 87.9375,
            "H": 88,
            "I": 87.4375,
            "J": 87.3125,
            "K": 88.5625,
            "L": 88.3125,
            "A": 86.375,
            "B": 86.25,
            "C": 87.6,
            "D": 89.33333333333333
        }
    }
}