{
    "Average_holding_time": 14.191304347826087,
    "Average_travel_time_passengers": 2701.468807856173,
    "Average_speed_busses": 0.04791666666666667,
    "Average_experienced_crowding": 88.94533147103888,
    "Average_covariation_headway": 0.5117761635621655,
    "Average_covariation_headway_stops": {
        "J": 0.3823363773503489,
        "E": 0.40129490426682185,
        "K": 0.3946922084865247,
        "H": 0.3908164622758742,
        "F": 0.40114948353473073,
        "A": 0.3825544440492107,
        "I": 0.38336643997834363,
        "B": 0.38408970333520065,
        "G": 0.38850927724883516,
        "L": 0.3943189426189505,
        "C": 0.3923314284592908,
        "D": 0.39008363495886916
    },
    "Average_excess_waiting_time": {
        "J": 80.85461860617039,
        "E": 85.26117316804653,
        "K": 80.2418617808487,
        "H": 79.90462058357804,
        "F": 82.7672584963521,
        "A": 77.98593409439951,
        "I": 80.82868522560852,
        "B": 79.98807535240957,
        "G": 81.61292220719406,
        "L": 82.75547360376629,
        "C": 83.8379587627652,
        "D": 84.53148263011167
    },
    "Holding_per_stop": {
        "H": 15.3125,
        "K": 15,
        "F": 16.5625,
        "A": 10.625,
        "E": 9.375,
        "J": 16.25,
        "I": 15.9375,
        "B": 9.375,
        "G": 13.4375,
        "L": 11.875,
        "C": 17.36842105263158,
        "D": 19.263157894736842
    },
    "Load_per_bus_per_stop": {
        "bus3": {
            "J": 76.0625,
            "K": 76.9375,
            "L": 76.9375,
            "A": 75.625,
            "B": 76,
            "C": 77.0625,
            "D": 77.5,
            "E": 76.875,
            "F": 77.4375,
            "G": 77.75,
            "H": 76.0625,
            "I": 77.75
        },
        "bus0": {
            "E": 68.0625,
            "F": 67.0625,
            "G": 69.75,
            "H": 70.75,
            "I": 72.5,
            "J": 72.9375,
            "K": 71.4375,
            "L": 73.375,
            "A": 73.75,
            "B": 75,
            "C": 74.625,
            "D": 73.53333333333333
        },
        "bus4": {
            "K": 63.625,
            "L": 62.5,
            "A": 63.0625,
            "B": 63.9375,
            "C": 66.25,
            "D": 67.1875,
            "E": 67.8125,
            "F": 69.0625,
            "G": 70.9375,
            "H": 72.3125,
            "I": 72.875,
            "J": 70.4375
        },
        "bus2": {
            "H": 91.23529411764706,
            "I": 91.3125,
            "J": 91.4375,
            "K": 94.875,
            "L": 96,
            "A": 94.5,
            "B": 95.0625,
            "C": 95.875,
            "D": 96.25,
            "E": 96.5,
            "F": 97.1875,
            "G": 97.5
        },
        "bus1": {
            "F": 79.25,
            "G": 79.75,
            "H": 80.5,
            "I": 82.3125,
            "J": 85.1875,
            "K": 84.9375,
            "L": 85.4375,
            "A": 86.3125,
            "B": 86.75,
            "C": 86.625,
            "D": 86.125,
            "E": 86
        },
        "bus5": {
            "A": 72,
            "B": 71.375,
            "C": 73.4375,
            "D": 73.5,
            "E": 74.625,
            "F": 74.4375,
            "G": 76.375,
            "H": 75.5,
            "I": 77,
            "J": 78.1875,
            "K": 78.8125,
            "L": 77.5625
        }
    }
}80.6875,
            "B": 81.5625,
            "C": 82.5625
        }
    }
}