{
    "Average_holding_time": 18.031634446397188,
    "Average_travel_time_passengers": 2669.873006260588,
    "Average_speed_busses": 0.04741666666666667,
    "Average_experienced_crowding": 81.3123996886427,
    "Average_covariation_headway": 0.2917316385284592,
    "Average_covariation_headway_stops": {
        "H": 0.22016386195929535,
        "D": 0.2327455460474294,
        "A": 0.22077675230907684,
        "E": 0.24670423607404887,
        "B": 0.22737080865115322,
        "L": 0.22467520603398275,
        "C": 0.22323262334236513,
        "F": 0.22861387090442006,
        "I": 0.20953657683375349,
        "G": 0.2000308965875949,
        "J": 0.20049847150852704,
        "K": 0.22214443959623784
    },
    "Average_excess_waiting_time": {
        "H": 51.60798365382499,
        "D": 53.318042897332646,
        "A": 53.15932053809439,
        "E": 53.675719039800754,
        "B": 52.445155385222506,
        "L": 55.46238572406412,
        "C": 53.7834794803353,
        "F": 52.54512279071946,
        "I": 51.8083813043466,
        "G": 50.567404248098114,
        "J": 52.287523070590396,
        "K": 57.13015628405623
    },
    "Holding_per_stop": {
        "H": 16.736842105263158,
        "E": 18.75,
        "B": 13.894736842105264,
        "A": 16.42105263157895,
        "D": 20.842105263157894,
        "L": 21.06382978723404,
        "C": 19.263157894736842,
        "F": 16.736842105263158,
        "I": 18.94736842105263,
        "G": 19.263157894736842,
        "J": 15.638297872340425,
        "K": 18.829787234042552
    },
    "Load_per_bus_per_stop": {
        "bus3": {
            "H": 71.1875,
            "I": 74.0625,
            "J": 75.4375,
            "K": 73.9375,
            "L": 75.125,
            "A": 75.875,
            "B": 76.8125,
            "C": 75.625,
            "D": 77.3125,
            "E": 77.375,
            "F": 76.13333333333334,
            "G": 75.86666666666666
        },
        "bus1": {
            "D": 68.625,
            "E": 72.0625,
            "F": 75.75,
            "G": 77.875,
            "H": 78.3125,
            "I": 78.8125,
            "J": 79.875,
            "K": 79.375,
            "L": 76.9375,
            "A": 75.375,
            "B": 73.6875,
            "C": 72
        },
        "bus5": {
            "A": 82.8125,
            "B": 84.375,
            "C": 85.6875,
            "D": 86.125,
            "E": 84.625,
            "F": 84,
            "G": 85.8125,
            "H": 87.6875,
            "I": 87.375,
            "J": 86.9375,
            "K": 90.73333333333333,
            "L": 91.73333333333333
        },
        "bus2": {
            "E": 69.5,
            "F": 68.8125,
            "G": 70.5,
            "H": 72.5,
            "I": 72.3125,
            "J": 72.8125,
            "K": 72.625,
            "L": 73.5625,
            "A": 74.1875,
            "B": 75.1875,
            "C": 74.6875,
            "D": 74.53333333333333
        },
        "bus0": {
            "B": 73.75,
            "C": 74.0625,
            "D": 76.375,
            "E": 78.125,
            "F": 78.625,
            "G": 77.75,
            "H": 78.125,
            "I": 78,
            "J": 78,
            "K": 78.5,
            "L": 77.86666666666666,
            "A": 78.26666666666667
        },
        "bus4": {
            "L": 84,
            "A": 83.875,
            "B": 83,
            "C": 85.125,
            "D": 86.6875,
            "E": 88.625,
            "F": 87.25,
            "G": 87.5,
            "H": 87.93333333333334,
            "I": 88.26666666666667,
            "J": 88.13333333333334,
            "K": 87.26666666666667
        }
    }
}