{
    "Average_holding_time": 17.297535211267604,
    "Average_travel_time_passengers": 2680.610181435838,
    "Average_speed_busses": 0.04733333333333333,
    "Average_experienced_crowding": 80.6821234252841,
    "Average_covariation_headway": 0.28431359265721434,
    "Average_covariation_headway_stops": {
        "L": 0.2212777641222067,
        "H": 0.2096294681135307,
        "B": 0.2138276190011518,
        "C": 0.21101733574213297,
        "J": 0.20947339448262584,
        "D": 0.23091894969824828,
        "A": 0.22045015467093548,
        "K": 0.21039563240121184,
        "E": 0.2029230502299776,
        "I": 0.19507787053784859,
        "F": 0.19301882758561983,
        "G": 0.2056233674710537
    },
    "Average_excess_waiting_time": {
        "L": 54.19610248138673,
        "H": 52.73658025694641,
        "B": 53.52183661264149,
        "C": 52.165444144111405,
        "J": 52.87119123582653,
        "D": 52.43965059009366,
        "A": 56.37528429110341,
        "K": 54.89268749752313,
        "E": 50.379089594428365,
        "I": 53.07060782141917,
        "F": 50.58945758850393,
        "G": 54.06829155291712
    },
    "Holding_per_stop": {
        "L": 16.42105263157895,
        "C": 18,
        "J": 19.57894736842105,
        "D": 21.157894736842106,
        "B": 22.42105263157895,
        "H": 16.105263157894736,
        "A": 13.404255319148936,
        "K": 19.46808510638298,
        "E": 18.94736842105263,
        "I": 14.361702127659575,
        "F": 14.526315789473685,
        "G": 13.085106382978724
    },
    "Load_per_bus_per_stop": {
        "bus5": {
            "L": 77.8125,
            "A": 78.125,
            "B": 79.0625,
            "C": 78.1875,
            "D": 79.6875,
            "E": 80.1875,
            "F": 80.625,
            "G": 81.3125,
            "H": 82,
            "I": 83,
            "J": 83,
            "K": 83.26666666666667
        },
        "bus3": {
            "H": 71.3125,
            "I": 72,
            "J": 74.875,
            "K": 77.625,
            "L": 76.625,
            "A": 79.5,
            "B": 79,
            "C": 77.6875,
            "D": 77.66666666666667,
            "E": 77.53333333333333,
            "F": 77,
            "G": 76.8
        },
        "bus0": {
            "B": 71.5625,
            "C": 72.625,
            "D": 72.75,
            "E": 74.875,
            "F": 74.5,
            "G": 73.9375,
            "H": 74.6875,
            "I": 76.125,
            "J": 74.6875,
            "K": 75.13333333333334,
            "L": 76.66666666666667,
            "A": 77.06666666666666
        },
        "bus1": {
            "C": 74.5,
            "D": 74.5,
            "E": 73.875,
            "F": 77.6875,
            "G": 77.9375,
            "H": 77.1875,
            "I": 78.625,
            "J": 78.4375,
            "K": 78.0625,
            "L": 79,
            "A": 79.73333333333333,
            "B": 82.13333333333334
        },
        "bus4": {
            "J": 77.75,
            "K": 78.6875,
            "L": 79.9375,
            "A": 78.875,
            "B": 80.0625,
            "C": 83.3125,
            "D": 83.625,
            "E": 81.8125,
            "F": 83.125,
            "G": 82.93333333333334,
            "H": 81.13333333333334,
            "I": 82.73333333333333
        },
        "bus2": {
            "D": 77.625,
            "E": 80.375,
            "F": 81.875,
            "G": 83.9375,
            "H": 86.0625,
            "I": 86.9375,
            "J": 86.125,
            "K": 85.5,
            "L": 86.25,
            "A": 85.125,
            "B": 83.0625,
            "C": 84.26666666666667
        }
    }
}