{
    "Average_holding_time": 44.136460554371006,
    "Average_travel_time_passengers": 9643.346105627306,
    "Average_speed_busses": 0.019541666666666666,
    "Average_experienced_crowding": 888.007950795011,
    "Average_covariation_headway": 2.279068198213025,
    "Average_covariation_headway_stops": {
        "J": 2.1975609246654586,
        "I": 2.1818291282858713,
        "H": 2.166036714360378,
        "E": 2.1784657834713523,
        "C": 2.1824028363605104,
        "F": 2.1805072704640236,
        "G": 2.168744300326048,
        "K": 2.176974702248919,
        "D": 2.1607551010568042,
        "L": 2.167656199258206,
        "A": 2.1633594703893113,
        "B": 2.1543395675611317
    },
    "Average_excess_waiting_time": {
        "J": 3673.4970859198124,
        "I": 3657.6368748532145,
        "H": 3648.3151715635468,
        "E": 3710.702509899786,
        "C": 3693.4713048186413,
        "F": 3671.868296270246,
        "G": 3690.2420895207033,
        "K": 3673.408769826973,
        "D": 3700.668321826823,
        "L": 3703.878318042854,
        "A": 3602.5851787638253,
        "B": 3646.114697630171
    },
    "Holding_per_stop": {
        "I": 38.78048780487805,
        "F": 45.38461538461539,
        "J": 41.42857142857143,
        "H": 43.5,
        "E": 45.78947368421053,
        "C": 47.83783783783784,
        "G": 43.07692307692308,
        "K": 44.285714285714285,
        "D": 41.351351351351354,
        "L": 44.285714285714285,
        "A": 49.166666666666664,
        "B": 45.833333333333336
    },
    "Load_per_bus_per_stop": {
        "bus5": {
            "J": 846.4285714285714,
            "K": 858.4285714285714,
            "L": 866.5714285714286,
            "A": 819.1666666666666,
            "B": 850,
            "C": 877.1666666666666,
            "D": 893.3333333333334,
            "E": 904.6666666666666,
            "F": 921.1666666666666,
            "G": 931.6666666666666,
            "H": 952.3333333333334,
            "I": 969
        },
        "bus4": {
            "I": 56.57142857142857,
            "J": 57,
            "K": 56.857142857142854,
            "L": 57.714285714285715,
            "A": 59.333333333333336,
            "B": 60.666666666666664,
            "C": 60.333333333333336,
            "D": 61.5,
            "E": 60.833333333333336,
            "F": 64.83333333333333,
            "G": 64.5,
            "H": 64.16666666666667
        },
        "bus3": {
            "H": 5.714285714285714,
            "I": 5.857142857142857,
            "J": 7,
            "K": 7.571428571428571,
            "L": 8.142857142857142,
            "A": 9.333333333333334,
            "B": 7.833333333333333,
            "C": 7.333333333333333,
            "D": 6.5,
            "E": 6.666666666666667,
            "F": 6,
            "G": 6.166666666666667
        },
        "bus1": {
            "E": 17,
            "F": 16.285714285714285,
            "G": 16.857142857142858,
            "H": 16.285714285714285,
            "I": 14,
            "J": 14.142857142857142,
            "K": 14.571428571428571,
            "L": 16.714285714285715,
            "A": 18.333333333333332,
            "B": 19.166666666666668,
            "C": 19,
            "D": 20.666666666666668
        },
        "bus0": {
            "C": 35.142857142857146,
            "D": 35.42857142857143,
            "E": 36.857142857142854,
            "F": 39,
            "G": 40.57142857142857,
            "H": 41,
            "I": 42.57142857142857,
            "J": 43,
            "K": 41.142857142857146,
            "L": 39.142857142857146,
            "A": 43.5,
            "B": 41.666666666666664
        },
        "bus2": {
            "F": 7.142857142857143,
            "G": 6.571428571428571,
            "H": 7.428571428571429,
            "I": 7.857142857142857,
            "J": 8.571428571428571,
            "K": 8.571428571428571,
            "L": 8.857142857142858,
            "A": 8.666666666666666,
            "B": 9.166666666666666,
            "C": 8.333333333333334,
            "D": 8.166666666666666,
            "E": 7.833333333333333
        }
    }
}