{
    "Average_holding_time": 18.252853380158033,
    "Average_travel_time_passengers": 2687.6836360640073,
    "Average_speed_busses": 0.04745833333333333,
    "Average_experienced_crowding": 82.42806694287523,
    "Average_covariation_headway": 0.3165205422568188,
    "Average_covariation_headway_stops": {
        "L": 0.25467666247989784,
        "I": 0.2716942326016535,
        "H": 0.2712352665026674,
        "B": 0.23711785257493498,
        "G": 0.24671790818792855,
        "C": 0.24318174291960964,
        "J": 0.2559966761983432,
        "D": 0.22780713626679494,
        "A": 0.23137608025081793,
        "K": 0.25285442667323194,
        "E": 0.21583202369781002,
        "F": 0.23782074182559246
    },
    "Average_excess_waiting_time": {
        "L": 58.99097135572174,
        "I": 58.83770859208653,
        "H": 60.46894501079248,
        "B": 55.26006699013851,
        "G": 58.142362762451,
        "C": 54.42817586101654,
        "J": 57.32287756576892,
        "D": 53.462803443122255,
        "A": 55.9718344733958,
        "K": 58.974121755705426,
        "E": 53.907431354829384,
        "F": 58.11170944165235
    },
    "Holding_per_stop": {
        "I": 19.0625,
        "H": 14.842105263157896,
        "C": 19.6875,
        "L": 19.263157894736842,
        "G": 21.473684210526315,
        "B": 12,
        "J": 19.894736842105264,
        "D": 22.105263157894736,
        "A": 11.170212765957446,
        "K": 24.893617021276597,
        "E": 15.789473684210526,
        "F": 18.829787234042552
    },
    "Load_per_bus_per_stop": {
        "bus5": {
            "L": 72.875,
            "A": 73.1875,
            "B": 72.75,
            "C": 72.125,
            "D": 74.875,
            "E": 75.9375,
            "F": 74.875,
            "G": 77.25,
            "H": 77.4375,
            "I": 79.9375,
            "J": 81.53333333333333,
            "K": 79.33333333333333
        },
        "bus4": {
            "I": 74.625,
            "J": 75.875,
            "K": 78.0625,
            "L": 79,
            "A": 79.25,
            "B": 79.8125,
            "C": 82.125,
            "D": 82,
            "E": 82.8125,
            "F": 83.1875,
            "G": 83,
            "H": 81.8
        },
        "bus3": {
            "H": 79.25,
            "I": 79.6875,
            "J": 78.1875,
            "K": 78,
            "L": 78.8125,
            "A": 82.9375,
            "B": 83.125,
            "C": 85.8125,
            "D": 86.0625,
            "E": 85.3125,
            "F": 85.8,
            "G": 83.86666666666666
        },
        "bus0": {
            "B": 64.5625,
            "C": 65.5,
            "D": 65.6875,
            "E": 67.9375,
            "F": 68.1875,
            "G": 70,
            "H": 70.875,
            "I": 69.9375,
            "J": 69.5,
            "K": 70.1875,
            "L": 68.26666666666667,
            "A": 67.66666666666667
        },
        "bus2": {
            "G": 74.875,
            "H": 75.5625,
            "I": 76.75,
            "J": 77.5,
            "K": 76.0625,
            "L": 77.3125,
            "A": 79,
            "B": 80.5,
            "C": 79.375,
            "D": 78.33333333333333,
            "E": 77.26666666666667,
            "F": 79.2
        },
        "bus1": {
            "C": 85.5,
            "D": 85.6875,
            "E": 85.125,
            "F": 88.75,
            "G": 90.0625,
            "H": 90.875,
            "I": 92.5625,
            "J": 93.625,
            "K": 95.1875,
            "L": 94.5,
            "A": 93.06666666666666,
            "B": 92
        }
    }
}