{
    "Average_holding_time": 17.573333333333334,
    "Average_travel_time_passengers": 2797.016976178694,
    "Average_speed_busses": 0.046875,
    "Average_experienced_crowding": 96.65604284818599,
    "Average_covariation_headway": 0.6358280667357076,
    "Average_covariation_headway_stops": {
        "A": 0.5121904667615582,
        "B": 0.5170939403389216,
        "E": 0.5051937001199187,
        "D": 0.5320299894798975,
        "G": 0.5101908359857514,
        "L": 0.5087646525965214,
        "F": 0.5067740144097316,
        "C": 0.5136696350360469,
        "H": 0.5105440015487318,
        "I": 0.5002241812569865,
        "J": 0.5199237717131445,
        "K": 0.5150315708965864
    },
    "Average_excess_waiting_time": {
        "A": 121.46463624655581,
        "B": 121.83807313471596,
        "E": 123.09578086487397,
        "D": 126.3932959540806,
        "G": 120.61375419152313,
        "L": 124.2199148354062,
        "F": 121.37485668228743,
        "C": 122.97878423699024,
        "H": 123.93129503834899,
        "I": 118.67721944415251,
        "J": 127.06236001551548,
        "K": 128.26868476997896
    },
    "Holding_per_stop": {
        "A": 12.76595744680851,
        "B": 12.31578947368421,
        "E": 18.387096774193548,
        "D": 17.68421052631579,
        "G": 19.78723404255319,
        "F": 20.64516129032258,
        "C": 16.595744680851062,
        "L": 18.829787234042552,
        "H": 15.319148936170214,
        "I": 15.483870967741936,
        "J": 22.903225806451612,
        "K": 20.322580645161292
    },
    "Load_per_bus_per_stop": {
        "bus5": {
            "A": 100.4375,
            "B": 103.125,
            "C": 106.25,
            "D": 107.625,
            "E": 107.8125,
            "F": 101.2,
            "G": 103.2,
            "H": 103.93333333333334,
            "I": 103.13333333333334,
            "J": 104.4,
            "K": 106.26666666666667,
            "L": 106.53333333333333
        },
        "bus0": {
            "B": 96.75,
            "C": 98.0625,
            "D": 99.25,
            "E": 99.4375,
            "F": 101.9375,
            "G": 102.375,
            "H": 103.8125,
            "I": 103.4,
            "J": 105.53333333333333,
            "K": 104.73333333333333,
            "L": 103.66666666666667,
            "A": 104.26666666666667
        },
        "bus2": {
            "E": 55.25,
            "F": 56.6875,
            "G": 57.375,
            "H": 59,
            "I": 59.0625,
            "J": 60.125,
            "K": 60.9375,
            "L": 60.1875,
            "A": 59,
            "B": 58.375,
            "C": 56.53333333333333,
            "D": 57.733333333333334
        },
        "bus1": {
            "D": 73,
            "E": 74.4375,
            "F": 74.375,
            "G": 76.6875,
            "H": 76.25,
            "I": 76.25,
            "J": 76.5625,
            "K": 75.125,
            "L": 76.4375,
            "A": 74.86666666666666,
            "B": 75.46666666666667,
            "C": 76.13333333333334
        },
        "bus3": {
            "G": 24.0625,
            "H": 23.3125,
            "I": 23.9375,
            "J": 24.5625,
            "K": 25.5625,
            "L": 25.8125,
            "A": 26.1875,
            "B": 25.8125,
            "C": 26.1875,
            "D": 26.625,
            "E": 26.533333333333335,
            "F": 25.666666666666668
        },
        "bus4": {
            "L": 112.375,
            "A": 111.625,
            "B": 109.6875,
            "C": 110.1875,
            "D": 108.75,
            "E": 117.2,
            "F": 118.93333333333334,
            "G": 118.4,
            "H": 116.2,
            "I": 117.93333333333334,
            "J": 118.8,
            "K": 120.6
        }
    }
}