{
    "Average_holding_time": 15.185185185185185,
    "Average_travel_time_passengers": 2818.3257150301897,
    "Average_speed_busses": 0.04725,
    "Average_experienced_crowding": 100.40449309882668,
    "Average_covariation_headway": 0.6742983119906979,
    "Average_covariation_headway_stops": {
        "F": 0.552937656160321,
        "A": 0.5480500556224032,
        "H": 0.5568789395287583,
        "G": 0.5648376908689744,
        "D": 0.5677549127987143,
        "I": 0.5518128252698286,
        "B": 0.5480163562425447,
        "E": 0.5629442988056073,
        "J": 0.5336040066518997,
        "C": 0.5620381370029529,
        "K": 0.5490272544890918,
        "L": 0.5377810347507038
    },
    "Average_excess_waiting_time": {
        "F": 133.06231285236498,
        "A": 131.3710932594625,
        "H": 131.01977004596415,
        "G": 136.16144724155532,
        "D": 138.98511373767786,
        "I": 129.76932416965855,
        "B": 133.54164606493998,
        "E": 139.48000847006892,
        "J": 126.94417387183034,
        "C": 140.91158908817943,
        "K": 135.2397197124791,
        "L": 133.4113003798381
    },
    "Holding_per_stop": {
        "H": 11.875,
        "G": 16.42105263157895,
        "D": 16.595744680851062,
        "I": 10.625,
        "F": 16.105263157894736,
        "A": 12.127659574468085,
        "B": 11.808510638297872,
        "J": 16.914893617021278,
        "E": 16.595744680851062,
        "C": 19.78723404255319,
        "K": 20.106382978723403,
        "L": 13.404255319148936
    },
    "Load_per_bus_per_stop": {
        "bus1": {
            "F": 95.375,
            "G": 95.5625,
            "H": 99,
            "I": 99.4375,
            "J": 101.125,
            "K": 103.0625,
            "L": 103.9375,
            "A": 100.66666666666667,
            "B": 101.13333333333334,
            "C": 101.53333333333333,
            "D": 99.8,
            "E": 101.4
        },
        "bus5": {
            "A": 90.4375,
            "B": 90.625,
            "C": 92,
            "D": 92.375,
            "E": 95.0625,
            "F": 91.8125,
            "G": 91.125,
            "H": 90.0625,
            "I": 91.4375,
            "J": 96.93333333333334,
            "K": 96.26666666666667,
            "L": 96.8
        },
        "bus3": {
            "H": 34.875,
            "I": 35.875,
            "J": 35.125,
            "K": 35,
            "L": 36,
            "A": 36.5,
            "B": 36.625,
            "C": 37.5,
            "D": 37.625,
            "E": 38.5,
            "F": 39.375,
            "G": 36.93333333333333
        },
        "bus2": {
            "G": 68.125,
            "H": 68.6875,
            "I": 68,
            "J": 69.5625,
            "K": 70.8125,
            "L": 71.6875,
            "A": 73.8125,
            "B": 75.25,
            "C": 76.625,
            "D": 74.33333333333333,
            "E": 74.13333333333334,
            "F": 73
        },
        "bus0": {
            "D": 105.9375,
            "E": 107.75,
            "F": 108.25,
            "G": 108.125,
            "H": 108.6875,
            "I": 109.75,
            "J": 112.53333333333333,
            "K": 111.4,
            "L": 111.33333333333333,
            "A": 110.66666666666667,
            "B": 111.06666666666666,
            "C": 112.13333333333334
        },
        "bus4": {
            "I": 58.25,
            "J": 59.125,
            "K": 59.625,
            "L": 61.75,
            "A": 61.1875,
            "B": 62.0625,
            "C": 64.3125,
            "D": 65.25,
            "E": 64.25,
            "F": 63.625,
            "G": 62.625,
            "H": 61.5625
        }
    }
}