{
    "Average_holding_time": 16.731793960923625,
    "Average_travel_time_passengers": 2814.543579197881,
    "Average_speed_busses": 0.04691666666666667,
    "Average_experienced_crowding": 103.15795093328249,
    "Average_covariation_headway": 0.6665575944429762,
    "Average_covariation_headway_stops": {
        "I": 0.5544513045668934,
        "L": 0.5665564321156761,
        "H": 0.5242086402751953,
        "B": 0.5780187837027819,
        "A": 0.578435080408731,
        "E": 0.5429988044710582,
        "J": 0.5452484357608153,
        "C": 0.5670540122646908,
        "F": 0.5217568678062536,
        "K": 0.5504802949769818,
        "D": 0.5608119881910132,
        "G": 0.5207768373890075
    },
    "Average_excess_waiting_time": {
        "I": 135.02741111903725,
        "L": 140.61118730728901,
        "H": 129.31394075243634,
        "B": 139.24550483945757,
        "A": 142.0722600551032,
        "E": 133.40868251476735,
        "J": 134.50128713560986,
        "C": 138.35526466336233,
        "F": 128.72230561871885,
        "K": 138.54840043536706,
        "D": 137.52262525347408,
        "G": 130.2503041481412
    },
    "Holding_per_stop": {
        "I": 15.638297872340425,
        "B": 18,
        "A": 14.842105263157896,
        "E": 17.741935483870968,
        "L": 18.51063829787234,
        "H": 18.06451612903226,
        "J": 15.319148936170214,
        "C": 20.842105263157894,
        "F": 14.516129032258064,
        "K": 13.870967741935484,
        "D": 19.46808510638298,
        "G": 13.870967741935484
    },
    "Load_per_bus_per_stop": {
        "bus3": {
            "I": 76.5625,
            "J": 76.0625,
            "K": 77.25,
            "L": 77.25,
            "A": 78.3125,
            "B": 81.6875,
            "C": 79.9375,
            "D": 80.8125,
            "E": 85.53333333333333,
            "F": 84.4,
            "G": 83.86666666666666,
            "H": 82.53333333333333
        },
        "bus4": {
            "L": 109.5,
            "A": 107.8125,
            "B": 108.3125,
            "C": 109.5625,
            "D": 112.0625,
            "E": 110.6,
            "F": 110.13333333333334,
            "G": 111.93333333333334,
            "H": 115.4,
            "I": 115.6,
            "J": 116.53333333333333,
            "K": 117.13333333333334
        },
        "bus2": {
            "H": 66.8125,
            "I": 66.1875,
            "J": 65.375,
            "K": 64.5625,
            "L": 66.1875,
            "A": 70.1875,
            "B": 70.25,
            "C": 70.4375,
            "D": 70.4375,
            "E": 72.06666666666666,
            "F": 71.2,
            "G": 71
        },
        "bus0": {
            "B": 80.3125,
            "C": 82.125,
            "D": 81.875,
            "E": 81.875,
            "F": 84.9375,
            "G": 85.9375,
            "H": 86.125,
            "I": 84.3125,
            "J": 83.375,
            "K": 86,
            "L": 85.66666666666667,
            "A": 85.06666666666666
        },
        "bus5": {
            "A": 82.75,
            "B": 83.6875,
            "C": 85.3125,
            "D": 87.9375,
            "E": 88.8125,
            "F": 89.25,
            "G": 89.75,
            "H": 89.1875,
            "I": 85.93333333333334,
            "J": 86.33333333333333,
            "K": 87,
            "L": 86
        },
        "bus1": {
            "E": 56.6875,
            "F": 55.25,
            "G": 56.3125,
            "H": 57.375,
            "I": 59.0625,
            "J": 60.1875,
            "K": 60.375,
            "L": 61.625,
            "A": 61.625,
            "B": 62.1875,
            "C": 59.86666666666667,
            "D": 60.13333333333333
        }
    }
} }
}