{
    "Average_holding_time": 16.159860990443093,
    "Average_travel_time_passengers": 2726.622904762578,
    "Average_speed_busses": 0.04795833333333333,
    "Average_experienced_crowding": 89.2177853596308,
    "Average_covariation_headway": 0.5508224716200011,
    "Average_covariation_headway_stops": {
        "F": 0.414377270003523,
        "L": 0.43515543970178205,
        "J": 0.4298009744510295,
        "K": 0.4153657939375724,
        "E": 0.41123508558985106,
        "B": 0.4365265563399146,
        "G": 0.410154252794816,
        "A": 0.4309752410290567,
        "C": 0.4257147522380404,
        "H": 0.4196418596605518,
        "D": 0.4171102302999438,
        "I": 0.41881200462363727
    },
    "Average_excess_waiting_time": {
        "F": 84.37360101474962,
        "L": 92.61725729832705,
        "J": 92.93680863391643,
        "K": 88.90810777022307,
        "E": 85.18053078485889,
        "B": 90.49660845540848,
        "G": 84.99131644364195,
        "A": 93.7026524720456,
        "C": 89.96477004229627,
        "H": 88.85917269347743,
        "D": 89.87258160396954,
        "I": 92.619083549133
    },
    "Holding_per_stop": {
        "F": 18.556701030927837,
        "L": 17.8125,
        "K": 14.6875,
        "B": 13.75,
        "J": 15.3125,
        "E": 9.6875,
        "G": 8.75,
        "A": 18.31578947368421,
        "C": 18.75,
        "H": 22.8125,
        "D": 20.3125,
        "I": 15.157894736842104
    },
    "Load_per_bus_per_stop": {
        "bus2": {
            "F": 52.23529411764706,
            "G": 53.0625,
            "H": 52.5625,
            "I": 52.625,
            "J": 52.25,
            "K": 53.5625,
            "L": 55.4375,
            "A": 56.125,
            "B": 56.5,
            "C": 56.25,
            "D": 56.6875,
            "E": 56.625
        },
        "bus5": {
            "L": 99.5625,
            "A": 102,
            "B": 103.0625,
            "C": 103.5,
            "D": 102.125,
            "E": 101.25,
            "F": 103.375,
            "G": 104.8125,
            "H": 105,
            "I": 105.9375,
            "J": 105.25,
            "K": 106.8125
        },
        "bus3": {
            "J": 34.8125,
            "K": 35.125,
            "L": 36.375,
            "A": 35.9375,
            "B": 37.1875,
            "C": 37.5625,
            "D": 37.25,
            "E": 37.625,
            "F": 37.875,
            "G": 38.3125,
            "H": 38.0625,
            "I": 37.93333333333333
        },
        "bus4": {
            "K": 99.125,
            "L": 99.1875,
            "A": 100,
            "B": 100.5625,
            "C": 101.625,
            "D": 102,
            "E": 100.8125,
            "F": 100.625,
            "G": 101.1875,
            "H": 102.5,
            "I": 102.9375,
            "J": 102.9375
        },
        "bus1": {
            "E": 69.625,
            "F": 69.375,
            "G": 68.0625,
            "H": 71.125,
            "I": 71.8125,
            "J": 71.5625,
            "K": 72.875,
            "L": 73.25,
            "A": 75.125,
            "B": 74.125,
            "C": 74.5,
            "D": 74.6875
        },
        "bus0": {
            "B": 91.4375,
            "C": 92.8125,
            "D": 93.3125,
            "E": 94.625,
            "F": 95.4375,
            "G": 95.25,
            "H": 95.8125,
            "I": 94.875,
            "J": 94.25,
            "K": 92.875,
            "L": 95.875,
            "A": 98.0625
        }
    }
}     "H": 6.222222222222222,
            "I": 7,
            "J": 6.888888888888889,
            "K": 7.222222222222222,
            "L": 7.777777777777778,
            "A": 5.875,
            "B": 5.625,
            "C": 5.375,
            "D": 5,
            "E": 4.625,
            "F": 4.625
        }
    }
}