{
    "Average_holding_time": 42.19484882418813,
    "Average_travel_time_passengers": 3781.3469659795355,
    "Average_speed_busses": 0.037208333333333336,
    "Average_experienced_crowding": 188.71753775261385,
    "Average_covariation_headway": 1.0856337749434415,
    "Average_covariation_headway_stops": {
        "K": 1.0530997801221664,
        "J": 1.0435153879512784,
        "H": 1.01837349248422,
        "E": 1.1126197530833046,
        "A": 1.0898141008526234,
        "F": 1.0807433123712673,
        "L": 1.0730091728987339,
        "B": 1.0577117293740739,
        "I": 1.013427897690915,
        "G": 1.0123696492216911,
        "C": 1.0676047868448886,
        "D": 1.1094584998814199
    },
    "Average_excess_waiting_time": {
        "K": 531.380247469732,
        "J": 530.2729596246081,
        "H": 505.8240384710884,
        "E": 595.7095577907451,
        "A": 563.9980222172499,
        "F": 605.42417678994,
        "L": 554.8482814170761,
        "B": 544.4095511502726,
        "I": 509.51267548018524,
        "G": 504.8979111926555,
        "C": 558.9887741512027,
        "D": 595.2544605292844
    },
    "Holding_per_stop": {
        "K": 38.4,
        "H": 42.73972602739726,
        "A": 28.42105263157895,
        "F": 42.083333333333336,
        "J": 45.810810810810814,
        "L": 42.8,
        "E": 50.13157894736842,
        "I": 38.21917808219178,
        "B": 43.421052631578945,
        "G": 38.333333333333336,
        "C": 46.973684210526315,
        "D": 48.8
    },
    "Load_per_bus_per_stop": {
        "bus4": {
            "K": 16.76923076923077,
            "L": 17.153846153846153,
            "A": 18.692307692307693,
            "B": 19.923076923076923,
            "C": 20.307692307692307,
            "D": 20.384615384615383,
            "E": 20,
            "F": 21.25,
            "G": 21.833333333333332,
            "H": 21.5,
            "I": 20,
            "J": 18.583333333333332
        },
        "bus3": {
            "J": 62.92307692307692,
            "K": 62.23076923076923,
            "L": 62.38461538461539,
            "A": 63,
            "B": 63.46153846153846,
            "C": 62.76923076923077,
            "D": 60.84615384615385,
            "E": 60.53846153846154,
            "F": 64.66666666666667,
            "G": 65.75,
            "H": 66.83333333333333,
            "I": 65.08333333333333
        },
        "bus2": {
            "H": 139.69230769230768,
            "I": 143.92307692307693,
            "J": 147.23076923076923,
            "K": 152.46153846153845,
            "L": 152.76923076923077,
            "A": 154.53846153846155,
            "B": 155.46153846153845,
            "C": 154.30769230769232,
            "D": 148.5,
            "E": 150.58333333333334,
            "F": 150.66666666666666,
            "G": 148.91666666666666
        },
        "bus0": {
            "E": 72,
            "F": 75.58333333333333,
            "G": 75.58333333333333,
            "H": 76.58333333333333,
            "I": 77.5,
            "J": 79.33333333333333,
            "K": 76.66666666666667,
            "L": 77,
            "A": 78.66666666666667,
            "B": 78.08333333333333,
            "C": 78,
            "D": 78.5
        },
        "bus5": {
            "A": 54.61538461538461,
            "B": 53.38461538461539,
            "C": 51.92307692307692,
            "D": 52.84615384615385,
            "E": 54,
            "F": 58,
            "G": 58.916666666666664,
            "H": 57.916666666666664,
            "I": 57.916666666666664,
            "J": 57.916666666666664,
            "K": 58.166666666666664,
            "L": 59.583333333333336
        },
        "bus1": {
            "F": 207.53846153846155,
            "G": 184,
            "H": 189.66666666666666,
            "I": 192.41666666666666,
            "J": 198.33333333333334,
            "K": 204.66666666666666,
            "L": 207.66666666666666,
            "A": 211.58333333333334,
            "B": 213.58333333333334,
            "C": 214.5,
            "D": 218.91666666666666,
            "E": 223.75
        }
    }
}