{
    "Average_holding_time": 20.106951871657753,
    "Average_travel_time_passengers": 2729.554161162215,
    "Average_speed_busses": 0.04675,
    "Average_experienced_crowding": 83.148489159836,
    "Average_covariation_headway": 0.3242807796154753,
    "Average_covariation_headway_stops": {
        "C": 0.2547112089408335,
        "D": 0.26945448033338454,
        "I": 0.2564685949715159,
        "H": 0.27287696474267764,
        "E": 0.2916077086336635,
        "B": 0.2728959949874215,
        "J": 0.23415760134813404,
        "F": 0.27640534158519686,
        "K": 0.23962098443105148,
        "G": 0.2825223394249389,
        "L": 0.23656777714679028,
        "A": 0.26033960586740734
    },
    "Average_excess_waiting_time": {
        "C": 63.18681253901292,
        "D": 63.571840584735355,
        "I": 61.623619428098266,
        "H": 64.57021292203308,
        "E": 65.9063106982781,
        "B": 67.93497296052959,
        "J": 59.67817238584098,
        "F": 65.29324595366285,
        "K": 60.799826236286265,
        "G": 67.69042510891029,
        "L": 62.50446969374161,
        "A": 67.74195555281369
    },
    "Holding_per_stop": {
        "I": 21.06382978723404,
        "C": 21.93548387096774,
        "D": 19.148936170212767,
        "E": 20.425531914893618,
        "H": 20.106382978723403,
        "J": 18.19148936170213,
        "B": 18.387096774193548,
        "F": 21.70212765957447,
        "K": 22.580645161290324,
        "G": 21.382978723404257,
        "L": 21.612903225806452,
        "A": 14.673913043478262
    },
    "Load_per_bus_per_stop": {
        "bus1": {
            "C": 78.9375,
            "D": 80.25,
            "E": 81,
            "F": 82.625,
            "G": 81.9375,
            "H": 79.0625,
            "I": 81.93333333333334,
            "J": 83.53333333333333,
            "K": 84.73333333333333,
            "L": 86.33333333333333,
            "A": 83.73333333333333,
            "B": 82.53333333333333
        },
        "bus2": {
            "D": 77.75,
            "E": 75.9375,
            "F": 75.5,
            "G": 76.3125,
            "H": 78.5625,
            "I": 81.25,
            "J": 83.6875,
            "K": 81.66666666666667,
            "L": 80.93333333333334,
            "A": 81.06666666666666,
            "B": 80.86666666666666,
            "C": 81.06666666666666
        },
        "bus5": {
            "I": 78.8125,
            "J": 79.5,
            "K": 80,
            "L": 81,
            "A": 83.75,
            "B": 84.9375,
            "C": 85.875,
            "D": 87.4375,
            "E": 88.0625,
            "F": 87.2,
            "G": 85.8,
            "H": 85.33333333333333
        },
        "bus4": {
            "H": 75.25,
            "I": 77.4375,
            "J": 76.3125,
            "K": 76.8125,
            "L": 78.25,
            "A": 78.0625,
            "B": 77.8125,
            "C": 79.25,
            "D": 79.53333333333333,
            "E": 78.73333333333333,
            "F": 78,
            "G": 79
        },
        "bus3": {
            "E": 77.1875,
            "F": 77.3125,
            "G": 79.4375,
            "H": 80.0625,
            "I": 82.375,
            "J": 82.0625,
            "K": 81.625,
            "L": 81.75,
            "A": 82.26666666666667,
            "B": 80,
            "C": 80.73333333333333,
            "D": 83
        },
        "bus0": {
            "B": 73,
            "C": 73.3125,
            "D": 72.375,
            "E": 71,
            "F": 72.4375,
            "G": 71.25,
            "H": 73.06666666666666,
            "I": 72.8,
            "J": 74.66666666666667,
            "K": 76.86666666666666,
            "L": 75,
            "A": 75.66666666666667
        }
    }
}