{
    "Average_holding_time": 15.169124024284475,
    "Average_travel_time_passengers": 2652.8892863543656,
    "Average_speed_busses": 0.04804166666666667,
    "Average_experienced_crowding": 79.79253131205564,
    "Average_covariation_headway": 0.3031488276505145,
    "Average_covariation_headway_stops": {
        "C": 0.21918204497929752,
        "D": 0.2147538426131933,
        "L": 0.22697001151689064,
        "E": 0.22381134110688558,
        "G": 0.22167925283909531,
        "I": 0.21775658895300415,
        "J": 0.21729419728888044,
        "F": 0.23543777791406056,
        "A": 0.21483014477235238,
        "H": 0.2163924298322466,
        "K": 0.2148280977772309,
        "B": 0.2059523022350651
    },
    "Average_excess_waiting_time": {
        "C": 50.925262927279846,
        "D": 48.170132406326275,
        "L": 48.58493229984015,
        "E": 47.69600577783723,
        "G": 46.23115785794289,
        "I": 45.826808328776565,
        "J": 47.247868824286684,
        "F": 50.2630500364985,
        "A": 48.677023343151404,
        "H": 47.13013055220023,
        "K": 48.68579561197447,
        "B": 51.68291517871273
    },
    "Holding_per_stop": {
        "D": 17.8125,
        "L": 12.1875,
        "E": 13.29896907216495,
        "I": 11.443298969072165,
        "G": 17.31958762886598,
        "C": 16.736842105263158,
        "J": 18.125,
        "F": 15.3125,
        "A": 7.5,
        "H": 14.6875,
        "K": 26.875,
        "B": 10.736842105263158
    },
    "Load_per_bus_per_stop": {
        "bus0": {
            "C": 82.0625,
            "D": 82.3125,
            "E": 82.125,
            "F": 83.1875,
            "G": 84.125,
            "H": 85,
            "I": 84.375,
            "J": 83.25,
            "K": 82.75,
            "L": 83.3125,
            "A": 82.6875,
            "B": 87.06666666666666
        },
        "bus1": {
            "D": 79.875,
            "E": 79.625,
            "F": 80.5625,
            "G": 81.4375,
            "H": 82.0625,
            "I": 84.25,
            "J": 83.5,
            "K": 84.75,
            "L": 85.375,
            "A": 86.125,
            "B": 86.4375,
            "C": 84.6
        },
        "bus5": {
            "L": 80.23529411764706,
            "A": 78.1875,
            "B": 78.375,
            "C": 80.625,
            "D": 83.5,
            "E": 84.5625,
            "F": 85.5625,
            "G": 87.125,
            "H": 87.375,
            "I": 87.9375,
            "J": 87.5625,
            "K": 86.3125
        },
        "bus2": {
            "E": 71.88235294117646,
            "F": 71.0625,
            "G": 71.3125,
            "H": 72.125,
            "I": 74,
            "J": 72.375,
            "K": 73.3125,
            "L": 73.875,
            "A": 76.5625,
            "B": 75.3125,
            "C": 74.75,
            "D": 74.3125
        },
        "bus3": {
            "G": 63.23529411764706,
            "H": 65.70588235294117,
            "I": 66.5625,
            "J": 68.375,
            "K": 67.8125,
            "L": 69.0625,
            "A": 69.375,
            "B": 70.875,
            "C": 70.6875,
            "D": 72.375,
            "E": 70.5625,
            "F": 68.625
        },
        "bus4": {
            "I": 71.05882352941177,
            "J": 72,
            "K": 73.0625,
            "L": 73.375,
            "A": 72.5625,
            "B": 73.9375,
            "C": 75.375,
            "D": 77.75,
            "E": 77.5,
            "F": 78.125,
            "G": 79.125,
            "H": 76.4375
        }
    }
}