{
    "Average_holding_time": 17.810026385224276,
    "Average_travel_time_passengers": 2665.114003419632,
    "Average_speed_busses": 0.047375,
    "Average_experienced_crowding": 82.05961192155395,
    "Average_covariation_headway": 0.3422991559578603,
    "Average_covariation_headway_stops": {
        "D": 0.2669020908903796,
        "F": 0.27031211326577625,
        "C": 0.28651752965551536,
        "J": 0.2543900978072081,
        "B": 0.28400012942767994,
        "G": 0.2692676253410733,
        "E": 0.26804456494011436,
        "K": 0.2586974166125679,
        "H": 0.23772643257456233,
        "L": 0.24979304432284458,
        "I": 0.24373306175138518,
        "A": 0.2595902978894035
    },
    "Average_excess_waiting_time": {
        "D": 58.21986394576692,
        "F": 59.608489010316646,
        "C": 63.238668589513736,
        "J": 57.599257973940894,
        "B": 64.73489809345944,
        "G": 57.187215929417846,
        "E": 60.763354889477796,
        "K": 59.879075859242676,
        "H": 56.33863936486728,
        "L": 58.555862771560896,
        "I": 57.55075684594493,
        "A": 62.31757347821576
    },
    "Holding_per_stop": {
        "D": 17.05263157894737,
        "C": 21.157894736842106,
        "J": 17.05263157894737,
        "F": 21.473684210526315,
        "G": 23.125,
        "B": 14.680851063829786,
        "E": 16.736842105263158,
        "K": 15.789473684210526,
        "H": 12.947368421052632,
        "L": 23.29787234042553,
        "I": 19.46808510638298,
        "A": 10.851063829787234
    },
    "Load_per_bus_per_stop": {
        "bus2": {
            "D": 69.0625,
            "E": 69.9375,
            "F": 71.375,
            "G": 73.75,
            "H": 74,
            "I": 75.375,
            "J": 76.4375,
            "K": 75.9375,
            "L": 74.9375,
            "A": 75.5,
            "B": 73.125,
            "C": 73.6
        },
        "bus3": {
            "F": 72.75,
            "G": 72.1875,
            "H": 72.5625,
            "I": 73.9375,
            "J": 73.125,
            "K": 73.5,
            "L": 74.75,
            "A": 76.1875,
            "B": 75.75,
            "C": 75.9375,
            "D": 75.4375,
            "E": 77.73333333333333
        },
        "bus1": {
            "C": 70.3125,
            "D": 73.0625,
            "E": 73.6875,
            "F": 74.8125,
            "G": 75.5625,
            "H": 75.3125,
            "I": 75.375,
            "J": 75.8125,
            "K": 74.125,
            "L": 73.6,
            "A": 74.53333333333333,
            "B": 74.06666666666666
        },
        "bus5": {
            "J": 84.8125,
            "K": 83.5625,
            "L": 83.5625,
            "A": 85.125,
            "B": 86.75,
            "C": 87.8125,
            "D": 90.375,
            "E": 90.8125,
            "F": 89.8125,
            "G": 88.9375,
            "H": 92.26666666666667,
            "I": 91.66666666666667
        },
        "bus0": {
            "B": 80,
            "C": 81.125,
            "D": 83.0625,
            "E": 87.4375,
            "F": 88.8125,
            "G": 87.6875,
            "H": 88.25,
            "I": 86.6,
            "J": 85.13333333333334,
            "K": 83.66666666666667,
            "L": 83.13333333333334,
            "A": 84.2
        },
        "bus4": {
            "G": 76,
            "H": 76.875,
            "I": 76.75,
            "J": 77.3125,
            "K": 77.25,
            "L": 77.9375,
            "A": 76.5625,
            "B": 75.9375,
            "C": 77.1875,
            "D": 79.5625,
            "E": 80.5625,
            "F": 80.53333333333333
        }
    }
}