{
    "Average_holding_time": 20.01779359430605,
    "Average_travel_time_passengers": 2722.552437010045,
    "Average_speed_busses": 0.04683333333333333,
    "Average_experienced_crowding": 84.26966087478236,
    "Average_covariation_headway": 0.3638514472654062,
    "Average_covariation_headway_stops": {
        "F": 0.27744387298494,
        "D": 0.2964615374734087,
        "B": 0.304669330962236,
        "A": 0.30253537536079717,
        "C": 0.3020259436092418,
        "K": 0.2888283909007597,
        "E": 0.2915687153434704,
        "G": 0.2656085836776143,
        "L": 0.2976443308437296,
        "H": 0.2520639712002326,
        "I": 0.2632372566846866,
        "J": 0.2789595236307426
    },
    "Average_excess_waiting_time": {
        "F": 63.33147139346647,
        "D": 66.18765781984126,
        "B": 71.37710806441623,
        "A": 72.77086613367828,
        "C": 69.22116611064774,
        "K": 70.06864067136718,
        "E": 67.55261958220154,
        "G": 64.3072198483888,
        "L": 73.23423203485402,
        "H": 61.8897369422059,
        "I": 65.78746801315685,
        "J": 70.30629853283853
    },
    "Holding_per_stop": {
        "D": 24.63157894736842,
        "B": 20.106382978723403,
        "F": 18.63157894736842,
        "C": 26.48936170212766,
        "A": 14.516129032258064,
        "K": 20.322580645161292,
        "E": 16.595744680851062,
        "G": 22.02127659574468,
        "H": 15.806451612903226,
        "L": 23.548387096774192,
        "I": 19.032258064516128,
        "J": 18.387096774193548
    },
    "Load_per_bus_per_stop": {
        "bus3": {
            "F": 90.75,
            "G": 89.0625,
            "H": 89.3125,
            "I": 90.875,
            "J": 89.875,
            "K": 90.3125,
            "L": 89.3125,
            "A": 91.875,
            "B": 94.125,
            "C": 96.33333333333333,
            "D": 97.73333333333333,
            "E": 96.86666666666666
        },
        "bus2": {
            "D": 60.0625,
            "E": 61.9375,
            "F": 62.25,
            "G": 61.25,
            "H": 63.4375,
            "I": 63.8125,
            "J": 64.6875,
            "K": 64.875,
            "L": 63.25,
            "A": 59.86666666666667,
            "B": 60.06666666666667,
            "C": 63.13333333333333
        },
        "bus0": {
            "B": 80.1875,
            "C": 79.875,
            "D": 81.9375,
            "E": 83.8125,
            "F": 86.1875,
            "G": 86.875,
            "H": 84.8,
            "I": 84.53333333333333,
            "J": 85.2,
            "K": 84.93333333333334,
            "L": 86.06666666666666,
            "A": 85.4
        },
        "bus5": {
            "A": 74.75,
            "B": 74.9375,
            "C": 75.625,
            "D": 79.125,
            "E": 79,
            "F": 79.375,
            "G": 78.66666666666667,
            "H": 80.13333333333334,
            "I": 81.66666666666667,
            "J": 80.53333333333333,
            "K": 80.86666666666666,
            "L": 80.33333333333333
        },
        "bus1": {
            "C": 65.125,
            "D": 65.5,
            "E": 66.4375,
            "F": 66.6875,
            "G": 66.125,
            "H": 66.25,
            "I": 69.1875,
            "J": 68.1875,
            "K": 67.73333333333333,
            "L": 67.33333333333333,
            "A": 69.13333333333334,
            "B": 71.26666666666667
        },
        "bus4": {
            "K": 91.375,
            "L": 91.9375,
            "A": 91.75,
            "B": 92.0625,
            "C": 94.4375,
            "D": 92.8125,
            "E": 93.93333333333334,
            "F": 92.26666666666667,
            "G": 93,
            "H": 94.53333333333333,
            "I": 94.2,
            "J": 95.33333333333333
        }
    }
}    "A": 78.8
        }
    }
}