{
    "Average_holding_time": 15.03957783641161,
    "Average_travel_time_passengers": 2769.161363300643,
    "Average_speed_busses": 0.047375,
    "Average_experienced_crowding": 95.60030329334629,
    "Average_covariation_headway": 0.6374820014315925,
    "Average_covariation_headway_stops": {
        "G": 0.4973076617023039,
        "F": 0.514743526831889,
        "B": 0.5106844703515538,
        "H": 0.4955339191423928,
        "J": 0.5017429922105647,
        "D": 0.5105242034698323,
        "C": 0.5151068104122116,
        "E": 0.5091277681645787,
        "I": 0.49031758668781805,
        "K": 0.49119775600955445,
        "L": 0.4933152931475468,
        "A": 0.4979149204538455
    },
    "Average_excess_waiting_time": {
        "G": 114.47486206205843,
        "F": 122.43991538165295,
        "B": 117.3521270230043,
        "H": 112.72575754430244,
        "J": 112.11119572449428,
        "D": 116.95963567669071,
        "C": 121.00721217734286,
        "E": 118.64126065976791,
        "I": 113.02948991994361,
        "K": 110.7945942035933,
        "L": 113.61286108361816,
        "A": 114.6165069814179
    },
    "Holding_per_stop": {
        "G": 15.957446808510639,
        "H": 12.947368421052632,
        "F": 17.5531914893617,
        "B": 12,
        "J": 15.157894736842104,
        "D": 13.578947368421053,
        "E": 18.31578947368421,
        "I": 10.105263157894736,
        "K": 18.31578947368421,
        "C": 16.42105263157895,
        "L": 19.263157894736842,
        "A": 10.851063829787234
    },
    "Load_per_bus_per_stop": {
        "bus3": {
            "G": 71.625,
            "H": 71.6875,
            "I": 73.0625,
            "J": 74.25,
            "K": 75.0625,
            "L": 74.375,
            "A": 75.75,
            "B": 77.4375,
            "C": 77.875,
            "D": 76.875,
            "E": 76.0625,
            "F": 77.6
        },
        "bus2": {
            "F": 81.0625,
            "G": 82.6875,
            "H": 83.5625,
            "I": 84.125,
            "J": 84.0625,
            "K": 85.1875,
            "L": 85.9375,
            "A": 86.375,
            "B": 87,
            "C": 88.6875,
            "D": 89.06666666666666,
            "E": 88.26666666666667
        },
        "bus0": {
            "B": 98.8125,
            "C": 100.0625,
            "D": 100.75,
            "E": 101.5,
            "F": 102.9375,
            "G": 103.6875,
            "H": 105.375,
            "I": 107.3125,
            "J": 109.4,
            "K": 106.8,
            "L": 105.73333333333333,
            "A": 106
        },
        "bus4": {
            "H": 42.8125,
            "I": 42.9375,
            "J": 42.0625,
            "K": 43.3125,
            "L": 43.8125,
            "A": 44.625,
            "B": 43.75,
            "C": 42.6875,
            "D": 42.0625,
            "E": 42.5,
            "F": 42.625,
            "G": 45.46666666666667
        },
        "bus5": {
            "J": 67.6875,
            "K": 67.625,
            "L": 68.8125,
            "A": 69.125,
            "B": 70,
            "C": 71.4375,
            "D": 72.625,
            "E": 73,
            "F": 71.5,
            "G": 69.06666666666666,
            "H": 70.13333333333334,
            "I": 71.26666666666667
        },
        "bus1": {
            "D": 94,
            "E": 95.25,
            "F": 97,
            "G": 98.0625,
            "H": 100.1875,
            "I": 101.3125,
            "J": 102.125,
            "K": 101.3125,
            "L": 99.9375,
            "A": 98.33333333333333,
            "B": 98.66666666666667,
            "C": 99.73333333333333
        }
    }
}