{
    "Average_holding_time": 16.739319965126416,
    "Average_travel_time_passengers": 2688.8600152274735,
    "Average_speed_busses": 0.04779166666666667,
    "Average_experienced_crowding": 82.12261736674468,
    "Average_covariation_headway": 0.4139638952633663,
    "Average_covariation_headway_stops": {
        "A": 0.2847947070493538,
        "K": 0.29132054285817865,
        "F": 0.32067422922388433,
        "I": 0.31403925782379444,
        "G": 0.31284930818997275,
        "H": 0.32173640321582664,
        "L": 0.2907087578815513,
        "J": 0.28872650843002545,
        "B": 0.27467395325926464,
        "C": 0.2766112469299455,
        "D": 0.3039243866978579,
        "E": 0.3146523432900369
    },
    "Average_excess_waiting_time": {
        "A": 58.14037643569395,
        "K": 59.245977477569966,
        "F": 69.74807168932318,
        "I": 65.46792449303547,
        "G": 66.3170604276047,
        "H": 66.85634209991326,
        "L": 61.791065818840025,
        "J": 60.799274261044104,
        "B": 58.01662414810744,
        "C": 59.800652111804084,
        "D": 66.04434706354812,
        "E": 69.95974336339901
    },
    "Holding_per_stop": {
        "K": 17.8125,
        "A": 12.8125,
        "I": 20.625,
        "G": 16.25,
        "F": 17.68421052631579,
        "H": 19.6875,
        "J": 10.105263157894736,
        "L": 20.3125,
        "B": 13.75,
        "C": 14.842105263157896,
        "D": 20.210526315789473,
        "E": 16.736842105263158
    },
    "Load_per_bus_per_stop": {
        "bus5": {
            "A": 78.9375,
            "B": 78.25,
            "C": 78.25,
            "D": 77.5625,
            "E": 78.8125,
            "F": 78.125,
            "G": 78.75,
            "H": 80.4375,
            "I": 83.1875,
            "J": 83,
            "K": 83.5,
            "L": 84.3125
        },
        "bus4": {
            "K": 77.25,
            "L": 78.6875,
            "A": 82.375,
            "B": 84.125,
            "C": 84.8125,
            "D": 84.875,
            "E": 82.625,
            "F": 83.25,
            "G": 83.125,
            "H": 84.1875,
            "I": 85.0625,
            "J": 84
        },
        "bus0": {
            "F": 58.625,
            "G": 60.25,
            "H": 60.4375,
            "I": 62.25,
            "J": 61.75,
            "K": 62.625,
            "L": 64.4375,
            "A": 65.9375,
            "B": 67.0625,
            "C": 66.13333333333334,
            "D": 64,
            "E": 64.06666666666666
        },
        "bus3": {
            "I": 80.8125,
            "J": 80.8125,
            "K": 82.1875,
            "L": 83.75,
            "A": 83.875,
            "B": 82.9375,
            "C": 84.5,
            "D": 84.25,
            "E": 87.75,
            "F": 87.4375,
            "G": 86.875,
            "H": 86
        },
        "bus1": {
            "G": 72.1875,
            "H": 74.1875,
            "I": 73.9375,
            "J": 73.0625,
            "K": 75.125,
            "L": 76.3125,
            "A": 77.1875,
            "B": 77.25,
            "C": 78.9375,
            "D": 79.125,
            "E": 77.875,
            "F": 76.86666666666666
        },
        "bus2": {
            "H": 75.0625,
            "I": 78.25,
            "J": 78.5,
            "K": 78.875,
            "L": 79.3125,
            "A": 78.6875,
            "B": 79.125,
            "C": 78.75,
            "D": 78.1875,
            "E": 78.125,
            "F": 77.9375,
            "G": 78.9375
        }
    }
}         "C": 60.625,
            "D": 60.5,
            "E": 59.8,
            "F": 59.53333333333333,
            "G": 58.06666666666667
        }
    }
}