{
    "Average_holding_time": 23.44514959202176,
    "Average_travel_time_passengers": 2905.4044491003224,
    "Average_speed_busses": 0.04595833333333333,
    "Average_experienced_crowding": 108.9380712247589,
    "Average_covariation_headway": 0.7180455919509411,
    "Average_covariation_headway_stops": {
        "I": 0.5889864013878463,
        "E": 0.5770523019666044,
        "K": 0.5853693856421214,
        "A": 0.5747510759778628,
        "L": 0.571557958081784,
        "D": 0.5708391564028863,
        "B": 0.5717069936090211,
        "F": 0.5781878131324157,
        "J": 0.5798210837508859,
        "G": 0.5774087204788545,
        "C": 0.5700203930094762,
        "H": 0.5872803611713415
    },
    "Average_excess_waiting_time": {
        "I": 161.9289045053211,
        "E": 149.5671226455725,
        "K": 160.1523737062821,
        "A": 150.41766298380253,
        "L": 153.73454117915708,
        "D": 150.09697914264245,
        "B": 151.0665571131322,
        "F": 151.81080476426934,
        "J": 159.90130251348847,
        "G": 154.86417852042354,
        "C": 152.52363762216805,
        "H": 160.53233497601758
    },
    "Holding_per_stop": {
        "E": 14.193548387096774,
        "L": 26.41304347826087,
        "A": 17.282608695652176,
        "I": 28.681318681318682,
        "D": 24.782608695652176,
        "K": 27.692307692307693,
        "F": 21.612903225806452,
        "B": 20.217391304347824,
        "G": 16.956521739130434,
        "J": 29.01098901098901,
        "C": 27.717391304347824,
        "H": 27.065217391304348
    },
    "Load_per_bus_per_stop": {
        "bus2": {
            "I": 120.625,
            "J": 122.5,
            "K": 122.5,
            "L": 125.4,
            "A": 126.2,
            "B": 128,
            "C": 130.93333333333334,
            "D": 129.33333333333334,
            "E": 127.33333333333333,
            "F": 125.6,
            "G": 125.86666666666666,
            "H": 125.2
        },
        "bus1": {
            "E": 128.75,
            "F": 128.375,
            "G": 127.5625,
            "H": 130.75,
            "I": 132.75,
            "J": 135.93333333333334,
            "K": 133.8,
            "L": 134.06666666666666,
            "A": 135.6,
            "B": 135.26666666666668,
            "C": 136.06666666666666,
            "D": 136.13333333333333
        },
        "bus3": {
            "K": 103.5625,
            "L": 101.9375,
            "A": 100.6,
            "B": 102.06666666666666,
            "C": 102.8,
            "D": 104.06666666666666,
            "E": 104.46666666666667,
            "F": 104.4,
            "G": 106.26666666666667,
            "H": 111.13333333333334,
            "I": 110.53333333333333,
            "J": 109.8
        },
        "bus5": {
            "A": 35.4375,
            "B": 35.1875,
            "C": 36.125,
            "D": 37.875,
            "E": 38.25,
            "F": 39.8125,
            "G": 38.93333333333333,
            "H": 38.266666666666666,
            "I": 38.93333333333333,
            "J": 39.333333333333336,
            "K": 37.93333333333333,
            "L": 37.4
        },
        "bus4": {
            "L": 63.5625,
            "A": 64.75,
            "B": 67.25,
            "C": 65.9375,
            "D": 67.4375,
            "E": 67,
            "F": 69.26666666666667,
            "G": 68.8,
            "H": 67,
            "I": 67.13333333333334,
            "J": 69.73333333333333,
            "K": 70.2
        },
        "bus0": {
            "D": 17.9375,
            "E": 18.125,
            "F": 18.625,
            "G": 18.6875,
            "H": 19.5,
            "I": 18.533333333333335,
            "J": 19.733333333333334,
            "K": 19.733333333333334,
            "L": 19.266666666666666,
            "A": 19.466666666666665,
            "B": 18.866666666666667,
            "C": 18.8
        }
    }
}