{
    "Average_holding_time": 13.91644908616188,
    "Average_travel_time_passengers": 2709.281809237096,
    "Average_speed_busses": 0.047875,
    "Average_experienced_crowding": 90.20237814621187,
    "Average_covariation_headway": 0.5460556812812871,
    "Average_covariation_headway_stops": {
        "H": 0.3999545478382179,
        "A": 0.42152294186916606,
        "F": 0.3894482581881033,
        "I": 0.39555710958644175,
        "K": 0.4162180647150026,
        "D": 0.405773490535262,
        "G": 0.38671294130908607,
        "J": 0.4000844410469744,
        "B": 0.4328149899689808,
        "E": 0.4087538379037374,
        "L": 0.4074338953790658,
        "C": 0.4251608281682284
    },
    "Average_excess_waiting_time": {
        "H": 84.06607016353735,
        "A": 86.53134110249277,
        "F": 83.2359527105142,
        "I": 81.46372534020708,
        "K": 86.16423392537376,
        "D": 85.38768457877217,
        "G": 84.18874671744709,
        "J": 84.01020575721941,
        "B": 91.0379943958954,
        "E": 87.74178044370598,
        "L": 85.71158103486073,
        "C": 90.809090235415
    },
    "Holding_per_stop": {
        "A": 13.75,
        "F": 11.68421052631579,
        "I": 12.1875,
        "K": 12.8125,
        "D": 14.6875,
        "H": 12.631578947368421,
        "J": 11.875,
        "G": 14.842105263157896,
        "B": 16.875,
        "E": 15.3125,
        "L": 9.6875,
        "C": 20.625
    },
    "Load_per_bus_per_stop": {
        "bus2": {
            "H": 85.0625,
            "I": 86.5625,
            "J": 88.375,
            "K": 89.375,
            "L": 91.625,
            "A": 92.125,
            "B": 90.75,
            "C": 89.5625,
            "D": 91.75,
            "E": 91.4375,
            "F": 90.93333333333334,
            "G": 90
        },
        "bus5": {
            "A": 51.125,
            "B": 52.8125,
            "C": 51.9375,
            "D": 54,
            "E": 57.6875,
            "F": 57.9375,
            "G": 59.5,
            "H": 60.0625,
            "I": 60.9375,
            "J": 61,
            "K": 58.5625,
            "L": 57.375
        },
        "bus1": {
            "F": 72.5,
            "G": 73.6875,
            "H": 76.625,
            "I": 77.75,
            "J": 76.875,
            "K": 78,
            "L": 77.6875,
            "A": 77,
            "B": 74.3125,
            "C": 73,
            "D": 74.75,
            "E": 72.875
        },
        "bus3": {
            "I": 87.3125,
            "J": 88.875,
            "K": 90.4375,
            "L": 90.25,
            "A": 91.75,
            "B": 94.875,
            "C": 95.6875,
            "D": 96.875,
            "E": 97.25,
            "F": 95.5,
            "G": 97.5,
            "H": 93.86666666666666
        },
        "bus4": {
            "K": 75.6470588235294,
            "L": 70.9375,
            "A": 72.125,
            "B": 75.8125,
            "C": 77.5,
            "D": 78.3125,
            "E": 79,
            "F": 78.8125,
            "G": 78.1875,
            "H": 78.9375,
            "I": 78.875,
            "J": 79.8125
        },
        "bus0": {
            "D": 75.5,
            "E": 74.125,
            "F": 73.3125,
            "G": 73.875,
            "H": 74.6875,
            "I": 72.9375,
            "J": 74.5,
            "K": 76.6875,
            "L": 75.6875,
            "A": 75.4375,
            "B": 75.4375,
            "C": 76.6875
        }
    }
}