{
    "Average_holding_time": 21.3929889298893,
    "Average_travel_time_passengers": 2994.8931283702123,
    "Average_speed_busses": 0.04516666666666667,
    "Average_experienced_crowding": 124.4394736744006,
    "Average_covariation_headway": 0.9121992174826808,
    "Average_covariation_headway_stops": {
        "G": 0.7565483536736545,
        "A": 0.7711378949598976,
        "K": 0.7505247377830792,
        "I": 0.7457235188059564,
        "L": 0.7532003530204233,
        "J": 0.745970314099062,
        "B": 0.760672049465236,
        "H": 0.7441094744734397,
        "C": 0.7666655164181123,
        "D": 0.7435275559561049,
        "E": 0.7351665583768754,
        "F": 0.7388432699626004
    },
    "Average_excess_waiting_time": {
        "G": 243.8458809051229,
        "A": 234.7831540875634,
        "K": 233.04074111561306,
        "I": 238.1872615386357,
        "L": 231.29865645512342,
        "J": 233.85853086313983,
        "B": 232.5436387078512,
        "H": 240.68740176442367,
        "C": 238.16697489952645,
        "D": 233.797100214743,
        "E": 238.10119003835035,
        "F": 242.87630559889652
    },
    "Holding_per_stop": {
        "A": 19.565217391304348,
        "G": 20.56179775280899,
        "K": 24.725274725274726,
        "L": 21.847826086956523,
        "J": 22,
        "I": 22,
        "B": 20.217391304347824,
        "H": 20.224719101123597,
        "C": 23.152173913043477,
        "D": 20.333333333333332,
        "E": 20.89887640449438,
        "F": 21.136363636363637
    },
    "Load_per_bus_per_stop": {
        "bus0": {
            "G": 143.6,
            "H": 145,
            "I": 143.93333333333334,
            "J": 147.06666666666666,
            "K": 145.2,
            "L": 146.6,
            "A": 145.6,
            "B": 147.13333333333333,
            "C": 147.93333333333334,
            "D": 148.86666666666667,
            "E": 154.71428571428572,
            "F": 152.07142857142858
        },
        "bus5": {
            "A": 57,
            "B": 55.5,
            "C": 54.875,
            "D": 54.875,
            "E": 61.8,
            "F": 62.13333333333333,
            "G": 62.86666666666667,
            "H": 62.666666666666664,
            "I": 63.06666666666667,
            "J": 62.53333333333333,
            "K": 62.2,
            "L": 62.266666666666666
        },
        "bus3": {
            "K": 50.625,
            "L": 50.4375,
            "A": 45.6,
            "B": 45.86666666666667,
            "C": 45.86666666666667,
            "D": 46.06666666666667,
            "E": 48.266666666666666,
            "F": 50.4,
            "G": 50.46666666666667,
            "H": 50.8,
            "I": 50.86666666666667,
            "J": 51.4
        },
        "bus1": {
            "I": 122.53333333333333,
            "J": 121.93333333333334,
            "K": 123.6,
            "L": 124.93333333333334,
            "A": 126.46666666666667,
            "B": 126.93333333333334,
            "C": 125.53333333333333,
            "D": 128.93333333333334,
            "E": 129.06666666666666,
            "F": 128.8,
            "G": 128.71428571428572,
            "H": 129.71428571428572
        },
        "bus4": {
            "L": 9.375,
            "A": 9.5625,
            "B": 9.4375,
            "C": 9.5,
            "D": 10.533333333333333,
            "E": 10,
            "F": 10.333333333333334,
            "G": 9.466666666666667,
            "H": 9.466666666666667,
            "I": 9.6,
            "J": 9.133333333333333,
            "K": 9.266666666666667
        },
        "bus2": {
            "J": 93.4,
            "K": 92.2,
            "L": 92.4,
            "A": 94.33333333333333,
            "B": 94.73333333333333,
            "C": 94.8,
            "D": 95.73333333333333,
            "E": 97.6,
            "F": 97,
            "G": 98.33333333333333,
            "H": 99.4,
            "I": 100.66666666666667
        }
    }
}