{
    "Average_holding_time": 18.085106382978722,
    "Average_travel_time_passengers": 2670.9281752092293,
    "Average_speed_busses": 0.047,
    "Average_experienced_crowding": 79.57192277460835,
    "Average_covariation_headway": 0.29123700156807486,
    "Average_covariation_headway_stops": {
        "A": 0.18956832148985886,
        "I": 0.2185986114862008,
        "D": 0.19375923403075052,
        "H": 0.22197669307742596,
        "C": 0.19974902096681948,
        "J": 0.20790887763550053,
        "K": 0.19504557473804254,
        "E": 0.1941530508672436,
        "B": 0.17726871089840457,
        "F": 0.1909763291976717,
        "L": 0.20867026363967264,
        "G": 0.21651230788743964
    },
    "Average_excess_waiting_time": {
        "A": 53.138587985845845,
        "I": 55.05041663883941,
        "D": 49.80865300411648,
        "H": 57.446765073334916,
        "C": 52.65191873152628,
        "J": 52.21868255601299,
        "K": 52.6115607232839,
        "E": 52.09635418240697,
        "B": 51.743247210615436,
        "F": 53.22929292396708,
        "L": 55.88901030507526,
        "G": 58.63861133919528
    },
    "Holding_per_stop": {
        "D": 18.31578947368421,
        "I": 22.659574468085108,
        "J": 11.368421052631579,
        "A": 6.0638297872340425,
        "H": 21.70212765957447,
        "C": 23.29787234042553,
        "E": 20.425531914893618,
        "K": 17.5531914893617,
        "B": 8.064516129032258,
        "F": 22.659574468085108,
        "L": 25.53191489361702,
        "G": 19.35483870967742
    },
    "Load_per_bus_per_stop": {
        "bus5": {
            "A": 76,
            "B": 78.125,
            "C": 77.1875,
            "D": 75.6875,
            "E": 76.1875,
            "F": 78.25,
            "G": 79.375,
            "H": 80.5,
            "I": 80.26666666666667,
            "J": 80.6,
            "K": 81.33333333333333,
            "L": 81.86666666666666
        },
        "bus3": {
            "I": 71.875,
            "J": 73.5625,
            "K": 74.0625,
            "L": 72.75,
            "A": 74.375,
            "B": 73.8125,
            "C": 74.1875,
            "D": 74.625,
            "E": 75.93333333333334,
            "F": 74.8,
            "G": 73.6,
            "H": 73.66666666666667
        },
        "bus1": {
            "D": 75.4375,
            "E": 75.75,
            "F": 77.6875,
            "G": 76.3125,
            "H": 75.3125,
            "I": 78.4375,
            "J": 76.8125,
            "K": 76.75,
            "L": 76.5,
            "A": 78,
            "B": 79.53333333333333,
            "C": 80.93333333333334
        },
        "bus2": {
            "H": 75.375,
            "I": 77.1875,
            "J": 79.0625,
            "K": 78,
            "L": 77.125,
            "A": 77.375,
            "B": 77.46666666666667,
            "C": 78,
            "D": 78.6,
            "E": 77.06666666666666,
            "F": 78.46666666666667,
            "G": 79.73333333333333
        },
        "bus0": {
            "C": 82,
            "D": 81.6875,
            "E": 83.625,
            "F": 84.4375,
            "G": 84.1875,
            "H": 83.6875,
            "I": 83.1875,
            "J": 84.0625,
            "K": 85.53333333333333,
            "L": 85.33333333333333,
            "A": 85.33333333333333,
            "B": 86.6
        },
        "bus4": {
            "J": 74.75,
            "K": 75.5625,
            "L": 76.5625,
            "A": 77.4375,
            "B": 78.0625,
            "C": 78,
            "D": 78.3125,
            "E": 76.125,
            "F": 76.75,
            "G": 78.73333333333333,
            "H": 77.26666666666667,
            "I": 78.66666666666667
        }
    }
}