{
    "Average_holding_time": 17.58530183727034,
    "Average_travel_time_passengers": 2681.81293152005,
    "Average_speed_busses": 0.047625,
    "Average_experienced_crowding": 82.98191098216661,
    "Average_covariation_headway": 0.3709559148686995,
    "Average_covariation_headway_stops": {
        "B": 0.2724121917470724,
        "F": 0.266542948552841,
        "C": 0.27755276280695146,
        "G": 0.27225926169706316,
        "H": 0.2881309258010384,
        "L": 0.27393664731446926,
        "I": 0.26180660027299113,
        "D": 0.2733929676801446,
        "A": 0.25680174201758676,
        "J": 0.25344056509159574,
        "E": 0.2790636841264518,
        "K": 0.2740447065312678
    },
    "Average_excess_waiting_time": {
        "B": 59.26363465186108,
        "F": 59.09548105809739,
        "C": 58.272487990104366,
        "G": 58.16688804022533,
        "H": 59.5043341800486,
        "L": 60.72077611266559,
        "I": 56.4384235584032,
        "D": 60.19404462779613,
        "A": 59.5470447703658,
        "J": 58.876397258256645,
        "E": 63.04703315300435,
        "K": 62.49006288776093
    },
    "Holding_per_stop": {
        "C": 17.8125,
        "G": 11.875,
        "H": 20.9375,
        "B": 20.210526315789473,
        "F": 18.94736842105263,
        "L": 24.63157894736842,
        "I": 12.8125,
        "D": 14.526315789473685,
        "A": 10.421052631578947,
        "J": 16.736842105263158,
        "E": 19.894736842105264,
        "K": 22.340425531914892
    },
    "Load_per_bus_per_stop": {
        "bus0": {
            "B": 94,
            "C": 97.4375,
            "D": 98.3125,
            "E": 99.9375,
            "F": 100.75,
            "G": 102.75,
            "H": 103.3125,
            "I": 102.0625,
            "J": 102.5625,
            "K": 100.66666666666667,
            "L": 100.4,
            "A": 100.26666666666667
        },
        "bus2": {
            "F": 72.4375,
            "G": 72.1875,
            "H": 72.5,
            "I": 73.1875,
            "J": 73.25,
            "K": 77.5625,
            "L": 77.125,
            "A": 76.875,
            "B": 75.6875,
            "C": 76.5,
            "D": 77.53333333333333,
            "E": 77.8
        },
        "bus1": {
            "C": 81.875,
            "D": 82.3125,
            "E": 83.5,
            "F": 83.25,
            "G": 82.0625,
            "H": 81.625,
            "I": 82.625,
            "J": 81.625,
            "K": 82.4375,
            "L": 81.6875,
            "A": 84,
            "B": 87.06666666666666
        },
        "bus3": {
            "G": 73.125,
            "H": 74.5,
            "I": 75.125,
            "J": 76.9375,
            "K": 76.6875,
            "L": 75.6875,
            "A": 75.5625,
            "B": 76.3125,
            "C": 78.125,
            "D": 76.875,
            "E": 77.6875,
            "F": 78.6
        },
        "bus4": {
            "H": 75,
            "I": 74.125,
            "J": 74.8125,
            "K": 75.4375,
            "L": 75.125,
            "A": 74.8125,
            "B": 75.5625,
            "C": 76.625,
            "D": 78.9375,
            "E": 79,
            "F": 79.6875,
            "G": 81.0625
        },
        "bus5": {
            "L": 62,
            "A": 61.1875,
            "B": 62,
            "C": 61,
            "D": 62.1875,
            "E": 63.625,
            "F": 62.9375,
            "G": 64.125,
            "H": 65.4375,
            "I": 64.1875,
            "J": 66.06666666666666,
            "K": 65
        }
    }
}