{
    "Average_holding_time": 19.483985765124554,
    "Average_travel_time_passengers": 2720.5204039063647,
    "Average_speed_busses": 0.04683333333333333,
    "Average_experienced_crowding": 82.1006639006902,
    "Average_covariation_headway": 0.27573741781759514,
    "Average_covariation_headway_stops": {
        "K": 0.20673172427224876,
        "E": 0.21617746383553682,
        "B": 0.21153575957745466,
        "F": 0.1959077264036016,
        "L": 0.20454880693372418,
        "J": 0.21271252572146337,
        "C": 0.2169993431623399,
        "A": 0.19966135771922605,
        "G": 0.1926052696621206,
        "D": 0.19718961183327466,
        "H": 0.1770185876754033,
        "I": 0.20014578344493306
    },
    "Average_excess_waiting_time": {
        "K": 55.411882763933534,
        "E": 56.96204103152718,
        "B": 54.903030965696644,
        "F": 52.40135809785539,
        "L": 52.56732456379092,
        "J": 57.85259436778756,
        "C": 57.151722962205156,
        "A": 54.01972466556367,
        "G": 53.867850852962135,
        "D": 55.772667203117976,
        "H": 54.06293344210195,
        "I": 58.1142201019569
    },
    "Holding_per_stop": {
        "K": 18.829787234042552,
        "B": 12.446808510638299,
        "F": 17.5531914893617,
        "L": 28.085106382978722,
        "E": 22.340425531914892,
        "J": 16.129032258064516,
        "C": 29.680851063829788,
        "A": 11.48936170212766,
        "G": 20.106382978723403,
        "D": 19.35483870967742,
        "H": 20.322580645161292,
        "I": 17.419354838709676
    },
    "Load_per_bus_per_stop": {
        "bus4": {
            "K": 87.75,
            "L": 88.3125,
            "A": 86.8125,
            "B": 86.5625,
            "C": 88.125,
            "D": 87,
            "E": 87.1875,
            "F": 87.86666666666666,
            "G": 90.66666666666667,
            "H": 95.46666666666667,
            "I": 94.4,
            "J": 95.86666666666666
        },
        "bus1": {
            "E": 75.4375,
            "F": 74.5625,
            "G": 75.1875,
            "H": 76.8125,
            "I": 78,
            "J": 79.125,
            "K": 78.5625,
            "L": 77.66666666666667,
            "A": 77.4,
            "B": 78.33333333333333,
            "C": 78.06666666666666,
            "D": 79.06666666666666
        },
        "bus0": {
            "B": 72.375,
            "C": 73.5,
            "D": 75.5625,
            "E": 76.75,
            "F": 75.4375,
            "G": 75.9375,
            "H": 76.25,
            "I": 77.9375,
            "J": 79.26666666666667,
            "K": 80.2,
            "L": 79.53333333333333,
            "A": 78.13333333333334
        },
        "bus2": {
            "F": 72.9375,
            "G": 73.8125,
            "H": 73.125,
            "I": 74.9375,
            "J": 77.25,
            "K": 78.375,
            "L": 78.75,
            "A": 78.8125,
            "B": 77.4,
            "C": 78.66666666666667,
            "D": 79.6,
            "E": 78
        },
        "bus5": {
            "L": 79.25,
            "A": 82.3125,
            "B": 84.625,
            "C": 84.75,
            "D": 83.875,
            "E": 84.375,
            "F": 85,
            "G": 83.8125,
            "H": 82.6,
            "I": 82.93333333333334,
            "J": 83,
            "K": 83.8
        },
        "bus3": {
            "J": 75.6875,
            "K": 76.6875,
            "L": 77.375,
            "A": 78.3125,
            "B": 79.375,
            "C": 81.25,
            "D": 81.13333333333334,
            "E": 80.6,
            "F": 82.26666666666667,
            "G": 81.33333333333333,
            "H": 80.33333333333333,
            "I": 79.66666666666667
        }
    }
}