{
    "Average_holding_time": 16.358839050131927,
    "Average_travel_time_passengers": 2674.684489507351,
    "Average_speed_busses": 0.047375,
    "Average_experienced_crowding": 82.91198919763622,
    "Average_covariation_headway": 0.36306047484560516,
    "Average_covariation_headway_stops": {
        "D": 0.27344534895048334,
        "L": 0.27179234764855903,
        "I": 0.284399394755691,
        "B": 0.26555506382162203,
        "H": 0.2887768399988132,
        "K": 0.2585890915347201,
        "A": 0.2482665898666089,
        "E": 0.26385608130680394,
        "C": 0.26407153361815167,
        "J": 0.23916077268570557,
        "F": 0.26501570788075796,
        "G": 0.28724301775853617
    },
    "Average_excess_waiting_time": {
        "D": 60.595402963469496,
        "L": 58.71459148729383,
        "I": 62.76676056649467,
        "B": 58.01150517121937,
        "H": 65.08877921101077,
        "K": 58.63944454391242,
        "A": 57.28708068291991,
        "E": 60.89475579980848,
        "C": 61.26830045371139,
        "J": 56.956011555992916,
        "F": 61.967566975282296,
        "G": 67.44855871759296
    },
    "Holding_per_stop": {
        "D": 20.526315789473685,
        "L": 18.4375,
        "I": 20.210526315789473,
        "B": 14.842105263157896,
        "K": 15.789473684210526,
        "H": 14.680851063829786,
        "A": 11.052631578947368,
        "E": 18,
        "C": 15.957446808510639,
        "J": 13.894736842105264,
        "F": 11.170212765957446,
        "G": 21.70212765957447
    },
    "Load_per_bus_per_stop": {
        "bus1": {
            "D": 66.1875,
            "E": 67.125,
            "F": 69.625,
            "G": 71,
            "H": 71.375,
            "I": 72.8125,
            "J": 72.1875,
            "K": 71.25,
            "L": 72.625,
            "A": 72.8125,
            "B": 72,
            "C": 72.06666666666666
        },
        "bus5": {
            "L": 70.6875,
            "A": 72.9375,
            "B": 73.1875,
            "C": 74.75,
            "D": 76.4375,
            "E": 76.8125,
            "F": 77.4375,
            "G": 78.0625,
            "H": 81,
            "I": 79.6875,
            "J": 77.3125,
            "K": 76.06666666666666
        },
        "bus3": {
            "I": 79.25,
            "J": 80.4375,
            "K": 83.125,
            "L": 84.0625,
            "A": 84.125,
            "B": 83.9375,
            "C": 84.5,
            "D": 85.875,
            "E": 85.3125,
            "F": 83.2,
            "G": 84.33333333333333,
            "H": 84.86666666666666
        },
        "bus0": {
            "B": 72.0625,
            "C": 73.625,
            "D": 72.625,
            "E": 73.125,
            "F": 73.3125,
            "G": 72.625,
            "H": 74.5625,
            "I": 75.3125,
            "J": 74.6875,
            "K": 76.5625,
            "L": 75.1875,
            "A": 76.46666666666667
        },
        "bus2": {
            "H": 83.8125,
            "I": 85.25,
            "J": 85.25,
            "K": 85.9375,
            "L": 89.1875,
            "A": 90.6875,
            "B": 90.875,
            "C": 91.3125,
            "D": 92.53333333333333,
            "E": 91.6,
            "F": 90.53333333333333,
            "G": 89.2
        },
        "bus4": {
            "K": 78.5625,
            "L": 78.9375,
            "A": 79.6875,
            "B": 81.25,
            "C": 81.25,
            "D": 80.125,
            "E": 81.1875,
            "F": 81.125,
            "G": 83.0625,
            "H": 83.73333333333333,
            "I": 83.6,
            "J": 84.4
        }
    }
}