{
    "Average_holding_time": 20.24390243902439,
    "Average_travel_time_passengers": 2897.392405222611,
    "Average_speed_busses": 0.046125,
    "Average_experienced_crowding": 110.86179732153505,
    "Average_covariation_headway": 0.7872337112965152,
    "Average_covariation_headway_stops": {
        "I": 0.6220157956221114,
        "C": 0.6345526780286361,
        "D": 0.6313449494490168,
        "E": 0.6272558364662063,
        "F": 0.6146816724449653,
        "G": 0.6135331069736111,
        "J": 0.6117859273247276,
        "H": 0.6183305886314573,
        "K": 0.6129615951833947,
        "L": 0.6077266836221354,
        "A": 0.6087671218441393,
        "B": 0.6401096308241147
    },
    "Average_excess_waiting_time": {
        "I": 167.28935970001055,
        "C": 178.47851097686276,
        "D": 174.9004481999076,
        "E": 171.76568753987289,
        "F": 166.3891288472591,
        "G": 165.90570633365604,
        "J": 165.43869294034795,
        "H": 167.84677385976755,
        "K": 166.41963146987695,
        "L": 166.71807802833513,
        "A": 169.3601263352566,
        "B": 183.56034445984625
    },
    "Holding_per_stop": {
        "I": 19.677419354838708,
        "E": 18.387096774193548,
        "D": 20.869565217391305,
        "F": 22.580645161290324,
        "G": 20.967741935483872,
        "C": 21.195652173913043,
        "J": 15.161290322580646,
        "H": 27.065217391304348,
        "K": 20.543478260869566,
        "L": 20.543478260869566,
        "A": 17.47252747252747,
        "B": 18.46153846153846
    },
    "Load_per_bus_per_stop": {
        "bus5": {
            "I": 37.9375,
            "J": 38.5,
            "K": 38.9375,
            "L": 38,
            "A": 40.125,
            "B": 39.6875,
            "C": 40.3125,
            "D": 39.46666666666667,
            "E": 40.86666666666667,
            "F": 40.53333333333333,
            "G": 41.13333333333333,
            "H": 40.733333333333334
        },
        "bus0": {
            "C": 74.25,
            "D": 74.25,
            "E": 75.875,
            "F": 80.06666666666666,
            "G": 81.66666666666667,
            "H": 84.6,
            "I": 82.86666666666666,
            "J": 82.06666666666666,
            "K": 81.46666666666667,
            "L": 81.26666666666667,
            "A": 80.46666666666667,
            "B": 79.33333333333333
        },
        "bus1": {
            "D": 120,
            "E": 119.6875,
            "F": 119.75,
            "G": 124.33333333333333,
            "H": 124.46666666666667,
            "I": 125.06666666666666,
            "J": 128.26666666666668,
            "K": 130.6,
            "L": 131.93333333333334,
            "A": 133.46666666666667,
            "B": 131.26666666666668,
            "C": 128.26666666666668
        },
        "bus2": {
            "E": 109.875,
            "F": 112,
            "G": 111.0625,
            "H": 110.46666666666667,
            "I": 111.73333333333333,
            "J": 112.86666666666666,
            "K": 116.13333333333334,
            "L": 117.2,
            "A": 117.6,
            "B": 118.53333333333333,
            "C": 119.4,
            "D": 118.66666666666667
        },
        "bus3": {
            "F": 81.3125,
            "G": 81,
            "H": 79.6875,
            "I": 80.0625,
            "J": 80.5,
            "K": 78.46666666666667,
            "L": 81.06666666666666,
            "A": 84.26666666666667,
            "B": 83.26666666666667,
            "C": 83.86666666666666,
            "D": 84.93333333333334,
            "E": 85.06666666666666
        },
        "bus4": {
            "G": 45.75,
            "H": 46.375,
            "I": 47.4375,
            "J": 50,
            "K": 51.75,
            "L": 51.6875,
            "A": 51.8125,
            "B": 48.333333333333336,
            "C": 48.53333333333333,
            "D": 49.733333333333334,
            "E": 49.666666666666664,
            "F": 49
        }
    }
}