{
    "Average_holding_time": 13.382226056945642,
    "Average_travel_time_passengers": 2658.788315485458,
    "Average_speed_busses": 0.04829166666666666,
    "Average_experienced_crowding": 79.27205092191089,
    "Average_covariation_headway": 0.33585328942644077,
    "Average_covariation_headway_stops": {
        "E": 0.25141647848380433,
        "K": 0.2469879533641932,
        "H": 0.23209030477352233,
        "D": 0.2544986765670742,
        "C": 0.25417023095721425,
        "A": 0.22538745890166462,
        "F": 0.2384108412858629,
        "I": 0.2110952017616347,
        "B": 0.23578675975336855,
        "L": 0.22141188511270188,
        "G": 0.22334157478147784,
        "J": 0.2265677640406853
    },
    "Average_excess_waiting_time": {
        "E": 48.73084827204997,
        "K": 52.26774667361781,
        "H": 48.131419477467944,
        "D": 51.07820020630345,
        "C": 52.92879079012869,
        "A": 49.04141161843728,
        "F": 48.785122771793,
        "I": 46.51919996325347,
        "B": 52.11775525371371,
        "L": 50.970513271549976,
        "G": 48.04662327152977,
        "J": 51.378366429401865
    },
    "Holding_per_stop": {
        "E": 21.122448979591837,
        "D": 11.75257731958763,
        "H": 9.278350515463918,
        "A": 4.6875,
        "K": 20.3125,
        "C": 14.375,
        "F": 19.79381443298969,
        "I": 6.185567010309279,
        "B": 8.75,
        "L": 14.375,
        "G": 13.29896907216495,
        "J": 16.5625
    },
    "Load_per_bus_per_stop": {
        "bus2": {
            "E": 64.29411764705883,
            "F": 64.94117647058823,
            "G": 67.70588235294117,
            "H": 70.375,
            "I": 69.25,
            "J": 69.9375,
            "K": 71,
            "L": 71.375,
            "A": 72.4375,
            "B": 72.5,
            "C": 71.375,
            "D": 71.1875
        },
        "bus4": {
            "K": 71.375,
            "L": 73.375,
            "A": 73.8125,
            "B": 75.8125,
            "C": 76.8125,
            "D": 79,
            "E": 77.8125,
            "F": 77.25,
            "G": 77.5,
            "H": 78.0625,
            "I": 76.5625,
            "J": 75.875
        },
        "bus3": {
            "H": 74.29411764705883,
            "I": 76.11764705882354,
            "J": 76.125,
            "K": 76,
            "L": 77.75,
            "A": 79.0625,
            "B": 79.1875,
            "C": 78.375,
            "D": 77.8125,
            "E": 79,
            "F": 78.75,
            "G": 77.3125
        },
        "bus1": {
            "D": 70.11764705882354,
            "E": 71.47058823529412,
            "F": 74.3125,
            "G": 76.25,
            "H": 75.8125,
            "I": 75.8125,
            "J": 76.9375,
            "K": 76.875,
            "L": 77.25,
            "A": 75.4375,
            "B": 76.3125,
            "C": 74.625
        },
        "bus0": {
            "C": 87.0625,
            "D": 88.375,
            "E": 87.875,
            "F": 87.75,
            "G": 88.75,
            "H": 87.6875,
            "I": 86.875,
            "J": 86.25,
            "K": 88.375,
            "L": 86,
            "A": 88,
            "B": 88.5
        },
        "bus5": {
            "A": 68.25,
            "B": 70.125,
            "C": 71.875,
            "D": 71.4375,
            "E": 71.4375,
            "F": 72,
            "G": 73.375,
            "H": 71.6875,
            "I": 73.1875,
            "J": 74,
            "K": 72.9375,
            "L": 73.3125
        }
    }
}: 77.0625,
            "I": 77.4375,
            "J": 77.3125,
            "K": 78.25,
            "L": 77.33333333333333,
            "A": 78.06666666666666,
            "B": 77.73333333333333,
            "C": 78,
            "D": 80.06666666666666
        }
    }
}