{
    "Average_holding_time": 20.3485254691689,
    "Average_travel_time_passengers": 2816.6289110104976,
    "Average_speed_busses": 0.046625,
    "Average_experienced_crowding": 102.40690175618734,
    "Average_covariation_headway": 0.7057470043993612,
    "Average_covariation_headway_stops": {
        "D": 0.570247441273472,
        "B": 0.5872997898498942,
        "C": 0.5827569307960165,
        "G": 0.5792350317813315,
        "F": 0.5675236953262852,
        "I": 0.558531774184954,
        "E": 0.5688548570333805,
        "H": 0.5584658614383688,
        "J": 0.5460091480936056,
        "K": 0.5458342319728059,
        "L": 0.5442473644900494,
        "A": 0.5560076387337545
    },
    "Average_excess_waiting_time": {
        "D": 143.89832402168332,
        "B": 154.73880783029233,
        "C": 150.91043949033377,
        "G": 143.24163195003933,
        "F": 141.58912636868837,
        "I": 136.95247195926754,
        "E": 144.3362549128246,
        "H": 138.52213909094007,
        "J": 140.4569317644162,
        "K": 139.51201138947226,
        "L": 141.4187407626627,
        "A": 147.46784419427706
    },
    "Holding_per_stop": {
        "D": 23.29787234042553,
        "C": 20.322580645161292,
        "G": 28.42105263157895,
        "F": 16.595744680851062,
        "I": 23.68421052631579,
        "B": 15,
        "H": 22.659574468085108,
        "E": 20.967741935483872,
        "J": 19.677419354838708,
        "K": 21.52173913043478,
        "L": 16.956521739130434,
        "A": 14.673913043478262
    },
    "Load_per_bus_per_stop": {
        "bus2": {
            "D": 54.4375,
            "E": 55.3125,
            "F": 54.5,
            "G": 54.875,
            "H": 54.1875,
            "I": 56.25,
            "J": 60.86666666666667,
            "K": 60.13333333333333,
            "L": 59.13333333333333,
            "A": 58.06666666666667,
            "B": 57.13333333333333,
            "C": 56.6
        },
        "bus0": {
            "B": 80.5,
            "C": 81.9375,
            "D": 82,
            "E": 83.3125,
            "F": 84.0625,
            "G": 83.4375,
            "H": 81.06666666666666,
            "I": 81.93333333333334,
            "J": 82.4,
            "K": 81,
            "L": 81.73333333333333,
            "A": 84.06666666666666
        },
        "bus1": {
            "C": 50.875,
            "D": 51.25,
            "E": 52,
            "F": 53.375,
            "G": 52.375,
            "H": 51.625,
            "I": 52.3125,
            "J": 53.86666666666667,
            "K": 54.93333333333333,
            "L": 54,
            "A": 53.266666666666666,
            "B": 53.53333333333333
        },
        "bus4": {
            "G": 88.6875,
            "H": 89.1875,
            "I": 89.9375,
            "J": 90.3125,
            "K": 91.6875,
            "L": 93.4375,
            "A": 94.5625,
            "B": 95.2,
            "C": 92.8,
            "D": 93,
            "E": 93.8,
            "F": 93.53333333333333
        },
        "bus3": {
            "F": 105.125,
            "G": 105.3125,
            "H": 105.5,
            "I": 105.9375,
            "J": 108.6875,
            "K": 105.06666666666666,
            "L": 105.4,
            "A": 104.8,
            "B": 106.33333333333333,
            "C": 107.73333333333333,
            "D": 110.06666666666666,
            "E": 111.46666666666667
        },
        "bus5": {
            "I": 86.9375,
            "J": 86.9375,
            "K": 86.8125,
            "L": 89.0625,
            "A": 89.3125,
            "B": 90,
            "C": 92.875,
            "D": 92.625,
            "E": 91.26666666666667,
            "F": 92.53333333333333,
            "G": 93.93333333333334,
            "H": 92.73333333333333
        }
    }
}