{
    "Average_holding_time": 40.309734513274336,
    "Average_travel_time_passengers": 6151.421389144749,
    "Average_speed_busses": 0.02825,
    "Average_experienced_crowding": 515.303733873182,
    "Average_covariation_headway": 1.7529077095588013,
    "Average_covariation_headway_stops": {
        "L": 2.0198280072134267,
        "F": 1.9328912819210504,
        "I": 1.9852640770415133,
        "G": 1.9607637461020593,
        "E": 1.9186143364591377,
        "B": 1.8994741443921976,
        "H": 1.9618947429109939,
        "C": 1.9078923321630152,
        "A": 2.0318964323910964,
        "J": 1.9911795120742235,
        "D": 1.9044182071514926,
        "K": 1.9831261521194485
    },
    "Average_excess_waiting_time": {
        "L": 2230.6020161347274,
        "F": 1947.3287766761784,
        "I": 2086.6558613978077,
        "G": 2002.7640785559963,
        "E": 1922.4834837971364,
        "B": 1813.910607033047,
        "H": 2045.3542337465076,
        "C": 1865.4752956527188,
        "A": 2293.155648353239,
        "J": 2136.997470313222,
        "D": 1897.5511595944338,
        "K": 2159.6029188961124
    },
    "Holding_per_stop": {
        "F": 33.75,
        "I": 45.51724137931034,
        "G": 40,
        "B": 38.888888888888886,
        "L": 41.69491525423729,
        "E": 40.36363636363637,
        "H": 43.1578947368421,
        "C": 43.888888888888886,
        "A": 35.689655172413794,
        "J": 42.93103448275862,
        "D": 41.111111111111114,
        "K": 36.724137931034484
    },
    "Load_per_bus_per_stop": {
        "bus5": {
            "L": 60.6,
            "A": 59.3,
            "B": 59.55555555555556,
            "C": 61,
            "D": 62.55555555555556,
            "E": 62.333333333333336,
            "F": 66.55555555555556,
            "G": 68.11111111111111,
            "H": 69,
            "I": 68.55555555555556,
            "J": 67.22222222222223,
            "K": 68.22222222222223
        },
        "bus2": {
            "F": 28,
            "G": 28.3,
            "H": 27.8,
            "I": 27.9,
            "J": 27.4,
            "K": 28.1,
            "L": 28.9,
            "A": 29.7,
            "B": 32.666666666666664,
            "C": 33.333333333333336,
            "D": 33.111111111111114,
            "E": 32.44444444444444
        },
        "bus4": {
            "I": 32.6,
            "J": 31.8,
            "K": 31.1,
            "L": 30.7,
            "A": 31.3,
            "B": 34.888888888888886,
            "C": 35.77777777777778,
            "D": 36.666666666666664,
            "E": 37.111111111111114,
            "F": 38.333333333333336,
            "G": 38.333333333333336,
            "H": 37.22222222222222
        },
        "bus3": {
            "G": 34.4,
            "H": 36.6,
            "I": 38,
            "J": 37.3,
            "K": 36.5,
            "L": 36,
            "A": 34.8,
            "B": 38.44444444444444,
            "C": 38,
            "D": 37.666666666666664,
            "E": 38,
            "F": 38.22222222222222
        },
        "bus1": {
            "E": 85.6,
            "F": 86,
            "G": 84.7,
            "H": 86.9,
            "I": 87.7,
            "J": 90.7,
            "K": 89.5,
            "L": 90.1,
            "A": 87.5,
            "B": 97,
            "C": 95.77777777777777,
            "D": 94.22222222222223
        },
        "bus0": {
            "B": 359,
            "C": 373.55555555555554,
            "D": 390.1111111111111,
            "E": 402.8888888888889,
            "F": 418.1111111111111,
            "G": 432,
            "H": 448.22222222222223,
            "I": 456.55555555555554,
            "J": 462.22222222222223,
            "K": 475.1111111111111,
            "L": 486.55555555555554,
            "A": 494.77777777777777
        }
    }
}