{
    "Average_holding_time": 21.67707404103479,
    "Average_travel_time_passengers": 2745.7454070194326,
    "Average_speed_busses": 0.04670833333333333,
    "Average_experienced_crowding": 86.17616404298114,
    "Average_covariation_headway": 0.4318865626837509,
    "Average_covariation_headway_stops": {
        "A": 0.33854917762971004,
        "J": 0.3252966924282892,
        "F": 0.330722098594365,
        "D": 0.34671523455051284,
        "C": 0.34729576755985,
        "E": 0.3356236635346733,
        "G": 0.3231957685018154,
        "B": 0.3341454679455683,
        "K": 0.33322493715507756,
        "H": 0.32567970288683723,
        "I": 0.3211498271062483,
        "L": 0.3250429497094183
    },
    "Average_excess_waiting_time": {
        "A": 79.80927598126829,
        "J": 75.76588864952845,
        "F": 72.7202148078544,
        "D": 79.72436205454812,
        "C": 81.8383386094938,
        "E": 75.73814917238957,
        "G": 74.26350894311855,
        "B": 81.07960968478045,
        "K": 79.97717234280327,
        "H": 76.45439929122466,
        "I": 76.69133651303895,
        "L": 80.11912649584241
    },
    "Holding_per_stop": {
        "F": 19.57894736842105,
        "D": 23.29787234042553,
        "E": 28.404255319148938,
        "A": 19.032258064516128,
        "J": 21.382978723404257,
        "C": 24.193548387096776,
        "G": 20.74468085106383,
        "B": 14.193548387096774,
        "K": 25.161290322580644,
        "H": 25.806451612903224,
        "I": 16.774193548387096,
        "L": 21.52173913043478
    },
    "Load_per_bus_per_stop": {
        "bus5": {
            "A": 81.125,
            "B": 80.1875,
            "C": 80.6875,
            "D": 82.6875,
            "E": 84.125,
            "F": 83.3125,
            "G": 87.26666666666667,
            "H": 87.06666666666666,
            "I": 86.73333333333333,
            "J": 85.13333333333334,
            "K": 86,
            "L": 86.13333333333334
        },
        "bus4": {
            "J": 88.625,
            "K": 87.8125,
            "L": 91.375,
            "A": 93.9375,
            "B": 94.5,
            "C": 92.6875,
            "D": 93,
            "E": 94.73333333333333,
            "F": 93.86666666666666,
            "G": 95.86666666666666,
            "H": 95.8,
            "I": 95.93333333333334
        },
        "bus3": {
            "F": 56.3125,
            "G": 56.5625,
            "H": 57.5625,
            "I": 59.875,
            "J": 60.3125,
            "K": 60.25,
            "L": 61.8125,
            "A": 62.375,
            "B": 63.0625,
            "C": 59.733333333333334,
            "D": 60.53333333333333,
            "E": 59.333333333333336
        },
        "bus1": {
            "D": 78.375,
            "E": 79.625,
            "F": 79.5625,
            "G": 78.9375,
            "H": 77.125,
            "I": 77,
            "J": 76.625,
            "K": 79.8,
            "L": 78.86666666666666,
            "A": 81,
            "B": 82.33333333333333,
            "C": 82.26666666666667
        },
        "bus0": {
            "C": 87.625,
            "D": 88.25,
            "E": 88.4375,
            "F": 88.1875,
            "G": 88.875,
            "H": 88.8125,
            "I": 88.73333333333333,
            "J": 88.73333333333333,
            "K": 88.53333333333333,
            "L": 89.86666666666666,
            "A": 92,
            "B": 93
        },
        "bus2": {
            "E": 66.25,
            "F": 67.75,
            "G": 67.875,
            "H": 68.75,
            "I": 70.875,
            "J": 71.6875,
            "K": 72.1875,
            "L": 72,
            "A": 67.86666666666666,
            "B": 70.8,
            "C": 71.6,
            "D": 71.93333333333334
        }
    }
}