{
    "Average_holding_time": 46.04938271604938,
    "Average_travel_time_passengers": 9134.387096110633,
    "Average_speed_busses": 0.02025,
    "Average_experienced_crowding": 831.097362354496,
    "Average_covariation_headway": 2.220303167080201,
    "Average_covariation_headway_stops": {
        "J": 2.187080420781039,
        "K": 2.1886039017749592,
        "A": 2.199396062770307,
        "E": 2.1505575855405725,
        "F": 2.0517119703226356,
        "I": 2.16303915609408,
        "L": 2.1785276648999763,
        "G": 2.152900307017431,
        "B": 2.163709136092592,
        "H": 2.146341968720266,
        "C": 2.1479082112227004,
        "D": 2.1321929967380973
    },
    "Average_excess_waiting_time": {
        "J": 3484.147790813525,
        "K": 3463.5255986876427,
        "A": 3540.883281057725,
        "E": 3563.5744051493057,
        "F": 3647.573085990929,
        "I": 3436.2685089713236,
        "L": 3503.1481805750814,
        "G": 3370.039584669266,
        "B": 3502.853791907773,
        "H": 3415.207107086762,
        "C": 3518.5549819266753,
        "D": 3535.3383426179184
    },
    "Holding_per_stop": {
        "K": 37.31707317073171,
        "J": 41.25,
        "F": 46.578947368421055,
        "E": 45.348837209302324,
        "I": 47.69230769230769,
        "A": 45.714285714285715,
        "L": 45.36585365853659,
        "G": 46.578947368421055,
        "B": 45,
        "H": 49.73684210526316,
        "C": 52.142857142857146,
        "D": 50
    },
    "Load_per_bus_per_stop": {
        "bus3": {
            "J": 7.142857142857143,
            "K": 7,
            "L": 7.142857142857143,
            "A": 8.714285714285714,
            "B": 9.714285714285714,
            "C": 9.428571428571429,
            "D": 10.285714285714286,
            "E": 9.428571428571429,
            "F": 9.166666666666666,
            "G": 9,
            "H": 6.833333333333333,
            "I": 7.333333333333333
        },
        "bus4": {
            "K": 55.142857142857146,
            "L": 56.57142857142857,
            "A": 58.285714285714285,
            "B": 60.285714285714285,
            "C": 61.857142857142854,
            "D": 65,
            "E": 66.71428571428571,
            "F": 60.5,
            "G": 65.16666666666667,
            "H": 64,
            "I": 63.5,
            "J": 66
        },
        "bus5": {
            "A": 761,
            "B": 783.1428571428571,
            "C": 802,
            "D": 827.7142857142857,
            "E": 841.8571428571429,
            "F": 849.2857142857143,
            "G": 781,
            "H": 801,
            "I": 822.1666666666666,
            "J": 839.5,
            "K": 858.3333333333334,
            "L": 875.5
        },
        "bus0": {
            "E": 35.625,
            "F": 39.142857142857146,
            "G": 39.714285714285715,
            "H": 40.714285714285715,
            "I": 40.57142857142857,
            "J": 39.285714285714285,
            "K": 38.142857142857146,
            "L": 39.142857142857146,
            "A": 39,
            "B": 40.285714285714285,
            "C": 40.714285714285715,
            "D": 41
        },
        "bus1": {
            "F": 22.857142857142858,
            "G": 25.428571428571427,
            "H": 26.428571428571427,
            "I": 28,
            "J": 31.714285714285715,
            "K": 32.142857142857146,
            "L": 31.714285714285715,
            "A": 29.428571428571427,
            "B": 27.285714285714285,
            "C": 24.571428571428573,
            "D": 24.142857142857142,
            "E": 24
        },
        "bus2": {
            "I": 10,
            "J": 10.285714285714286,
            "K": 11.428571428571429,
            "L": 11.714285714285714,
            "A": 12.142857142857142,
            "B": 13.571428571428571,
            "C": 13.571428571428571,
            "D": 13.714285714285714,
            "E": 14,
            "F": 15.5,
            "G": 14.833333333333334,
            "H": 13.5
        }
    }
}