{
    "Average_holding_time": 19.78494623655914,
    "Average_travel_time_passengers": 2874.251861175616,
    "Average_speed_busses": 0.0465,
    "Average_experienced_crowding": 106.03185096778417,
    "Average_covariation_headway": 0.7310621562324437,
    "Average_covariation_headway_stops": {
        "K": 0.5991251307497754,
        "I": 0.6075681827963277,
        "E": 0.6037934978011719,
        "B": 0.6191504270350586,
        "L": 0.596262225298379,
        "H": 0.5955614202788398,
        "J": 0.5986578132269125,
        "F": 0.6009523910805474,
        "C": 0.6096000319543622,
        "A": 0.5865851698029377,
        "G": 0.6071914514990493,
        "D": 0.6013002889500595
    },
    "Average_excess_waiting_time": {
        "K": 154.92130076263072,
        "I": 158.72888311785005,
        "E": 160.18121805030603,
        "B": 162.77723323434668,
        "L": 152.19487813356784,
        "H": 157.97892477723553,
        "J": 157.6151032368207,
        "F": 161.5890984281295,
        "C": 164.69875809237283,
        "A": 151.63172524622843,
        "G": 164.82512147903537,
        "D": 161.65914143683074
    },
    "Holding_per_stop": {
        "I": 15.161290322580646,
        "K": 27.76595744680851,
        "E": 15.161290322580646,
        "B": 19.78723404255319,
        "L": 27.127659574468087,
        "H": 15.483870967741936,
        "J": 21.29032258064516,
        "F": 19.891304347826086,
        "C": 23.225806451612904,
        "A": 12.580645161290322,
        "D": 18.26086956521739,
        "G": 21.52173913043478
    },
    "Load_per_bus_per_stop": {
        "bus4": {
            "K": 96.0625,
            "L": 95.9375,
            "A": 100.1875,
            "B": 103.4375,
            "C": 103.3125,
            "D": 101.46666666666667,
            "E": 101.33333333333333,
            "F": 102.06666666666666,
            "G": 102.4,
            "H": 102.93333333333334,
            "I": 100.93333333333334,
            "J": 102.06666666666666
        },
        "bus3": {
            "I": 93.875,
            "J": 92.875,
            "K": 92.5,
            "L": 94.5625,
            "A": 96.6875,
            "B": 95.9375,
            "C": 102.6,
            "D": 103.33333333333333,
            "E": 102.53333333333333,
            "F": 101.46666666666667,
            "G": 101.2,
            "H": 98.66666666666667
        },
        "bus1": {
            "E": 65.125,
            "F": 65.75,
            "G": 66.375,
            "H": 66.625,
            "I": 65.625,
            "J": 67.3125,
            "K": 67.8125,
            "L": 68.33333333333333,
            "A": 70.26666666666667,
            "B": 69.53333333333333,
            "C": 69.46666666666667,
            "D": 69.33333333333333
        },
        "bus0": {
            "B": 48.3125,
            "C": 48.75,
            "D": 50.6875,
            "E": 52,
            "F": 53.8125,
            "G": 53.125,
            "H": 53.6875,
            "I": 53.333333333333336,
            "J": 52.666666666666664,
            "K": 53.13333333333333,
            "L": 53.666666666666664,
            "A": 51.8
        },
        "bus5": {
            "L": 75,
            "A": 74.4375,
            "B": 76.0625,
            "C": 77.0625,
            "D": 79.4375,
            "E": 79.5625,
            "F": 78.75,
            "G": 77.4,
            "H": 77.93333333333334,
            "I": 77.8,
            "J": 78.46666666666667,
            "K": 78.4
        },
        "bus2": {
            "H": 75.6875,
            "I": 74.4375,
            "J": 75.6875,
            "K": 77.375,
            "L": 76.8125,
            "A": 79.25,
            "B": 81.53333333333333,
            "C": 81.93333333333334,
            "D": 81.66666666666667,
            "E": 82.93333333333334,
            "F": 81.8,
            "G": 80.6
        }
    }
}