{
    "Average_holding_time": 29.414634146341463,
    "Average_travel_time_passengers": 7258.851654900581,
    "Average_speed_busses": 0.025625,
    "Average_experienced_crowding": 686.1800324813114,
    "Average_covariation_headway": 2.326755946583316,
    "Average_covariation_headway_stops": {
        "C": 2.0809135744193337,
        "L": 2.0960054573372893,
        "J": 2.0827916094455428,
        "K": 2.0903050155599145,
        "D": 2.09169496681083,
        "E": 2.1066877930144745,
        "A": 2.0854775014039313,
        "F": 2.0997889595452053,
        "B": 2.0659173270287488,
        "G": 2.0772950265909427,
        "H": 1.983119158001812,
        "I": 2.057684816193512
    },
    "Average_excess_waiting_time": {
        "C": 2604.7452288856452,
        "L": 2595.443470477805,
        "J": 2615.9308884919874,
        "K": 2606.7898717462895,
        "D": 2605.1337592934788,
        "E": 2615.9966986153254,
        "A": 2607.8282877125807,
        "F": 2631.2290002609993,
        "B": 2594.7624124346034,
        "G": 2612.240593136202,
        "H": 2678.205922430212,
        "I": 2583.1745381648757
    },
    "Holding_per_stop": {
        "L": 30,
        "K": 27,
        "D": 28.30188679245283,
        "C": 28.846153846153847,
        "J": 27.551020408163264,
        "E": 32.77777777777778,
        "A": 25.294117647058822,
        "B": 28.823529411764707,
        "F": 30.555555555555557,
        "G": 36.666666666666664,
        "H": 27.5,
        "I": 28.75
    },
    "Load_per_bus_per_stop": {
        "bus0": {
            "C": 4.222222222222222,
            "D": 4.666666666666667,
            "E": 5.666666666666667,
            "F": 5.666666666666667,
            "G": 6,
            "H": 5.375,
            "I": 5,
            "J": 4.875,
            "K": 5.5,
            "L": 5.5,
            "A": 5.375,
            "B": 4.75
        },
        "bus5": {
            "L": 12.666666666666666,
            "A": 13.11111111111111,
            "B": 13.666666666666666,
            "C": 15.333333333333334,
            "D": 15.88888888888889,
            "E": 17.11111111111111,
            "F": 16.555555555555557,
            "G": 15.333333333333334,
            "H": 17.25,
            "I": 16.625,
            "J": 16.25,
            "K": 15
        },
        "bus3": {
            "J": 12.555555555555555,
            "K": 13.555555555555555,
            "L": 14.222222222222221,
            "A": 14.333333333333334,
            "B": 14.777777777777779,
            "C": 16.11111111111111,
            "D": 17.22222222222222,
            "E": 18,
            "F": 17.77777777777778,
            "G": 16.77777777777778,
            "H": 17.625,
            "I": 15.5
        },
        "bus4": {
            "K": 7.666666666666667,
            "L": 8.222222222222221,
            "A": 8.555555555555555,
            "B": 9.222222222222221,
            "C": 9,
            "D": 8.555555555555555,
            "E": 8.444444444444445,
            "F": 8,
            "G": 7.333333333333333,
            "H": 7.75,
            "I": 7.75,
            "J": 8.25
        },
        "bus1": {
            "D": 40.666666666666664,
            "E": 40.55555555555556,
            "F": 41,
            "G": 42.55555555555556,
            "H": 42.375,
            "I": 43.375,
            "J": 44,
            "K": 45.125,
            "L": 43.5,
            "A": 42.75,
            "B": 43.875,
            "C": 44.875
        },
        "bus2": {
            "E": 701.2222222222222,
            "F": 713.5555555555555,
            "G": 723.1111111111111,
            "H": 731,
            "I": 717.75,
            "J": 725.125,
            "K": 730.875,
            "L": 739,
            "A": 751.5,
            "B": 760.25,
            "C": 770.5,
            "D": 780.625
        }
    }
}