{
    "Average_holding_time": 15.77023498694517,
    "Average_travel_time_passengers": 2718.763871495052,
    "Average_speed_busses": 0.047875,
    "Average_experienced_crowding": 91.07501359570259,
    "Average_covariation_headway": 0.5574156912806401,
    "Average_covariation_headway_stops": {
        "J": 0.4261874334631243,
        "B": 0.4270405991693209,
        "F": 0.4144995420524455,
        "E": 0.4249119208117487,
        "G": 0.42556030179846094,
        "K": 0.4294587546344146,
        "C": 0.4328351009473592,
        "H": 0.44115484827897367,
        "L": 0.4344908467876721,
        "D": 0.4363295043969855,
        "I": 0.4369713798510568,
        "A": 0.4283016516637065
    },
    "Average_excess_waiting_time": {
        "J": 91.52359369890252,
        "B": 89.66702504512068,
        "F": 88.08845494040969,
        "E": 90.89825825153366,
        "G": 88.6662317504863,
        "K": 89.23455587057884,
        "C": 92.98653851268159,
        "H": 95.19857128507431,
        "L": 92.51526545342267,
        "D": 96.1193939246852,
        "I": 96.49276542470488,
        "A": 92.59020655302288
    },
    "Holding_per_stop": {
        "B": 10,
        "F": 8.75,
        "G": 14.0625,
        "K": 15.625,
        "J": 22.8125,
        "E": 16.875,
        "C": 14.375,
        "H": 14.842105263157896,
        "L": 23.4375,
        "D": 18.94736842105263,
        "I": 15.789473684210526,
        "A": 13.75
    },
    "Load_per_bus_per_stop": {
        "bus4": {
            "J": 71.375,
            "K": 72.5,
            "L": 71.8125,
            "A": 72.5,
            "B": 75.125,
            "C": 74.625,
            "D": 74.875,
            "E": 75.9375,
            "F": 79.4375,
            "G": 79.3125,
            "H": 75.2,
            "I": 75.6
        },
        "bus0": {
            "B": 86.125,
            "C": 85.0625,
            "D": 87.5625,
            "E": 88.875,
            "F": 88.25,
            "G": 89.0625,
            "H": 89.75,
            "I": 91.6875,
            "J": 92.6875,
            "K": 92.5625,
            "L": 92.5,
            "A": 91.6875
        },
        "bus2": {
            "F": 78.3125,
            "G": 76.625,
            "H": 77.25,
            "I": 74.875,
            "J": 75.8125,
            "K": 75.1875,
            "L": 75.375,
            "A": 75.875,
            "B": 75.375,
            "C": 77.5,
            "D": 77.4375,
            "E": 79.5
        },
        "bus1": {
            "E": 91.4375,
            "F": 91.8125,
            "G": 93.4375,
            "H": 94.0625,
            "I": 94.4375,
            "J": 93.5625,
            "K": 93.625,
            "L": 93.9375,
            "A": 92.625,
            "B": 92.0625,
            "C": 94.125,
            "D": 97.33333333333333
        },
        "bus3": {
            "G": 63.94117647058823,
            "H": 66.75,
            "I": 68,
            "J": 67.75,
            "K": 67.4375,
            "L": 68.125,
            "A": 66.1875,
            "B": 65.5,
            "C": 66.25,
            "D": 65.9375,
            "E": 66.5625,
            "F": 66.875
        },
        "bus5": {
            "K": 60.6875,
            "L": 61.5625,
            "A": 61.75,
            "B": 63,
            "C": 63,
            "D": 63.875,
            "E": 64.5625,
            "F": 65.1875,
            "G": 65.625,
            "H": 66,
            "I": 67.3125,
            "J": 68.3125
        }
    }
}