{
    "Average_holding_time": 15.500878734622145,
    "Average_travel_time_passengers": 2736.190380513031,
    "Average_speed_busses": 0.04741666666666667,
    "Average_experienced_crowding": 94.43559001342219,
    "Average_covariation_headway": 0.6208973476255732,
    "Average_covariation_headway_stops": {
        "G": 0.516014812143784,
        "I": 0.5207636887955043,
        "C": 0.497335153448777,
        "D": 0.50889001857852,
        "J": 0.5257827126736119,
        "H": 0.5279992898851055,
        "E": 0.4994907404984226,
        "K": 0.4894655904974512,
        "L": 0.4703544867897282,
        "F": 0.5056463493778255,
        "A": 0.47463179937522665,
        "B": 0.47882121077011913
    },
    "Average_excess_waiting_time": {
        "G": 118.44523126026354,
        "I": 117.78062661875902,
        "C": 112.79744730416854,
        "D": 114.47349362441992,
        "J": 117.61753568262998,
        "H": 120.64574611778528,
        "E": 114.18081006589603,
        "K": 111.31240022955126,
        "L": 107.70333038423689,
        "F": 118.26132256526131,
        "A": 110.79599784965205,
        "B": 114.00907992397862
    },
    "Holding_per_stop": {
        "I": 15.3125,
        "D": 14.526315789473685,
        "J": 19.375,
        "H": 18.125,
        "G": 17.68421052631579,
        "C": 16.914893617021278,
        "E": 16.736842105263158,
        "K": 17.23404255319149,
        "L": 13.404255319148936,
        "F": 15.157894736842104,
        "A": 10.53191489361702,
        "B": 10.851063829787234
    },
    "Load_per_bus_per_stop": {
        "bus2": {
            "G": 82.4375,
            "H": 83.125,
            "I": 84.1875,
            "J": 85.5625,
            "K": 85.9375,
            "L": 86.75,
            "A": 87.5,
            "B": 87.625,
            "C": 82.66666666666667,
            "D": 83.06666666666666,
            "E": 84.66666666666667,
            "F": 85.2
        },
        "bus4": {
            "I": 37.0625,
            "J": 36.3125,
            "K": 37,
            "L": 36.5625,
            "A": 36.625,
            "B": 37.8125,
            "C": 39.0625,
            "D": 38.875,
            "E": 39.5,
            "F": 41.125,
            "G": 41,
            "H": 40.5625
        },
        "bus0": {
            "C": 88.4375,
            "D": 88.25,
            "E": 87.25,
            "F": 87.75,
            "G": 87.3125,
            "H": 86.625,
            "I": 86.25,
            "J": 87.5,
            "K": 93.33333333333333,
            "L": 94.2,
            "A": 94.86666666666666,
            "B": 95.6
        },
        "bus1": {
            "D": 107.625,
            "E": 110.5,
            "F": 111.4375,
            "G": 112.9375,
            "H": 113.25,
            "I": 113.375,
            "J": 114.3125,
            "K": 109.8,
            "L": 110,
            "A": 111.26666666666667,
            "B": 113,
            "C": 113.2
        },
        "bus5": {
            "J": 79.47058823529412,
            "K": 83.75,
            "L": 82.875,
            "A": 82.9375,
            "B": 83.8125,
            "C": 86.375,
            "D": 85.6875,
            "E": 87.9375,
            "F": 88.0625,
            "G": 84.6875,
            "H": 86.625,
            "I": 86.5625
        },
        "bus3": {
            "H": 60.625,
            "I": 60.5625,
            "J": 59.9375,
            "K": 58,
            "L": 59.3125,
            "A": 59,
            "B": 61.3125,
            "C": 62.75,
            "D": 64.625,
            "E": 64.75,
            "F": 65.5625,
            "G": 63.53333333333333
        }
    }
} }
}