{
    "Average_holding_time": 17.1729587357331,
    "Average_travel_time_passengers": 2711.3550653513394,
    "Average_speed_busses": 0.04745833333333333,
    "Average_experienced_crowding": 84.82787142238935,
    "Average_covariation_headway": 0.39691080024020636,
    "Average_covariation_headway_stops": {
        "G": 0.30292085916910894,
        "A": 0.29967692811171076,
        "K": 0.30920834276148884,
        "E": 0.3125611633543042,
        "C": 0.30798938097078354,
        "D": 0.3144006164438036,
        "H": 0.3023308924750989,
        "B": 0.29653409602605285,
        "F": 0.29911618361167297,
        "L": 0.3006755655378831,
        "I": 0.2866071496432639,
        "J": 0.30371458156697806
    },
    "Average_excess_waiting_time": {
        "G": 63.71266908191211,
        "A": 66.41671734521663,
        "K": 67.76472355252821,
        "E": 65.30854034602385,
        "C": 68.50933646694602,
        "D": 67.78640510720862,
        "H": 65.03538855094519,
        "B": 67.16915877135807,
        "F": 65.1701226909957,
        "L": 68.39260558326845,
        "I": 63.739500515028624,
        "J": 68.06640492112808
    },
    "Holding_per_stop": {
        "G": 16.25,
        "A": 16.105263157894736,
        "E": 15.3125,
        "C": 19.894736842105264,
        "D": 19.57894736842105,
        "K": 17.68421052631579,
        "H": 15.157894736842104,
        "B": 12.446808510638299,
        "F": 18,
        "I": 18.31578947368421,
        "L": 18.51063829787234,
        "J": 18.829787234042552
    },
    "Load_per_bus_per_stop": {
        "bus3": {
            "G": 66.8125,
            "H": 66.5625,
            "I": 66.875,
            "J": 66,
            "K": 65.9375,
            "L": 66.625,
            "A": 66.75,
            "B": 66.375,
            "C": 67.1875,
            "D": 69.875,
            "E": 71.1875,
            "F": 72.06666666666666
        },
        "bus5": {
            "A": 87.0625,
            "B": 86.125,
            "C": 88.625,
            "D": 88.8125,
            "E": 90.25,
            "F": 90.875,
            "G": 92.5625,
            "H": 91.9375,
            "I": 92.5625,
            "J": 92.1875,
            "K": 93.53333333333333,
            "L": 94.06666666666666
        },
        "bus4": {
            "K": 90,
            "L": 93.8125,
            "A": 93.75,
            "B": 94.625,
            "C": 93.5,
            "D": 93.3125,
            "E": 94.25,
            "F": 95.125,
            "G": 95.125,
            "H": 95,
            "I": 96,
            "J": 96.4
        },
        "bus2": {
            "E": 68.6875,
            "F": 70.9375,
            "G": 70.9375,
            "H": 71.5,
            "I": 75,
            "J": 74.0625,
            "K": 74,
            "L": 74,
            "A": 74,
            "B": 72.6875,
            "C": 73.8125,
            "D": 72.6
        },
        "bus0": {
            "C": 78.625,
            "D": 80.25,
            "E": 79.0625,
            "F": 78.875,
            "G": 78.75,
            "H": 79.625,
            "I": 80.5625,
            "J": 80.1875,
            "K": 82.75,
            "L": 82.66666666666667,
            "A": 82.2,
            "B": 82.93333333333334
        },
        "bus1": {
            "D": 63.6875,
            "E": 62.375,
            "F": 64.25,
            "G": 64.0625,
            "H": 65.5,
            "I": 66.75,
            "J": 66.625,
            "K": 67.1875,
            "L": 67.125,
            "A": 66.25,
            "B": 66.875,
            "C": 67.93333333333334
        }
    }
}