{
    "Average_holding_time": 16.894736842105264,
    "Average_travel_time_passengers": 2687.3121945902617,
    "Average_speed_busses": 0.0475,
    "Average_experienced_crowding": 84.10312384798716,
    "Average_covariation_headway": 0.4111846692852094,
    "Average_covariation_headway_stops": {
        "A": 0.31081053874141695,
        "L": 0.3264155605802073,
        "C": 0.32291536187171255,
        "E": 0.32243887573531427,
        "B": 0.31589146371214766,
        "H": 0.2942012829727547,
        "D": 0.30126812328415414,
        "F": 0.31903457729500706,
        "I": 0.2882858004883234,
        "J": 0.2890439853582831,
        "G": 0.3071955987373911,
        "K": 0.29999987343178436
    },
    "Average_excess_waiting_time": {
        "A": 67.28143790499848,
        "L": 72.84774559815361,
        "C": 66.78698100918143,
        "E": 67.19163132528752,
        "B": 66.73373230340962,
        "H": 62.98837695138042,
        "D": 64.36773773360773,
        "F": 68.24212240621472,
        "I": 63.880654982338626,
        "J": 65.5268062327736,
        "G": 67.6238765225001,
        "K": 70.17711225561044
    },
    "Holding_per_stop": {
        "A": 12.631578947368421,
        "L": 22.02127659574468,
        "C": 20.9375,
        "E": 23.75,
        "B": 13.75,
        "H": 16.105263157894736,
        "D": 18.31578947368421,
        "F": 12,
        "I": 19.263157894736842,
        "J": 17.5531914893617,
        "G": 15.157894736842104,
        "K": 11.170212765957446
    },
    "Load_per_bus_per_stop": {
        "bus5": {
            "A": 74.1875,
            "B": 74,
            "C": 74.5625,
            "D": 75.375,
            "E": 75.6875,
            "F": 77.6875,
            "G": 78.8125,
            "H": 79.5,
            "I": 79.625,
            "J": 80,
            "K": 80.2,
            "L": 79.66666666666667
        },
        "bus4": {
            "L": 80.75,
            "A": 82.5,
            "B": 82.5625,
            "C": 81.5625,
            "D": 83.6875,
            "E": 84.0625,
            "F": 83.9375,
            "G": 82.5,
            "H": 82,
            "I": 83,
            "J": 82.33333333333333,
            "K": 83.06666666666666
        },
        "bus1": {
            "C": 69.875,
            "D": 71.75,
            "E": 72.8125,
            "F": 74.625,
            "G": 74.9375,
            "H": 76,
            "I": 75.875,
            "J": 76.0625,
            "K": 76.4375,
            "L": 76.6875,
            "A": 76.4375,
            "B": 75.8125
        },
        "bus2": {
            "E": 85.75,
            "F": 86.0625,
            "G": 87.5,
            "H": 88.1875,
            "I": 88.25,
            "J": 88.625,
            "K": 88.375,
            "L": 89.875,
            "A": 90.625,
            "B": 89.5625,
            "C": 89.9375,
            "D": 90.3125
        },
        "bus0": {
            "B": 59.4375,
            "C": 60.6875,
            "D": 59.75,
            "E": 60,
            "F": 61,
            "G": 61.1875,
            "H": 62.8125,
            "I": 62.375,
            "J": 62.125,
            "K": 62.375,
            "L": 62.06666666666667,
            "A": 61.86666666666667
        },
        "bus3": {
            "H": 83.5625,
            "I": 85.6875,
            "J": 86.0625,
            "K": 88.9375,
            "L": 88.25,
            "A": 89.25,
            "B": 89.9375,
            "C": 92.125,
            "D": 91.125,
            "E": 89.5,
            "F": 90.53333333333333,
            "G": 89.66666666666667
        }
    }
}