{
    "Average_holding_time": 18.237885462555067,
    "Average_travel_time_passengers": 2685.725322144776,
    "Average_speed_busses": 0.04729166666666667,
    "Average_experienced_crowding": 81.27144438186764,
    "Average_covariation_headway": 0.30607624850303033,
    "Average_covariation_headway_stops": {
        "G": 0.20901907497997477,
        "I": 0.20544029274215259,
        "C": 0.2600661981637077,
        "D": 0.23762715123029238,
        "J": 0.22248202956604138,
        "H": 0.20682279272365198,
        "E": 0.21423979178298275,
        "K": 0.22239981109979218,
        "L": 0.23119485983920024,
        "F": 0.19687986031864338,
        "A": 0.2165192310720044,
        "B": 0.25587762063444053
    },
    "Average_excess_waiting_time": {
        "G": 53.95687771107765,
        "I": 49.810120500729624,
        "C": 61.260199869176404,
        "D": 55.99422156222039,
        "J": 50.03130070873317,
        "H": 52.12043551767715,
        "E": 55.65771412681471,
        "K": 51.66827344387792,
        "L": 54.78152487961569,
        "F": 54.93280587220488,
        "A": 54.30583778780624,
        "B": 61.94756885243163
    },
    "Holding_per_stop": {
        "I": 21.473684210526315,
        "D": 19.57894736842105,
        "J": 18.125,
        "H": 19.894736842105264,
        "G": 20.425531914893618,
        "C": 18.19148936170213,
        "E": 19.46808510638298,
        "K": 18,
        "L": 18.31578947368421,
        "F": 18.51063829787234,
        "A": 14.680851063829786,
        "B": 12.127659574468085
    },
    "Load_per_bus_per_stop": {
        "bus2": {
            "G": 70.3125,
            "H": 69.125,
            "I": 70.75,
            "J": 72.0625,
            "K": 72.4375,
            "L": 72.25,
            "A": 70.875,
            "B": 72.8125,
            "C": 75.66666666666667,
            "D": 74.4,
            "E": 74.53333333333333,
            "F": 75.66666666666667
        },
        "bus4": {
            "I": 75.625,
            "J": 76.875,
            "K": 78.1875,
            "L": 79.875,
            "A": 81.9375,
            "B": 83.4375,
            "C": 85.375,
            "D": 86.375,
            "E": 84.9375,
            "F": 83.8125,
            "G": 80.8,
            "H": 80.06666666666666
        },
        "bus0": {
            "C": 85,
            "D": 83.6875,
            "E": 83.75,
            "F": 84.5,
            "G": 83.9375,
            "H": 84.3125,
            "I": 83.75,
            "J": 84.375,
            "K": 85.75,
            "L": 87.46666666666667,
            "A": 89.33333333333333,
            "B": 91.73333333333333
        },
        "bus1": {
            "D": 81.1875,
            "E": 83.0625,
            "F": 83.125,
            "G": 83.25,
            "H": 83.1875,
            "I": 81.9375,
            "J": 82.3125,
            "K": 82,
            "L": 81.9375,
            "A": 80.33333333333333,
            "B": 81.26666666666667,
            "C": 83.33333333333333
        },
        "bus5": {
            "J": 70.3125,
            "K": 71.3125,
            "L": 72.75,
            "A": 74,
            "B": 72.5625,
            "C": 74.4375,
            "D": 74.4375,
            "E": 74.125,
            "F": 75.4375,
            "G": 74.0625,
            "H": 74.5,
            "I": 74.93333333333334
        },
        "bus3": {
            "H": 78.375,
            "I": 77.6875,
            "J": 76.375,
            "K": 75,
            "L": 76.5625,
            "A": 75.9375,
            "B": 75.5625,
            "C": 75.625,
            "D": 74.75,
            "E": 78.46666666666667,
            "F": 81.06666666666666,
            "G": 80.86666666666666
        }
    }
}