{
    "Average_holding_time": 16.742957746478872,
    "Average_travel_time_passengers": 2700.9633866022987,
    "Average_speed_busses": 0.04733333333333333,
    "Average_experienced_crowding": 83.5958054506402,
    "Average_covariation_headway": 0.3900923088924044,
    "Average_covariation_headway_stops": {
        "F": 0.28983254963006194,
        "I": 0.30464940209495484,
        "J": 0.31799213650512637,
        "B": 0.2930942353803651,
        "A": 0.28236540297818663,
        "D": 0.26753486507840174,
        "G": 0.2928968175406872,
        "E": 0.2907811704570917,
        "K": 0.282441295785813,
        "C": 0.284952675576394,
        "H": 0.2858277917732582,
        "L": 0.26920205847923767
    },
    "Average_excess_waiting_time": {
        "F": 62.384761465736574,
        "I": 67.21711220713428,
        "J": 67.69357249789454,
        "B": 63.86297904702377,
        "A": 63.673236934314616,
        "D": 58.019630852074386,
        "G": 64.76051905987657,
        "E": 63.82330201730781,
        "K": 64.95909474384268,
        "C": 64.0160246558645,
        "H": 64.84134727035098,
        "L": 65.01851495610595
    },
    "Holding_per_stop": {
        "F": 13.263157894736842,
        "J": 19.263157894736842,
        "B": 18.94736842105263,
        "D": 12.31578947368421,
        "I": 17.05263157894737,
        "A": 12.127659574468085,
        "G": 17.36842105263158,
        "K": 15.957446808510639,
        "E": 25.263157894736842,
        "C": 22.42105263157895,
        "H": 13.085106382978724,
        "L": 13.72340425531915
    },
    "Load_per_bus_per_stop": {
        "bus2": {
            "F": 73.625,
            "G": 75.3125,
            "H": 75.5625,
            "I": 77.6875,
            "J": 77.8125,
            "K": 78.5625,
            "L": 78.375,
            "A": 78.5,
            "B": 78.5,
            "C": 78.4375,
            "D": 76.66666666666667,
            "E": 76.2
        },
        "bus3": {
            "I": 59.3125,
            "J": 58.4375,
            "K": 58.9375,
            "L": 58.9375,
            "A": 58.9375,
            "B": 59.75,
            "C": 61.125,
            "D": 62.75,
            "E": 61.6875,
            "F": 60.8125,
            "G": 61.6,
            "H": 61.8
        },
        "bus4": {
            "J": 79.8125,
            "K": 78.4375,
            "L": 79.125,
            "A": 80.125,
            "B": 81.0625,
            "C": 80.6875,
            "D": 79.5,
            "E": 77.375,
            "F": 78.625,
            "G": 78.8125,
            "H": 78.875,
            "I": 83.93333333333334
        },
        "bus0": {
            "B": 89.8125,
            "C": 90.1875,
            "D": 90.125,
            "E": 89.75,
            "F": 90.625,
            "G": 91.25,
            "H": 90.9375,
            "I": 90.125,
            "J": 92.0625,
            "K": 93.2,
            "L": 95.13333333333334,
            "A": 97.13333333333334
        },
        "bus5": {
            "A": 73.25,
            "B": 72.4375,
            "C": 72.25,
            "D": 74.375,
            "E": 73.125,
            "F": 72,
            "G": 74.8125,
            "H": 74.375,
            "I": 72.375,
            "J": 74.75,
            "K": 80,
            "L": 79.93333333333334
        },
        "bus1": {
            "D": 88.5625,
            "E": 88.5,
            "F": 88.6875,
            "G": 90.5625,
            "H": 90.9375,
            "I": 91.875,
            "J": 90.25,
            "K": 89.75,
            "L": 91.6875,
            "A": 90.13333333333334,
            "B": 90.8,
            "C": 92.33333333333333
        }
    }
}