{
    "Average_holding_time": 15.683012259194395,
    "Average_travel_time_passengers": 2749.28872164539,
    "Average_speed_busses": 0.04758333333333333,
    "Average_experienced_crowding": 93.42399660874969,
    "Average_covariation_headway": 0.600628416787977,
    "Average_covariation_headway_stops": {
        "I": 0.470417288077717,
        "D": 0.4832960979077864,
        "K": 0.4809170278465484,
        "E": 0.47761508708450773,
        "L": 0.4774415367757148,
        "G": 0.4514739629570247,
        "J": 0.4665830414559866,
        "F": 0.45284591233033983,
        "A": 0.48002284267196776,
        "H": 0.46501955835762815,
        "B": 0.48336156994351664,
        "C": 0.4913354051696968
    },
    "Average_excess_waiting_time": {
        "I": 104.10248804581369,
        "D": 111.89666569481722,
        "K": 106.73792442807604,
        "E": 107.9261540565804,
        "L": 103.45604344370713,
        "G": 99.17717292774552,
        "J": 106.13827708115718,
        "F": 102.56180929656972,
        "A": 105.93882008023553,
        "H": 104.55872965670773,
        "B": 109.8837296762577,
        "C": 114.76626639998966
    },
    "Holding_per_stop": {
        "I": 13.125,
        "K": 17.05263157894737,
        "E": 17.36842105263158,
        "L": 16.875,
        "G": 14.210526315789474,
        "D": 15.638297872340425,
        "J": 15.157894736842104,
        "F": 15.789473684210526,
        "A": 15.625,
        "H": 17.05263157894737,
        "B": 14.842105263157896,
        "C": 15.473684210526315
    },
    "Load_per_bus_per_stop": {
        "bus3": {
            "I": 77.5625,
            "J": 76.875,
            "K": 76.1875,
            "L": 77.1875,
            "A": 76.8125,
            "B": 79.3125,
            "C": 82.0625,
            "D": 82.6875,
            "E": 82.75,
            "F": 82.625,
            "G": 79.86666666666666,
            "H": 80.93333333333334
        },
        "bus0": {
            "D": 59.375,
            "E": 59.875,
            "F": 60.375,
            "G": 60.375,
            "H": 61.5,
            "I": 62,
            "J": 63.6875,
            "K": 64.75,
            "L": 63.6875,
            "A": 62,
            "B": 61.6,
            "C": 62.53333333333333
        },
        "bus4": {
            "K": 83.125,
            "L": 83,
            "A": 82.4375,
            "B": 82.625,
            "C": 82.75,
            "D": 83.4375,
            "E": 84.8125,
            "F": 84.5625,
            "G": 84.6875,
            "H": 85.4375,
            "I": 86,
            "J": 88.33333333333333
        },
        "bus1": {
            "E": 61,
            "F": 62.4375,
            "G": 64.375,
            "H": 63.0625,
            "I": 63.3125,
            "J": 61.3125,
            "K": 61.5,
            "L": 62.5,
            "A": 62.375,
            "B": 64.375,
            "C": 63.0625,
            "D": 66.6
        },
        "bus5": {
            "L": 77.4375,
            "A": 79.5625,
            "B": 80.0625,
            "C": 81.3125,
            "D": 82.5625,
            "E": 82.0625,
            "F": 82.875,
            "G": 82.25,
            "H": 82.375,
            "I": 82.0625,
            "J": 83.1875,
            "K": 80.8
        },
        "bus2": {
            "G": 93.3125,
            "H": 94.75,
            "I": 96.5625,
            "J": 95,
            "K": 97.5625,
            "L": 99,
            "A": 101.75,
            "B": 100.75,
            "C": 98.1875,
            "D": 95.86666666666666,
            "E": 96.33333333333333,
            "F": 96.33333333333333
        }
    }
}