{
    "Average_holding_time": 19.032258064516128,
    "Average_travel_time_passengers": 2828.933325536955,
    "Average_speed_busses": 0.0465,
    "Average_experienced_crowding": 103.35356737303167,
    "Average_covariation_headway": 0.7018814872480925,
    "Average_covariation_headway_stops": {
        "D": 0.5686127664242712,
        "A": 0.5713239418320191,
        "I": 0.5690244719283866,
        "H": 0.5692823156357072,
        "K": 0.5718304798595405,
        "C": 0.5608107363571309,
        "J": 0.5667515886397978,
        "B": 0.5571398683502423,
        "E": 0.5642080726986972,
        "L": 0.5787503339228122,
        "F": 0.5641608290816671,
        "G": 0.5567814298176493
    },
    "Average_excess_waiting_time": {
        "D": 141.96311523084142,
        "A": 148.91161760822058,
        "I": 142.93386700767263,
        "H": 144.85428676245408,
        "K": 143.79149694581002,
        "C": 144.95960697193334,
        "J": 144.31209479569037,
        "B": 146.34056780946844,
        "E": 142.60001407745426,
        "L": 148.35323305104885,
        "F": 144.6387708780328,
        "G": 144.50511584087133
    },
    "Holding_per_stop": {
        "D": 17.741935483870968,
        "A": 14.673913043478262,
        "I": 22.97872340425532,
        "K": 22.02127659574468,
        "C": 17.741935483870968,
        "H": 20.322580645161292,
        "J": 21.29032258064516,
        "B": 17.608695652173914,
        "E": 18.70967741935484,
        "L": 18.70967741935484,
        "F": 19.032258064516128,
        "G": 17.419354838709676
    },
    "Load_per_bus_per_stop": {
        "bus1": {
            "D": 32.9375,
            "E": 33.5625,
            "F": 33.9375,
            "G": 34.5,
            "H": 32.625,
            "I": 33.75,
            "J": 34.0625,
            "K": 35.0625,
            "L": 35.4375,
            "A": 36.46666666666667,
            "B": 34.53333333333333,
            "C": 34.6
        },
        "bus5": {
            "A": 69.75,
            "B": 69.875,
            "C": 72,
            "D": 72.5,
            "E": 71.375,
            "F": 71.125,
            "G": 70,
            "H": 67.73333333333333,
            "I": 71.4,
            "J": 71.8,
            "K": 71.73333333333333,
            "L": 72.93333333333334
        },
        "bus3": {
            "I": 119.25,
            "J": 121.3125,
            "K": 121.1875,
            "L": 123.8125,
            "A": 123.26666666666667,
            "B": 124,
            "C": 124.93333333333334,
            "D": 128.33333333333334,
            "E": 125.93333333333334,
            "F": 125.13333333333334,
            "G": 126,
            "H": 125.73333333333333
        },
        "bus2": {
            "H": 95.25,
            "I": 94.1875,
            "J": 96,
            "K": 96.9375,
            "L": 96.125,
            "A": 101,
            "B": 103.53333333333333,
            "C": 104.66666666666667,
            "D": 102.73333333333333,
            "E": 103.46666666666667,
            "F": 103.73333333333333,
            "G": 101.73333333333333
        },
        "bus4": {
            "K": 98.375,
            "L": 101.3125,
            "A": 101.125,
            "B": 103.25,
            "C": 103.3125,
            "D": 100.33333333333333,
            "E": 99.86666666666666,
            "F": 100.66666666666667,
            "G": 101.6,
            "H": 100.66666666666667,
            "I": 104.66666666666667,
            "J": 104.13333333333334
        },
        "bus0": {
            "C": 44.4375,
            "D": 42.875,
            "E": 42.3125,
            "F": 45.9375,
            "G": 46.875,
            "H": 45.8125,
            "I": 46.75,
            "J": 46.3125,
            "K": 45.2,
            "L": 46.06666666666667,
            "A": 46.2,
            "B": 47.266666666666666
        }
    }
}