{
    "Average_holding_time": 72.83042394014963,
    "Average_travel_time_passengers": 4235.8455936233195,
    "Average_speed_busses": 0.033416666666666664,
    "Average_experienced_crowding": 211.88325183445573,
    "Average_covariation_headway": 1.167610762612888,
    "Average_covariation_headway_stops": {
        "D": 0.993972432508418,
        "H": 1.0213194619204404,
        "G": 0.9908760143550972,
        "K": 1.0142608676764044,
        "E": 1.0078778765995475,
        "I": 1.0113926585769297,
        "J": 1.0010432039056063,
        "L": 1.0047524963266525,
        "F": 0.9870474532587614,
        "A": 0.9858942422392136,
        "B": 0.9802425340014654,
        "C": 0.9738969859773624
    },
    "Average_excess_waiting_time": {
        "D": 598.3575396879546,
        "H": 603.6567440633487,
        "G": 588.5320813527151,
        "K": 607.6587731073698,
        "E": 603.3271333508806,
        "I": 590.7603182674036,
        "J": 600.3974171052264,
        "L": 607.1923605500085,
        "F": 592.7823139396794,
        "A": 598.0135350291275,
        "B": 600.7637203709967,
        "C": 602.7495771702024
    },
    "Holding_per_stop": {
        "H": 70.1470588235294,
        "K": 80.45454545454545,
        "E": 74.32835820895522,
        "I": 83.04347826086956,
        "D": 80.45454545454545,
        "G": 77.6470588235294,
        "J": 82.05882352941177,
        "F": 62.6865671641791,
        "L": 63.18181818181818,
        "A": 64.54545454545455,
        "B": 62.27272727272727,
        "C": 72.46153846153847
    },
    "Load_per_bus_per_stop": {
        "bus0": {
            "D": 210.54545454545453,
            "E": 212.45454545454547,
            "F": 213.45454545454547,
            "G": 215.45454545454547,
            "H": 219.0909090909091,
            "I": 224.54545454545453,
            "J": 231.72727272727272,
            "K": 231.72727272727272,
            "L": 231.45454545454547,
            "A": 230.8181818181818,
            "B": 228.54545454545453,
            "C": 232.36363636363637
        },
        "bus3": {
            "H": 4.583333333333333,
            "I": 4.75,
            "J": 4.583333333333333,
            "K": 4.7272727272727275,
            "L": 4.636363636363637,
            "A": 5,
            "B": 5.363636363636363,
            "C": 5.454545454545454,
            "D": 4.818181818181818,
            "E": 4.545454545454546,
            "F": 4.909090909090909,
            "G": 5
        },
        "bus2": {
            "G": 11.416666666666666,
            "H": 11.916666666666666,
            "I": 10.916666666666666,
            "J": 11.090909090909092,
            "K": 11.454545454545455,
            "L": 12.181818181818182,
            "A": 13.181818181818182,
            "B": 13.181818181818182,
            "C": 13.545454545454545,
            "D": 13.181818181818182,
            "E": 12.818181818181818,
            "F": 12.636363636363637
        },
        "bus5": {
            "K": 256.6363636363636,
            "L": 255,
            "A": 252.72727272727272,
            "B": 260.09090909090907,
            "C": 262.27272727272725,
            "D": 272.54545454545456,
            "E": 272,
            "F": 277.54545454545456,
            "G": 276.8181818181818,
            "H": 277.54545454545456,
            "I": 278.09090909090907,
            "J": 279.54545454545456
        },
        "bus1": {
            "E": 120.16666666666667,
            "F": 124.75,
            "G": 127.91666666666667,
            "H": 125,
            "I": 128,
            "J": 123.45454545454545,
            "K": 125.54545454545455,
            "L": 122.9090909090909,
            "A": 123.0909090909091,
            "B": 125,
            "C": 126.63636363636364,
            "D": 128
        },
        "bus4": {
            "I": 24.416666666666668,
            "J": 26.5,
            "K": 26.727272727272727,
            "L": 25.636363636363637,
            "A": 26.90909090909091,
            "B": 25.90909090909091,
            "C": 26.818181818181817,
            "D": 27.636363636363637,
            "E": 26,
            "F": 25.181818181818183,
            "G": 24.454545454545453,
            "H": 25.181818181818183
        }
    }
}