{
    "Average_holding_time": 16.024518388791595,
    "Average_travel_time_passengers": 2712.485862818938,
    "Average_speed_busses": 0.04758333333333333,
    "Average_experienced_crowding": 90.21913337593745,
    "Average_covariation_headway": 0.5420191643241712,
    "Average_covariation_headway_stops": {
        "L": 0.4247079562674256,
        "C": 0.42840885023710445,
        "J": 0.4209598573356709,
        "B": 0.4337575635788177,
        "H": 0.44291292215576633,
        "A": 0.4205184511626118,
        "D": 0.4138894826407928,
        "K": 0.4166265087764068,
        "I": 0.42506392218263916,
        "E": 0.4295535937823644,
        "F": 0.42989125146092194,
        "G": 0.4463187980954855
    },
    "Average_excess_waiting_time": {
        "L": 93.89203422368007,
        "C": 87.84868668192394,
        "J": 94.993113322012,
        "B": 91.0241605647006,
        "H": 98.31986417311481,
        "A": 89.71359403254132,
        "D": 85.66094450593823,
        "K": 93.53009020571147,
        "I": 96.09310091226706,
        "E": 92.51140746554017,
        "F": 94.69587193809423,
        "G": 101.38541598643383
    },
    "Holding_per_stop": {
        "C": 12.371134020618557,
        "J": 16.595744680851062,
        "B": 14.375,
        "L": 19.894736842105264,
        "A": 9.157894736842104,
        "H": 14.842105263157896,
        "D": 17.1875,
        "K": 14.042553191489361,
        "E": 16.875,
        "I": 20.74468085106383,
        "F": 18.94736842105263,
        "G": 17.36842105263158
    },
    "Load_per_bus_per_stop": {
        "bus4": {
            "L": 84.125,
            "A": 82.5625,
            "B": 83.375,
            "C": 82.5,
            "D": 82.625,
            "E": 84.875,
            "F": 84.125,
            "G": 85.5625,
            "H": 86.8125,
            "I": 86.25,
            "J": 89.93333333333334,
            "K": 89.06666666666666
        },
        "bus1": {
            "C": 68.29411764705883,
            "D": 68.52941176470588,
            "E": 66.9375,
            "F": 67.6875,
            "G": 69.375,
            "H": 69.9375,
            "I": 71.0625,
            "J": 71.8125,
            "K": 69.875,
            "L": 71.25,
            "A": 71.1875,
            "B": 71.0625
        },
        "bus3": {
            "J": 94.0625,
            "K": 94.375,
            "L": 95.75,
            "A": 96.25,
            "B": 95.75,
            "C": 96.5,
            "D": 98.3125,
            "E": 98.3125,
            "F": 98.5625,
            "G": 98.1875,
            "H": 100.6,
            "I": 100.13333333333334
        },
        "bus0": {
            "B": 58.625,
            "C": 58.6875,
            "D": 60.25,
            "E": 62.9375,
            "F": 62.75,
            "G": 63.3125,
            "H": 65.375,
            "I": 66,
            "J": 65.1875,
            "K": 65.4375,
            "L": 64.9375,
            "A": 61.86666666666667
        },
        "bus2": {
            "H": 73.0625,
            "I": 73,
            "J": 73.625,
            "K": 75.4375,
            "L": 76.0625,
            "A": 75.875,
            "B": 76.8125,
            "C": 76.9375,
            "D": 76.75,
            "E": 78.625,
            "F": 77.4,
            "G": 77.8
        },
        "bus5": {
            "A": 70.25,
            "B": 70.4375,
            "C": 72.75,
            "D": 73.875,
            "E": 76.8125,
            "F": 77.125,
            "G": 76.1875,
            "H": 76.4375,
            "I": 75.6875,
            "J": 78,
            "K": 75.6,
            "L": 75
        }
    }
}