{
    "Average_holding_time": 19.30851063829787,
    "Average_travel_time_passengers": 2738.4391815497843,
    "Average_speed_busses": 0.047,
    "Average_experienced_crowding": 86.32893809484106,
    "Average_covariation_headway": 0.4299313672577645,
    "Average_covariation_headway_stops": {
        "K": 0.30674991904930565,
        "B": 0.3308833145441839,
        "G": 0.3424398080019114,
        "E": 0.3353223298688543,
        "L": 0.3267828082104717,
        "J": 0.3139824791048653,
        "H": 0.31769400374694806,
        "A": 0.3238939679871035,
        "C": 0.31590259116206726,
        "F": 0.3270696367956858,
        "D": 0.3240471342783992,
        "I": 0.326540475512385
    },
    "Average_excess_waiting_time": {
        "K": 70.67667231535785,
        "B": 73.38422418066125,
        "G": 76.47863156285138,
        "E": 75.66216687795583,
        "L": 72.44730915705986,
        "J": 74.44859730807974,
        "H": 73.39818526326326,
        "A": 74.28105570132732,
        "C": 72.02387318594543,
        "F": 75.57885347175812,
        "D": 75.09579621983966,
        "I": 77.38346346860698
    },
    "Holding_per_stop": {
        "K": 14.042553191489361,
        "B": 18.63157894736842,
        "G": 22.340425531914892,
        "E": 19.148936170212767,
        "L": 22.42105263157895,
        "J": 18.70967741935484,
        "H": 18.829787234042552,
        "A": 15.957446808510639,
        "C": 18.51063829787234,
        "F": 18.19148936170213,
        "D": 18.829787234042552,
        "I": 26.129032258064516
    },
    "Load_per_bus_per_stop": {
        "bus4": {
            "K": 80.875,
            "L": 83.8125,
            "A": 83.5,
            "B": 81.5,
            "C": 81.4375,
            "D": 81.625,
            "E": 82.375,
            "F": 83.4375,
            "G": 85.13333333333334,
            "H": 85.8,
            "I": 85.33333333333333,
            "J": 85.13333333333334
        },
        "bus0": {
            "B": 70.875,
            "C": 71.6875,
            "D": 71.5,
            "E": 73.375,
            "F": 72.3125,
            "G": 71.5,
            "H": 71.125,
            "I": 72.375,
            "J": 72.06666666666666,
            "K": 72.4,
            "L": 75.26666666666667,
            "A": 75.66666666666667
        },
        "bus2": {
            "G": 69.5,
            "H": 70.0625,
            "I": 71.9375,
            "J": 72.6875,
            "K": 74.375,
            "L": 74.8125,
            "A": 74.375,
            "B": 74.0625,
            "C": 73.4,
            "D": 73.4,
            "E": 74,
            "F": 74.6
        },
        "bus1": {
            "E": 86.25,
            "F": 86.9375,
            "G": 87.25,
            "H": 89.4375,
            "I": 89.3125,
            "J": 90.125,
            "K": 89.625,
            "L": 89.375,
            "A": 90.8,
            "B": 91.26666666666667,
            "C": 92.6,
            "D": 93.13333333333334
        },
        "bus5": {
            "L": 76.8125,
            "A": 78.375,
            "B": 78.4375,
            "C": 79,
            "D": 78.8125,
            "E": 78.5625,
            "F": 79.0625,
            "G": 79.25,
            "H": 79.9375,
            "I": 80.2,
            "J": 80.33333333333333,
            "K": 80.8
        },
        "bus3": {
            "J": 73.625,
            "K": 75.5,
            "L": 76.6875,
            "A": 78.4375,
            "B": 81,
            "C": 81.375,
            "D": 79,
            "E": 77.2,
            "F": 77.06666666666666,
            "G": 78.6,
            "H": 80.26666666666667,
            "I": 79.8
        }
    }
}