{
    "Average_holding_time": 21.332737030411447,
    "Average_travel_time_passengers": 2773.922002592771,
    "Average_speed_busses": 0.04658333333333333,
    "Average_experienced_crowding": 83.85041983391892,
    "Average_covariation_headway": 0.4128334457506762,
    "Average_covariation_headway_stops": {
        "K": 0.3014323216704552,
        "E": 0.32254502650988714,
        "G": 0.3019385873755055,
        "A": 0.30691514957264093,
        "D": 0.3278026439750994,
        "L": 0.3184488722373253,
        "H": 0.2980695988549978,
        "B": 0.32879924460247395,
        "F": 0.3052199274635026,
        "I": 0.2971667262716407,
        "C": 0.3171658829798839,
        "J": 0.29674932200232784
    },
    "Average_excess_waiting_time": {
        "K": 74.88552587894901,
        "E": 74.83152935200968,
        "G": 69.84504359708507,
        "A": 72.31019954870152,
        "D": 77.98132320809066,
        "L": 75.95179899177037,
        "H": 70.77488717090591,
        "B": 78.60920907113416,
        "F": 72.57378211856741,
        "I": 72.94458530677247,
        "C": 77.75714714083915,
        "J": 75.86318203871548
    },
    "Holding_per_stop": {
        "E": 24.574468085106382,
        "G": 17.23404255319149,
        "A": 15.638297872340425,
        "L": 27.419354838709676,
        "K": 17.741935483870968,
        "D": 20,
        "H": 25.483870967741936,
        "B": 17.741935483870968,
        "F": 20.64516129032258,
        "I": 22.258064516129032,
        "C": 24.838709677419356,
        "J": 22.5
    },
    "Load_per_bus_per_stop": {
        "bus3": {
            "K": 82.8125,
            "L": 83.9375,
            "A": 84.5,
            "B": 82.25,
            "C": 84.375,
            "D": 84.53333333333333,
            "E": 86.8,
            "F": 85.93333333333334,
            "G": 86.33333333333333,
            "H": 87.8,
            "I": 87.86666666666666,
            "J": 90.06666666666666
        },
        "bus1": {
            "E": 70.625,
            "F": 70.6875,
            "G": 72.1875,
            "H": 73.875,
            "I": 73.875,
            "J": 76.8125,
            "K": 76.6875,
            "L": 77.33333333333333,
            "A": 77.53333333333333,
            "B": 77,
            "C": 75.93333333333334,
            "D": 75.2
        },
        "bus2": {
            "G": 92.8125,
            "H": 94.3125,
            "I": 95.6875,
            "J": 93.875,
            "K": 94.125,
            "L": 97.125,
            "A": 98.375,
            "B": 99.86666666666666,
            "C": 99.53333333333333,
            "D": 98.46666666666667,
            "E": 100.13333333333334,
            "F": 98.46666666666667
        },
        "bus5": {
            "A": 73,
            "B": 71.375,
            "C": 70.9375,
            "D": 71.5625,
            "E": 71.4375,
            "F": 72.375,
            "G": 73.25,
            "H": 75.75,
            "I": 74.4,
            "J": 75.33333333333333,
            "K": 77.33333333333333,
            "L": 77.46666666666667
        },
        "bus0": {
            "D": 63.125,
            "E": 63.8125,
            "F": 63.25,
            "G": 63.5,
            "H": 64.875,
            "I": 64.9375,
            "J": 64.06666666666666,
            "K": 63.6,
            "L": 64.46666666666667,
            "A": 64.46666666666667,
            "B": 65.26666666666667,
            "C": 67
        },
        "bus4": {
            "L": 74.9375,
            "A": 75.1875,
            "B": 75.1875,
            "C": 75.8125,
            "D": 76.375,
            "E": 77.9375,
            "F": 78.8,
            "G": 79.93333333333334,
            "H": 80.53333333333333,
            "I": 82.6,
            "J": 82.73333333333333,
            "K": 80.2
        }
    }
}