{
    "Average_holding_time": 22.143497757847534,
    "Average_travel_time_passengers": 2772.796903741401,
    "Average_speed_busses": 0.04645833333333333,
    "Average_experienced_crowding": 86.86702418612074,
    "Average_covariation_headway": 0.44297233315074247,
    "Average_covariation_headway_stops": {
        "L": 0.3464618684826842,
        "G": 0.34072694782972446,
        "A": 0.3258386910765733,
        "B": 0.33492662082900393,
        "F": 0.328493863594751,
        "C": 0.34752815028762785,
        "H": 0.3241131844475962,
        "D": 0.3331369026554232,
        "I": 0.3310624789213567,
        "E": 0.31752303783108915,
        "J": 0.32475671167699827,
        "K": 0.343034509544815
    },
    "Average_excess_waiting_time": {
        "L": 83.89535839207764,
        "G": 78.96172431659619,
        "A": 77.44103032727156,
        "B": 77.79185266087649,
        "F": 77.87169536148878,
        "C": 79.42806349799662,
        "H": 75.06172952892604,
        "D": 80.05593620366426,
        "I": 78.0895243470938,
        "E": 76.82047374695037,
        "J": 79.9290835777033,
        "K": 84.97430914870193
    },
    "Holding_per_stop": {
        "G": 22.02127659574468,
        "A": 16.129032258064516,
        "B": 19.032258064516128,
        "C": 23.93617021276596,
        "L": 30.322580645161292,
        "F": 15.161290322580646,
        "H": 16.129032258064516,
        "D": 24.516129032258064,
        "I": 22.258064516129032,
        "E": 21.195652173913043,
        "J": 27.391304347826086,
        "K": 27.717391304347824
    },
    "Load_per_bus_per_stop": {
        "bus4": {
            "L": 84.625,
            "A": 85.125,
            "B": 84.9375,
            "C": 85.8125,
            "D": 89.06666666666666,
            "E": 91.86666666666666,
            "F": 93.26666666666667,
            "G": 94.6,
            "H": 94,
            "I": 92.26666666666667,
            "J": 91.26666666666667,
            "K": 90.66666666666667
        },
        "bus3": {
            "G": 78.9375,
            "H": 80.375,
            "I": 80,
            "J": 81.125,
            "K": 83.0625,
            "L": 84.125,
            "A": 83.75,
            "B": 83.375,
            "C": 83.2,
            "D": 84.6,
            "E": 84.06666666666666,
            "F": 85.06666666666666
        },
        "bus5": {
            "A": 91.75,
            "B": 93.125,
            "C": 93.3125,
            "D": 95.1875,
            "E": 95.2,
            "F": 93.86666666666666,
            "G": 94.13333333333334,
            "H": 94.33333333333333,
            "I": 95.6,
            "J": 97.46666666666667,
            "K": 98.33333333333333,
            "L": 97.26666666666667
        },
        "bus0": {
            "B": 77.6875,
            "C": 78.875,
            "D": 79,
            "E": 77.5625,
            "F": 78.4375,
            "G": 78.8125,
            "H": 76.66666666666667,
            "I": 78.2,
            "J": 78.4,
            "K": 79.73333333333333,
            "L": 79.06666666666666,
            "A": 81.66666666666667
        },
        "bus2": {
            "F": 55.875,
            "G": 56.375,
            "H": 57.3125,
            "I": 56.625,
            "J": 57.1875,
            "K": 56.9375,
            "L": 58.375,
            "A": 59.333333333333336,
            "B": 61.2,
            "C": 60.733333333333334,
            "D": 60.13333333333333,
            "E": 59.6
        },
        "bus1": {
            "C": 71.75,
            "D": 71.3125,
            "E": 73.5,
            "F": 73.625,
            "G": 74.8125,
            "H": 77.0625,
            "I": 77.5,
            "J": 78,
            "K": 79.46666666666667,
            "L": 79.06666666666666,
            "A": 78.46666666666667,
            "B": 77.06666666666666
        }
    }
}