{
    "Average_holding_time": 15.618964003511852,
    "Average_travel_time_passengers": 2691.8789227999973,
    "Average_speed_busses": 0.04745833333333333,
    "Average_experienced_crowding": 82.42300977901998,
    "Average_covariation_headway": 0.3726997331769143,
    "Average_covariation_headway_stops": {
        "C": 0.2831158077110664,
        "G": 0.25421847390320534,
        "F": 0.2754812330516632,
        "I": 0.27971227517472935,
        "A": 0.27912947540338257,
        "H": 0.2673547961124215,
        "D": 0.2673877724994554,
        "J": 0.2776030656010552,
        "E": 0.2617788143707574,
        "B": 0.27287922624571814,
        "K": 0.27743162890576806,
        "L": 0.281225943854868
    },
    "Average_excess_waiting_time": {
        "C": 62.707980662168154,
        "G": 58.32452237728188,
        "F": 62.91726325847259,
        "I": 59.86938830078418,
        "A": 61.68691043451753,
        "H": 58.34457405910172,
        "D": 61.672943666592005,
        "J": 60.94403418354227,
        "E": 61.93196415588386,
        "B": 62.63779426392006,
        "K": 62.816934777395375,
        "L": 63.343811816926745
    },
    "Holding_per_stop": {
        "C": 16.42105263157895,
        "G": 15.789473684210526,
        "I": 15,
        "H": 13.263157894736842,
        "F": 16.736842105263158,
        "A": 12.31578947368421,
        "D": 19.894736842105264,
        "J": 15.473684210526315,
        "B": 16.736842105263158,
        "K": 14.842105263157896,
        "E": 13.085106382978724,
        "L": 17.872340425531913
    },
    "Load_per_bus_per_stop": {
        "bus0": {
            "C": 75.5,
            "D": 74.875,
            "E": 76.375,
            "F": 77.8125,
            "G": 78.375,
            "H": 80.25,
            "I": 81.3125,
            "J": 81.5,
            "K": 83.875,
            "L": 82.66666666666667,
            "A": 81.73333333333333,
            "B": 79.66666666666667
        },
        "bus2": {
            "G": 72.4375,
            "H": 72.4375,
            "I": 72.9375,
            "J": 73.8125,
            "K": 74.8125,
            "L": 74.8125,
            "A": 75,
            "B": 75.0625,
            "C": 77.6875,
            "D": 77.0625,
            "E": 76.46666666666667,
            "F": 74.8
        },
        "bus1": {
            "F": 75.9375,
            "G": 76.5625,
            "H": 77.6875,
            "I": 77.6875,
            "J": 78.25,
            "K": 77.3125,
            "L": 78.0625,
            "A": 76.375,
            "B": 77,
            "C": 77.66666666666667,
            "D": 79.53333333333333,
            "E": 81.06666666666666
        },
        "bus4": {
            "I": 82.625,
            "J": 83,
            "K": 83.5,
            "L": 84.5625,
            "A": 86.1875,
            "B": 87.875,
            "C": 90.5,
            "D": 88.8125,
            "E": 86.125,
            "F": 86.3125,
            "G": 87.1875,
            "H": 87
        },
        "bus5": {
            "A": 92.0625,
            "B": 90.9375,
            "C": 92.375,
            "D": 95.125,
            "E": 95.5,
            "F": 96.1875,
            "G": 99.4375,
            "H": 102,
            "I": 102.875,
            "J": 101.6,
            "K": 100.8,
            "L": 99.8
        },
        "bus3": {
            "H": 54.625,
            "I": 54.5,
            "J": 55.1875,
            "K": 55.1875,
            "L": 56.5625,
            "A": 57.1875,
            "B": 56.5625,
            "C": 54.9375,
            "D": 56.5625,
            "E": 57,
            "F": 56.75,
            "G": 58.266666666666666
        }
    }
}