{
    "Average_holding_time": 23.9404869251578,
    "Average_travel_time_passengers": 2815.6365788662874,
    "Average_speed_busses": 0.04620833333333333,
    "Average_experienced_crowding": 90.93851633904015,
    "Average_covariation_headway": 0.4928614531046424,
    "Average_covariation_headway_stops": {
        "K": 0.41725935245146484,
        "J": 0.41094620095791856,
        "B": 0.3970975007944977,
        "C": 0.38650493279963416,
        "A": 0.3961132406003885,
        "I": 0.42392328501987026,
        "D": 0.3825259921738922,
        "L": 0.40680705483313573,
        "E": 0.3833249200770722,
        "F": 0.38836528290735217,
        "G": 0.39907297210501935,
        "H": 0.4013447362349406
    },
    "Average_excess_waiting_time": {
        "K": 101.47986933266174,
        "J": 101.89377052463789,
        "B": 94.76873912677831,
        "C": 90.00605261178708,
        "A": 96.35314243399722,
        "I": 107.65582927861146,
        "D": 90.32899963072293,
        "L": 101.42316364364723,
        "E": 92.68751667810403,
        "F": 95.60954169158646,
        "G": 100.30807815589117,
        "H": 103.8803282994096
    },
    "Holding_per_stop": {
        "K": 24.193548387096776,
        "J": 26.41304347826087,
        "B": 20.967741935483872,
        "C": 23.548387096774192,
        "A": 17.096774193548388,
        "I": 25.108695652173914,
        "D": 25.483870967741936,
        "L": 30.652173913043477,
        "E": 21.29032258064516,
        "F": 23.804347826086957,
        "G": 27.717391304347824,
        "H": 21.0989010989011
    },
    "Load_per_bus_per_stop": {
        "bus4": {
            "K": 65.0625,
            "L": 65.75,
            "A": 68,
            "B": 68.5,
            "C": 68,
            "D": 68.4,
            "E": 68.66666666666667,
            "F": 68.66666666666667,
            "G": 69.33333333333333,
            "H": 69.53333333333333,
            "I": 69.6,
            "J": 69.8
        },
        "bus3": {
            "J": 80.9375,
            "K": 81.4375,
            "L": 81.625,
            "A": 82.25,
            "B": 81.93333333333334,
            "C": 82.33333333333333,
            "D": 83.06666666666666,
            "E": 84.93333333333334,
            "F": 86.06666666666666,
            "G": 86.33333333333333,
            "H": 85.46666666666667,
            "I": 86.2
        },
        "bus0": {
            "B": 74.75,
            "C": 75.5,
            "D": 76.3125,
            "E": 75.125,
            "F": 78.1875,
            "G": 78.125,
            "H": 79.86666666666666,
            "I": 81.2,
            "J": 80,
            "K": 78.86666666666666,
            "L": 79.2,
            "A": 80.26666666666667
        },
        "bus1": {
            "C": 93.375,
            "D": 94,
            "E": 94.4375,
            "F": 93,
            "G": 93.875,
            "H": 94.0625,
            "I": 95.75,
            "J": 98.26666666666667,
            "K": 99.4,
            "L": 99.33333333333333,
            "A": 100.13333333333334,
            "B": 97.86666666666666
        },
        "bus5": {
            "A": 55.75,
            "B": 55.6875,
            "C": 55.6875,
            "D": 56.25,
            "E": 58.4375,
            "F": 54.8,
            "G": 54.333333333333336,
            "H": 54.666666666666664,
            "I": 56.266666666666666,
            "J": 56.266666666666666,
            "K": 58,
            "L": 57.333333333333336
        },
        "bus2": {
            "I": 97.3125,
            "J": 98.75,
            "K": 97.9375,
            "L": 100.8,
            "A": 102.2,
            "B": 100.73333333333333,
            "C": 102.46666666666667,
            "D": 101,
            "E": 102.33333333333333,
            "F": 101.46666666666667,
            "G": 100.2,
            "H": 101
        }
    }
}