{
    "Average_holding_time": 16.456692913385826,
    "Average_travel_time_passengers": 2687.0177561955247,
    "Average_speed_busses": 0.047625,
    "Average_experienced_crowding": 82.04800226897204,
    "Average_covariation_headway": 0.3799683534133151,
    "Average_covariation_headway_stops": {
        "B": 0.3171048823870995,
        "C": 0.34474774383611084,
        "I": 0.2906480209158103,
        "E": 0.3135625225576576,
        "H": 0.29055014185060035,
        "D": 0.31777419911959387,
        "F": 0.3027054851484521,
        "J": 0.2638518339545471,
        "K": 0.28406227277927737,
        "G": 0.2866547489036052,
        "L": 0.27814688947667165,
        "A": 0.314400271822042
    },
    "Average_excess_waiting_time": {
        "B": 70.2404870493827,
        "C": 73.61789576797105,
        "I": 61.04914118066978,
        "E": 64.09220824872239,
        "H": 62.3495625475129,
        "D": 66.30539695195154,
        "F": 63.91012286404555,
        "J": 56.56216984106857,
        "K": 62.31608792298687,
        "G": 63.44236053008706,
        "L": 62.72472489057651,
        "A": 71.56752200638994
    },
    "Holding_per_stop": {
        "I": 18.125,
        "C": 22.736842105263158,
        "E": 11.875,
        "D": 16.25,
        "B": 14.526315789473685,
        "H": 22.42105263157895,
        "F": 18.4375,
        "J": 15.157894736842104,
        "K": 17.68421052631579,
        "G": 13.578947368421053,
        "L": 14.842105263157896,
        "A": 11.808510638297872
    },
    "Load_per_bus_per_stop": {
        "bus0": {
            "B": 78.875,
            "C": 78.4375,
            "D": 78.3125,
            "E": 79.625,
            "F": 81.125,
            "G": 82.9375,
            "H": 84.5,
            "I": 85.6875,
            "J": 82.4,
            "K": 84.13333333333334,
            "L": 82.73333333333333,
            "A": 82.86666666666666
        },
        "bus1": {
            "C": 82.0625,
            "D": 82.25,
            "E": 80.875,
            "F": 83.5625,
            "G": 85.75,
            "H": 83.5625,
            "I": 84.6875,
            "J": 84.9375,
            "K": 86.3125,
            "L": 85.9375,
            "A": 86.06666666666666,
            "B": 86
        },
        "bus5": {
            "I": 86.25,
            "J": 87.375,
            "K": 87.9375,
            "L": 90.25,
            "A": 89,
            "B": 89.9375,
            "C": 91.875,
            "D": 93.4375,
            "E": 93.875,
            "F": 92.6875,
            "G": 92,
            "H": 90.9375
        },
        "bus3": {
            "E": 65.875,
            "F": 67.0625,
            "G": 67,
            "H": 68.6875,
            "I": 69.0625,
            "J": 69.0625,
            "K": 69.9375,
            "L": 69.875,
            "A": 69.8125,
            "B": 72.125,
            "C": 72,
            "D": 71.3125
        },
        "bus4": {
            "H": 66.6875,
            "I": 67.6875,
            "J": 66.5,
            "K": 66.6875,
            "L": 67.8125,
            "A": 67.875,
            "B": 66.5625,
            "C": 66.5,
            "D": 67.9375,
            "E": 67.8125,
            "F": 67.75,
            "G": 70.26666666666667
        },
        "bus2": {
            "D": 64.75,
            "E": 65.5,
            "F": 68.8125,
            "G": 69.9375,
            "H": 69.25,
            "I": 69.625,
            "J": 69.8125,
            "K": 70,
            "L": 70.25,
            "A": 69.5,
            "B": 70.125,
            "C": 70.53333333333333
        }
    }
}