{
    "Average_holding_time": 22.257194244604317,
    "Average_travel_time_passengers": 2745.5190359379912,
    "Average_speed_busses": 0.04633333333333333,
    "Average_experienced_crowding": 87.17361270582307,
    "Average_covariation_headway": 0.41472844117558577,
    "Average_covariation_headway_stops": {
        "B": 0.32438891920319485,
        "J": 0.32350252425142595,
        "A": 0.32430173322577244,
        "E": 0.3376734607896289,
        "L": 0.32756462875122994,
        "G": 0.3568769016177632,
        "C": 0.3044080495718686,
        "F": 0.3617340611376327,
        "H": 0.3424253436277212,
        "K": 0.3004032477365563,
        "I": 0.32966271346419335,
        "D": 0.3201308922054788
    },
    "Average_excess_waiting_time": {
        "B": 76.69886413294574,
        "J": 78.4506820141471,
        "A": 77.63305990580278,
        "E": 82.03694080300431,
        "L": 79.60281106383383,
        "G": 85.2421681907154,
        "C": 74.7910172088263,
        "F": 88.25192001062982,
        "H": 83.45346053424475,
        "K": 76.04864713812259,
        "I": 81.51956947371951,
        "D": 80.15946481968444
    },
    "Holding_per_stop": {
        "B": 20,
        "A": 20,
        "E": 24.516129032258064,
        "G": 17.096774193548388,
        "J": 30.322580645161292,
        "L": 22.258064516129032,
        "C": 15.483870967741936,
        "H": 27.096774193548388,
        "K": 17.934782608695652,
        "F": 24.456521739130434,
        "I": 26.73913043478261,
        "D": 21.195652173913043
    },
    "Load_per_bus_per_stop": {
        "bus0": {
            "B": 69.625,
            "C": 69.625,
            "D": 72.875,
            "E": 72.1875,
            "F": 75.25,
            "G": 75.4375,
            "H": 76.125,
            "I": 73.13333333333334,
            "J": 72.2,
            "K": 74.13333333333334,
            "L": 77.26666666666667,
            "A": 75.66666666666667
        },
        "bus3": {
            "J": 80.6875,
            "K": 80.625,
            "L": 81.5,
            "A": 83.125,
            "B": 86.33333333333333,
            "C": 85.4,
            "D": 84.53333333333333,
            "E": 86.4,
            "F": 86.33333333333333,
            "G": 84.66666666666667,
            "H": 84.6,
            "I": 84.46666666666667
        },
        "bus5": {
            "A": 75.75,
            "B": 75.75,
            "C": 77.1875,
            "D": 78.75,
            "E": 77.5,
            "F": 73.6,
            "G": 74.6,
            "H": 76.13333333333334,
            "I": 76.46666666666667,
            "J": 75.2,
            "K": 77.06666666666666,
            "L": 77.53333333333333
        },
        "bus1": {
            "E": 64.6875,
            "F": 63.125,
            "G": 64.875,
            "H": 65.5,
            "I": 66.6875,
            "J": 67.1875,
            "K": 66.46666666666667,
            "L": 67.13333333333334,
            "A": 66,
            "B": 66.46666666666667,
            "C": 66.33333333333333,
            "D": 68.26666666666667
        },
        "bus4": {
            "L": 92.125,
            "A": 91.25,
            "B": 91.375,
            "C": 92.1875,
            "D": 91.26666666666667,
            "E": 91.6,
            "F": 93.6,
            "G": 94.53333333333333,
            "H": 98.2,
            "I": 99.8,
            "J": 99.06666666666666,
            "K": 97.66666666666667
        },
        "bus2": {
            "G": 86.3125,
            "H": 86.3125,
            "I": 87.625,
            "J": 89.375,
            "K": 89.6875,
            "L": 87.3125,
            "A": 90,
            "B": 91.4,
            "C": 91.2,
            "D": 91.73333333333333,
            "E": 92.6,
            "F": 94.33333333333333
        }
    }
}