{
    "Average_holding_time": 14.714532871972319,
    "Average_travel_time_passengers": 2704.146262022428,
    "Average_speed_busses": 0.04816666666666667,
    "Average_experienced_crowding": 88.82899049396934,
    "Average_covariation_headway": 0.5377499334338689,
    "Average_covariation_headway_stops": {
        "A": 0.4023058737077149,
        "L": 0.4183733070558293,
        "G": 0.4190791494872962,
        "E": 0.41359243710481225,
        "H": 0.4131161707096071,
        "J": 0.39544426274656796,
        "B": 0.38872311147108135,
        "I": 0.3935027246652565,
        "K": 0.3943657649486702,
        "F": 0.4003786316250024,
        "C": 0.40048331700710904,
        "D": 0.4072224423505999
    },
    "Average_excess_waiting_time": {
        "A": 80.60570985707227,
        "L": 85.79813067029988,
        "G": 89.56220530229177,
        "E": 86.699102776225,
        "H": 85.07078392841834,
        "J": 80.12709307962558,
        "B": 78.92584630617705,
        "I": 81.75391703324146,
        "K": 81.30122074026622,
        "F": 85.58552342763056,
        "C": 83.09213544879134,
        "D": 86.56459205858374
    },
    "Holding_per_stop": {
        "A": 15.77319587628866,
        "L": 17.010309278350515,
        "H": 15.625,
        "G": 20.9375,
        "J": 15.77319587628866,
        "E": 9.0625,
        "I": 17.5,
        "B": 12.061855670103093,
        "K": 11.5625,
        "F": 15,
        "C": 15.9375,
        "D": 10.3125
    },
    "Load_per_bus_per_stop": {
        "bus5": {
            "A": 68.3529411764706,
            "B": 68.6470588235294,
            "C": 68.125,
            "D": 68.9375,
            "E": 70.375,
            "F": 69.1875,
            "G": 69.5,
            "H": 72,
            "I": 72.125,
            "J": 73.1875,
            "K": 73.0625,
            "L": 72.8125
        },
        "bus4": {
            "L": 57.529411764705884,
            "A": 56.4375,
            "B": 57.6875,
            "C": 58.0625,
            "D": 58.0625,
            "E": 60,
            "F": 59.3125,
            "G": 59.4375,
            "H": 60,
            "I": 61.4375,
            "J": 60.4375,
            "K": 60.4375
        },
        "bus1": {
            "G": 86,
            "H": 86.8125,
            "I": 86.5625,
            "J": 87.1875,
            "K": 87.5625,
            "L": 89.3125,
            "A": 90.125,
            "B": 89.5625,
            "C": 89.25,
            "D": 86.875,
            "E": 88.375,
            "F": 88.3125
        },
        "bus0": {
            "E": 84.4375,
            "F": 84.6875,
            "G": 84,
            "H": 83.875,
            "I": 85.8125,
            "J": 86.3125,
            "K": 86.5,
            "L": 86.375,
            "A": 85.4375,
            "B": 86.375,
            "C": 87.9375,
            "D": 87.5625
        },
        "bus2": {
            "H": 79.8125,
            "I": 81.125,
            "J": 80,
            "K": 80.5625,
            "L": 80.375,
            "A": 80.0625,
            "B": 82.5625,
            "C": 82.4375,
            "D": 84.625,
            "E": 85.8125,
            "F": 87.875,
            "G": 87.3125
        },
        "bus3": {
            "J": 80.6470588235294,
            "K": 80,
            "L": 80.6875,
            "A": 81,
            "B": 83.0625,
            "C": 83.25,
            "D": 85,
            "E": 84.8125,
            "F": 85.5,
            "G": 85.625,
            "H": 85.4375,
            "I": 84.6875
        }
    }
}