{
    "Average_holding_time": 21.018600531443756,
    "Average_travel_time_passengers": 2730.88489759878,
    "Average_speed_busses": 0.04704166666666667,
    "Average_experienced_crowding": 84.2833850881588,
    "Average_covariation_headway": 0.37986039634448193,
    "Average_covariation_headway_stops": {
        "G": 0.29361285804655124,
        "B": 0.3105265464359653,
        "J": 0.295675098258981,
        "F": 0.2915309843489764,
        "C": 0.2930117329213074,
        "E": 0.2994589850328137,
        "K": 0.2886053379949398,
        "H": 0.28516552698989306,
        "D": 0.27264408747934654,
        "L": 0.2766140765154184,
        "I": 0.27769348520718246,
        "A": 0.2952702672398833
    },
    "Average_excess_waiting_time": {
        "G": 63.88164438248697,
        "B": 73.11603442107167,
        "J": 66.77497936899715,
        "F": 65.1127261954241,
        "C": 67.70659546605145,
        "E": 68.5123714898869,
        "K": 67.39277173735798,
        "H": 64.25063230284462,
        "D": 66.0556193973971,
        "L": 67.59054978745331,
        "I": 65.6252852528014,
        "A": 73.07039816745157
    },
    "Holding_per_stop": {
        "J": 27.473684210526315,
        "G": 16.105263157894736,
        "F": 32.21052631578947,
        "C": 18.829787234042552,
        "E": 23.617021276595743,
        "B": 24.838709677419356,
        "K": 21.06382978723404,
        "H": 21.157894736842106,
        "D": 21.70212765957447,
        "L": 14.516129032258064,
        "I": 15.957446808510639,
        "A": 14.516129032258064
    },
    "Load_per_bus_per_stop": {
        "bus4": {
            "G": 93.875,
            "H": 95.8125,
            "I": 97.0625,
            "J": 95.5625,
            "K": 94.75,
            "L": 93.4375,
            "A": 93.6875,
            "B": 93.4375,
            "C": 94.375,
            "D": 94.375,
            "E": 95.06666666666666,
            "F": 99.13333333333334
        },
        "bus0": {
            "B": 80.625,
            "C": 81.9375,
            "D": 83.1875,
            "E": 85.125,
            "F": 84.25,
            "G": 84.1875,
            "H": 84.75,
            "I": 85.26666666666667,
            "J": 86.13333333333334,
            "K": 88.46666666666667,
            "L": 86.4,
            "A": 84.4
        },
        "bus5": {
            "J": 83.9375,
            "K": 83.8125,
            "L": 86.5,
            "A": 87.1875,
            "B": 87.6875,
            "C": 87.5625,
            "D": 86.875,
            "E": 87.5,
            "F": 89.0625,
            "G": 91.4,
            "H": 89.26666666666667,
            "I": 89.53333333333333
        },
        "bus3": {
            "F": 60.9375,
            "G": 61.5625,
            "H": 62.75,
            "I": 61,
            "J": 62.0625,
            "K": 64.125,
            "L": 65.75,
            "A": 66.375,
            "B": 63.86666666666667,
            "C": 64,
            "D": 64.13333333333334,
            "E": 64.6
        },
        "bus1": {
            "C": 75.875,
            "D": 76.75,
            "E": 79.375,
            "F": 81.625,
            "G": 82.375,
            "H": 82.3125,
            "I": 82.4375,
            "J": 79.875,
            "K": 80.4,
            "L": 81.46666666666667,
            "A": 83.46666666666667,
            "B": 82.26666666666667
        },
        "bus2": {
            "E": 65.6875,
            "F": 65.9375,
            "G": 67.125,
            "H": 68.8125,
            "I": 71.625,
            "J": 72.9375,
            "K": 74.5625,
            "L": 74.46666666666667,
            "A": 71.26666666666667,
            "B": 70,
            "C": 67.86666666666666,
            "D": 70.8
        }
    }
}