{
    "Average_holding_time": 15.854513584574935,
    "Average_travel_time_passengers": 2688.977112456777,
    "Average_speed_busses": 0.04754166666666667,
    "Average_experienced_crowding": 83.60920721849502,
    "Average_covariation_headway": 0.4073604536393789,
    "Average_covariation_headway_stops": {
        "D": 0.3580310175114917,
        "A": 0.3435790392966176,
        "B": 0.35030831204262275,
        "C": 0.34880354889988247,
        "I": 0.3169707887411027,
        "F": 0.3456188099943322,
        "E": 0.34872414766485776,
        "J": 0.30661140668639647,
        "G": 0.32856759765421845,
        "K": 0.31632623213285505,
        "H": 0.3167689329409134,
        "L": 0.3276386331693409
    },
    "Average_excess_waiting_time": {
        "D": 73.97053075077338,
        "A": 75.966773905222,
        "B": 76.14727806218644,
        "C": 73.82939115808472,
        "I": 68.0321512452789,
        "F": 71.73179167949803,
        "E": 73.82569966144052,
        "J": 67.91931562032283,
        "G": 69.49295063945038,
        "K": 70.52022288433778,
        "H": 70.05465098232975,
        "L": 74.87602746354236
    },
    "Holding_per_stop": {
        "D": 19.375,
        "C": 10,
        "B": 12.947368421052632,
        "I": 12,
        "A": 9.157894736842104,
        "F": 20,
        "E": 23.4375,
        "J": 23.36842105263158,
        "G": 13.578947368421053,
        "K": 17.872340425531913,
        "H": 10.851063829787234,
        "L": 17.5531914893617
    },
    "Load_per_bus_per_stop": {
        "bus2": {
            "D": 59.4375,
            "E": 60.3125,
            "F": 62.125,
            "G": 61,
            "H": 63.0625,
            "I": 63.0625,
            "J": 63.0625,
            "K": 62.125,
            "L": 62.3125,
            "A": 62.625,
            "B": 63.5,
            "C": 64.5
        },
        "bus5": {
            "A": 89.5625,
            "B": 90.75,
            "C": 90.75,
            "D": 92.9375,
            "E": 92.4375,
            "F": 94.1875,
            "G": 94.6875,
            "H": 96.26666666666667,
            "I": 98,
            "J": 96.4,
            "K": 96.53333333333333,
            "L": 97.46666666666667
        },
        "bus0": {
            "B": 66.0625,
            "C": 66.6875,
            "D": 66.75,
            "E": 69.0625,
            "F": 69.625,
            "G": 72.625,
            "H": 73.25,
            "I": 74.8125,
            "J": 72.9375,
            "K": 70.33333333333333,
            "L": 72,
            "A": 70.4
        },
        "bus1": {
            "C": 64.5,
            "D": 66.25,
            "E": 67.6875,
            "F": 69.0625,
            "G": 69.0625,
            "H": 67.875,
            "I": 68.9375,
            "J": 69.5,
            "K": 69.6875,
            "L": 68.3125,
            "A": 68.8125,
            "B": 68.26666666666667
        },
        "bus4": {
            "I": 75.75,
            "J": 77.6875,
            "K": 77.6875,
            "L": 78.75,
            "A": 79.375,
            "B": 80.1875,
            "C": 80.4375,
            "D": 80.5625,
            "E": 79.375,
            "F": 79.9375,
            "G": 79.1875,
            "H": 82.2
        },
        "bus3": {
            "F": 83.5,
            "G": 84.875,
            "H": 85.25,
            "I": 87.0625,
            "J": 86.4375,
            "K": 86.5625,
            "L": 86.9375,
            "A": 85.0625,
            "B": 86.1875,
            "C": 86.625,
            "D": 87.625,
            "E": 87.5625
        }
    }
}