{
    "Average_holding_time": 20.410714285714285,
    "Average_travel_time_passengers": 2726.8837962123653,
    "Average_speed_busses": 0.04666666666666667,
    "Average_experienced_crowding": 81.66551158538732,
    "Average_covariation_headway": 0.3166836124932375,
    "Average_covariation_headway_stops": {
        "I": 0.23295398812069792,
        "L": 0.2335711422116209,
        "H": 0.2411872077803014,
        "D": 0.2306885000249747,
        "J": 0.23840648561277797,
        "A": 0.2359424512359897,
        "E": 0.2301781544884495,
        "K": 0.2640267135114078,
        "B": 0.23597203048409718,
        "F": 0.2327109877243575,
        "C": 0.22842481493833477,
        "G": 0.23766228441838827
    },
    "Average_excess_waiting_time": {
        "I": 60.83596696715949,
        "L": 58.99613592894934,
        "H": 64.12035125563733,
        "D": 57.31261591254969,
        "J": 59.629662384553285,
        "A": 56.42158505522008,
        "E": 59.1794109448137,
        "K": 65.71941987765337,
        "B": 58.52000583146554,
        "F": 61.83781712874651,
        "C": 59.30674809067153,
        "G": 64.24648479321417
    },
    "Holding_per_stop": {
        "I": 15.161290322580646,
        "D": 17.872340425531913,
        "J": 23.29787234042553,
        "A": 9.893617021276595,
        "L": 18.829787234042552,
        "H": 17.741935483870968,
        "E": 26.129032258064516,
        "K": 30,
        "B": 18.829787234042552,
        "F": 24.838709677419356,
        "C": 24.193548387096776,
        "G": 18.26086956521739
    },
    "Load_per_bus_per_stop": {
        "bus2": {
            "I": 70.875,
            "J": 71.6875,
            "K": 71.625,
            "L": 72.625,
            "A": 72.25,
            "B": 71.125,
            "C": 73,
            "D": 71.66666666666667,
            "E": 72.73333333333333,
            "F": 72.8,
            "G": 74.06666666666666,
            "H": 73.86666666666666
        },
        "bus4": {
            "L": 77,
            "A": 76.9375,
            "B": 78.75,
            "C": 78.1875,
            "D": 78.375,
            "E": 77.4375,
            "F": 80,
            "G": 79.1875,
            "H": 81,
            "I": 81.33333333333333,
            "J": 82.46666666666667,
            "K": 83.26666666666667
        },
        "bus1": {
            "H": 82.6875,
            "I": 82,
            "J": 83.25,
            "K": 84.6875,
            "L": 84.8125,
            "A": 85,
            "B": 84.66666666666667,
            "C": 85.26666666666667,
            "D": 86.33333333333333,
            "E": 86,
            "F": 86.6,
            "G": 88.06666666666666
        },
        "bus0": {
            "D": 84.0625,
            "E": 84.75,
            "F": 85.0625,
            "G": 86.25,
            "H": 86.6875,
            "I": 88.1875,
            "J": 87.375,
            "K": 88.06666666666666,
            "L": 90,
            "A": 89.2,
            "B": 89.86666666666666,
            "C": 89.66666666666667
        },
        "bus3": {
            "J": 74.9375,
            "K": 75.625,
            "L": 76,
            "A": 76.875,
            "B": 77.3125,
            "C": 76.75,
            "D": 76.5625,
            "E": 76.4375,
            "F": 77.8,
            "G": 78.4,
            "H": 78.53333333333333,
            "I": 79.33333333333333
        },
        "bus5": {
            "A": 72.8125,
            "B": 72.9375,
            "C": 73.9375,
            "D": 74.9375,
            "E": 74.3125,
            "F": 75.75,
            "G": 75.9375,
            "H": 76.5625,
            "I": 77.13333333333334,
            "J": 78.93333333333334,
            "K": 77.93333333333334,
            "L": 79.2
        }
    }
}