{
    "Average_holding_time": 37.183098591549296,
    "Average_travel_time_passengers": 6614.055665862966,
    "Average_speed_busses": 0.026625,
    "Average_experienced_crowding": 573.2969393064834,
    "Average_covariation_headway": 2.0766811476061435,
    "Average_covariation_headway_stops": {
        "F": 1.9308390750132924,
        "H": 1.9587854250128198,
        "G": 1.9516082466062208,
        "E": 1.9180581133951737,
        "B": 1.9347162600937042,
        "K": 1.9455129620338951,
        "I": 1.9378894626330334,
        "L": 1.912058182379843,
        "C": 1.8245787474552047,
        "A": 1.9075608673020157,
        "J": 1.9206417345619111,
        "D": 1.8936083435914453
    },
    "Average_excess_waiting_time": {
        "F": 2180.33567547039,
        "H": 2195.1415520578093,
        "G": 2201.3709562291115,
        "E": 2173.5699889033963,
        "B": 2222.525235335528,
        "K": 2209.5728784865482,
        "I": 2180.215677632088,
        "L": 2168.550254556997,
        "C": 2230.2596059063644,
        "A": 2187.707428408498,
        "J": 2176.7076444964446,
        "D": 2144.1866306106285
    },
    "Holding_per_stop": {
        "F": 34.61538461538461,
        "H": 36.111111111111114,
        "G": 32.83018867924528,
        "B": 38.035714285714285,
        "K": 35.45454545454545,
        "E": 37.05882352941177,
        "I": 31.11111111111111,
        "L": 42,
        "C": 43.8,
        "A": 37.09090909090909,
        "J": 37.77777777777778,
        "D": 40.8
    },
    "Load_per_bus_per_stop": {
        "bus2": {
            "F": 3.7777777777777777,
            "G": 4.666666666666667,
            "H": 4.666666666666667,
            "I": 4.777777777777778,
            "J": 5,
            "K": 5.444444444444445,
            "L": 6,
            "A": 5.888888888888889,
            "B": 5.333333333333333,
            "C": 5.25,
            "D": 5.25,
            "E": 4.375
        },
        "bus4": {
            "H": 583.2222222222222,
            "I": 588,
            "J": 598.2222222222222,
            "K": 595.4444444444445,
            "L": 606.4444444444445,
            "A": 620.7777777777778,
            "B": 630.2222222222222,
            "C": 641.2222222222222,
            "D": 614.5,
            "E": 623.125,
            "F": 634.375,
            "G": 645.25
        },
        "bus3": {
            "G": 39,
            "H": 37.666666666666664,
            "I": 39,
            "J": 40.111111111111114,
            "K": 40.55555555555556,
            "L": 41.666666666666664,
            "A": 42.333333333333336,
            "B": 43,
            "C": 44.625,
            "D": 43.625,
            "E": 44.25,
            "F": 43.625
        },
        "bus1": {
            "E": 8.444444444444445,
            "F": 8.555555555555555,
            "G": 8.444444444444445,
            "H": 9.11111111111111,
            "I": 9.777777777777779,
            "J": 8.777777777777779,
            "K": 8.88888888888889,
            "L": 8.666666666666666,
            "A": 9.11111111111111,
            "B": 9.666666666666666,
            "C": 10,
            "D": 8.625
        },
        "bus0": {
            "B": 23.9,
            "C": 27.88888888888889,
            "D": 28.333333333333332,
            "E": 30.11111111111111,
            "F": 28.22222222222222,
            "G": 28.22222222222222,
            "H": 28.666666666666668,
            "I": 29.555555555555557,
            "J": 27.77777777777778,
            "K": 28.11111111111111,
            "L": 26.77777777777778,
            "A": 26.333333333333332
        },
        "bus5": {
            "K": 86.6,
            "L": 88.4,
            "A": 91.5,
            "B": 89.3,
            "C": 100,
            "D": 98.11111111111111,
            "E": 97.66666666666667,
            "F": 97.33333333333333,
            "G": 97.33333333333333,
            "H": 95.55555555555556,
            "I": 97.11111111111111,
            "J": 94.55555555555556
        }
    }
}