{
    "Average_holding_time": 17.894736842105264,
    "Average_travel_time_passengers": 2670.4360371531216,
    "Average_speed_busses": 0.0475,
    "Average_experienced_crowding": 79.73771344576478,
    "Average_covariation_headway": 0.31938150759131445,
    "Average_covariation_headway_stops": {
        "F": 0.24091345181949983,
        "A": 0.21902495598331811,
        "G": 0.23021648576021894,
        "K": 0.23548602348384548,
        "H": 0.24464367899162193,
        "E": 0.23519841851901027,
        "B": 0.2180229650103584,
        "I": 0.2505644822763409,
        "L": 0.22711924456066798,
        "C": 0.23065263316524443,
        "J": 0.24157452722298098,
        "D": 0.2350539345308066
    },
    "Average_excess_waiting_time": {
        "F": 55.76194760332936,
        "A": 52.22879815366093,
        "G": 52.441880609688894,
        "K": 53.32816940058291,
        "H": 53.146695577445485,
        "E": 56.94908042768054,
        "B": 53.72307713161888,
        "I": 55.52876710231186,
        "L": 54.17413185453688,
        "C": 57.544512992069656,
        "J": 55.723294372942746,
        "D": 59.99810866402271
    },
    "Holding_per_stop": {
        "A": 9.157894736842104,
        "F": 18.94736842105263,
        "G": 16.5625,
        "H": 13.75,
        "K": 21.789473684210527,
        "E": 16.914893617021278,
        "B": 15.473684210526315,
        "I": 18.125,
        "L": 20.842105263157894,
        "C": 22.340425531914892,
        "J": 26.526315789473685,
        "D": 14.361702127659575
    },
    "Load_per_bus_per_stop": {
        "bus1": {
            "F": 76.875,
            "G": 77.3125,
            "H": 78.375,
            "I": 78.9375,
            "J": 78.8125,
            "K": 79.6875,
            "L": 80.25,
            "A": 81.3125,
            "B": 82.3125,
            "C": 82.93333333333334,
            "D": 82.06666666666666,
            "E": 82.53333333333333
        },
        "bus5": {
            "A": 70.875,
            "B": 71.5,
            "C": 70.25,
            "D": 71.75,
            "E": 71.25,
            "F": 72.125,
            "G": 72.875,
            "H": 71.75,
            "I": 70.4375,
            "J": 71,
            "K": 73.9375,
            "L": 73.2
        },
        "bus2": {
            "G": 75.625,
            "H": 75,
            "I": 77.9375,
            "J": 79.75,
            "K": 81.5625,
            "L": 84.375,
            "A": 84.1875,
            "B": 82.9375,
            "C": 83.4375,
            "D": 82.5625,
            "E": 79.4,
            "F": 79.8
        },
        "bus4": {
            "K": 78.625,
            "L": 79.25,
            "A": 79.75,
            "B": 79.875,
            "C": 79,
            "D": 82.375,
            "E": 82.125,
            "F": 82.1875,
            "G": 81.8125,
            "H": 82.375,
            "I": 80.875,
            "J": 80.2
        },
        "bus3": {
            "H": 75.5,
            "I": 77.1875,
            "J": 77.1875,
            "K": 77.75,
            "L": 77.8125,
            "A": 78.25,
            "B": 79.8125,
            "C": 81.5625,
            "D": 81.375,
            "E": 79.9375,
            "F": 80.5,
            "G": 79.5
        },
        "bus0": {
            "E": 67.5,
            "F": 67.9375,
            "G": 69.9375,
            "H": 70.625,
            "I": 72.1875,
            "J": 73.0625,
            "K": 71.9375,
            "L": 70.4375,
            "A": 71.46666666666667,
            "B": 71.13333333333334,
            "C": 70.8,
            "D": 72.13333333333334
        }
    }
}