{
    "Average_holding_time": 19.669051878354203,
    "Average_travel_time_passengers": 2777.455381446708,
    "Average_speed_busses": 0.04658333333333333,
    "Average_experienced_crowding": 92.56847899167094,
    "Average_covariation_headway": 0.5898323645174055,
    "Average_covariation_headway_stops": {
        "I": 0.48663564078203003,
        "A": 0.44111000882958273,
        "C": 0.4546391727734751,
        "D": 0.45033654454670674,
        "H": 0.47535430974416026,
        "L": 0.4080699802552136,
        "B": 0.4290581950251079,
        "J": 0.4838007934478732,
        "E": 0.45302849982805815,
        "K": 0.4335715399706264,
        "F": 0.47464018824349274,
        "G": 0.4608127257482581
    },
    "Average_excess_waiting_time": {
        "I": 114.07343004879328,
        "A": 101.87116157648796,
        "C": 107.41123785358542,
        "D": 101.91682467706568,
        "H": 112.2659372345791,
        "L": 94.4910027311746,
        "B": 102.03680247902582,
        "J": 116.05748866705198,
        "E": 105.38201637751644,
        "K": 102.85061339417808,
        "F": 110.98847698537895,
        "G": 109.10007112752601
    },
    "Holding_per_stop": {
        "A": 21.612903225806452,
        "I": 22.659574468085108,
        "C": 17.096774193548388,
        "D": 15.319148936170214,
        "L": 17.282608695652176,
        "B": 20,
        "H": 22.659574468085108,
        "J": 14.042553191489361,
        "E": 15.957446808510639,
        "K": 19.12087912087912,
        "F": 23.548387096774192,
        "G": 26.774193548387096
    },
    "Load_per_bus_per_stop": {
        "bus3": {
            "I": 92.125,
            "J": 92.4375,
            "K": 92.3125,
            "L": 96.125,
            "A": 95.875,
            "B": 98.375,
            "C": 98.6875,
            "D": 96.93333333333334,
            "E": 96.06666666666666,
            "F": 96.93333333333334,
            "G": 97.2,
            "H": 98.73333333333333
        },
        "bus5": {
            "A": 61.5,
            "B": 61.75,
            "C": 61.25,
            "D": 61.3125,
            "E": 62.5,
            "F": 63.5625,
            "G": 63.6875,
            "H": 63.5,
            "I": 64.26666666666667,
            "J": 64.06666666666666,
            "K": 65.46666666666667,
            "L": 66.06666666666666
        },
        "bus0": {
            "C": 69.5,
            "D": 71.625,
            "E": 73.4375,
            "F": 72.25,
            "G": 75.25,
            "H": 76.1875,
            "I": 73.5,
            "J": 73,
            "K": 73.33333333333333,
            "L": 73.26666666666667,
            "A": 75.2,
            "B": 73.6
        },
        "bus1": {
            "D": 73.25,
            "E": 75,
            "F": 75.625,
            "G": 75.8125,
            "H": 77.375,
            "I": 77.4375,
            "J": 77.9375,
            "K": 80.53333333333333,
            "L": 79.93333333333334,
            "A": 80,
            "B": 81.13333333333334,
            "C": 80.93333333333334
        },
        "bus2": {
            "H": 93.3125,
            "I": 93.9375,
            "J": 91.5625,
            "K": 89.06666666666666,
            "L": 89.66666666666667,
            "A": 88.8,
            "B": 90.33333333333333,
            "C": 91,
            "D": 93.86666666666666,
            "E": 96.2,
            "F": 97.26666666666667,
            "G": 97.66666666666667
        },
        "bus4": {
            "L": 72.25,
            "A": 74.25,
            "B": 75.3125,
            "C": 77.875,
            "D": 76.5625,
            "E": 77.125,
            "F": 74.66666666666667,
            "G": 76.26666666666667,
            "H": 76.93333333333334,
            "I": 77.66666666666667,
            "J": 76.33333333333333,
            "K": 75.86666666666666
        }
    }
}