{
    "Average_holding_time": 16.24558303886926,
    "Average_travel_time_passengers": 2757.7492546452077,
    "Average_speed_busses": 0.04716666666666667,
    "Average_experienced_crowding": 93.39584392348841,
    "Average_covariation_headway": 0.579919656329009,
    "Average_covariation_headway_stops": {
        "D": 0.480393685952175,
        "C": 0.4808997940513484,
        "G": 0.44796240542750204,
        "A": 0.46832707058491396,
        "F": 0.4450439720856779,
        "H": 0.44866379611266255,
        "E": 0.46506985340191276,
        "I": 0.4539692390585851,
        "B": 0.47417975437778365,
        "J": 0.4434984737832101,
        "K": 0.4488284105070653,
        "L": 0.4614119626051891
    },
    "Average_excess_waiting_time": {
        "D": 111.89586594485769,
        "C": 113.28267471962238,
        "G": 98.35043218238997,
        "A": 111.62659088394554,
        "F": 99.55408738379708,
        "H": 96.55087556388492,
        "E": 109.5936665840286,
        "I": 99.62842949564373,
        "B": 113.77648958539123,
        "J": 98.83150678703805,
        "K": 102.6323276022348,
        "L": 108.92850335496155
    },
    "Holding_per_stop": {
        "D": 20.106382978723403,
        "G": 15.473684210526315,
        "C": 19.148936170212767,
        "F": 14.361702127659575,
        "H": 15.9375,
        "A": 16.595744680851062,
        "E": 17.872340425531913,
        "I": 18.63157894736842,
        "B": 14.516129032258064,
        "J": 12.947368421052632,
        "K": 14.680851063829786,
        "L": 14.680851063829786
    },
    "Load_per_bus_per_stop": {
        "bus1": {
            "D": 55,
            "E": 54.8125,
            "F": 55.5625,
            "G": 55.0625,
            "H": 54.5,
            "I": 55.1875,
            "J": 54.625,
            "K": 54.375,
            "L": 56.625,
            "A": 60.46666666666667,
            "B": 60.13333333333333,
            "C": 58.6
        },
        "bus0": {
            "C": 69.75,
            "D": 69.8125,
            "E": 69.4375,
            "F": 71.1875,
            "G": 72.75,
            "H": 71.125,
            "I": 70.8125,
            "J": 69.6875,
            "K": 71.0625,
            "L": 74.13333333333334,
            "A": 73.8,
            "B": 74.13333333333334
        },
        "bus3": {
            "G": 66.6875,
            "H": 66.8125,
            "I": 69.3125,
            "J": 69.3125,
            "K": 69.875,
            "L": 71.25,
            "A": 71.875,
            "B": 71.5,
            "C": 72.75,
            "D": 72.46666666666667,
            "E": 70.66666666666667,
            "F": 71.4
        },
        "bus5": {
            "A": 86.5625,
            "B": 87.875,
            "C": 86.75,
            "D": 85.875,
            "E": 86.5,
            "F": 87,
            "G": 88.75,
            "H": 90.75,
            "I": 92,
            "J": 92,
            "K": 91.73333333333333,
            "L": 91
        },
        "bus2": {
            "F": 92.875,
            "G": 93.9375,
            "H": 95.625,
            "I": 95.8125,
            "J": 97.25,
            "K": 95.875,
            "L": 98.4375,
            "A": 97.8125,
            "B": 93.8,
            "C": 96,
            "D": 96.13333333333334,
            "E": 96.6
        },
        "bus4": {
            "H": 83.4375,
            "I": 83.75,
            "J": 83.9375,
            "K": 84.25,
            "L": 86.125,
            "A": 89.75,
            "B": 92.6875,
            "C": 95.125,
            "D": 96.6875,
            "E": 95.125,
            "F": 93.06666666666666,
            "G": 90.8
        }
    }
} 27.333333333333332,
            "F": 27.4,
            "G": 27.466666666666665
        }
    }
}