{
    "Average_holding_time": 18.842756183745582,
    "Average_travel_time_passengers": 2676.725350690779,
    "Average_speed_busses": 0.04716666666666667,
    "Average_experienced_crowding": 80.80489738973326,
    "Average_covariation_headway": 0.32169070506840114,
    "Average_covariation_headway_stops": {
        "B": 0.24953249076002595,
        "J": 0.2365218326104351,
        "C": 0.25132055458117836,
        "H": 0.23162208531121084,
        "D": 0.2604278526912315,
        "F": 0.23115870432732724,
        "K": 0.21787740331503166,
        "I": 0.2341424078459071,
        "E": 0.23227344989343854,
        "L": 0.23396182979357338,
        "G": 0.22532581612129188,
        "A": 0.2388241708022832
    },
    "Average_excess_waiting_time": {
        "B": 61.543649305749,
        "J": 55.34582034210081,
        "C": 58.67841540749839,
        "H": 54.631773592264096,
        "D": 58.85152999950873,
        "F": 54.31493077407288,
        "K": 54.311223407188834,
        "I": 56.87005180960273,
        "E": 56.522819502314576,
        "L": 58.277059701917835,
        "G": 55.07489252605558,
        "A": 61.01955085115111
    },
    "Holding_per_stop": {
        "J": 17.68421052631579,
        "H": 19.57894736842105,
        "C": 19.78723404255319,
        "B": 17.5531914893617,
        "D": 20.526315789473685,
        "F": 21.157894736842106,
        "K": 20.74468085106383,
        "I": 20.106382978723403,
        "E": 17.872340425531913,
        "L": 19.148936170212767,
        "G": 16.42105263157895,
        "A": 15.483870967741936
    },
    "Load_per_bus_per_stop": {
        "bus0": {
            "B": 81.625,
            "C": 81.875,
            "D": 82.375,
            "E": 84.1875,
            "F": 84.9375,
            "G": 87.0625,
            "H": 86.375,
            "I": 85.25,
            "J": 83.26666666666667,
            "K": 83.73333333333333,
            "L": 85.66666666666667,
            "A": 87.93333333333334
        },
        "bus5": {
            "J": 76.875,
            "K": 76.875,
            "L": 75.375,
            "A": 76.25,
            "B": 75.125,
            "C": 75.875,
            "D": 77.75,
            "E": 81.1875,
            "F": 81.8125,
            "G": 80.5625,
            "H": 81.06666666666666,
            "I": 81.46666666666667
        },
        "bus1": {
            "C": 71.125,
            "D": 71.625,
            "E": 73.125,
            "F": 75.25,
            "G": 76.0625,
            "H": 77.3125,
            "I": 77,
            "J": 78.1875,
            "K": 77.625,
            "L": 74.93333333333334,
            "A": 75.6,
            "B": 76.06666666666666
        },
        "bus4": {
            "H": 73.9375,
            "I": 75.5625,
            "J": 76.1875,
            "K": 76.1875,
            "L": 77.3125,
            "A": 78.625,
            "B": 80.1875,
            "C": 82.5625,
            "D": 80.9375,
            "E": 82.1875,
            "F": 81.06666666666666,
            "G": 80.33333333333333
        },
        "bus2": {
            "D": 68.125,
            "E": 68,
            "F": 70.125,
            "G": 70.5,
            "H": 71.0625,
            "I": 72.875,
            "J": 72.625,
            "K": 72.4375,
            "L": 72.75,
            "A": 73.125,
            "B": 72.6,
            "C": 71.73333333333333
        },
        "bus3": {
            "F": 77.75,
            "G": 77.9375,
            "H": 78.5625,
            "I": 80.375,
            "J": 82.3125,
            "K": 81,
            "L": 82.0625,
            "A": 82.0625,
            "B": 82.8125,
            "C": 82.46666666666667,
            "D": 82.2,
            "E": 82
        }
    }
}76.8
        }
    }
}