{
    "Average_holding_time": 18.021108179419524,
    "Average_travel_time_passengers": 2738.443253807626,
    "Average_speed_busses": 0.047375,
    "Average_experienced_crowding": 88.88491607575557,
    "Average_covariation_headway": 0.5252630661363109,
    "Average_covariation_headway_stops": {
        "H": 0.40905165129656423,
        "J": 0.40561139228656407,
        "I": 0.4172007237648123,
        "C": 0.405784117010977,
        "K": 0.3948310084998911,
        "F": 0.4083606699828086,
        "L": 0.39483462525506163,
        "D": 0.41269993470067085,
        "G": 0.3967601853594281,
        "A": 0.37254425774557587,
        "E": 0.39951821564077705,
        "B": 0.3799166050466121
    },
    "Average_excess_waiting_time": {
        "H": 91.46203585241648,
        "J": 86.94813653274946,
        "I": 92.10412001907594,
        "C": 89.55359887817679,
        "K": 84.20838173766867,
        "F": 90.83174838495597,
        "L": 85.70481735057888,
        "D": 94.03925981729486,
        "G": 90.23008031354897,
        "A": 82.46438800711707,
        "E": 92.24681286684853,
        "B": 85.10881189041305
    },
    "Holding_per_stop": {
        "J": 13.125,
        "I": 22.105263157894736,
        "K": 15,
        "H": 14.210526315789474,
        "C": 18.63157894736842,
        "F": 22.02127659574468,
        "L": 24,
        "D": 22.97872340425532,
        "G": 20.425531914893618,
        "A": 10.105263157894736,
        "E": 21.06382978723404,
        "B": 12.76595744680851
    },
    "Load_per_bus_per_stop": {
        "bus2": {
            "H": 47.375,
            "I": 50,
            "J": 51.1875,
            "K": 50.9375,
            "L": 49.875,
            "A": 51.0625,
            "B": 51.875,
            "C": 50.8125,
            "D": 48.86666666666667,
            "E": 51.6,
            "F": 50.86666666666667,
            "G": 50.46666666666667
        },
        "bus4": {
            "J": 80.0625,
            "K": 82.5625,
            "L": 83.5,
            "A": 84.0625,
            "B": 86.1875,
            "C": 86.125,
            "D": 85.3125,
            "E": 85.4375,
            "F": 85.0625,
            "G": 87.375,
            "H": 84.75,
            "I": 86.93333333333334
        },
        "bus3": {
            "I": 81.125,
            "J": 84.375,
            "K": 85.5,
            "L": 85.375,
            "A": 86.125,
            "B": 85.125,
            "C": 85.4375,
            "D": 86.125,
            "E": 84.9375,
            "F": 84.4,
            "G": 85.46666666666667,
            "H": 85.6
        },
        "bus0": {
            "C": 80.0625,
            "D": 81.5,
            "E": 82.1875,
            "F": 83.8125,
            "G": 83.875,
            "H": 84.625,
            "I": 84.5625,
            "J": 83.8125,
            "K": 84.9375,
            "L": 82.73333333333333,
            "A": 84.26666666666667,
            "B": 85.26666666666667
        },
        "bus5": {
            "K": 95.125,
            "L": 93.5,
            "A": 94.3125,
            "B": 94.75,
            "C": 95.0625,
            "D": 94.375,
            "E": 95.1875,
            "F": 95.3125,
            "G": 96.125,
            "H": 98.6875,
            "I": 97.375,
            "J": 98.1875
        },
        "bus1": {
            "F": 68.375,
            "G": 71.3125,
            "H": 71.875,
            "I": 72.25,
            "J": 73.1875,
            "K": 72.5625,
            "L": 74,
            "A": 74.375,
            "B": 72.53333333333333,
            "C": 71.8,
            "D": 72.06666666666666,
            "E": 72.13333333333334
        }
    }
}