{
    "Average_holding_time": 19.086069210292813,
    "Average_travel_time_passengers": 2749.042795516508,
    "Average_speed_busses": 0.04695833333333333,
    "Average_experienced_crowding": 83.98680184330254,
    "Average_covariation_headway": 0.3428301438249426,
    "Average_covariation_headway_stops": {
        "G": 0.29647039524122504,
        "J": 0.295193708210138,
        "K": 0.29314060699907935,
        "H": 0.316990794807144,
        "A": 0.2626534328954366,
        "F": 0.29508900196223414,
        "L": 0.2769810404042439,
        "I": 0.2965145247018193,
        "B": 0.2493033387915416,
        "C": 0.26295551581129384,
        "D": 0.282712282276591,
        "E": 0.2959251898407541
    },
    "Average_excess_waiting_time": {
        "G": 70.06697552207464,
        "J": 67.83771414912798,
        "K": 65.32479375965579,
        "H": 71.45068132624027,
        "A": 59.99208630834306,
        "F": 71.66885926392553,
        "L": 64.2737135795876,
        "I": 69.6286029065293,
        "B": 59.92833583630431,
        "C": 63.78509882877029,
        "D": 69.2853019868711,
        "E": 73.29667689393239
    },
    "Holding_per_stop": {
        "G": 19.148936170212767,
        "H": 26.48936170212766,
        "K": 16.105263157894736,
        "A": 10.105263157894736,
        "J": 17.5531914893617,
        "F": 22.580645161290324,
        "L": 22.659574468085108,
        "I": 17.23404255319149,
        "B": 14.042553191489361,
        "C": 19.148936170212767,
        "D": 23.870967741935484,
        "E": 20.322580645161292
    },
    "Load_per_bus_per_stop": {
        "bus1": {
            "G": 76.8125,
            "H": 77.3125,
            "I": 77.5,
            "J": 78.875,
            "K": 78.8125,
            "L": 81.0625,
            "A": 81.125,
            "B": 82.06666666666666,
            "C": 81.93333333333334,
            "D": 82.6,
            "E": 83.2,
            "F": 82.53333333333333
        },
        "bus3": {
            "J": 76.125,
            "K": 76.5625,
            "L": 78.625,
            "A": 78.8125,
            "B": 80.25,
            "C": 78.8125,
            "D": 79.8125,
            "E": 81.125,
            "F": 82.33333333333333,
            "G": 83.06666666666666,
            "H": 82.93333333333334,
            "I": 82.46666666666667
        },
        "bus4": {
            "K": 62.625,
            "L": 61.625,
            "A": 62.3125,
            "B": 63.9375,
            "C": 64.375,
            "D": 65.125,
            "E": 64.125,
            "F": 63.625,
            "G": 66.5,
            "H": 66.33333333333333,
            "I": 68.8,
            "J": 67.33333333333333
        },
        "bus2": {
            "H": 68.125,
            "I": 68.5,
            "J": 70.5625,
            "K": 73.0625,
            "L": 74.6875,
            "A": 74.3125,
            "B": 74.5,
            "C": 75.4375,
            "D": 75.86666666666666,
            "E": 75.53333333333333,
            "F": 73.66666666666667,
            "G": 72.73333333333333
        },
        "bus5": {
            "A": 85.75,
            "B": 87,
            "C": 87.75,
            "D": 86.0625,
            "E": 87.375,
            "F": 89.0625,
            "G": 89.875,
            "H": 90.375,
            "I": 91.125,
            "J": 92.46666666666667,
            "K": 91.26666666666667,
            "L": 90.33333333333333
        },
        "bus0": {
            "F": 87.875,
            "G": 86.75,
            "H": 88.5,
            "I": 88.3125,
            "J": 87.9375,
            "K": 88.125,
            "L": 89.93333333333334,
            "A": 93.53333333333333,
            "B": 95.93333333333334,
            "C": 95.86666666666666,
            "D": 95.13333333333334,
            "E": 94.33333333333333
        }
    }
}