{
    "Average_holding_time": 17.757255936675463,
    "Average_travel_time_passengers": 2719.6701292966677,
    "Average_speed_busses": 0.047375,
    "Average_experienced_crowding": 90.530562828197,
    "Average_covariation_headway": 0.5894606612600244,
    "Average_covariation_headway_stops": {
        "D": 0.44687910618270776,
        "F": 0.45090628720854564,
        "G": 0.4557298802062137,
        "E": 0.4411793574145432,
        "K": 0.4676508724608791,
        "L": 0.4777064321856185,
        "H": 0.45801975120996813,
        "A": 0.4770248723172304,
        "I": 0.45717018942186466,
        "B": 0.45561831016559906,
        "J": 0.4775854063832688,
        "C": 0.4500028804434625
    },
    "Average_excess_waiting_time": {
        "D": 102.11823766717731,
        "F": 100.79550716176215,
        "G": 100.20191653428913,
        "E": 99.07667910924113,
        "K": 106.16628393787101,
        "L": 106.80664476911272,
        "H": 102.85826824349056,
        "A": 109.78959931923839,
        "I": 104.45325141385166,
        "B": 104.76873104660751,
        "J": 110.80651948400873,
        "C": 104.87234406086498
    },
    "Holding_per_stop": {
        "F": 19.57894736842105,
        "G": 14.0625,
        "E": 20.526315789473685,
        "L": 21.789473684210527,
        "D": 18.19148936170213,
        "K": 17.68421052631579,
        "H": 16.42105263157895,
        "A": 23.05263157894737,
        "I": 8.842105263157896,
        "B": 16.27659574468085,
        "J": 19.46808510638298,
        "C": 17.23404255319149
    },
    "Load_per_bus_per_stop": {
        "bus0": {
            "D": 86.125,
            "E": 86.125,
            "F": 88.1875,
            "G": 90.125,
            "H": 92.25,
            "I": 92.0625,
            "J": 93.3125,
            "K": 95.875,
            "L": 96.0625,
            "A": 96.8,
            "B": 95.06666666666666,
            "C": 93
        },
        "bus2": {
            "F": 78,
            "G": 77.1875,
            "H": 78.3125,
            "I": 77.0625,
            "J": 76.9375,
            "K": 79.125,
            "L": 79.875,
            "A": 79.375,
            "B": 79.75,
            "C": 79.6875,
            "D": 79.9375,
            "E": 81.33333333333333
        },
        "bus3": {
            "G": 69.0625,
            "H": 69.875,
            "I": 68.875,
            "J": 69.3125,
            "K": 69.75,
            "L": 68.5,
            "A": 68.1875,
            "B": 69.8125,
            "C": 69.375,
            "D": 69.5625,
            "E": 71.0625,
            "F": 72.2
        },
        "bus1": {
            "E": 77.6875,
            "F": 78.8125,
            "G": 78.0625,
            "H": 77.125,
            "I": 80.6875,
            "J": 81.1875,
            "K": 80.3125,
            "L": 81.1875,
            "A": 81.625,
            "B": 81.4,
            "C": 81.66666666666667,
            "D": 82
        },
        "bus4": {
            "K": 50.875,
            "L": 50.5,
            "A": 51.375,
            "B": 52.3125,
            "C": 54.0625,
            "D": 56.125,
            "E": 56.0625,
            "F": 54.375,
            "G": 53.75,
            "H": 52.333333333333336,
            "I": 53.266666666666666,
            "J": 53.13333333333333
        },
        "bus5": {
            "L": 85,
            "A": 85.125,
            "B": 86.5,
            "C": 85.0625,
            "D": 86.6875,
            "E": 88.75,
            "F": 90.4375,
            "G": 91.625,
            "H": 93.25,
            "I": 95.25,
            "J": 94.33333333333333,
            "K": 93.2
        }
    }
}