{
    "Average_holding_time": 15.391304347826088,
    "Average_travel_time_passengers": 2666.559203564896,
    "Average_speed_busses": 0.04791666666666667,
    "Average_experienced_crowding": 80.51045776472321,
    "Average_covariation_headway": 0.3498828719644697,
    "Average_covariation_headway_stops": {
        "I": 0.23720397107729985,
        "D": 0.2535585081306474,
        "A": 0.24663136755489815,
        "K": 0.23384764181623263,
        "C": 0.25977722945731707,
        "H": 0.2624299872653318,
        "J": 0.22368812614545605,
        "L": 0.2252426921649745,
        "B": 0.24011509856878363,
        "E": 0.25253058279889357,
        "F": 0.24123739135977817,
        "G": 0.2548975092074749
    },
    "Average_excess_waiting_time": {
        "I": 52.06073494845049,
        "D": 51.97372706830521,
        "A": 52.478588829312,
        "K": 50.34444225300325,
        "C": 54.90569991732548,
        "H": 57.67830039985887,
        "J": 51.551373255780334,
        "L": 51.32098736313901,
        "B": 53.2082063951832,
        "E": 54.97566184444952,
        "F": 54.97178165641026,
        "G": 58.529482191903526
    },
    "Holding_per_stop": {
        "I": 15,
        "D": 15.154639175257731,
        "A": 7.8125,
        "K": 19.6875,
        "C": 15.3125,
        "H": 18.94736842105263,
        "J": 12.1875,
        "L": 15,
        "B": 5.625,
        "E": 23.4375,
        "F": 20.526315789473685,
        "G": 16.105263157894736
    },
    "Load_per_bus_per_stop": {
        "bus3": {
            "I": 70.5625,
            "J": 71.3125,
            "K": 73.3125,
            "L": 72.6875,
            "A": 71.0625,
            "B": 71.6875,
            "C": 73.75,
            "D": 75.6875,
            "E": 78.875,
            "F": 81.75,
            "G": 81.625,
            "H": 77.8
        },
        "bus1": {
            "D": 82.05882352941177,
            "E": 84.1875,
            "F": 86.3125,
            "G": 88.5625,
            "H": 89.9375,
            "I": 91.875,
            "J": 94.125,
            "K": 93.875,
            "L": 93.125,
            "A": 93.1875,
            "B": 91.125,
            "C": 87.875
        },
        "bus5": {
            "A": 72.8125,
            "B": 72.5,
            "C": 74.3125,
            "D": 73.3125,
            "E": 75.0625,
            "F": 77.0625,
            "G": 77.875,
            "H": 78.5,
            "I": 79.1875,
            "J": 76.625,
            "K": 78.9375,
            "L": 78.3125
        },
        "bus4": {
            "K": 65.5625,
            "L": 67.5,
            "A": 68.875,
            "B": 69.5,
            "C": 68.1875,
            "D": 68.5625,
            "E": 68.5,
            "F": 68.75,
            "G": 68.5,
            "H": 68.3125,
            "I": 69.875,
            "J": 70.9375
        },
        "bus0": {
            "C": 67.25,
            "D": 68,
            "E": 69.25,
            "F": 69.9375,
            "G": 69.5,
            "H": 70.9375,
            "I": 71.125,
            "J": 69.9375,
            "K": 68.625,
            "L": 68.25,
            "A": 69.9375,
            "B": 69.25
        },
        "bus2": {
            "H": 81.125,
            "I": 82.0625,
            "J": 82.0625,
            "K": 81.75,
            "L": 82.125,
            "A": 84.6875,
            "B": 85.625,
            "C": 85,
            "D": 85.6875,
            "E": 84.5,
            "F": 86.33333333333333,
            "G": 85.53333333333333
        }
    }
}