{
    "Average_holding_time": 16.043478260869566,
    "Average_travel_time_passengers": 2702.036205131237,
    "Average_speed_busses": 0.04791666666666667,
    "Average_experienced_crowding": 80.68435367806508,
    "Average_covariation_headway": 0.2771790562482192,
    "Average_covariation_headway_stops": {
        "A": 0.19531423773771367,
        "C": 0.18618262806032915,
        "I": 0.2106587403280872,
        "G": 0.19707273949698687,
        "K": 0.19853246864921545,
        "H": 0.20678082564533182,
        "B": 0.1749384576553683,
        "D": 0.1774179696150126,
        "L": 0.18383391602832053,
        "J": 0.2017830072353944,
        "E": 0.1843998869514131,
        "F": 0.1833483076349641
    },
    "Average_excess_waiting_time": {
        "A": 44.86456199588429,
        "C": 43.57744316926005,
        "I": 47.030903352682,
        "G": 48.731066561688806,
        "K": 45.90167041929186,
        "H": 48.26416403990265,
        "B": 44.24004059552544,
        "D": 44.556264961787065,
        "L": 45.8206989493674,
        "J": 47.63684833900396,
        "E": 46.64242469759944,
        "F": 48.85485215285365
    },
    "Holding_per_stop": {
        "A": 13.4375,
        "C": 17.31958762886598,
        "I": 17.8125,
        "K": 17.8125,
        "H": 15.3125,
        "G": 20.210526315789473,
        "B": 13.75,
        "D": 12.1875,
        "J": 16.25,
        "L": 17.8125,
        "E": 14.210526315789474,
        "F": 16.42105263157895
    },
    "Load_per_bus_per_stop": {
        "bus5": {
            "A": 80.3125,
            "B": 79.9375,
            "C": 80.375,
            "D": 82.1875,
            "E": 80.875,
            "F": 82.125,
            "G": 83.3125,
            "H": 84.75,
            "I": 88.1875,
            "J": 89,
            "K": 89.3125,
            "L": 88.5
        },
        "bus0": {
            "C": 79.88235294117646,
            "D": 80.1875,
            "E": 81.125,
            "F": 83.4375,
            "G": 85.0625,
            "H": 85.125,
            "I": 83.0625,
            "J": 83.125,
            "K": 82.9375,
            "L": 86.1875,
            "A": 85.5,
            "B": 86.0625
        },
        "bus3": {
            "I": 72.625,
            "J": 74.875,
            "K": 76.1875,
            "L": 78.0625,
            "A": 78.0625,
            "B": 78.375,
            "C": 78,
            "D": 78.9375,
            "E": 77.1875,
            "F": 76.6875,
            "G": 76.1875,
            "H": 75.1875
        },
        "bus1": {
            "G": 72.5,
            "H": 71.625,
            "I": 74.375,
            "J": 74.0625,
            "K": 72.75,
            "L": 73.3125,
            "A": 73.5625,
            "B": 73.5625,
            "C": 74.5625,
            "D": 74.875,
            "E": 74.4375,
            "F": 74.46666666666667
        },
        "bus4": {
            "K": 71.5625,
            "L": 73.3125,
            "A": 74.625,
            "B": 77.5,
            "C": 79.125,
            "D": 79.6875,
            "E": 80.0625,
            "F": 81.25,
            "G": 80.625,
            "H": 80.8125,
            "I": 78.3125,
            "J": 75.8125
        },
        "bus2": {
            "H": 74.4375,
            "I": 75.25,
            "J": 74.9375,
            "K": 76.5,
            "L": 77.3125,
            "A": 77.625,
            "B": 77.125,
            "C": 78.4375,
            "D": 77.75,
            "E": 76.5625,
            "F": 78.0625,
            "G": 79.6
        }
    }
} "B": 78.5625,
            "C": 81.73333333333333,
            "D": 81.6,
            "E": 79.66666666666667
        }
    }
}