{
    "Average_holding_time": 18.63716814159292,
    "Average_travel_time_passengers": 2742.5833523487568,
    "Average_speed_busses": 0.04708333333333333,
    "Average_experienced_crowding": 93.05860820698983,
    "Average_covariation_headway": 0.560386111916237,
    "Average_covariation_headway_stops": {
        "E": 0.4465076992111035,
        "C": 0.4342828283778916,
        "L": 0.43036311198945276,
        "G": 0.440432012539809,
        "H": 0.43201297523938753,
        "B": 0.4274902595733719,
        "F": 0.4297708390834963,
        "D": 0.4312503057277892,
        "I": 0.43198296879331566,
        "A": 0.412942744113516,
        "J": 0.43402192220365043,
        "K": 0.43290942855935244
    },
    "Average_excess_waiting_time": {
        "E": 101.28921996809527,
        "C": 97.01367892813823,
        "L": 97.46720257983395,
        "G": 99.92835416624939,
        "H": 95.58168940414788,
        "B": 96.72070159392945,
        "F": 98.47276308389621,
        "D": 101.44672859462383,
        "I": 97.41889617010958,
        "A": 95.32707386791935,
        "J": 98.26718789725612,
        "K": 100.68382191931642
    },
    "Holding_per_stop": {
        "E": 21.06382978723404,
        "C": 17.36842105263158,
        "H": 13.894736842105264,
        "G": 25.851063829787233,
        "L": 19.148936170212767,
        "B": 12.76595744680851,
        "F": 19.148936170212767,
        "D": 20.967741935483872,
        "I": 23.36842105263158,
        "A": 15.319148936170214,
        "J": 15.957446808510639,
        "K": 18.829787234042552
    },
    "Load_per_bus_per_stop": {
        "bus2": {
            "E": 66.875,
            "F": 65.1875,
            "G": 67.375,
            "H": 67.125,
            "I": 66.5,
            "J": 68.875,
            "K": 70.1875,
            "L": 70.125,
            "A": 68.375,
            "B": 68.3125,
            "C": 70.06666666666666,
            "D": 69.86666666666666
        },
        "bus1": {
            "C": 70.0625,
            "D": 70.4375,
            "E": 71.375,
            "F": 72.1875,
            "G": 70.8125,
            "H": 71.75,
            "I": 72.6875,
            "J": 74.6875,
            "K": 74.8125,
            "L": 74.8,
            "A": 75.6,
            "B": 76.26666666666667
        },
        "bus5": {
            "L": 98.9375,
            "A": 100.0625,
            "B": 102.3125,
            "C": 103.5,
            "D": 105.5,
            "E": 106.6875,
            "F": 106.375,
            "G": 106.125,
            "H": 107.93333333333334,
            "I": 107.66666666666667,
            "J": 105.26666666666667,
            "K": 105.66666666666667
        },
        "bus3": {
            "G": 57.3125,
            "H": 59.5,
            "I": 58.6875,
            "J": 57.4375,
            "K": 57.8125,
            "L": 59.625,
            "A": 59,
            "B": 58.6875,
            "C": 58.875,
            "D": 61.06666666666667,
            "E": 61.6,
            "F": 61.06666666666667
        },
        "bus4": {
            "H": 77.3125,
            "I": 77.25,
            "J": 78.375,
            "K": 79,
            "L": 81.5,
            "A": 80,
            "B": 82.75,
            "C": 83.625,
            "D": 85.1875,
            "E": 83.13333333333334,
            "F": 82.33333333333333,
            "G": 82.93333333333334
        },
        "bus0": {
            "B": 88.125,
            "C": 89.1875,
            "D": 89.625,
            "E": 92.0625,
            "F": 91.6875,
            "G": 93,
            "H": 92.9375,
            "I": 93.8125,
            "J": 92.46666666666667,
            "K": 94.13333333333334,
            "L": 94.13333333333334,
            "A": 93.13333333333334
        }
    }
}