{
    "Average_holding_time": 17.707061900610288,
    "Average_travel_time_passengers": 2671.684034384235,
    "Average_speed_busses": 0.04779166666666667,
    "Average_experienced_crowding": 81.59236260531097,
    "Average_covariation_headway": 0.3415079038118532,
    "Average_covariation_headway_stops": {
        "C": 0.27568043939260495,
        "L": 0.2771942393722685,
        "E": 0.25821918966449603,
        "A": 0.27223100639286624,
        "K": 0.25165182793739727,
        "I": 0.24265706421485592,
        "D": 0.25801283898003585,
        "F": 0.2520867309651451,
        "B": 0.28473758859785764,
        "J": 0.23906110802634814,
        "G": 0.24557922292756035,
        "H": 0.2563082953101677
    },
    "Average_excess_waiting_time": {
        "C": 56.45340950502634,
        "L": 58.67961394680492,
        "E": 53.32343880540935,
        "A": 55.78279408620523,
        "K": 56.326446525101915,
        "I": 56.06088048951432,
        "D": 55.41009517459372,
        "F": 54.165888607006025,
        "B": 59.7292997190421,
        "J": 57.196678603615396,
        "G": 55.43181407450646,
        "H": 59.552246817060734
    },
    "Holding_per_stop": {
        "C": 24.375,
        "E": 18.125,
        "L": 19.375,
        "A": 9.375,
        "K": 18.94736842105263,
        "I": 18,
        "D": 16.875,
        "F": 15.625,
        "B": 16.875,
        "J": 17.68421052631579,
        "G": 16.736842105263158,
        "H": 20.526315789473685
    },
    "Load_per_bus_per_stop": {
        "bus0": {
            "C": 70.58823529411765,
            "D": 72.125,
            "E": 72.875,
            "F": 73,
            "G": 74.6875,
            "H": 76.1875,
            "I": 76.75,
            "J": 77.375,
            "K": 75.875,
            "L": 76.3125,
            "A": 76.5625,
            "B": 75.375
        },
        "bus4": {
            "L": 80.3125,
            "A": 81.875,
            "B": 82.4375,
            "C": 83,
            "D": 81.8125,
            "E": 82.375,
            "F": 82,
            "G": 84.6875,
            "H": 85.0625,
            "I": 83.3125,
            "J": 84.6875,
            "K": 85.6
        },
        "bus1": {
            "E": 63.529411764705884,
            "F": 64.25,
            "G": 64.625,
            "H": 66.125,
            "I": 67.625,
            "J": 68,
            "K": 69.1875,
            "L": 68.875,
            "A": 69.75,
            "B": 69.5625,
            "C": 69.0625,
            "D": 67.8125
        },
        "bus5": {
            "A": 65.5,
            "B": 66.625,
            "C": 66.3125,
            "D": 66.875,
            "E": 69.5625,
            "F": 69.0625,
            "G": 67.375,
            "H": 68.1875,
            "I": 67.6875,
            "J": 67.5625,
            "K": 68.3125,
            "L": 69.375
        },
        "bus3": {
            "K": 83.125,
            "L": 83.5625,
            "A": 83.625,
            "B": 84.8125,
            "C": 85.0625,
            "D": 85,
            "E": 85.8125,
            "F": 83.75,
            "G": 84.625,
            "H": 85.875,
            "I": 87.53333333333333,
            "J": 88.06666666666666
        },
        "bus2": {
            "I": 86.125,
            "J": 87.75,
            "K": 87.5625,
            "L": 89.3125,
            "A": 88,
            "B": 87.5,
            "C": 87.25,
            "D": 89.375,
            "E": 92.3125,
            "F": 92.5625,
            "G": 91.46666666666667,
            "H": 90
        }
    }
}93333333333334,
            "H": 94.66666666666667,
            "I": 92.33333333333333,
            "J": 93.46666666666667
        }
    }
}