{
    "Average_holding_time": 15.63716814159292,
    "Average_travel_time_passengers": 2758.334210091993,
    "Average_speed_busses": 0.04708333333333333,
    "Average_experienced_crowding": 96.74098753682458,
    "Average_covariation_headway": 0.6380908320751134,
    "Average_covariation_headway_stops": {
        "F": 0.5115576863571163,
        "H": 0.5343338844051448,
        "G": 0.5299294439669172,
        "B": 0.5125500506187998,
        "E": 0.5181036205504107,
        "K": 0.5020923361179568,
        "I": 0.5232908627992597,
        "C": 0.5086416705449678,
        "L": 0.48311817269161406,
        "J": 0.5117142731914577,
        "D": 0.5238751981971662,
        "A": 0.4899098779354535
    },
    "Average_excess_waiting_time": {
        "F": 121.07010731459991,
        "H": 123.01379468081433,
        "G": 123.83074447595703,
        "B": 123.64369920421001,
        "E": 125.4051011564581,
        "K": 117.05063960532055,
        "I": 121.46195776446291,
        "C": 124.73161998765687,
        "L": 116.77908530474843,
        "J": 120.27298029534484,
        "D": 129.67409667528648,
        "A": 118.66942617494601
    },
    "Holding_per_stop": {
        "F": 17.5531914893617,
        "H": 15.3125,
        "G": 18.63157894736842,
        "B": 13.085106382978724,
        "K": 13.263157894736842,
        "E": 20.74468085106383,
        "I": 17.36842105263158,
        "C": 15.806451612903226,
        "L": 12.903225806451612,
        "J": 13.263157894736842,
        "D": 18.06451612903226,
        "A": 11.612903225806452
    },
    "Load_per_bus_per_stop": {
        "bus2": {
            "F": 70.875,
            "G": 71.75,
            "H": 72.875,
            "I": 74.25,
            "J": 75.8125,
            "K": 76.25,
            "L": 78.5,
            "A": 73.13333333333334,
            "B": 73.53333333333333,
            "C": 73.2,
            "D": 73.46666666666667,
            "E": 75.46666666666667
        },
        "bus4": {
            "H": 77,
            "I": 77.875,
            "J": 79.125,
            "K": 80.75,
            "L": 82.5625,
            "A": 85.6875,
            "B": 87.125,
            "C": 88.75,
            "D": 88.4375,
            "E": 88.3125,
            "F": 87.875,
            "G": 83.86666666666666
        },
        "bus3": {
            "G": 42.75,
            "H": 43.625,
            "I": 45.0625,
            "J": 45.5,
            "K": 46.9375,
            "L": 48.1875,
            "A": 48.5,
            "B": 49.75,
            "C": 49.8125,
            "D": 46,
            "E": 46.6,
            "F": 45.93333333333333
        },
        "bus0": {
            "B": 82.625,
            "C": 82.3125,
            "D": 81.125,
            "E": 82.5,
            "F": 82.5625,
            "G": 80.75,
            "H": 79.1875,
            "I": 79.3125,
            "J": 79.125,
            "K": 83.2,
            "L": 85.86666666666666,
            "A": 87.53333333333333
        },
        "bus1": {
            "E": 85.5,
            "F": 84.75,
            "G": 86.8125,
            "H": 86.75,
            "I": 85.875,
            "J": 84.8125,
            "K": 86.5,
            "L": 91.33333333333333,
            "A": 92.53333333333333,
            "B": 90.53333333333333,
            "C": 90.6,
            "D": 91.73333333333333
        },
        "bus5": {
            "K": 90.125,
            "L": 90.6875,
            "A": 91,
            "B": 90.3125,
            "C": 90.9375,
            "D": 92.5,
            "E": 93.6875,
            "F": 94.25,
            "G": 96.875,
            "H": 97.125,
            "I": 98.53333333333333,
            "J": 98.2
        }
    }
}