{
    "Average_holding_time": 18.64,
    "Average_travel_time_passengers": 2711.891929400129,
    "Average_speed_busses": 0.046875,
    "Average_experienced_crowding": 81.38862705939592,
    "Average_covariation_headway": 0.3065464637601945,
    "Average_covariation_headway_stops": {
        "A": 0.23677437963866488,
        "C": 0.2503113259225864,
        "J": 0.22190756058851158,
        "F": 0.24586209766596337,
        "L": 0.22028129645937528,
        "I": 0.23847645628397898,
        "B": 0.24411149512103916,
        "K": 0.20595891956689474,
        "D": 0.24416564232122953,
        "G": 0.24187283451298888,
        "E": 0.22766063161671035,
        "H": 0.2364039976670192
    },
    "Average_excess_waiting_time": {
        "A": 56.649457499310586,
        "C": 59.15192035319268,
        "J": 56.634621139293415,
        "F": 60.41609747260236,
        "L": 56.29188146708236,
        "I": 60.17714426493876,
        "B": 60.22346665116652,
        "K": 55.79366090941261,
        "D": 59.98860030326313,
        "G": 62.18405381590452,
        "E": 59.08761808997588,
        "H": 62.724548815145965
    },
    "Holding_per_stop": {
        "C": 21.70212765957447,
        "A": 6,
        "J": 19.148936170212767,
        "F": 22.659574468085108,
        "L": 22.97872340425532,
        "I": 26.451612903225808,
        "B": 16.914893617021278,
        "D": 13.085106382978724,
        "K": 20.106382978723403,
        "G": 21.93548387096774,
        "E": 20.322580645161292,
        "H": 12.580645161290322
    },
    "Load_per_bus_per_stop": {
        "bus5": {
            "A": 83.4375,
            "B": 83.8125,
            "C": 84.25,
            "D": 84.25,
            "E": 83.25,
            "F": 84.375,
            "G": 82.5625,
            "H": 82.875,
            "I": 84.6,
            "J": 86.73333333333333,
            "K": 89.8,
            "L": 89.26666666666667
        },
        "bus0": {
            "C": 77.75,
            "D": 77.75,
            "E": 77.375,
            "F": 77.6875,
            "G": 78.5,
            "H": 75.8125,
            "I": 76.9375,
            "J": 77.375,
            "K": 77.375,
            "L": 79.2,
            "A": 83.33333333333333,
            "B": 83.8
        },
        "bus3": {
            "J": 69.25,
            "K": 69.8125,
            "L": 71.6875,
            "A": 71.6875,
            "B": 73.125,
            "C": 74.625,
            "D": 76.125,
            "E": 77.0625,
            "F": 78.2,
            "G": 75.13333333333334,
            "H": 75.46666666666667,
            "I": 74.93333333333334
        },
        "bus1": {
            "F": 67.8125,
            "G": 66.875,
            "H": 66.375,
            "I": 65.5,
            "J": 66.875,
            "K": 67.6875,
            "L": 68.5625,
            "A": 69.75,
            "B": 71.33333333333333,
            "C": 73.53333333333333,
            "D": 72.8,
            "E": 72.53333333333333
        },
        "bus4": {
            "L": 85,
            "A": 84.1875,
            "B": 84,
            "C": 85.5,
            "D": 84.375,
            "E": 84.875,
            "F": 87.625,
            "G": 92,
            "H": 94,
            "I": 93.8,
            "J": 92.06666666666666,
            "K": 91.73333333333333
        },
        "bus2": {
            "I": 75.0625,
            "J": 75.5625,
            "K": 78.5625,
            "L": 77.625,
            "A": 79.25,
            "B": 79.375,
            "C": 79.4375,
            "D": 81.93333333333334,
            "E": 81.66666666666667,
            "F": 79.53333333333333,
            "G": 80.46666666666667,
            "H": 80.2
        }
    }
}
    }
}