{
    "Average_holding_time": 18.443271767810025,
    "Average_travel_time_passengers": 2737.3181086812406,
    "Average_speed_busses": 0.047375,
    "Average_experienced_crowding": 91.88859156188026,
    "Average_covariation_headway": 0.5963680839720374,
    "Average_covariation_headway_stops": {
        "C": 0.47232514899244266,
        "D": 0.4717374665148438,
        "J": 0.4723939850670363,
        "H": 0.4758560390652391,
        "F": 0.46717774511994176,
        "G": 0.46484350169874306,
        "E": 0.455687389873535,
        "K": 0.4594487339622969,
        "I": 0.4774850375216177,
        "L": 0.4765065517998769,
        "A": 0.4513801422198812,
        "B": 0.46280502778282334
    },
    "Average_excess_waiting_time": {
        "C": 111.6664852817591,
        "D": 109.2188896648654,
        "J": 102.82045385085092,
        "H": 105.6065893838296,
        "F": 107.2067787949311,
        "G": 104.70921494023202,
        "E": 107.42332092109916,
        "K": 101.38631279299591,
        "I": 106.56266948245627,
        "L": 108.74099373381614,
        "A": 105.33789705491608,
        "B": 110.2609589681561
    },
    "Holding_per_stop": {
        "D": 14.680851063829786,
        "J": 24.375,
        "H": 16.5625,
        "C": 18.51063829787234,
        "F": 18.829787234042552,
        "G": 17.68421052631579,
        "E": 17.5531914893617,
        "K": 22.5,
        "I": 18.94736842105263,
        "L": 22.42105263157895,
        "A": 15.957446808510639,
        "B": 13.085106382978724
    },
    "Load_per_bus_per_stop": {
        "bus0": {
            "C": 82.1875,
            "D": 82.875,
            "E": 82.1875,
            "F": 81.8125,
            "G": 81.0625,
            "H": 82.875,
            "I": 84.375,
            "J": 85.6875,
            "K": 85.125,
            "L": 87.66666666666667,
            "A": 86.06666666666666,
            "B": 86.2
        },
        "bus1": {
            "D": 89.875,
            "E": 90.75,
            "F": 88.9375,
            "G": 91.5625,
            "H": 94.875,
            "I": 95.6875,
            "J": 96.5,
            "K": 94.75,
            "L": 95.125,
            "A": 95.73333333333333,
            "B": 95.86666666666666,
            "C": 95.6
        },
        "bus5": {
            "J": 84.0625,
            "K": 83.75,
            "L": 83.125,
            "A": 83.0625,
            "B": 84.25,
            "C": 84.5,
            "D": 85.0625,
            "E": 87.3125,
            "F": 88.875,
            "G": 90.4375,
            "H": 89.8125,
            "I": 87.86666666666666
        },
        "bus4": {
            "H": 46.625,
            "I": 47.375,
            "J": 47.75,
            "K": 48.75,
            "L": 50.0625,
            "A": 51.625,
            "B": 52.875,
            "C": 54.0625,
            "D": 54.4375,
            "E": 54.75,
            "F": 51.666666666666664,
            "G": 50.93333333333333
        },
        "bus2": {
            "F": 83.1875,
            "G": 83.25,
            "H": 84.6875,
            "I": 84.4375,
            "J": 84.375,
            "K": 84.5,
            "L": 85.1875,
            "A": 85.875,
            "B": 84.75,
            "C": 86,
            "D": 86.93333333333334,
            "E": 87.93333333333334
        },
        "bus3": {
            "G": 63.3125,
            "H": 64.1875,
            "I": 63.6875,
            "J": 64.75,
            "K": 64.375,
            "L": 64.6875,
            "A": 65.625,
            "B": 67.125,
            "C": 67.875,
            "D": 68.125,
            "E": 67.26666666666667,
            "F": 67.73333333333333
        }
    }
}