{
    "Average_holding_time": 34.825493171471926,
    "Average_travel_time_passengers": 6524.718822496187,
    "Average_speed_busses": 0.027458333333333335,
    "Average_experienced_crowding": 584.7085822775282,
    "Average_covariation_headway": 2.1724007363917965,
    "Average_covariation_headway_stops": {
        "F": 2.014360540196245,
        "B": 2.000969479371183,
        "I": 2.0063076233715607,
        "E": 2.0020392525309987,
        "H": 1.997468621767814,
        "D": 1.9967193471547366,
        "G": 1.9612857688864258,
        "J": 1.9967675775673888,
        "C": 1.985168621263348,
        "K": 1.9889739069467816,
        "L": 1.9762049904577081,
        "A": 1.9806420431852356
    },
    "Average_excess_waiting_time": {
        "F": 2280.052115384906,
        "B": 2269.532519168306,
        "I": 2190.2197637211957,
        "E": 2268.974009144574,
        "H": 2190.0828774945235,
        "D": 2271.9356461755297,
        "G": 2283.4729450666728,
        "J": 2197.6057452416485,
        "C": 2264.197344828956,
        "K": 2206.090672448277,
        "L": 2212.096929919151,
        "A": 2249.178067059109
    },
    "Holding_per_stop": {
        "F": 34.13793103448276,
        "I": 32.22222222222222,
        "E": 34.73684210526316,
        "H": 32.83018867924528,
        "B": 33.81818181818182,
        "D": 36.964285714285715,
        "G": 31.636363636363637,
        "J": 33.888888888888886,
        "C": 36,
        "K": 37.77777777777778,
        "L": 39.44444444444444,
        "A": 34.44444444444444
    },
    "Load_per_bus_per_stop": {
        "bus3": {
            "F": 4.1,
            "G": 4.9,
            "H": 5.222222222222222,
            "I": 5.555555555555555,
            "J": 6,
            "K": 7.666666666666667,
            "L": 7.111111111111111,
            "A": 7.444444444444445,
            "B": 6.444444444444445,
            "C": 5.888888888888889,
            "D": 5.444444444444445,
            "E": 4.444444444444445
        },
        "bus0": {
            "B": 51.6,
            "C": 50.4,
            "D": 50.5,
            "E": 51.3,
            "F": 53,
            "G": 57.666666666666664,
            "H": 58.111111111111114,
            "I": 58.111111111111114,
            "J": 58.111111111111114,
            "K": 57.888888888888886,
            "L": 58.666666666666664,
            "A": 57.333333333333336
        },
        "bus5": {
            "I": 586.5555555555555,
            "J": 593.4444444444445,
            "K": 601.2222222222222,
            "L": 612.4444444444445,
            "A": 620.4444444444445,
            "B": 628,
            "C": 637.4444444444445,
            "D": 644.5555555555555,
            "E": 654.7777777777778,
            "F": 666.3333333333334,
            "G": 677.3333333333334,
            "H": 650.375
        },
        "bus2": {
            "E": 10.1,
            "F": 9.7,
            "G": 9.8,
            "H": 9.555555555555555,
            "I": 8.333333333333334,
            "J": 8.11111111111111,
            "K": 8.666666666666666,
            "L": 9.333333333333334,
            "A": 10.222222222222221,
            "B": 11.11111111111111,
            "C": 11.666666666666666,
            "D": 11.333333333333334
        },
        "bus4": {
            "H": 35.111111111111114,
            "I": 36.333333333333336,
            "J": 35.888888888888886,
            "K": 36,
            "L": 36.111111111111114,
            "A": 35.77777777777778,
            "B": 36.666666666666664,
            "C": 37.888888888888886,
            "D": 39.44444444444444,
            "E": 40.888888888888886,
            "F": 39,
            "G": 40.22222222222222
        },
        "bus1": {
            "D": 12.3,
            "E": 13.1,
            "F": 13.4,
            "G": 15.11111111111111,
            "H": 16.88888888888889,
            "I": 17.22222222222222,
            "J": 16.444444444444443,
            "K": 15.666666666666666,
            "L": 14.777777777777779,
            "A": 13.666666666666666,
            "B": 13.11111111111111,
            "C": 12.777777777777779
        }
    }
}