{
    "Average_holding_time": 14.363636363636363,
    "Average_travel_time_passengers": 2623.8248520091324,
    "Average_speed_busses": 0.048125,
    "Average_experienced_crowding": 78.11734021014753,
    "Average_covariation_headway": 0.29767947429494684,
    "Average_covariation_headway_stops": {
        "J": 0.20933685505964206,
        "K": 0.2193713833292496,
        "C": 0.23412076644902582,
        "L": 0.21187826595568035,
        "G": 0.2241376402170355,
        "H": 0.22658096895530577,
        "A": 0.183771063199147,
        "I": 0.2086510061684906,
        "D": 0.212173659890721,
        "E": 0.20946838029746134,
        "B": 0.21789798250560624,
        "F": 0.22083590226811348
    },
    "Average_excess_waiting_time": {
        "J": 46.98454742833928,
        "K": 46.433403367774474,
        "C": 49.29407796876859,
        "L": 43.65975821918954,
        "G": 51.112874329775764,
        "H": 49.619516427844246,
        "A": 41.69873701755614,
        "I": 48.96638339580818,
        "D": 47.571245528934185,
        "E": 49.50491715951756,
        "B": 48.79958537281169,
        "F": 52.51432926951895
    },
    "Holding_per_stop": {
        "C": 17.628865979381445,
        "K": 18.24742268041237,
        "L": 13.608247422680412,
        "H": 16.875,
        "J": 13.4375,
        "G": 17.8125,
        "A": 6.804123711340206,
        "I": 15.9375,
        "D": 15.625,
        "E": 10.625,
        "B": 13.4375,
        "F": 12.31578947368421
    },
    "Load_per_bus_per_stop": {
        "bus3": {
            "J": 70.1875,
            "K": 69.8125,
            "L": 71.75,
            "A": 72.75,
            "B": 72.6875,
            "C": 70.625,
            "D": 70.5,
            "E": 70.5625,
            "F": 71,
            "G": 73.75,
            "H": 74.5,
            "I": 74.9375
        },
        "bus4": {
            "K": 70.6470588235294,
            "L": 70.75,
            "A": 72.875,
            "B": 72.25,
            "C": 73.5625,
            "D": 73.75,
            "E": 74.0625,
            "F": 73.875,
            "G": 72.1875,
            "H": 72.1875,
            "I": 71.9375,
            "J": 73.125
        },
        "bus0": {
            "C": 73.58823529411765,
            "D": 75.3125,
            "E": 76.0625,
            "F": 76.625,
            "G": 77.625,
            "H": 78.4375,
            "I": 79,
            "J": 79.5625,
            "K": 79.875,
            "L": 79.5625,
            "A": 79.875,
            "B": 79.75
        },
        "bus5": {
            "L": 73.52941176470588,
            "A": 73.58823529411765,
            "B": 73.5,
            "C": 75,
            "D": 74.25,
            "E": 74.75,
            "F": 75.1875,
            "G": 75.9375,
            "H": 77,
            "I": 78.3125,
            "J": 79,
            "K": 78.75
        },
        "bus1": {
            "G": 78.3125,
            "H": 79.875,
            "I": 79.375,
            "J": 83.375,
            "K": 85.0625,
            "L": 84.3125,
            "A": 84.5625,
            "B": 85.1875,
            "C": 85.8125,
            "D": 86.5625,
            "E": 86.25,
            "F": 83.6
        },
        "bus2": {
            "H": 72.8125,
            "I": 72.25,
            "J": 73,
            "K": 74.1875,
            "L": 74.75,
            "A": 75.125,
            "B": 72.9375,
            "C": 73.1875,
            "D": 73.625,
            "E": 74.0625,
            "F": 74.6875,
            "G": 75.0625
        }
    }
}           "A": 76.5,
            "B": 77.875,
            "C": 77.625,
            "D": 80.53333333333333,
            "E": 79.4,
            "F": 78.6
        }
    }
}