{
    "Average_holding_time": 15.734265734265735,
    "Average_travel_time_passengers": 2726.4929015561975,
    "Average_speed_busses": 0.04766666666666667,
    "Average_experienced_crowding": 93.76005386496439,
    "Average_covariation_headway": 0.5838575194838123,
    "Average_covariation_headway_stops": {
        "I": 0.475043733770387,
        "K": 0.47389906055747333,
        "E": 0.4626148976663621,
        "C": 0.46177708899115405,
        "F": 0.4637088023444863,
        "A": 0.45769518439486834,
        "L": 0.47008690072787473,
        "D": 0.450139727917305,
        "B": 0.45687966214641834,
        "G": 0.4555753846250381,
        "J": 0.4746941413867211,
        "H": 0.46399295419517667
    },
    "Average_excess_waiting_time": {
        "I": 105.90666348752666,
        "K": 103.87564179158665,
        "E": 103.12386456259537,
        "C": 101.63727616100329,
        "F": 101.33874002094802,
        "A": 99.97298567065315,
        "L": 105.67009538462844,
        "D": 101.3175899641455,
        "B": 102.0781172709469,
        "G": 100.16661613788648,
        "J": 106.1702069104536,
        "H": 104.63551524443284
    },
    "Holding_per_stop": {
        "K": 18.4375,
        "C": 15.625,
        "I": 17.8125,
        "A": 12.8125,
        "F": 14.0625,
        "E": 16.42105263157895,
        "L": 18.94736842105263,
        "D": 14.042553191489361,
        "B": 12.31578947368421,
        "G": 15.157894736842104,
        "J": 16.105263157894736,
        "H": 17.05263157894737
    },
    "Load_per_bus_per_stop": {
        "bus3": {
            "I": 91.25,
            "J": 91,
            "K": 92.5625,
            "L": 92.25,
            "A": 93.9375,
            "B": 95,
            "C": 96.0625,
            "D": 95.6875,
            "E": 97.0625,
            "F": 98.1875,
            "G": 98.93333333333334,
            "H": 97.13333333333334
        },
        "bus4": {
            "K": 74.1875,
            "L": 75.25,
            "A": 74.9375,
            "B": 76.25,
            "C": 76.875,
            "D": 77.0625,
            "E": 76.25,
            "F": 75.1875,
            "G": 77,
            "H": 76.8125,
            "I": 76.125,
            "J": 75.73333333333333
        },
        "bus1": {
            "E": 73.5,
            "F": 71.75,
            "G": 72.6875,
            "H": 73,
            "I": 73.25,
            "J": 73.5,
            "K": 73.625,
            "L": 74.1875,
            "A": 76.1875,
            "B": 75.875,
            "C": 77.5,
            "D": 79.46666666666667
        },
        "bus0": {
            "C": 45,
            "D": 47.5625,
            "E": 50.0625,
            "F": 49.8125,
            "G": 50.75,
            "H": 53.0625,
            "I": 53.3125,
            "J": 52,
            "K": 49.4375,
            "L": 50.5625,
            "A": 50.5,
            "B": 48.6
        },
        "bus2": {
            "F": 100.9375,
            "G": 105.5625,
            "H": 107.8125,
            "I": 108.9375,
            "J": 108.0625,
            "K": 108.1875,
            "L": 106.9375,
            "A": 106.8125,
            "B": 106.75,
            "C": 105.875,
            "D": 105.73333333333333,
            "E": 107.4
        },
        "bus5": {
            "A": 66.8125,
            "B": 66.375,
            "C": 67.875,
            "D": 67.5,
            "E": 67.375,
            "F": 66.375,
            "G": 65.375,
            "H": 67.5,
            "I": 67.4375,
            "J": 69.375,
            "K": 69.75,
            "L": 70.53333333333333
        }
    }
}  "H": 94.5625
        }
    }
}