{
    "Average_holding_time": 19.920424403183024,
    "Average_travel_time_passengers": 2724.7450631776514,
    "Average_speed_busses": 0.047125,
    "Average_experienced_crowding": 84.42857534266636,
    "Average_covariation_headway": 0.3859353263255209,
    "Average_covariation_headway_stops": {
        "A": 0.32104070319679007,
        "K": 0.31835208839705276,
        "L": 0.32056100324303266,
        "C": 0.30321631727073156,
        "B": 0.3163807884201995,
        "F": 0.29383266336506647,
        "D": 0.2726395573033507,
        "G": 0.2842857678295776,
        "E": 0.2807241418584355,
        "H": 0.2644282837222608,
        "I": 0.28649755819603967,
        "J": 0.3070606662772815
    },
    "Average_excess_waiting_time": {
        "A": 72.22271882806143,
        "K": 75.93014797298844,
        "L": 74.64735141734292,
        "C": 64.04508165458896,
        "B": 69.44773638411061,
        "F": 64.38724358004418,
        "D": 60.178435681983956,
        "G": 64.04506894742576,
        "E": 62.95107710749522,
        "H": 64.29902518848178,
        "I": 69.75526239249336,
        "J": 75.55557902003414
    },
    "Holding_per_stop": {
        "A": 13.085106382978724,
        "L": 22.02127659574468,
        "C": 22.736842105263158,
        "B": 20.210526315789473,
        "K": 20.64516129032258,
        "F": 21.473684210526315,
        "D": 16.42105263157895,
        "G": 18.63157894736842,
        "E": 20.842105263157894,
        "H": 20.425531914893618,
        "I": 21.93548387096774,
        "J": 20.64516129032258
    },
    "Load_per_bus_per_stop": {
        "bus5": {
            "A": 64.9375,
            "B": 65.25,
            "C": 65.375,
            "D": 65.375,
            "E": 66,
            "F": 67,
            "G": 70,
            "H": 69.625,
            "I": 66.86666666666666,
            "J": 66.6,
            "K": 67.6,
            "L": 68.33333333333333
        },
        "bus3": {
            "K": 86.4375,
            "L": 84.875,
            "A": 85.875,
            "B": 85.0625,
            "C": 87,
            "D": 87.5,
            "E": 88.75,
            "F": 89.46666666666667,
            "G": 89.13333333333334,
            "H": 90.86666666666666,
            "I": 93.73333333333333,
            "J": 92.86666666666666
        },
        "bus4": {
            "L": 77.9375,
            "A": 77.9375,
            "B": 78.25,
            "C": 77.9375,
            "D": 78.5,
            "E": 77.875,
            "F": 78.9375,
            "G": 80.6875,
            "H": 83.4,
            "I": 83.06666666666666,
            "J": 83.8,
            "K": 83.33333333333333
        },
        "bus1": {
            "C": 64.6875,
            "D": 64.375,
            "E": 64.5,
            "F": 66.3125,
            "G": 68,
            "H": 69.4375,
            "I": 70.625,
            "J": 70,
            "K": 71.9375,
            "L": 71.8125,
            "A": 71.4,
            "B": 71.93333333333334
        },
        "bus0": {
            "B": 69.9375,
            "C": 71.8125,
            "D": 72.0625,
            "E": 72,
            "F": 71.6875,
            "G": 71.9375,
            "H": 73.5625,
            "I": 74.5,
            "J": 74.9375,
            "K": 74.2,
            "L": 74.86666666666666,
            "A": 73.8
        },
        "bus2": {
            "F": 94.4375,
            "G": 94.625,
            "H": 95.125,
            "I": 96.375,
            "J": 98.0625,
            "K": 97.6875,
            "L": 98.9375,
            "A": 99,
            "B": 100.0625,
            "C": 99.66666666666667,
            "D": 98.73333333333333,
            "E": 98.46666666666667
        }
    }
}