{
    "Average_holding_time": 27.285318559556785,
    "Average_travel_time_passengers": 2956.238167531087,
    "Average_speed_busses": 0.045125,
    "Average_experienced_crowding": 106.8610902865813,
    "Average_covariation_headway": 0.581149645159154,
    "Average_covariation_headway_stops": {
        "J": 0.6055852139734027,
        "K": 0.5999991014342937,
        "A": 0.5667321157098668,
        "C": 0.5625555200640171,
        "L": 0.5830882664588779,
        "B": 0.5581903148988961,
        "D": 0.5503310079498133,
        "E": 0.5515394037542337,
        "F": 0.5498630096629048,
        "G": 0.5680712909856179,
        "H": 0.5860914859645403,
        "I": 0.6032740836556502
    },
    "Average_excess_waiting_time": {
        "J": 177.87311886717526,
        "K": 173.08933187126507,
        "A": 156.23978139137284,
        "C": 149.76478529942995,
        "L": 163.9985873452573,
        "B": 150.51391488396268,
        "D": 149.000359111284,
        "E": 151.85134018226478,
        "F": 151.93700936229857,
        "G": 160.967085076238,
        "H": 170.37050814599627,
        "I": 179.80027327668415
    },
    "Holding_per_stop": {
        "K": 31,
        "C": 26.73913043478261,
        "A": 23.406593406593405,
        "L": 26,
        "B": 25.714285714285715,
        "J": 32.69662921348315,
        "D": 28.021978021978022,
        "E": 27.36263736263736,
        "F": 25,
        "G": 30.666666666666668,
        "H": 27.303370786516854,
        "I": 23.59550561797753
    },
    "Load_per_bus_per_stop": {
        "bus2": {
            "J": 97.26666666666667,
            "K": 95.93333333333334,
            "L": 99.13333333333334,
            "A": 100.8,
            "B": 101.53333333333333,
            "C": 103.73333333333333,
            "D": 101.73333333333333,
            "E": 102.53333333333333,
            "F": 100.2,
            "G": 100.93333333333334,
            "H": 104.53333333333333,
            "I": 105.14285714285714
        },
        "bus3": {
            "K": 88.2,
            "L": 87.53333333333333,
            "A": 88.93333333333334,
            "B": 89.33333333333333,
            "C": 92.4,
            "D": 92.4,
            "E": 93.46666666666667,
            "F": 93.4,
            "G": 92.53333333333333,
            "H": 90.33333333333333,
            "I": 91.73333333333333,
            "J": 91.46666666666667
        },
        "bus5": {
            "A": 58.4375,
            "B": 58.5,
            "C": 57.733333333333334,
            "D": 61,
            "E": 62.93333333333333,
            "F": 64.26666666666667,
            "G": 62.733333333333334,
            "H": 61.86666666666667,
            "I": 61.2,
            "J": 61,
            "K": 61.93333333333333,
            "L": 61.333333333333336
        },
        "bus1": {
            "C": 112.5625,
            "D": 115,
            "E": 115.875,
            "F": 118.26666666666667,
            "G": 118.06666666666666,
            "H": 119.26666666666667,
            "I": 122.6,
            "J": 122.06666666666666,
            "K": 123.06666666666666,
            "L": 121.93333333333334,
            "A": 120.4,
            "B": 120.66666666666667
        },
        "bus4": {
            "L": 67.3125,
            "A": 66.93333333333334,
            "B": 67.26666666666667,
            "C": 68.46666666666667,
            "D": 68.8,
            "E": 69.33333333333333,
            "F": 69.8,
            "G": 71.66666666666667,
            "H": 71.4,
            "I": 70.4,
            "J": 68.93333333333334,
            "K": 69.13333333333334
        },
        "bus0": {
            "B": 53.1875,
            "C": 53.3125,
            "D": 53.266666666666666,
            "E": 52.86666666666667,
            "F": 54.06666666666667,
            "G": 54.4,
            "H": 53.6,
            "I": 54.06666666666667,
            "J": 55,
            "K": 54.4,
            "L": 55.13333333333333,
            "A": 55.86666666666667
        }
    }
}