{
    "Average_holding_time": 15.223097112860893,
    "Average_travel_time_passengers": 2691.381559613438,
    "Average_speed_busses": 0.047625,
    "Average_experienced_crowding": 81.21252862272446,
    "Average_covariation_headway": 0.36314412961628667,
    "Average_covariation_headway_stops": {
        "A": 0.30526132064923517,
        "G": 0.2674488818033053,
        "E": 0.26421695151497127,
        "F": 0.2738786460890261,
        "K": 0.2971775219058526,
        "B": 0.3110787445295307,
        "C": 0.27001442796891406,
        "H": 0.25290028529863545,
        "L": 0.27161875854624606,
        "D": 0.26196684579770607,
        "I": 0.2441506650620114,
        "J": 0.2688130397193232
    },
    "Average_excess_waiting_time": {
        "A": 66.32363002808665,
        "G": 57.083976074941745,
        "E": 59.00493090083671,
        "F": 59.233891030475945,
        "K": 64.10592102017034,
        "B": 65.47469662583,
        "C": 59.41793698712223,
        "H": 55.315107301937246,
        "L": 61.76071803310424,
        "D": 60.09226746980255,
        "I": 55.81361331422704,
        "J": 61.00710647649487
    },
    "Holding_per_stop": {
        "G": 13.4375,
        "F": 18.75,
        "B": 20.9375,
        "A": 11.368421052631579,
        "E": 20.842105263157894,
        "K": 16.736842105263158,
        "H": 11.052631578947368,
        "C": 13.894736842105264,
        "L": 15.473684210526315,
        "D": 20.210526315789473,
        "I": 9.473684210526315,
        "J": 10.421052631578947
    },
    "Load_per_bus_per_stop": {
        "bus5": {
            "A": 84.1875,
            "B": 86.25,
            "C": 88.6875,
            "D": 89.4375,
            "E": 90.25,
            "F": 88.125,
            "G": 87.8125,
            "H": 87.9375,
            "I": 88.375,
            "J": 88.375,
            "K": 89.4,
            "L": 90.6
        },
        "bus3": {
            "G": 79.125,
            "H": 80.4375,
            "I": 80.4375,
            "J": 82.75,
            "K": 83.5625,
            "L": 83.4375,
            "A": 83.5625,
            "B": 81.8125,
            "C": 83.9375,
            "D": 84.625,
            "E": 83,
            "F": 84
        },
        "bus1": {
            "E": 70.6875,
            "F": 72.3125,
            "G": 71.625,
            "H": 75,
            "I": 76.5625,
            "J": 76.125,
            "K": 74.25,
            "L": 74.1875,
            "A": 73.4375,
            "B": 74.5625,
            "C": 75.6,
            "D": 75.93333333333334
        },
        "bus2": {
            "F": 68.125,
            "G": 68.5,
            "H": 67.5625,
            "I": 67.75,
            "J": 66.75,
            "K": 67,
            "L": 67.875,
            "A": 70.6875,
            "B": 71.3125,
            "C": 72.9375,
            "D": 71.75,
            "E": 72.06666666666666
        },
        "bus4": {
            "K": 72.75,
            "L": 73.3125,
            "A": 74.25,
            "B": 74.875,
            "C": 75,
            "D": 76.6875,
            "E": 77.4375,
            "F": 78.1875,
            "G": 79.125,
            "H": 78.86666666666666,
            "I": 77.06666666666666,
            "J": 76.6
        },
        "bus0": {
            "B": 75.625,
            "C": 75.0625,
            "D": 75.75,
            "E": 76.8125,
            "F": 75.375,
            "G": 77,
            "H": 75.125,
            "I": 75.375,
            "J": 75.9375,
            "K": 77.5625,
            "L": 78.3125,
            "A": 80.46666666666667
        }
    }
}