{
    "Average_holding_time": 14.251968503937007,
    "Average_travel_time_passengers": 2670.2009650877926,
    "Average_speed_busses": 0.047625,
    "Average_experienced_crowding": 80.8544596052568,
    "Average_covariation_headway": 0.3198037061622293,
    "Average_covariation_headway_stops": {
        "H": 0.2240754588494831,
        "A": 0.23164219608619815,
        "G": 0.24024431728522017,
        "C": 0.24419064817298589,
        "D": 0.24262620597147655,
        "L": 0.21686317712503161,
        "I": 0.2041382528176997,
        "E": 0.2209574612391795,
        "B": 0.23771284810387935,
        "J": 0.190378547244906,
        "F": 0.22669402672218864,
        "K": 0.20322827713455927
    },
    "Average_excess_waiting_time": {
        "H": 50.316148669875304,
        "A": 52.39261483472046,
        "G": 53.46673613447467,
        "C": 54.24500396758913,
        "D": 51.72589942482148,
        "L": 53.8041650893951,
        "I": 49.55118370150268,
        "E": 50.790551086198946,
        "B": 54.816164262466486,
        "J": 49.64436008281558,
        "F": 53.429849260714604,
        "K": 53.29195913923411
    },
    "Holding_per_stop": {
        "H": 12.5,
        "A": 9.157894736842104,
        "C": 19.57894736842105,
        "D": 16.25,
        "G": 15.625,
        "L": 10.105263157894736,
        "I": 18,
        "E": 15.625,
        "B": 13.578947368421053,
        "J": 14.526315789473685,
        "F": 14.210526315789474,
        "K": 11.808510638297872
    },
    "Load_per_bus_per_stop": {
        "bus3": {
            "H": 83.75,
            "I": 81.5625,
            "J": 83.4375,
            "K": 87.625,
            "L": 88.75,
            "A": 87.3125,
            "B": 86.625,
            "C": 85,
            "D": 86,
            "E": 86.875,
            "F": 88.5,
            "G": 88
        },
        "bus5": {
            "A": 82.4375,
            "B": 82.625,
            "C": 82.4375,
            "D": 82.75,
            "E": 80.75,
            "F": 80.5625,
            "G": 79.3125,
            "H": 80.8125,
            "I": 84.25,
            "J": 83.8125,
            "K": 85.4,
            "L": 86.26666666666667
        },
        "bus2": {
            "G": 72.8125,
            "H": 73.4375,
            "I": 73.5625,
            "J": 74.625,
            "K": 75.4375,
            "L": 74.9375,
            "A": 74.625,
            "B": 74.25,
            "C": 74.3125,
            "D": 74.0625,
            "E": 75.3125,
            "F": 76.2
        },
        "bus0": {
            "C": 66.125,
            "D": 67.5625,
            "E": 68.5625,
            "F": 68.3125,
            "G": 69.9375,
            "H": 68.8125,
            "I": 68.3125,
            "J": 69.8125,
            "K": 70.25,
            "L": 71.5625,
            "A": 69.93333333333334,
            "B": 72.2
        },
        "bus1": {
            "D": 71.875,
            "E": 74.1875,
            "F": 73.25,
            "G": 73.625,
            "H": 72.25,
            "I": 72.75,
            "J": 74.5,
            "K": 76.4375,
            "L": 77.5625,
            "A": 77.3125,
            "B": 78.375,
            "C": 78.125
        },
        "bus4": {
            "L": 80.3125,
            "A": 80.625,
            "B": 82.625,
            "C": 83.5625,
            "D": 86.0625,
            "E": 86.9375,
            "F": 86,
            "G": 85.75,
            "H": 86.5625,
            "I": 88.93333333333334,
            "J": 88.13333333333334,
            "K": 86.8
        }
    }
}