{
    "Average_holding_time": 19.24028268551237,
    "Average_travel_time_passengers": 2724.6110006872104,
    "Average_speed_busses": 0.04716666666666667,
    "Average_experienced_crowding": 83.12841617187996,
    "Average_covariation_headway": 0.33139618608290733,
    "Average_covariation_headway_stops": {
        "E": 0.26015556885181845,
        "C": 0.23041913970567215,
        "I": 0.26174984828675724,
        "A": 0.23864347037360908,
        "K": 0.25358529339461033,
        "D": 0.2431099750558318,
        "F": 0.2453658164299049,
        "B": 0.22820290155158887,
        "J": 0.25969375512520515,
        "L": 0.2514923021507924,
        "G": 0.24829771926846358,
        "H": 0.2625634797931533
    },
    "Average_excess_waiting_time": {
        "E": 57.01936795904692,
        "C": 55.43306673471392,
        "I": 61.14018930813296,
        "A": 57.14571375475049,
        "K": 59.420227679801656,
        "D": 56.245290481187794,
        "F": 58.42929186230583,
        "B": 57.19400602420211,
        "J": 62.19993258257915,
        "L": 61.23837027962742,
        "G": 58.69539007750677,
        "H": 62.600846212861484
    },
    "Holding_per_stop": {
        "E": 16.736842105263158,
        "A": 14.842105263157896,
        "K": 20.425531914893618,
        "D": 18.31578947368421,
        "C": 18.63157894736842,
        "I": 20.425531914893618,
        "F": 19.46808510638298,
        "B": 16.914893617021278,
        "L": 21.382978723404257,
        "J": 21.06382978723404,
        "G": 20.425531914893618,
        "H": 22.340425531914892
    },
    "Load_per_bus_per_stop": {
        "bus2": {
            "E": 82.0625,
            "F": 82.9375,
            "G": 83.25,
            "H": 83.8125,
            "I": 85.875,
            "J": 86.1875,
            "K": 86.3125,
            "L": 85.8125,
            "A": 85.8125,
            "B": 86.0625,
            "C": 85.3125,
            "D": 87.2
        },
        "bus0": {
            "C": 77.125,
            "D": 76.6875,
            "E": 77.75,
            "F": 79.5,
            "G": 80.5,
            "H": 80.1875,
            "I": 81.625,
            "J": 82,
            "K": 82.9375,
            "L": 83.06666666666666,
            "A": 83.53333333333333,
            "B": 82.46666666666667
        },
        "bus3": {
            "I": 79.75,
            "J": 79,
            "K": 79.375,
            "L": 80.25,
            "A": 80.6875,
            "B": 79.875,
            "C": 80,
            "D": 82.25,
            "E": 83.4375,
            "F": 85.53333333333333,
            "G": 86.73333333333333,
            "H": 86.26666666666667
        },
        "bus5": {
            "A": 76.375,
            "B": 74.1875,
            "C": 73.9375,
            "D": 75.3125,
            "E": 78.75,
            "F": 80.5,
            "G": 79.9375,
            "H": 81.3125,
            "I": 80.3125,
            "J": 80.33333333333333,
            "K": 81.8,
            "L": 79.66666666666667
        },
        "bus4": {
            "K": 80.9375,
            "L": 80.625,
            "A": 80.25,
            "B": 82.6875,
            "C": 83.0625,
            "D": 83.0625,
            "E": 83.5625,
            "F": 86.125,
            "G": 84.2,
            "H": 84,
            "I": 84.26666666666667,
            "J": 84.26666666666667
        },
        "bus1": {
            "D": 69.875,
            "E": 70.5625,
            "F": 71.9375,
            "G": 70.3125,
            "H": 72.125,
            "I": 73.75,
            "J": 73.1875,
            "K": 73.375,
            "L": 73.25,
            "A": 72.25,
            "B": 73.93333333333334,
            "C": 74.6
        }
    }
}6666666666667,
            "F": 84.06666666666666
        }
    }
}