{
    "Average_holding_time": 10.756159728122345,
    "Average_travel_time_passengers": 2623.7514403133737,
    "Average_speed_busses": 0.049041666666666664,
    "Average_experienced_crowding": 81.66191322822785,
    "Average_covariation_headway": 0.47056052302379514,
    "Average_covariation_headway_stops": {
        "J": 0.3336783426579221,
        "C": 0.359883341229945,
        "G": 0.3434175819504339,
        "H": 0.3675417972386104,
        "B": 0.3482459101469387,
        "D": 0.358645328224184,
        "K": 0.3135328860386557,
        "I": 0.3219009076599812,
        "E": 0.3273873033132526,
        "F": 0.3467408400162493,
        "L": 0.33969473925600496,
        "A": 0.34965088817312684
    },
    "Average_excess_waiting_time": {
        "J": 58.90121298233737,
        "C": 65.63952210960792,
        "G": 61.5516209440309,
        "H": 65.09826426672225,
        "B": 65.13576014117149,
        "D": 63.45141881182269,
        "K": 59.75966100819818,
        "I": 57.62700810633879,
        "E": 59.00170011844318,
        "F": 63.24063128414508,
        "L": 64.50621763779662,
        "A": 68.99628472756274
    },
    "Holding_per_stop": {
        "J": 12.727272727272727,
        "C": 12.857142857142858,
        "H": 16.363636363636363,
        "D": 13.636363636363637,
        "G": 10.606060606060606,
        "B": 12.061855670103093,
        "K": 9.587628865979381,
        "I": 3.3333333333333335,
        "E": 11.938775510204081,
        "F": 8.571428571428571,
        "L": 12.371134020618557,
        "A": 4.948453608247423
    },
    "Load_per_bus_per_stop": {
        "bus5": {
            "J": 83.82352941176471,
            "K": 85.52941176470588,
            "L": 85.47058823529412,
            "A": 87,
            "B": 87.6875,
            "C": 87.9375,
            "D": 87.75,
            "E": 85.375,
            "F": 85.6875,
            "G": 86.5625,
            "H": 86,
            "I": 87
        },
        "bus1": {
            "C": 54.64705882352941,
            "D": 56.588235294117645,
            "E": 57.470588235294116,
            "F": 57,
            "G": 57.470588235294116,
            "H": 55.6875,
            "I": 54.9375,
            "J": 55.625,
            "K": 57.125,
            "L": 57.0625,
            "A": 57.5625,
            "B": 57.125
        },
        "bus3": {
            "G": 79.11764705882354,
            "H": 77.6470588235294,
            "I": 77.6470588235294,
            "J": 79.76470588235294,
            "K": 83.5625,
            "L": 85.25,
            "A": 84.875,
            "B": 84.5,
            "C": 83.5,
            "D": 83.6875,
            "E": 82.125,
            "F": 82.75
        },
        "bus4": {
            "H": 80.88235294117646,
            "I": 79.3529411764706,
            "J": 77.58823529411765,
            "K": 78.11764705882354,
            "L": 76.125,
            "A": 77.5,
            "B": 80,
            "C": 81.5,
            "D": 83.3125,
            "E": 83.1875,
            "F": 84.1875,
            "G": 85.0625
        },
        "bus0": {
            "B": 78.58823529411765,
            "C": 78.47058823529412,
            "D": 78,
            "E": 78.11764705882354,
            "F": 75.4375,
            "G": 77,
            "H": 77.875,
            "I": 78.4375,
            "J": 79.6875,
            "K": 79.375,
            "L": 80.3125,
            "A": 81.5625
        },
        "bus2": {
            "D": 65.11764705882354,
            "E": 66.58823529411765,
            "F": 68.58823529411765,
            "G": 69.05882352941177,
            "H": 69.05882352941177,
            "I": 67.3529411764706,
            "J": 67.25,
            "K": 67.5625,
            "L": 66.5625,
            "A": 67.1875,
            "B": 67.6875,
            "C": 66.9375
        }
    }
}