{
    "Average_holding_time": 17.710526315789473,
    "Average_travel_time_passengers": 2643.830870013455,
    "Average_speed_busses": 0.0475,
    "Average_experienced_crowding": 80.35732294241046,
    "Average_covariation_headway": 0.30678701082884097,
    "Average_covariation_headway_stops": {
        "A": 0.2147609774310864,
        "C": 0.21675189375951837,
        "D": 0.21823314356496526,
        "L": 0.23812616242385568,
        "G": 0.21550674217321744,
        "H": 0.23961589771726022,
        "B": 0.20636274876115365,
        "E": 0.2218498899905732,
        "I": 0.21585320343999403,
        "F": 0.21917136608113374,
        "J": 0.22141185598677415,
        "K": 0.23155300958184025
    },
    "Average_excess_waiting_time": {
        "A": 51.16059378355226,
        "C": 50.636291986444746,
        "D": 49.96336551984854,
        "L": 56.00195714141529,
        "G": 51.93625938752086,
        "H": 53.80694561884599,
        "B": 51.52060929595626,
        "E": 52.50748196057896,
        "I": 52.58331199494029,
        "F": 54.016887517092016,
        "J": 54.94982474588949,
        "K": 57.15792598794792
    },
    "Holding_per_stop": {
        "A": 10.736842105263158,
        "C": 19.57894736842105,
        "D": 13.125,
        "H": 14.6875,
        "L": 24.31578947368421,
        "G": 15.157894736842104,
        "B": 19.57894736842105,
        "E": 21.157894736842106,
        "I": 15.473684210526315,
        "F": 15.789473684210526,
        "J": 15.319148936170214,
        "K": 27.76595744680851
    },
    "Load_per_bus_per_stop": {
        "bus5": {
            "A": 78.875,
            "B": 78.875,
            "C": 81.25,
            "D": 81.125,
            "E": 81.8125,
            "F": 83.75,
            "G": 86.375,
            "H": 85.9375,
            "I": 86.9375,
            "J": 84.5,
            "K": 83.6,
            "L": 83.53333333333333
        },
        "bus0": {
            "C": 76.375,
            "D": 76.0625,
            "E": 75.5,
            "F": 75.25,
            "G": 75.3125,
            "H": 76.875,
            "I": 78.5625,
            "J": 81,
            "K": 80.5,
            "L": 79,
            "A": 78.13333333333334,
            "B": 79.4
        },
        "bus1": {
            "D": 74.75,
            "E": 74.75,
            "F": 75.875,
            "G": 75.9375,
            "H": 75.625,
            "I": 74.5625,
            "J": 74.75,
            "K": 76.1875,
            "L": 77.9375,
            "A": 77.875,
            "B": 76.6875,
            "C": 76.5625
        },
        "bus4": {
            "L": 72.1875,
            "A": 73.3125,
            "B": 75.375,
            "C": 76,
            "D": 75.8125,
            "E": 74.9375,
            "F": 76.125,
            "G": 77.4375,
            "H": 77.75,
            "I": 78.53333333333333,
            "J": 77.6,
            "K": 78.2
        },
        "bus2": {
            "G": 73,
            "H": 74,
            "I": 73,
            "J": 73.5625,
            "K": 74.5,
            "L": 75.8125,
            "A": 75.9375,
            "B": 75.5,
            "C": 75.1875,
            "D": 75.375,
            "E": 75.86666666666666,
            "F": 76.2
        },
        "bus3": {
            "H": 76.75,
            "I": 76,
            "J": 77.4375,
            "K": 82,
            "L": 83.5625,
            "A": 84.5625,
            "B": 82.875,
            "C": 82.4375,
            "D": 82.125,
            "E": 82.125,
            "F": 80.875,
            "G": 81.6
        }
    }
}