{
    "Average_holding_time": 19.09090909090909,
    "Average_travel_time_passengers": 2701.764048679314,
    "Average_speed_busses": 0.04720833333333333,
    "Average_experienced_crowding": 81.07243990512885,
    "Average_covariation_headway": 0.3312990254847246,
    "Average_covariation_headway_stops": {
        "D": 0.27099124332014257,
        "K": 0.2509849651747975,
        "F": 0.2927590034200198,
        "L": 0.24266096102905035,
        "H": 0.2603613898077887,
        "I": 0.24878056159702888,
        "G": 0.26780130992635476,
        "A": 0.2277671696864266,
        "E": 0.2821450748921313,
        "J": 0.24055637818268544,
        "B": 0.23932211777906212,
        "C": 0.26448226060877145
    },
    "Average_excess_waiting_time": {
        "D": 61.54032217018124,
        "K": 58.19526556171792,
        "F": 65.37419873057974,
        "L": 53.23614008305941,
        "H": 63.8256304525292,
        "I": 57.094737754346966,
        "G": 63.6280157169042,
        "A": 53.281197461514466,
        "E": 64.96953749345897,
        "J": 58.05911411155995,
        "B": 57.27120689999816,
        "C": 61.383720449482325
    },
    "Holding_per_stop": {
        "F": 23.36842105263158,
        "L": 17.36842105263158,
        "H": 19.78723404255319,
        "D": 19.894736842105264,
        "K": 23.05263157894737,
        "I": 24.574468085106382,
        "A": 6,
        "G": 18.19148936170213,
        "E": 22.02127659574468,
        "J": 17.5531914893617,
        "B": 13.085106382978724,
        "C": 24.25531914893617
    },
    "Load_per_bus_per_stop": {
        "bus0": {
            "D": 80.5,
            "E": 82.25,
            "F": 83.5625,
            "G": 84.875,
            "H": 86.1875,
            "I": 86.0625,
            "J": 87.75,
            "K": 86.0625,
            "L": 83.66666666666667,
            "A": 85.13333333333334,
            "B": 83.6,
            "C": 84.8
        },
        "bus4": {
            "K": 66.6875,
            "L": 67.3125,
            "A": 66.875,
            "B": 67.5,
            "C": 68.125,
            "D": 68.8125,
            "E": 69.25,
            "F": 68.6875,
            "G": 69.6875,
            "H": 70.13333333333334,
            "I": 70.2,
            "J": 70.86666666666666
        },
        "bus1": {
            "F": 81.1875,
            "G": 82.9375,
            "H": 83.5,
            "I": 82.5625,
            "J": 81.375,
            "K": 83.4375,
            "L": 84.25,
            "A": 85.875,
            "B": 86,
            "C": 86.4,
            "D": 85.73333333333333,
            "E": 87.33333333333333
        },
        "bus5": {
            "L": 67.8125,
            "A": 68.8125,
            "B": 69.5,
            "C": 71.5,
            "D": 73.6875,
            "E": 74.9375,
            "F": 74.9375,
            "G": 76.4375,
            "H": 74.5,
            "I": 71.73333333333333,
            "J": 71.86666666666666,
            "K": 72.73333333333333
        },
        "bus2": {
            "H": 83.5625,
            "I": 83.6875,
            "J": 83.4375,
            "K": 83.625,
            "L": 84.6875,
            "A": 87.1875,
            "B": 87.1875,
            "C": 87,
            "D": 88.0625,
            "E": 88.13333333333334,
            "F": 88.2,
            "G": 86.66666666666667
        },
        "bus3": {
            "I": 73.4375,
            "J": 73.75,
            "K": 73.125,
            "L": 74.4375,
            "A": 74.5625,
            "B": 75.1875,
            "C": 75.5,
            "D": 75.0625,
            "E": 74.6875,
            "F": 75.9375,
            "G": 75.93333333333334,
            "H": 77.33333333333333
        }
    }
}