{
    "Average_holding_time": 14.520311149524632,
    "Average_travel_time_passengers": 2706.857716285682,
    "Average_speed_busses": 0.04820833333333333,
    "Average_experienced_crowding": 90.53344029164498,
    "Average_covariation_headway": 0.549210995883689,
    "Average_covariation_headway_stops": {
        "I": 0.4406299511509052,
        "E": 0.4416003011304901,
        "K": 0.42903161245858207,
        "A": 0.4496956984002717,
        "L": 0.4424031845563757,
        "D": 0.4563451450765375,
        "B": 0.4466502601957389,
        "F": 0.4415743225799892,
        "J": 0.41870995535303235,
        "G": 0.4220924875735567,
        "C": 0.45246878759878784,
        "H": 0.4274364641927504
    },
    "Average_excess_waiting_time": {
        "I": 96.02113237386698,
        "E": 88.74190297292051,
        "K": 91.68419162026709,
        "A": 92.61712076994212,
        "L": 92.72926902982493,
        "D": 94.66351831342416,
        "B": 93.68804197967643,
        "F": 90.69419550643448,
        "J": 91.27189968846119,
        "G": 87.728550352507,
        "C": 95.71676599538273,
        "H": 91.63677798401744
    },
    "Holding_per_stop": {
        "E": 12.857142857142858,
        "L": 12.1875,
        "A": 12.989690721649485,
        "K": 18.4375,
        "I": 17.8125,
        "D": 16.701030927835053,
        "B": 7.422680412371134,
        "F": 17.938144329896907,
        "J": 13.578947368421053,
        "G": 12.8125,
        "C": 16.875,
        "H": 14.6875
    },
    "Load_per_bus_per_stop": {
        "bus2": {
            "I": 93.0625,
            "J": 93.5,
            "K": 92.1875,
            "L": 90.5625,
            "A": 93.4375,
            "B": 93.5625,
            "C": 93.125,
            "D": 94.0625,
            "E": 94.3125,
            "F": 94.1875,
            "G": 93.8125,
            "H": 96
        },
        "bus1": {
            "E": 49.705882352941174,
            "F": 49.8235294117647,
            "G": 49.294117647058826,
            "H": 51.625,
            "I": 52.125,
            "J": 50.3125,
            "K": 52.25,
            "L": 52.4375,
            "A": 51.375,
            "B": 52.75,
            "C": 52.5,
            "D": 52
        },
        "bus3": {
            "K": 99.6875,
            "L": 101.125,
            "A": 101.3125,
            "B": 99.5625,
            "C": 99.625,
            "D": 101.5625,
            "E": 103.25,
            "F": 102.4375,
            "G": 104.1875,
            "H": 104.5,
            "I": 103,
            "J": 103.46666666666667
        },
        "bus5": {
            "A": 78.76470588235294,
            "B": 78.6470588235294,
            "C": 78.125,
            "D": 79.375,
            "E": 80.25,
            "F": 79.6875,
            "G": 81.375,
            "H": 80.375,
            "I": 81.625,
            "J": 82.0625,
            "K": 83.6875,
            "L": 83.1875
        },
        "bus4": {
            "L": 74.0625,
            "A": 75.0625,
            "B": 76.3125,
            "C": 75.5625,
            "D": 74.8125,
            "E": 73.5,
            "F": 74.625,
            "G": 77.125,
            "H": 79.1875,
            "I": 78.4375,
            "J": 79,
            "K": 77.8125
        },
        "bus0": {
            "D": 55.705882352941174,
            "E": 56.470588235294116,
            "F": 57.3125,
            "G": 57,
            "H": 59.75,
            "I": 60,
            "J": 58.8125,
            "K": 58.375,
            "L": 58.375,
            "A": 58.3125,
            "B": 58.4375,
            "C": 58.75
        }
    }
}            "E": 44.6875,
            "F": 45.5625,
            "G": 45.13333333333333,
            "H": 44.6,
            "I": 44,
            "J": 45.266666666666666,
            "K": 45.06666666666667
        }
    }
}