{
    "Average_holding_time": 19.76063829787234,
    "Average_travel_time_passengers": 2691.203612062658,
    "Average_speed_busses": 0.047,
    "Average_experienced_crowding": 80.04717919270306,
    "Average_covariation_headway": 0.3324224651389864,
    "Average_covariation_headway_stops": {
        "I": 0.28870455781152027,
        "L": 0.24680227776561145,
        "K": 0.2647777495398851,
        "H": 0.29360641358934275,
        "C": 0.26866079605895826,
        "B": 0.24465108452332937,
        "J": 0.25824617271455297,
        "A": 0.21894973563210493,
        "D": 0.23818360168680314,
        "E": 0.2513687313138225,
        "F": 0.2501596424199081,
        "G": 0.27345536967758516
    },
    "Average_excess_waiting_time": {
        "I": 67.03359068685427,
        "L": 56.81227037843797,
        "K": 63.541518316026384,
        "H": 70.20084103452069,
        "C": 58.38772114920516,
        "B": 56.79896785201572,
        "J": 63.923697397981186,
        "A": 54.990264730741785,
        "D": 55.45254675349207,
        "E": 59.65141099396334,
        "F": 61.467828508715115,
        "G": 68.85638341767896
    },
    "Holding_per_stop": {
        "I": 18.51063829787234,
        "L": 20.425531914893618,
        "C": 22.736842105263158,
        "B": 16.105263157894736,
        "K": 26.80851063829787,
        "H": 24.193548387096776,
        "J": 20,
        "A": 12.127659574468085,
        "D": 15.789473684210526,
        "E": 25.21276595744681,
        "F": 17.872340425531913,
        "G": 17.419354838709676
    },
    "Load_per_bus_per_stop": {
        "bus3": {
            "I": 75.9375,
            "J": 75.9375,
            "K": 76.75,
            "L": 78.0625,
            "A": 77.4375,
            "B": 78.375,
            "C": 78.8125,
            "D": 79.5,
            "E": 79.8,
            "F": 80.66666666666667,
            "G": 80.86666666666666,
            "H": 80.53333333333333
        },
        "bus5": {
            "L": 63.6875,
            "A": 66.875,
            "B": 67.1875,
            "C": 66.6875,
            "D": 66.5,
            "E": 65.1875,
            "F": 64.6875,
            "G": 65.75,
            "H": 66,
            "I": 66,
            "J": 66.66666666666667,
            "K": 65.66666666666667
        },
        "bus4": {
            "K": 65.9375,
            "L": 67.4375,
            "A": 67.375,
            "B": 68.8125,
            "C": 68.1875,
            "D": 68.5,
            "E": 67.125,
            "F": 68.3125,
            "G": 70.6,
            "H": 70.53333333333333,
            "I": 71.33333333333333,
            "J": 72.26666666666667
        },
        "bus2": {
            "H": 75,
            "I": 75.1875,
            "J": 77.75,
            "K": 78.4375,
            "L": 77.9375,
            "A": 78.75,
            "B": 79.5,
            "C": 80.06666666666666,
            "D": 79.73333333333333,
            "E": 80.86666666666666,
            "F": 79.93333333333334,
            "G": 80.86666666666666
        },
        "bus1": {
            "C": 82.5,
            "D": 82.4375,
            "E": 84.1875,
            "F": 85.125,
            "G": 86.625,
            "H": 88.375,
            "I": 86.8125,
            "J": 87.375,
            "K": 87.4375,
            "L": 86.66666666666667,
            "A": 87,
            "B": 87.8
        },
        "bus0": {
            "B": 80.25,
            "C": 81,
            "D": 79.3125,
            "E": 80.75,
            "F": 82.125,
            "G": 83.625,
            "H": 85.625,
            "I": 86.375,
            "J": 86.5625,
            "K": 89.6,
            "L": 87.46666666666667,
            "A": 86.33333333333333
        }
    }
}4,
            "E": 86.8
        }
    }
}