{
    "Average_holding_time": 20.613333333333333,
    "Average_travel_time_passengers": 2724.8133769390984,
    "Average_speed_busses": 0.046875,
    "Average_experienced_crowding": 84.11886189780648,
    "Average_covariation_headway": 0.39708988676870943,
    "Average_covariation_headway_stops": {
        "F": 0.33789744297433366,
        "B": 0.3315873543108942,
        "L": 0.32243780993610244,
        "A": 0.3271233366714698,
        "E": 0.34619237037954004,
        "G": 0.3125608544034248,
        "C": 0.32861272294732696,
        "H": 0.3017474078548011,
        "D": 0.3474515829948197,
        "I": 0.3070411353761814,
        "J": 0.30687688338514363,
        "K": 0.3289783759698843
    },
    "Average_excess_waiting_time": {
        "F": 77.99993562656573,
        "B": 73.18042466198676,
        "L": 75.48736053978024,
        "A": 74.56671097285846,
        "E": 79.91134659933158,
        "G": 69.35023020485846,
        "C": 75.25340227064436,
        "H": 68.83666555041725,
        "D": 82.11361574056815,
        "I": 72.4165143329443,
        "J": 72.37960929709948,
        "K": 79.04240220932792
    },
    "Holding_per_stop": {
        "B": 20.526315789473685,
        "A": 15.638297872340425,
        "F": 25.851063829787233,
        "G": 15.319148936170214,
        "L": 18.70967741935484,
        "E": 23.93617021276596,
        "C": 15.638297872340425,
        "H": 23.29787234042553,
        "D": 23.225806451612904,
        "I": 24.25531914893617,
        "J": 20.322580645161292,
        "K": 20.64516129032258
    },
    "Load_per_bus_per_stop": {
        "bus2": {
            "F": 54.125,
            "G": 55.8125,
            "H": 56.0625,
            "I": 55.25,
            "J": 57.3125,
            "K": 56.5,
            "L": 58.875,
            "A": 58.875,
            "B": 59.8125,
            "C": 59.266666666666666,
            "D": 57.93333333333333,
            "E": 57.6
        },
        "bus0": {
            "B": 75.375,
            "C": 75.3125,
            "D": 76.25,
            "E": 77.4375,
            "F": 77.875,
            "G": 78.5625,
            "H": 78.6875,
            "I": 77,
            "J": 75.8,
            "K": 77.8,
            "L": 77.93333333333334,
            "A": 80.13333333333334
        },
        "bus4": {
            "L": 88.125,
            "A": 87.5,
            "B": 89.4375,
            "C": 90.875,
            "D": 91.875,
            "E": 91.125,
            "F": 92.86666666666666,
            "G": 94.26666666666667,
            "H": 95,
            "I": 95,
            "J": 94,
            "K": 93.33333333333333
        },
        "bus5": {
            "A": 77.5,
            "B": 78.3125,
            "C": 80.0625,
            "D": 80.5,
            "E": 82.5625,
            "F": 83.1875,
            "G": 84.13333333333334,
            "H": 83.4,
            "I": 84.8,
            "J": 83.86666666666666,
            "K": 83.2,
            "L": 83.2
        },
        "bus1": {
            "E": 64.75,
            "F": 64.9375,
            "G": 64.875,
            "H": 66,
            "I": 66.9375,
            "J": 67.8125,
            "K": 68.625,
            "L": 67.9375,
            "A": 66.26666666666667,
            "B": 68,
            "C": 69.13333333333334,
            "D": 69.8
        },
        "bus3": {
            "G": 93.1875,
            "H": 91.25,
            "I": 91.0625,
            "J": 92.1875,
            "K": 93.375,
            "L": 92.5,
            "A": 96.0625,
            "B": 96.1875,
            "C": 98.5625,
            "D": 99,
            "E": 99.6,
            "F": 99.73333333333333
        }
    }
}