{
    "Average_holding_time": 18.829787234042552,
    "Average_travel_time_passengers": 2777.826001104855,
    "Average_speed_busses": 0.047,
    "Average_experienced_crowding": 93.03350830260786,
    "Average_covariation_headway": 0.5631819112509512,
    "Average_covariation_headway_stops": {
        "F": 0.45127201721165244,
        "C": 0.4480538216428536,
        "E": 0.4472231053836861,
        "A": 0.4551103184896279,
        "K": 0.46252106348611915,
        "D": 0.4439255674051145,
        "G": 0.4426310785241362,
        "B": 0.4466501156750553,
        "L": 0.4524369727682948,
        "H": 0.4396461299079993,
        "I": 0.43808174810656897,
        "J": 0.4628806221235999
    },
    "Average_excess_waiting_time": {
        "F": 99.75277184377342,
        "C": 105.40576960994855,
        "E": 100.8958310452299,
        "A": 106.80785269752664,
        "K": 108.30641154361052,
        "D": 102.04671165163393,
        "G": 100.0783424261723,
        "B": 108.25848471737476,
        "L": 106.87353589416972,
        "H": 101.07841984935772,
        "I": 102.59989646378654,
        "J": 111.03613655643505
    },
    "Holding_per_stop": {
        "F": 19.263157894736842,
        "E": 17.68421052631579,
        "A": 16.914893617021278,
        "D": 19.148936170212767,
        "C": 19.032258064516128,
        "K": 17.872340425531913,
        "B": 15.806451612903226,
        "G": 18.31578947368421,
        "L": 20.106382978723403,
        "H": 22.97872340425532,
        "I": 20.74468085106383,
        "J": 18.06451612903226
    },
    "Load_per_bus_per_stop": {
        "bus3": {
            "F": 98.75,
            "G": 98.25,
            "H": 98.6875,
            "I": 100.1875,
            "J": 101.625,
            "K": 103.75,
            "L": 105.8125,
            "A": 107.9375,
            "B": 106.75,
            "C": 108.26666666666667,
            "D": 107.33333333333333,
            "E": 106.33333333333333
        },
        "bus0": {
            "C": 75.4375,
            "D": 76.8125,
            "E": 77.125,
            "F": 79.6875,
            "G": 79.5625,
            "H": 78.8125,
            "I": 79.125,
            "J": 77.73333333333333,
            "K": 78.8,
            "L": 81.66666666666667,
            "A": 82.2,
            "B": 80.86666666666666
        },
        "bus2": {
            "E": 43.0625,
            "F": 43.4375,
            "G": 46.125,
            "H": 46.5,
            "I": 47.875,
            "J": 47,
            "K": 46.5,
            "L": 47.8125,
            "A": 47.0625,
            "B": 46.6,
            "C": 47.266666666666666,
            "D": 46.4
        },
        "bus5": {
            "A": 87.625,
            "B": 86.5625,
            "C": 87.25,
            "D": 86.5,
            "E": 87.875,
            "F": 90.25,
            "G": 90.75,
            "H": 91.06666666666666,
            "I": 91.93333333333334,
            "J": 92.66666666666667,
            "K": 92.13333333333334,
            "L": 91.53333333333333
        },
        "bus4": {
            "K": 95.9375,
            "L": 96.75,
            "A": 96.6875,
            "B": 99.9375,
            "C": 97.5,
            "D": 96.9375,
            "E": 97.6875,
            "F": 97.46666666666667,
            "G": 98.53333333333333,
            "H": 97.4,
            "I": 98.8,
            "J": 101.86666666666666
        },
        "bus1": {
            "D": 57.4375,
            "E": 56.5,
            "F": 57.8125,
            "G": 59.5,
            "H": 60.375,
            "I": 60.5625,
            "J": 62.75,
            "K": 62.8125,
            "L": 64.1875,
            "A": 62.4,
            "B": 61.6,
            "C": 60.4
        }
    }
}