{
    "Average_holding_time": 11.590319792566984,
    "Average_travel_time_passengers": 2646.524537197722,
    "Average_speed_busses": 0.04820833333333333,
    "Average_experienced_crowding": 81.5019472364661,
    "Average_covariation_headway": 0.4502588190549563,
    "Average_covariation_headway_stops": {
        "D": 0.33182566859681906,
        "H": 0.33451877880698905,
        "J": 0.3120042804827138,
        "L": 0.3292873866366032,
        "C": 0.3186189900669119,
        "F": 0.32038783126964876,
        "K": 0.31189572254697606,
        "E": 0.33396721059431184,
        "I": 0.3395432196823829,
        "G": 0.3261528165368964,
        "A": 0.33536505046357706,
        "B": 0.32932208727509876
    },
    "Average_excess_waiting_time": {
        "D": 66.03700369455237,
        "H": 66.00219817711155,
        "J": 61.64319285887274,
        "L": 64.1138853204123,
        "C": 66.77164809671768,
        "F": 63.72025172817257,
        "K": 62.94190525249161,
        "E": 68.25545605963117,
        "I": 68.4639995182439,
        "G": 65.99736607449557,
        "A": 67.23963540372608,
        "B": 67.59187294931718
    },
    "Holding_per_stop": {
        "D": 13.125,
        "H": 13.917525773195877,
        "J": 7.422680412371134,
        "L": 9.587628865979381,
        "C": 9.375,
        "F": 11.75257731958763,
        "K": 4.6875,
        "E": 15,
        "I": 12.5,
        "G": 14.6875,
        "A": 13.917525773195877,
        "B": 13.125
    },
    "Load_per_bus_per_stop": {
        "bus1": {
            "D": 83.75,
            "E": 83.25,
            "F": 84,
            "G": 85.6875,
            "H": 85.5625,
            "I": 86.375,
            "J": 87.375,
            "K": 89.3125,
            "L": 88.4375,
            "A": 89.25,
            "B": 88.25,
            "C": 88.75
        },
        "bus3": {
            "H": 81.47058823529412,
            "I": 82.11764705882354,
            "J": 82.0625,
            "K": 82.3125,
            "L": 84.375,
            "A": 85.4375,
            "B": 87.5,
            "C": 86.9375,
            "D": 88.1875,
            "E": 86,
            "F": 86.1875,
            "G": 85.0625
        },
        "bus4": {
            "J": 63.88235294117647,
            "K": 64.23529411764706,
            "L": 62.5625,
            "A": 61.8125,
            "B": 63.75,
            "C": 67.0625,
            "D": 68.125,
            "E": 69.625,
            "F": 70.0625,
            "G": 71.25,
            "H": 72.25,
            "I": 69.6875
        },
        "bus5": {
            "L": 61.705882352941174,
            "A": 63.1764705882353,
            "B": 63.25,
            "C": 63.25,
            "D": 63.6875,
            "E": 64.4375,
            "F": 63.125,
            "G": 64.4375,
            "H": 65.1875,
            "I": 65.6875,
            "J": 66.75,
            "K": 65.125
        },
        "bus0": {
            "C": 73.625,
            "D": 74.375,
            "E": 74,
            "F": 75.4375,
            "G": 75.3125,
            "H": 74.625,
            "I": 74.9375,
            "J": 75.125,
            "K": 74.875,
            "L": 75,
            "A": 76.5,
            "B": 75.9375
        },
        "bus2": {
            "F": 74.47058823529412,
            "G": 75.375,
            "H": 76.0625,
            "I": 75.3125,
            "J": 74.9375,
            "K": 75.75,
            "L": 77.375,
            "A": 77.5,
            "B": 78.0625,
            "C": 77,
            "D": 77.625,
            "E": 78.375
        }
    }
}