{
    "Average_holding_time": 15.79505300353357,
    "Average_travel_time_passengers": 2783.1921716117467,
    "Average_speed_busses": 0.04716666666666667,
    "Average_experienced_crowding": 95.16237406403387,
    "Average_covariation_headway": 0.5544726399990082,
    "Average_covariation_headway_stops": {
        "B": 0.4753200905814241,
        "L": 0.4655431218395403,
        "G": 0.4858022140071559,
        "J": 0.4774776614187444,
        "F": 0.4884211940537712,
        "D": 0.47355048178739023,
        "A": 0.4618540670851593,
        "C": 0.4657330380079886,
        "K": 0.47185971761670126,
        "E": 0.4702052642174357,
        "H": 0.48742511369126656,
        "I": 0.4609785856452901
    },
    "Average_excess_waiting_time": {
        "B": 109.96245218405255,
        "L": 107.289633009022,
        "G": 109.94716893237438,
        "J": 109.0742896405286,
        "F": 113.04124953188676,
        "D": 108.27882077825552,
        "A": 108.67965219297844,
        "C": 109.17705480803409,
        "K": 111.12199091070602,
        "E": 109.63350061939576,
        "H": 112.14559267435419,
        "I": 106.02070756814925
    },
    "Holding_per_stop": {
        "B": 21.06382978723404,
        "L": 15,
        "G": 12,
        "J": 17.05263157894737,
        "D": 14.042553191489361,
        "F": 13.263157894736842,
        "A": 7.9787234042553195,
        "C": 16.595744680851062,
        "K": 19.78723404255319,
        "E": 19.148936170212767,
        "H": 19.57894736842105,
        "I": 14.042553191489361
    },
    "Load_per_bus_per_stop": {
        "bus0": {
            "B": 78.4375,
            "C": 78.5,
            "D": 78.25,
            "E": 78.3125,
            "F": 77.875,
            "G": 77.4375,
            "H": 77.9375,
            "I": 79.75,
            "J": 80.1875,
            "K": 81.73333333333333,
            "L": 82.8,
            "A": 83.8
        },
        "bus5": {
            "L": 99.6875,
            "A": 100.625,
            "B": 102.3125,
            "C": 101.3125,
            "D": 101,
            "E": 101.125,
            "F": 101.9375,
            "G": 100.125,
            "H": 102,
            "I": 103.875,
            "J": 107.4,
            "K": 107.73333333333333
        },
        "bus3": {
            "G": 69.1875,
            "H": 69,
            "I": 69.75,
            "J": 69.625,
            "K": 70.0625,
            "L": 73.5625,
            "A": 76.3125,
            "B": 75.6875,
            "C": 75.6875,
            "D": 71.8,
            "E": 72.86666666666666,
            "F": 72.4
        },
        "bus4": {
            "J": 109.625,
            "K": 109.1875,
            "L": 109.25,
            "A": 110.25,
            "B": 111.75,
            "C": 114.125,
            "D": 115.4375,
            "E": 116.625,
            "F": 117.625,
            "G": 117.53333333333333,
            "H": 117,
            "I": 117.46666666666667
        },
        "bus2": {
            "F": 42.3125,
            "G": 43.0625,
            "H": 42.125,
            "I": 42.6875,
            "J": 44.625,
            "K": 45.375,
            "L": 45.4375,
            "A": 47,
            "B": 44.86666666666667,
            "C": 44.8,
            "D": 44.93333333333333,
            "E": 45.266666666666666
        },
        "bus1": {
            "D": 60.5,
            "E": 61.8125,
            "F": 62.5625,
            "G": 63.1875,
            "H": 65.375,
            "I": 66.75,
            "J": 68,
            "K": 67.125,
            "L": 66.5,
            "A": 63.46666666666667,
            "B": 63.13333333333333,
            "C": 63.86666666666667
        }
    }
}