{
    "Average_holding_time": 19.610274579273693,
    "Average_travel_time_passengers": 2706.990755801903,
    "Average_speed_busses": 0.04704166666666667,
    "Average_experienced_crowding": 82.929401447563,
    "Average_covariation_headway": 0.35765086065109597,
    "Average_covariation_headway_stops": {
        "K": 0.28077302708733765,
        "C": 0.2850183831124689,
        "I": 0.2672271686121899,
        "J": 0.25303351872244534,
        "D": 0.2608149544397938,
        "G": 0.26452071674191124,
        "L": 0.2616515635855809,
        "E": 0.2687171972669296,
        "H": 0.254848368137336,
        "A": 0.26027004406235094,
        "F": 0.2646777039458418,
        "B": 0.2761356594318185
    },
    "Average_excess_waiting_time": {
        "K": 62.08456637244859,
        "C": 66.64983911819843,
        "I": 63.153644883375364,
        "J": 59.16333699850151,
        "D": 60.503216546451256,
        "G": 62.63332802402789,
        "L": 60.619813838231664,
        "E": 63.41681883101484,
        "H": 63.025473984154075,
        "A": 63.23481502024242,
        "F": 64.52701305682439,
        "B": 66.74456699528969
    },
    "Holding_per_stop": {
        "K": 19.57894736842105,
        "J": 19.894736842105264,
        "C": 21.382978723404257,
        "I": 20.74468085106383,
        "D": 22.97872340425532,
        "G": 21.382978723404257,
        "L": 18.829787234042552,
        "E": 22.659574468085108,
        "H": 20.74468085106383,
        "A": 15.638297872340425,
        "F": 16.914893617021278,
        "B": 14.516129032258064
    },
    "Load_per_bus_per_stop": {
        "bus5": {
            "K": 70.9375,
            "L": 70.5625,
            "A": 71.3125,
            "B": 74.5,
            "C": 74.5625,
            "D": 74.5,
            "E": 75.125,
            "F": 75.5,
            "G": 76.8125,
            "H": 74.75,
            "I": 76.8,
            "J": 76.53333333333333
        },
        "bus0": {
            "C": 66.5625,
            "D": 65.3125,
            "E": 65.25,
            "F": 66.1875,
            "G": 67.375,
            "H": 68.625,
            "I": 68.3125,
            "J": 70.4375,
            "K": 70.4,
            "L": 69.4,
            "A": 68.73333333333333,
            "B": 70.66666666666667
        },
        "bus3": {
            "I": 82.1875,
            "J": 83.625,
            "K": 84.8125,
            "L": 86.875,
            "A": 87.6875,
            "B": 87.875,
            "C": 89.4375,
            "D": 90.1875,
            "E": 86.2,
            "F": 85.66666666666667,
            "G": 85.2,
            "H": 86.4
        },
        "bus4": {
            "J": 76.9375,
            "K": 78.6875,
            "L": 77.1875,
            "A": 74.0625,
            "B": 73.5625,
            "C": 74.5625,
            "D": 76.625,
            "E": 78,
            "F": 76.8125,
            "G": 77.86666666666666,
            "H": 79.13333333333334,
            "I": 81.33333333333333
        },
        "bus1": {
            "D": 82.125,
            "E": 84.3125,
            "F": 85.625,
            "G": 84.5,
            "H": 86.1875,
            "I": 86.5,
            "J": 89.3125,
            "K": 89.375,
            "L": 90.0625,
            "A": 89.06666666666666,
            "B": 87.13333333333334,
            "C": 87.13333333333334
        },
        "bus2": {
            "G": 74.5,
            "H": 74.9375,
            "I": 75,
            "J": 75,
            "K": 76.125,
            "L": 77.1875,
            "A": 78.5625,
            "B": 76.66666666666667,
            "C": 77.33333333333333,
            "D": 76.46666666666667,
            "E": 78,
            "F": 78.13333333333334
        }
    }
}