{
    "Average_holding_time": 13.607979184735473,
    "Average_travel_time_passengers": 2653.836388648402,
    "Average_speed_busses": 0.04804166666666667,
    "Average_experienced_crowding": 81.71342484897924,
    "Average_covariation_headway": 0.390606098173236,
    "Average_covariation_headway_stops": {
        "B": 0.305938223824572,
        "G": 0.2639959284968048,
        "D": 0.28929997402062757,
        "C": 0.3026970371286975,
        "L": 0.3080245807185204,
        "E": 0.3117551426119642,
        "H": 0.25913117387171875,
        "F": 0.30269882198675113,
        "I": 0.2542839478826549,
        "A": 0.2926667989697621,
        "J": 0.2553151202937967,
        "K": 0.2872924317879449
    },
    "Average_excess_waiting_time": {
        "B": 63.3237574735428,
        "G": 53.87441507642524,
        "D": 56.8252890716937,
        "C": 61.1310673481924,
        "L": 64.15144952530699,
        "E": 59.03799061561887,
        "H": 53.13337252687518,
        "F": 60.014166196102394,
        "I": 53.959615646749455,
        "A": 62.9833689748213,
        "J": 56.39861196126532,
        "K": 61.885080315332175
    },
    "Holding_per_stop": {
        "G": 8.041237113402062,
        "D": 11.75257731958763,
        "C": 20.3125,
        "B": 10.625,
        "E": 17.010309278350515,
        "L": 16.875,
        "H": 11.5625,
        "F": 17.628865979381445,
        "I": 14.0625,
        "A": 13.894736842105264,
        "J": 9.157894736842104,
        "K": 12.31578947368421
    },
    "Load_per_bus_per_stop": {
        "bus0": {
            "B": 59.9375,
            "C": 60.0625,
            "D": 60.6875,
            "E": 61.3125,
            "F": 63.3125,
            "G": 63.75,
            "H": 63,
            "I": 64.75,
            "J": 65.6875,
            "K": 67.25,
            "L": 67.125,
            "A": 65.06666666666666
        },
        "bus4": {
            "G": 88,
            "H": 86.25,
            "I": 88.25,
            "J": 89.9375,
            "K": 91.75,
            "L": 92.1875,
            "A": 91.3125,
            "B": 89.4375,
            "C": 91.0625,
            "D": 91.125,
            "E": 93.9375,
            "F": 94.3125
        },
        "bus2": {
            "D": 74.11764705882354,
            "E": 73.6470588235294,
            "F": 75.3125,
            "G": 75.875,
            "H": 76.6875,
            "I": 76.6875,
            "J": 76.8125,
            "K": 78.5625,
            "L": 79.5,
            "A": 78.875,
            "B": 78.3125,
            "C": 78.875
        },
        "bus1": {
            "C": 72.11764705882354,
            "D": 73.625,
            "E": 75.5625,
            "F": 76.8125,
            "G": 78.8125,
            "H": 78.6875,
            "I": 78.625,
            "J": 77,
            "K": 75.75,
            "L": 76.375,
            "A": 76.5625,
            "B": 76.0625
        },
        "bus5": {
            "L": 80.25,
            "A": 80.25,
            "B": 80.5625,
            "C": 78.625,
            "D": 78.3125,
            "E": 79.875,
            "F": 82.5,
            "G": 82.8125,
            "H": 85.5625,
            "I": 85.875,
            "J": 86.375,
            "K": 86
        },
        "bus3": {
            "E": 73.6470588235294,
            "F": 72.6470588235294,
            "G": 73.75,
            "H": 73.0625,
            "I": 76.4375,
            "J": 78.125,
            "K": 74.8125,
            "L": 76,
            "A": 76.9375,
            "B": 78.5,
            "C": 78.125,
            "D": 79.0625
        }
    }
}