{
    "Average_holding_time": 18.09482001755926,
    "Average_travel_time_passengers": 2693.31947560289,
    "Average_speed_busses": 0.04745833333333333,
    "Average_experienced_crowding": 83.40189912237216,
    "Average_covariation_headway": 0.3573719628342935,
    "Average_covariation_headway_stops": {
        "A": 0.2523701386071478,
        "E": 0.28006091231497376,
        "I": 0.2739139658056491,
        "C": 0.27376200745849494,
        "B": 0.26636175215993724,
        "K": 0.2666382496844523,
        "F": 0.2703840025867105,
        "D": 0.26906018391956377,
        "L": 0.24827432626195306,
        "J": 0.27037168366515457,
        "G": 0.25495007635292255,
        "H": 0.26435291348380385
    },
    "Average_excess_waiting_time": {
        "A": 59.227779799422194,
        "E": 59.34995022886858,
        "I": 61.60047074713725,
        "C": 59.21503608333285,
        "B": 59.848291919512405,
        "K": 61.3979097702412,
        "F": 59.73509263903992,
        "D": 58.871804342779,
        "L": 60.523003911832234,
        "J": 63.83126299284794,
        "G": 58.95594039082732,
        "H": 62.1191362286616
    },
    "Holding_per_stop": {
        "E": 17.5,
        "C": 15.9375,
        "B": 18.31578947368421,
        "A": 10.105263157894736,
        "K": 20.842105263157894,
        "I": 23.36842105263158,
        "F": 24.94736842105263,
        "D": 20.842105263157894,
        "L": 17.5531914893617,
        "J": 24.893617021276597,
        "G": 11.68421052631579,
        "H": 11.170212765957446
    },
    "Load_per_bus_per_stop": {
        "bus5": {
            "A": 66.625,
            "B": 66.375,
            "C": 68.9375,
            "D": 70.25,
            "E": 70.9375,
            "F": 70.9375,
            "G": 70.5625,
            "H": 70.6875,
            "I": 70.5,
            "J": 70.26666666666667,
            "K": 70.73333333333333,
            "L": 72.26666666666667
        },
        "bus2": {
            "E": 93.125,
            "F": 92.75,
            "G": 94.6875,
            "H": 97.375,
            "I": 99.625,
            "J": 98.6875,
            "K": 99.8125,
            "L": 98.4375,
            "A": 100.25,
            "B": 98.75,
            "C": 99.6875,
            "D": 102.26666666666667
        },
        "bus3": {
            "I": 83.125,
            "J": 84.6875,
            "K": 85.0625,
            "L": 84.875,
            "A": 86.5625,
            "B": 86.1875,
            "C": 86.0625,
            "D": 85.4375,
            "E": 85.875,
            "F": 86.2,
            "G": 85.2,
            "H": 85.6
        },
        "bus1": {
            "C": 81.75,
            "D": 82.6875,
            "E": 84.75,
            "F": 85.125,
            "G": 85.3125,
            "H": 86.9375,
            "I": 86.5,
            "J": 87.0625,
            "K": 87,
            "L": 89.125,
            "A": 87.375,
            "B": 86.93333333333334
        },
        "bus0": {
            "B": 58.4375,
            "C": 59.625,
            "D": 60.0625,
            "E": 58.625,
            "F": 61.125,
            "G": 64.0625,
            "H": 64.6875,
            "I": 64.4375,
            "J": 63.1875,
            "K": 63.125,
            "L": 60.8,
            "A": 61.266666666666666
        },
        "bus4": {
            "K": 72.25,
            "L": 72.5625,
            "A": 74.1875,
            "B": 75.125,
            "C": 76.3125,
            "D": 77.9375,
            "E": 80.125,
            "F": 79.125,
            "G": 79.3125,
            "H": 77.86666666666666,
            "I": 76.93333333333334,
            "J": 76.66666666666667
        }
    }
}3333333333334,
            "G": 79.4,
            "H": 81.33333333333333
        }
    }
}