{
    "Average_holding_time": 16.804214223002635,
    "Average_travel_time_passengers": 2674.4234112855725,
    "Average_speed_busses": 0.04745833333333333,
    "Average_experienced_crowding": 79.69287252858493,
    "Average_covariation_headway": 0.31146936731132274,
    "Average_covariation_headway_stops": {
        "A": 0.247840590175597,
        "E": 0.24826568654528333,
        "I": 0.21164313398755857,
        "J": 0.22285599836783868,
        "G": 0.21012138686409765,
        "L": 0.24243308317785103,
        "B": 0.2515227851441852,
        "K": 0.2183794881891785,
        "H": 0.20447585424808207,
        "F": 0.2084787868984339,
        "C": 0.2295418753641448,
        "D": 0.23805134640056583
    },
    "Average_excess_waiting_time": {
        "A": 53.51209111684358,
        "E": 56.67942911243745,
        "I": 51.94238179684095,
        "J": 51.5239773345225,
        "G": 52.63459701404037,
        "L": 54.07551576418962,
        "B": 55.80659965464275,
        "K": 52.26511573899592,
        "H": 53.07394368480357,
        "F": 53.16055043660259,
        "C": 53.8213726069186,
        "D": 57.04889541938866
    },
    "Holding_per_stop": {
        "A": 14.0625,
        "J": 12.947368421052632,
        "E": 20.842105263157894,
        "G": 17.05263157894737,
        "I": 16.42105263157895,
        "L": 17.8125,
        "B": 17.68421052631579,
        "K": 16.736842105263158,
        "H": 15.638297872340425,
        "C": 18.31578947368421,
        "F": 17.5531914893617,
        "D": 16.595744680851062
    },
    "Load_per_bus_per_stop": {
        "bus5": {
            "A": 81.1875,
            "B": 80.9375,
            "C": 79.6875,
            "D": 82.5,
            "E": 83.9375,
            "F": 82.5,
            "G": 82.75,
            "H": 81.0625,
            "I": 83.1875,
            "J": 84.5625,
            "K": 83.6875,
            "L": 85.5625
        },
        "bus0": {
            "E": 74.875,
            "F": 75.1875,
            "G": 75.0625,
            "H": 77.125,
            "I": 79.1875,
            "J": 80.1875,
            "K": 79.3125,
            "L": 81,
            "A": 80.25,
            "B": 79.6875,
            "C": 80.4,
            "D": 80.86666666666666
        },
        "bus2": {
            "I": 75.9375,
            "J": 75.9375,
            "K": 76.8125,
            "L": 77.375,
            "A": 76.5,
            "B": 75.9375,
            "C": 74.5625,
            "D": 73.4375,
            "E": 75.1875,
            "F": 77.5,
            "G": 80.33333333333333,
            "H": 80.26666666666667
        },
        "bus3": {
            "J": 73.3125,
            "K": 74.0625,
            "L": 74.9375,
            "A": 77.6875,
            "B": 79.25,
            "C": 78.5625,
            "D": 78.625,
            "E": 78.75,
            "F": 78.8125,
            "G": 79,
            "H": 76.8,
            "I": 76.2
        },
        "bus1": {
            "G": 69.5,
            "H": 69.5,
            "I": 70.8125,
            "J": 70.5625,
            "K": 71.8125,
            "L": 72.375,
            "A": 71.625,
            "B": 71.375,
            "C": 72.625,
            "D": 72.5,
            "E": 75,
            "F": 74.13333333333334
        },
        "bus4": {
            "L": 72.4375,
            "A": 73.9375,
            "B": 75.875,
            "C": 77.0625,
            "D": 76.75,
            "E": 75.625,
            "F": 75.625,
            "G": 77.1875,
            "H": 77.875,
            "I": 76.375,
            "J": 77.5625,
            "K": 76.46666666666667
        }
    }
}