{
    "Average_holding_time": 19.558303886925795,
    "Average_travel_time_passengers": 2714.5190717068517,
    "Average_speed_busses": 0.04716666666666667,
    "Average_experienced_crowding": 81.42766112704152,
    "Average_covariation_headway": 0.324882210682069,
    "Average_covariation_headway_stops": {
        "E": 0.2629226700782864,
        "K": 0.2607007539616874,
        "H": 0.2595330007491557,
        "D": 0.26553024826535643,
        "C": 0.24151922719023686,
        "A": 0.24966386858707548,
        "F": 0.23841936013910286,
        "I": 0.264318782905967,
        "B": 0.24350581569055282,
        "L": 0.24589123147331254,
        "G": 0.25548398879527096,
        "J": 0.24872143800341232
    },
    "Average_excess_waiting_time": {
        "E": 58.716719174229866,
        "K": 61.75969535490776,
        "H": 59.7630367238753,
        "D": 60.807893086596096,
        "C": 58.69519889812608,
        "A": 59.77775958449524,
        "F": 56.28415619721801,
        "I": 62.4700473838829,
        "B": 61.01410152701351,
        "L": 61.115859249300684,
        "G": 60.85800986035207,
        "J": 61.945918484851745
    },
    "Holding_per_stop": {
        "E": 21.789473684210527,
        "D": 19.57894736842105,
        "H": 19.263157894736842,
        "A": 15.319148936170214,
        "C": 22.02127659574468,
        "K": 20.74468085106383,
        "F": 17.36842105263158,
        "I": 21.382978723404257,
        "B": 15.957446808510639,
        "L": 22.02127659574468,
        "G": 19.148936170212767,
        "J": 20.106382978723403
    },
    "Load_per_bus_per_stop": {
        "bus2": {
            "E": 86.4375,
            "F": 86.9375,
            "G": 87.6875,
            "H": 87.9375,
            "I": 88.5625,
            "J": 89.25,
            "K": 90.1875,
            "L": 89.125,
            "A": 89.6875,
            "B": 91.3125,
            "C": 93.06666666666666,
            "D": 93.33333333333333
        },
        "bus4": {
            "K": 84,
            "L": 82.9375,
            "A": 83.625,
            "B": 85.1875,
            "C": 84.875,
            "D": 85.4375,
            "E": 84.9375,
            "F": 84.25,
            "G": 86.33333333333333,
            "H": 86.73333333333333,
            "I": 88.8,
            "J": 89.26666666666667
        },
        "bus3": {
            "H": 85.125,
            "I": 86,
            "J": 85.5,
            "K": 86.5625,
            "L": 89.9375,
            "A": 89.125,
            "B": 88.625,
            "C": 87.125,
            "D": 88.75,
            "E": 89.73333333333333,
            "F": 89.53333333333333,
            "G": 89.53333333333333
        },
        "bus1": {
            "D": 56.625,
            "E": 57.9375,
            "F": 58.4375,
            "G": 58.1875,
            "H": 57.4375,
            "I": 57.75,
            "J": 58.4375,
            "K": 58.375,
            "L": 56.9375,
            "A": 56.53333333333333,
            "B": 57.86666666666667,
            "C": 59.46666666666667
        },
        "bus0": {
            "C": 66.4375,
            "D": 65.8125,
            "E": 67.5625,
            "F": 70.75,
            "G": 72.125,
            "H": 70.875,
            "I": 69.875,
            "J": 69.5625,
            "K": 69.6,
            "L": 70.8,
            "A": 69.86666666666666,
            "B": 71.26666666666667
        },
        "bus5": {
            "A": 72.375,
            "B": 73.6875,
            "C": 74.625,
            "D": 76.3125,
            "E": 75,
            "F": 75.625,
            "G": 74.125,
            "H": 74.9375,
            "I": 75.6,
            "J": 75.66666666666667,
            "K": 77.46666666666667,
            "L": 76.73333333333333
        }
    }
}