{
    "Average_holding_time": 16.394736842105264,
    "Average_travel_time_passengers": 2727.178617073602,
    "Average_speed_busses": 0.0475,
    "Average_experienced_crowding": 93.57574420460266,
    "Average_covariation_headway": 0.5711125233428129,
    "Average_covariation_headway_stops": {
        "G": 0.46591100824954196,
        "B": 0.4750444432377818,
        "J": 0.4522559098218196,
        "L": 0.4526113892235975,
        "F": 0.47275084928243966,
        "E": 0.4689099051523099,
        "H": 0.46352277640678735,
        "A": 0.45439901935960114,
        "K": 0.4476426410677728,
        "C": 0.47265367220812265,
        "I": 0.4647635410818011,
        "D": 0.462997714575865
    },
    "Average_excess_waiting_time": {
        "G": 101.98759352607794,
        "B": 106.9389340416405,
        "J": 100.71407182674665,
        "L": 101.52015289352335,
        "F": 104.93604299709267,
        "E": 105.95794215998166,
        "H": 104.39642090001047,
        "A": 104.25273617993906,
        "K": 101.2142601005624,
        "C": 108.58497281914566,
        "I": 106.31676926734383,
        "D": 106.44485825518882
    },
    "Holding_per_stop": {
        "G": 12.1875,
        "B": 12,
        "J": 16.736842105263158,
        "L": 9.789473684210526,
        "F": 15.625,
        "E": 18,
        "H": 18,
        "A": 15.319148936170214,
        "K": 19.57894736842105,
        "C": 22.42105263157895,
        "I": 18.94736842105263,
        "D": 18.19148936170213
    },
    "Load_per_bus_per_stop": {
        "bus3": {
            "G": 50.1875,
            "H": 49.125,
            "I": 49.8125,
            "J": 50.5625,
            "K": 52.25,
            "L": 52.9375,
            "A": 53.1875,
            "B": 52.875,
            "C": 55.1875,
            "D": 55.875,
            "E": 54.6875,
            "F": 53.625
        },
        "bus0": {
            "B": 102.3125,
            "C": 101.6875,
            "D": 102.25,
            "E": 102.6875,
            "F": 101.625,
            "G": 100.5625,
            "H": 100.5625,
            "I": 102.4375,
            "J": 103,
            "K": 104.1875,
            "L": 107,
            "A": 107.93333333333334
        },
        "bus4": {
            "J": 65.9375,
            "K": 65.1875,
            "L": 66.375,
            "A": 66.1875,
            "B": 67.1875,
            "C": 70,
            "D": 69.8125,
            "E": 71.0625,
            "F": 72.625,
            "G": 73.125,
            "H": 73.53333333333333,
            "I": 71.46666666666667
        },
        "bus5": {
            "L": 89.25,
            "A": 89.75,
            "B": 90.1875,
            "C": 90.25,
            "D": 89.8125,
            "E": 89.0625,
            "F": 89.1875,
            "G": 91.4375,
            "H": 91.9375,
            "I": 92.25,
            "J": 93.06666666666666,
            "K": 94.06666666666666
        },
        "bus2": {
            "F": 61.375,
            "G": 63.375,
            "H": 64.875,
            "I": 64.625,
            "J": 65.8125,
            "K": 65.3125,
            "L": 64.75,
            "A": 63.5,
            "B": 63.125,
            "C": 63.875,
            "D": 63.06666666666667,
            "E": 63.733333333333334
        },
        "bus1": {
            "E": 89.9375,
            "F": 87.9375,
            "G": 90.875,
            "H": 91.8125,
            "I": 92.625,
            "J": 92.25,
            "K": 91.6875,
            "L": 91.375,
            "A": 90.4375,
            "B": 89.86666666666666,
            "C": 91.46666666666667,
            "D": 94.2
        }
    }
}
    }
}