{
    "Average_holding_time": 17.837127845884414,
    "Average_travel_time_passengers": 2686.623605835193,
    "Average_speed_busses": 0.04758333333333333,
    "Average_experienced_crowding": 79.3377896483255,
    "Average_covariation_headway": 0.3404090995431806,
    "Average_covariation_headway_stops": {
        "K": 0.24519562152793115,
        "E": 0.2687645956284569,
        "G": 0.2209824842186516,
        "A": 0.25441337398445135,
        "D": 0.25673062570033117,
        "L": 0.24307606974347037,
        "H": 0.23095431613155207,
        "B": 0.2382038565749908,
        "F": 0.2371939445554015,
        "I": 0.23199823805239805,
        "C": 0.24269898858869768,
        "J": 0.25055296556757534
    },
    "Average_excess_waiting_time": {
        "K": 57.18888568976678,
        "E": 58.01918051375793,
        "G": 49.62923128868954,
        "A": 55.955298174400525,
        "D": 57.89154994933483,
        "L": 54.55736714001466,
        "H": 53.04964417277927,
        "B": 54.79097004279913,
        "F": 53.80033751400521,
        "I": 55.10583901044254,
        "C": 57.17567874110745,
        "J": 59.802538470161835
    },
    "Holding_per_stop": {
        "E": 21.25,
        "G": 14.0625,
        "A": 12.1875,
        "L": 17.68421052631579,
        "K": 12.31578947368421,
        "D": 24.63157894736842,
        "H": 19.263157894736842,
        "B": 15.157894736842104,
        "F": 20.526315789473685,
        "I": 17.05263157894737,
        "C": 20.210526315789473,
        "J": 19.78723404255319
    },
    "Load_per_bus_per_stop": {
        "bus3": {
            "K": 79.1875,
            "L": 79.875,
            "A": 79.0625,
            "B": 78.1875,
            "C": 77.5,
            "D": 78.75,
            "E": 78.9375,
            "F": 80.4375,
            "G": 81.4375,
            "H": 82.53333333333333,
            "I": 83.33333333333333,
            "J": 84.73333333333333
        },
        "bus1": {
            "E": 80.75,
            "F": 80.0625,
            "G": 81.5,
            "H": 83.9375,
            "I": 85.5625,
            "J": 87.1875,
            "K": 85.875,
            "L": 85.875,
            "A": 86.5625,
            "B": 84.5,
            "C": 83.25,
            "D": 82.26666666666667
        },
        "bus2": {
            "G": 87.3125,
            "H": 87.4375,
            "I": 87.0625,
            "J": 89.75,
            "K": 88.6875,
            "L": 90.6875,
            "A": 91.0625,
            "B": 90.375,
            "C": 92.0625,
            "D": 95.25,
            "E": 94.75,
            "F": 94.4
        },
        "bus5": {
            "A": 69.125,
            "B": 69.375,
            "C": 70.375,
            "D": 72.125,
            "E": 72.75,
            "F": 72.0625,
            "G": 74.125,
            "H": 73.25,
            "I": 74,
            "J": 73.4375,
            "K": 72.1875,
            "L": 73
        },
        "bus0": {
            "D": 60.6875,
            "E": 63.1875,
            "F": 64.0625,
            "G": 65.75,
            "H": 65.375,
            "I": 65.1875,
            "J": 65.5,
            "K": 66.625,
            "L": 67.625,
            "A": 67.3125,
            "B": 64.73333333333333,
            "C": 64.46666666666667
        },
        "bus4": {
            "L": 67,
            "A": 67.875,
            "B": 70.25,
            "C": 71.75,
            "D": 71.5,
            "E": 70.5625,
            "F": 69.875,
            "G": 70.5,
            "H": 70.125,
            "I": 69.8125,
            "J": 70.6,
            "K": 71.33333333333333
        }
    }
}3,
            "D": 74.73333333333333,
            "E": 78.2
        }
    }
}