{
    "Average_holding_time": 75.45112781954887,
    "Average_travel_time_passengers": 4221.345988551894,
    "Average_speed_busses": 0.03325,
    "Average_experienced_crowding": 210.05241674318165,
    "Average_covariation_headway": 1.1488515281987886,
    "Average_covariation_headway_stops": {
        "E": 0.9709454985868318,
        "I": 0.9951932320433167,
        "C": 0.9611279982597504,
        "J": 0.9771140131009175,
        "K": 0.989561545575588,
        "F": 0.9663186171007276,
        "G": 0.9711047689867555,
        "L": 0.9967951893564104,
        "D": 0.9691813875023612,
        "H": 0.9772054604842724,
        "A": 0.9684421183223467,
        "B": 0.9699611293353964
    },
    "Average_excess_waiting_time": {
        "E": 571.9465381497632,
        "I": 590.0507627132929,
        "C": 579.0388247250992,
        "J": 603.7237523450749,
        "K": 588.0925386017295,
        "F": 561.7485235736781,
        "G": 572.9057599679991,
        "L": 599.7428210815704,
        "D": 575.33214521385,
        "H": 579.8993620286815,
        "A": 581.9149883977475,
        "B": 591.1638436319236
    },
    "Holding_per_stop": {
        "J": 81.23076923076923,
        "E": 75.67164179104478,
        "F": 72.79411764705883,
        "I": 87.79411764705883,
        "C": 70.45454545454545,
        "K": 78.63636363636364,
        "G": 75.67164179104478,
        "L": 68.63636363636364,
        "D": 83.18181818181819,
        "H": 87.76119402985074,
        "A": 57.72727272727273,
        "B": 65.45454545454545
    },
    "Load_per_bus_per_stop": {
        "bus1": {
            "E": 118.91666666666667,
            "F": 121.08333333333333,
            "G": 126,
            "H": 124.81818181818181,
            "I": 123.72727272727273,
            "J": 120.54545454545455,
            "K": 122,
            "L": 121.18181818181819,
            "A": 124.27272727272727,
            "B": 126.9090909090909,
            "C": 128.45454545454547,
            "D": 130
        },
        "bus3": {
            "I": 4.666666666666667,
            "J": 5.636363636363637,
            "K": 6,
            "L": 5.909090909090909,
            "A": 6.2727272727272725,
            "B": 5.909090909090909,
            "C": 5.7272727272727275,
            "D": 5.181818181818182,
            "E": 5.090909090909091,
            "F": 4.909090909090909,
            "G": 4.2727272727272725,
            "H": 4.363636363636363
        },
        "bus0": {
            "C": 204.33333333333334,
            "D": 197.27272727272728,
            "E": 200.1818181818182,
            "F": 204.9090909090909,
            "G": 209.1818181818182,
            "H": 213.27272727272728,
            "I": 214.63636363636363,
            "J": 217.9090909090909,
            "K": 215.1818181818182,
            "L": 218.1818181818182,
            "A": 223.1818181818182,
            "B": 221.0909090909091
        },
        "bus4": {
            "J": 27.545454545454547,
            "K": 27.272727272727273,
            "L": 25.636363636363637,
            "A": 25.181818181818183,
            "B": 24.09090909090909,
            "C": 24.454545454545453,
            "D": 24.363636363636363,
            "E": 25.454545454545453,
            "F": 25.181818181818183,
            "G": 26.636363636363637,
            "H": 28.90909090909091,
            "I": 29.454545454545453
        },
        "bus5": {
            "K": 260.90909090909093,
            "L": 265.3636363636364,
            "A": 269.1818181818182,
            "B": 269.09090909090907,
            "C": 269.8181818181818,
            "D": 271.6363636363636,
            "E": 275.3636363636364,
            "F": 275.27272727272725,
            "G": 279.45454545454544,
            "H": 280.54545454545456,
            "I": 285.6363636363636,
            "J": 289.72727272727275
        },
        "bus2": {
            "F": 15.083333333333334,
            "G": 15.333333333333334,
            "H": 14.416666666666666,
            "I": 13.666666666666666,
            "J": 15.181818181818182,
            "K": 14.909090909090908,
            "L": 14.636363636363637,
            "A": 16.09090909090909,
            "B": 16.90909090909091,
            "C": 17.90909090909091,
            "D": 16.181818181818183,
            "E": 16.363636363636363
        }
    }
}