{
    "Average_holding_time": 18.265486725663717,
    "Average_travel_time_passengers": 2755.0526834453817,
    "Average_speed_busses": 0.04708333333333333,
    "Average_experienced_crowding": 95.86228463585249,
    "Average_covariation_headway": 0.6012669075141471,
    "Average_covariation_headway_stops": {
        "B": 0.47057849115877964,
        "J": 0.46363156571246344,
        "C": 0.4847146532457326,
        "H": 0.47613204079935506,
        "G": 0.46986654326393545,
        "F": 0.47698326741903524,
        "K": 0.4690662703540781,
        "I": 0.4706322712658382,
        "D": 0.46682132851371494,
        "L": 0.45274022794038987,
        "E": 0.46452900683660703,
        "A": 0.4618733534727685
    },
    "Average_excess_waiting_time": {
        "B": 111.73291728851484,
        "J": 103.16129974241574,
        "C": 113.74709541983646,
        "H": 106.882061552268,
        "G": 108.13519842762099,
        "F": 112.20331859184148,
        "K": 107.07988278562556,
        "I": 107.41561955440329,
        "D": 110.41518420783837,
        "L": 106.88465643357654,
        "E": 109.62221726254734,
        "A": 113.31621139359726
    },
    "Holding_per_stop": {
        "J": 17.05263157894737,
        "C": 17.5531914893617,
        "H": 21.473684210526315,
        "G": 15.789473684210526,
        "B": 15.483870967741936,
        "F": 22.340425531914892,
        "K": 15.157894736842104,
        "I": 22.42105263157895,
        "D": 18.829787234042552,
        "L": 18.19148936170213,
        "E": 20.322580645161292,
        "A": 14.516129032258064
    },
    "Load_per_bus_per_stop": {
        "bus0": {
            "B": 69.625,
            "C": 70.125,
            "D": 70.375,
            "E": 71.625,
            "F": 72.25,
            "G": 73.4375,
            "H": 72.5625,
            "I": 71,
            "J": 70.86666666666666,
            "K": 71.53333333333333,
            "L": 72.66666666666667,
            "A": 73.2
        },
        "bus5": {
            "J": 69,
            "K": 70.1875,
            "L": 69.5625,
            "A": 70.9375,
            "B": 71.5,
            "C": 72,
            "D": 74.4375,
            "E": 76.75,
            "F": 76.125,
            "G": 73.5,
            "H": 71.66666666666667,
            "I": 71.8
        },
        "bus1": {
            "C": 89.9375,
            "D": 91.375,
            "E": 90.9375,
            "F": 93.625,
            "G": 92.75,
            "H": 90.9375,
            "I": 91.3125,
            "J": 90.0625,
            "K": 90.75,
            "L": 95.6,
            "A": 94.66666666666667,
            "B": 94.33333333333333
        },
        "bus4": {
            "H": 64.75,
            "I": 65.25,
            "J": 63.9375,
            "K": 66.6875,
            "L": 68.4375,
            "A": 70.1875,
            "B": 70.6875,
            "C": 72.375,
            "D": 73.4375,
            "E": 69.73333333333333,
            "F": 69,
            "G": 69.33333333333333
        },
        "bus3": {
            "G": 74,
            "H": 74.625,
            "I": 75.75,
            "J": 77.625,
            "K": 78.3125,
            "L": 79.75,
            "A": 78.5,
            "B": 72,
            "C": 71.13333333333334,
            "D": 72.93333333333334,
            "E": 75.2,
            "F": 74.33333333333333
        },
        "bus2": {
            "F": 94.9375,
            "G": 93.375,
            "H": 95.375,
            "I": 95.3125,
            "J": 97.75,
            "K": 99.9375,
            "L": 100.5625,
            "A": 104.13333333333334,
            "B": 104,
            "C": 102.46666666666667,
            "D": 99.73333333333333,
            "E": 100.73333333333333
        }
    }
}667
        }
    }
}