{
    "Average_holding_time": 16.267605633802816,
    "Average_travel_time_passengers": 2679.36596014484,
    "Average_speed_busses": 0.04733333333333333,
    "Average_experienced_crowding": 81.67087415885275,
    "Average_covariation_headway": 0.2886624532310187,
    "Average_covariation_headway_stops": {
        "J": 0.2235581990653018,
        "E": 0.20204720378595373,
        "C": 0.22794924821431023,
        "D": 0.20351832297812605,
        "A": 0.2150646453315378,
        "I": 0.2152988379586291,
        "K": 0.21109258518228882,
        "F": 0.17612371274588506,
        "B": 0.2319481991515859,
        "L": 0.20345954150825626,
        "G": 0.18805598420550915,
        "H": 0.2199399758174833
    },
    "Average_excess_waiting_time": {
        "J": 52.0416994231,
        "E": 49.02766017236934,
        "C": 55.88137436469225,
        "D": 51.23323771556022,
        "A": 53.6078268147304,
        "I": 52.99734875323503,
        "K": 52.19794735763287,
        "F": 47.3129519772329,
        "B": 58.21048045232254,
        "L": 53.147623019035905,
        "G": 50.44276792968776,
        "H": 55.55478179344709
    },
    "Holding_per_stop": {
        "J": 15.789473684210526,
        "E": 19.263157894736842,
        "D": 20.210526315789473,
        "A": 11.368421052631579,
        "C": 16.27659574468085,
        "I": 17.05263157894737,
        "K": 20.526315789473685,
        "F": 9.473684210526315,
        "B": 16.27659574468085,
        "L": 16.27659574468085,
        "G": 12.947368421052632,
        "H": 19.78723404255319
    },
    "Load_per_bus_per_stop": {
        "bus4": {
            "J": 78,
            "K": 78.9375,
            "L": 80.0625,
            "A": 81.5,
            "B": 83.6875,
            "C": 83.875,
            "D": 84.5625,
            "E": 85.1875,
            "F": 86.75,
            "G": 87.75,
            "H": 84.4,
            "I": 84.13333333333334
        },
        "bus2": {
            "E": 79.75,
            "F": 76.9375,
            "G": 78.1875,
            "H": 77.9375,
            "I": 77.5625,
            "J": 79.875,
            "K": 79.9375,
            "L": 78.5625,
            "A": 80.5625,
            "B": 80.9375,
            "C": 81.5,
            "D": 83.46666666666667
        },
        "bus0": {
            "C": 73.4375,
            "D": 72.5,
            "E": 73.9375,
            "F": 72.9375,
            "G": 73.0625,
            "H": 74.125,
            "I": 75.6875,
            "J": 76.875,
            "K": 78.375,
            "L": 77.4,
            "A": 77.13333333333334,
            "B": 76.33333333333333
        },
        "bus1": {
            "D": 63.5,
            "E": 65.0625,
            "F": 66.875,
            "G": 68.0625,
            "H": 70,
            "I": 68.6875,
            "J": 69.1875,
            "K": 68.5,
            "L": 68.625,
            "A": 67.6875,
            "B": 67.66666666666667,
            "C": 67.46666666666667
        },
        "bus5": {
            "A": 84.625,
            "B": 86.125,
            "C": 86.75,
            "D": 85,
            "E": 86,
            "F": 86.125,
            "G": 86.125,
            "H": 87.1875,
            "I": 88.625,
            "J": 88.4,
            "K": 87.6,
            "L": 88.46666666666667
        },
        "bus3": {
            "I": 79.8125,
            "J": 80.9375,
            "K": 82.3125,
            "L": 82.8125,
            "A": 83.375,
            "B": 84.4375,
            "C": 85.75,
            "D": 85,
            "E": 85.26666666666667,
            "F": 85.73333333333333,
            "G": 87,
            "H": 86.26666666666667
        }
    }
}