{
    "Average_holding_time": 13.432055749128919,
    "Average_travel_time_passengers": 2701.5509628597933,
    "Average_speed_busses": 0.04783333333333333,
    "Average_experienced_crowding": 90.46670110854247,
    "Average_covariation_headway": 0.5474957926490633,
    "Average_covariation_headway_stops": {
        "F": 0.43429032311297305,
        "K": 0.45336132767804876,
        "E": 0.428405480090564,
        "C": 0.443815958270767,
        "J": 0.4584241197852858,
        "I": 0.45742497000881926,
        "G": 0.4448896097338689,
        "L": 0.45071117171119196,
        "D": 0.435410231345653,
        "H": 0.4512612220974956,
        "A": 0.4418682727826818,
        "B": 0.44334849683197053
    },
    "Average_excess_waiting_time": {
        "F": 89.75372491410207,
        "K": 97.53548216104963,
        "E": 89.21248182850923,
        "C": 95.55946523666842,
        "J": 100.86091020019649,
        "I": 100.92371340367657,
        "G": 94.00063067811527,
        "L": 98.9799364697297,
        "D": 93.03314604962577,
        "H": 97.68207957520309,
        "A": 94.62429871378117,
        "B": 96.8559971653981
    },
    "Holding_per_stop": {
        "F": 13.917525773195877,
        "K": 12.5,
        "J": 14.210526315789474,
        "E": 14.6875,
        "C": 14.6875,
        "I": 12.8125,
        "G": 12.5,
        "L": 15.157894736842104,
        "H": 14.0625,
        "D": 15.157894736842104,
        "A": 11.368421052631579,
        "B": 10.105263157894736
    },
    "Load_per_bus_per_stop": {
        "bus2": {
            "F": 78.17647058823529,
            "G": 79.1875,
            "H": 78.6875,
            "I": 80.8125,
            "J": 82.9375,
            "K": 85.1875,
            "L": 85.5625,
            "A": 84.3125,
            "B": 84.625,
            "C": 84.25,
            "D": 84.8125,
            "E": 83.625
        },
        "bus5": {
            "K": 101.25,
            "L": 102.0625,
            "A": 102.6875,
            "B": 105.4375,
            "C": 105.125,
            "D": 106.75,
            "E": 107,
            "F": 108.1875,
            "G": 107.0625,
            "H": 107.5,
            "I": 107.5,
            "J": 108.13333333333334
        },
        "bus1": {
            "E": 54.3125,
            "F": 53.5,
            "G": 54.5625,
            "H": 55.9375,
            "I": 58,
            "J": 58.375,
            "K": 57.6875,
            "L": 58.5625,
            "A": 58.6875,
            "B": 61.8125,
            "C": 62.5,
            "D": 59.13333333333333
        },
        "bus0": {
            "C": 76.5,
            "D": 79.5,
            "E": 79.25,
            "F": 80.5625,
            "G": 81.6875,
            "H": 81.9375,
            "I": 83.125,
            "J": 81.875,
            "K": 83.125,
            "L": 85.625,
            "A": 84.26666666666667,
            "B": 81.6
        },
        "bus4": {
            "J": 66.5625,
            "K": 65.375,
            "L": 65.125,
            "A": 65.5,
            "B": 66.5,
            "C": 67.4375,
            "D": 68.9375,
            "E": 68,
            "F": 67.3125,
            "G": 67.9375,
            "H": 68.3125,
            "I": 68.3125
        },
        "bus3": {
            "I": 67.125,
            "J": 67.0625,
            "K": 67.1875,
            "L": 67.1875,
            "A": 65.375,
            "B": 65.25,
            "C": 66.1875,
            "D": 68.4375,
            "E": 68.9375,
            "F": 69.3125,
            "G": 69,
            "H": 68.75
        }
    }
}