{
    "Average_holding_time": 18,
    "Average_travel_time_passengers": 2715.7460087465633,
    "Average_speed_busses": 0.0475,
    "Average_experienced_crowding": 86.83671638375006,
    "Average_covariation_headway": 0.4853495129203878,
    "Average_covariation_headway_stops": {
        "F": 0.36541758332948016,
        "J": 0.3801644027441199,
        "B": 0.3786611256213402,
        "K": 0.3625743751605604,
        "G": 0.3823524064309912,
        "E": 0.3675450101438633,
        "C": 0.38283382888965095,
        "H": 0.3832208299070649,
        "L": 0.35014796999995124,
        "I": 0.38251767959066807,
        "A": 0.3714046392269747,
        "D": 0.3805515947621527
    },
    "Average_excess_waiting_time": {
        "F": 78.73526597240334,
        "J": 82.93964857578476,
        "B": 81.48128574363119,
        "K": 76.0294870070972,
        "G": 81.0980383577326,
        "E": 80.3183164993664,
        "C": 84.31561379481371,
        "H": 83.71581035756867,
        "L": 75.60440540734726,
        "I": 85.16565692452531,
        "A": 82.36295096893917,
        "D": 85.84622158848651
    },
    "Holding_per_stop": {
        "F": 17.05263157894737,
        "B": 12,
        "K": 20.842105263157894,
        "G": 19.0625,
        "J": 22.42105263157895,
        "E": 16.42105263157895,
        "H": 17.36842105263158,
        "L": 14.842105263157896,
        "C": 20.210526315789473,
        "I": 24,
        "A": 12,
        "D": 19.78723404255319
    },
    "Load_per_bus_per_stop": {
        "bus2": {
            "F": 46.625,
            "G": 47.625,
            "H": 47.375,
            "I": 46.875,
            "J": 48.0625,
            "K": 47.75,
            "L": 47.5,
            "A": 46.3125,
            "B": 45.6875,
            "C": 45,
            "D": 44.86666666666667,
            "E": 47
        },
        "bus4": {
            "J": 96.1875,
            "K": 95,
            "L": 96.875,
            "A": 98.1875,
            "B": 98.625,
            "C": 97.5625,
            "D": 97.375,
            "E": 100.25,
            "F": 100.3125,
            "G": 100.75,
            "H": 101.73333333333333,
            "I": 101.53333333333333
        },
        "bus0": {
            "B": 89.9375,
            "C": 89,
            "D": 89.0625,
            "E": 90.25,
            "F": 89.375,
            "G": 90.5,
            "H": 95.125,
            "I": 96.75,
            "J": 97.1875,
            "K": 96.33333333333333,
            "L": 97.33333333333333,
            "A": 96
        },
        "bus5": {
            "K": 86.375,
            "L": 87,
            "A": 85.9375,
            "B": 88.9375,
            "C": 88.375,
            "D": 89.25,
            "E": 90.75,
            "F": 90.3125,
            "G": 89.125,
            "H": 89.625,
            "I": 89.875,
            "J": 91.13333333333334
        },
        "bus3": {
            "G": 71.75,
            "H": 71.5625,
            "I": 68,
            "J": 66.6875,
            "K": 68.875,
            "L": 71.125,
            "A": 72.9375,
            "B": 73.5625,
            "C": 75.6875,
            "D": 76.375,
            "E": 77.5625,
            "F": 76.86666666666666
        },
        "bus1": {
            "E": 65.625,
            "F": 65.5,
            "G": 66.875,
            "H": 66.625,
            "I": 66.25,
            "J": 65.8125,
            "K": 66.3125,
            "L": 66.1875,
            "A": 67.875,
            "B": 67.66666666666667,
            "C": 69.4,
            "D": 69.33333333333333
        }
    }
}