{
    "Average_holding_time": 17.15034965034965,
    "Average_travel_time_passengers": 2678.5082832062394,
    "Average_speed_busses": 0.04766666666666667,
    "Average_experienced_crowding": 79.60633311056559,
    "Average_covariation_headway": 0.3145375485826909,
    "Average_covariation_headway_stops": {
        "F": 0.21962742736773394,
        "L": 0.2526493544556391,
        "I": 0.2285657969251207,
        "J": 0.24703990371985876,
        "C": 0.23652764733007625,
        "D": 0.24058773458369068,
        "G": 0.21209532283763166,
        "K": 0.24250622513803877,
        "A": 0.21415283149693481,
        "E": 0.22247968858057637,
        "B": 0.22015805177041023,
        "H": 0.2172377279227369
    },
    "Average_excess_waiting_time": {
        "F": 50.2358827100569,
        "L": 54.56174533847906,
        "I": 52.30826233773598,
        "J": 53.44454096646285,
        "C": 54.816104738633896,
        "D": 53.1851000202451,
        "G": 50.25710134621335,
        "K": 54.17445893669719,
        "A": 52.64706494960774,
        "E": 52.346397760320656,
        "B": 54.495146224690586,
        "H": 52.6023713822579
    },
    "Holding_per_stop": {
        "F": 20.3125,
        "L": 15,
        "J": 21.5625,
        "D": 15.9375,
        "I": 13.894736842105264,
        "C": 22.105263157894736,
        "G": 15.473684210526315,
        "K": 18.4375,
        "A": 12.31578947368421,
        "E": 16.105263157894736,
        "B": 14.361702127659575,
        "H": 20.210526315789473
    },
    "Load_per_bus_per_stop": {
        "bus2": {
            "F": 71,
            "G": 70.0625,
            "H": 70,
            "I": 69.5625,
            "J": 70.0625,
            "K": 72.5,
            "L": 74.5625,
            "A": 73.75,
            "B": 75.375,
            "C": 77.125,
            "D": 78.5,
            "E": 76.93333333333334
        },
        "bus5": {
            "L": 80.875,
            "A": 81.5625,
            "B": 82.3125,
            "C": 82,
            "D": 85.3125,
            "E": 86.0625,
            "F": 83.125,
            "G": 82.5625,
            "H": 83.625,
            "I": 83.8125,
            "J": 83.0625,
            "K": 85.5625
        },
        "bus3": {
            "I": 65.75,
            "J": 65.1875,
            "K": 63.5,
            "L": 65.6875,
            "A": 66,
            "B": 67.1875,
            "C": 67.6875,
            "D": 69,
            "E": 70.75,
            "F": 69.5625,
            "G": 68.8,
            "H": 69.66666666666667
        },
        "bus4": {
            "J": 79.5625,
            "K": 78.9375,
            "L": 80.125,
            "A": 80.4375,
            "B": 80.5625,
            "C": 80.1875,
            "D": 79.4375,
            "E": 79.9375,
            "F": 81.5625,
            "G": 84.25,
            "H": 84,
            "I": 84.9375
        },
        "bus0": {
            "C": 78.375,
            "D": 79.1875,
            "E": 81.6875,
            "F": 82.9375,
            "G": 82.0625,
            "H": 80.875,
            "I": 80.8125,
            "J": 80,
            "K": 78.875,
            "L": 78.8125,
            "A": 81.2,
            "B": 80.6
        },
        "bus1": {
            "D": 76.875,
            "E": 74.875,
            "F": 73.8125,
            "G": 74.6875,
            "H": 75.875,
            "I": 76.375,
            "J": 78.25,
            "K": 80.6875,
            "L": 80.8125,
            "A": 80.1875,
            "B": 79.2,
            "C": 79.06666666666666
        }
    }
}