{
    "Average_holding_time": 18.01580333625988,
    "Average_travel_time_passengers": 2668.404425501333,
    "Average_speed_busses": 0.04745833333333333,
    "Average_experienced_crowding": 80.90732043226134,
    "Average_covariation_headway": 0.37643379606910243,
    "Average_covariation_headway_stops": {
        "D": 0.30204767820110834,
        "A": 0.28310940083160596,
        "C": 0.30145252374964154,
        "I": 0.2987933423729979,
        "H": 0.3009210949582379,
        "F": 0.3214519277787296,
        "J": 0.27908558378638293,
        "E": 0.30759077857874173,
        "G": 0.29609121424140883,
        "B": 0.2865717122874723,
        "K": 0.2568591721818824,
        "L": 0.27480879930857977
    },
    "Average_excess_waiting_time": {
        "D": 66.36360584345539,
        "A": 63.120535993987176,
        "C": 67.32444396105467,
        "I": 62.64754846646065,
        "H": 64.71082214459062,
        "F": 68.48764505133192,
        "J": 60.759389236293885,
        "E": 68.94569081614708,
        "G": 65.324387899437,
        "B": 65.38588839510044,
        "K": 58.304845397931956,
        "L": 63.68528147761333
    },
    "Holding_per_stop": {
        "D": 17.05263157894737,
        "I": 15.9375,
        "F": 23.68421052631579,
        "C": 21.473684210526315,
        "A": 9.157894736842104,
        "H": 19.894736842105264,
        "J": 20.210526315789473,
        "E": 20.842105263157894,
        "G": 14.526315789473685,
        "B": 14.680851063829786,
        "K": 18.94736842105263,
        "L": 19.78723404255319
    },
    "Load_per_bus_per_stop": {
        "bus1": {
            "D": 79.8125,
            "E": 80.0625,
            "F": 80.25,
            "G": 81.9375,
            "H": 81.9375,
            "I": 81.25,
            "J": 80,
            "K": 80.875,
            "L": 80.9375,
            "A": 81.6875,
            "B": 80.1875,
            "C": 82.8
        },
        "bus5": {
            "A": 68.0625,
            "B": 68.625,
            "C": 69.8125,
            "D": 68.6875,
            "E": 71,
            "F": 74.125,
            "G": 74.3125,
            "H": 73.375,
            "I": 72.875,
            "J": 72.93333333333334,
            "K": 73.93333333333334,
            "L": 74.6
        },
        "bus0": {
            "C": 75.8125,
            "D": 75.9375,
            "E": 77.4375,
            "F": 77,
            "G": 79.5625,
            "H": 79.625,
            "I": 79.875,
            "J": 81.5,
            "K": 78.6875,
            "L": 79.66666666666667,
            "A": 79.86666666666666,
            "B": 78.8
        },
        "bus4": {
            "I": 58.4375,
            "J": 59.0625,
            "K": 61.5,
            "L": 64.125,
            "A": 65.875,
            "B": 68.5625,
            "C": 68.25,
            "D": 69.125,
            "E": 68.6875,
            "F": 66.5625,
            "G": 64.5,
            "H": 63.93333333333333
        },
        "bus3": {
            "H": 71.0625,
            "I": 72.5,
            "J": 73.625,
            "K": 73.9375,
            "L": 74.625,
            "A": 75.3125,
            "B": 75.3125,
            "C": 76.1875,
            "D": 75.6875,
            "E": 77.375,
            "F": 77.13333333333334,
            "G": 76.33333333333333
        },
        "bus2": {
            "F": 82.5625,
            "G": 83.75,
            "H": 84.5,
            "I": 86.6875,
            "J": 87.8125,
            "K": 88.1875,
            "L": 86.4375,
            "A": 86.4375,
            "B": 86.375,
            "C": 86.625,
            "D": 86.8,
            "E": 86.93333333333334
        }
    }
}