{
    "Average_holding_time": 14.699738903394255,
    "Average_travel_time_passengers": 2693.951170426224,
    "Average_speed_busses": 0.047875,
    "Average_experienced_crowding": 87.26028086670198,
    "Average_covariation_headway": 0.5313791758613117,
    "Average_covariation_headway_stops": {
        "A": 0.42620791491880666,
        "H": 0.40424225282209025,
        "B": 0.4140455700593357,
        "F": 0.43775536713651003,
        "D": 0.4277337721911867,
        "K": 0.4113333414273181,
        "C": 0.4147046756284418,
        "I": 0.3975577722268152,
        "G": 0.40698144650619605,
        "L": 0.421726355306521,
        "E": 0.41656290775631355,
        "J": 0.404736586784658
    },
    "Average_excess_waiting_time": {
        "A": 92.0426453140202,
        "H": 83.03099346202822,
        "B": 88.63680737588106,
        "F": 91.6957332490669,
        "D": 92.44707415009566,
        "K": 85.38430951820999,
        "C": 90.67619442216392,
        "I": 81.72727981678429,
        "G": 85.52862128641846,
        "L": 89.82486042478524,
        "E": 88.02429553202319,
        "J": 85.29042594835363
    },
    "Holding_per_stop": {
        "H": 15,
        "B": 13.894736842105264,
        "A": 15,
        "F": 16.875,
        "D": 17.1875,
        "K": 16.25,
        "C": 15.473684210526315,
        "I": 15.625,
        "G": 17.1875,
        "L": 14.6875,
        "E": 11.368421052631579,
        "J": 7.8125
    },
    "Load_per_bus_per_stop": {
        "bus5": {
            "A": 58.625,
            "B": 58.375,
            "C": 59.75,
            "D": 59.8125,
            "E": 59.375,
            "F": 58.375,
            "G": 61.5625,
            "H": 61.125,
            "I": 59.6875,
            "J": 59.25,
            "K": 58.625,
            "L": 59.75
        },
        "bus3": {
            "H": 77.58823529411765,
            "I": 77,
            "J": 77.875,
            "K": 77.875,
            "L": 77.375,
            "A": 77.6875,
            "B": 77.8125,
            "C": 79.5,
            "D": 80.375,
            "E": 80.9375,
            "F": 81,
            "G": 81.6875
        },
        "bus0": {
            "B": 46.375,
            "C": 47.25,
            "D": 47.5625,
            "E": 47.1875,
            "F": 46.625,
            "G": 46.5,
            "H": 45.75,
            "I": 47.25,
            "J": 46.6875,
            "K": 47.3125,
            "L": 47.125,
            "A": 47.5625
        },
        "bus2": {
            "F": 83.0625,
            "G": 82.0625,
            "H": 85.0625,
            "I": 86.5625,
            "J": 86.75,
            "K": 85.9375,
            "L": 86.375,
            "A": 87.75,
            "B": 89,
            "C": 89.9375,
            "D": 89.1875,
            "E": 87.73333333333333
        },
        "bus1": {
            "D": 98,
            "E": 98.3125,
            "F": 98.625,
            "G": 99.25,
            "H": 98.5,
            "I": 101.1875,
            "J": 102.4375,
            "K": 102.625,
            "L": 104.1875,
            "A": 105.625,
            "B": 104.2,
            "C": 104.4
        },
        "bus4": {
            "K": 82.3125,
            "L": 84.1875,
            "A": 85,
            "B": 86,
            "C": 88,
            "D": 89.875,
            "E": 89.375,
            "F": 88.1875,
            "G": 88.25,
            "H": 88.75,
            "I": 87.9375,
            "J": 89.6875
        }
    }
}  "A": 110.53333333333333,
            "B": 111.86666666666666,
            "C": 109.26666666666667
        },
        "bus0": {
            "B": 74.4375,
            "C": 74.625,
            "D": 73.4375,
            "E": 73.66666666666667,
            "F": 74.2,
            "G": 75.53333333333333,
            "H": 77.33333333333333,
            "I": 75.93333333333334,
            "J": 77.2,
            "K": 78.66666666666667,
            "L": 76.93333333333334,
            "A": 77.93333333333334
        }
    }
}