{
    "Average_holding_time": 17.372583479789103,
    "Average_travel_time_passengers": 2681.0900062408596,
    "Average_speed_busses": 0.04741666666666667,
    "Average_experienced_crowding": 82.07216018249439,
    "Average_covariation_headway": 0.35205490884813573,
    "Average_covariation_headway_stops": {
        "B": 0.2547650748783618,
        "G": 0.2630558785094664,
        "H": 0.25406379951437985,
        "E": 0.26168195933223243,
        "J": 0.25845583075238016,
        "L": 0.23335375342711523,
        "C": 0.25457469361053353,
        "I": 0.24286301568484686,
        "F": 0.25803952342130876,
        "K": 0.2508605153193841,
        "A": 0.23599925481929615,
        "D": 0.2735931697074478
    },
    "Average_excess_waiting_time": {
        "B": 56.303960204001214,
        "G": 60.5044184442433,
        "H": 55.72698710426681,
        "E": 60.3305427710838,
        "J": 56.37589152450096,
        "L": 52.470563969044235,
        "C": 58.174626264299434,
        "I": 55.923038764450496,
        "F": 61.46878811633508,
        "K": 57.265961519346604,
        "A": 55.56504452480351,
        "D": 63.72441733240743
    },
    "Holding_per_stop": {
        "B": 12.31578947368421,
        "H": 17.36842105263158,
        "J": 15.473684210526315,
        "E": 14.842105263157896,
        "L": 18,
        "G": 24.94736842105263,
        "C": 18.94736842105263,
        "I": 15.789473684210526,
        "K": 18.63157894736842,
        "F": 17.23404255319149,
        "A": 10.736842105263158,
        "D": 24.25531914893617
    },
    "Load_per_bus_per_stop": {
        "bus0": {
            "B": 68.75,
            "C": 69.0625,
            "D": 70.875,
            "E": 72.75,
            "F": 72.4375,
            "G": 74.4375,
            "H": 73.5,
            "I": 73.4375,
            "J": 74.875,
            "K": 74,
            "L": 75.06666666666666,
            "A": 74.4
        },
        "bus2": {
            "G": 84,
            "H": 83.1875,
            "I": 84.1875,
            "J": 85.75,
            "K": 84.125,
            "L": 84.4375,
            "A": 86.9375,
            "B": 88.4375,
            "C": 89.5625,
            "D": 90.6,
            "E": 90.86666666666666,
            "F": 90.33333333333333
        },
        "bus3": {
            "H": 81.4375,
            "I": 81.3125,
            "J": 81.9375,
            "K": 82.3125,
            "L": 84.9375,
            "A": 87.4375,
            "B": 88.875,
            "C": 86.375,
            "D": 86.625,
            "E": 88.5625,
            "F": 85.73333333333333,
            "G": 86
        },
        "bus1": {
            "E": 61.5625,
            "F": 62.875,
            "G": 65.1875,
            "H": 65.4375,
            "I": 65.25,
            "J": 64.5625,
            "K": 63.625,
            "L": 63,
            "A": 64.3125,
            "B": 63,
            "C": 62.8,
            "D": 63.2
        },
        "bus4": {
            "J": 73.75,
            "K": 74.5,
            "L": 75.5,
            "A": 76.875,
            "B": 79.25,
            "C": 77.5,
            "D": 78.375,
            "E": 78.625,
            "F": 79.25,
            "G": 79.3125,
            "H": 78.93333333333334,
            "I": 78.33333333333333
        },
        "bus5": {
            "L": 83.25,
            "A": 82.4375,
            "B": 84.0625,
            "C": 84.8125,
            "D": 83.5625,
            "E": 86.375,
            "F": 87.4375,
            "G": 87.5625,
            "H": 88.5,
            "I": 89.75,
            "J": 89.4375,
            "K": 90.46666666666667
        }
    }
}