{
    "Average_holding_time": 12.495652173913044,
    "Average_travel_time_passengers": 2671.997568782029,
    "Average_speed_busses": 0.04791666666666667,
    "Average_experienced_crowding": 82.00685132590453,
    "Average_covariation_headway": 0.37662857736850647,
    "Average_covariation_headway_stops": {
        "A": 0.2800926290790387,
        "E": 0.2642053848922744,
        "F": 0.27966923746302746,
        "K": 0.27689182145674746,
        "I": 0.2638569211245026,
        "C": 0.2733485603683509,
        "B": 0.2875484845303422,
        "G": 0.2811062927803506,
        "J": 0.25951275351161085,
        "D": 0.27576743063934833,
        "L": 0.2641047565824015,
        "H": 0.27803530321292846
    },
    "Average_excess_waiting_time": {
        "A": 59.15647456675498,
        "E": 55.45774329692887,
        "F": 56.080159166211615,
        "K": 59.270139874305585,
        "I": 56.103027312784945,
        "C": 56.82874115189571,
        "B": 61.07463508507078,
        "G": 58.77379372087444,
        "J": 57.25612711695942,
        "D": 58.73426873710008,
        "L": 58.14151608504551,
        "H": 59.72147709782081
    },
    "Holding_per_stop": {
        "A": 10.3125,
        "F": 8.969072164948454,
        "K": 8.75,
        "I": 13.4375,
        "C": 12.5,
        "E": 10.625,
        "B": 17.68421052631579,
        "G": 8.4375,
        "J": 8.842105263157896,
        "D": 18.75,
        "L": 17.68421052631579,
        "H": 14.0625
    },
    "Load_per_bus_per_stop": {
        "bus5": {
            "A": 78.5625,
            "B": 80.9375,
            "C": 82.5,
            "D": 84,
            "E": 85,
            "F": 87.625,
            "G": 90.125,
            "H": 88.5,
            "I": 86.5,
            "J": 85.9375,
            "K": 86,
            "L": 85.66666666666667
        },
        "bus1": {
            "E": 54.5625,
            "F": 55.4375,
            "G": 56.125,
            "H": 56.625,
            "I": 56.875,
            "J": 58.4375,
            "K": 59.4375,
            "L": 57.1875,
            "A": 57.75,
            "B": 58.6875,
            "C": 58.8125,
            "D": 58.9375
        },
        "bus2": {
            "F": 78.76470588235294,
            "G": 79.625,
            "H": 81.8125,
            "I": 83.9375,
            "J": 84.5,
            "K": 83.375,
            "L": 83.25,
            "A": 83.375,
            "B": 84.4375,
            "C": 84.1875,
            "D": 84.4375,
            "E": 85
        },
        "bus4": {
            "K": 83.8125,
            "L": 84.1875,
            "A": 85.5,
            "B": 86.875,
            "C": 86.875,
            "D": 87.625,
            "E": 86,
            "F": 85.9375,
            "G": 87.5,
            "H": 89.3125,
            "I": 89.3125,
            "J": 87.5625
        },
        "bus3": {
            "I": 73,
            "J": 72.5625,
            "K": 71.75,
            "L": 69.75,
            "A": 68.5,
            "B": 69.5,
            "C": 71.5625,
            "D": 72.25,
            "E": 74.625,
            "F": 77.1875,
            "G": 77.8125,
            "H": 77.8125
        },
        "bus0": {
            "C": 73.9375,
            "D": 74.25,
            "E": 76,
            "F": 77,
            "G": 78.125,
            "H": 78.1875,
            "I": 76.8125,
            "J": 77.75,
            "K": 77.875,
            "L": 78.5,
            "A": 80.0625,
            "B": 78.66666666666667
        }
    }
}