{
    "Average_holding_time": 14.54308093994778,
    "Average_travel_time_passengers": 2689.045412318777,
    "Average_speed_busses": 0.047875,
    "Average_experienced_crowding": 90.76035340625698,
    "Average_covariation_headway": 0.5843758179169986,
    "Average_covariation_headway_stops": {
        "C": 0.4567153682231418,
        "K": 0.4475300180010702,
        "F": 0.45228108247246235,
        "E": 0.4386040062264919,
        "J": 0.4560477705966371,
        "G": 0.46402578046079707,
        "L": 0.43417649675037495,
        "D": 0.44261257937213333,
        "H": 0.4543262288545771,
        "A": 0.4323690879113293,
        "I": 0.4547676537033467,
        "B": 0.452561408877084
    },
    "Average_excess_waiting_time": {
        "C": 99.16689803910657,
        "K": 92.63613377728086,
        "F": 99.13772925078098,
        "E": 96.48294684989963,
        "J": 96.5847998513022,
        "G": 97.93446364067779,
        "L": 89.61854747095691,
        "D": 100.82197816410684,
        "H": 97.10697658360306,
        "A": 91.74029529995687,
        "I": 99.41855443662388,
        "B": 99.49557994644766
    },
    "Holding_per_stop": {
        "K": 14.536082474226804,
        "F": 14.375,
        "C": 14.6875,
        "E": 11.68421052631579,
        "G": 14.6875,
        "J": 19.375,
        "L": 13.4375,
        "H": 18.125,
        "A": 10.3125,
        "D": 16.595744680851062,
        "I": 14.6875,
        "B": 12
    },
    "Load_per_bus_per_stop": {
        "bus0": {
            "C": 75,
            "D": 74.9375,
            "E": 74.3125,
            "F": 73.5625,
            "G": 72.5,
            "H": 72.6875,
            "I": 73.0625,
            "J": 72.9375,
            "K": 73.8125,
            "L": 75.3125,
            "A": 75.0625,
            "B": 76.0625
        },
        "bus5": {
            "K": 77.70588235294117,
            "L": 77.3125,
            "A": 78.625,
            "B": 78.625,
            "C": 78.25,
            "D": 80.5625,
            "E": 81.0625,
            "F": 80.0625,
            "G": 81,
            "H": 81.625,
            "I": 83.75,
            "J": 83.25
        },
        "bus2": {
            "F": 66.3125,
            "G": 67.9375,
            "H": 68.875,
            "I": 69.75,
            "J": 71.1875,
            "K": 73.5,
            "L": 74.8125,
            "A": 74.9375,
            "B": 74.25,
            "C": 72.8125,
            "D": 72.875,
            "E": 70.06666666666666
        },
        "bus1": {
            "E": 68.4375,
            "F": 69.6875,
            "G": 69.9375,
            "H": 67.9375,
            "I": 70.25,
            "J": 71.25,
            "K": 70.25,
            "L": 68.5,
            "A": 68,
            "B": 67.3125,
            "C": 67.75,
            "D": 72.66666666666667
        },
        "bus4": {
            "J": 86.25,
            "K": 88.4375,
            "L": 87.75,
            "A": 86.125,
            "B": 86.25,
            "C": 86.125,
            "D": 85.75,
            "E": 88.375,
            "F": 88.5625,
            "G": 87.875,
            "H": 88.25,
            "I": 89.375
        },
        "bus3": {
            "G": 76.375,
            "H": 77.3125,
            "I": 77.75,
            "J": 78.1875,
            "K": 79.125,
            "L": 79.1875,
            "A": 81.0625,
            "B": 81.625,
            "C": 83.9375,
            "D": 85.625,
            "E": 85.5625,
            "F": 85.1875
        }
    }
}.2,
            "J": 53.666666666666664
        }
    }
}