{
    "Average_holding_time": 18.632707774798927,
    "Average_travel_time_passengers": 2835.4694483192675,
    "Average_speed_busses": 0.046625,
    "Average_experienced_crowding": 104.76561144365623,
    "Average_covariation_headway": 0.7372030147736811,
    "Average_covariation_headway_stops": {
        "B": 0.5990235659725416,
        "J": 0.5975317139226859,
        "L": 0.5961808841470014,
        "I": 0.6024044765673268,
        "D": 0.5992755754879127,
        "K": 0.6055241094264883,
        "C": 0.5810234885084096,
        "E": 0.6041080362144012,
        "A": 0.5939883970763449,
        "F": 0.5750669733408675,
        "G": 0.5896216105882682,
        "H": 0.5930615353432273
    },
    "Average_excess_waiting_time": {
        "B": 153.48726181410257,
        "J": 155.14229468731241,
        "L": 150.81867181210032,
        "I": 161.77901052001562,
        "D": 154.02599038347824,
        "K": 157.1433828332435,
        "C": 149.45403643164616,
        "E": 157.88522561202922,
        "A": 153.33238290939966,
        "F": 149.4799785178036,
        "G": 157.11666707667922,
        "H": 160.5818977693745
    },
    "Holding_per_stop": {
        "B": 15.638297872340425,
        "J": 19.35483870967742,
        "L": 21.382978723404257,
        "D": 15.161290322580646,
        "K": 23.29787234042553,
        "I": 22.580645161290324,
        "C": 16.27659574468085,
        "E": 22.258064516129032,
        "A": 15.638297872340425,
        "F": 18.06451612903226,
        "G": 20.543478260869566,
        "H": 13.369565217391305
    },
    "Load_per_bus_per_stop": {
        "bus0": {
            "B": 48.5,
            "C": 50.1875,
            "D": 51.125,
            "E": 51.1875,
            "F": 50.6875,
            "G": 48.875,
            "H": 48.6875,
            "I": 51.25,
            "J": 48.333333333333336,
            "K": 49.6,
            "L": 51.333333333333336,
            "A": 52.2
        },
        "bus3": {
            "J": 78.125,
            "K": 77.9375,
            "L": 79.75,
            "A": 80.875,
            "B": 79.625,
            "C": 78.3125,
            "D": 82.6,
            "E": 82.4,
            "F": 82.33333333333333,
            "G": 83.46666666666667,
            "H": 84.6,
            "I": 81.66666666666667
        },
        "bus5": {
            "L": 66.5625,
            "A": 66.9375,
            "B": 68.9375,
            "C": 69.8125,
            "D": 70.0625,
            "E": 69.8125,
            "F": 71.5625,
            "G": 70.73333333333333,
            "H": 71.73333333333333,
            "I": 71.6,
            "J": 72,
            "K": 70.46666666666667
        },
        "bus2": {
            "I": 86.75,
            "J": 86.5625,
            "K": 84.75,
            "L": 84.6875,
            "A": 85.875,
            "B": 86.73333333333333,
            "C": 90.6,
            "D": 90.4,
            "E": 93.2,
            "F": 94.93333333333334,
            "G": 94.26666666666667,
            "H": 93.13333333333334
        },
        "bus1": {
            "D": 88.3125,
            "E": 87.3125,
            "F": 86.75,
            "G": 86.9375,
            "H": 86.4375,
            "I": 89,
            "J": 89.8125,
            "K": 92.3125,
            "L": 94.73333333333333,
            "A": 94.66666666666667,
            "B": 95.33333333333333,
            "C": 94.73333333333333
        },
        "bus4": {
            "K": 86.0625,
            "L": 88.3125,
            "A": 89,
            "B": 91.6875,
            "C": 92.1875,
            "D": 88.46666666666667,
            "E": 88.46666666666667,
            "F": 87.73333333333333,
            "G": 87.8,
            "H": 88.6,
            "I": 90.66666666666667,
            "J": 89.8
        }
    }
}"H": 128.26666666666668
        }
    }
}