{
    "Average_holding_time": 21.53504880212955,
    "Average_travel_time_passengers": 2700.681938189033,
    "Average_speed_busses": 0.04695833333333333,
    "Average_experienced_crowding": 83.10672969197269,
    "Average_covariation_headway": 0.40780445247347247,
    "Average_covariation_headway_stops": {
        "A": 0.2914714049170108,
        "I": 0.3028910863246283,
        "L": 0.2907682430443624,
        "G": 0.3083101186732097,
        "H": 0.31020823892425103,
        "F": 0.3109524879530539,
        "B": 0.28572818011015944,
        "J": 0.29700873769746994,
        "C": 0.28123146938879606,
        "K": 0.30882533192676903,
        "D": 0.27716075584284744,
        "E": 0.3146062664695393
    },
    "Average_excess_waiting_time": {
        "A": 64.651780337351,
        "I": 66.13553238324789,
        "L": 68.59921860111024,
        "G": 71.092591726173,
        "H": 69.41397753850032,
        "F": 73.25134888603276,
        "B": 65.55787715451845,
        "J": 66.94502964233402,
        "C": 66.78617561564249,
        "K": 71.55155422933206,
        "D": 66.20961025153059,
        "E": 75.32444813366959
    },
    "Holding_per_stop": {
        "A": 10.53191489361702,
        "I": 24.63157894736842,
        "G": 17.5531914893617,
        "H": 16.105263157894736,
        "L": 17.872340425531913,
        "F": 27.741935483870968,
        "B": 22.659574468085108,
        "J": 19.46808510638298,
        "C": 24.893617021276597,
        "K": 25.851063829787233,
        "D": 18.06451612903226,
        "E": 33.225806451612904
    },
    "Load_per_bus_per_stop": {
        "bus5": {
            "A": 77.9375,
            "B": 75.5625,
            "C": 76.3125,
            "D": 77.9375,
            "E": 78.5,
            "F": 80.9375,
            "G": 82.6875,
            "H": 82.5,
            "I": 82.625,
            "J": 81.8125,
            "K": 83.13333333333334,
            "L": 82.8
        },
        "bus3": {
            "I": 85.6875,
            "J": 86.625,
            "K": 88.75,
            "L": 90.75,
            "A": 91,
            "B": 90.3125,
            "C": 90.5,
            "D": 89.6875,
            "E": 91.875,
            "F": 93.13333333333334,
            "G": 92.4,
            "H": 93.46666666666667
        },
        "bus4": {
            "L": 73.4375,
            "A": 75.4375,
            "B": 75.3125,
            "C": 74.3125,
            "D": 74.5,
            "E": 75.9375,
            "F": 75.875,
            "G": 75.75,
            "H": 75.5,
            "I": 75.73333333333333,
            "J": 76.46666666666667,
            "K": 77.66666666666667
        },
        "bus1": {
            "G": 86.625,
            "H": 85.25,
            "I": 86.3125,
            "J": 87.25,
            "K": 88.5,
            "L": 90.0625,
            "A": 88.46666666666667,
            "B": 88,
            "C": 86.46666666666667,
            "D": 87.26666666666667,
            "E": 87.6,
            "F": 89.86666666666666
        },
        "bus2": {
            "H": 68.9375,
            "I": 67.75,
            "J": 70.3125,
            "K": 72.5,
            "L": 73.9375,
            "A": 75.25,
            "B": 76.375,
            "C": 78.5625,
            "D": 76.33333333333333,
            "E": 75.26666666666667,
            "F": 73,
            "G": 72.8
        },
        "bus0": {
            "F": 60.375,
            "G": 61.125,
            "H": 61.875,
            "I": 63.125,
            "J": 61.9375,
            "K": 61.8125,
            "L": 63.333333333333336,
            "A": 63.4,
            "B": 62.93333333333333,
            "C": 62.86666666666667,
            "D": 62,
            "E": 63
        }
    }
}