{
    "Average_holding_time": 57.714285714285715,
    "Average_travel_time_passengers": 6078.367000544792,
    "Average_speed_busses": 0.02625,
    "Average_experienced_crowding": 461.6256542884206,
    "Average_covariation_headway": 1.8862171297658643,
    "Average_covariation_headway_stops": {
        "L": 1.6313034671868607,
        "F": 1.67791743711867,
        "K": 1.7044585292538057,
        "E": 1.6518653652418787,
        "A": 1.6463230180851909,
        "G": 1.6983434764932945,
        "H": 1.7007242051438387,
        "B": 1.6294839202332558,
        "I": 1.7021093637615232,
        "C": 1.6401628434406268,
        "J": 1.6976799778254898,
        "D": 1.632740399160047
    },
    "Average_excess_waiting_time": {
        "L": 1835.5052994499104,
        "F": 1728.2390499517853,
        "K": 1810.244871847657,
        "E": 1693.821858392634,
        "A": 1629.456770284938,
        "G": 1748.210991266095,
        "H": 1775.4766868045847,
        "B": 1621.9160952659988,
        "I": 1798.7755971056824,
        "C": 1661.9679417268335,
        "J": 1812.7817442391386,
        "D": 1671.0070490867463
    },
    "Holding_per_stop": {
        "L": 58.2,
        "F": 54.339622641509436,
        "K": 55.09090909090909,
        "E": 60,
        "A": 59.411764705882355,
        "G": 58.888888888888886,
        "H": 53.888888888888886,
        "B": 62.94117647058823,
        "I": 55,
        "C": 64.70588235294117,
        "J": 53.888888888888886,
        "D": 57.05882352941177
    },
    "Load_per_bus_per_stop": {
        "bus4": {
            "L": 23.11111111111111,
            "A": 22.444444444444443,
            "B": 23.77777777777778,
            "C": 24.333333333333332,
            "D": 23.88888888888889,
            "E": 22.333333333333332,
            "F": 21.666666666666668,
            "G": 21.88888888888889,
            "H": 21.22222222222222,
            "I": 22,
            "J": 21.666666666666668,
            "K": 23.22222222222222
        },
        "bus1": {
            "F": 33.111111111111114,
            "G": 35.22222222222222,
            "H": 36.666666666666664,
            "I": 36.55555555555556,
            "J": 36.55555555555556,
            "K": 37.666666666666664,
            "L": 36.125,
            "A": 36.625,
            "B": 38.125,
            "C": 37.625,
            "D": 38.375,
            "E": 36.625
        },
        "bus3": {
            "K": 5.1,
            "L": 5.777777777777778,
            "A": 7,
            "B": 7.555555555555555,
            "C": 7.888888888888889,
            "D": 7.888888888888889,
            "E": 7.333333333333333,
            "F": 7.888888888888889,
            "G": 7.555555555555555,
            "H": 7.444444444444445,
            "I": 6.222222222222222,
            "J": 5.111111111111111
        },
        "bus0": {
            "E": 5.222222222222222,
            "F": 6.222222222222222,
            "G": 6.333333333333333,
            "H": 5.666666666666667,
            "I": 6.888888888888889,
            "J": 7.666666666666667,
            "K": 7.111111111111111,
            "L": 6.75,
            "A": 6.625,
            "B": 6.25,
            "C": 5.875,
            "D": 6.125
        },
        "bus5": {
            "A": 209.11111111111111,
            "B": 208.11111111111111,
            "C": 205.55555555555554,
            "D": 210.22222222222223,
            "E": 208.33333333333334,
            "F": 210.77777777777777,
            "G": 211.22222222222223,
            "H": 209.33333333333334,
            "I": 211.44444444444446,
            "J": 207.22222222222223,
            "K": 204,
            "L": 232.5
        },
        "bus2": {
            "G": 482.44444444444446,
            "H": 491.22222222222223,
            "I": 498.1111111111111,
            "J": 507.77777777777777,
            "K": 515.5555555555555,
            "L": 523.2222222222222,
            "A": 491.5,
            "B": 500.75,
            "C": 501,
            "D": 516.125,
            "E": 528.75,
            "F": 534.75
        }
    }
}