{
    "Average_holding_time": 16.59965034965035,
    "Average_travel_time_passengers": 2685.0604211743057,
    "Average_speed_busses": 0.04766666666666667,
    "Average_experienced_crowding": 81.15233782009088,
    "Average_covariation_headway": 0.29058522301577727,
    "Average_covariation_headway_stops": {
        "A": 0.2085764707747476,
        "L": 0.19307536109397372,
        "E": 0.22368933889231837,
        "F": 0.23508986045774827,
        "I": 0.20626607253073412,
        "K": 0.19264892033324527,
        "G": 0.21871218690133423,
        "B": 0.21623009992321562,
        "J": 0.18272076031544104,
        "H": 0.21290674189311135,
        "C": 0.21712953082322306,
        "D": 0.21042063913945924
    },
    "Average_excess_waiting_time": {
        "A": 47.25346735271171,
        "L": 46.80715866593897,
        "E": 51.81320422550135,
        "F": 52.02531057271693,
        "I": 49.92678070641625,
        "K": 48.304523896639694,
        "G": 51.2456472797673,
        "B": 50.402513950625575,
        "J": 48.89695373791915,
        "H": 52.05696093643411,
        "C": 52.582640226827834,
        "D": 53.07816333470953
    },
    "Holding_per_stop": {
        "A": 9.375,
        "L": 20,
        "F": 17.5,
        "E": 24.94736842105263,
        "K": 17.68421052631579,
        "I": 19.894736842105264,
        "G": 14.210526315789474,
        "B": 13.4375,
        "J": 11.68421052631579,
        "H": 18,
        "C": 16.736842105263158,
        "D": 15.789473684210526
    },
    "Load_per_bus_per_stop": {
        "bus5": {
            "A": 70.625,
            "B": 70.6875,
            "C": 71.5,
            "D": 71.375,
            "E": 71.375,
            "F": 72.8125,
            "G": 72.4375,
            "H": 73.5,
            "I": 74.8125,
            "J": 76.0625,
            "K": 74.875,
            "L": 75.375
        },
        "bus4": {
            "L": 71.375,
            "A": 72.5625,
            "B": 73.25,
            "C": 72.625,
            "D": 72.75,
            "E": 71.6875,
            "F": 72.5625,
            "G": 73.25,
            "H": 73.8125,
            "I": 75.0625,
            "J": 76.75,
            "K": 77.46666666666667
        },
        "bus0": {
            "E": 76.25,
            "F": 74.6875,
            "G": 75.75,
            "H": 76.875,
            "I": 76.5625,
            "J": 76.8125,
            "K": 77.4375,
            "L": 78.75,
            "A": 82.1875,
            "B": 82.3125,
            "C": 81.73333333333333,
            "D": 83
        },
        "bus1": {
            "F": 86.625,
            "G": 87.5625,
            "H": 87.375,
            "I": 88.5625,
            "J": 89.625,
            "K": 90.3125,
            "L": 90.625,
            "A": 92.6875,
            "B": 92.75,
            "C": 92.5625,
            "D": 91.625,
            "E": 94.53333333333333
        },
        "bus2": {
            "I": 83.0625,
            "J": 81.6875,
            "K": 82.25,
            "L": 82.4375,
            "A": 83.5625,
            "B": 83.625,
            "C": 83.3125,
            "D": 84.625,
            "E": 84.25,
            "F": 86.4375,
            "G": 87.625,
            "H": 89.86666666666666
        },
        "bus3": {
            "K": 71.1875,
            "L": 72.1875,
            "A": 74.6875,
            "B": 74,
            "C": 73.25,
            "D": 74.5,
            "E": 75.75,
            "F": 76.75,
            "G": 77.25,
            "H": 76.6875,
            "I": 76.4,
            "J": 75.86666666666666
        }
    }
}13333333333334
        }
    }
}