{
    "Average_holding_time": 24.777878513145964,
    "Average_travel_time_passengers": 2768.897120417163,
    "Average_speed_busses": 0.04595833333333333,
    "Average_experienced_crowding": 87.09865229465612,
    "Average_covariation_headway": 0.4340307850503973,
    "Average_covariation_headway_stops": {
        "A": 0.33228974050034504,
        "J": 0.34488394259910904,
        "F": 0.3553662299930662,
        "D": 0.34550376056900794,
        "C": 0.33675927839377207,
        "E": 0.3454851314015023,
        "G": 0.33059728093811286,
        "B": 0.32713202050957724,
        "K": 0.3327376884070895,
        "H": 0.3247940782610658,
        "I": 0.33443685879298324,
        "L": 0.3220127370545648
    },
    "Average_excess_waiting_time": {
        "A": 84.88466158909824,
        "J": 84.43425783977978,
        "F": 82.84490338465537,
        "D": 84.71375712812022,
        "C": 86.19353449944367,
        "E": 82.55938230438119,
        "G": 78.82079868600061,
        "B": 86.29643745024822,
        "K": 84.65353495239691,
        "H": 79.75384456946489,
        "I": 84.14757233366635,
        "L": 86.99520793527535
    },
    "Holding_per_stop": {
        "F": 30.967741935483872,
        "D": 25.108695652173914,
        "E": 30.322580645161292,
        "A": 18.46153846153846,
        "J": 20.543478260869566,
        "C": 31.64835164835165,
        "G": 20,
        "B": 22.087912087912088,
        "H": 22.17391304347826,
        "K": 27.391304347826086,
        "I": 22.5,
        "L": 26.043956043956044
    },
    "Load_per_bus_per_stop": {
        "bus5": {
            "A": 92.6875,
            "B": 93.6875,
            "C": 96.1875,
            "D": 97.13333333333334,
            "E": 96.6,
            "F": 96,
            "G": 95.66666666666667,
            "H": 98.06666666666666,
            "I": 97.53333333333333,
            "J": 97.06666666666666,
            "K": 96.53333333333333,
            "L": 97.53333333333333
        },
        "bus4": {
            "J": 87.1875,
            "K": 88,
            "L": 90.125,
            "A": 87.73333333333333,
            "B": 88.13333333333334,
            "C": 89.86666666666666,
            "D": 90.13333333333334,
            "E": 90.66666666666667,
            "F": 91.93333333333334,
            "G": 93.06666666666666,
            "H": 94.86666666666666,
            "I": 92.6
        },
        "bus3": {
            "F": 76.3125,
            "G": 77.9375,
            "H": 77.6875,
            "I": 79.3125,
            "J": 79.5,
            "K": 79.1875,
            "L": 82.06666666666666,
            "A": 81.06666666666666,
            "B": 81.26666666666667,
            "C": 80.86666666666666,
            "D": 82.13333333333334,
            "E": 81.06666666666666
        },
        "bus1": {
            "D": 70.6875,
            "E": 71.1875,
            "F": 71.4375,
            "G": 70.125,
            "H": 71.5625,
            "I": 72.8,
            "J": 74.26666666666667,
            "K": 73.53333333333333,
            "L": 72.06666666666666,
            "A": 72.53333333333333,
            "B": 73.2,
            "C": 72.33333333333333
        },
        "bus0": {
            "C": 83,
            "D": 85,
            "E": 86.0625,
            "F": 84.6,
            "G": 82.8,
            "H": 83.26666666666667,
            "I": 83.86666666666666,
            "J": 86.93333333333334,
            "K": 85.8,
            "L": 87.53333333333333,
            "A": 87.6,
            "B": 87.6
        },
        "bus2": {
            "E": 53.5,
            "F": 54.75,
            "G": 54.1875,
            "H": 54.8125,
            "I": 57.125,
            "J": 56.875,
            "K": 55.46666666666667,
            "L": 57,
            "A": 57.266666666666666,
            "B": 56,
            "C": 56.86666666666667,
            "D": 57.266666666666666
        }
    }
}