{
    "Average_holding_time": 13.728373702422145,
    "Average_travel_time_passengers": 2684.8322099457087,
    "Average_speed_busses": 0.04816666666666667,
    "Average_experienced_crowding": 86.74039580943112,
    "Average_covariation_headway": 0.5186802240487264,
    "Average_covariation_headway_stops": {
        "H": 0.41273639611631585,
        "C": 0.40220622283097235,
        "D": 0.40744082413221266,
        "I": 0.3966804246115828,
        "K": 0.3957456151163675,
        "A": 0.39287072653107524,
        "E": 0.41401392860051905,
        "L": 0.39145292579414775,
        "B": 0.3880437780240042,
        "J": 0.39327711386787045,
        "F": 0.40369876333613397,
        "G": 0.3886759850593704
    },
    "Average_excess_waiting_time": {
        "H": 86.79276436745022,
        "C": 81.58106682269607,
        "D": 81.00529682037819,
        "I": 81.04502493092616,
        "K": 80.23776678621448,
        "A": 78.92659852520381,
        "E": 84.62927169017377,
        "L": 79.90835157296766,
        "B": 79.75198880714919,
        "J": 81.27236251170103,
        "F": 86.18155313149151,
        "G": 82.78488604928754
    },
    "Holding_per_stop": {
        "D": 11.1340206185567,
        "I": 10.9375,
        "C": 13.608247422680412,
        "A": 8.969072164948454,
        "K": 11.75257731958763,
        "H": 15.9375,
        "E": 17.31958762886598,
        "L": 21.25,
        "B": 9.6875,
        "J": 13.4375,
        "F": 20,
        "G": 10.736842105263158
    },
    "Load_per_bus_per_stop": {
        "bus2": {
            "H": 70.1875,
            "I": 70.9375,
            "J": 71.375,
            "K": 71.5,
            "L": 71.1875,
            "A": 72,
            "B": 73.125,
            "C": 73.25,
            "D": 74.625,
            "E": 74.9375,
            "F": 76.1875,
            "G": 74.2
        },
        "bus0": {
            "C": 51.94117647058823,
            "D": 51.8125,
            "E": 52.125,
            "F": 53.625,
            "G": 54.625,
            "H": 55.5,
            "I": 53.8125,
            "J": 55.25,
            "K": 55.375,
            "L": 54.1875,
            "A": 55.0625,
            "B": 54.0625
        },
        "bus1": {
            "D": 77.70588235294117,
            "E": 78.82352941176471,
            "F": 82.75,
            "G": 83.25,
            "H": 84.4375,
            "I": 84.1875,
            "J": 83.9375,
            "K": 84.8125,
            "L": 85.75,
            "A": 87.0625,
            "B": 86.0625,
            "C": 83.375
        },
        "bus3": {
            "I": 91.3529411764706,
            "J": 88.75,
            "K": 91.4375,
            "L": 91.6875,
            "A": 92.6875,
            "B": 95.125,
            "C": 96.9375,
            "D": 97.75,
            "E": 96.875,
            "F": 98.5,
            "G": 97,
            "H": 96.8125
        },
        "bus4": {
            "K": 82.05882352941177,
            "L": 81.125,
            "A": 79.8125,
            "B": 79.625,
            "C": 80.25,
            "D": 81.75,
            "E": 83.6875,
            "F": 83.6875,
            "G": 84.3125,
            "H": 84.1875,
            "I": 85.0625,
            "J": 86.0625
        },
        "bus5": {
            "A": 74.41176470588235,
            "B": 73.5625,
            "C": 73.75,
            "D": 73.6875,
            "E": 75.0625,
            "F": 75.9375,
            "G": 76.25,
            "H": 77.5625,
            "I": 78.75,
            "J": 77.875,
            "K": 77.6875,
            "L": 78.375
        }
    }
}