{
    "Average_holding_time": 18.699551569506728,
    "Average_travel_time_passengers": 2807.020660369886,
    "Average_speed_busses": 0.04645833333333333,
    "Average_experienced_crowding": 92.91246683351568,
    "Average_covariation_headway": 0.566883611507979,
    "Average_covariation_headway_stops": {
        "A": 0.4534953160745092,
        "B": 0.46356640074030836,
        "J": 0.4577135453998872,
        "G": 0.456966895274288,
        "F": 0.43978984146479955,
        "I": 0.43911426606078213,
        "C": 0.44127481551437847,
        "H": 0.43433500357737576,
        "K": 0.4459402408161992,
        "L": 0.4331979411312539,
        "D": 0.44398088244534234,
        "E": 0.43862616800522813
    },
    "Average_excess_waiting_time": {
        "A": 109.75161530507654,
        "B": 110.30994294512891,
        "J": 107.52683794831506,
        "G": 110.68335786540473,
        "F": 107.77235820271619,
        "I": 104.48188492140861,
        "C": 108.08941410483936,
        "H": 106.11817628289731,
        "K": 105.8870744420671,
        "L": 105.3391498253821,
        "D": 110.2610723442902,
        "E": 110.99342002562042
    },
    "Holding_per_stop": {
        "B": 16.595744680851062,
        "J": 26.48936170212766,
        "G": 20.64516129032258,
        "I": 15.483870967741936,
        "A": 18.387096774193548,
        "F": 15,
        "C": 16.774193548387096,
        "H": 14.838709677419354,
        "K": 22.580645161290324,
        "L": 14.516129032258064,
        "D": 21.52173913043478,
        "E": 21.52173913043478
    },
    "Load_per_bus_per_stop": {
        "bus5": {
            "A": 70.25,
            "B": 71.5,
            "C": 72.75,
            "D": 72.75,
            "E": 74.625,
            "F": 72.93333333333334,
            "G": 72.2,
            "H": 73.2,
            "I": 72.06666666666666,
            "J": 70.4,
            "K": 73.13333333333334,
            "L": 75.13333333333334
        },
        "bus0": {
            "B": 75.3125,
            "C": 75.0625,
            "D": 75.6875,
            "E": 77.5,
            "F": 78.125,
            "G": 77.875,
            "H": 79,
            "I": 78.46666666666667,
            "J": 79.33333333333333,
            "K": 76.93333333333334,
            "L": 76.8,
            "A": 79.66666666666667
        },
        "bus4": {
            "J": 87.9375,
            "K": 90.25,
            "L": 87.75,
            "A": 89.75,
            "B": 89.375,
            "C": 90.375,
            "D": 89.26666666666667,
            "E": 89.8,
            "F": 90.46666666666667,
            "G": 91.53333333333333,
            "H": 92,
            "I": 92.66666666666667
        },
        "bus2": {
            "G": 102,
            "H": 101.75,
            "I": 103.6875,
            "J": 104,
            "K": 102.875,
            "L": 103.875,
            "A": 106.73333333333333,
            "B": 105.46666666666667,
            "C": 106.46666666666667,
            "D": 105.13333333333334,
            "E": 105.66666666666667,
            "F": 108.6
        },
        "bus1": {
            "F": 55.3125,
            "G": 55,
            "H": 56.375,
            "I": 56.375,
            "J": 57.6875,
            "K": 57.5,
            "L": 55,
            "A": 55.266666666666666,
            "B": 56.4,
            "C": 58.13333333333333,
            "D": 57.86666666666667,
            "E": 57.46666666666667
        },
        "bus3": {
            "I": 77.625,
            "J": 77.8125,
            "K": 77.25,
            "L": 78.4375,
            "A": 77.9375,
            "B": 78.875,
            "C": 82.86666666666666,
            "D": 82.2,
            "E": 83.33333333333333,
            "F": 83.13333333333334,
            "G": 83.6,
            "H": 83
        }
    }
}