{
    "Average_holding_time": 15.41958041958042,
    "Average_travel_time_passengers": 2719.5178198150356,
    "Average_speed_busses": 0.04766666666666667,
    "Average_experienced_crowding": 91.9408110883228,
    "Average_covariation_headway": 0.6088645932547481,
    "Average_covariation_headway_stops": {
        "G": 0.4765725602831332,
        "B": 0.49459681341438394,
        "D": 0.5005037820382887,
        "A": 0.46589125775343077,
        "K": 0.4824084019588197,
        "F": 0.4736443585280436,
        "C": 0.49312726844372307,
        "H": 0.4825741332421427,
        "E": 0.4679481804775412,
        "L": 0.4555849443841923,
        "I": 0.48614965166308116,
        "J": 0.4963944872558919
    },
    "Average_excess_waiting_time": {
        "G": 104.55607026363356,
        "B": 109.44499352332423,
        "D": 113.09074129548475,
        "A": 101.76210875226246,
        "K": 107.08215229918733,
        "F": 105.59332077090835,
        "C": 110.84517415242692,
        "H": 106.72114630581967,
        "E": 106.14019033729124,
        "L": 101.23374892649878,
        "I": 109.82580953454845,
        "J": 114.93740340499687
    },
    "Holding_per_stop": {
        "G": 11.875,
        "B": 11.875,
        "D": 17.8125,
        "A": 18.4375,
        "F": 18.63157894736842,
        "K": 15.157894736842104,
        "C": 17.5,
        "H": 19.57894736842105,
        "E": 12.446808510638299,
        "L": 11.052631578947368,
        "I": 12.631578947368421,
        "J": 18
    },
    "Load_per_bus_per_stop": {
        "bus3": {
            "G": 87.5,
            "H": 88.75,
            "I": 90.1875,
            "J": 92.1875,
            "K": 95.25,
            "L": 96.4375,
            "A": 97.125,
            "B": 96.375,
            "C": 96.6875,
            "D": 95.8125,
            "E": 92.6,
            "F": 94.2
        },
        "bus0": {
            "B": 69.125,
            "C": 69.3125,
            "D": 71.625,
            "E": 71.5,
            "F": 69.3125,
            "G": 70.3125,
            "H": 71.25,
            "I": 72.25,
            "J": 73.4375,
            "K": 72.8125,
            "L": 73.75,
            "A": 71.6875
        },
        "bus1": {
            "D": 65.625,
            "E": 64.25,
            "F": 64.1875,
            "G": 64.4375,
            "H": 64.5,
            "I": 67.0625,
            "J": 67.0625,
            "K": 67.8125,
            "L": 68.6875,
            "A": 69.6875,
            "B": 69.375,
            "C": 69.875
        },
        "bus5": {
            "A": 85.8125,
            "B": 84.8125,
            "C": 84.8125,
            "D": 85.25,
            "E": 86.125,
            "F": 87.625,
            "G": 90.625,
            "H": 92.875,
            "I": 94.375,
            "J": 92.5,
            "K": 92.26666666666667,
            "L": 91.66666666666667
        },
        "bus4": {
            "K": 67.9375,
            "L": 69.875,
            "A": 71.1875,
            "B": 73.375,
            "C": 76,
            "D": 74.625,
            "E": 75.5625,
            "F": 74.6875,
            "G": 73.375,
            "H": 69.4,
            "I": 68.8,
            "J": 68.8
        },
        "bus2": {
            "F": 71.375,
            "G": 73.875,
            "H": 75.875,
            "I": 73.125,
            "J": 72.875,
            "K": 73.3125,
            "L": 70.375,
            "A": 70.375,
            "B": 70.5,
            "C": 70.875,
            "D": 71.6875,
            "E": 76.13333333333334
        }
    }
} 57.0625,
            "B": 56.5,
            "C": 57.0625,
            "D": 57.1875,
            "E": 57.25
        }
    }
}66666667
        }
    }
}