{
    "Average_holding_time": 21.603188662533213,
    "Average_travel_time_passengers": 2723.943498108195,
    "Average_speed_busses": 0.04704166666666667,
    "Average_experienced_crowding": 83.77474746502044,
    "Average_covariation_headway": 0.3662285054418181,
    "Average_covariation_headway_stops": {
        "B": 0.3088790441896187,
        "D": 0.30699796133819185,
        "C": 0.29487345745318455,
        "E": 0.3021665733431835,
        "A": 0.3019460474972932,
        "G": 0.2810655314115469,
        "F": 0.2834199697767526,
        "H": 0.2858970130116549,
        "I": 0.28052208857224037,
        "J": 0.28625201697263924,
        "K": 0.28437718101110543,
        "L": 0.3035393469728364
    },
    "Average_excess_waiting_time": {
        "B": 72.4345533005918,
        "D": 68.10927828433472,
        "C": 68.27590519716051,
        "E": 65.8870904204457,
        "A": 73.02219230062417,
        "G": 61.689445327122314,
        "F": 64.1268376333224,
        "H": 64.07227452177659,
        "I": 65.02821144279591,
        "J": 67.46682309885881,
        "K": 69.67496342703777,
        "L": 75.06974209270169
    },
    "Holding_per_stop": {
        "B": 21.382978723404257,
        "D": 20.425531914893618,
        "C": 23.29787234042553,
        "E": 24,
        "G": 18.94736842105263,
        "A": 12.903225806451612,
        "F": 25.263157894736842,
        "H": 20.842105263157894,
        "I": 23.29787234042553,
        "J": 24.893617021276597,
        "K": 21.612903225806452,
        "L": 22.258064516129032
    },
    "Load_per_bus_per_stop": {
        "bus0": {
            "B": 80.625,
            "C": 82.25,
            "D": 82.5625,
            "E": 83.0625,
            "F": 83.4375,
            "G": 84.75,
            "H": 86.8125,
            "I": 85.66666666666667,
            "J": 86.66666666666667,
            "K": 88,
            "L": 87.26666666666667,
            "A": 86.86666666666666
        },
        "bus2": {
            "D": 70.875,
            "E": 70.8125,
            "F": 72.4375,
            "G": 75.3125,
            "H": 76.3125,
            "I": 77.1875,
            "J": 78.375,
            "K": 77.0625,
            "L": 77.9375,
            "A": 77.2,
            "B": 77.66666666666667,
            "C": 77
        },
        "bus1": {
            "C": 78.125,
            "D": 78.1875,
            "E": 77.875,
            "F": 78.4375,
            "G": 79.9375,
            "H": 78.25,
            "I": 76.8125,
            "J": 78.625,
            "K": 78.2,
            "L": 79.73333333333333,
            "A": 84.86666666666666,
            "B": 83.86666666666666
        },
        "bus3": {
            "E": 61.8125,
            "F": 60.0625,
            "G": 58.75,
            "H": 61.5625,
            "I": 62.875,
            "J": 64.5,
            "K": 64.25,
            "L": 66.0625,
            "A": 65.375,
            "B": 63.4375,
            "C": 65.06666666666666,
            "D": 64.53333333333333
        },
        "bus5": {
            "A": 83.875,
            "B": 83.0625,
            "C": 82.1875,
            "D": 83.25,
            "E": 82.5,
            "F": 82.875,
            "G": 84.06666666666666,
            "H": 84.2,
            "I": 88.73333333333333,
            "J": 90.53333333333333,
            "K": 92.26666666666667,
            "L": 91.2
        },
        "bus4": {
            "G": 82.6875,
            "H": 82,
            "I": 82.25,
            "J": 82.1875,
            "K": 82.1875,
            "L": 83.75,
            "A": 85.6875,
            "B": 86.25,
            "C": 88.3125,
            "D": 88.66666666666667,
            "E": 90.13333333333334,
            "F": 90.2
        }
    }
}