{
    "Average_holding_time": 30.275510204081634,
    "Average_travel_time_passengers": 3347.4223462746086,
    "Average_speed_busses": 0.04083333333333333,
    "Average_experienced_crowding": 155.22627760460668,
    "Average_covariation_headway": 0.9042738784823876,
    "Average_covariation_headway_stops": {
        "E": 0.9989417666428241,
        "D": 0.9857226436805976,
        "F": 1.0244750039418744,
        "I": 1.0353375825970466,
        "J": 0.8771918293900923,
        "L": 0.9198937269301298,
        "G": 1.0434643835515378,
        "K": 0.8900959478169962,
        "A": 0.9218854519717731,
        "H": 1.0757068603082065,
        "B": 0.9432241259799833,
        "C": 0.9488134440579598
    },
    "Average_excess_waiting_time": {
        "E": 417.1114229030739,
        "D": 410.48176872864786,
        "F": 433.7865732082502,
        "I": 494.0139501564419,
        "J": 329.32454380047176,
        "L": 355.2591084779869,
        "G": 454.9025638227902,
        "K": 341.4871031194262,
        "A": 361.2008040959208,
        "H": 487.04137194369576,
        "B": 379.40465438030714,
        "C": 386.99562062263993
    },
    "Holding_per_stop": {
        "E": 28.91566265060241,
        "F": 27.5,
        "J": 31.875,
        "L": 32.96296296296296,
        "D": 38.048780487804876,
        "I": 27.341772151898734,
        "G": 35.714285714285715,
        "K": 26.25,
        "A": 26.296296296296298,
        "H": 35.714285714285715,
        "B": 23.703703703703702,
        "C": 28.51851851851852
    },
    "Load_per_bus_per_stop": {
        "bus1": {
            "E": 72.42857142857143,
            "F": 71.42857142857143,
            "G": 72.64285714285714,
            "H": 70.71428571428571,
            "I": 72.15384615384616,
            "J": 72.76923076923077,
            "K": 72.84615384615384,
            "L": 73,
            "A": 72.6923076923077,
            "B": 75.07692307692308,
            "C": 75.6923076923077,
            "D": 78.38461538461539
        },
        "bus0": {
            "D": 54.92857142857143,
            "E": 55.142857142857146,
            "F": 55.07142857142857,
            "G": 53.714285714285715,
            "H": 54.07142857142857,
            "I": 58.38461538461539,
            "J": 57.76923076923077,
            "K": 57.84615384615385,
            "L": 58.84615384615385,
            "A": 57.15384615384615,
            "B": 56.38461538461539,
            "C": 57.07692307692308
        },
        "bus2": {
            "F": 158.92857142857142,
            "G": 161,
            "H": 165.35714285714286,
            "I": 168.42857142857142,
            "J": 142.30769230769232,
            "K": 146.3846153846154,
            "L": 150.23076923076923,
            "A": 153.46153846153845,
            "B": 156.3846153846154,
            "C": 158.30769230769232,
            "D": 160.84615384615384,
            "E": 164.46153846153845
        },
        "bus3": {
            "I": 102,
            "J": 101.71428571428571,
            "K": 101,
            "L": 101.28571428571429,
            "A": 100.85714285714286,
            "B": 100.5,
            "C": 99.78571428571429,
            "D": 99,
            "E": 101.85714285714286,
            "F": 105,
            "G": 103.71428571428571,
            "H": 104.42857142857143
        },
        "bus4": {
            "J": 48.642857142857146,
            "K": 50.285714285714285,
            "L": 51.285714285714285,
            "A": 51.57142857142857,
            "B": 52.214285714285715,
            "C": 52.142857142857146,
            "D": 52.642857142857146,
            "E": 52.714285714285715,
            "F": 51,
            "G": 49.785714285714285,
            "H": 47.714285714285715,
            "I": 51.23076923076923
        },
        "bus5": {
            "L": 80.35714285714286,
            "A": 80.21428571428571,
            "B": 80.42857142857143,
            "C": 82.07142857142857,
            "D": 84.71428571428571,
            "E": 86.57142857142857,
            "F": 85.85714285714286,
            "G": 86.42857142857143,
            "H": 87.42857142857143,
            "I": 90.76923076923077,
            "J": 87.92307692307692,
            "K": 85.61538461538461
        }
    }
}