{
    "Average_holding_time": 17.300613496932517,
    "Average_travel_time_passengers": 2668.7501939276644,
    "Average_speed_busses": 0.04754166666666667,
    "Average_experienced_crowding": 80.88652688816656,
    "Average_covariation_headway": 0.3208253058672198,
    "Average_covariation_headway_stops": {
        "A": 0.23710848201580859,
        "B": 0.2344464732726431,
        "J": 0.2464874637941178,
        "G": 0.24504864246446523,
        "F": 0.24713221468115767,
        "I": 0.23109434646643573,
        "C": 0.2324331075332151,
        "H": 0.21688348158043375,
        "K": 0.2411641476202833,
        "L": 0.2376591788264429,
        "D": 0.23151040729526817,
        "E": 0.24284173405392231
    },
    "Average_excess_waiting_time": {
        "A": 53.94859224448112,
        "B": 51.74038547883896,
        "J": 54.32007174489189,
        "G": 55.98868270421582,
        "F": 57.61378197304191,
        "I": 53.79298807828019,
        "C": 52.90345775207737,
        "H": 53.818450373072665,
        "K": 55.389447750582576,
        "L": 56.59715956442204,
        "D": 54.85561266776381,
        "E": 58.891531930626456
    },
    "Holding_per_stop": {
        "B": 16.5625,
        "J": 12.8125,
        "G": 23.05263157894737,
        "I": 15.473684210526315,
        "A": 13.263157894736842,
        "F": 13.263157894736842,
        "C": 23.05263157894737,
        "H": 22.105263157894736,
        "K": 20.842105263157894,
        "L": 18.94736842105263,
        "D": 17.36842105263158,
        "E": 10.851063829787234
    },
    "Load_per_bus_per_stop": {
        "bus5": {
            "A": 76.1875,
            "B": 75.625,
            "C": 77.25,
            "D": 77.9375,
            "E": 76.9375,
            "F": 77.375,
            "G": 78.5,
            "H": 79.0625,
            "I": 79.75,
            "J": 78.5625,
            "K": 78.4,
            "L": 79.13333333333334
        },
        "bus0": {
            "B": 78.875,
            "C": 79.75,
            "D": 79.8125,
            "E": 80.75,
            "F": 82.8125,
            "G": 85.75,
            "H": 85.75,
            "I": 85.8125,
            "J": 86.3125,
            "K": 85.375,
            "L": 83.6875,
            "A": 82.86666666666666
        },
        "bus4": {
            "J": 70.875,
            "K": 71.875,
            "L": 72.875,
            "A": 76.1875,
            "B": 74.625,
            "C": 74.875,
            "D": 74.5625,
            "E": 76.0625,
            "F": 77.4375,
            "G": 77.4375,
            "H": 77.125,
            "I": 74.86666666666666
        },
        "bus2": {
            "G": 68.375,
            "H": 68.375,
            "I": 68.8125,
            "J": 69.1875,
            "K": 70.125,
            "L": 70.5625,
            "A": 71.875,
            "B": 72.1875,
            "C": 72.0625,
            "D": 70.9375,
            "E": 71.8,
            "F": 72.2
        },
        "bus1": {
            "F": 81.8125,
            "G": 80.5,
            "H": 79.6875,
            "I": 80.1875,
            "J": 79.5625,
            "K": 82.875,
            "L": 87.1875,
            "A": 85.6875,
            "B": 86.9375,
            "C": 85.375,
            "D": 88.13333333333334,
            "E": 88.53333333333333
        },
        "bus3": {
            "I": 73.125,
            "J": 75.125,
            "K": 77.1875,
            "L": 77.875,
            "A": 78.6875,
            "B": 78.5625,
            "C": 78.875,
            "D": 79.375,
            "E": 81,
            "F": 80.3125,
            "G": 78.4,
            "H": 78.33333333333333
        }
    }
}     "H": 83.8,
            "I": 84.06666666666666,
            "J": 82.46666666666667,
            "K": 82.4
        }
    }
}6666666667,
            "H": 89.13333333333334,
            "I": 90.73333333333333
        }
    }
}