{
    "Average_holding_time": 14.02088772845953,
    "Average_travel_time_passengers": 2706.8508669008274,
    "Average_speed_busses": 0.047875,
    "Average_experienced_crowding": 93.50351659807484,
    "Average_covariation_headway": 0.6192860802787913,
    "Average_covariation_headway_stops": {
        "H": 0.5059260765487603,
        "L": 0.5176323789529897,
        "A": 0.5068261704239047,
        "G": 0.48974623147621443,
        "E": 0.47521024671975415,
        "D": 0.4760467529476611,
        "I": 0.5078997000295874,
        "F": 0.49029894991241835,
        "B": 0.5067579692010257,
        "J": 0.5037693804303017,
        "C": 0.4779893623133743,
        "K": 0.5085215977421287
    },
    "Average_excess_waiting_time": {
        "H": 107.04448327618036,
        "L": 115.12228096805376,
        "A": 115.52389688723247,
        "G": 106.0909440723143,
        "E": 101.30169702960228,
        "D": 103.04608585286297,
        "I": 109.96673797019434,
        "F": 108.02255050105691,
        "B": 119.51585221690374,
        "J": 111.12555560146319,
        "C": 105.6843807365039,
        "K": 114.09374971654046
    },
    "Holding_per_stop": {
        "H": 12.989690721649485,
        "A": 11.875,
        "E": 15,
        "L": 17.1875,
        "G": 14.0625,
        "D": 16.42105263157895,
        "I": 12.68041237113402,
        "F": 12.1875,
        "B": 13.72340425531915,
        "J": 15.625,
        "C": 12.446808510638299,
        "K": 14.0625
    },
    "Load_per_bus_per_stop": {
        "bus3": {
            "H": 59.94117647058823,
            "I": 60.1764705882353,
            "J": 61.3125,
            "K": 60.3125,
            "L": 61.1875,
            "A": 63.75,
            "B": 62.9375,
            "C": 64.3125,
            "D": 64.625,
            "E": 63.0625,
            "F": 64.1875,
            "G": 64.5
        },
        "bus4": {
            "L": 66.6470588235294,
            "A": 70.625,
            "B": 70.4375,
            "C": 67.875,
            "D": 67.5625,
            "E": 68.5,
            "F": 69.125,
            "G": 71.375,
            "H": 68.9375,
            "I": 70.9375,
            "J": 71,
            "K": 70.6875
        },
        "bus5": {
            "A": 60.5,
            "B": 62.5625,
            "C": 63.5625,
            "D": 64.5625,
            "E": 64.8125,
            "F": 64.4375,
            "G": 64.6875,
            "H": 62.875,
            "I": 63,
            "J": 63.375,
            "K": 63.5625,
            "L": 62.125
        },
        "bus2": {
            "G": 71.11764705882354,
            "H": 69.5625,
            "I": 72.25,
            "J": 72,
            "K": 71.8125,
            "L": 73.4375,
            "A": 74.9375,
            "B": 75.625,
            "C": 75.4375,
            "D": 73.6875,
            "E": 74.6875,
            "F": 73.75
        },
        "bus1": {
            "E": 91.0625,
            "F": 92.5,
            "G": 93.375,
            "H": 94.4375,
            "I": 95.0625,
            "J": 94,
            "K": 93.9375,
            "L": 92.875,
            "A": 94.8125,
            "B": 98.4375,
            "C": 95,
            "D": 96.86666666666666
        },
        "bus0": {
            "D": 93.0625,
            "E": 94.8125,
            "F": 97.5,
            "G": 97.875,
            "H": 101.375,
            "I": 101.6875,
            "J": 101.375,
            "K": 102.6875,
            "L": 102.875,
            "A": 103.3125,
            "B": 101.26666666666667,
            "C": 100.6
        }
    }
}          "G": 113.06666666666666,
            "H": 114.2,
            "I": 116.06666666666666,
            "J": 118.26666666666667,
            "K": 118.66666666666667
        }
    }
}