{
    "Average_holding_time": 18.375992939099735,
    "Average_travel_time_passengers": 2690.082110566265,
    "Average_speed_busses": 0.04720833333333333,
    "Average_experienced_crowding": 81.10033350825852,
    "Average_covariation_headway": 0.34965004131892696,
    "Average_covariation_headway_stops": {
        "H": 0.2766138042056606,
        "F": 0.27354770353457547,
        "E": 0.2864135014814789,
        "I": 0.26688494481535385,
        "D": 0.29412870628332555,
        "B": 0.2958270332967924,
        "G": 0.26256446336877376,
        "J": 0.25838658169173373,
        "C": 0.29699013689209675,
        "K": 0.2367216006047653,
        "L": 0.24872731505734727,
        "A": 0.27238448805155796
    },
    "Average_excess_waiting_time": {
        "H": 61.05564203499472,
        "F": 60.70180345126232,
        "E": 64.73735885848112,
        "I": 57.62592345177626,
        "D": 68.99336485861932,
        "B": 68.49260148759146,
        "G": 60.54849966736566,
        "J": 57.81453254587797,
        "C": 70.35942231516378,
        "K": 56.188060120366,
        "L": 60.783583463297305,
        "A": 66.31266961483618
    },
    "Holding_per_stop": {
        "F": 18.63157894736842,
        "E": 17.23404255319149,
        "I": 16.875,
        "H": 18.31578947368421,
        "D": 22.02127659574468,
        "G": 14.842105263157896,
        "B": 19.148936170212767,
        "J": 21.473684210526315,
        "K": 17.36842105263158,
        "C": 22.903225806451612,
        "L": 20.106382978723403,
        "A": 11.612903225806452
    },
    "Load_per_bus_per_stop": {
        "bus4": {
            "H": 62.1875,
            "I": 63.375,
            "J": 63.375,
            "K": 65.75,
            "L": 66.3125,
            "A": 66.1875,
            "B": 64.4375,
            "C": 63.1875,
            "D": 63.875,
            "E": 64.13333333333334,
            "F": 64.13333333333334,
            "G": 65.66666666666667
        },
        "bus3": {
            "F": 72.625,
            "G": 73.875,
            "H": 75.0625,
            "I": 76.0625,
            "J": 76.0625,
            "K": 77.875,
            "L": 76.6875,
            "A": 76.625,
            "B": 75.8125,
            "C": 76.4375,
            "D": 75.6,
            "E": 75.33333333333333
        },
        "bus2": {
            "E": 78.1875,
            "F": 80.1875,
            "G": 80.75,
            "H": 80.9375,
            "I": 81.3125,
            "J": 81.6875,
            "K": 80.4375,
            "L": 80.125,
            "A": 79.875,
            "B": 81.2,
            "C": 81.26666666666667,
            "D": 81.66666666666667
        },
        "bus5": {
            "I": 75.875,
            "J": 75.8125,
            "K": 77.125,
            "L": 77.375,
            "A": 77.8125,
            "B": 77.9375,
            "C": 79.0625,
            "D": 78.125,
            "E": 77.875,
            "F": 78.9375,
            "G": 81.375,
            "H": 81.86666666666666
        },
        "bus1": {
            "D": 73.1875,
            "E": 75.25,
            "F": 77.625,
            "G": 79.125,
            "H": 78.9375,
            "I": 78.125,
            "J": 77.1875,
            "K": 78.875,
            "L": 77.73333333333333,
            "A": 78.93333333333334,
            "B": 78.8,
            "C": 78
        },
        "bus0": {
            "B": 87.125,
            "C": 87.5,
            "D": 86.5,
            "E": 87.875,
            "F": 88.375,
            "G": 88.6875,
            "H": 89.3125,
            "I": 88.125,
            "J": 89.93333333333334,
            "K": 91.06666666666666,
            "L": 92.33333333333333,
            "A": 91.06666666666666
        }
    }
}