{
    "Average_holding_time": 16.310679611650485,
    "Average_travel_time_passengers": 2783.4805980158294,
    "Average_speed_busses": 0.04720833333333333,
    "Average_experienced_crowding": 96.14170625764747,
    "Average_covariation_headway": 0.6539615140824266,
    "Average_covariation_headway_stops": {
        "A": 0.5271041418397604,
        "J": 0.533784624316229,
        "F": 0.529156641017491,
        "D": 0.5305687735665356,
        "C": 0.5227710230951965,
        "E": 0.5140218258970017,
        "G": 0.5073573683176797,
        "B": 0.5316947671706403,
        "K": 0.5311033910988124,
        "H": 0.5188570287990816,
        "L": 0.5324399507839934,
        "I": 0.5310110448605687
    },
    "Average_excess_waiting_time": {
        "A": 125.59455395894997,
        "J": 126.39550346429616,
        "F": 122.83245475127222,
        "D": 127.28754724566778,
        "C": 127.20247899257936,
        "E": 118.63332096327457,
        "G": 117.70451386260885,
        "B": 131.00586737928296,
        "K": 127.51100762557553,
        "H": 121.08985520417781,
        "L": 130.00819077305584,
        "I": 127.4982297700356
    },
    "Holding_per_stop": {
        "F": 19.57894736842105,
        "D": 15.473684210526315,
        "E": 15.638297872340425,
        "A": 15.157894736842104,
        "J": 18.63157894736842,
        "C": 11.48936170212766,
        "G": 9.473684210526315,
        "K": 22.340425531914892,
        "B": 15,
        "H": 15,
        "L": 21.382978723404257,
        "I": 16.595744680851062
    },
    "Load_per_bus_per_stop": {
        "bus5": {
            "A": 69.5625,
            "B": 68.1875,
            "C": 69.375,
            "D": 71.125,
            "E": 71.8125,
            "F": 72.4375,
            "G": 72.5625,
            "H": 71.66666666666667,
            "I": 73.4,
            "J": 73.53333333333333,
            "K": 73,
            "L": 74.6
        },
        "bus4": {
            "J": 94.875,
            "K": 95.75,
            "L": 98.25,
            "A": 98.0625,
            "B": 100.9375,
            "C": 102.3125,
            "D": 102.875,
            "E": 99.2,
            "F": 98.53333333333333,
            "G": 97.86666666666666,
            "H": 99.06666666666666,
            "I": 99.2
        },
        "bus3": {
            "F": 97.8125,
            "G": 98.0625,
            "H": 97.125,
            "I": 97.25,
            "J": 99.4375,
            "K": 99.5625,
            "L": 99.8125,
            "A": 100.875,
            "B": 100.9375,
            "C": 100.25,
            "D": 101.1875,
            "E": 105.2
        },
        "bus1": {
            "D": 63.875,
            "E": 62.75,
            "F": 64.5625,
            "G": 63.0625,
            "H": 64.0625,
            "I": 63.9375,
            "J": 61.375,
            "K": 62.1875,
            "L": 61.5,
            "A": 62.875,
            "B": 66.4,
            "C": 67.8
        },
        "bus0": {
            "C": 52.9375,
            "D": 52.75,
            "E": 52.6875,
            "F": 52.8125,
            "G": 53.5,
            "H": 54.25,
            "I": 55.3125,
            "J": 56.125,
            "K": 56.06666666666667,
            "L": 55.666666666666664,
            "A": 55.666666666666664,
            "B": 54.93333333333333
        },
        "bus2": {
            "E": 78.5,
            "F": 79.5625,
            "G": 82,
            "H": 82.4375,
            "I": 82.125,
            "J": 82.6875,
            "K": 83.0625,
            "L": 83.25,
            "A": 83.3125,
            "B": 83.9375,
            "C": 84.8,
            "D": 84.6
        }
    }
}