{
    "Average_holding_time": 35.74374079528719,
    "Average_travel_time_passengers": 6088.231046864197,
    "Average_speed_busses": 0.028291666666666666,
    "Average_experienced_crowding": 515.876164327362,
    "Average_covariation_headway": 1.9352933290062244,
    "Average_covariation_headway_stops": {
        "G": 1.8800476126589956,
        "L": 1.8795019209021029,
        "C": 1.8959488881209654,
        "I": 1.872028051723345,
        "F": 1.83052407575206,
        "D": 1.9168962354547805,
        "H": 1.8680512496057848,
        "A": 1.8745770929223107,
        "J": 1.8669341392993684,
        "E": 1.9076880979288469,
        "K": 1.8709385588047527,
        "B": 1.8617982978855128
    },
    "Average_excess_waiting_time": {
        "G": 1901.2764153892479,
        "L": 1945.8652145301942,
        "C": 2010.0495398033806,
        "I": 1896.1813813584606,
        "F": 2058.3376428493393,
        "D": 2037.1935180781004,
        "H": 1904.653419213623,
        "A": 1959.8243156560623,
        "J": 1910.7997268434694,
        "E": 2042.348251061558,
        "K": 1946.3167023196131,
        "B": 1958.1634986472593
    },
    "Holding_per_stop": {
        "G": 32.72727272727273,
        "L": 38.94736842105263,
        "I": 33.214285714285715,
        "D": 36.101694915254235,
        "C": 38.275862068965516,
        "F": 33.888888888888886,
        "H": 39.81818181818182,
        "J": 36.42857142857143,
        "A": 32.63157894736842,
        "E": 33.559322033898304,
        "K": 35.892857142857146,
        "B": 37.36842105263158
    },
    "Load_per_bus_per_stop": {
        "bus3": {
            "G": 88.7,
            "H": 90.1,
            "I": 88.4,
            "J": 90,
            "K": 89.5,
            "L": 91.5,
            "A": 93.2,
            "B": 91,
            "C": 92.2,
            "D": 92.8,
            "E": 90.5,
            "F": 98.55555555555556
        },
        "bus5": {
            "L": 20,
            "A": 20,
            "B": 19.9,
            "C": 20.4,
            "D": 21.6,
            "E": 22,
            "F": 23.333333333333332,
            "G": 22.77777777777778,
            "H": 23.22222222222222,
            "I": 23.333333333333332,
            "J": 23.11111111111111,
            "K": 22.333333333333332
        },
        "bus0": {
            "C": 11.5,
            "D": 11.2,
            "E": 11.6,
            "F": 11.777777777777779,
            "G": 13.555555555555555,
            "H": 14.555555555555555,
            "I": 14.333333333333334,
            "J": 14.444444444444445,
            "K": 13.777777777777779,
            "L": 13,
            "A": 13.333333333333334,
            "B": 12.555555555555555
        },
        "bus4": {
            "I": 36.8,
            "J": 37.6,
            "K": 38.8,
            "L": 39,
            "A": 38.7,
            "B": 38.2,
            "C": 38.7,
            "D": 40.7,
            "E": 41,
            "F": 44.22222222222222,
            "G": 44.666666666666664,
            "H": 42.666666666666664
        },
        "bus2": {
            "F": 526.9,
            "G": 499.44444444444446,
            "H": 508.77777777777777,
            "I": 520,
            "J": 520.3333333333334,
            "K": 521.2222222222222,
            "L": 530.6666666666666,
            "A": 539.8888888888889,
            "B": 547.2222222222222,
            "C": 556,
            "D": 563.2222222222222,
            "E": 577.2222222222222
        },
        "bus1": {
            "D": 41.3,
            "E": 42.5,
            "F": 43.44444444444444,
            "G": 44.888888888888886,
            "H": 45,
            "I": 46.888888888888886,
            "J": 48.333333333333336,
            "K": 47.888888888888886,
            "L": 46.666666666666664,
            "A": 46,
            "B": 47.55555555555556,
            "C": 46.22222222222222
        }
    }
}