{
    "Average_holding_time": 41.30620985010707,
    "Average_travel_time_passengers": 9619.282924050813,
    "Average_speed_busses": 0.019458333333333334,
    "Average_experienced_crowding": 884.3251642128832,
    "Average_covariation_headway": 2.3129607969734267,
    "Average_covariation_headway_stops": {
        "B": 2.160533350308893,
        "E": 2.1753755754731925,
        "G": 2.193241248847641,
        "C": 2.1712725379797386,
        "F": 2.176728006235573,
        "H": 2.1940644493025094,
        "D": 2.1516578070846664,
        "I": 2.1890089458168,
        "J": 2.172843082402674,
        "K": 2.041222572741611,
        "L": 2.1696430387471466,
        "A": 2.148330455050505
    },
    "Average_excess_waiting_time": {
        "B": 3637.6675440494446,
        "E": 3680.226154053,
        "G": 3670.0615185163415,
        "C": 3641.445685071477,
        "F": 3655.285287503726,
        "H": 3645.672550887167,
        "D": 3643.5614052994006,
        "I": 3692.822045346356,
        "J": 3706.0782966584634,
        "K": 3811.062765679208,
        "L": 3632.1788665569024,
        "A": 3638.9495548835102
    },
    "Holding_per_stop": {
        "G": 38.048780487804876,
        "C": 40.26315789473684,
        "F": 42,
        "B": 44.5945945945946,
        "E": 43.07692307692308,
        "H": 39.285714285714285,
        "D": 40.26315789473684,
        "I": 39.285714285714285,
        "J": 41.42857142857143,
        "K": 42.5,
        "L": 43.333333333333336,
        "A": 42.5
    },
    "Load_per_bus_per_stop": {
        "bus0": {
            "B": 31,
            "C": 31.857142857142858,
            "D": 34.42857142857143,
            "E": 31.571428571428573,
            "F": 32.285714285714285,
            "G": 32.857142857142854,
            "H": 34,
            "I": 34.42857142857143,
            "J": 33.714285714285715,
            "K": 38.666666666666664,
            "L": 39.5,
            "A": 37.166666666666664
        },
        "bus2": {
            "E": 4.142857142857143,
            "F": 4.857142857142857,
            "G": 5.571428571428571,
            "H": 7.285714285714286,
            "I": 8.714285714285714,
            "J": 9,
            "K": 9.666666666666666,
            "L": 9,
            "A": 7.333333333333333,
            "B": 6.333333333333333,
            "C": 5.333333333333333,
            "D": 4.5
        },
        "bus4": {
            "G": 58.714285714285715,
            "H": 61.42857142857143,
            "I": 63.857142857142854,
            "J": 64.28571428571429,
            "K": 62,
            "L": 63.833333333333336,
            "A": 65.66666666666667,
            "B": 63.5,
            "C": 64,
            "D": 65.83333333333333,
            "E": 65.5,
            "F": 66.33333333333333
        },
        "bus1": {
            "C": 10.571428571428571,
            "D": 10.571428571428571,
            "E": 10.428571428571429,
            "F": 10.285714285714286,
            "G": 10.285714285714286,
            "H": 9.285714285714286,
            "I": 10.142857142857142,
            "J": 9.285714285714286,
            "K": 11,
            "L": 11.666666666666666,
            "A": 13,
            "B": 12.666666666666666
        },
        "bus3": {
            "F": 6.142857142857143,
            "G": 6.285714285714286,
            "H": 7.571428571428571,
            "I": 6.857142857142857,
            "J": 7.428571428571429,
            "K": 7.5,
            "L": 8.166666666666666,
            "A": 7.5,
            "B": 7.5,
            "C": 7.5,
            "D": 6.5,
            "E": 6
        },
        "bus5": {
            "H": 848.4285714285714,
            "I": 860.7142857142857,
            "J": 881.4285714285714,
            "K": 892.4285714285714,
            "L": 839.6666666666666,
            "A": 859.1666666666666,
            "B": 879.5,
            "C": 908.3333333333334,
            "D": 924.8333333333334,
            "E": 935.8333333333334,
            "F": 952,
            "G": 966.6666666666666
        }
    }
}