{
    "Average_holding_time": 20.64721969006381,
    "Average_travel_time_passengers": 2868.8450238844607,
    "Average_speed_busses": 0.04570833333333333,
    "Average_experienced_crowding": 106.22216922170766,
    "Average_covariation_headway": 0.7347770918052473,
    "Average_covariation_headway_stops": {
        "E": 0.6046552601691769,
        "H": 0.5960262790579911,
        "A": 0.5761826392809907,
        "B": 0.5774351472788668,
        "F": 0.5950831910472477,
        "K": 0.5874994246194518,
        "I": 0.5932859600804752,
        "C": 0.5933172835263629,
        "L": 0.5817370558022634,
        "G": 0.5839723691133245,
        "J": 0.5896067560706784,
        "D": 0.5890475459891695
    },
    "Average_excess_waiting_time": {
        "E": 171.041697479461,
        "H": 160.59135034534535,
        "A": 154.5975343910912,
        "B": 152.39731476292326,
        "F": 160.69414160338619,
        "K": 158.04334948478294,
        "I": 161.5050838507699,
        "C": 163.585197381517,
        "L": 158.09782734017517,
        "G": 158.48417475399765,
        "J": 161.79254067848422,
        "D": 167.34269557318123
    },
    "Holding_per_stop": {
        "H": 16.956521739130434,
        "B": 14.193548387096774,
        "A": 18.26086956521739,
        "F": 18.791208791208792,
        "E": 25.714285714285715,
        "K": 24.130434782608695,
        "I": 22.5,
        "C": 23.406593406593405,
        "L": 19.78021978021978,
        "G": 22.087912087912088,
        "J": 18.791208791208792,
        "D": 23.333333333333332
    },
    "Load_per_bus_per_stop": {
        "bus1": {
            "E": 113.8125,
            "F": 115.2,
            "G": 116.6,
            "H": 119.13333333333334,
            "I": 121.26666666666667,
            "J": 119.13333333333334,
            "K": 119.6,
            "L": 118.86666666666666,
            "A": 117.73333333333333,
            "B": 119.33333333333333,
            "C": 117.8,
            "D": 121.86666666666666
        },
        "bus3": {
            "H": 79.875,
            "I": 81.4375,
            "J": 81.625,
            "K": 81.4375,
            "L": 83.875,
            "A": 83.33333333333333,
            "B": 82.73333333333333,
            "C": 81.73333333333333,
            "D": 83.8,
            "E": 83.66666666666667,
            "F": 84.33333333333333,
            "G": 84.86666666666666
        },
        "bus5": {
            "A": 21.375,
            "B": 21.5,
            "C": 21.1875,
            "D": 21.2,
            "E": 21.266666666666666,
            "F": 21.4,
            "G": 20.8,
            "H": 20.333333333333332,
            "I": 21.533333333333335,
            "J": 21.866666666666667,
            "K": 22.066666666666666,
            "L": 22.2
        },
        "bus0": {
            "B": 117.9375,
            "C": 117.625,
            "D": 120.26666666666667,
            "E": 119.93333333333334,
            "F": 122.06666666666666,
            "G": 122.86666666666666,
            "H": 125.06666666666666,
            "I": 126.4,
            "J": 128.26666666666668,
            "K": 129.2,
            "L": 126.73333333333333,
            "A": 126.06666666666666
        },
        "bus2": {
            "F": 94.8125,
            "G": 97.875,
            "H": 96.375,
            "I": 96,
            "J": 95.33333333333333,
            "K": 95.73333333333333,
            "L": 97.4,
            "A": 99.53333333333333,
            "B": 98.53333333333333,
            "C": 100.2,
            "D": 101.53333333333333,
            "E": 102.13333333333334
        },
        "bus4": {
            "K": 36.8125,
            "L": 36.75,
            "A": 37.5,
            "B": 39.0625,
            "C": 40.53333333333333,
            "D": 40.06666666666667,
            "E": 39.4,
            "F": 37.2,
            "G": 37,
            "H": 37.333333333333336,
            "I": 37.6,
            "J": 38.6
        }
    }
}