{
    "Average_holding_time": 11.556319862424763,
    "Average_travel_time_passengers": 2641.357315080484,
    "Average_speed_busses": 0.04845833333333333,
    "Average_experienced_crowding": 85.0813516125702,
    "Average_covariation_headway": 0.5089788384285957,
    "Average_covariation_headway_stops": {
        "G": 0.3850342713539936,
        "E": 0.3745963846944513,
        "A": 0.38306151792232973,
        "C": 0.3830707405912223,
        "L": 0.37493331779724176,
        "H": 0.3835297325672132,
        "B": 0.36967973696074075,
        "F": 0.36207929153918145,
        "I": 0.38028446795638027,
        "D": 0.3755975249407437,
        "J": 0.36142245649590304,
        "K": 0.3722706985871854
    },
    "Average_excess_waiting_time": {
        "G": 75.10110223341746,
        "E": 74.48411088257234,
        "A": 74.27819468475508,
        "C": 74.18616168062891,
        "L": 75.47272189235025,
        "H": 72.97837432574886,
        "B": 73.24470731472013,
        "F": 71.92680580985842,
        "I": 74.41563559608187,
        "D": 74.43922485867057,
        "J": 71.35283773698069,
        "K": 75.61611530043382
    },
    "Holding_per_stop": {
        "E": 10.515463917525773,
        "C": 9.587628865979381,
        "A": 9.587628865979381,
        "G": 16.701030927835053,
        "L": 10.824742268041238,
        "H": 14.693877551020408,
        "B": 8.041237113402062,
        "F": 13.125,
        "I": 10.515463917525773,
        "D": 13.917525773195877,
        "J": 11.443298969072165,
        "K": 9.6875
    },
    "Load_per_bus_per_stop": {
        "bus2": {
            "G": 79.11764705882354,
            "H": 78.52941176470588,
            "I": 79,
            "J": 78.1875,
            "K": 77.75,
            "L": 76.8125,
            "A": 78,
            "B": 79.4375,
            "C": 79.875,
            "D": 82.4375,
            "E": 81.1875,
            "F": 81
        },
        "bus1": {
            "E": 78.17647058823529,
            "F": 79.8125,
            "G": 81.6875,
            "H": 83.375,
            "I": 85.75,
            "J": 87.6875,
            "K": 87.1875,
            "L": 85.4375,
            "A": 86.375,
            "B": 85.6875,
            "C": 83.5625,
            "D": 81.8125
        },
        "bus5": {
            "A": 54.88235294117647,
            "B": 56.64705882352941,
            "C": 58.294117647058826,
            "D": 58,
            "E": 58.25,
            "F": 60.4375,
            "G": 60.875,
            "H": 61.5625,
            "I": 59.5,
            "J": 59.125,
            "K": 57.625,
            "L": 58.1875
        },
        "bus0": {
            "C": 85.6470588235294,
            "D": 86.88235294117646,
            "E": 89.75,
            "F": 90.5,
            "G": 91.25,
            "H": 91.8125,
            "I": 93.4375,
            "J": 94.875,
            "K": 93.6875,
            "L": 94,
            "A": 93.4375,
            "B": 92.1875
        },
        "bus4": {
            "L": 65.70588235294117,
            "A": 64.625,
            "B": 65.4375,
            "C": 66.6875,
            "D": 66.625,
            "E": 67.6875,
            "F": 67.9375,
            "G": 67.125,
            "H": 68.4375,
            "I": 68.9375,
            "J": 67.875,
            "K": 67.25
        },
        "bus3": {
            "H": 73,
            "I": 73.11764705882354,
            "J": 75.23529411764706,
            "K": 77.23529411764706,
            "L": 79.25,
            "A": 79.5625,
            "B": 79.875,
            "C": 77.8125,
            "D": 79.1875,
            "E": 78.125,
            "F": 79.1875,
            "G": 79.625
        }
    }
}