{
    "Average_holding_time": 15.197889182058047,
    "Average_travel_time_passengers": 2752.6249853454733,
    "Average_speed_busses": 0.047375,
    "Average_experienced_crowding": 91.59426791012709,
    "Average_covariation_headway": 0.5675799619623938,
    "Average_covariation_headway_stops": {
        "I": 0.44276821429418206,
        "D": 0.4476695384601325,
        "K": 0.4482817028814308,
        "J": 0.4456336410502318,
        "H": 0.4480751552198624,
        "A": 0.44052652279978405,
        "E": 0.4408462812984227,
        "B": 0.44885790005967696,
        "L": 0.44678884359632737,
        "C": 0.4457588912762074,
        "F": 0.44457716839311123,
        "G": 0.4403772524791854
    },
    "Average_excess_waiting_time": {
        "I": 101.2422417256065,
        "D": 99.95077268174867,
        "K": 97.59806984811962,
        "J": 99.99023298849875,
        "H": 106.0303030900962,
        "A": 94.69438163771775,
        "E": 99.93085332271687,
        "B": 99.40912050014981,
        "L": 98.75533700086112,
        "C": 100.44868468402632,
        "F": 103.38035815512023,
        "G": 104.10116779328132
    },
    "Holding_per_stop": {
        "I": 15.319148936170214,
        "D": 16.736842105263158,
        "K": 17.68421052631579,
        "J": 14.210526315789474,
        "A": 13.125,
        "H": 17.23404255319149,
        "E": 14.842105263157896,
        "B": 11.368421052631579,
        "L": 16.736842105263158,
        "C": 15.157894736842104,
        "F": 15,
        "G": 15
    },
    "Load_per_bus_per_stop": {
        "bus2": {
            "I": 91.125,
            "J": 91.5625,
            "K": 91.8125,
            "L": 93.75,
            "A": 94.125,
            "B": 93,
            "C": 93.6875,
            "D": 95.5625,
            "E": 96.3125,
            "F": 97.73333333333333,
            "G": 97.2,
            "H": 97.8
        },
        "bus0": {
            "D": 58.5625,
            "E": 59,
            "F": 59.5,
            "G": 60.9375,
            "H": 61.6875,
            "I": 62.5625,
            "J": 61.5625,
            "K": 63.0625,
            "L": 63.75,
            "A": 64.75,
            "B": 62.53333333333333,
            "C": 63.13333333333333
        },
        "bus4": {
            "K": 74.75,
            "L": 78.1875,
            "A": 78.0625,
            "B": 79.1875,
            "C": 80,
            "D": 79.25,
            "E": 80.25,
            "F": 81.4375,
            "G": 80,
            "H": 80,
            "I": 78.86666666666666,
            "J": 78.26666666666667
        },
        "bus3": {
            "J": 75.8125,
            "K": 75.4375,
            "L": 78.3125,
            "A": 77.5,
            "B": 79,
            "C": 80,
            "D": 81.4375,
            "E": 81.8125,
            "F": 81.4375,
            "G": 81.625,
            "H": 83.93333333333334,
            "I": 81.8
        },
        "bus1": {
            "H": 101.5625,
            "I": 102.5,
            "J": 103.875,
            "K": 104.8125,
            "L": 106.5625,
            "A": 106.1875,
            "B": 105.0625,
            "C": 106.125,
            "D": 106.8,
            "E": 109,
            "F": 109.06666666666666,
            "G": 108.6
        },
        "bus5": {
            "A": 49.4375,
            "B": 47.5,
            "C": 48.625,
            "D": 47,
            "E": 47.5625,
            "F": 46.125,
            "G": 46.1875,
            "H": 49.125,
            "I": 51.8125,
            "J": 53.8125,
            "K": 51.46666666666667,
            "L": 51.86666666666667
        }
    }
}