{
    "Average_holding_time": 61.23664122137404,
    "Average_travel_time_passengers": 5693.100125366693,
    "Average_speed_busses": 0.027291666666666665,
    "Average_experienced_crowding": 424.65066345676934,
    "Average_covariation_headway": 1.70931915551392,
    "Average_covariation_headway_stops": {
        "C": 1.694026888718476,
        "B": 1.6693303930436894,
        "H": 1.6084785266803758,
        "F": 1.7507234383249535,
        "E": 1.738075459641592,
        "J": 1.6432326353632618,
        "D": 1.7095228809182907,
        "I": 1.6113010795195155,
        "K": 1.6377669572069777,
        "G": 1.5844905558793785,
        "L": 1.6392568265994183,
        "A": 1.6440060385060211
    },
    "Average_excess_waiting_time": {
        "C": 1686.452400568461,
        "B": 1651.417468011775,
        "H": 1461.5854981480343,
        "F": 1797.8864186673702,
        "E": 1783.0143359727774,
        "J": 1531.975286173151,
        "D": 1741.8507431398016,
        "I": 1490.6761851452313,
        "K": 1550.9815838353236,
        "G": 1428.3934007473085,
        "L": 1583.1127132179301,
        "A": 1617.7879799439856
    },
    "Holding_per_stop": {
        "C": 65.89285714285714,
        "H": 61.698113207547166,
        "E": 57.36842105263158,
        "F": 64.73684210526316,
        "J": 56.111111111111114,
        "B": 64.36363636363636,
        "D": 62.67857142857143,
        "I": 63.9622641509434,
        "K": 52.77777777777778,
        "G": 64.03846153846153,
        "L": 63.888888888888886,
        "A": 57.22222222222222
    },
    "Load_per_bus_per_stop": {
        "bus1": {
            "C": 42.2,
            "D": 43.1,
            "E": 43.1,
            "F": 41.9,
            "G": 45.666666666666664,
            "H": 45.44444444444444,
            "I": 45,
            "J": 45.77777777777778,
            "K": 47.333333333333336,
            "L": 46.888888888888886,
            "A": 46,
            "B": 46
        },
        "bus0": {
            "B": 166.2,
            "C": 165.8,
            "D": 164.8,
            "E": 164.2,
            "F": 165.4,
            "G": 180.33333333333334,
            "H": 179.22222222222223,
            "I": 179.33333333333334,
            "J": 182.88888888888889,
            "K": 183.44444444444446,
            "L": 180.77777777777777,
            "A": 184.44444444444446
        },
        "bus4": {
            "H": 37.666666666666664,
            "I": 41.44444444444444,
            "J": 42.22222222222222,
            "K": 43.22222222222222,
            "L": 46.333333333333336,
            "A": 44.888888888888886,
            "B": 44.22222222222222,
            "C": 43.666666666666664,
            "D": 46.333333333333336,
            "E": 45.55555555555556,
            "F": 44.333333333333336,
            "G": 40.375
        },
        "bus3": {
            "F": 20.9,
            "G": 23.22222222222222,
            "H": 24.666666666666668,
            "I": 22.333333333333332,
            "J": 22.333333333333332,
            "K": 24.444444444444443,
            "L": 23.77777777777778,
            "A": 22.666666666666668,
            "B": 23,
            "C": 25,
            "D": 24.11111111111111,
            "E": 23.444444444444443
        },
        "bus2": {
            "E": 13.5,
            "F": 13.9,
            "G": 14.444444444444445,
            "H": 14.444444444444445,
            "I": 13.88888888888889,
            "J": 15.11111111111111,
            "K": 15.88888888888889,
            "L": 15.444444444444445,
            "A": 16.11111111111111,
            "B": 15.222222222222221,
            "C": 13.88888888888889,
            "D": 13.88888888888889
        },
        "bus5": {
            "J": 406.77777777777777,
            "K": 411.44444444444446,
            "L": 426.22222222222223,
            "A": 439.3333333333333,
            "B": 448.55555555555554,
            "C": 456,
            "D": 465.44444444444446,
            "E": 477.1111111111111,
            "F": 491.1111111111111,
            "G": 430.25,
            "H": 444.875,
            "I": 453.5
        }
    }
}