{
    "Average_holding_time": 17.693661971830984,
    "Average_travel_time_passengers": 2778.925197064298,
    "Average_speed_busses": 0.04733333333333333,
    "Average_experienced_crowding": 98.36315020374718,
    "Average_covariation_headway": 0.667302052797838,
    "Average_covariation_headway_stops": {
        "L": 0.5409689354052185,
        "A": 0.5407196840655679,
        "D": 0.5514169062035046,
        "G": 0.5603517368219034,
        "C": 0.557112309396246,
        "B": 0.5393233585936527,
        "H": 0.5367984867319505,
        "E": 0.5439814785229278,
        "I": 0.5316850699760306,
        "F": 0.5461209392520749,
        "J": 0.5308003074333624,
        "K": 0.5458559400177596
    },
    "Average_excess_waiting_time": {
        "L": 133.83628910565676,
        "A": 131.82287833427108,
        "D": 127.05562077759811,
        "G": 132.6273444997815,
        "C": 131.3729698553521,
        "B": 129.30736671858602,
        "H": 127.48171603482803,
        "E": 126.68875570327577,
        "I": 127.83204321527722,
        "F": 128.92239691321384,
        "J": 133.42187912794316,
        "K": 140.9637243156962
    },
    "Holding_per_stop": {
        "A": 15,
        "G": 20.3125,
        "C": 21.473684210526315,
        "B": 16.736842105263158,
        "L": 13.870967741935484,
        "D": 22.1875,
        "H": 15.789473684210526,
        "E": 16.5625,
        "I": 13.578947368421053,
        "F": 16.42105263157895,
        "J": 16.451612903225808,
        "K": 23.870967741935484
    },
    "Load_per_bus_per_stop": {
        "bus4": {
            "L": 93.0625,
            "A": 92.4375,
            "B": 93.25,
            "C": 93.8125,
            "D": 94.6875,
            "E": 93.5625,
            "F": 92.625,
            "G": 92.1875,
            "H": 97.46666666666667,
            "I": 98.93333333333334,
            "J": 97.73333333333333,
            "K": 98.66666666666667
        },
        "bus5": {
            "A": 90.5625,
            "B": 88.8125,
            "C": 89.8125,
            "D": 90.125,
            "E": 90.4375,
            "F": 91.375,
            "G": 89.4375,
            "H": 88,
            "I": 89.4375,
            "J": 94.8,
            "K": 96.2,
            "L": 96.33333333333333
        },
        "bus2": {
            "D": 62.25,
            "E": 60.625,
            "F": 62.5,
            "G": 64.75,
            "H": 65.4375,
            "I": 66.875,
            "J": 67,
            "K": 68.5,
            "L": 68.4375,
            "A": 68.625,
            "B": 68.875,
            "C": 66.66666666666667
        },
        "bus3": {
            "G": 71.375,
            "H": 73.5,
            "I": 73.3125,
            "J": 73.4375,
            "K": 75.25,
            "L": 78.1875,
            "A": 79.3125,
            "B": 78.5,
            "C": 80.0625,
            "D": 80.8125,
            "E": 78.875,
            "F": 78.93333333333334
        },
        "bus1": {
            "C": 57,
            "D": 59.5,
            "E": 60.9375,
            "F": 61.1875,
            "G": 61.125,
            "H": 60.875,
            "I": 61.5,
            "J": 60.5625,
            "K": 61.0625,
            "L": 57.53333333333333,
            "A": 57.733333333333334,
            "B": 58.666666666666664
        },
        "bus0": {
            "B": 80.3125,
            "C": 80.8125,
            "D": 80.5,
            "E": 79.9375,
            "F": 81.8125,
            "G": 81.625,
            "H": 81.3125,
            "I": 82.6875,
            "J": 82.86666666666666,
            "K": 83.86666666666666,
            "L": 84.46666666666667,
            "A": 84.53333333333333
        }
    }
}