{
    "Average_holding_time": 12.741514360313316,
    "Average_travel_time_passengers": 2660.0770863147704,
    "Average_speed_busses": 0.047875,
    "Average_experienced_crowding": 85.78075548308757,
    "Average_covariation_headway": 0.5017983220636484,
    "Average_covariation_headway_stops": {
        "B": 0.3928166359503818,
        "A": 0.42339328300721724,
        "I": 0.39485200293260053,
        "E": 0.39366333385503155,
        "G": 0.39360380441401577,
        "J": 0.3843826573128778,
        "C": 0.37601741626601864,
        "H": 0.3881397575609774,
        "F": 0.3889170339320956,
        "K": 0.4011298583490806,
        "D": 0.40584386350640833,
        "L": 0.41269197516523937
    },
    "Average_excess_waiting_time": {
        "B": 78.55989778252308,
        "A": 90.62832123134507,
        "I": 80.73862824076787,
        "E": 79.75986395927083,
        "G": 80.65239219596094,
        "J": 81.80948555386539,
        "C": 76.46041700561904,
        "H": 80.51130405516346,
        "F": 80.60473399725885,
        "K": 84.7579327003304,
        "D": 86.00046974799608,
        "L": 89.48689898237433
    },
    "Holding_per_stop": {
        "B": 11.5625,
        "E": 11.5625,
        "G": 12.5,
        "J": 12,
        "A": 15.9375,
        "I": 10.3125,
        "C": 10.9375,
        "H": 11.5625,
        "F": 11.25,
        "K": 12.31578947368421,
        "D": 16.875,
        "L": 16.105263157894736
    },
    "Load_per_bus_per_stop": {
        "bus0": {
            "B": 81.0625,
            "C": 80.3125,
            "D": 80.9375,
            "E": 82.875,
            "F": 83.75,
            "G": 84.3125,
            "H": 86.3125,
            "I": 87.6875,
            "J": 89.25,
            "K": 88.5,
            "L": 90.25,
            "A": 91.625
        },
        "bus5": {
            "A": 84.1875,
            "B": 84.375,
            "C": 84.8125,
            "D": 88.4375,
            "E": 89.5,
            "F": 90.5625,
            "G": 90.625,
            "H": 91.3125,
            "I": 92.0625,
            "J": 91.9375,
            "K": 90,
            "L": 89.8
        },
        "bus3": {
            "I": 43.76470588235294,
            "J": 47.6875,
            "K": 49.4375,
            "L": 48.875,
            "A": 49.8125,
            "B": 48.9375,
            "C": 46.4375,
            "D": 46.875,
            "E": 46.3125,
            "F": 45.5625,
            "G": 45.875,
            "H": 46.1875
        },
        "bus1": {
            "E": 75.5625,
            "F": 74.75,
            "G": 72.8125,
            "H": 72.625,
            "I": 74.125,
            "J": 78.5625,
            "K": 77.875,
            "L": 78.4375,
            "A": 79.25,
            "B": 78.875,
            "C": 81.8125,
            "D": 80.9375
        },
        "bus2": {
            "G": 76.29411764705883,
            "H": 76.6875,
            "I": 78.1875,
            "J": 78,
            "K": 78.5,
            "L": 79.625,
            "A": 79.3125,
            "B": 79.25,
            "C": 79.375,
            "D": 79.8125,
            "E": 79.625,
            "F": 80.8125
        },
        "bus4": {
            "J": 82.625,
            "K": 83.8125,
            "L": 83,
            "A": 84.5625,
            "B": 84.75,
            "C": 84.5625,
            "D": 83.8125,
            "E": 81.9375,
            "F": 82.1875,
            "G": 83.375,
            "H": 83.5,
            "I": 82.4375
        }
    }
}72.1875
        }
    }
}