{
    "Average_holding_time": 16.847161572052403,
    "Average_travel_time_passengers": 2693.795206164892,
    "Average_speed_busses": 0.04770833333333333,
    "Average_experienced_crowding": 82.13483293508318,
    "Average_covariation_headway": 0.3257690991176577,
    "Average_covariation_headway_stops": {
        "C": 0.25932452329954214,
        "H": 0.24363621683038786,
        "I": 0.23112180530099102,
        "K": 0.22604827387314722,
        "F": 0.25373863728435914,
        "D": 0.25483094173807824,
        "L": 0.21418181813740955,
        "J": 0.21613468263648172,
        "G": 0.2581599541033396,
        "E": 0.2440996324253735,
        "A": 0.2086029589452584,
        "B": 0.22345417148742064
    },
    "Average_excess_waiting_time": {
        "C": 58.28562259342999,
        "H": 54.13777864031994,
        "I": 51.1302559139001,
        "K": 49.51023918555717,
        "F": 54.66860680493369,
        "D": 56.17324368219636,
        "L": 49.56943038385003,
        "J": 50.61039857357389,
        "G": 57.162203015311434,
        "E": 55.01505186693328,
        "A": 49.93283183041234,
        "B": 54.25986332910247
    },
    "Holding_per_stop": {
        "K": 17.8125,
        "I": 12.5,
        "F": 21.5625,
        "D": 17.05263157894737,
        "C": 18.63157894736842,
        "H": 15.3125,
        "L": 20.625,
        "J": 23.68421052631579,
        "G": 19.894736842105264,
        "E": 18,
        "A": 9.157894736842104,
        "B": 7.894736842105263
    },
    "Load_per_bus_per_stop": {
        "bus0": {
            "C": 71.75,
            "D": 72.4375,
            "E": 73.25,
            "F": 72.1875,
            "G": 71.75,
            "H": 71.375,
            "I": 70.875,
            "J": 71.5625,
            "K": 71.125,
            "L": 70.9375,
            "A": 71.4,
            "B": 74.8
        },
        "bus3": {
            "H": 74.1875,
            "I": 74.625,
            "J": 74.1875,
            "K": 72.5625,
            "L": 73.75,
            "A": 72.25,
            "B": 73.8125,
            "C": 74.9375,
            "D": 75.6875,
            "E": 75,
            "F": 75.875,
            "G": 75.73333333333333
        },
        "bus4": {
            "I": 72.875,
            "J": 71.0625,
            "K": 72.3125,
            "L": 73.6875,
            "A": 73.8125,
            "B": 74.8125,
            "C": 75.75,
            "D": 75.5625,
            "E": 75.75,
            "F": 75.5,
            "G": 74.125,
            "H": 75.125
        },
        "bus5": {
            "K": 88.5625,
            "L": 90.6875,
            "A": 90.4375,
            "B": 90.1875,
            "C": 90.5,
            "D": 91,
            "E": 90.75,
            "F": 92.25,
            "G": 93.6875,
            "H": 95.3125,
            "I": 96.75,
            "J": 95.1875
        },
        "bus2": {
            "F": 76.625,
            "G": 79.125,
            "H": 79.9375,
            "I": 80.875,
            "J": 83.1875,
            "K": 83.3125,
            "L": 83.1875,
            "A": 84,
            "B": 84.9375,
            "C": 85,
            "D": 82.8125,
            "E": 82.26666666666667
        },
        "bus1": {
            "D": 78.25,
            "E": 78.9375,
            "F": 80.0625,
            "G": 81.375,
            "H": 80.5,
            "I": 80.25,
            "J": 81.0625,
            "K": 82.875,
            "L": 84.4375,
            "A": 83.25,
            "B": 82.9375,
            "C": 82.6
        }
    }
}