{
    "Average_holding_time": 18.640776699029125,
    "Average_travel_time_passengers": 2702.30577726581,
    "Average_speed_busses": 0.04720833333333333,
    "Average_experienced_crowding": 80.9836559747778,
    "Average_covariation_headway": 0.3228056670024673,
    "Average_covariation_headway_stops": {
        "J": 0.24871522992299028,
        "D": 0.2365180620788116,
        "G": 0.23052406665000028,
        "E": 0.23043709238228702,
        "C": 0.2444731877316639,
        "L": 0.24769807828042925,
        "H": 0.22553208441626968,
        "A": 0.22746185742253877,
        "K": 0.24280501850196837,
        "F": 0.20441134707925634,
        "I": 0.22580530005690885,
        "B": 0.2379442020720371
    },
    "Average_excess_waiting_time": {
        "J": 58.566610978304425,
        "D": 56.185149178144115,
        "G": 54.57644353910723,
        "E": 54.84848339534983,
        "C": 58.392217994678106,
        "L": 58.3797768893819,
        "H": 54.92126348793499,
        "A": 56.361955411507324,
        "K": 59.42894854576673,
        "F": 52.47079696724683,
        "I": 56.71261691388264,
        "B": 59.49238985557781
    },
    "Holding_per_stop": {
        "G": 16.42105263157895,
        "E": 20.210526315789473,
        "D": 20.842105263157894,
        "L": 20.210526315789473,
        "J": 19.894736842105264,
        "C": 22.659574468085108,
        "H": 18.19148936170213,
        "A": 16.914893617021278,
        "K": 18.19148936170213,
        "F": 17.5531914893617,
        "I": 16.914893617021278,
        "B": 15.638297872340425
    },
    "Load_per_bus_per_stop": {
        "bus4": {
            "J": 75,
            "K": 74.6875,
            "L": 75.5,
            "A": 75.875,
            "B": 76.625,
            "C": 77.625,
            "D": 77.4375,
            "E": 77.5,
            "F": 77.66666666666667,
            "G": 79.93333333333334,
            "H": 77.93333333333334,
            "I": 79.26666666666667
        },
        "bus1": {
            "D": 72.375,
            "E": 73,
            "F": 72.3125,
            "G": 71.3125,
            "H": 72.25,
            "I": 73.0625,
            "J": 73.0625,
            "K": 74.5,
            "L": 74.3125,
            "A": 73.4,
            "B": 76.2,
            "C": 75.73333333333333
        },
        "bus3": {
            "G": 78.5,
            "H": 77.875,
            "I": 77.5,
            "J": 79.3125,
            "K": 80.3125,
            "L": 80.125,
            "A": 78.625,
            "B": 79.5625,
            "C": 81,
            "D": 81.0625,
            "E": 83.33333333333333,
            "F": 83.66666666666667
        },
        "bus2": {
            "E": 79.3125,
            "F": 78.125,
            "G": 80.375,
            "H": 80.6875,
            "I": 79.75,
            "J": 81,
            "K": 83.375,
            "L": 83.6875,
            "A": 83.625,
            "B": 84.4375,
            "C": 84.625,
            "D": 84.33333333333333
        },
        "bus0": {
            "C": 80.625,
            "D": 82.1875,
            "E": 84.0625,
            "F": 86.375,
            "G": 83.8125,
            "H": 84.625,
            "I": 84.25,
            "J": 84.9375,
            "K": 85.6,
            "L": 85,
            "A": 84.53333333333333,
            "B": 85.6
        },
        "bus5": {
            "L": 70.125,
            "A": 71.5,
            "B": 71.9375,
            "C": 71.625,
            "D": 71.5,
            "E": 71.9375,
            "F": 72,
            "G": 74.6875,
            "H": 74.6,
            "I": 73.53333333333333,
            "J": 73.46666666666667,
            "K": 74.13333333333334
        }
    }
}.66666666666667
        }
    }
}  "C": 88.33333333333333,
            "D": 87.73333333333333
        }
    }
}