{
    "Average_holding_time": 16.977152899824254,
    "Average_travel_time_passengers": 2666.8025702265127,
    "Average_speed_busses": 0.04741666666666667,
    "Average_experienced_crowding": 80.75158467774281,
    "Average_covariation_headway": 0.3190295078838642,
    "Average_covariation_headway_stops": {
        "C": 0.23431914235803408,
        "I": 0.2525249920439208,
        "J": 0.24966249967806137,
        "B": 0.22420118807245476,
        "H": 0.24630840027982515,
        "K": 0.23952399039431171,
        "D": 0.22190302819114086,
        "L": 0.2118414489247277,
        "A": 0.21569025813146042,
        "E": 0.2108366559736685,
        "F": 0.2311162504552515,
        "G": 0.24089639541216518
    },
    "Average_excess_waiting_time": {
        "C": 53.08435546591926,
        "I": 58.58771086448985,
        "J": 56.521070235341085,
        "B": 53.25586862594895,
        "H": 59.188635154554504,
        "K": 53.312794171630514,
        "D": 52.76753135256331,
        "L": 51.149089141109016,
        "A": 53.309846586777155,
        "E": 53.26077196645389,
        "F": 58.036564337591415,
        "G": 61.30325344580217
    },
    "Holding_per_stop": {
        "C": 16.5625,
        "J": 16.736842105263158,
        "I": 14.526315789473685,
        "K": 22.8125,
        "B": 13.578947368421053,
        "H": 20.425531914893618,
        "D": 17.68421052631579,
        "L": 14.210526315789474,
        "A": 9.473684210526315,
        "E": 16.736842105263158,
        "F": 17.872340425531913,
        "G": 23.225806451612904
    },
    "Load_per_bus_per_stop": {
        "bus1": {
            "C": 83.625,
            "D": 85.25,
            "E": 86.8125,
            "F": 87.3125,
            "G": 85.625,
            "H": 83.9375,
            "I": 84.0625,
            "J": 83.625,
            "K": 85,
            "L": 87.0625,
            "A": 88.1875,
            "B": 89.6
        },
        "bus3": {
            "I": 63.5625,
            "J": 66.125,
            "K": 67.5,
            "L": 67.6875,
            "A": 66.9375,
            "B": 67.75,
            "C": 67.75,
            "D": 67.0625,
            "E": 66.5,
            "F": 66.93333333333334,
            "G": 65.93333333333334,
            "H": 67.26666666666667
        },
        "bus4": {
            "J": 67.875,
            "K": 67.5,
            "L": 67.875,
            "A": 68.5,
            "B": 68.625,
            "C": 69.9375,
            "D": 72.375,
            "E": 73.5625,
            "F": 72.375,
            "G": 73.125,
            "H": 69.46666666666667,
            "I": 70.73333333333333
        },
        "bus0": {
            "B": 85.3125,
            "C": 87.1875,
            "D": 87.8125,
            "E": 89.125,
            "F": 89.375,
            "G": 88,
            "H": 88.5,
            "I": 89.3125,
            "J": 91.0625,
            "K": 90.1875,
            "L": 91.4,
            "A": 90.4
        },
        "bus2": {
            "H": 76.0625,
            "I": 79.5625,
            "J": 81.5,
            "K": 81.6875,
            "L": 82.4375,
            "A": 81.0625,
            "B": 81.1875,
            "C": 79.5625,
            "D": 79.8,
            "E": 79.46666666666667,
            "F": 80.06666666666666,
            "G": 78.93333333333334
        },
        "bus5": {
            "K": 71.75,
            "L": 72.6875,
            "A": 72.875,
            "B": 74.5,
            "C": 76.75,
            "D": 77.5,
            "E": 76.9375,
            "F": 77.25,
            "G": 77,
            "H": 77.375,
            "I": 78.0625,
            "J": 78.26666666666667
        }
    }
}