{
    "Average_holding_time": 15.078809106830123,
    "Average_travel_time_passengers": 2705.038833873585,
    "Average_speed_busses": 0.04758333333333333,
    "Average_experienced_crowding": 85.86572287609481,
    "Average_covariation_headway": 0.4380148323110618,
    "Average_covariation_headway_stops": {
        "B": 0.36363452321656453,
        "G": 0.3364848740029595,
        "F": 0.3075623880908354,
        "A": 0.3572544758708558,
        "C": 0.32625135880327955,
        "J": 0.3168355416766033,
        "H": 0.3265994926827296,
        "D": 0.3246047927388793,
        "K": 0.33028681472280064,
        "I": 0.3269379127110857,
        "E": 0.3046737675002773,
        "L": 0.3462251589253446
    },
    "Average_excess_waiting_time": {
        "B": 79.3295751986978,
        "G": 68.85093229071236,
        "F": 65.12693716610505,
        "A": 78.74531541111543,
        "C": 67.20691917153084,
        "J": 66.75629277852556,
        "H": 68.8295240055038,
        "D": 69.53311579409262,
        "K": 71.44916192019537,
        "I": 70.82275015421476,
        "E": 67.21707806074414,
        "L": 76.98070170942867
    },
    "Holding_per_stop": {
        "B": 13.578947368421053,
        "G": 15.9375,
        "C": 14.842105263157896,
        "J": 14.375,
        "F": 10.421052631578947,
        "A": 17.36842105263158,
        "H": 15.625,
        "D": 16.736842105263158,
        "K": 17.36842105263158,
        "I": 15.473684210526315,
        "E": 12.31578947368421,
        "L": 16.914893617021278
    },
    "Load_per_bus_per_stop": {
        "bus0": {
            "B": 45.9375,
            "C": 47.25,
            "D": 48.3125,
            "E": 47.875,
            "F": 48.5625,
            "G": 47.125,
            "H": 48.75,
            "I": 48.4375,
            "J": 48.0625,
            "K": 47.375,
            "L": 49.4375,
            "A": 47.733333333333334
        },
        "bus3": {
            "G": 77.9375,
            "H": 78.875,
            "I": 80.875,
            "J": 78.875,
            "K": 79.625,
            "L": 78.9375,
            "A": 78.375,
            "B": 79.5625,
            "C": 81.4375,
            "D": 82.25,
            "E": 82.5,
            "F": 81.6
        },
        "bus2": {
            "F": 90.75,
            "G": 90.1875,
            "H": 91.0625,
            "I": 91.75,
            "J": 91.0625,
            "K": 92,
            "L": 95,
            "A": 94.1875,
            "B": 94.875,
            "C": 95.26666666666667,
            "D": 93.93333333333334,
            "E": 96.26666666666667
        },
        "bus5": {
            "A": 70.625,
            "B": 70.125,
            "C": 71.1875,
            "D": 71.375,
            "E": 71,
            "F": 73.0625,
            "G": 74.4375,
            "H": 76.3125,
            "I": 76.75,
            "J": 79.1875,
            "K": 78.53333333333333,
            "L": 75.86666666666666
        },
        "bus1": {
            "C": 92.375,
            "D": 93.4375,
            "E": 93.8125,
            "F": 92.5,
            "G": 92.9375,
            "H": 91.1875,
            "I": 92.0625,
            "J": 95.875,
            "K": 95.4375,
            "L": 96.125,
            "A": 97.25,
            "B": 98.6
        },
        "bus4": {
            "J": 84.1875,
            "K": 83.25,
            "L": 85.0625,
            "A": 86.0625,
            "B": 84.625,
            "C": 85,
            "D": 85.6875,
            "E": 87.625,
            "F": 89,
            "G": 88.4375,
            "H": 88.125,
            "I": 87.93333333333334
        }
    }
}14285714285
        }
    }
}