{
    "Average_holding_time": 15.62937062937063,
    "Average_travel_time_passengers": 2746.1317529827024,
    "Average_speed_busses": 0.04766666666666667,
    "Average_experienced_crowding": 93.27877813904854,
    "Average_covariation_headway": 0.6140826582206863,
    "Average_covariation_headway_stops": {
        "C": 0.4939241050912207,
        "E": 0.4716112388376538,
        "K": 0.4860615691830277,
        "F": 0.4812485584323918,
        "H": 0.4796030290134479,
        "I": 0.4999688015771266,
        "L": 0.4757796701543627,
        "G": 0.48851712821092463,
        "J": 0.48739509026178907,
        "D": 0.4926560859385354,
        "A": 0.4647647266424778,
        "B": 0.4818496924544206
    },
    "Average_excess_waiting_time": {
        "C": 111.0055771550006,
        "E": 107.22100175488333,
        "K": 105.25963125608382,
        "F": 108.37836198323396,
        "H": 107.53820416023575,
        "I": 111.11329812532693,
        "L": 104.08436753894688,
        "G": 113.15269385458402,
        "J": 109.17758291693985,
        "D": 115.34176268275837,
        "A": 103.05196991364966,
        "B": 109.5601046186141
    },
    "Holding_per_stop": {
        "K": 12.1875,
        "F": 16.736842105263158,
        "H": 11.052631578947368,
        "I": 22.5,
        "C": 14.375,
        "E": 15.957446808510639,
        "L": 18.75,
        "G": 16.42105263157895,
        "J": 16.875,
        "D": 19.263157894736842,
        "A": 5.684210526315789,
        "B": 17.68421052631579
    },
    "Load_per_bus_per_stop": {
        "bus0": {
            "C": 57.6875,
            "D": 58.875,
            "E": 60.4375,
            "F": 59.5625,
            "G": 60.5625,
            "H": 62.25,
            "I": 62,
            "J": 62.75,
            "K": 64,
            "L": 64,
            "A": 64.125,
            "B": 62.2
        },
        "bus1": {
            "E": 56.25,
            "F": 57.9375,
            "G": 58.25,
            "H": 58.75,
            "I": 60.5625,
            "J": 60.875,
            "K": 60.1875,
            "L": 59.6875,
            "A": 60.25,
            "B": 61.1875,
            "C": 59.75,
            "D": 60
        },
        "bus5": {
            "K": 78.3125,
            "L": 78.5,
            "A": 79.625,
            "B": 82,
            "C": 83.375,
            "D": 85.5,
            "E": 88.5625,
            "F": 89.125,
            "G": 87.375,
            "H": 86.125,
            "I": 84.4375,
            "J": 84.3125
        },
        "bus2": {
            "F": 91.4375,
            "G": 92.0625,
            "H": 91.75,
            "I": 90.375,
            "J": 89.4375,
            "K": 90.5625,
            "L": 90.3125,
            "A": 90.5,
            "B": 93.9375,
            "C": 95.5,
            "D": 95.75,
            "E": 98.93333333333334
        },
        "bus3": {
            "H": 88.375,
            "I": 89.8125,
            "J": 90.375,
            "K": 90.875,
            "L": 89.375,
            "A": 90.4375,
            "B": 91.5,
            "C": 91.75,
            "D": 91.125,
            "E": 92.73333333333333,
            "F": 92.73333333333333,
            "G": 93
        },
        "bus4": {
            "I": 73.1875,
            "J": 73.9375,
            "K": 75.8125,
            "L": 76.6875,
            "A": 76.875,
            "B": 76.875,
            "C": 76.375,
            "D": 78.625,
            "E": 79.3125,
            "F": 78.3125,
            "G": 76.75,
            "H": 76.53333333333333
        }
    }
}: 75,
            "L": 74.5,
            "A": 76.125,
            "B": 77.375,
            "C": 78.5,
            "D": 79.6875,
            "E": 79.5
        }
    }
}