{
    "Average_holding_time": 13.449174630755865,
    "Average_travel_time_passengers": 2671.158988963027,
    "Average_speed_busses": 0.04795833333333333,
    "Average_experienced_crowding": 86.54837643138151,
    "Average_covariation_headway": 0.4917244809386765,
    "Average_covariation_headway_stops": {
        "J": 0.37953513723521787,
        "K": 0.372996552039306,
        "L": 0.3694646238923432,
        "E": 0.364627482196164,
        "C": 0.3613765928475561,
        "H": 0.36646881844273077,
        "A": 0.3597016604146178,
        "F": 0.3668704014887988,
        "D": 0.35865715313095503,
        "I": 0.3598937999971117,
        "G": 0.3589128647514875,
        "B": 0.3544527228644528
    },
    "Average_excess_waiting_time": {
        "J": 79.11313585906981,
        "K": 78.63827476027222,
        "L": 74.29296506497701,
        "E": 73.10755837371568,
        "C": 73.06260819641432,
        "H": 75.07604658425936,
        "A": 74.46618753495716,
        "F": 75.51293491381631,
        "D": 74.60523880391241,
        "I": 75.26025170471388,
        "G": 75.31967772490759,
        "B": 73.41277568602732
    },
    "Holding_per_stop": {
        "K": 17.1875,
        "L": 12.8125,
        "E": 12.1875,
        "J": 15.3125,
        "C": 12.1875,
        "H": 14.0625,
        "F": 13.75,
        "A": 9.6875,
        "D": 16.875,
        "I": 13.75,
        "G": 13.75,
        "B": 9.789473684210526
    },
    "Load_per_bus_per_stop": {
        "bus3": {
            "J": 64.875,
            "K": 63.4375,
            "L": 64.125,
            "A": 64.0625,
            "B": 65.75,
            "C": 66.25,
            "D": 67.25,
            "E": 66.75,
            "F": 65.125,
            "G": 66.625,
            "H": 67.4375,
            "I": 68.5625
        },
        "bus4": {
            "K": 44.1875,
            "L": 44.4375,
            "A": 46.0625,
            "B": 46.0625,
            "C": 46.125,
            "D": 46.8125,
            "E": 47.125,
            "F": 45,
            "G": 45,
            "H": 43.8125,
            "I": 44.3125,
            "J": 44.8125
        },
        "bus5": {
            "L": 100.1875,
            "A": 100.625,
            "B": 101.4375,
            "C": 100.4375,
            "D": 102.875,
            "E": 106.4375,
            "F": 107.875,
            "G": 107.6875,
            "H": 107.6875,
            "I": 106.625,
            "J": 107.0625,
            "K": 108.0625
        },
        "bus1": {
            "E": 84.5625,
            "F": 83.75,
            "G": 85.0625,
            "H": 85.3125,
            "I": 85.25,
            "J": 87.75,
            "K": 89.5,
            "L": 88.875,
            "A": 89.25,
            "B": 87.6875,
            "C": 90.625,
            "D": 90.8125
        },
        "bus0": {
            "C": 83.875,
            "D": 84,
            "E": 82.4375,
            "F": 85.375,
            "G": 82.8125,
            "H": 83.75,
            "I": 83.125,
            "J": 85.125,
            "K": 86.25,
            "L": 88,
            "A": 88.25,
            "B": 89.26666666666667
        },
        "bus2": {
            "H": 81.6875,
            "I": 83.4375,
            "J": 85.75,
            "K": 84.3125,
            "L": 82.75,
            "A": 82.0625,
            "B": 80.75,
            "C": 81.25,
            "D": 83.5,
            "E": 83.25,
            "F": 85.1875,
            "G": 86.4375
        }
    }
}