{
    "Average_holding_time": 12.908777969018933,
    "Average_travel_time_passengers": 2657.502907491169,
    "Average_speed_busses": 0.04841666666666666,
    "Average_experienced_crowding": 85.3983855495532,
    "Average_covariation_headway": 0.49047695336464453,
    "Average_covariation_headway_stops": {
        "E": 0.39010290586234436,
        "D": 0.3980276000423539,
        "B": 0.3956552195465899,
        "H": 0.36350570956569656,
        "C": 0.40337936766206256,
        "F": 0.3965161496871646,
        "I": 0.36362277412783117,
        "G": 0.37298542032465964,
        "J": 0.3689006315402736,
        "K": 0.3670846844626938,
        "L": 0.38402390320810353,
        "A": 0.3868884458203192
    },
    "Average_excess_waiting_time": {
        "E": 76.4478402276169,
        "D": 80.49690547954373,
        "B": 84.58207242909867,
        "H": 67.73194028770837,
        "C": 84.0837021681233,
        "F": 76.66625713937418,
        "I": 69.81713989675887,
        "G": 70.7631260631394,
        "J": 71.92758572099262,
        "K": 73.35197314982287,
        "L": 78.98416520154694,
        "A": 82.18126646221583
    },
    "Holding_per_stop": {
        "E": 8.65979381443299,
        "D": 19.175257731958762,
        "H": 15,
        "C": 17.8125,
        "F": 18.06122448979592,
        "B": 6.5625,
        "I": 12.061855670103093,
        "G": 11.443298969072165,
        "J": 7.422680412371134,
        "K": 12.371134020618557,
        "L": 14.6875,
        "A": 11.5625
    },
    "Load_per_bus_per_stop": {
        "bus3": {
            "E": 62.1764705882353,
            "F": 62.1764705882353,
            "G": 61.625,
            "H": 61.9375,
            "I": 63.625,
            "J": 63.5625,
            "K": 63.5,
            "L": 62.6875,
            "A": 61.5625,
            "B": 64.5625,
            "C": 65.4375,
            "D": 64.9375
        },
        "bus2": {
            "D": 66.6470588235294,
            "E": 64,
            "F": 63.5625,
            "G": 65.125,
            "H": 65.8125,
            "I": 66.4375,
            "J": 66.9375,
            "K": 66.625,
            "L": 67.3125,
            "A": 70.625,
            "B": 70.4375,
            "C": 69.5625
        },
        "bus0": {
            "B": 90.875,
            "C": 91.3125,
            "D": 89,
            "E": 88.5625,
            "F": 87.125,
            "G": 88.625,
            "H": 91.8125,
            "I": 92,
            "J": 93.5625,
            "K": 93,
            "L": 92.4375,
            "A": 92.875
        },
        "bus5": {
            "H": 81.58823529411765,
            "I": 82.47058823529412,
            "J": 81.11764705882354,
            "K": 83.17647058823529,
            "L": 85.5625,
            "A": 88.75,
            "B": 88.8125,
            "C": 89.8125,
            "D": 91.375,
            "E": 91.6875,
            "F": 90.625,
            "G": 86.5
        },
        "bus1": {
            "C": 81,
            "D": 81.0625,
            "E": 81.4375,
            "F": 80.4375,
            "G": 80.0625,
            "H": 81.8125,
            "I": 83.25,
            "J": 82.5625,
            "K": 82.0625,
            "L": 82.6875,
            "A": 83.4375,
            "B": 85.375
        },
        "bus4": {
            "F": 62.64705882352941,
            "G": 63.64705882352941,
            "H": 64.82352941176471,
            "I": 66.29411764705883,
            "J": 67.375,
            "K": 68.125,
            "L": 69.8125,
            "A": 69.875,
            "B": 69.0625,
            "C": 68.75,
            "D": 66.4375,
            "E": 65.1875
        }
    }
}