{
    "Average_holding_time": 17.86725663716814,
    "Average_travel_time_passengers": 2802.57039951451,
    "Average_speed_busses": 0.04708333333333333,
    "Average_experienced_crowding": 97.84083902471386,
    "Average_covariation_headway": 0.614427271517672,
    "Average_covariation_headway_stops": {
        "C": 0.4953692964633173,
        "J": 0.4985086227450975,
        "A": 0.4853267265146006,
        "H": 0.5095665685129659,
        "I": 0.5224349178857539,
        "D": 0.512197005781008,
        "K": 0.4707657132725737,
        "B": 0.4838403507193718,
        "E": 0.5075546774496695,
        "L": 0.4731383144729034,
        "F": 0.505784721005013,
        "G": 0.49325249173005076
    },
    "Average_excess_waiting_time": {
        "C": 115.22405177058954,
        "J": 116.9444073225207,
        "A": 114.2300947021588,
        "H": 120.64639473477291,
        "I": 122.58031448741724,
        "D": 118.72085268678205,
        "K": 109.65402981198417,
        "B": 115.73810765165717,
        "E": 119.69731727043921,
        "L": 112.82620064535894,
        "F": 118.92169542240873,
        "G": 116.99034716969805
    },
    "Holding_per_stop": {
        "J": 16.105263157894736,
        "A": 12.76595744680851,
        "I": 25.57894736842105,
        "D": 18,
        "C": 21.70212765957447,
        "H": 19.78723404255319,
        "K": 18.70967741935484,
        "B": 13.404255319148936,
        "E": 16.736842105263158,
        "L": 16.129032258064516,
        "F": 19.78723404255319,
        "G": 15.638297872340425
    },
    "Load_per_bus_per_stop": {
        "bus0": {
            "C": 79.25,
            "D": 79.0625,
            "E": 81.1875,
            "F": 84.9375,
            "G": 85.875,
            "H": 84.75,
            "I": 83.1875,
            "J": 80.9375,
            "K": 83.33333333333333,
            "L": 83.86666666666666,
            "A": 82.53333333333333,
            "B": 84.26666666666667
        },
        "bus4": {
            "J": 91.75,
            "K": 90.125,
            "L": 90.6875,
            "A": 92.3125,
            "B": 94.0625,
            "C": 95.75,
            "D": 96.5,
            "E": 98.5625,
            "F": 98.75,
            "G": 99.1875,
            "H": 96.625,
            "I": 99.6
        },
        "bus5": {
            "A": 79.8125,
            "B": 79.875,
            "C": 80.75,
            "D": 80.8125,
            "E": 80.125,
            "F": 77.8125,
            "G": 79.8125,
            "H": 83.1875,
            "I": 82.5,
            "J": 86,
            "K": 86.13333333333334,
            "L": 87.2
        },
        "bus2": {
            "H": 82.625,
            "I": 84.8125,
            "J": 84.875,
            "K": 84.75,
            "L": 84.375,
            "A": 82.75,
            "B": 83.3125,
            "C": 83.13333333333334,
            "D": 83.4,
            "E": 83.73333333333333,
            "F": 85.86666666666666,
            "G": 88.4
        },
        "bus3": {
            "I": 60.625,
            "J": 60,
            "K": 61.625,
            "L": 61.5625,
            "A": 62.125,
            "B": 63.375,
            "C": 65.75,
            "D": 67.125,
            "E": 67.25,
            "F": 65.13333333333334,
            "G": 65.2,
            "H": 64.2
        },
        "bus1": {
            "D": 66.9375,
            "E": 67.0625,
            "F": 69.5,
            "G": 72.0625,
            "H": 73.0625,
            "I": 75.6875,
            "J": 78.5625,
            "K": 73.53333333333333,
            "L": 74.46666666666667,
            "A": 73.66666666666667,
            "B": 74.06666666666666,
            "C": 72.2
        }
    }
}