{
    "Average_holding_time": 29.801136363636363,
    "Average_holding_actions": [
        742,
        41,
        28,
        151,
        33,
        0
    ],
    "Average_travel_time_passengers": 2159.176461220621,
    "Average_passenger_waiting_time": 357.3948762525508,
    "Average_passenger_in_vehicle_time": 1801.7815849680212,
    "Average_speed_busses": 0.044,
    "Average_experienced_crowding": 90.51059068595639,
    "Average_covariation_headway": 0.3975949482984188,
    "Average_covariation_headway_stops": {
        "K": 0.30842394497726444,
        "A": 0.29998474613876497,
        "L": 0.30438890525104606,
        "F": 0.27960340363041136,
        "B": 0.2927820008562661,
        "C": 0.2833537223360031,
        "G": 0.28693617641517566,
        "H": 0.3208480578514551,
        "D": 0.2766141266717472,
        "I": 0.3288272070836174,
        "E": 0.2697667643513567,
        "J": 0.3032693739632805
    },
    "Average_excess_waiting_time": {
        "K": 95.90405527807445,
        "A": 88.84838812829656,
        "L": 91.03594873261932,
        "F": 86.53382593906673,
        "B": 86.46308098050014,
        "C": 85.3223891799293,
        "G": 89.84186406715895,
        "H": 98.97635584586283,
        "D": 86.01651279148115,
        "I": 100.1359921865099,
        "E": 86.69585638458221,
        "J": 97.58474373415976
    },
    "Holding_per_stop": {
        "L": 31.704545454545453,
        "A": 45.168539325842694,
        "F": 22.5,
        "B": 35.39325842696629,
        "K": 30,
        "C": 40.449438202247194,
        "G": 23.522727272727273,
        "D": 20.113636363636363,
        "H": 24.482758620689655,
        "E": 14.318181818181818,
        "I": 39.310344827586206,
        "J": 30.344827586206897
    },
    "Actions_tfl_edges": {
        "JK": [
            86,
            2,
            0
        ],
        "FG": [
            74,
            14,
            0
        ],
        "CD": [
            30,
            59,
            0
        ],
        "GH": [
            85,
            3,
            0
        ],
        "HI": [
            84,
            3,
            0
        ]
    },
    "Load_per_bus_per_stop": {
        "bus3": {
            "K": 87.46666666666667,
            "L": 78.8,
            "A": 67.06666666666666,
            "B": 56.333333333333336,
            "C": 49.666666666666664,
            "D": 45.666666666666664,
            "E": 44.214285714285715,
            "F": 70.64285714285714,
            "G": 107.71428571428571,
            "H": 116,
            "I": 112.28571428571429,
            "J": 103.57142857142857
        },
        "bus5": {
            "A": 63.333333333333336,
            "B": 54.8,
            "C": 49.2,
            "D": 49.4,
            "E": 48.733333333333334,
            "F": 74.46666666666667,
            "G": 110.73333333333333,
            "H": 117.46666666666667,
            "I": 105.92857142857143,
            "J": 99.07142857142857,
            "K": 89.21428571428571,
            "L": 78.35714285714286
        },
        "bus4": {
            "L": 83.46666666666667,
            "A": 72.13333333333334,
            "B": 60.93333333333333,
            "C": 54.53333333333333,
            "D": 50.733333333333334,
            "E": 49.13333333333333,
            "F": 72.78571428571429,
            "G": 109.42857142857143,
            "H": 121.21428571428571,
            "I": 117.14285714285714,
            "J": 110.42857142857143,
            "K": 100
        },
        "bus2": {
            "F": 68.93333333333334,
            "G": 101,
            "H": 108.26666666666667,
            "I": 105.2,
            "J": 99.4,
            "K": 89.8,
            "L": 81.46666666666667,
            "A": 69.33333333333333,
            "B": 58.93333333333333,
            "C": 52.92857142857143,
            "D": 50.42857142857143,
            "E": 50.357142857142854
        },
        "bus0": {
            "B": 55.733333333333334,
            "C": 50.13333333333333,
            "D": 49.666666666666664,
            "E": 49.93333333333333,
            "F": 75.53333333333333,
            "G": 108.8,
            "H": 116.6,
            "I": 112.2,
            "J": 102.86666666666666,
            "K": 92.8,
            "L": 80.07142857142857,
            "A": 67.78571428571429
        },
        "bus1": {
            "C": 55.6,
            "D": 49.86666666666667,
            "E": 47.06666666666667,
            "F": 73.66666666666667,
            "G": 108.4,
            "H": 119.93333333333334,
            "I": 117.53333333333333,
            "J": 110.46666666666667,
            "K": 100.86666666666666,
            "L": 86.66666666666667,
            "A": 74,
            "B": 64.42857142857143
        }
    },
    "Obs_and_actions_busses": {
        "4": 245.27164231549727,
        "3": 223.7522587872257,
        "5": 286.74105851121203,
        "0": -116.44874526778737,
        "2": 50.89433380532893,
        "1": 171.90953521358242
    },
    "Obs_and_actions_tfls": {
        "1": 177.03856112198338,
        "0": -63.99774078482551
    }
}