{
    "Average_holding_time": 29.660377358490567,
    "Average_holding_actions": [
        767,
        22,
        16,
        149,
        40,
        0
    ],
    "Average_travel_time_passengers": 2170.3849600818644,
    "Average_passenger_waiting_time": 359.1847899366608,
    "Average_passenger_in_vehicle_time": 1811.2001701451882,
    "Average_speed_busses": 0.04416666666666667,
    "Average_experienced_crowding": 90.22939243065117,
    "Average_covariation_headway": 0.3724351419277599,
    "Average_covariation_headway_stops": {
        "H": 0.30013789723699297,
        "I": 0.3056087889689692,
        "L": 0.2652211998518866,
        "K": 0.2929202770999495,
        "D": 0.2322415899426861,
        "J": 0.2743397830516762,
        "B": 0.26222834395734884,
        "A": 0.2620781716141352,
        "E": 0.21939414302434457,
        "C": 0.2431408191924701,
        "F": 0.24552789891001356,
        "G": 0.27366719550073465
    },
    "Average_excess_waiting_time": {
        "H": 92.66988065581631,
        "I": 91.39402149178841,
        "L": 80.94426478634023,
        "K": 88.79541860388923,
        "D": 77.3961801934604,
        "J": 87.04919903177722,
        "B": 81.55423414469084,
        "A": 82.27449374871014,
        "E": 78.88957512416152,
        "C": 80.24624577843929,
        "F": 84.48972953063702,
        "G": 90.23480206779897
    },
    "Holding_per_stop": {
        "I": 26.96629213483146,
        "L": 31.01123595505618,
        "H": 27.272727272727273,
        "K": 32.359550561797754,
        "D": 26.292134831460675,
        "J": 31.363636363636363,
        "B": 35.39325842696629,
        "A": 42.13483146067416,
        "E": 12.272727272727273,
        "C": 44.31818181818182,
        "F": 18.620689655172413,
        "G": 27.586206896551722
    },
    "Actions_tfl_edges": {
        "CD": [
            31,
            58,
            0
        ],
        "GH": [
            75,
            13,
            0
        ],
        "HI": [
            86,
            3,
            0
        ],
        "JK": [
            88,
            1,
            0
        ],
        "FG": [
            77,
            10,
            0
        ]
    },
    "Load_per_bus_per_stop": {
        "bus2": {
            "H": 103,
            "I": 98.8,
            "J": 92.93333333333334,
            "K": 86.6,
            "L": 79.4,
            "A": 69.66666666666667,
            "B": 60.6,
            "C": 54.06666666666667,
            "D": 51.214285714285715,
            "E": 49.214285714285715,
            "F": 70.71428571428571,
            "G": 102.28571428571429
        },
        "bus3": {
            "I": 108.33333333333333,
            "J": 97.86666666666666,
            "K": 91.33333333333333,
            "L": 80.13333333333334,
            "A": 70.53333333333333,
            "B": 62.06666666666667,
            "C": 55.733333333333334,
            "D": 51,
            "E": 48.5,
            "F": 75.92857142857143,
            "G": 112.42857142857143,
            "H": 120.85714285714286
        },
        "bus5": {
            "L": 79.6,
            "A": 69.8,
            "B": 58,
            "C": 54.53333333333333,
            "D": 50.2,
            "E": 49.53333333333333,
            "F": 76.46666666666667,
            "G": 116.46666666666667,
            "H": 123.66666666666667,
            "I": 118.06666666666666,
            "J": 109.5,
            "K": 96.78571428571429
        },
        "bus4": {
            "K": 87.2,
            "L": 77.73333333333333,
            "A": 68.13333333333334,
            "B": 58.46666666666667,
            "C": 54.4,
            "D": 50.46666666666667,
            "E": 50,
            "F": 68.66666666666667,
            "G": 101,
            "H": 110.71428571428571,
            "I": 106.64285714285714,
            "J": 100.14285714285714
        },
        "bus1": {
            "D": 51.733333333333334,
            "E": 49.2,
            "F": 77.6,
            "G": 116.46666666666667,
            "H": 127.53333333333333,
            "I": 128.06666666666666,
            "J": 118.46666666666667,
            "K": 106.66666666666667,
            "L": 94.6,
            "A": 81.6,
            "B": 70.64285714285714,
            "C": 60.785714285714285
        },
        "bus0": {
            "B": 55.333333333333336,
            "C": 51.2,
            "D": 48.2,
            "E": 46.266666666666666,
            "F": 71.06666666666666,
            "G": 102.8,
            "H": 112.13333333333334,
            "I": 107,
            "J": 97.46666666666667,
            "K": 88.4,
            "L": 78.57142857142857,
            "A": 69.07142857142857
        }
    },
    "Obs_and_actions_busses": {
        "4": 251.8221768995099,
        "3": 222.91526023042368,
        "5": 269.83677030053525,
        "1": 177.2077332615482,
        "0": -114.3383515179821,
        "2": 46.25726348599753
    },
    "Obs_and_actions_tfls": {
        "0": -70.92421826878558,
        "1": 203.14916884674307
    }
}3092604,
        "5": 393.0996893601489,
        "1": 173.9717317615887,
        "2": 27.013940007560283
    },
    "Obs_and_actions_tfls": {
        "1": 273.10122499957083,
        "0": -111.74372539596334
    }
}