{
    "Average_holding_time": 30.99337748344371,
    "Average_holding_actions": [
        739,
        35,
        27,
        165,
        35,
        0
    ],
    "Average_travel_time_passengers": 2170.0591317307935,
    "Average_passenger_waiting_time": 371.407645846865,
    "Average_passenger_in_vehicle_time": 1798.651485883937,
    "Average_speed_busses": 0.044041666666666666,
    "Average_experienced_crowding": 92.52968889134492,
    "Average_covariation_headway": 0.42704303381991837,
    "Average_covariation_headway_stops": {
        "H": 0.3759297435229288,
        "J": 0.38180801436049955,
        "I": 0.38895084093082355,
        "L": 0.32476801498190294,
        "D": 0.30467286752154343,
        "A": 0.3317144417863536,
        "K": 0.35057798630884596,
        "E": 0.29832710033754894,
        "B": 0.30933940140642735,
        "F": 0.3067130772104739,
        "G": 0.32902528366171047,
        "C": 0.31456460544308484
    },
    "Average_excess_waiting_time": {
        "H": 111.16397808963586,
        "J": 108.57278592516286,
        "I": 112.22487455372271,
        "L": 94.21016208334049,
        "D": 90.89560500193886,
        "A": 93.13094582712586,
        "K": 101.99125741583003,
        "E": 93.1390633079451,
        "B": 91.84326228670056,
        "F": 97.03779559977494,
        "G": 103.72054893609476,
        "C": 95.10249931975204
    },
    "Holding_per_stop": {
        "J": 33.70786516853933,
        "I": 34.09090909090909,
        "L": 26.96629213483146,
        "D": 19.09090909090909,
        "H": 31.724137931034484,
        "A": 42.47191011235955,
        "K": 30,
        "E": 18.40909090909091,
        "B": 32.359550561797754,
        "F": 28.275862068965516,
        "C": 44.31818181818182,
        "G": 30.344827586206897
    },
    "Actions_tfl_edges": {
        "CD": [
            25,
            64,
            0
        ],
        "GH": [
            73,
            15,
            0
        ],
        "HI": [
            82,
            6,
            0
        ],
        "JK": [
            86,
            3,
            0
        ],
        "FG": [
            71,
            16,
            0
        ]
    },
    "Load_per_bus_per_stop": {
        "bus1": {
            "H": 116.26666666666667,
            "I": 112,
            "J": 106,
            "K": 95.86666666666666,
            "L": 82.13333333333334,
            "A": 70,
            "B": 61.6,
            "C": 56.357142857142854,
            "D": 55.714285714285715,
            "E": 53.785714285714285,
            "F": 81,
            "G": 116.5
        },
        "bus3": {
            "J": 93.46666666666667,
            "K": 82.86666666666666,
            "L": 72.2,
            "A": 63,
            "B": 53.266666666666666,
            "C": 49.93333333333333,
            "D": 47.13333333333333,
            "E": 47.333333333333336,
            "F": 70.71428571428571,
            "G": 100.14285714285714,
            "H": 109.5,
            "I": 107.07142857142857
        },
        "bus2": {
            "I": 105.86666666666666,
            "J": 97.06666666666666,
            "K": 90.26666666666667,
            "L": 79.6,
            "A": 68.73333333333333,
            "B": 59.13333333333333,
            "C": 52.46666666666667,
            "D": 47.266666666666666,
            "E": 44.785714285714285,
            "F": 67.92857142857143,
            "G": 105.85714285714286,
            "H": 118.07142857142857
        },
        "bus4": {
            "L": 64.53333333333333,
            "A": 55.666666666666664,
            "B": 48.8,
            "C": 45,
            "D": 42.666666666666664,
            "E": 40.86666666666667,
            "F": 63.06666666666667,
            "G": 94.13333333333334,
            "H": 95.28571428571429,
            "I": 92.35714285714286,
            "J": 86.85714285714286,
            "K": 79.14285714285714
        },
        "bus0": {
            "D": 51.8,
            "E": 49.733333333333334,
            "F": 75.06666666666666,
            "G": 114.86666666666666,
            "H": 125,
            "I": 120,
            "J": 112.53333333333333,
            "K": 102.86666666666666,
            "L": 91.13333333333334,
            "A": 78.46666666666667,
            "B": 68.07142857142857,
            "C": 61
        },
        "bus5": {
            "A": 65.86666666666666,
            "B": 56.266666666666666,
            "C": 52,
            "D": 51.266666666666666,
            "E": 48,
            "F": 73.2,
            "G": 108.73333333333333,
            "H": 116.53333333333333,
            "I": 111.66666666666667,
            "J": 104.2,
            "K": 91.92857142857143,
            "L": 81.5
        }
    },
    "Obs_and_actions_busses": {
        "4": 286.2463265243495,
        "3": 265.68674211387935,
        "5": 271.7717698816581,
        "0": -134.00849022237844,
        "2": 30.71484449826351,
        "1": 178.41519778721312
    },
    "Obs_and_actions_tfls": {
        "0": -90.17953691507928,
        "1": 209.32502482992638
    }
}