{
    "Average_holding_time": 29.887323943661972,
    "Average_holding_actions": [
        761,
        23,
        33,
        154,
        37,
        0
    ],
    "Average_travel_time_passengers": 2141.8720271421803,
    "Average_passenger_waiting_time": 356.2109386936752,
    "Average_passenger_in_vehicle_time": 1785.6610884485096,
    "Average_speed_busses": 0.044375,
    "Average_experienced_crowding": 89.21863368625652,
    "Average_covariation_headway": 0.38126537230740554,
    "Average_covariation_headway_stops": {
        "H": 0.31305879402301423,
        "G": 0.2980273145396763,
        "I": 0.3090659242844543,
        "J": 0.2931313114690796,
        "D": 0.26229592094049775,
        "C": 0.2669092392689054,
        "K": 0.26401067897274905,
        "E": 0.24857907427060472,
        "L": 0.25428664041937593,
        "F": 0.27313255846543855,
        "A": 0.2661626451902309,
        "B": 0.2776357661759088
    },
    "Average_excess_waiting_time": {
        "H": 90.75187644758807,
        "G": 89.51118455670849,
        "I": 87.08771126287792,
        "J": 82.82523385797151,
        "D": 83.09002214530966,
        "C": 86.00286535795578,
        "K": 78.87601878597104,
        "E": 82.04337018949803,
        "L": 80.16807601797126,
        "F": 88.49159618933362,
        "A": 84.28962722488336,
        "B": 89.58972757908589
    },
    "Holding_per_stop": {
        "H": 31.01123595505618,
        "I": 37.333333333333336,
        "J": 32,
        "D": 19.213483146067414,
        "G": 33.06818181818182,
        "C": 47.04545454545455,
        "K": 30.666666666666668,
        "E": 9.545454545454545,
        "L": 18.876404494382022,
        "F": 20.113636363636363,
        "A": 39.88636363636363,
        "B": 39.88636363636363
    },
    "Actions_tfl_edges": {
        "CD": [
            33,
            56,
            0
        ],
        "FG": [
            74,
            15,
            0
        ],
        "GH": [
            69,
            20,
            0
        ],
        "HI": [
            82,
            8,
            0
        ],
        "JK": [
            89,
            1,
            0
        ]
    },
    "Load_per_bus_per_stop": {
        "bus3": {
            "H": 93.53333333333333,
            "I": 90,
            "J": 81.6,
            "K": 75.06666666666666,
            "L": 68.13333333333334,
            "A": 59.266666666666666,
            "B": 51.2,
            "C": 47.4,
            "D": 44.333333333333336,
            "E": 41.285714285714285,
            "F": 63.642857142857146,
            "G": 95.5
        },
        "bus2": {
            "G": 104.93333333333334,
            "H": 114.2,
            "I": 111.06666666666666,
            "J": 104.13333333333334,
            "K": 93.33333333333333,
            "L": 82.33333333333333,
            "A": 71.46666666666667,
            "B": 59.666666666666664,
            "C": 53,
            "D": 47.785714285714285,
            "E": 46.714285714285715,
            "F": 73.57142857142857
        },
        "bus4": {
            "I": 91.6,
            "J": 84.86666666666666,
            "K": 78.33333333333333,
            "L": 69.8,
            "A": 60.53333333333333,
            "B": 51.266666666666666,
            "C": 46.666666666666664,
            "D": 44.13333333333333,
            "E": 43.333333333333336,
            "F": 66.53333333333333,
            "G": 96.42857142857143,
            "H": 105.5
        },
        "bus5": {
            "J": 110.2,
            "K": 100.33333333333333,
            "L": 88.8,
            "A": 78.2,
            "B": 67.13333333333334,
            "C": 60.46666666666667,
            "D": 57.53333333333333,
            "E": 56.733333333333334,
            "F": 82.66666666666667,
            "G": 120.8,
            "H": 130.73333333333332,
            "I": 125.13333333333334
        },
        "bus1": {
            "D": 49.8,
            "E": 50.46666666666667,
            "F": 76,
            "G": 109.46666666666667,
            "H": 119.33333333333333,
            "I": 113.66666666666667,
            "J": 103.8,
            "K": 93.53333333333333,
            "L": 81.6,
            "A": 71.42857142857143,
            "B": 59.714285714285715,
            "C": 53.57142857142857
        },
        "bus0": {
            "C": 55.46666666666667,
            "D": 50.733333333333334,
            "E": 47.333333333333336,
            "F": 71.33333333333333,
            "G": 107.06666666666666,
            "H": 120.2,
            "I": 113,
            "J": 106.13333333333334,
            "K": 96.93333333333334,
            "L": 84.78571428571429,
            "A": 76.21428571428571,
            "B": 65.64285714285714
        }
    },
    "Obs_and_actions_busses": {
        "0": -120.05291152721661,
        "4": 285.6395719324442,
        "2": 55.384463343597766,
        "3": 215.6977132201201,
        "5": 255.01338020292394,
        "1": 173.92423728245268
    },
    "Obs_and_actions_tfls": {
        "0": -92.99643117952554,
        "1": 242.07055095957114
    }
} }
}