{
    "Average_holding_time": 39.263803680981596,
    "Average_holding_actions": [
        605,
        45,
        26,
        185,
        46,
        0
    ],
    "Average_travel_time_passengers": 2538.547044897937,
    "Average_passenger_waiting_time": 541.6196358949653,
    "Average_passenger_in_vehicle_time": 1996.9274090029799,
    "Average_speed_busses": 0.04075,
    "Average_experienced_crowding": 132.1765910155653,
    "Average_covariation_headway": 0.7452134570501592,
    "Average_covariation_headway_stops": {
        "H": 0.7565794231918245,
        "G": 0.67821555640397,
        "I": 0.7651324717756393,
        "A": 0.6843676840399433,
        "J": 0.7447588768952922,
        "B": 0.6872273604468969,
        "K": 0.7094566246025834,
        "C": 0.6712184397767561,
        "L": 0.6899578197160928,
        "D": 0.6555986836296923,
        "E": 0.644519527407216,
        "F": 0.6531500341900951
    },
    "Average_excess_waiting_time": {
        "H": 294.4085751248708,
        "G": 258.7156847751962,
        "I": 298.0445080451542,
        "A": 257.6739822271337,
        "J": 282.60716582261637,
        "B": 254.9645144261608,
        "K": 269.6051768493628,
        "C": 252.08871339767177,
        "L": 263.04185969865875,
        "D": 246.08076216540178,
        "E": 244.3552771485323,
        "F": 251.4116291525164
    },
    "Holding_per_stop": {
        "H": 40.609756097560975,
        "I": 39.8780487804878,
        "J": 46.626506024096386,
        "G": 37.03703703703704,
        "A": 47.5609756097561,
        "B": 40.609756097560975,
        "K": 35.1219512195122,
        "C": 43.7037037037037,
        "L": 41.48148148148148,
        "D": 31.85185185185185,
        "E": 27.77777777777778,
        "F": 38.625
    },
    "Actions_tfl_edges": {
        "FG": [
            58,
            23,
            0
        ],
        "GH": [
            67,
            15,
            0
        ],
        "HI": [
            72,
            11,
            0
        ],
        "JK": [
            74,
            8,
            0
        ],
        "CD": [
            22,
            58,
            1
        ]
    },
    "Load_per_bus_per_stop": {
        "bus2": {
            "H": 131.42857142857142,
            "I": 126.85714285714286,
            "J": 118.64285714285714,
            "K": 106,
            "L": 94.78571428571429,
            "A": 85.21428571428571,
            "B": 71.76923076923077,
            "C": 65.23076923076923,
            "D": 64.38461538461539,
            "E": 62.92307692307692,
            "F": 90.76923076923077,
            "G": 130
        },
        "bus1": {
            "G": 141.85714285714286,
            "H": 154.21428571428572,
            "I": 148.5,
            "J": 140.21428571428572,
            "K": 123.71428571428571,
            "L": 113.07692307692308,
            "A": 99.15384615384616,
            "B": 87.38461538461539,
            "C": 77.23076923076923,
            "D": 74,
            "E": 69.84615384615384,
            "F": 104.38461538461539
        },
        "bus3": {
            "I": 75.42857142857143,
            "J": 72.5,
            "K": 65.21428571428571,
            "L": 57.42857142857143,
            "A": 51.07142857142857,
            "B": 43.785714285714285,
            "C": 39.07142857142857,
            "D": 33.38461538461539,
            "E": 32.61538461538461,
            "F": 52.76923076923077,
            "G": 75.61538461538461,
            "H": 81.6923076923077
        },
        "bus5": {
            "A": 43.57142857142857,
            "B": 37.92857142857143,
            "C": 32.5,
            "D": 29.714285714285715,
            "E": 29.285714285714285,
            "F": 45.57142857142857,
            "G": 72.5,
            "H": 76.28571428571429,
            "I": 74.84615384615384,
            "J": 70.92307692307692,
            "K": 64.07692307692308,
            "L": 57.07692307692308
        },
        "bus4": {
            "J": 58.92857142857143,
            "K": 55,
            "L": 49.07142857142857,
            "A": 43.5,
            "B": 37.357142857142854,
            "C": 34.07142857142857,
            "D": 32.285714285714285,
            "E": 31,
            "F": 44.76923076923077,
            "G": 65.6923076923077,
            "H": 70.61538461538461,
            "I": 68.38461538461539
        },
        "bus0": {
            "B": 104.92857142857143,
            "C": 94,
            "D": 90.71428571428571,
            "E": 87.92857142857143,
            "F": 132.35714285714286,
            "G": 198.14285714285714,
            "H": 210.42857142857142,
            "I": 200.71428571428572,
            "J": 187.5,
            "K": 175.53846153846155,
            "L": 156.92307692307693,
            "A": 136.30769230769232
        }
    },
    "Obs_and_actions_busses": {
        "0": -322.75553659930824,
        "4": 469.84219610558455,
        "3": 577.1139619956971,
        "5": 771.1735769703854,
        "1": 180.26499064669775,
        "2": 51.31257217260558
    },
    "Obs_and_actions_tfls": {
        "1": 511.06219270708584,
        "0": -221.0221252896374,
        "2": -2235.0994643460544
    }
}