{
    "Average_holding_time": 26.62672811059908,
    "Average_holding_actions": [
        807,
        20,
        29,
        128,
        35,
        0
    ],
    "Average_travel_time_passengers": 2102.2601769767593,
    "Average_passenger_waiting_time": 352.0418683434098,
    "Average_passenger_in_vehicle_time": 1750.218308633326,
    "Average_speed_busses": 0.045208333333333336,
    "Average_experienced_crowding": 85.34341636258593,
    "Average_covariation_headway": 0.36408614621078567,
    "Average_covariation_headway_stops": {
        "G": 0.27468559060999026,
        "F": 0.2657954285142059,
        "J": 0.2736348901148693,
        "K": 0.2757067143503803,
        "H": 0.2927933844038327,
        "A": 0.23194333563828803,
        "C": 0.23296911262370984,
        "I": 0.28461489838963067,
        "L": 0.24113623363170678,
        "B": 0.22419824395220528,
        "D": 0.22321313759106837,
        "E": 0.23661883072649323
    },
    "Average_excess_waiting_time": {
        "G": 76.45825016807703,
        "F": 77.18480897232394,
        "J": 77.33054896538596,
        "K": 76.3968097245845,
        "H": 81.81980547580076,
        "A": 70.14500883906533,
        "C": 70.5891120342688,
        "I": 81.89958170567621,
        "L": 72.07128463160376,
        "B": 71.22740840548471,
        "D": 70.99295749747438,
        "E": 74.71050699844983
    },
    "Holding_per_stop": {
        "G": 22.417582417582416,
        "K": 30.32967032967033,
        "A": 43.84615384615385,
        "H": 19,
        "J": 21.0989010989011,
        "F": 20.666666666666668,
        "C": 41.20879120879121,
        "I": 24,
        "L": 29.333333333333332,
        "B": 41,
        "D": 17.666666666666668,
        "E": 8.666666666666666
    },
    "Actions_tfl_edges": {
        "FG": [
            75,
            16,
            0
        ],
        "JK": [
            91,
            0,
            0
        ],
        "GH": [
            82,
            9,
            0
        ],
        "HI": [
            83,
            7,
            0
        ],
        "CD": [
            37,
            53,
            0
        ]
    },
    "Load_per_bus_per_stop": {
        "bus2": {
            "G": 94.875,
            "H": 103.4,
            "I": 100.93333333333334,
            "J": 91.93333333333334,
            "K": 82.2,
            "L": 73.13333333333334,
            "A": 62.93333333333333,
            "B": 53.4,
            "C": 47.06666666666667,
            "D": 45.53333333333333,
            "E": 45.4,
            "F": 68.73333333333333
        },
        "bus1": {
            "F": 66.4,
            "G": 99.6,
            "H": 107.6,
            "I": 103.93333333333334,
            "J": 96.26666666666667,
            "K": 88.93333333333334,
            "L": 77.73333333333333,
            "A": 69.6,
            "B": 58.86666666666667,
            "C": 52.733333333333334,
            "D": 51.4,
            "E": 49.86666666666667
        },
        "bus3": {
            "J": 87,
            "K": 78.73333333333333,
            "L": 69.8,
            "A": 61.666666666666664,
            "B": 52.6,
            "C": 47.2,
            "D": 45.333333333333336,
            "E": 46.53333333333333,
            "F": 68.33333333333333,
            "G": 97,
            "H": 103.26666666666667,
            "I": 98.8
        },
        "bus4": {
            "K": 86.75,
            "L": 75.5625,
            "A": 66.93333333333334,
            "B": 56.333333333333336,
            "C": 49.666666666666664,
            "D": 46.733333333333334,
            "E": 45.8,
            "F": 69.4,
            "G": 105.33333333333333,
            "H": 114.33333333333333,
            "I": 109.73333333333333,
            "J": 102.8
        },
        "bus5": {
            "A": 68.1875,
            "B": 57.666666666666664,
            "C": 54.666666666666664,
            "D": 51.266666666666666,
            "E": 50.2,
            "F": 72.13333333333334,
            "G": 106.93333333333334,
            "H": 115.86666666666666,
            "I": 111,
            "J": 103,
            "K": 92.73333333333333,
            "L": 82.53333333333333
        },
        "bus0": {
            "C": 51.25,
            "D": 48,
            "E": 46.266666666666666,
            "F": 70.66666666666667,
            "G": 107.4,
            "H": 114.26666666666667,
            "I": 110.26666666666667,
            "J": 103.6,
            "K": 94.06666666666666,
            "L": 83.06666666666666,
            "A": 72.2,
            "B": 60.06666666666667
        }
    },
    "Obs_and_actions_busses": {
        "0": -94.6111544948755,
        "4": 267.2803218943791,
        "3": 188.0653570365762,
        "5": 232.54169805162465,
        "2": 52.9530239252503,
        "1": 177.39198357461834
    },
    "Obs_and_actions_tfls": {
        "0": -70.77326116080819,
        "1": 207.56944523341522
    }
}