{
    "Average_holding_time": 28.626168224299064,
    "Average_holding_actions": [
        789,
        13,
        19,
        145,
        39,
        0
    ],
    "Average_travel_time_passengers": 2127.6045470870736,
    "Average_passenger_waiting_time": 345.44722597712916,
    "Average_passenger_in_vehicle_time": 1782.1573211099726,
    "Average_speed_busses": 0.044583333333333336,
    "Average_experienced_crowding": 86.24010151815018,
    "Average_covariation_headway": 0.3445031737789113,
    "Average_covariation_headway_stops": {
        "H": 0.2514836534607585,
        "G": 0.2428181581432023,
        "K": 0.22766197366099872,
        "L": 0.21937188822729273,
        "B": 0.2396452070942525,
        "I": 0.2300500632175157,
        "D": 0.2227958136195307,
        "A": 0.23759524154486658,
        "J": 0.2217046432467513,
        "C": 0.22689309318287662,
        "E": 0.23159682781841257,
        "F": 0.23057045243994437
    },
    "Average_excess_waiting_time": {
        "H": 75.40865476128027,
        "G": 76.74046663508756,
        "K": 74.19516699140553,
        "L": 70.86525021788555,
        "B": 74.12214777917939,
        "I": 73.88248162758725,
        "D": 72.96986824617517,
        "A": 74.89214885820655,
        "J": 76.07765988898524,
        "C": 75.15298406194944,
        "E": 76.4704557675181,
        "F": 77.89677659915947
    },
    "Holding_per_stop": {
        "H": 33.333333333333336,
        "L": 20,
        "G": 28.314606741573034,
        "B": 34,
        "I": 25.617977528089888,
        "K": 28.314606741573034,
        "D": 23.258426966292134,
        "A": 44.157303370786515,
        "J": 28.314606741573034,
        "C": 45.50561797752809,
        "E": 12.134831460674157,
        "F": 20.454545454545453
    },
    "Actions_tfl_edges": {
        "CD": [
            15,
            75,
            0
        ],
        "FG": [
            66,
            23,
            0
        ],
        "GH": [
            75,
            15,
            0
        ],
        "JK": [
            88,
            2,
            0
        ],
        "HI": [
            85,
            5,
            0
        ]
    },
    "Load_per_bus_per_stop": {
        "bus3": {
            "H": 105.86666666666666,
            "I": 102.2,
            "J": 94.86666666666666,
            "K": 84.86666666666666,
            "L": 76,
            "A": 65.26666666666667,
            "B": 57.333333333333336,
            "C": 52.4,
            "D": 49.13333333333333,
            "E": 48.13333333333333,
            "F": 74.73333333333333,
            "G": 107.57142857142857
        },
        "bus2": {
            "G": 90.86666666666666,
            "H": 101.2,
            "I": 96.86666666666666,
            "J": 92.46666666666667,
            "K": 84.06666666666666,
            "L": 71.6,
            "A": 64.86666666666666,
            "B": 56.333333333333336,
            "C": 50.4,
            "D": 48.6,
            "E": 49.357142857142854,
            "F": 69.5
        },
        "bus4": {
            "K": 95.33333333333333,
            "L": 83.06666666666666,
            "A": 73.2,
            "B": 61.53333333333333,
            "C": 57.06666666666667,
            "D": 50.46666666666667,
            "E": 50.93333333333333,
            "F": 76.86666666666666,
            "G": 111.06666666666666,
            "H": 119.53333333333333,
            "I": 115.86666666666666,
            "J": 110.71428571428571
        },
        "bus5": {
            "L": 78.13333333333334,
            "A": 67.73333333333333,
            "B": 57.46666666666667,
            "C": 49.6,
            "D": 48.13333333333333,
            "E": 47,
            "F": 71.46666666666667,
            "G": 111.13333333333334,
            "H": 118.13333333333334,
            "I": 112.26666666666667,
            "J": 104.46666666666667,
            "K": 94.85714285714286
        },
        "bus0": {
            "B": 54.8,
            "C": 50.6,
            "D": 48,
            "E": 48.46666666666667,
            "F": 73.66666666666667,
            "G": 103.2,
            "H": 111.86666666666666,
            "I": 108.46666666666667,
            "J": 100.8,
            "K": 92.73333333333333,
            "L": 80.73333333333333,
            "A": 70.42857142857143
        },
        "bus1": {
            "D": 46.06666666666667,
            "E": 44.13333333333333,
            "F": 67.4,
            "G": 104.46666666666667,
            "H": 112.26666666666667,
            "I": 109.2,
            "J": 102.46666666666667,
            "K": 92,
            "L": 82.86666666666666,
            "A": 72.13333333333334,
            "B": 61.86666666666667,
            "C": 53.5
        }
    },
    "Obs_and_actions_busses": {
        "0": -104.80132678002792,
        "2": 15.161518278178026,
        "3": 195.53453291913164,
        "5": 263.48636458463034,
        "4": 256.48215034012316,
        "1": 178.24471893233513
    },
    "Obs_and_actions_tfls": {
        "1": 163.99702596089094,
        "0": -76.67241050889963
    }
}