{
    "Average_holding_time": 12.014925373134329,
    "Average_holding_actions": [
        1011,
        107,
        0,
        0,
        56,
        0
    ],
    "Average_travel_time_passengers": 2507.128577417883,
    "Average_passenger_waiting_time": 293.526011017506,
    "Average_passenger_in_vehicle_time": 2213.6025664002855,
    "Average_speed_busses": 0.05025,
    "Average_experienced_crowding": 74.55971489241995,
    "Average_covariation_headway": 0.1550842897882263,
    "Average_covariation_headway_stops": {
        "D": 0.12158040164129978,
        "E": 0.11632102139567298,
        "G": 0.11096473012649506,
        "H": 0.12162207477841057,
        "L": 0.15218853782475292,
        "A": 0.15034075291045543,
        "B": 0.1193731645373084,
        "F": 0.08353946885080406,
        "I": 0.11354880217319377,
        "J": 0.1060926444901228,
        "C": 0.11278258247494104,
        "K": 0.13341780947458656
    },
    "Average_excess_waiting_time": {
        "D": 37.173100193185064,
        "E": 35.531118725579006,
        "G": 35.12475023251858,
        "H": 34.343234873510596,
        "L": 39.40276422310262,
        "A": 37.84675503369414,
        "B": 36.821007702781,
        "F": 35.10450080240156,
        "I": 35.14910134174892,
        "J": 36.08676968972105,
        "C": 38.12942518658889,
        "K": 39.44182075808612
    },
    "Holding_per_stop": {
        "A": 9.801980198019802,
        "E": 10.990099009900991,
        "H": 13.069306930693068,
        "G": 11.881188118811881,
        "L": 14.7,
        "D": 12.3,
        "F": 7.5,
        "I": 10.396039603960396,
        "B": 12.178217821782178,
        "C": 15.3,
        "J": 9.9,
        "K": 16.2
    },
    "Actions_tfl_edges": {},
    "Load_per_bus_per_stop": {
        "bus0": {
            "D": 73.3529411764706,
            "E": 73.47058823529412,
            "F": 75.41176470588235,
            "G": 75.11764705882354,
            "H": 75.29411764705883,
            "I": 76.88235294117646,
            "J": 76.3529411764706,
            "K": 74.58823529411765,
            "L": 73.52941176470588,
            "A": 72.25,
            "B": 74.5,
            "C": 76.875
        },
        "bus1": {
            "E": 72.3529411764706,
            "F": 72.82352941176471,
            "G": 72.3529411764706,
            "H": 72.3529411764706,
            "I": 72.29411764705883,
            "J": 73.52941176470588,
            "K": 73.76470588235294,
            "L": 73.41176470588235,
            "A": 74.58823529411765,
            "B": 75.6470588235294,
            "C": 76.1875,
            "D": 75.5
        },
        "bus2": {
            "G": 69.41176470588235,
            "H": 69.17647058823529,
            "I": 68.94117647058823,
            "J": 69.17647058823529,
            "K": 70.82352941176471,
            "L": 70.94117647058823,
            "A": 72.05882352941177,
            "B": 72.58823529411765,
            "C": 74.82352941176471,
            "D": 76.70588235294117,
            "E": 74.5625,
            "F": 73.5625
        },
        "bus3": {
            "H": 74.88235294117646,
            "I": 77.6470588235294,
            "J": 77.94117647058823,
            "K": 77.76470588235294,
            "L": 76.94117647058823,
            "A": 77.70588235294117,
            "B": 76.23529411764706,
            "C": 74.58823529411765,
            "D": 75.23529411764706,
            "E": 76.52941176470588,
            "F": 78.3125,
            "G": 79.625
        },
        "bus4": {
            "L": 69.88235294117646,
            "A": 71.70588235294117,
            "B": 70.76470588235294,
            "C": 72.23529411764706,
            "D": 73.3529411764706,
            "E": 74.11764705882354,
            "F": 73.58823529411765,
            "G": 75.47058823529412,
            "H": 76.05882352941177,
            "I": 74.5,
            "J": 75.8125,
            "K": 75.25
        },
        "bus5": {
            "A": 70.88235294117646,
            "B": 70.70588235294117,
            "C": 70.76470588235294,
            "D": 70.52941176470588,
            "E": 69,
            "F": 71.3529411764706,
            "G": 71.29411764705883,
            "H": 73.70588235294117,
            "I": 75.05882352941177,
            "J": 76.88235294117646,
            "K": 75.875,
            "L": 76.125
        }
    },
    "Obs_and_actions_busses": {
        "5": 160.0592443197817,
        "0": -118.19334331439458,
        "1": 46.579173856432696,
        "3": 75.259400322437
    },
    "Obs_and_actions_tfls": {}
}47610968907,
        "3": 75.22672654045161,
        "1": 46.344908466702464,
        "5": 195.62926999688094,
        "4": 30.269847970815132
    },
    "Obs_and_actions_tfls": {}
}