{
    "Average_holding_time": 30.79787234042553,
    "Average_holding_actions": [
        328,
        558,
        177,
        29,
        11,
        0
    ],
    "Average_travel_time_passengers": 2692.88376850745,
    "Average_passenger_waiting_time": 313.6024231332531,
    "Average_passenger_in_vehicle_time": 2379.2813453741232,
    "Average_speed_busses": 0.047,
    "Average_experienced_crowding": 79.67935832561494,
    "Average_covariation_headway": 0.11213764732165168,
    "Average_covariation_headway_stops": {
        "B": 0.09210048011005063,
        "D": 0.08765445398573644,
        "G": 0.09047374283069386,
        "H": 0.0935449126968409,
        "I": 0.10372135373228027,
        "L": 0.09371516889003259,
        "E": 0.05751945262117473,
        "J": 0.06902932646063795,
        "C": 0.06494564161204838,
        "A": 0.06604191204771813,
        "F": 0.05610977181392402,
        "K": 0.07494713921959896
    },
    "Average_excess_waiting_time": {
        "B": 54.51969609902352,
        "D": 54.16275478823786,
        "G": 56.12670859461457,
        "H": 54.48009447827758,
        "I": 53.413521952695305,
        "L": 54.731495390386954,
        "E": 54.39704686323165,
        "J": 53.18511540291587,
        "C": 54.901586271765666,
        "A": 55.304624186571345,
        "F": 56.221828098472486,
        "K": 55.28234647817061
    },
    "Holding_per_stop": {
        "D": 27.127659574468087,
        "I": 36.63157894736842,
        "B": 18.829787234042552,
        "H": 32.5531914893617,
        "G": 32.87234042553192,
        "L": 24.574468085106382,
        "E": 32.234042553191486,
        "J": 34.46808510638298,
        "C": 47.234042553191486,
        "A": 2.5531914893617023,
        "K": 48.191489361702125,
        "F": 32.25806451612903
    },
    "Actions_tfl_edges": {},
    "Load_per_bus_per_stop": {
        "bus0": {
            "B": 77.8125,
            "C": 78.75,
            "D": 78.0625,
            "E": 77.5,
            "F": 78.3125,
            "G": 78.625,
            "H": 78.625,
            "I": 79.75,
            "J": 81.5625,
            "K": 83.93333333333334,
            "L": 84.93333333333334,
            "A": 82.06666666666666
        },
        "bus1": {
            "D": 71.3125,
            "E": 73.125,
            "F": 75.9375,
            "G": 76.375,
            "H": 77.5625,
            "I": 77.3125,
            "J": 77.5,
            "K": 78.0625,
            "L": 78.93333333333334,
            "A": 77.33333333333333,
            "B": 77.6,
            "C": 76.66666666666667
        },
        "bus2": {
            "G": 78.25,
            "H": 79.3125,
            "I": 80.125,
            "J": 81.25,
            "K": 81.1875,
            "L": 80.5,
            "A": 79.9375,
            "B": 78.13333333333334,
            "C": 79.2,
            "D": 80.13333333333334,
            "E": 81.66666666666667,
            "F": 81.06666666666666
        },
        "bus3": {
            "H": 76.875,
            "I": 75.4375,
            "J": 75.9375,
            "K": 76.1875,
            "L": 77.9375,
            "A": 79.125,
            "B": 80.25,
            "C": 80.6875,
            "D": 81.33333333333333,
            "E": 82.4,
            "F": 81.06666666666666,
            "G": 81.93333333333334
        },
        "bus4": {
            "I": 73.0625,
            "J": 74.375,
            "K": 77.875,
            "L": 78.875,
            "A": 77.8125,
            "B": 77.8125,
            "C": 79.1875,
            "D": 77.5625,
            "E": 78.3125,
            "F": 79.13333333333334,
            "G": 79.13333333333334,
            "H": 77.86666666666666
        },
        "bus5": {
            "L": 77.1875,
            "A": 79.125,
            "B": 80.25,
            "C": 80.1875,
            "D": 79.75,
            "E": 82.25,
            "F": 84.6875,
            "G": 84.9375,
            "H": 84.13333333333334,
            "I": 85.93333333333334,
            "J": 84.93333333333334,
            "K": 82.53333333333333
        }
    },
    "Obs_and_actions_busses": {
        "0": -99.94267923360759,
        "2": 41.03162714284803,
        "5": 220.54530853837113,
        "1": 1.8576170335445727,
        "4": 74.58148962727438,
        "3": 24.275762078868926
    },
    "Obs_and_actions_tfls": {}
}