{
    "Average_holding_time": 31.546666666666667,
    "Average_holding_actions": [
        288,
        606,
        170,
        18,
        18,
        0
    ],
    "Average_travel_time_passengers": 2710.525919182995,
    "Average_passenger_waiting_time": 315.5629947351266,
    "Average_passenger_in_vehicle_time": 2394.962924447782,
    "Average_speed_busses": 0.046875,
    "Average_experienced_crowding": 80.25293970226072,
    "Average_covariation_headway": 0.1077152576743866,
    "Average_covariation_headway_stops": {
        "C": 0.08689244969728778,
        "F": 0.08551168872799587,
        "H": 0.0818762219871557,
        "K": 0.0974559260457339,
        "L": 0.1016038869833241,
        "A": 0.10319524022752141,
        "D": 0.05355101437303581,
        "B": 0.07547429765585602,
        "I": 0.05897112465556146,
        "G": 0.04342773215456872,
        "J": 0.0647127137520728,
        "E": 0.04860345927712455
    },
    "Average_excess_waiting_time": {
        "C": 53.49307129363609,
        "F": 55.305881871728616,
        "H": 55.2917219443147,
        "K": 58.10136642437567,
        "L": 56.37922568771063,
        "A": 54.9274098589766,
        "D": 53.858586099231786,
        "B": 54.69745552197918,
        "I": 56.152788499624364,
        "G": 55.31465424988352,
        "J": 58.315414860194664,
        "E": 55.39554060143763
    },
    "Holding_per_stop": {
        "C": 45.1578947368421,
        "A": 4.787234042553192,
        "H": 33.191489361702125,
        "L": 19.46808510638298,
        "K": 49.67741935483871,
        "F": 35.1063829787234,
        "B": 20.425531914893618,
        "I": 38.70967741935484,
        "D": 26.80851063829787,
        "G": 32.25806451612903,
        "E": 28.72340425531915,
        "J": 44.516129032258064
    },
    "Actions_tfl_edges": {},
    "Load_per_bus_per_stop": {
        "bus0": {
            "C": 78.1875,
            "D": 76.6875,
            "E": 78.4375,
            "F": 80,
            "G": 79.125,
            "H": 80.125,
            "I": 80.3125,
            "J": 82.1875,
            "K": 82.0625,
            "L": 82.93333333333334,
            "A": 82.4,
            "B": 82.06666666666666
        },
        "bus1": {
            "F": 73.25,
            "G": 72.75,
            "H": 73.8125,
            "I": 74.75,
            "J": 77.6875,
            "K": 80.8125,
            "L": 83.25,
            "A": 84.6875,
            "B": 85.2,
            "C": 82.26666666666667,
            "D": 80,
            "E": 77.93333333333334
        },
        "bus2": {
            "H": 76.4375,
            "I": 74.6875,
            "J": 77,
            "K": 78,
            "L": 78.125,
            "A": 79.0625,
            "B": 78.4375,
            "C": 79.0625,
            "D": 79,
            "E": 80.93333333333334,
            "F": 80.66666666666667,
            "G": 80.66666666666667
        },
        "bus3": {
            "K": 73.6875,
            "L": 74.875,
            "A": 76.5,
            "B": 78.5,
            "C": 78.0625,
            "D": 79.5625,
            "E": 79.4375,
            "F": 78.13333333333334,
            "G": 77.53333333333333,
            "H": 75.06666666666666,
            "I": 76.93333333333334,
            "J": 78.86666666666666
        },
        "bus4": {
            "L": 75.9375,
            "A": 77.1875,
            "B": 79.25,
            "C": 79.1875,
            "D": 79.9375,
            "E": 80.25,
            "F": 82.125,
            "G": 80.8125,
            "H": 80.33333333333333,
            "I": 80.26666666666667,
            "J": 79.33333333333333,
            "K": 80.26666666666667
        },
        "bus5": {
            "A": 81.375,
            "B": 80.9375,
            "C": 82.25,
            "D": 83.0625,
            "E": 83.625,
            "F": 84.875,
            "G": 84.8125,
            "H": 86,
            "I": 86.125,
            "J": 86.46666666666667,
            "K": 87.66666666666667,
            "L": 87.2
        }
    },
    "Obs_and_actions_busses": {
        "0": -100.65030328098112,
        "1": 2.118740607413,
        "2": 42.352102300941574,
        "3": 25.618757754782525,
        "4": 77.71535073831033,
        "5": 163.800765695021
    },
    "Obs_and_actions_tfls": {}
}