{
    "Average_holding_time": 33.080357142857146,
    "Average_holding_actions": [
        287,
        575,
        184,
        30,
        20,
        0
    ],
    "Average_travel_time_passengers": 2713.7969758905515,
    "Average_passenger_waiting_time": 317.7745903359135,
    "Average_passenger_in_vehicle_time": 2396.022385554536,
    "Average_speed_busses": 0.04666666666666667,
    "Average_experienced_crowding": 81.00946263835644,
    "Average_covariation_headway": 0.11401276140663795,
    "Average_covariation_headway_stops": {
        "B": 0.10933172370001397,
        "F": 0.11069685633497947,
        "G": 0.10652965200064667,
        "J": 0.09140843733419123,
        "L": 0.09388227088154494,
        "A": 0.09842337777950855,
        "C": 0.08677525733771614,
        "H": 0.06350133773180029,
        "K": 0.06684369551166963,
        "D": 0.06806791994641594,
        "I": 0.05622535158090018,
        "E": 0.0809813794651502
    },
    "Average_excess_waiting_time": {
        "B": 56.29865105018848,
        "F": 59.54887720772899,
        "G": 57.502348797759964,
        "J": 58.59258277308601,
        "L": 58.66173472459582,
        "A": 57.38789451083369,
        "C": 56.45663132237928,
        "H": 57.09477743023899,
        "K": 59.047044597581305,
        "D": 57.26325728571851,
        "I": 58.518020128146304,
        "E": 59.54963186512305
    },
    "Holding_per_stop": {
        "B": 25.851063829787233,
        "A": 6.0638297872340425,
        "G": 32.5531914893617,
        "J": 41.935483870967744,
        "L": 27.419354838709676,
        "F": 33.225806451612904,
        "C": 48.51063829787234,
        "H": 34.193548387096776,
        "K": 51.29032258064516,
        "D": 30,
        "I": 37.096774193548384,
        "E": 29.032258064516128
    },
    "Actions_tfl_edges": {},
    "Load_per_bus_per_stop": {
        "bus0": {
            "B": 77.4375,
            "C": 77.25,
            "D": 75.9375,
            "E": 76.9375,
            "F": 78.5,
            "G": 81.0625,
            "H": 82.5,
            "I": 82.875,
            "J": 82.66666666666667,
            "K": 83.06666666666666,
            "L": 82.8,
            "A": 82.4
        },
        "bus1": {
            "F": 80.5,
            "G": 80.25,
            "H": 81.375,
            "I": 81.0625,
            "J": 83.8125,
            "K": 86.3125,
            "L": 87,
            "A": 85.86666666666666,
            "B": 83.6,
            "C": 82.53333333333333,
            "D": 84.66666666666667,
            "E": 83.06666666666666
        },
        "bus2": {
            "G": 78.1875,
            "H": 77.875,
            "I": 78.1875,
            "J": 80.5625,
            "K": 82.9375,
            "L": 83.75,
            "A": 83.3125,
            "B": 82,
            "C": 83.06666666666666,
            "D": 83.73333333333333,
            "E": 80.53333333333333,
            "F": 80.66666666666667
        },
        "bus3": {
            "J": 78.4375,
            "K": 79.1875,
            "L": 78.1875,
            "A": 78.375,
            "B": 80.9375,
            "C": 80.625,
            "D": 80.8,
            "E": 81.73333333333333,
            "F": 81.8,
            "G": 81.13333333333334,
            "H": 81.13333333333334,
            "I": 81.73333333333333
        },
        "bus4": {
            "L": 76.9375,
            "A": 78.5,
            "B": 80.8125,
            "C": 80.9375,
            "D": 81.75,
            "E": 82.4375,
            "F": 80.6,
            "G": 81.13333333333334,
            "H": 82.53333333333333,
            "I": 82,
            "J": 83.13333333333334,
            "K": 81.73333333333333
        },
        "bus5": {
            "A": 75.3125,
            "B": 76.4375,
            "C": 76.625,
            "D": 75.8125,
            "E": 76.5625,
            "F": 76.125,
            "G": 76.1875,
            "H": 78.33333333333333,
            "I": 79.06666666666666,
            "J": 81.2,
            "K": 82.46666666666667,
            "L": 82.06666666666666
        }
    },
    "Obs_and_actions_busses": {
        "0": -108.94953150282906,
        "2": 39.96696117950579,
        "4": 77.06711439197315,
        "1": 1.6066596719582737,
        "3": 24.377318114665925,
        "5": 205.8464048186903
    },
    "Obs_and_actions_tfls": {}
}