{
    "Average_holding_time": 10.517241379310345,
    "Average_holding_actions": [
        962,
        121,
        122,
        3,
        10,
        0
    ],
    "Average_travel_time_passengers": 2474.255446937964,
    "Average_passenger_waiting_time": 290.7630488909149,
    "Average_passenger_in_vehicle_time": 2183.4923980469744,
    "Average_speed_busses": 0.05075,
    "Average_experienced_crowding": 71.37320387880611,
    "Average_covariation_headway": 0.10336244302043342,
    "Average_covariation_headway_stops": {
        "C": 0.09189756818633932,
        "D": 0.09281181810586209,
        "E": 0.10366255753539101,
        "G": 0.08304032558546609,
        "J": 0.09115256931614749,
        "A": 0.103079648777764,
        "H": 0.05693563888946169,
        "K": 0.0703355133976453,
        "F": 0.07721818776476136,
        "B": 0.07155772119771324,
        "I": 0.05940352170089436,
        "L": 0.07985247464649331
    },
    "Average_excess_waiting_time": {
        "C": 32.98964404283589,
        "D": 31.47176192813049,
        "E": 30.782322156578175,
        "G": 29.72461906582805,
        "J": 31.541366323599107,
        "A": 33.70045205766627,
        "H": 30.114898954261207,
        "K": 31.83029835043311,
        "F": 30.820954096031244,
        "B": 33.44318159293533,
        "I": 31.33742495574404,
        "L": 33.89087829502961
    },
    "Holding_per_stop": {
        "G": 9.411764705882353,
        "D": 11.176470588235293,
        "J": 10.882352941176471,
        "E": 4.705882352941177,
        "A": 2.9702970297029703,
        "C": 14.257425742574258,
        "H": 7.352941176470588,
        "F": 12.058823529411764,
        "K": 24.059405940594058,
        "I": 12.475247524752476,
        "B": 5.9405940594059405,
        "L": 10.990099009900991
    },
    "Actions_tfl_edges": {},
    "Load_per_bus_per_stop": {
        "bus0": {
            "C": 65.52941176470588,
            "D": 66.52941176470588,
            "E": 67.29411764705883,
            "F": 67.52941176470588,
            "G": 69.17647058823529,
            "H": 71.70588235294117,
            "I": 71.3529411764706,
            "J": 71.17647058823529,
            "K": 72.17647058823529,
            "L": 72.82352941176471,
            "A": 69.625,
            "B": 69.5
        },
        "bus1": {
            "D": 69.70588235294117,
            "E": 69.05882352941177,
            "F": 68.23529411764706,
            "G": 69.05882352941177,
            "H": 69,
            "I": 69.29411764705883,
            "J": 71.94117647058823,
            "K": 71.29411764705883,
            "L": 73.23529411764706,
            "A": 73.3529411764706,
            "B": 74.47058823529412,
            "C": 73.5
        },
        "bus2": {
            "E": 67.23529411764706,
            "F": 69.23529411764706,
            "G": 68.82352941176471,
            "H": 67.6470588235294,
            "I": 68.47058823529412,
            "J": 69.76470588235294,
            "K": 72.47058823529412,
            "L": 72.47058823529412,
            "A": 73.3529411764706,
            "B": 72.17647058823529,
            "C": 71.6470588235294,
            "D": 70.05882352941177
        },
        "bus3": {
            "G": 69.82352941176471,
            "H": 69.29411764705883,
            "I": 70.76470588235294,
            "J": 71.41176470588235,
            "K": 74.11764705882354,
            "L": 74.47058823529412,
            "A": 72.76470588235294,
            "B": 72.52941176470588,
            "C": 72,
            "D": 72.11764705882354,
            "E": 72.52941176470588,
            "F": 74.3529411764706
        },
        "bus4": {
            "J": 71.17647058823529,
            "K": 70.52941176470588,
            "L": 71.6470588235294,
            "A": 72.23529411764706,
            "B": 74,
            "C": 74.88235294117646,
            "D": 74.23529411764706,
            "E": 75.05882352941177,
            "F": 74.94117647058823,
            "G": 75.70588235294117,
            "H": 75.6470588235294,
            "I": 76.6875
        },
        "bus5": {
            "A": 66.58823529411765,
            "B": 67.05882352941177,
            "C": 68.41176470588235,
            "D": 69.17647058823529,
            "E": 69.47058823529412,
            "F": 70.29411764705883,
            "G": 70.94117647058823,
            "H": 71.52941176470588,
            "I": 72.6470588235294,
            "J": 70.52941176470588,
            "K": 70.5625,
            "L": 70.625
        }
    },
    "Obs_and_actions_busses": {
        "0": -110.36085647938785,
        "1": 24.457779143623497,
        "5": 198.10105936387467,
        "2": 55.95454430642028,
        "4": 42.285197935649464
    },
    "Obs_and_actions_tfls": {}
}