{
    "Average_holding_time": 15.666387259010897,
    "Average_holding_actions": [
        881,
        22,
        283,
        0,
        7,
        0
    ],
    "Average_travel_time_passengers": 2544.8438784836503,
    "Average_passenger_waiting_time": 296.88926589483884,
    "Average_passenger_in_vehicle_time": 2247.9546125887414,
    "Average_speed_busses": 0.049708333333333334,
    "Average_experienced_crowding": 75.12726125352268,
    "Average_covariation_headway": 0.12357061690212301,
    "Average_covariation_headway_stops": {
        "C": 0.09885334523514233,
        "F": 0.11349829829433446,
        "H": 0.09749208553178788,
        "I": 0.1003810909778465,
        "K": 0.08961973409697263,
        "L": 0.09331053032739733,
        "A": 0.07465544681963243,
        "D": 0.0732534892333402,
        "J": 0.065049749655403,
        "G": 0.07294444881930873,
        "B": 0.07679048342357368,
        "E": 0.08379432819264537
    },
    "Average_excess_waiting_time": {
        "C": 38.30872375063251,
        "F": 40.74829238998791,
        "H": 39.640396384798294,
        "I": 38.14645128573903,
        "K": 37.67696918202586,
        "L": 36.65154359669003,
        "A": 37.11450399745405,
        "D": 38.5451458849264,
        "J": 38.17164625615044,
        "G": 39.9431221520158,
        "B": 38.7235625355753,
        "E": 40.4876921198765
    },
    "Holding_per_stop": {
        "L": 21,
        "C": 23.4,
        "I": 18.9,
        "H": 13.333333333333334,
        "F": 16.363636363636363,
        "K": 38.4,
        "A": 3.3,
        "J": 22.424242424242426,
        "D": 8.181818181818182,
        "G": 9.090909090909092,
        "B": 6.0606060606060606,
        "E": 7.2727272727272725
    },
    "Actions_tfl_edges": {},
    "Load_per_bus_per_stop": {
        "bus0": {
            "C": 74.6470588235294,
            "D": 76,
            "E": 77.05882352941177,
            "F": 76.52941176470588,
            "G": 77.23529411764706,
            "H": 76.52941176470588,
            "I": 75.41176470588235,
            "J": 77.5,
            "K": 77.8125,
            "L": 77.5,
            "A": 76.8125,
            "B": 78.8125
        },
        "bus1": {
            "F": 72.47058823529412,
            "G": 72.23529411764706,
            "H": 74,
            "I": 73.17647058823529,
            "J": 74.88235294117646,
            "K": 76.23529411764706,
            "L": 77.25,
            "A": 78.8125,
            "B": 79.1875,
            "C": 78.1875,
            "D": 77.4375,
            "E": 77.4375
        },
        "bus2": {
            "H": 71.3529411764706,
            "I": 70,
            "J": 71.41176470588235,
            "K": 71,
            "L": 69.88235294117646,
            "A": 72.29411764705883,
            "B": 74.5625,
            "C": 76.3125,
            "D": 75.25,
            "E": 76.1875,
            "F": 76.375,
            "G": 76.4375
        },
        "bus3": {
            "I": 72.3529411764706,
            "J": 73.52941176470588,
            "K": 73.70588235294117,
            "L": 74.11764705882354,
            "A": 72.41176470588235,
            "B": 71.05882352941177,
            "C": 72.94117647058823,
            "D": 72.6875,
            "E": 71.875,
            "F": 72.8125,
            "G": 73.9375,
            "H": 73.3125
        },
        "bus4": {
            "K": 75.58823529411765,
            "L": 74.82352941176471,
            "A": 74.70588235294117,
            "B": 74.82352941176471,
            "C": 75.58823529411765,
            "D": 74.6470588235294,
            "E": 74.82352941176471,
            "F": 73.3125,
            "G": 73.8125,
            "H": 73.0625,
            "I": 76.9375,
            "J": 79.6875
        },
        "bus5": {
            "L": 71.70588235294117,
            "A": 72.58823529411765,
            "B": 72.23529411764706,
            "C": 73.17647058823529,
            "D": 73.6470588235294,
            "E": 74.94117647058823,
            "F": 76.88235294117646,
            "G": 77.3529411764706,
            "H": 76.5625,
            "I": 78.0625,
            "J": 78.3125,
            "K": 77.1875
        }
    },
    "Obs_and_actions_busses": {
        "0": -110.44575720681296,
        "5": 248.6668073451696,
        "1": 11.120523111965342,
        "2": 46.830336628704586
    },
    "Obs_and_actions_tfls": {}
}ls": {}
}