{
    "Average_holding_time": 9.213759213759214,
    "Average_holding_actions": [
        1050,
        102,
        0,
        0,
        33,
        0
    ],
    "Average_travel_time_passengers": 2494.49202837113,
    "Average_passenger_waiting_time": 291.42018669789906,
    "Average_passenger_in_vehicle_time": 2203.071841673155,
    "Average_speed_busses": 0.050875,
    "Average_experienced_crowding": 73.39980601610495,
    "Average_covariation_headway": 0.13632957109670418,
    "Average_covariation_headway_stops": {
        "D": 0.12925463004532803,
        "G": 0.14017359626747417,
        "H": 0.1320178632330604,
        "I": 0.13826119374899806,
        "K": 0.11280336674253122,
        "L": 0.10469352708200184,
        "A": 0.08335876821316138,
        "J": 0.11300400386310268,
        "E": 0.10288763704107601,
        "B": 0.08341714700131073,
        "F": 0.11483218061434998,
        "C": 0.11916745731648204
    },
    "Average_excess_waiting_time": {
        "D": 33.81442581541188,
        "G": 36.16073000349263,
        "H": 34.02884383232714,
        "I": 33.14480368864912,
        "K": 31.229693836505703,
        "L": 29.213838164712286,
        "A": 29.52275531384879,
        "J": 32.6823170169485,
        "E": 33.713928671905705,
        "B": 30.93225051828597,
        "F": 35.90182931307817,
        "C": 34.61281251161796
    },
    "Holding_per_stop": {
        "L": 9.611650485436893,
        "I": 9.411764705882353,
        "H": 8.823529411764707,
        "D": 6.764705882352941,
        "K": 15,
        "G": 6.534653465346534,
        "J": 12.647058823529411,
        "A": 3.823529411764706,
        "E": 8.01980198019802,
        "B": 7.647058823529412,
        "C": 15.445544554455445,
        "F": 6.8316831683168315
    },
    "Actions_tfl_edges": {},
    "Load_per_bus_per_stop": {
        "bus0": {
            "D": 67.52941176470588,
            "E": 69.52941176470588,
            "F": 71.11764705882354,
            "G": 73.47058823529412,
            "H": 74.11764705882354,
            "I": 73.58823529411765,
            "J": 74.88235294117646,
            "K": 75.11764705882354,
            "L": 74.70588235294117,
            "A": 73.3529411764706,
            "B": 70.6470588235294,
            "C": 71.0625
        },
        "bus1": {
            "G": 73.94117647058823,
            "H": 73.70588235294117,
            "I": 75.11764705882354,
            "J": 76.17647058823529,
            "K": 78.47058823529412,
            "L": 79.47058823529412,
            "A": 77.88235294117646,
            "B": 78.76470588235294,
            "C": 76.47058823529412,
            "D": 76.11764705882354,
            "E": 78.375,
            "F": 80.3125
        },
        "bus2": {
            "H": 70.94117647058823,
            "I": 71.82352941176471,
            "J": 71.11764705882354,
            "K": 71.47058823529412,
            "L": 71.41176470588235,
            "A": 72.82352941176471,
            "B": 73.41176470588235,
            "C": 74.41176470588235,
            "D": 75.82352941176471,
            "E": 74.70588235294117,
            "F": 73.52941176470588,
            "G": 75.1875
        },
        "bus3": {
            "I": 68.05882352941177,
            "J": 68.17647058823529,
            "K": 70.17647058823529,
            "L": 71.23529411764706,
            "A": 72.41176470588235,
            "B": 72.88235294117646,
            "C": 72.11764705882354,
            "D": 70.88235294117646,
            "E": 72.29411764705883,
            "F": 71.58823529411765,
            "G": 73.3529411764706,
            "H": 73.11764705882354
        },
        "bus4": {
            "K": 67.82352941176471,
            "L": 67,
            "A": 67.47058823529412,
            "B": 68.17647058823529,
            "C": 68.3529411764706,
            "D": 71.11764705882354,
            "E": 70.52941176470588,
            "F": 70.88235294117646,
            "G": 72,
            "H": 73.47058823529412,
            "I": 73.17647058823529,
            "J": 71.94117647058823
        },
        "bus5": {
            "L": 69.22222222222223,
            "A": 70.70588235294117,
            "B": 70.52941176470588,
            "C": 69.94117647058823,
            "D": 72.23529411764706,
            "E": 74.58823529411765,
            "F": 75.58823529411765,
            "G": 75.17647058823529,
            "H": 76.05882352941177,
            "I": 76.58823529411765,
            "J": 75.82352941176471,
            "K": 73.58823529411765
        }
    },
    "Obs_and_actions_busses": {
        "5": 180.17603786171048,
        "1": 45.846075614859274,
        "0": -117.64672677076611,
        "3": 79.15231152911788
    },
    "Obs_and_actions_tfls": {}
}