{
    "Average_holding_time": 37.82016348773842,
    "Average_holding_actions": [
        83,
        684,
        322,
        0,
        12,
        0
    ],
    "Average_travel_time_passengers": 2744.3522697311505,
    "Average_passenger_waiting_time": 324.1699004154323,
    "Average_passenger_in_vehicle_time": 2420.1823693156284,
    "Average_speed_busses": 0.045875,
    "Average_experienced_crowding": 82.19219146404156,
    "Average_covariation_headway": 0.12962483674159261,
    "Average_covariation_headway_stops": {
        "B": 0.11589568717609827,
        "G": 0.16563720455069905,
        "H": 0.1642418057142622,
        "I": 0.161320491137024,
        "L": 0.10844380885644185,
        "A": 0.1077739263209291,
        "J": 0.12680797250814987,
        "C": 0.08785611255211691,
        "K": 0.10476870748067241,
        "D": 0.07758128160647286,
        "E": 0.10289860203012402,
        "F": 0.1410284674957322
    },
    "Average_excess_waiting_time": {
        "B": 61.73006408494712,
        "G": 71.50760444424702,
        "H": 69.50592916798712,
        "I": 67.20461366716131,
        "L": 64.69421041529586,
        "A": 62.9215342482139,
        "J": 65.88385562489503,
        "C": 61.522526851659734,
        "K": 66.06830193167286,
        "D": 62.717913760648,
        "E": 66.00396200675237,
        "F": 70.80647446753585
    },
    "Holding_per_stop": {
        "I": 37.5,
        "B": 31.612903225806452,
        "H": 36.52173913043478,
        "A": 28.043478260869566,
        "G": 35.934065934065934,
        "L": 51.84782608695652,
        "J": 40.108695652173914,
        "C": 35.869565217391305,
        "K": 58.35164835164835,
        "D": 32.28260869565217,
        "E": 33.62637362637363,
        "F": 32.30769230769231
    },
    "Actions_tfl_edges": {},
    "Load_per_bus_per_stop": {
        "bus0": {
            "B": 77.625,
            "C": 78.1875,
            "D": 79.5,
            "E": 79.625,
            "F": 79.625,
            "G": 81.86666666666666,
            "H": 84.73333333333333,
            "I": 82.6,
            "J": 84.4,
            "K": 82.13333333333334,
            "L": 83.93333333333334,
            "A": 83.6
        },
        "bus1": {
            "G": 81.0625,
            "H": 82.8125,
            "I": 83.33333333333333,
            "J": 83.06666666666666,
            "K": 81.13333333333334,
            "L": 79.66666666666667,
            "A": 78.33333333333333,
            "B": 78.46666666666667,
            "C": 80.4,
            "D": 81.26666666666667,
            "E": 83.6,
            "F": 86.53333333333333
        },
        "bus2": {
            "H": 79.6875,
            "I": 79.6875,
            "J": 79.5,
            "K": 81.4,
            "L": 81.93333333333334,
            "A": 82.33333333333333,
            "B": 85.93333333333334,
            "C": 84.53333333333333,
            "D": 82.93333333333334,
            "E": 85.4,
            "F": 85.4,
            "G": 85.26666666666667
        },
        "bus3": {
            "I": 76.5,
            "J": 75.875,
            "K": 77.625,
            "L": 79.25,
            "A": 80.53333333333333,
            "B": 80.46666666666667,
            "C": 81.2,
            "D": 80.53333333333333,
            "E": 79.53333333333333,
            "F": 80.8,
            "G": 81.73333333333333,
            "H": 79.73333333333333
        },
        "bus4": {
            "L": 77.75,
            "A": 79.125,
            "B": 79.125,
            "C": 80.2,
            "D": 82.46666666666667,
            "E": 83.86666666666666,
            "F": 84.06666666666666,
            "G": 84.66666666666667,
            "H": 83.4,
            "I": 85,
            "J": 83.93333333333334,
            "K": 81.8
        },
        "bus5": {
            "A": 77.8125,
            "B": 77.5,
            "C": 76.375,
            "D": 76.6875,
            "E": 76.4,
            "F": 77.26666666666667,
            "G": 78.53333333333333,
            "H": 80.26666666666667,
            "I": 81.46666666666667,
            "J": 82.4,
            "K": 82.93333333333334,
            "L": 82.53333333333333
        }
    },
    "Obs_and_actions_busses": {
        "5": 484.7158348000763,
        "1": -12.198133845366208,
        "2": 39.25333758373478,
        "0": -313.42065561331583
    },
    "Obs_and_actions_tfls": {}
}