{
    "Average_holding_time": 32.75646743978591,
    "Average_holding_actions": [
        35,
        988,
        78,
        20,
        0,
        0
    ],
    "Average_travel_time_passengers": 2735.956484701574,
    "Average_passenger_waiting_time": 315.6674248565659,
    "Average_passenger_in_vehicle_time": 2420.289059844917,
    "Average_speed_busses": 0.04670833333333333,
    "Average_experienced_crowding": 80.87008901138549,
    "Average_covariation_headway": 0.10305114731206315,
    "Average_covariation_headway_stops": {
        "B": 0.07967747230619773,
        "C": 0.09114218613653177,
        "G": 0.11509941142895899,
        "I": 0.098613031171608,
        "J": 0.10028658979066206,
        "L": 0.08065495167423176,
        "D": 0.0607805336091736,
        "K": 0.06483600742754114,
        "A": 0.05217811786310359,
        "H": 0.08097148742861743,
        "E": 0.05864041148238676,
        "F": 0.0868955983035605
    },
    "Average_excess_waiting_time": {
        "B": 55.77973931249295,
        "C": 54.55598943008022,
        "G": 59.68349017058506,
        "I": 58.78704601739793,
        "J": 57.27887152140221,
        "L": 55.968199926883415,
        "D": 54.74773334861817,
        "K": 56.976209863324925,
        "A": 56.33535912506949,
        "H": 59.33808505197271,
        "E": 56.4483960161478,
        "F": 59.372460361484684
    },
    "Holding_per_stop": {
        "C": 35.1063829787234,
        "J": 31.595744680851062,
        "L": 31.27659574468085,
        "I": 34.516129032258064,
        "B": 31.27659574468085,
        "G": 32.25806451612903,
        "D": 33.191489361702125,
        "K": 35.806451612903224,
        "A": 26.774193548387096,
        "H": 35.483870967741936,
        "E": 33.54838709677419,
        "F": 32.25806451612903
    },
    "Actions_tfl_edges": {},
    "Load_per_bus_per_stop": {
        "bus0": {
            "B": 76.6875,
            "C": 76.0625,
            "D": 76.875,
            "E": 78.9375,
            "F": 78,
            "G": 80.0625,
            "H": 80.3125,
            "I": 79.93333333333334,
            "J": 79.66666666666667,
            "K": 78.53333333333333,
            "L": 80.26666666666667,
            "A": 81.53333333333333
        },
        "bus1": {
            "C": 75.75,
            "D": 76.9375,
            "E": 78.8125,
            "F": 80.5,
            "G": 80,
            "H": 79.125,
            "I": 80.6875,
            "J": 79.625,
            "K": 79.53333333333333,
            "L": 79.86666666666666,
            "A": 80.26666666666667,
            "B": 80.2
        },
        "bus2": {
            "G": 77.0625,
            "H": 77.8125,
            "I": 77.625,
            "J": 78,
            "K": 79.75,
            "L": 82.4375,
            "A": 81.13333333333334,
            "B": 82.33333333333333,
            "C": 81.66666666666667,
            "D": 81.66666666666667,
            "E": 82.4,
            "F": 83.53333333333333
        },
        "bus3": {
            "I": 78.4375,
            "J": 78,
            "K": 78,
            "L": 80.25,
            "A": 79.9375,
            "B": 81.125,
            "C": 81.46666666666667,
            "D": 83.26666666666667,
            "E": 85.2,
            "F": 86,
            "G": 85.93333333333334,
            "H": 85.46666666666667
        },
        "bus4": {
            "J": 78.0625,
            "K": 79.125,
            "L": 78.25,
            "A": 79.375,
            "B": 80.3125,
            "C": 80.5625,
            "D": 81.6875,
            "E": 83,
            "F": 81.66666666666667,
            "G": 82.2,
            "H": 83.4,
            "I": 81.8
        },
        "bus5": {
            "L": 77.3125,
            "A": 78.8125,
            "B": 78.125,
            "C": 80.125,
            "D": 81,
            "E": 80.5625,
            "F": 81.625,
            "G": 82.2,
            "H": 84.13333333333334,
            "I": 82.8,
            "J": 82.4,
            "K": 82.06666666666666
        }
    },
    "Obs_and_actions_busses": {
        "4": 184.43853159900615,
        "1": -18.916541213361413,
        "2": 56.36913344449296,
        "0": -365.6390456407393
    },
    "Obs_and_actions_tfls": {}
}and_actions_tfls": {}
}