{
    "Average_holding_time": 27.296587926509186,
    "Average_holding_actions": [
        265,
        771,
        82,
        0,
        15,
        0
    ],
    "Average_travel_time_passengers": 2646.15451119841,
    "Average_passenger_waiting_time": 311.2899938581031,
    "Average_passenger_in_vehicle_time": 2334.8645173402188,
    "Average_speed_busses": 0.047625,
    "Average_experienced_crowding": 77.48958107403509,
    "Average_covariation_headway": 0.1265291538836542,
    "Average_covariation_headway_stops": {
        "E": 0.16582307884359881,
        "F": 0.15606134962290222,
        "G": 0.15284587480752992,
        "J": 0.10283455389811276,
        "K": 0.0976504923257614,
        "L": 0.110497103878924,
        "A": 0.08413503488139955,
        "H": 0.11568875378601132,
        "B": 0.075719661694391,
        "I": 0.10677446618718522,
        "C": 0.10201577758476432,
        "D": 0.1408561934008718
    },
    "Average_excess_waiting_time": {
        "E": 58.4747760917553,
        "F": 55.878886573361854,
        "G": 54.02653719131973,
        "J": 51.719556328641545,
        "K": 49.62118037838502,
        "L": 48.788028017098384,
        "A": 48.89728068683786,
        "H": 52.5722159003933,
        "B": 50.12655165495005,
        "I": 53.63984814885765,
        "C": 53.341698627048004,
        "D": 57.9317356372091
    },
    "Holding_per_stop": {
        "L": 26.5625,
        "G": 31.25,
        "K": 31.25,
        "F": 26.842105263157894,
        "E": 27.157894736842106,
        "J": 29.36842105263158,
        "A": 15.625,
        "H": 28.105263157894736,
        "I": 32.526315789473685,
        "B": 32.8421052631579,
        "C": 20.210526315789473,
        "D": 25.851063829787233
    },
    "Actions_tfl_edges": {},
    "Load_per_bus_per_stop": {
        "bus0": {
            "E": 75.625,
            "F": 76.5,
            "G": 76.5625,
            "H": 77.8125,
            "I": 78.3125,
            "J": 79.125,
            "K": 81.0625,
            "L": 80.0625,
            "A": 80.1875,
            "B": 81.46666666666667,
            "C": 80.86666666666666,
            "D": 81.53333333333333
        },
        "bus1": {
            "F": 75.625,
            "G": 77.3125,
            "H": 77,
            "I": 76.5625,
            "J": 77,
            "K": 76.125,
            "L": 75.9375,
            "A": 76.9375,
            "B": 78.9375,
            "C": 77.5,
            "D": 78.75,
            "E": 79.66666666666667
        },
        "bus2": {
            "G": 67.625,
            "H": 69.625,
            "I": 69.6875,
            "J": 71.875,
            "K": 73.3125,
            "L": 73.5,
            "A": 75.25,
            "B": 75.1875,
            "C": 74.8125,
            "D": 74.3125,
            "E": 75.5625,
            "F": 73.1875
        },
        "bus3": {
            "J": 77.625,
            "K": 77.5,
            "L": 78.75,
            "A": 78.4375,
            "B": 78.5625,
            "C": 77.4375,
            "D": 78.125,
            "E": 77.4375,
            "F": 81.25,
            "G": 81.875,
            "H": 83.125,
            "I": 84
        },
        "bus4": {
            "K": 71.375,
            "L": 71.0625,
            "A": 72.25,
            "B": 72.9375,
            "C": 75.0625,
            "D": 74.4375,
            "E": 73.6875,
            "F": 74.75,
            "G": 73.8125,
            "H": 73.75,
            "I": 74.4375,
            "J": 74.6875
        },
        "bus5": {
            "L": 73.88235294117646,
            "A": 74.1875,
            "B": 75.875,
            "C": 76.0625,
            "D": 77.875,
            "E": 77.9375,
            "F": 79.5,
            "G": 79.875,
            "H": 81.4375,
            "I": 81.8125,
            "J": 81.8125,
            "K": 80.125
        }
    },
    "Obs_and_actions_busses": {
        "5": 422.5897761588941,
        "0": -217.88110647029958,
        "1": 11.921254965976537,
        "2": -21.221958089605675,
        "3": 91.6397118526297
    },
    "Obs_and_actions_tfls": {}
}