{
    "Average_holding_time": 25.20417028670721,
    "Average_holding_actions": [
        300,
        785,
        44,
        0,
        14,
        0
    ],
    "Average_travel_time_passengers": 2604.8996595045282,
    "Average_passenger_waiting_time": 308.7911750598152,
    "Average_passenger_in_vehicle_time": 2296.1084844446286,
    "Average_speed_busses": 0.04795833333333333,
    "Average_experienced_crowding": 76.73373659670145,
    "Average_covariation_headway": 0.12468236317361334,
    "Average_covariation_headway_stops": {
        "C": 0.1081684292382377,
        "D": 0.10032124420630383,
        "I": 0.16005488095509496,
        "J": 0.15385259259503978,
        "K": 0.14913475918616995,
        "L": 0.14976953804359572,
        "E": 0.06920937354370583,
        "A": 0.12018814164761334,
        "B": 0.09734263313083977,
        "F": 0.05986243518673995,
        "G": 0.08794833128743924,
        "H": 0.13187816002072225
    },
    "Average_excess_waiting_time": {
        "C": 48.9485024794655,
        "D": 46.8043531589376,
        "I": 56.47699057276168,
        "J": 54.206795342993814,
        "K": 52.244618673421996,
        "L": 50.718240778463894,
        "E": 46.689553867344216,
        "A": 50.00009236334165,
        "B": 49.99175493688557,
        "F": 47.89576468904744,
        "G": 50.767976053164375,
        "H": 55.62490592280784
    },
    "Holding_per_stop": {
        "D": 25.670103092783506,
        "L": 29.072164948453608,
        "K": 29.0625,
        "J": 28.4375,
        "I": 27.789473684210527,
        "C": 25.3125,
        "A": 13.75,
        "E": 28.125,
        "F": 25,
        "B": 20.625,
        "G": 24.31578947368421,
        "H": 25.263157894736842
    },
    "Actions_tfl_edges": {},
    "Load_per_bus_per_stop": {
        "bus0": {
            "C": 66.75,
            "D": 67.5625,
            "E": 68.25,
            "F": 70.375,
            "G": 70.25,
            "H": 72.125,
            "I": 73.8125,
            "J": 72.25,
            "K": 73.25,
            "L": 73.75,
            "A": 73.9375,
            "B": 71.1875
        },
        "bus1": {
            "D": 78.47058823529412,
            "E": 79,
            "F": 76.5625,
            "G": 75.375,
            "H": 77.1875,
            "I": 79.5625,
            "J": 81.5625,
            "K": 82.875,
            "L": 84.1875,
            "A": 83.625,
            "B": 83.5625,
            "C": 83.8125
        },
        "bus2": {
            "I": 72.5625,
            "J": 73.0625,
            "K": 73.8125,
            "L": 74.0625,
            "A": 74.625,
            "B": 73.4375,
            "C": 73.25,
            "D": 73.125,
            "E": 72.5625,
            "F": 71.4375,
            "G": 72.875,
            "H": 75.13333333333334
        },
        "bus3": {
            "J": 71.5,
            "K": 71.9375,
            "L": 74.375,
            "A": 75.875,
            "B": 77.75,
            "C": 78.75,
            "D": 78.8125,
            "E": 79.125,
            "F": 78.1875,
            "G": 77.9375,
            "H": 76.4375,
            "I": 75.6
        },
        "bus4": {
            "K": 73.875,
            "L": 74.6875,
            "A": 76.0625,
            "B": 77,
            "C": 76.4375,
            "D": 76.8125,
            "E": 76.0625,
            "F": 76.375,
            "G": 77.875,
            "H": 76.8125,
            "I": 75.9375,
            "J": 76.75
        },
        "bus5": {
            "L": 75.76470588235294,
            "A": 76.25,
            "B": 75.9375,
            "C": 76.5625,
            "D": 78.25,
            "E": 76.875,
            "F": 77.6875,
            "G": 78.875,
            "H": 80.4375,
            "I": 80.75,
            "J": 79.8125,
            "K": 79.25
        }
    },
    "Obs_and_actions_busses": {
        "5": 442.2880778039822,
        "1": 11.706670002070247,
        "0": -192.66117710398063,
        "3": 83.69448866631402,
        "2": -21.78676499418154
    },
    "Obs_and_actions_tfls": {}
}