{
    "Average_holding_time": 32.92225201072386,
    "Average_holding_actions": [
        35,
        990,
        69,
        25,
        0,
        0
    ],
    "Average_travel_time_passengers": 2745.3851136565972,
    "Average_passenger_waiting_time": 318.2629748423924,
    "Average_passenger_in_vehicle_time": 2427.122138814105,
    "Average_speed_busses": 0.046625,
    "Average_experienced_crowding": 81.19074481700177,
    "Average_covariation_headway": 0.10764741946513967,
    "Average_covariation_headway_stops": {
        "C": 0.10462124356482057,
        "E": 0.08410288897916356,
        "G": 0.08092817590370158,
        "K": 0.11933219666042884,
        "L": 0.1193201645386346,
        "A": 0.12162188969686596,
        "B": 0.08803425147610915,
        "H": 0.054960063664358856,
        "D": 0.06413364338764457,
        "F": 0.05091305999672336,
        "I": 0.05340038864725266,
        "J": 0.08469581907129416
    },
    "Average_excess_waiting_time": {
        "C": 56.6121011124485,
        "E": 55.5362515900253,
        "G": 55.60197936221232,
        "K": 61.34377399745915,
        "L": 59.54913067479333,
        "A": 58.0403251331968,
        "B": 57.50139889294502,
        "H": 56.14375577656017,
        "D": 56.27862501338711,
        "F": 55.74530470452322,
        "I": 57.80489198099673,
        "J": 60.866129361135165
    },
    "Holding_per_stop": {
        "A": 27.127659574468087,
        "G": 31.595744680851062,
        "C": 38.93617021276596,
        "E": 32.234042553191486,
        "L": 31.29032258064516,
        "K": 36.45161290322581,
        "H": 32.58064516129032,
        "B": 31.29032258064516,
        "F": 32.903225806451616,
        "D": 33.87096774193548,
        "I": 33.54838709677419,
        "J": 33.26086956521739
    },
    "Actions_tfl_edges": {},
    "Load_per_bus_per_stop": {
        "bus0": {
            "C": 82.875,
            "D": 81.8125,
            "E": 83.5625,
            "F": 83.125,
            "G": 80.875,
            "H": 83.375,
            "I": 83.4375,
            "J": 83.9375,
            "K": 85.6,
            "L": 85.6,
            "A": 86.73333333333333,
            "B": 87
        },
        "bus1": {
            "E": 76.6875,
            "F": 78.3125,
            "G": 79.625,
            "H": 81,
            "I": 82.375,
            "J": 81.875,
            "K": 81.375,
            "L": 80.9375,
            "A": 81.4,
            "B": 81.46666666666667,
            "C": 80.86666666666666,
            "D": 80.73333333333333
        },
        "bus2": {
            "G": 83.25,
            "H": 83.25,
            "I": 84.375,
            "J": 83.1875,
            "K": 84.25,
            "L": 86.125,
            "A": 87,
            "B": 86.5,
            "C": 86.86666666666666,
            "D": 87.4,
            "E": 86.2,
            "F": 85.6
        },
        "bus3": {
            "K": 74.375,
            "L": 75.625,
            "A": 75.9375,
            "B": 77.375,
            "C": 75.5625,
            "D": 76.5,
            "E": 78.06666666666666,
            "F": 78.4,
            "G": 79.73333333333333,
            "H": 78.33333333333333,
            "I": 78.66666666666667,
            "J": 79.33333333333333
        },
        "bus4": {
            "L": 75.4375,
            "A": 75.5,
            "B": 75.1875,
            "C": 73.375,
            "D": 73.875,
            "E": 74.6875,
            "F": 75.1875,
            "G": 77.2,
            "H": 79.26666666666667,
            "I": 78.66666666666667,
            "J": 78.93333333333334,
            "K": 81.13333333333334
        },
        "bus5": {
            "A": 76.875,
            "B": 77.75,
            "C": 76.875,
            "D": 76.8125,
            "E": 77.625,
            "F": 79.9375,
            "G": 80.4375,
            "H": 79.46666666666667,
            "I": 79.8,
            "J": 79.8,
            "K": 81.2,
            "L": 81.66666666666667
        }
    },
    "Obs_and_actions_busses": {
        "1": -28.427694382522528,
        "0": -307.8890649308754,
        "2": 57.8441243695817,
        "4": 195.12751489457682
    },
    "Obs_and_actions_tfls": {}
}