{
    "Average_holding_time": 34.91935483870968,
    "Average_holding_actions": [
        301,
        522,
        200,
        32,
        33,
        0
    ],
    "Average_travel_time_passengers": 2710.7639376968914,
    "Average_passenger_waiting_time": 315.65262036831257,
    "Average_passenger_in_vehicle_time": 2395.111317328504,
    "Average_speed_busses": 0.0465,
    "Average_experienced_crowding": 79.13517733602538,
    "Average_covariation_headway": 0.11811488510448871,
    "Average_covariation_headway_stops": {
        "D": 0.09297026247924783,
        "F": 0.08686682361924256,
        "I": 0.09888617837800809,
        "J": 0.10584969365581516,
        "K": 0.10904389254779448,
        "A": 0.1067279917124593,
        "G": 0.05887189226821045,
        "B": 0.07500601210434778,
        "L": 0.0814412206633816,
        "E": 0.05369752426458648,
        "H": 0.06807665121308296,
        "C": 0.07313490436640539
    },
    "Average_excess_waiting_time": {
        "D": 58.99279653977635,
        "F": 58.623398977304134,
        "I": 61.25229386047414,
        "J": 59.99428987290452,
        "K": 58.582343792191296,
        "A": 58.26872635163471,
        "G": 59.06266722307811,
        "B": 58.16116370961748,
        "L": 58.75622822824499,
        "E": 58.89872142740421,
        "H": 61.34502314691838,
        "C": 59.71096751015068
    },
    "Holding_per_stop": {
        "F": 33.225806451612904,
        "A": 5.74468085106383,
        "K": 47.74193548387097,
        "J": 45.16129032258065,
        "I": 44.83870967741935,
        "D": 26.451612903225808,
        "G": 32.58064516129032,
        "L": 35.16129032258065,
        "B": 27.096774193548388,
        "E": 32.58064516129032,
        "H": 39.130434782608695,
        "C": 49.67741935483871
    },
    "Actions_tfl_edges": {},
    "Load_per_bus_per_stop": {
        "bus0": {
            "D": 74.0625,
            "E": 75.0625,
            "F": 76.8125,
            "G": 76.1875,
            "H": 77.125,
            "I": 78.3125,
            "J": 80.46666666666667,
            "K": 81.06666666666666,
            "L": 79.53333333333333,
            "A": 78.66666666666667,
            "B": 79.66666666666667,
            "C": 78.06666666666666
        },
        "bus1": {
            "F": 76.125,
            "G": 76.0625,
            "H": 77.4375,
            "I": 77.75,
            "J": 78.5625,
            "K": 81.25,
            "L": 80.33333333333333,
            "A": 79.26666666666667,
            "B": 81.4,
            "C": 82.73333333333333,
            "D": 81,
            "E": 81.46666666666667
        },
        "bus2": {
            "I": 74.625,
            "J": 73.25,
            "K": 74,
            "L": 74.25,
            "A": 77.625,
            "B": 77.8,
            "C": 77.06666666666666,
            "D": 79.66666666666667,
            "E": 78.53333333333333,
            "F": 80.4,
            "G": 80.06666666666666,
            "H": 82
        },
        "bus3": {
            "J": 75.4375,
            "K": 76.3125,
            "L": 76.1875,
            "A": 77.4375,
            "B": 78.5625,
            "C": 81.0625,
            "D": 81.53333333333333,
            "E": 82.33333333333333,
            "F": 81.53333333333333,
            "G": 81.8,
            "H": 81.73333333333333,
            "I": 81.2
        },
        "bus4": {
            "K": 75.25,
            "L": 75,
            "A": 75.5625,
            "B": 75.125,
            "C": 76.5625,
            "D": 77.875,
            "E": 79.625,
            "F": 79.06666666666666,
            "G": 79.13333333333334,
            "H": 80.06666666666666,
            "I": 81.53333333333333,
            "J": 81.26666666666667
        },
        "bus5": {
            "A": 75.1875,
            "B": 74.75,
            "C": 75.6875,
            "D": 77.5625,
            "E": 79.4375,
            "F": 79.375,
            "G": 82,
            "H": 84.06666666666666,
            "I": 84.6,
            "J": 82.26666666666667,
            "K": 82.46666666666667,
            "L": 81.53333333333333
        }
    },
    "Obs_and_actions_busses": {
        "5": 139.5687694931095,
        "0": -106.54442766806842,
        "2": 42.96248469719365,
        "1": 1.219745898982146,
        "3": 24.11049601291864,
        "4": 74.57887841406051
    },
    "Obs_and_actions_tfls": {}
}