{
    "Average_holding_time": 37.78584392014519,
    "Average_holding_actions": [
        56,
        737,
        298,
        0,
        11,
        0
    ],
    "Average_travel_time_passengers": 2755.3199448289784,
    "Average_passenger_waiting_time": 321.4151912021443,
    "Average_passenger_in_vehicle_time": 2433.904753626747,
    "Average_speed_busses": 0.04591666666666667,
    "Average_experienced_crowding": 81.02693160161533,
    "Average_covariation_headway": 0.10321581671832762,
    "Average_covariation_headway_stops": {
        "C": 0.08803892604984555,
        "D": 0.08813194145939658,
        "E": 0.09653772296333653,
        "I": 0.10969897002993627,
        "K": 0.09022117154714182,
        "L": 0.09329248795527295,
        "F": 0.06523389539915027,
        "A": 0.053953560112911005,
        "J": 0.07022057366270831,
        "G": 0.06365209011693063,
        "B": 0.051989752855969275,
        "H": 0.07984826222420649
    },
    "Average_excess_waiting_time": {
        "C": 63.17573657647068,
        "D": 61.538038030872315,
        "E": 60.1673617530563,
        "I": 64.47423406525309,
        "K": 63.13083161275398,
        "L": 61.53023685022555,
        "F": 60.26853644218238,
        "A": 61.54510653466002,
        "J": 63.96142477803318,
        "G": 61.88949900705933,
        "B": 63.38001092134505,
        "H": 64.57153500584724
    },
    "Holding_per_stop": {
        "E": 34.516129032258064,
        "L": 52.5,
        "D": 32.93478260869565,
        "C": 38.47826086956522,
        "I": 35.54347826086956,
        "K": 59.34782608695652,
        "F": 35.869565217391305,
        "A": 26.08695652173913,
        "G": 35.54347826086956,
        "J": 41.53846153846154,
        "B": 30.65934065934066,
        "H": 30.32967032967033
    },
    "Actions_tfl_edges": {},
    "Load_per_bus_per_stop": {
        "bus0": {
            "C": 79,
            "D": 79.375,
            "E": 78.6875,
            "F": 80.86666666666666,
            "G": 82.6,
            "H": 82.06666666666666,
            "I": 82.53333333333333,
            "J": 83.26666666666667,
            "K": 83.26666666666667,
            "L": 82.6,
            "A": 80.8,
            "B": 82.46666666666667
        },
        "bus1": {
            "D": 78.1875,
            "E": 79,
            "F": 80,
            "G": 80.1875,
            "H": 80.53333333333333,
            "I": 81.6,
            "J": 81.13333333333334,
            "K": 80.8,
            "L": 82.46666666666667,
            "A": 83.53333333333333,
            "B": 83.86666666666666,
            "C": 83.86666666666666
        },
        "bus2": {
            "E": 77.8125,
            "F": 80.1875,
            "G": 81,
            "H": 81.625,
            "I": 81.625,
            "J": 81.46666666666667,
            "K": 82.26666666666667,
            "L": 81.86666666666666,
            "A": 81.93333333333334,
            "B": 82.2,
            "C": 82.33333333333333,
            "D": 82.73333333333333
        },
        "bus3": {
            "I": 75.375,
            "J": 76.5625,
            "K": 77.8125,
            "L": 77.46666666666667,
            "A": 78.06666666666666,
            "B": 79.53333333333333,
            "C": 81,
            "D": 81.73333333333333,
            "E": 79.8,
            "F": 79.13333333333334,
            "G": 78.93333333333334,
            "H": 80.26666666666667
        },
        "bus4": {
            "K": 73.8125,
            "L": 74.75,
            "A": 75.0625,
            "B": 76,
            "C": 75.2,
            "D": 74.86666666666666,
            "E": 77,
            "F": 77.86666666666666,
            "G": 76.66666666666667,
            "H": 78.4,
            "I": 79.13333333333334,
            "J": 77.73333333333333
        },
        "bus5": {
            "L": 81.5,
            "A": 81,
            "B": 82.375,
            "C": 85.5,
            "D": 87.86666666666666,
            "E": 87.53333333333333,
            "F": 86.4,
            "G": 87.6,
            "H": 85.8,
            "I": 83.8,
            "J": 84.33333333333333,
            "K": 85.8
        }
    },
    "Obs_and_actions_busses": {
        "5": 297.6048090668578,
        "2": 36.94931935749051,
        "0": -316.5525817109943,
        "1": -7.575629667954917
    },
    "Obs_and_actions_tfls": {}
}      "3": 106.36671869535002
    },
    "Obs_and_actions_tfls": {}
}