{
    "Average_holding_time": 16.122792262405383,
    "Average_holding_actions": [
        873,
        123,
        144,
        17,
        32,
        0
    ],
    "Average_travel_time_passengers": 2564.3550778741746,
    "Average_passenger_waiting_time": 301.4327291496382,
    "Average_passenger_in_vehicle_time": 2262.9223487244694,
    "Average_speed_busses": 0.049541666666666664,
    "Average_experienced_crowding": 76.43255576074394,
    "Average_covariation_headway": 0.14648430624091702,
    "Average_covariation_headway_stops": {
        "C": 0.17868530691457074,
        "D": 0.16817257484072146,
        "G": 0.1424650985919497,
        "H": 0.14600598853227115,
        "I": 0.13949841145040695,
        "J": 0.13944722263624656,
        "E": 0.15025193178097074,
        "K": 0.12292332087366942,
        "F": 0.13750682628967892,
        "L": 0.10978477286706756,
        "A": 0.1238950271823125,
        "B": 0.1567308391590593
    },
    "Average_excess_waiting_time": {
        "C": 47.34378617793942,
        "D": 44.655313366834264,
        "G": 43.78625998681986,
        "H": 42.75564981432876,
        "I": 40.578934076531084,
        "J": 39.13246972777762,
        "E": 44.47735573010635,
        "K": 39.33278504356974,
        "F": 45.04172930498805,
        "L": 40.0260118788334,
        "A": 42.45250591012331,
        "B": 46.77672061585679
    },
    "Holding_per_stop": {
        "D": 15.151515151515152,
        "H": 14.242424242424242,
        "I": 19.5,
        "J": 22.2,
        "G": 19.393939393939394,
        "C": 17.575757575757574,
        "E": 12.121212121212121,
        "K": 27,
        "F": 18.979591836734695,
        "L": 16.96969696969697,
        "A": 3.3333333333333335,
        "B": 6.73469387755102
    },
    "Actions_tfl_edges": {},
    "Load_per_bus_per_stop": {
        "bus0": {
            "C": 74.29411764705883,
            "D": 73.23529411764706,
            "E": 73.05882352941177,
            "F": 74.52941176470588,
            "G": 75.11764705882354,
            "H": 75.25,
            "I": 76.5,
            "J": 77,
            "K": 77.0625,
            "L": 77.125,
            "A": 77.125,
            "B": 78.3125
        },
        "bus1": {
            "D": 71.52941176470588,
            "E": 72.82352941176471,
            "F": 74.58823529411765,
            "G": 78.47058823529412,
            "H": 78.3529411764706,
            "I": 79.05882352941177,
            "J": 78.25,
            "K": 77.9375,
            "L": 76.3125,
            "A": 77.125,
            "B": 77,
            "C": 76.375
        },
        "bus2": {
            "G": 75.82352941176471,
            "H": 75.88235294117646,
            "I": 76.05882352941177,
            "J": 76.41176470588235,
            "K": 77.6470588235294,
            "L": 76.8125,
            "A": 76.625,
            "B": 76.5625,
            "C": 76.8125,
            "D": 79.125,
            "E": 77.875,
            "F": 79.9375
        },
        "bus3": {
            "H": 73.11764705882354,
            "I": 74.17647058823529,
            "J": 75.11764705882354,
            "K": 74.3529411764706,
            "L": 74.94117647058823,
            "A": 74.82352941176471,
            "B": 74.3125,
            "C": 76.3125,
            "D": 77,
            "E": 75.6875,
            "F": 75.625,
            "G": 76.75
        },
        "bus4": {
            "I": 66.47058823529412,
            "J": 67.47058823529412,
            "K": 68.58823529411765,
            "L": 69.23529411764706,
            "A": 70.17647058823529,
            "B": 70.17647058823529,
            "C": 69.47058823529412,
            "D": 70,
            "E": 69.75,
            "F": 70.25,
            "G": 69.1875,
            "H": 70.1875
        },
        "bus5": {
            "J": 76.88235294117646,
            "K": 76.3529411764706,
            "L": 77.17647058823529,
            "A": 76.52941176470588,
            "B": 78.76470588235294,
            "C": 81,
            "D": 84.23529411764706,
            "E": 83.94117647058823,
            "F": 82.5625,
            "G": 83.6875,
            "H": 83.125,
            "I": 81
        }
    },
    "Obs_and_actions_busses": {
        "5": 255.50018097279965,
        "0": -128.4213052126974,
        "4": 41.92472705728503,
        "2": 59.8518978704596,
        "1": 22.830977735797166
    },
    "Obs_and_actions_tfls": {}
}8102358452716
    },
    "Obs_and_actions_tfls": {}
}