{
    "Average_holding_time": 16.83235046335299,
    "Average_holding_actions": [
        948,
        0,
        139,
        0,
        44,
        0
    ],
    "Average_travel_time_passengers": 2570.4060363186395,
    "Average_passenger_waiting_time": 303.73963046909756,
    "Average_passenger_in_vehicle_time": 2266.6664058494785,
    "Average_speed_busses": 0.04945833333333333,
    "Average_experienced_crowding": 76.33915107032699,
    "Average_covariation_headway": 0.17476613993631013,
    "Average_covariation_headway_stops": {
        "B": 0.1624658752859457,
        "E": 0.13475229154046184,
        "F": 0.13096869929751828,
        "K": 0.18157549158330857,
        "L": 0.17150469323034634,
        "A": 0.1594297920716874,
        "C": 0.14292644073668923,
        "G": 0.10527496188501116,
        "D": 0.13503136289016887,
        "H": 0.09945226248120359,
        "I": 0.12394543196420978,
        "J": 0.1577751396291906
    },
    "Average_excess_waiting_time": {
        "B": 42.95382928605426,
        "E": 41.70296587922195,
        "F": 39.845610517047135,
        "K": 49.332359211125095,
        "L": 46.639334922434955,
        "A": 44.2389752378848,
        "C": 42.15097755391082,
        "G": 39.56396921553784,
        "D": 43.41181210026514,
        "H": 40.70903851012605,
        "I": 43.914948938855446,
        "J": 48.218881518170804
    },
    "Holding_per_stop": {
        "B": 13.5,
        "L": 17.272727272727273,
        "A": 3.6363636363636362,
        "F": 16.5,
        "E": 13.636363636363637,
        "K": 25.102040816326532,
        "C": 30.90909090909091,
        "G": 14.545454545454545,
        "D": 14.242424242424242,
        "H": 10.606060606060606,
        "I": 16.836734693877553,
        "J": 25.408163265306122
    },
    "Actions_tfl_edges": {},
    "Load_per_bus_per_stop": {
        "bus0": {
            "B": 76.6470588235294,
            "C": 77.41176470588235,
            "D": 78.52941176470588,
            "E": 78.58823529411765,
            "F": 80.29411764705883,
            "G": 80.05882352941177,
            "H": 79,
            "I": 79.75,
            "J": 80.8125,
            "K": 79.75,
            "L": 80.75,
            "A": 80.0625
        },
        "bus1": {
            "E": 69,
            "F": 69.3529411764706,
            "G": 70.41176470588235,
            "H": 72.23529411764706,
            "I": 72,
            "J": 72,
            "K": 74.5,
            "L": 73.75,
            "A": 73.5,
            "B": 72.5625,
            "C": 72.375,
            "D": 73
        },
        "bus2": {
            "F": 75.52941176470588,
            "G": 76.94117647058823,
            "H": 78.3529411764706,
            "I": 79.82352941176471,
            "J": 80.11764705882354,
            "K": 81.52941176470588,
            "L": 80.41176470588235,
            "A": 79,
            "B": 81.875,
            "C": 81.5,
            "D": 80.25,
            "E": 80.5625
        },
        "bus3": {
            "K": 68.47058823529412,
            "L": 69.05882352941177,
            "A": 72.17647058823529,
            "B": 72.17647058823529,
            "C": 74.375,
            "D": 75.1875,
            "E": 73.0625,
            "F": 72.5,
            "G": 72.5,
            "H": 72.3125,
            "I": 70.75,
            "J": 71.4375
        },
        "bus4": {
            "L": 72.05882352941177,
            "A": 73.47058823529412,
            "B": 73.88235294117646,
            "C": 73.47058823529412,
            "D": 76.11764705882354,
            "E": 77.3125,
            "F": 77.375,
            "G": 76.5,
            "H": 75.8125,
            "I": 76.875,
            "J": 75.8125,
            "K": 77.0625
        },
        "bus5": {
            "A": 71.82352941176471,
            "B": 71.70588235294117,
            "C": 72.3529411764706,
            "D": 73.11764705882354,
            "E": 74.11764705882354,
            "F": 75.41176470588235,
            "G": 74.9375,
            "H": 75.625,
            "I": 74.8125,
            "J": 75.125,
            "K": 76.5625,
            "L": 78.3125
        }
    },
    "Obs_and_actions_busses": {
        "0": -118.42068529314221,
        "5": 145.1224742846132,
        "2": 46.97218314257832,
        "3": 151.09016153055128
    },
    "Obs_and_actions_tfls": {}
}