{
    "Average_holding_time": 18.52417302798982,
    "Average_holding_actions": [
        909,
        0,
        162,
        0,
        40,
        0
    ],
    "Average_travel_time_passengers": 2565.896582566621,
    "Average_passenger_waiting_time": 307.219992271569,
    "Average_passenger_in_vehicle_time": 2258.6765902949833,
    "Average_speed_busses": 0.049125,
    "Average_experienced_crowding": 76.99868099220001,
    "Average_covariation_headway": 0.18861896592333058,
    "Average_covariation_headway_stops": {
        "B": 0.14609472355889636,
        "G": 0.1927568648576984,
        "H": 0.18574740119800798,
        "I": 0.18127009943226186,
        "L": 0.16481706374740365,
        "A": 0.15507147530773832,
        "J": 0.15490825239831155,
        "C": 0.13521972733955198,
        "K": 0.15118110032570425,
        "D": 0.12181550601167884,
        "E": 0.14004841902489365,
        "F": 0.16909067609196024
    },
    "Average_excess_waiting_time": {
        "B": 42.89228794836441,
        "G": 52.377303892270106,
        "H": 49.81897354640404,
        "I": 47.94506224357775,
        "L": 47.74089820920864,
        "A": 45.15472197207225,
        "J": 46.74195892896694,
        "C": 43.49387297108905,
        "K": 47.87054203834788,
        "D": 44.16678913847892,
        "E": 47.06872362888964,
        "F": 51.41872225773301
    },
    "Holding_per_stop": {
        "H": 17.142857142857142,
        "I": 24.545454545454547,
        "B": 11.212121212121213,
        "A": 12.121212121212121,
        "G": 18.979591836734695,
        "L": 23.26530612244898,
        "J": 19.285714285714285,
        "C": 26.666666666666668,
        "K": 31.224489795918366,
        "D": 10.714285714285714,
        "E": 17.142857142857142,
        "F": 9.896907216494846
    },
    "Actions_tfl_edges": {},
    "Load_per_bus_per_stop": {
        "bus0": {
            "B": 80.58823529411765,
            "C": 80.41176470588235,
            "D": 80.76470588235294,
            "E": 81.88235294117646,
            "F": 84.58823529411765,
            "G": 86.11764705882354,
            "H": 86.75,
            "I": 85.8125,
            "J": 85.5,
            "K": 83.5,
            "L": 84.5625,
            "A": 85.75
        },
        "bus1": {
            "G": 73.6470588235294,
            "H": 74.23529411764706,
            "I": 74.3529411764706,
            "J": 76.9375,
            "K": 76.875,
            "L": 75.625,
            "A": 75.5625,
            "B": 76.5625,
            "C": 77.5625,
            "D": 78.25,
            "E": 78.0625,
            "F": 78.875
        },
        "bus2": {
            "H": 74.47058823529412,
            "I": 75.58823529411765,
            "J": 75.11764705882354,
            "K": 73.11764705882354,
            "L": 74.125,
            "A": 73.3125,
            "B": 75.1875,
            "C": 75.75,
            "D": 76.6875,
            "E": 79.1875,
            "F": 78.5,
            "G": 79.1875
        },
        "bus3": {
            "I": 75.58823529411765,
            "J": 76.29411764705883,
            "K": 75.76470588235294,
            "L": 75.76470588235294,
            "A": 77,
            "B": 77.625,
            "C": 76.8125,
            "D": 77.25,
            "E": 78.9375,
            "F": 80.4375,
            "G": 79.75,
            "H": 80.0625
        },
        "bus4": {
            "L": 69.52941176470588,
            "A": 71.47058823529412,
            "B": 72.23529411764706,
            "C": 73,
            "D": 73.375,
            "E": 72.125,
            "F": 71.875,
            "G": 73.0625,
            "H": 74,
            "I": 73.1875,
            "J": 74.625,
            "K": 73.8125
        },
        "bus5": {
            "A": 67.11764705882354,
            "B": 67,
            "C": 66.70588235294117,
            "D": 68.6470588235294,
            "E": 69.82352941176471,
            "F": 67.75,
            "G": 68,
            "H": 68.375,
            "I": 68.3125,
            "J": 68.9375,
            "K": 70.4375,
            "L": 70.625
        }
    },
    "Obs_and_actions_busses": {
        "5": 180.649223845041,
        "0": -126.40353637968848,
        "3": 129.7304841700333,
        "2": 46.485073307487035
    },
    "Obs_and_actions_tfls": {}
}379,
        "3": 108.82605025864574,
        "5": 119.95574182189681
    },
    "Obs_and_actions_tfls": {}
}