{
    "Average_holding_time": 17.933954276037255,
    "Average_holding_actions": [
        902,
        48,
        154,
        35,
        42,
        0
    ],
    "Average_travel_time_passengers": 2581.3074511751047,
    "Average_passenger_waiting_time": 300.63002892419763,
    "Average_passenger_in_vehicle_time": 2280.6774222508316,
    "Average_speed_busses": 0.04920833333333333,
    "Average_experienced_crowding": 76.53862144326693,
    "Average_covariation_headway": 0.18155827307783168,
    "Average_covariation_headway_stops": {
        "B": 0.13045146173099445,
        "D": 0.11923309703139186,
        "F": 0.12379007498873212,
        "G": 0.12135404808152293,
        "K": 0.14530712025525228,
        "A": 0.12772359585231252,
        "E": 0.10232957100999909,
        "H": 0.1175508740549192,
        "C": 0.11127056546568423,
        "L": 0.1213957168330082,
        "I": 0.10609372904563229,
        "J": 0.13321826487251864
    },
    "Average_excess_waiting_time": {
        "B": 42.83268403390815,
        "D": 42.20600981575126,
        "F": 42.41910274282384,
        "G": 40.28325704433189,
        "K": 45.2215793465524,
        "A": 44.241869549594185,
        "E": 42.322908716884,
        "H": 41.79513456439253,
        "C": 43.257520100601596,
        "L": 45.11962641880575,
        "I": 42.44999630581219,
        "J": 45.87681839576055
    },
    "Holding_per_stop": {
        "D": 16.363636363636363,
        "G": 21.21212121212121,
        "B": 8.484848484848484,
        "A": 9.183673469387756,
        "F": 20.606060606060606,
        "K": 22.040816326530614,
        "H": 21.515151515151516,
        "C": 21.73469387755102,
        "E": 16.224489795918366,
        "I": 19.591836734693878,
        "L": 18.6734693877551,
        "J": 19.591836734693878
    },
    "Actions_tfl_edges": {},
    "Load_per_bus_per_stop": {
        "bus0": {
            "B": 76.23529411764706,
            "C": 77,
            "D": 76.23529411764706,
            "E": 76.47058823529412,
            "F": 76.82352941176471,
            "G": 77.625,
            "H": 76.75,
            "I": 78.1875,
            "J": 78.625,
            "K": 79.1875,
            "L": 80,
            "A": 79.375
        },
        "bus1": {
            "D": 75.41176470588235,
            "E": 76.29411764705883,
            "F": 75.6470588235294,
            "G": 75,
            "H": 75.52941176470588,
            "I": 78.1875,
            "J": 79,
            "K": 79.1875,
            "L": 79.75,
            "A": 80.75,
            "B": 80.625,
            "C": 78.5625
        },
        "bus2": {
            "F": 74.6470588235294,
            "G": 74.23529411764706,
            "H": 75.29411764705883,
            "I": 75.23529411764706,
            "J": 75.58823529411765,
            "K": 76.88235294117646,
            "L": 76.8125,
            "A": 78.25,
            "B": 79.1875,
            "C": 79.375,
            "D": 77.5,
            "E": 78.375
        },
        "bus3": {
            "G": 74.58823529411765,
            "H": 72.88235294117646,
            "I": 72.11764705882354,
            "J": 74.70588235294117,
            "K": 77.47058823529412,
            "L": 77.41176470588235,
            "A": 77.5,
            "B": 78.5625,
            "C": 79,
            "D": 78.8125,
            "E": 78.125,
            "F": 78.875
        },
        "bus4": {
            "K": 69.70588235294117,
            "L": 70.41176470588235,
            "A": 73.82352941176471,
            "B": 74.11764705882354,
            "C": 74.25,
            "D": 73.8125,
            "E": 74.1875,
            "F": 75.8125,
            "G": 75.1875,
            "H": 74.75,
            "I": 75.0625,
            "J": 73.3125
        },
        "bus5": {
            "A": 68.52941176470588,
            "B": 69.23529411764706,
            "C": 70.47058823529412,
            "D": 70.88235294117646,
            "E": 71.9375,
            "F": 74.25,
            "G": 75.125,
            "H": 73.8125,
            "I": 74.0625,
            "J": 74.625,
            "K": 75.8125,
            "L": 74.25
        }
    },
    "Obs_and_actions_busses": {
        "0": -107.0103706308444,
        "5": 169.80529065821324,
        "1": -323.36846729756934,
        "2": 59.40076134507755,
        "4": 77.43222743737111
    },
    "Obs_and_actions_tfls": {}
}: {}
}