{
    "Average_holding_time": 36.80216802168022,
    "Average_holding_actions": [
        60,
        771,
        261,
        0,
        10,
        0
    ],
    "Average_travel_time_passengers": 2756.6760313974255,
    "Average_passenger_waiting_time": 322.3491738794513,
    "Average_passenger_in_vehicle_time": 2434.32685751788,
    "Average_speed_busses": 0.046125,
    "Average_experienced_crowding": 81.4172306801551,
    "Average_covariation_headway": 0.11111594934917406,
    "Average_covariation_headway_stops": {
        "B": 0.11308197909972578,
        "C": 0.11361414247956046,
        "D": 0.11657498251120352,
        "H": 0.12279734587546233,
        "I": 0.11352208059800155,
        "A": 0.11737242340625903,
        "J": 0.06553851309036567,
        "E": 0.09233948280359927,
        "K": 0.05208862623192581,
        "F": 0.07668620140607944,
        "G": 0.09395150390615359,
        "L": 0.08370001946107834
    },
    "Average_excess_waiting_time": {
        "B": 63.4504079506475,
        "C": 61.59622006239556,
        "D": 60.216526310139955,
        "H": 64.23300989237032,
        "I": 61.82370000332401,
        "A": 65.52396881913273,
        "J": 60.7015158365644,
        "E": 60.289501940360935,
        "K": 61.928458400310205,
        "F": 61.35615398783841,
        "G": 64.05856355372913,
        "L": 65.03498738253455
    },
    "Holding_per_stop": {
        "I": 36.45161290322581,
        "D": 30.322580645161292,
        "C": 37.41935483870968,
        "B": 31.630434782608695,
        "A": 28.043478260869566,
        "H": 34.56521739130435,
        "J": 39.45652173913044,
        "E": 32.25806451612903,
        "F": 33.91304347826087,
        "K": 55.108695652173914,
        "G": 33.26086956521739,
        "L": 49.45054945054945
    },
    "Actions_tfl_edges": {},
    "Load_per_bus_per_stop": {
        "bus0": {
            "B": 79.6875,
            "C": 79.375,
            "D": 79.875,
            "E": 79.1875,
            "F": 79.13333333333334,
            "G": 81.46666666666667,
            "H": 81.06666666666666,
            "I": 82.93333333333334,
            "J": 83.26666666666667,
            "K": 85.06666666666666,
            "L": 84.8,
            "A": 85.13333333333334
        },
        "bus1": {
            "C": 79.25,
            "D": 80.9375,
            "E": 82.6875,
            "F": 83.6875,
            "G": 83.0625,
            "H": 80,
            "I": 79.93333333333334,
            "J": 82.93333333333334,
            "K": 84,
            "L": 83.86666666666666,
            "A": 83.13333333333334,
            "B": 83.13333333333334
        },
        "bus2": {
            "D": 77.8125,
            "E": 78.25,
            "F": 78.3125,
            "G": 78.75,
            "H": 80.0625,
            "I": 82.3125,
            "J": 81.93333333333334,
            "K": 83.4,
            "L": 83.86666666666666,
            "A": 81.53333333333333,
            "B": 79.33333333333333,
            "C": 80.4
        },
        "bus3": {
            "H": 75.1875,
            "I": 75.3125,
            "J": 75.9375,
            "K": 76.3125,
            "L": 77.33333333333333,
            "A": 76.46666666666667,
            "B": 77.73333333333333,
            "C": 77.86666666666666,
            "D": 80.06666666666666,
            "E": 79.46666666666667,
            "F": 81.8,
            "G": 82
        },
        "bus4": {
            "I": 78.6875,
            "J": 78.6875,
            "K": 80.0625,
            "L": 80.5,
            "A": 79.125,
            "B": 81.26666666666667,
            "C": 81.13333333333334,
            "D": 83.26666666666667,
            "E": 85.4,
            "F": 86.6,
            "G": 83.4,
            "H": 85.6
        },
        "bus5": {
            "A": 79.9375,
            "B": 80.0625,
            "C": 79.8125,
            "D": 81.06666666666666,
            "E": 80,
            "F": 79.46666666666667,
            "G": 80.06666666666666,
            "H": 80,
            "I": 81,
            "J": 82.53333333333333,
            "K": 82.33333333333333,
            "L": 83.53333333333333
        }
    },
    "Obs_and_actions_busses": {
        "1": -8.823034940453331,
        "5": 445.55789513632857,
        "0": -325.5116748797091,
        "2": 39.18291676872158,
        "3": 122.7283661466811
    },
    "Obs_and_actions_tfls": {}
}