{
    "Average_holding_time": 14.360902255639099,
    "Average_holding_actions": [
        968,
        121,
        0,
        0,
        64,
        0
    ],
    "Average_travel_time_passengers": 2538.809070842116,
    "Average_passenger_waiting_time": 299.3431255641512,
    "Average_passenger_in_vehicle_time": 2239.4659452778988,
    "Average_speed_busses": 0.049875,
    "Average_experienced_crowding": 76.49509205132496,
    "Average_covariation_headway": 0.17809813313928968,
    "Average_covariation_headway_stops": {
        "B": 0.11972020538178217,
        "C": 0.14307072943527963,
        "H": 0.1800864057635128,
        "I": 0.1767010429224461,
        "K": 0.1475246753247594,
        "L": 0.13733283226464657,
        "J": 0.14784876211737524,
        "D": 0.11664305495252347,
        "A": 0.11017114312594374,
        "E": 0.1117776230760642,
        "F": 0.12470302491388477,
        "G": 0.1588349352557491
    },
    "Average_excess_waiting_time": {
        "B": 37.97708267615923,
        "C": 38.26369689510477,
        "H": 46.513982895332504,
        "I": 44.522788921484505,
        "K": 42.001057978215556,
        "L": 39.673235617825014,
        "J": 43.66485007810587,
        "D": 37.58533360646743,
        "A": 39.146564421183314,
        "E": 38.65500136580931,
        "F": 41.399696238286765,
        "G": 45.70973470327158
    },
    "Holding_per_stop": {
        "I": 12.6,
        "C": 23.168316831683168,
        "L": 14.4,
        "K": 21,
        "B": 10.8,
        "H": 17.272727272727273,
        "A": 4.5,
        "D": 12.3,
        "J": 16.666666666666668,
        "E": 17.4,
        "F": 12.424242424242424,
        "G": 9.696969696969697
    },
    "Actions_tfl_edges": {},
    "Load_per_bus_per_stop": {
        "bus0": {
            "B": 72.52941176470588,
            "C": 74.11764705882354,
            "D": 74.23529411764706,
            "E": 73.82352941176471,
            "F": 73.17647058823529,
            "G": 74.11764705882354,
            "H": 75.6470588235294,
            "I": 76.88235294117646,
            "J": 77.9375,
            "K": 77.875,
            "L": 78.375,
            "A": 78.5
        },
        "bus1": {
            "C": 79.17647058823529,
            "D": 79.47058823529412,
            "E": 81,
            "F": 82.23529411764706,
            "G": 82.94117647058823,
            "H": 85.17647058823529,
            "I": 87.6470588235294,
            "J": 86.76470588235294,
            "K": 86.82352941176471,
            "L": 85.625,
            "A": 83.75,
            "B": 83
        },
        "bus2": {
            "H": 72.70588235294117,
            "I": 73.58823529411765,
            "J": 73.47058823529412,
            "K": 73.58823529411765,
            "L": 73.23529411764706,
            "A": 73.29411764705883,
            "B": 75.125,
            "C": 76,
            "D": 77.4375,
            "E": 80.0625,
            "F": 79.9375,
            "G": 78.75
        },
        "bus3": {
            "I": 70.3529411764706,
            "J": 70.82352941176471,
            "K": 72.29411764705883,
            "L": 73.88235294117646,
            "A": 74.52941176470588,
            "B": 74.23529411764706,
            "C": 74.29411764705883,
            "D": 72.5625,
            "E": 71.5625,
            "F": 73,
            "G": 73.5625,
            "H": 74.5
        },
        "bus4": {
            "K": 70.29411764705883,
            "L": 71.29411764705883,
            "A": 72,
            "B": 71.76470588235294,
            "C": 72.3529411764706,
            "D": 71.52941176470588,
            "E": 70.58823529411765,
            "F": 71.125,
            "G": 72.0625,
            "H": 72,
            "I": 74.625,
            "J": 73.3125
        },
        "bus5": {
            "L": 73.3529411764706,
            "A": 74.11764705882354,
            "B": 73.11764705882354,
            "C": 74.3529411764706,
            "D": 74.47058823529412,
            "E": 76.29411764705883,
            "F": 76,
            "G": 75.88235294117646,
            "H": 75.3125,
            "I": 76.625,
            "J": 77.875,
            "K": 77.6875
        }
    },
    "Obs_and_actions_busses": {
        "5": 185.79422514708466,
        "0": -130.02458998563995,
        "1": 45.73762689844955,
        "3": 77.92191322854838
    },
    "Obs_and_actions_tfls": {}
}