{
    "Average_holding_time": 9.368852459016393,
    "Average_holding_actions": [
        1135,
        0,
        0,
        44,
        41,
        0
    ],
    "Average_travel_time_passengers": 2499.169541290387,
    "Average_passenger_waiting_time": 298.4686530232007,
    "Average_passenger_in_vehicle_time": 2200.700888267114,
    "Average_speed_busses": 0.050833333333333335,
    "Average_experienced_crowding": 75.45451888733815,
    "Average_covariation_headway": 0.2865961789609132,
    "Average_covariation_headway_stops": {
        "C": 0.18209336349402655,
        "D": 0.18235585094263604,
        "E": 0.1851413956771957,
        "I": 0.19813837123713704,
        "K": 0.18305719816479424,
        "L": 0.1776060193489586,
        "F": 0.18601084870979812,
        "A": 0.1654274866064104,
        "J": 0.1806518384966461,
        "G": 0.17960173457887765,
        "B": 0.16886921011089143,
        "H": 0.18615602081677884
    },
    "Average_excess_waiting_time": {
        "C": 39.042403055796626,
        "D": 37.556247829291124,
        "E": 36.383148997202795,
        "I": 40.600961179474496,
        "K": 39.73721190200962,
        "L": 37.95169353937786,
        "F": 37.686886129212496,
        "A": 37.39865581231368,
        "J": 41.06560791351433,
        "G": 38.40624723387441,
        "B": 39.22947238139426,
        "H": 40.76026702920933
    },
    "Holding_per_stop": {
        "D": 8.235294117647058,
        "E": 7.864077669902913,
        "L": 10.294117647058824,
        "C": 12.058823529411764,
        "I": 12.941176470588236,
        "K": 10.990099009900991,
        "F": 9.411764705882353,
        "A": 5.0495049504950495,
        "G": 14.117647058823529,
        "B": 7.7227722772277225,
        "J": 9.801980198019802,
        "H": 3.8613861386138613
    },
    "Actions_tfl_edges": {},
    "Load_per_bus_per_stop": {
        "bus0": {
            "C": 75.82352941176471,
            "D": 77.23529411764706,
            "E": 77.11764705882354,
            "F": 76.3529411764706,
            "G": 78.23529411764706,
            "H": 79.41176470588235,
            "I": 78.76470588235294,
            "J": 81.82352941176471,
            "K": 81.3529411764706,
            "L": 81.11764705882354,
            "A": 80.625,
            "B": 80.4375
        },
        "bus1": {
            "D": 68.17647058823529,
            "E": 67.05882352941177,
            "F": 67.70588235294117,
            "G": 66.6470588235294,
            "H": 66,
            "I": 67.58823529411765,
            "J": 69.70588235294117,
            "K": 71.41176470588235,
            "L": 70.76470588235294,
            "A": 70.52941176470588,
            "B": 72.58823529411765,
            "C": 72.17647058823529
        },
        "bus2": {
            "E": 77.44444444444444,
            "F": 78.23529411764706,
            "G": 79.3529411764706,
            "H": 80.94117647058823,
            "I": 83,
            "J": 81.58823529411765,
            "K": 81.11764705882354,
            "L": 83.41176470588235,
            "A": 82.70588235294117,
            "B": 81.41176470588235,
            "C": 81.41176470588235,
            "D": 81.29411764705883
        },
        "bus3": {
            "I": 73.11764705882354,
            "J": 73.70588235294117,
            "K": 74.29411764705883,
            "L": 73,
            "A": 73.29411764705883,
            "B": 74.11764705882354,
            "C": 76.11764705882354,
            "D": 77.88235294117646,
            "E": 77.88235294117646,
            "F": 77.41176470588235,
            "G": 77.3529411764706,
            "H": 78.5625
        },
        "bus4": {
            "K": 64.82352941176471,
            "L": 64.70588235294117,
            "A": 63.8235294117647,
            "B": 65.11764705882354,
            "C": 67.94117647058823,
            "D": 68.88235294117646,
            "E": 69.05882352941177,
            "F": 68.58823529411765,
            "G": 67.70588235294117,
            "H": 68.52941176470588,
            "I": 66.88235294117646,
            "J": 67.3125
        },
        "bus5": {
            "L": 65.82352941176471,
            "A": 66.94117647058823,
            "B": 67.58823529411765,
            "C": 67.47058823529412,
            "D": 67.3529411764706,
            "E": 68.29411764705883,
            "F": 67.6470588235294,
            "G": 67,
            "H": 66.76470588235294,
            "I": 67.70588235294117,
            "J": 67.94117647058823,
            "K": 67.70588235294117
        }
    },
    "Obs_and_actions_busses": {
        "5": 224.91833605862632,
        "4": 124.24600117387168,
        "0": -143.58787761264813
    },
    "Obs_and_actions_tfls": {}
}s": {}
}