{
    "Average_holding_time": 18.908629441624367,
    "Average_holding_actions": [
        912,
        0,
        163,
        0,
        49,
        0
    ],
    "Average_travel_time_passengers": 2600.320830312311,
    "Average_passenger_waiting_time": 304.41307305505234,
    "Average_passenger_in_vehicle_time": 2295.907757257194,
    "Average_speed_busses": 0.04925,
    "Average_experienced_crowding": 76.37533099234959,
    "Average_covariation_headway": 0.1885242247121797,
    "Average_covariation_headway_stops": {
        "B": 0.19164634015303292,
        "F": 0.16573858796347296,
        "J": 0.1826922833325164,
        "K": 0.17939069165028906,
        "L": 0.18262048638761624,
        "A": 0.18702347206319284,
        "G": 0.14958689579432569,
        "C": 0.16388645866810533,
        "D": 0.1507796558524822,
        "H": 0.15381098221722728,
        "E": 0.1569853729856388,
        "I": 0.16950177197228036
    },
    "Average_excess_waiting_time": {
        "B": 46.51651268025756,
        "F": 46.92467386655687,
        "J": 51.831572413578215,
        "K": 49.87992800287998,
        "L": 48.57722126043109,
        "A": 47.6068284466437,
        "G": 46.9748423141865,
        "C": 45.09298594834331,
        "D": 45.33557849944913,
        "H": 48.81755994784953,
        "E": 47.783280726285966,
        "I": 52.09182127545955
    },
    "Holding_per_stop": {
        "A": 8.787878787878787,
        "F": 16.666666666666668,
        "B": 16.2,
        "K": 29.387755102040817,
        "L": 24.848484848484848,
        "J": 22.959183673469386,
        "C": 23.636363636363637,
        "G": 18.6734693877551,
        "D": 14.545454545454545,
        "H": 15,
        "E": 13.46938775510204,
        "I": 22.88659793814433
    },
    "Actions_tfl_edges": {},
    "Load_per_bus_per_stop": {
        "bus0": {
            "B": 79.70588235294117,
            "C": 80.70588235294117,
            "D": 81.41176470588235,
            "E": 80.41176470588235,
            "F": 81.82352941176471,
            "G": 84.82352941176471,
            "H": 85.41176470588235,
            "I": 85.625,
            "J": 83.4375,
            "K": 81.4375,
            "L": 82.875,
            "A": 83.0625
        },
        "bus1": {
            "F": 77.17647058823529,
            "G": 77.17647058823529,
            "H": 75.88235294117646,
            "I": 75.3529411764706,
            "J": 76.58823529411765,
            "K": 78.4375,
            "L": 79.9375,
            "A": 79.3125,
            "B": 78.625,
            "C": 79.4375,
            "D": 81.25,
            "E": 80.75
        },
        "bus2": {
            "J": 71.52941176470588,
            "K": 72.82352941176471,
            "L": 74.05882352941177,
            "A": 76.1875,
            "B": 76.3125,
            "C": 75.25,
            "D": 76.5,
            "E": 77.5,
            "F": 77.25,
            "G": 76.25,
            "H": 75.125,
            "I": 76.125
        },
        "bus3": {
            "K": 70.88235294117646,
            "L": 71.6470588235294,
            "A": 72.17647058823529,
            "B": 74.58823529411765,
            "C": 75.875,
            "D": 74.875,
            "E": 74.875,
            "F": 75.3125,
            "G": 75,
            "H": 75.4375,
            "I": 76.5,
            "J": 74.75
        },
        "bus4": {
            "L": 69.29411764705883,
            "A": 70.6470588235294,
            "B": 70.88235294117646,
            "C": 70.23529411764706,
            "D": 69.70588235294117,
            "E": 69.4375,
            "F": 69.5,
            "G": 70,
            "H": 71.5625,
            "I": 74.25,
            "J": 73.6875,
            "K": 72.25
        },
        "bus5": {
            "A": 69.41176470588235,
            "B": 70.17647058823529,
            "C": 69,
            "D": 68.23529411764706,
            "E": 70.23529411764706,
            "F": 70.17647058823529,
            "G": 71.6875,
            "H": 72.0625,
            "I": 72.0625,
            "J": 72.4375,
            "K": 73.0625,
            "L": 73.0625
        }
    },
    "Obs_and_actions_busses": {
        "0": -119.65564803844747,
        "3": 150.09796467750039,
        "2": 47.96731457394491,
        "5": 105.69215816185226
    },
    "Obs_and_actions_tfls": {}
}