{
    "Average_holding_time": 9.115479115479115,
    "Average_holding_actions": [
        1140,
        0,
        0,
        34,
        47,
        0
    ],
    "Average_travel_time_passengers": 2515.277414848907,
    "Average_passenger_waiting_time": 301.4444837390354,
    "Average_passenger_in_vehicle_time": 2213.8329311097823,
    "Average_speed_busses": 0.050875,
    "Average_experienced_crowding": 76.92875794911663,
    "Average_covariation_headway": 0.30973735054575985,
    "Average_covariation_headway_stops": {
        "C": 0.2127683812771589,
        "G": 0.22813583824675848,
        "H": 0.21975682958081283,
        "J": 0.20747311926978862,
        "K": 0.2022748752715556,
        "L": 0.21258184821392856,
        "I": 0.20706122472666574,
        "D": 0.19804846008059318,
        "A": 0.19915585648694975,
        "B": 0.20484197585347846,
        "E": 0.20091885068150542,
        "F": 0.2120425704653942
    },
    "Average_excess_waiting_time": {
        "C": 41.09143361024053,
        "G": 45.964080632095715,
        "H": 43.24434463803925,
        "J": 42.042630513304005,
        "K": 39.89339385179767,
        "L": 39.65989059009178,
        "I": 42.84870229403225,
        "D": 40.763759229797756,
        "A": 39.40903936617184,
        "B": 41.512882832687126,
        "E": 42.360355926938325,
        "F": 45.25141944091132
    },
    "Holding_per_stop": {
        "H": 10,
        "K": 8.823529411764707,
        "C": 12.941176470588236,
        "L": 10.194174757281553,
        "J": 13.529411764705882,
        "G": 5.643564356435643,
        "I": 10.693069306930694,
        "A": 1.4705882352941178,
        "D": 10.294117647058824,
        "B": 7.9411764705882355,
        "E": 10.396039603960396,
        "F": 7.425742574257426
    },
    "Actions_tfl_edges": {},
    "Load_per_bus_per_stop": {
        "bus0": {
            "C": 73.05882352941177,
            "D": 72.88235294117646,
            "E": 72.76470588235294,
            "F": 74.76470588235294,
            "G": 76.47058823529412,
            "H": 77.05882352941177,
            "I": 78,
            "J": 78.76470588235294,
            "K": 79.3529411764706,
            "L": 79.3529411764706,
            "A": 78.58823529411765,
            "B": 77
        },
        "bus1": {
            "G": 66.47058823529412,
            "H": 67.58823529411765,
            "I": 68.29411764705883,
            "J": 70.11764705882354,
            "K": 69.52941176470588,
            "L": 69.17647058823529,
            "A": 70.94117647058823,
            "B": 72.11764705882354,
            "C": 69.88235294117646,
            "D": 71,
            "E": 69.9375,
            "F": 69.8125
        },
        "bus2": {
            "H": 84.29411764705883,
            "I": 86.05882352941177,
            "J": 86.82352941176471,
            "K": 87.76470588235294,
            "L": 88.52941176470588,
            "A": 89.6470588235294,
            "B": 89.11764705882354,
            "C": 89.70588235294117,
            "D": 90.3529411764706,
            "E": 87.82352941176471,
            "F": 87.82352941176471,
            "G": 88
        },
        "bus3": {
            "J": 74.88235294117646,
            "K": 75.41176470588235,
            "L": 75,
            "A": 73.82352941176471,
            "B": 75.41176470588235,
            "C": 78.05882352941177,
            "D": 78,
            "E": 77.47058823529412,
            "F": 75.76470588235294,
            "G": 76.47058823529412,
            "H": 76.70588235294117,
            "I": 78.1875
        },
        "bus4": {
            "K": 63.23529411764706,
            "L": 63.76470588235294,
            "A": 63.8235294117647,
            "B": 64.52941176470588,
            "C": 65,
            "D": 68,
            "E": 68.47058823529412,
            "F": 67.05882352941177,
            "G": 67.76470588235294,
            "H": 67.23529411764706,
            "I": 66.41176470588235,
            "J": 66.94117647058823
        },
        "bus5": {
            "L": 67.05555555555556,
            "A": 67.88235294117646,
            "B": 70,
            "C": 70.29411764705883,
            "D": 70.3529411764706,
            "E": 71.58823529411765,
            "F": 70.82352941176471,
            "G": 70.47058823529412,
            "H": 69.23529411764706,
            "I": 69.52941176470588,
            "J": 69.58823529411765,
            "K": 70.52941176470588
        }
    },
    "Obs_and_actions_busses": {
        "0": -150.04395370396048,
        "5": 232.611337446657,
        "4": 120.39486757620655
    },
    "Obs_and_actions_tfls": {}
}