{
    "Average_holding_time": 33.32142857142857,
    "Average_holding_actions": [
        303,
        574,
        152,
        43,
        25,
        0
    ],
    "Average_travel_time_passengers": 2700.1842114958567,
    "Average_passenger_waiting_time": 315.3204134127875,
    "Average_passenger_in_vehicle_time": 2384.8637980829994,
    "Average_speed_busses": 0.04666666666666667,
    "Average_experienced_crowding": 78.2749746188941,
    "Average_covariation_headway": 0.1167451687909378,
    "Average_covariation_headway_stops": {
        "C": 0.09668453234045188,
        "D": 0.10288655233286383,
        "E": 0.10680643706211598,
        "H": 0.09682529119313392,
        "K": 0.10050504781284474,
        "A": 0.09236394091252852,
        "B": 0.07738199566544716,
        "F": 0.07524585474295778,
        "I": 0.06395911340620357,
        "L": 0.06687734154271446,
        "G": 0.0780660690481871,
        "J": 0.07431361253080994
    },
    "Average_excess_waiting_time": {
        "C": 58.037982399432735,
        "D": 56.816263004818666,
        "E": 55.3100781369082,
        "H": 56.48435162791958,
        "K": 58.428348649357645,
        "A": 58.002974429389496,
        "B": 58.75724262155313,
        "F": 55.2482995352492,
        "I": 56.35210501693945,
        "L": 58.481462234508285,
        "G": 57.13591460180038,
        "J": 58.96087731141745
    },
    "Holding_per_stop": {
        "A": 5.161290322580645,
        "E": 35.1063829787234,
        "D": 30.638297872340427,
        "H": 35.1063829787234,
        "C": 49.03225806451613,
        "K": 48.38709677419355,
        "F": 37.340425531914896,
        "I": 39.354838709677416,
        "B": 23.870967741935484,
        "L": 20.64516129032258,
        "G": 35.483870967741936,
        "J": 39.67741935483871
    },
    "Actions_tfl_edges": {},
    "Load_per_bus_per_stop": {
        "bus0": {
            "C": 74.375,
            "D": 73.25,
            "E": 74.125,
            "F": 74.6875,
            "G": 75.125,
            "H": 75.5,
            "I": 76.86666666666666,
            "J": 77.2,
            "K": 77.13333333333334,
            "L": 78.2,
            "A": 77.73333333333333,
            "B": 79.06666666666666
        },
        "bus1": {
            "D": 76.5625,
            "E": 75.25,
            "F": 75.25,
            "G": 74.5,
            "H": 76.75,
            "I": 78.9375,
            "J": 77.25,
            "K": 79.26666666666667,
            "L": 78.93333333333334,
            "A": 79.2,
            "B": 78.2,
            "C": 79.46666666666667
        },
        "bus2": {
            "E": 76.8125,
            "F": 76.6875,
            "G": 79.875,
            "H": 78.9375,
            "I": 81.8125,
            "J": 82.5,
            "K": 82.5625,
            "L": 82.3125,
            "A": 83,
            "B": 81.2,
            "C": 81.8,
            "D": 81.53333333333333
        },
        "bus3": {
            "H": 76,
            "I": 78.8125,
            "J": 78.875,
            "K": 78.9375,
            "L": 78.9375,
            "A": 79.1875,
            "B": 80.375,
            "C": 82.3125,
            "D": 82.33333333333333,
            "E": 81.46666666666667,
            "F": 80.66666666666667,
            "G": 79.8
        },
        "bus4": {
            "K": 72.9375,
            "L": 72.5625,
            "A": 72.8125,
            "B": 76.5625,
            "C": 77.125,
            "D": 78.375,
            "E": 78.53333333333333,
            "F": 77.53333333333333,
            "G": 77.2,
            "H": 78.13333333333334,
            "I": 77.86666666666666,
            "J": 77.93333333333334
        },
        "bus5": {
            "A": 74.125,
            "B": 77,
            "C": 79.0625,
            "D": 76.8125,
            "E": 77,
            "F": 77.5625,
            "G": 76.93333333333334,
            "H": 76.53333333333333,
            "I": 76.66666666666667,
            "J": 77.26666666666667,
            "K": 76.53333333333333,
            "L": 78.2
        }
    },
    "Obs_and_actions_busses": {
        "1": 2.3164968272407913,
        "0": -92.62809535427837,
        "5": 140.31241508424563,
        "2": 41.2373585578718,
        "4": 74.90934795674585,
        "3": 24.760248415544034
    },
    "Obs_and_actions_tfls": {}
}},
    "Obs_and_actions_tfls": {}
}