{
    "Average_holding_time": 30.6090026478376,
    "Average_holding_actions": [
        300,
        605,
        183,
        22,
        14,
        0
    ],
    "Average_travel_time_passengers": 2639.9057434149327,
    "Average_passenger_waiting_time": 309.6653066678369,
    "Average_passenger_in_vehicle_time": 2330.240436747006,
    "Average_speed_busses": 0.04720833333333333,
    "Average_experienced_crowding": 76.65101199825996,
    "Average_covariation_headway": 0.10643424564576152,
    "Average_covariation_headway_stops": {
        "C": 0.09096418810543451,
        "E": 0.084913692599501,
        "F": 0.08704273178452544,
        "H": 0.0821659223556804,
        "I": 0.08948330496015183,
        "L": 0.08464473676936447,
        "G": 0.04814527484348178,
        "J": 0.06527659444276464,
        "A": 0.05491255171058007,
        "D": 0.05890340257681879,
        "K": 0.06036109705926012,
        "B": 0.06332027674539224
    },
    "Average_excess_waiting_time": {
        "C": 54.99096052297375,
        "E": 54.56678199642238,
        "F": 53.01338141694134,
        "H": 52.74057309536613,
        "I": 51.556055024419095,
        "L": 53.26153627986338,
        "G": 53.09974911008226,
        "J": 52.04460352273884,
        "A": 53.61680380726318,
        "D": 55.31229567520836,
        "K": 53.733502016997534,
        "B": 55.49827499414562
    },
    "Holding_per_stop": {
        "F": 31.894736842105264,
        "I": 36.63157894736842,
        "L": 17.36842105263158,
        "C": 44.680851063829785,
        "H": 37.89473684210526,
        "E": 34.148936170212764,
        "J": 41.36842105263158,
        "G": 34.787234042553195,
        "A": 2.5531914893617023,
        "D": 24.25531914893617,
        "K": 44.361702127659576,
        "B": 17.23404255319149
    },
    "Actions_tfl_edges": {},
    "Load_per_bus_per_stop": {
        "bus0": {
            "C": 73.0625,
            "D": 72.4375,
            "E": 75.4375,
            "F": 76.5,
            "G": 77.3125,
            "H": 78.625,
            "I": 81.1875,
            "J": 81,
            "K": 80.26666666666667,
            "L": 78.4,
            "A": 77.26666666666667,
            "B": 77.73333333333333
        },
        "bus1": {
            "E": 73.125,
            "F": 73.25,
            "G": 73.1875,
            "H": 74.625,
            "I": 74.625,
            "J": 76.125,
            "K": 78.3125,
            "L": 78.5625,
            "A": 78.46666666666667,
            "B": 77.66666666666667,
            "C": 78.93333333333334,
            "D": 78.86666666666666
        },
        "bus2": {
            "F": 73.9375,
            "G": 73.25,
            "H": 74.125,
            "I": 74,
            "J": 74.1875,
            "K": 75.9375,
            "L": 73.25,
            "A": 73.4375,
            "B": 75.25,
            "C": 75.26666666666667,
            "D": 77.86666666666666,
            "E": 78
        },
        "bus3": {
            "H": 70.375,
            "I": 71.875,
            "J": 72.8125,
            "K": 71.875,
            "L": 71.6875,
            "A": 72.4375,
            "B": 74.375,
            "C": 74.9375,
            "D": 76.8125,
            "E": 78.06666666666666,
            "F": 78,
            "G": 75.93333333333334
        },
        "bus4": {
            "I": 71.625,
            "J": 74.25,
            "K": 76.125,
            "L": 74.9375,
            "A": 75.5,
            "B": 76.25,
            "C": 77.8125,
            "D": 78.125,
            "E": 79.0625,
            "F": 80.5,
            "G": 77.53333333333333,
            "H": 77
        },
        "bus5": {
            "L": 76.4375,
            "A": 75.375,
            "B": 75.875,
            "C": 77.75,
            "D": 79.375,
            "E": 79.1875,
            "F": 78.625,
            "G": 79.6875,
            "H": 80.4375,
            "I": 81,
            "J": 78.86666666666666,
            "K": 79.86666666666666
        }
    },
    "Obs_and_actions_busses": {
        "5": 166.66131977314186,
        "2": 39.89769300351154,
        "1": 2.0693028303097076,
        "0": -97.4284028449041,
        "3": 24.9836000295541,
        "4": 80.03449976283271
    },
    "Obs_and_actions_tfls": {}
} },
    "Obs_and_actions_tfls": {}
}