{
    "Average_holding_time": 19.73617021276596,
    "Average_holding_actions": [
        881,
        45,
        160,
        37,
        52,
        0
    ],
    "Average_travel_time_passengers": 2588.5806237113898,
    "Average_passenger_waiting_time": 307.1033232365102,
    "Average_passenger_in_vehicle_time": 2281.477300474807,
    "Average_speed_busses": 0.04895833333333333,
    "Average_experienced_crowding": 76.73961827072371,
    "Average_covariation_headway": 0.2003954395454954,
    "Average_covariation_headway_stops": {
        "B": 0.19311629087698065,
        "E": 0.18858312482215006,
        "F": 0.17308661984399698,
        "G": 0.17086828200630427,
        "H": 0.1692198034811034,
        "I": 0.16226525576194303,
        "J": 0.13555465269728945,
        "C": 0.17003761308323953,
        "K": 0.13208663797468553,
        "L": 0.14712813808155287,
        "D": 0.1712156493917427,
        "A": 0.17729243549153995
    },
    "Average_excess_waiting_time": {
        "B": 52.789520074655286,
        "E": 53.50851163267271,
        "F": 50.11448933080328,
        "G": 48.31450579126505,
        "H": 46.44307371428533,
        "I": 44.510459481831674,
        "J": 43.67011503592727,
        "C": 51.579834219442034,
        "K": 45.40225541719559,
        "L": 48.12053161462222,
        "D": 53.22950284044498,
        "A": 52.73823845360539
    },
    "Holding_per_stop": {
        "F": 15.918367346938776,
        "G": 15.918367346938776,
        "H": 16.96969696969697,
        "I": 22.727272727272727,
        "B": 19.897959183673468,
        "E": 20.103092783505154,
        "J": 18.78787878787879,
        "K": 25.714285714285715,
        "C": 24.432989690721648,
        "L": 27.244897959183675,
        "D": 18.24742268041237,
        "A": 10.824742268041238
    },
    "Actions_tfl_edges": {},
    "Load_per_bus_per_stop": {
        "bus0": {
            "B": 77.94117647058823,
            "C": 78.05882352941177,
            "D": 81.23529411764706,
            "E": 83.5,
            "F": 84.0625,
            "G": 83.3125,
            "H": 83.6875,
            "I": 83.25,
            "J": 80.375,
            "K": 78.4375,
            "L": 79.25,
            "A": 82.625
        },
        "bus1": {
            "E": 69.70588235294117,
            "F": 70.17647058823529,
            "G": 71.5625,
            "H": 75.0625,
            "I": 77.5625,
            "J": 78.1875,
            "K": 79.4375,
            "L": 77.4375,
            "A": 76.375,
            "B": 74.4375,
            "C": 73.75,
            "D": 73
        },
        "bus2": {
            "F": 69.47058823529412,
            "G": 71.76470588235294,
            "H": 71.29411764705883,
            "I": 71.25,
            "J": 71.25,
            "K": 71.5625,
            "L": 72.4375,
            "A": 73.8125,
            "B": 75.375,
            "C": 76.25,
            "D": 75,
            "E": 74.625
        },
        "bus3": {
            "G": 71.3529411764706,
            "H": 71.23529411764706,
            "I": 70.23529411764706,
            "J": 69.17647058823529,
            "K": 68.625,
            "L": 71.3125,
            "A": 71,
            "B": 70.875,
            "C": 71.625,
            "D": 74.25,
            "E": 74.875,
            "F": 76.0625
        },
        "bus4": {
            "H": 74.29411764705883,
            "I": 74.88235294117646,
            "J": 75.3529411764706,
            "K": 76.58823529411765,
            "L": 77.94117647058823,
            "A": 76.125,
            "B": 75.5625,
            "C": 76.375,
            "D": 76,
            "E": 76,
            "F": 75.25,
            "G": 76.625
        },
        "bus5": {
            "I": 78.58823529411765,
            "J": 78.76470588235294,
            "K": 78.76470588235294,
            "L": 78.88235294117646,
            "A": 79.11764705882354,
            "B": 79.29411764705883,
            "C": 80.875,
            "D": 80.625,
            "E": 79.6875,
            "F": 80.125,
            "G": 80.75,
            "H": 83.5
        }
    },
    "Obs_and_actions_busses": {
        "5": 204.00128945486236,
        "2": 60.65554836236063,
        "0": -107.03299419614105,
        "4": 77.53883744440208,
        "1": -326.2517791349114
    },
    "Obs_and_actions_tfls": {}
}