{
    "Average_holding_time": 33.270777479892764,
    "Average_holding_actions": [
        40,
        977,
        72,
        30,
        0,
        0
    ],
    "Average_travel_time_passengers": 2733.9596936909034,
    "Average_passenger_waiting_time": 316.4261186112377,
    "Average_passenger_in_vehicle_time": 2417.533575079564,
    "Average_speed_busses": 0.046625,
    "Average_experienced_crowding": 81.73235545262017,
    "Average_covariation_headway": 0.1200753848250348,
    "Average_covariation_headway_stops": {
        "B": 0.10301755699977219,
        "F": 0.1282507661808222,
        "G": 0.12772777491956755,
        "H": 0.1275701555458838,
        "I": 0.13186532424767616,
        "K": 0.11611697460842801,
        "C": 0.07821255664115098,
        "J": 0.10955245272524819,
        "L": 0.08899345076973719,
        "D": 0.07447490155809101,
        "A": 0.08534356189422555,
        "E": 0.09877217789458334
    },
    "Average_excess_waiting_time": {
        "B": 57.86211054977463,
        "F": 63.459679414242885,
        "G": 61.504918123461835,
        "H": 59.829946666151955,
        "I": 58.35249077983434,
        "K": 56.971774932043104,
        "C": 58.44127440660617,
        "J": 58.29447172660326,
        "L": 56.93314243225717,
        "D": 59.995612790369194,
        "A": 58.58903585124517,
        "E": 63.172179010484626
    },
    "Holding_per_stop": {
        "B": 31.595744680851062,
        "I": 31.914893617021278,
        "G": 34.193548387096776,
        "K": 33.191489361702125,
        "H": 33.51063829787234,
        "F": 35.869565217391305,
        "C": 37.41935483870968,
        "L": 32.234042553191486,
        "J": 34.787234042553195,
        "A": 27.741935483870968,
        "D": 35.869565217391305,
        "E": 30.97826086956522
    },
    "Actions_tfl_edges": {},
    "Load_per_bus_per_stop": {
        "bus0": {
            "B": 79.5,
            "C": 80,
            "D": 80.1875,
            "E": 80.0625,
            "F": 80,
            "G": 80.75,
            "H": 82.625,
            "I": 84.8,
            "J": 85.46666666666667,
            "K": 86.33333333333333,
            "L": 85.2,
            "A": 84.4
        },
        "bus1": {
            "F": 77.9375,
            "G": 77.1875,
            "H": 77.4375,
            "I": 76.0625,
            "J": 76.125,
            "K": 78.8,
            "L": 80.6,
            "A": 81,
            "B": 79,
            "C": 81.33333333333333,
            "D": 82.06666666666666,
            "E": 83.26666666666667
        },
        "bus2": {
            "G": 75.375,
            "H": 75.125,
            "I": 75.9375,
            "J": 76.5625,
            "K": 76.125,
            "L": 76.625,
            "A": 76.06666666666666,
            "B": 76.73333333333333,
            "C": 79.2,
            "D": 78.8,
            "E": 79.46666666666667,
            "F": 79.53333333333333
        },
        "bus3": {
            "H": 77.5625,
            "I": 79.3125,
            "J": 80.0625,
            "K": 81.375,
            "L": 81.5,
            "A": 80.125,
            "B": 80.1875,
            "C": 82.33333333333333,
            "D": 83.33333333333333,
            "E": 83.86666666666666,
            "F": 82.33333333333333,
            "G": 83.2
        },
        "bus4": {
            "I": 77.0625,
            "J": 78.125,
            "K": 78.125,
            "L": 79.9375,
            "A": 80.125,
            "B": 81.9375,
            "C": 83.125,
            "D": 84.3125,
            "E": 83.06666666666666,
            "F": 82.8,
            "G": 81.33333333333333,
            "H": 82.33333333333333
        },
        "bus5": {
            "K": 79.875,
            "L": 82.125,
            "A": 83.8125,
            "B": 84.125,
            "C": 84.5,
            "D": 84.5625,
            "E": 83.9375,
            "F": 85.25,
            "G": 85.53333333333333,
            "H": 86.8,
            "I": 86.93333333333334,
            "J": 85.2
        }
    },
    "Obs_and_actions_busses": {
        "0": -321.8221767664313,
        "1": -26.187896729186473,
        "2": 59.47559709877953,
        "4": 197.77896901858045
    },
    "Obs_and_actions_tfls": {}
}