{
    "Average_holding_time": 13.836530442035029,
    "Average_holding_actions": [
        978,
        123,
        0,
        0,
        68,
        0
    ],
    "Average_travel_time_passengers": 2536.963616759992,
    "Average_passenger_waiting_time": 301.1114222866848,
    "Average_passenger_in_vehicle_time": 2235.852194473235,
    "Average_speed_busses": 0.049958333333333334,
    "Average_experienced_crowding": 75.16689058176418,
    "Average_covariation_headway": 0.16264041982146618,
    "Average_covariation_headway_stops": {
        "E": 0.1809546510462269,
        "F": 0.1739357251341252,
        "G": 0.1639192310890153,
        "H": 0.15972850466865743,
        "K": 0.12645011749248064,
        "L": 0.12042689748447168,
        "I": 0.12320449171575018,
        "A": 0.09189167767102667,
        "J": 0.11392979444733031,
        "B": 0.08871639464714046,
        "C": 0.13154167184601956,
        "D": 0.16376161568068154
    },
    "Average_excess_waiting_time": {
        "E": 45.81477781398564,
        "F": 43.4836524025996,
        "G": 40.984639087473,
        "H": 39.10874465323781,
        "K": 37.99814376464792,
        "L": 36.12691762569483,
        "I": 37.4708304265514,
        "A": 35.95890092989788,
        "J": 38.51516939125304,
        "B": 37.16565202336699,
        "C": 41.44367689813413,
        "D": 45.76515942189985
    },
    "Holding_per_stop": {
        "F": 14.4,
        "H": 12.772277227722773,
        "L": 11.584158415841584,
        "G": 11.1,
        "K": 20.4,
        "E": 16.060606060606062,
        "I": 11.1,
        "A": 6.6,
        "J": 13.5,
        "B": 15.6,
        "C": 20.303030303030305,
        "D": 12.727272727272727
    },
    "Actions_tfl_edges": {},
    "Load_per_bus_per_stop": {
        "bus0": {
            "E": 72.82352941176471,
            "F": 73.29411764705883,
            "G": 74.94117647058823,
            "H": 74.6470588235294,
            "I": 74.11764705882354,
            "J": 73,
            "K": 73.6875,
            "L": 74,
            "A": 76.0625,
            "B": 77.1875,
            "C": 77.5625,
            "D": 76.6875
        },
        "bus1": {
            "F": 69.23529411764706,
            "G": 68.88235294117646,
            "H": 69.6470588235294,
            "I": 71.17647058823529,
            "J": 72,
            "K": 74.88235294117646,
            "L": 74.23529411764706,
            "A": 75.0625,
            "B": 76,
            "C": 76.25,
            "D": 75.25,
            "E": 75.5
        },
        "bus2": {
            "G": 70.82352941176471,
            "H": 73,
            "I": 73,
            "J": 73.29411764705883,
            "K": 72.6470588235294,
            "L": 71.11764705882354,
            "A": 71.52941176470588,
            "B": 74.58823529411765,
            "C": 73.25,
            "D": 73.125,
            "E": 72.9375,
            "F": 72.3125
        },
        "bus3": {
            "H": 73.41176470588235,
            "I": 71.17647058823529,
            "J": 72.88235294117646,
            "K": 75.05882352941177,
            "L": 75.05882352941177,
            "A": 75.11764705882354,
            "B": 73.47058823529412,
            "C": 75.47058823529412,
            "D": 75.94117647058823,
            "E": 73.875,
            "F": 74.4375,
            "G": 75.6875
        },
        "bus4": {
            "K": 69.88235294117646,
            "L": 71.29411764705883,
            "A": 72.76470588235294,
            "B": 74.6470588235294,
            "C": 74.76470588235294,
            "D": 73.70588235294117,
            "E": 73.05882352941177,
            "F": 73.58823529411765,
            "G": 73,
            "H": 74.375,
            "I": 73.75,
            "J": 73.3125
        },
        "bus5": {
            "L": 74.3529411764706,
            "A": 75.11764705882354,
            "B": 75.52941176470588,
            "C": 76.23529411764706,
            "D": 77.82352941176471,
            "E": 77.23529411764706,
            "F": 78.94117647058823,
            "G": 78.29411764705883,
            "H": 77.47058823529412,
            "I": 78.58823529411765,
            "J": 77.9375,
            "K": 78.5
        }
    },
    "Obs_and_actions_busses": {
        "0": -122.01735170250251,
        "1": 45.597459139637415,
        "5": 185.6322333020561,
        "3": 75.42696850767653
    },
    "Obs_and_actions_tfls": {}
}1282125
    },
    "Obs_and_actions_tfls": {}
}I": 71.52941176470588,
            "J": 71.94117647058823,
            "K": 71.6470588235294
        }
    },
    "Obs_and_actions_busses": {
        "5": 188.65263363706478,
        "0": -124.98170954414941,
        "1": 45.704821931826636,
        "3": 74.19203575968011
    },
    "Obs_and_actions_tfls": {}
}