{
    "Average_holding_time": 21.402908468776733,
    "Average_holding_actions": [
        866,
        44,
        156,
        37,
        66,
        0
    ],
    "Average_travel_time_passengers": 2631.2531213572415,
    "Average_passenger_waiting_time": 310.64030815413366,
    "Average_passenger_in_vehicle_time": 2320.6128132030462,
    "Average_speed_busses": 0.04870833333333333,
    "Average_experienced_crowding": 77.99651061414411,
    "Average_covariation_headway": 0.20444490369244153,
    "Average_covariation_headway_stops": {
        "B": 0.15553894443874355,
        "G": 0.20035465281145834,
        "I": 0.16920342155218213,
        "K": 0.15817189363961012,
        "L": 0.1550717879572998,
        "A": 0.14474931523758633,
        "C": 0.13750613247103427,
        "J": 0.1567356841176547,
        "H": 0.16640490160412616,
        "D": 0.13738837924924222,
        "E": 0.15652151453661728,
        "F": 0.18477857758292784
    },
    "Average_excess_waiting_time": {
        "B": 45.704926408716574,
        "G": 55.434198599214824,
        "I": 52.26250971535143,
        "K": 51.210830572936686,
        "L": 49.41071578855667,
        "A": 46.43150492240477,
        "C": 45.634189919471,
        "J": 52.530420853972316,
        "H": 53.173516747930876,
        "D": 47.183660510719506,
        "E": 50.61451919465583,
        "F": 55.04899892976249
    },
    "Holding_per_stop": {
        "A": 5.816326530612245,
        "B": 8.787878787878787,
        "L": 25.97938144329897,
        "I": 24.123711340206185,
        "K": 28.144329896907216,
        "G": 22.577319587628867,
        "C": 24.79591836734694,
        "J": 25.97938144329897,
        "D": 17.755102040816325,
        "H": 23.50515463917526,
        "E": 23.50515463917526,
        "F": 26.288659793814432
    },
    "Actions_tfl_edges": {},
    "Load_per_bus_per_stop": {
        "bus0": {
            "B": 73.82352941176471,
            "C": 73.11764705882354,
            "D": 74.3529411764706,
            "E": 76.11764705882354,
            "F": 78.29411764705883,
            "G": 77.8125,
            "H": 79.1875,
            "I": 82.25,
            "J": 80.875,
            "K": 81.9375,
            "L": 80.8125,
            "A": 80.125
        },
        "bus1": {
            "G": 77.76470588235294,
            "H": 79.3529411764706,
            "I": 80.0625,
            "J": 79.375,
            "K": 80.5625,
            "L": 79.8125,
            "A": 78.5625,
            "B": 80.375,
            "C": 79.3125,
            "D": 83.0625,
            "E": 82.6875,
            "F": 81.6875
        },
        "bus2": {
            "I": 76.3529411764706,
            "J": 77.94117647058823,
            "K": 78.5625,
            "L": 80.125,
            "A": 81.25,
            "B": 80.25,
            "C": 79.875,
            "D": 78.1875,
            "E": 78.375,
            "F": 78.6875,
            "G": 79.125,
            "H": 81.0625
        },
        "bus3": {
            "K": 77.29411764705883,
            "L": 77.76470588235294,
            "A": 76.25,
            "B": 77.25,
            "C": 77.8125,
            "D": 78.4375,
            "E": 81,
            "F": 82.25,
            "G": 81.3125,
            "H": 80.875,
            "I": 79.1875,
            "J": 80.0625
        },
        "bus4": {
            "L": 73.23529411764706,
            "A": 72.11764705882354,
            "B": 71.29411764705883,
            "C": 71.4375,
            "D": 73.8125,
            "E": 75.4375,
            "F": 76.9375,
            "G": 78.125,
            "H": 78.75,
            "I": 79.5,
            "J": 77.875,
            "K": 77.1875
        },
        "bus5": {
            "A": 69.58823529411765,
            "B": 70,
            "C": 69,
            "D": 70.05882352941177,
            "E": 71,
            "F": 69.1875,
            "G": 69.0625,
            "H": 68.875,
            "I": 70.1875,
            "J": 68.75,
            "K": 70.5,
            "L": 72.5625
        }
    },
    "Obs_and_actions_busses": {
        "0": -113.8687730542253,
        "2": 59.534686314350694,
        "4": 76.42290690646021,
        "5": 189.0840522424007,
        "1": -328.8764869994777
    },
    "Obs_and_actions_tfls": {}
}