{
    "Average_holding_time": 33.166368515205725,
    "Average_holding_actions": [
        34,
        970,
        95,
        19,
        0,
        0
    ],
    "Average_travel_time_passengers": 2713.2208938914646,
    "Average_passenger_waiting_time": 315.5259653381065,
    "Average_passenger_in_vehicle_time": 2397.694928553279,
    "Average_speed_busses": 0.04658333333333333,
    "Average_experienced_crowding": 81.4018774169835,
    "Average_covariation_headway": 0.12001773450679064,
    "Average_covariation_headway_stops": {
        "B": 0.12655669326410895,
        "D": 0.10842467720915176,
        "G": 0.11688206563295953,
        "H": 0.11602398748975105,
        "I": 0.1180658606401905,
        "J": 0.12220084061803975,
        "K": 0.09916348253331236,
        "E": 0.09147683863500482,
        "C": 0.0993979317900898,
        "L": 0.08433941124320918,
        "F": 0.09399416477043604,
        "A": 0.10240309984286357
    },
    "Average_excess_waiting_time": {
        "B": 60.54217094323826,
        "D": 58.99439446603702,
        "G": 61.225483687083454,
        "H": 59.369672299527906,
        "I": 57.77807386566252,
        "J": 56.7028313158724,
        "K": 56.76795890950723,
        "E": 59.631924348276584,
        "C": 60.361718187395354,
        "L": 57.66336972510197,
        "F": 61.41868547493601,
        "A": 60.48923776087827
    },
    "Holding_per_stop": {
        "J": 32.87234042553192,
        "D": 33.225806451612904,
        "H": 33.225806451612904,
        "I": 35.1063829787234,
        "G": 34.516129032258064,
        "B": 31.93548387096774,
        "K": 33.51063829787234,
        "E": 32.58064516129032,
        "C": 34.516129032258064,
        "L": 33.87096774193548,
        "F": 33.58695652173913,
        "A": 29.032258064516128
    },
    "Actions_tfl_edges": {},
    "Load_per_bus_per_stop": {
        "bus0": {
            "B": 79.625,
            "C": 81.375,
            "D": 82.1875,
            "E": 83.125,
            "F": 82.0625,
            "G": 82.875,
            "H": 81.66666666666667,
            "I": 82.73333333333333,
            "J": 84.26666666666667,
            "K": 84.13333333333334,
            "L": 84.2,
            "A": 85.46666666666667
        },
        "bus1": {
            "D": 82,
            "E": 83.5625,
            "F": 84.625,
            "G": 85.3125,
            "H": 84,
            "I": 83.6875,
            "J": 85.6,
            "K": 86.2,
            "L": 85.13333333333334,
            "A": 85.4,
            "B": 85.73333333333333,
            "C": 85.86666666666666
        },
        "bus2": {
            "G": 78.0625,
            "H": 78.75,
            "I": 79.75,
            "J": 79.25,
            "K": 82.875,
            "L": 82.26666666666667,
            "A": 82.46666666666667,
            "B": 82.73333333333333,
            "C": 82.4,
            "D": 81.86666666666666,
            "E": 82.66666666666667,
            "F": 84.2
        },
        "bus3": {
            "H": 72.125,
            "I": 72.125,
            "J": 74.375,
            "K": 76.0625,
            "L": 74.4375,
            "A": 74.75,
            "B": 76.73333333333333,
            "C": 78.13333333333334,
            "D": 77.33333333333333,
            "E": 76.06666666666666,
            "F": 76.73333333333333,
            "G": 78.06666666666666
        },
        "bus4": {
            "I": 78.875,
            "J": 79.875,
            "K": 80.25,
            "L": 80.9375,
            "A": 80.5625,
            "B": 80,
            "C": 81.375,
            "D": 80.73333333333333,
            "E": 79.46666666666667,
            "F": 80.13333333333334,
            "G": 80.66666666666667,
            "H": 83.2
        },
        "bus5": {
            "J": 73.9375,
            "K": 74.3125,
            "L": 72.9375,
            "A": 73.875,
            "B": 75.8125,
            "C": 77.6875,
            "D": 78,
            "E": 77.5,
            "F": 79.86666666666666,
            "G": 81.26666666666667,
            "H": 80.26666666666667,
            "I": 78.6
        }
    },
    "Obs_and_actions_busses": {
        "4": 232.56631355891258,
        "2": 59.95218116259395,
        "1": -21.431014356345496,
        "0": -404.3769476065587
    },
    "Obs_and_actions_tfls": {}
}