{
    "Average_holding_time": 36.79347826086956,
    "Average_holding_actions": [
        56,
        766,
        274,
        0,
        8,
        0
    ],
    "Average_travel_time_passengers": 2786.2404566505948,
    "Average_passenger_waiting_time": 319.65840596147916,
    "Average_passenger_in_vehicle_time": 2466.582050689025,
    "Average_speed_busses": 0.046,
    "Average_experienced_crowding": 82.45315819361684,
    "Average_covariation_headway": 0.10473953959216498,
    "Average_covariation_headway_stops": {
        "C": 0.08920095001833861,
        "D": 0.08965344204427557,
        "E": 0.09792658749792514,
        "G": 0.09167955843110918,
        "K": 0.10766672235785092,
        "L": 0.10166936288718771,
        "H": 0.053744669222323814,
        "A": 0.06197673301004243,
        "F": 0.07093447748274621,
        "I": 0.04707693002801774,
        "B": 0.0479117711238891,
        "J": 0.07666487156538203
    },
    "Average_excess_waiting_time": {
        "C": 62.929659010462785,
        "D": 61.13110899066959,
        "E": 59.79728269579215,
        "G": 59.19376664239684,
        "K": 63.711229985135844,
        "L": 61.647420224530094,
        "H": 59.256187436254095,
        "A": 61.440045683380504,
        "F": 60.10166916270191,
        "I": 60.5976292967469,
        "B": 62.67659927271899,
        "J": 63.525259646971335
    },
    "Holding_per_stop": {
        "G": 34.83870967741935,
        "L": 54.45652173913044,
        "E": 33.87096774193548,
        "D": 32.93478260869565,
        "C": 36.52173913043478,
        "K": 58.04347826086956,
        "H": 31.304347826086957,
        "F": 33.26086956521739,
        "A": 25.434782608695652,
        "I": 31.630434782608695,
        "B": 30.32967032967033,
        "J": 38.9010989010989
    },
    "Actions_tfl_edges": {},
    "Load_per_bus_per_stop": {
        "bus0": {
            "C": 80.0625,
            "D": 81.875,
            "E": 81,
            "F": 80.125,
            "G": 80.53333333333333,
            "H": 83.26666666666667,
            "I": 83.73333333333333,
            "J": 84.2,
            "K": 83.73333333333333,
            "L": 85,
            "A": 84.73333333333333,
            "B": 85.2
        },
        "bus1": {
            "D": 80.5,
            "E": 79.5,
            "F": 79.125,
            "G": 79.9375,
            "H": 79.1875,
            "I": 80.6,
            "J": 82.66666666666667,
            "K": 84.73333333333333,
            "L": 85.73333333333333,
            "A": 87.93333333333334,
            "B": 86.26666666666667,
            "C": 84.66666666666667
        },
        "bus2": {
            "E": 76.5625,
            "F": 77.375,
            "G": 78.4375,
            "H": 78.3125,
            "I": 77.875,
            "J": 77.3125,
            "K": 78.53333333333333,
            "L": 79.86666666666666,
            "A": 82.53333333333333,
            "B": 82.4,
            "C": 79.93333333333334,
            "D": 81.4
        },
        "bus3": {
            "G": 77.8125,
            "H": 77.625,
            "I": 80.5,
            "J": 82.9375,
            "K": 83.1875,
            "L": 83,
            "A": 84.06666666666666,
            "B": 84.33333333333333,
            "C": 84.6,
            "D": 84.93333333333334,
            "E": 85.4,
            "F": 82.66666666666667
        },
        "bus4": {
            "K": 79.9375,
            "L": 80.4375,
            "A": 79.6875,
            "B": 79.625,
            "C": 79.06666666666666,
            "D": 81.2,
            "E": 81.33333333333333,
            "F": 81.2,
            "G": 82.73333333333333,
            "H": 82.2,
            "I": 85.06666666666666,
            "J": 85.6
        },
        "bus5": {
            "L": 79.625,
            "A": 80.8125,
            "B": 81.1875,
            "C": 80.1875,
            "D": 82.25,
            "E": 82.6,
            "F": 82.53333333333333,
            "G": 83.33333333333333,
            "H": 83.46666666666667,
            "I": 83.6,
            "J": 84.33333333333333,
            "K": 85.33333333333333
        }
    },
    "Obs_and_actions_busses": {
        "5": 350.9140471177152,
        "2": 41.56390348635486,
        "1": -11.203669466551117,
        "0": -307.7667243533014
    },
    "Obs_and_actions_tfls": {}
}52502975066
    },
    "Obs_and_actions_tfls": {}
}