{
    "Average_holding_time": 27.21784776902887,
    "Average_holding_actions": [
        229,
        816,
        83,
        0,
        5,
        0
    ],
    "Average_travel_time_passengers": 2638.158539724619,
    "Average_passenger_waiting_time": 308.16910303059905,
    "Average_passenger_in_vehicle_time": 2329.989436693943,
    "Average_speed_busses": 0.047625,
    "Average_experienced_crowding": 77.0231438809535,
    "Average_covariation_headway": 0.09192603053237969,
    "Average_covariation_headway_stops": {
        "B": 0.08613522401470748,
        "D": 0.07853068698212125,
        "E": 0.08229700015231897,
        "G": 0.07418379601450571,
        "J": 0.08572097920233888,
        "K": 0.08588207947709564,
        "L": 0.052606988794687844,
        "F": 0.044208853875905604,
        "H": 0.04243910683383251,
        "C": 0.05913904346507261,
        "A": 0.053114544944937156,
        "I": 0.04799335021684836
    },
    "Average_excess_waiting_time": {
        "B": 50.74910771455501,
        "D": 50.59945792589815,
        "E": 48.971004781111105,
        "G": 48.470464120748034,
        "J": 50.66414160842834,
        "K": 49.12501484798122,
        "L": 49.45793566505819,
        "F": 49.10637738301449,
        "H": 48.92851663353946,
        "C": 51.39487090776396,
        "A": 51.10538839537156,
        "I": 50.75449399590934
    },
    "Holding_per_stop": {
        "K": 31.5625,
        "E": 27.1875,
        "G": 26.875,
        "B": 36.31578947368421,
        "J": 30,
        "D": 30.94736842105263,
        "F": 27.789473684210527,
        "L": 27.789473684210527,
        "H": 26.842105263157894,
        "C": 21.473684210526315,
        "A": 12.947368421052632,
        "I": 26.842105263157894
    },
    "Actions_tfl_edges": {},
    "Load_per_bus_per_stop": {
        "bus0": {
            "B": 76.125,
            "C": 77.8125,
            "D": 79.4375,
            "E": 78.875,
            "F": 78.1875,
            "G": 77.6875,
            "H": 76.75,
            "I": 78.375,
            "J": 80,
            "K": 79.875,
            "L": 78.13333333333334,
            "A": 79.46666666666667
        },
        "bus1": {
            "D": 72.8125,
            "E": 73.8125,
            "F": 75,
            "G": 76.75,
            "H": 77.5625,
            "I": 77,
            "J": 77.3125,
            "K": 75.6875,
            "L": 77.125,
            "A": 76.75,
            "B": 77,
            "C": 74.93333333333334
        },
        "bus2": {
            "E": 73.5625,
            "F": 71.4375,
            "G": 72.375,
            "H": 72.6875,
            "I": 72.4375,
            "J": 75.125,
            "K": 76.0625,
            "L": 76.25,
            "A": 76.5625,
            "B": 77.8125,
            "C": 78.75,
            "D": 78.73333333333333
        },
        "bus3": {
            "G": 76.5625,
            "H": 77.125,
            "I": 80.125,
            "J": 80.5,
            "K": 80.5,
            "L": 81.5625,
            "A": 82.375,
            "B": 81.75,
            "C": 83.3125,
            "D": 83.125,
            "E": 81.5,
            "F": 81
        },
        "bus4": {
            "J": 70.0625,
            "K": 71.5,
            "L": 74.25,
            "A": 77.375,
            "B": 77.6875,
            "C": 77.0625,
            "D": 75.4375,
            "E": 74.1875,
            "F": 76.4375,
            "G": 77.125,
            "H": 76.875,
            "I": 73.8
        },
        "bus5": {
            "K": 71.5,
            "L": 70.375,
            "A": 70.75,
            "B": 71.6875,
            "C": 72.3125,
            "D": 74.1875,
            "E": 75.6875,
            "F": 75,
            "G": 75.3125,
            "H": 76.1875,
            "I": 75.25,
            "J": 75.625
        }
    },
    "Obs_and_actions_busses": {
        "0": -179.11421932329884,
        "1": 10.654361569682933,
        "2": -22.212859375675315,
        "3": 86.6033581070706,
        "5": 275.9945094038966
    },
    "Obs_and_actions_tfls": {}
}
}