{
    "Average_holding_time": 15.440067057837386,
    "Average_holding_actions": [
        883,
        32,
        268,
        0,
        8,
        0
    ],
    "Average_travel_time_passengers": 2518.816259756911,
    "Average_passenger_waiting_time": 298.32447646624394,
    "Average_passenger_in_vehicle_time": 2220.491783290589,
    "Average_speed_busses": 0.049708333333333334,
    "Average_experienced_crowding": 73.82512375449144,
    "Average_covariation_headway": 0.12390097059374724,
    "Average_covariation_headway_stops": {
        "B": 0.09655166991602468,
        "F": 0.13024323688582382,
        "H": 0.11223886652350193,
        "I": 0.110762428985414,
        "K": 0.09354668158598717,
        "A": 0.09013216611418107,
        "J": 0.07752448520257597,
        "C": 0.06951068968667494,
        "L": 0.069265641763695,
        "G": 0.09793985408650444,
        "D": 0.07927999097638005,
        "E": 0.1069346523681146
    },
    "Average_excess_waiting_time": {
        "B": 36.23264445735407,
        "F": 41.4350707952878,
        "H": 39.93238075575289,
        "I": 38.52740883344717,
        "K": 37.300023079818175,
        "A": 37.26072256373618,
        "J": 38.09175479238468,
        "C": 36.35706022418083,
        "L": 37.87853612545479,
        "G": 40.62496396501592,
        "D": 38.356532606532596,
        "E": 41.29800228927013
    },
    "Holding_per_stop": {
        "I": 14.7,
        "B": 9.6,
        "K": 37.8,
        "H": 17.575757575757574,
        "A": 5.1,
        "F": 13.030303030303031,
        "J": 22.424242424242426,
        "C": 13.8,
        "L": 15.757575757575758,
        "G": 14.242424242424242,
        "D": 13.030303030303031,
        "E": 8.181818181818182
    },
    "Actions_tfl_edges": {},
    "Load_per_bus_per_stop": {
        "bus0": {
            "B": 73.05882352941177,
            "C": 72.6470588235294,
            "D": 72.58823529411765,
            "E": 73.6470588235294,
            "F": 73.29411764705883,
            "G": 76.23529411764706,
            "H": 76.11764705882354,
            "I": 77.05882352941177,
            "J": 78.3125,
            "K": 78.125,
            "L": 77.5,
            "A": 77.1875
        },
        "bus1": {
            "F": 74.3529411764706,
            "G": 72.47058823529412,
            "H": 73.88235294117646,
            "I": 77,
            "J": 75.94117647058823,
            "K": 75.58823529411765,
            "L": 77.125,
            "A": 78.1875,
            "B": 78,
            "C": 78.875,
            "D": 78.8125,
            "E": 79.0625
        },
        "bus2": {
            "H": 68.3529411764706,
            "I": 68.82352941176471,
            "J": 69.47058823529412,
            "K": 70.17647058823529,
            "L": 71.05882352941177,
            "A": 71.17647058823529,
            "B": 72.8125,
            "C": 72.1875,
            "D": 71.9375,
            "E": 74.3125,
            "F": 75.5,
            "G": 73.75
        },
        "bus3": {
            "I": 66.52941176470588,
            "J": 67.29411764705883,
            "K": 68.17647058823529,
            "L": 71.41176470588235,
            "A": 70.3529411764706,
            "B": 71.17647058823529,
            "C": 71.76470588235294,
            "D": 72.3125,
            "E": 73.625,
            "F": 73,
            "G": 72.625,
            "H": 70.6875
        },
        "bus4": {
            "K": 71.11764705882354,
            "L": 72.23529411764706,
            "A": 73.41176470588235,
            "B": 73.3529411764706,
            "C": 74.11764705882354,
            "D": 74.88235294117646,
            "E": 74.29411764705883,
            "F": 76.75,
            "G": 74.125,
            "H": 73.9375,
            "I": 74.6875,
            "J": 74.8125
        },
        "bus5": {
            "A": 69.6470588235294,
            "B": 71.52941176470588,
            "C": 72.11764705882354,
            "D": 70.70588235294117,
            "E": 69.70588235294117,
            "F": 70.47058823529412,
            "G": 71.76470588235294,
            "H": 73,
            "I": 73.875,
            "J": 73.375,
            "K": 73.6875,
            "L": 74.3125
        }
    },
    "Obs_and_actions_busses": {
        "5": 311.0471033618082,
        "0": -115.67420171537408,
        "1": 15.276953364959045,
        "2": 49.2077952301504,
        "3": 4.770723283864175
    },
    "Obs_and_actions_tfls": {}
}