{
    "Average_holding_time": 26.614173228346456,
    "Average_holding_actions": [
        277,
        777,
        62,
        0,
        16,
        0
    ],
    "Average_travel_time_passengers": 2671.318720245402,
    "Average_passenger_waiting_time": 311.5753008207666,
    "Average_passenger_in_vehicle_time": 2359.7434194245548,
    "Average_speed_busses": 0.047625,
    "Average_experienced_crowding": 79.91638700304051,
    "Average_covariation_headway": 0.12225643561088885,
    "Average_covariation_headway_stops": {
        "C": 0.17222076596838498,
        "D": 0.16411277114723857,
        "F": 0.12487448203101405,
        "H": 0.09886805341079426,
        "I": 0.09398723843797897,
        "J": 0.10068514084188177,
        "K": 0.07253823025301856,
        "E": 0.13405075349168358,
        "G": 0.09782579408923983,
        "L": 0.07358014961243375,
        "A": 0.10511504621769618,
        "B": 0.1451312870080347
    },
    "Average_excess_waiting_time": {
        "C": 59.00028179510838,
        "D": 56.46713799150598,
        "F": 52.98568575574933,
        "H": 51.23554718684824,
        "I": 49.48415577996673,
        "J": 48.18028278483615,
        "K": 48.33338753434771,
        "E": 55.44027357710115,
        "G": 52.94332297048908,
        "L": 50.0139043052738,
        "A": 53.44012060946238,
        "B": 58.00206140106434
    },
    "Holding_per_stop": {
        "J": 25.625,
        "D": 27.789473684210527,
        "I": 31.25,
        "F": 26.842105263157894,
        "C": 24.63157894736842,
        "H": 28.105263157894736,
        "K": 28.75,
        "E": 31.894736842105264,
        "G": 32.21052631578947,
        "L": 28.105263157894736,
        "A": 12,
        "B": 22.105263157894736
    },
    "Actions_tfl_edges": {},
    "Load_per_bus_per_stop": {
        "bus0": {
            "C": 73.9375,
            "D": 75.4375,
            "E": 75.1875,
            "F": 76.125,
            "G": 78,
            "H": 80.375,
            "I": 82.0625,
            "J": 82.625,
            "K": 79.9375,
            "L": 80.75,
            "A": 79.2,
            "B": 79.13333333333334
        },
        "bus1": {
            "D": 77.3125,
            "E": 77.25,
            "F": 77,
            "G": 78.5,
            "H": 79.375,
            "I": 81.5625,
            "J": 81.4375,
            "K": 82.1875,
            "L": 81.1875,
            "A": 81.3125,
            "B": 82.1875,
            "C": 81.53333333333333
        },
        "bus2": {
            "F": 72.875,
            "G": 72.3125,
            "H": 72.6875,
            "I": 74.5625,
            "J": 77.125,
            "K": 78.25,
            "L": 76.1875,
            "A": 77.6875,
            "B": 78.375,
            "C": 79.625,
            "D": 76.875,
            "E": 76.73333333333333
        },
        "bus3": {
            "H": 80.375,
            "I": 79.125,
            "J": 80.5625,
            "K": 81.4375,
            "L": 81.3125,
            "A": 79.875,
            "B": 80.9375,
            "C": 82.4375,
            "D": 84.1875,
            "E": 87.0625,
            "F": 86.6875,
            "G": 85.53333333333333
        },
        "bus4": {
            "I": 72.5,
            "J": 73,
            "K": 72.0625,
            "L": 73.4375,
            "A": 74.0625,
            "B": 75.625,
            "C": 77.1875,
            "D": 77.375,
            "E": 77.625,
            "F": 74.8125,
            "G": 76.9375,
            "H": 76.875
        },
        "bus5": {
            "J": 79.82352941176471,
            "K": 78.8125,
            "L": 80.4375,
            "A": 81.4375,
            "B": 83.1875,
            "C": 85.875,
            "D": 85.5,
            "E": 86.9375,
            "F": 85.875,
            "G": 83.6875,
            "H": 83.5625,
            "I": 83.75
        }
    },
    "Obs_and_actions_busses": {
        "5": 352.5948987702221,
        "0": -200.36764176506114,
        "2": -21.275863520350025,
        "1": 11.427288377763444,
        "3": 89.05804252172923
    },
    "Obs_and_actions_tfls": {}
}