{
    "Average_holding_time": 34.37779767233662,
    "Average_holding_actions": [
        30,
        972,
        76,
        39,
        0,
        0
    ],
    "Average_travel_time_passengers": 2718.811395672025,
    "Average_passenger_waiting_time": 322.19069693030025,
    "Average_passenger_in_vehicle_time": 2396.6206987416176,
    "Average_speed_busses": 0.04654166666666667,
    "Average_experienced_crowding": 80.88346390425001,
    "Average_covariation_headway": 0.1288503965670178,
    "Average_covariation_headway_stops": {
        "C": 0.16911287072445438,
        "D": 0.16109119166872415,
        "G": 0.12703347808648724,
        "H": 0.12215045801938712,
        "I": 0.12229320746198132,
        "J": 0.12902744113310058,
        "E": 0.1365737531748657,
        "K": 0.10212087839622981,
        "F": 0.12070903243371028,
        "L": 0.09129241284488006,
        "A": 0.10579652058825323,
        "B": 0.14086429015180396
    },
    "Average_excess_waiting_time": {
        "C": 67.11158202296258,
        "D": 64.54186117544958,
        "G": 63.032897645265564,
        "H": 60.91598939256306,
        "I": 59.138926503924836,
        "J": 58.098737022171235,
        "E": 63.95416448235642,
        "K": 57.841764157734076,
        "F": 64.18060394900948,
        "L": 59.00868595321333,
        "A": 61.61604881013068,
        "B": 66.06159034757263
    },
    "Holding_per_stop": {
        "D": 33.225806451612904,
        "J": 33.191489361702125,
        "H": 37.096774193548384,
        "I": 34.46808510638298,
        "G": 37.74193548387097,
        "C": 36.774193548387096,
        "E": 34.516129032258064,
        "K": 37.02127659574468,
        "F": 33.58695652173913,
        "L": 35.483870967741936,
        "A": 29.677419354838708,
        "B": 29.67391304347826
    },
    "Actions_tfl_edges": {},
    "Load_per_bus_per_stop": {
        "bus0": {
            "C": 78.375,
            "D": 79.1875,
            "E": 78.1875,
            "F": 78.9375,
            "G": 81.125,
            "H": 80.8,
            "I": 82.4,
            "J": 81.86666666666666,
            "K": 81.46666666666667,
            "L": 80.73333333333333,
            "A": 82.4,
            "B": 83.06666666666666
        },
        "bus1": {
            "D": 81.375,
            "E": 82.3125,
            "F": 81.875,
            "G": 82.4375,
            "H": 81,
            "I": 83.0625,
            "J": 80.33333333333333,
            "K": 80.2,
            "L": 81.33333333333333,
            "A": 81.4,
            "B": 82.4,
            "C": 84.53333333333333
        },
        "bus2": {
            "G": 78.25,
            "H": 78.25,
            "I": 78.625,
            "J": 80.4375,
            "K": 82.25,
            "L": 82.4,
            "A": 81.8,
            "B": 82.53333333333333,
            "C": 83.2,
            "D": 84.13333333333334,
            "E": 84.46666666666667,
            "F": 85
        },
        "bus3": {
            "H": 76.6875,
            "I": 76.9375,
            "J": 77.9375,
            "K": 78.125,
            "L": 78.0625,
            "A": 76.875,
            "B": 76.6,
            "C": 77.53333333333333,
            "D": 79.33333333333333,
            "E": 79.4,
            "F": 78.46666666666667,
            "G": 80
        },
        "bus4": {
            "I": 72.5625,
            "J": 74.1875,
            "K": 74.625,
            "L": 74.4375,
            "A": 73.5625,
            "B": 77.625,
            "C": 77.5,
            "D": 77.2,
            "E": 77.4,
            "F": 76.26666666666667,
            "G": 75.86666666666666,
            "H": 77
        },
        "bus5": {
            "J": 81.3125,
            "K": 80.75,
            "L": 80.625,
            "A": 80.75,
            "B": 80,
            "C": 80.4375,
            "D": 82.625,
            "E": 82.6875,
            "F": 86.06666666666666,
            "G": 83.8,
            "H": 85.4,
            "I": 85.93333333333334
        }
    },
    "Obs_and_actions_busses": {
        "4": 246.34011022479356,
        "2": 57.73265673465962,
        "1": -20.99845094211779,
        "0": -537.5583650435601
    },
    "Obs_and_actions_tfls": {}
}_tfls": {}
}