{
    "Average_holding_time": 10.279375513557929,
    "Average_holding_actions": [
        1024,
        124,
        0,
        0,
        43,
        0
    ],
    "Average_travel_time_passengers": 2531.9662737869235,
    "Average_passenger_waiting_time": 296.51634703124955,
    "Average_passenger_in_vehicle_time": 2235.449926755589,
    "Average_speed_busses": 0.050708333333333334,
    "Average_experienced_crowding": 75.50104574036871,
    "Average_covariation_headway": 0.16719063352441116,
    "Average_covariation_headway_stops": {
        "D": 0.15424264217524275,
        "E": 0.15099741300489716,
        "G": 0.1071705319769179,
        "J": 0.11593101991973116,
        "K": 0.1077581756644331,
        "L": 0.12100067079703165,
        "A": 0.10356364891335978,
        "H": 0.09331263121668712,
        "F": 0.10355542802799785,
        "I": 0.0925627572469546,
        "B": 0.1058924960990039,
        "C": 0.13134041838110022
    },
    "Average_excess_waiting_time": {
        "D": 37.77358082232195,
        "E": 36.063281585453126,
        "G": 32.74599847127524,
        "J": 35.319006250831194,
        "K": 33.283482941714226,
        "L": 32.56872603437938,
        "A": 32.862045361297646,
        "H": 33.6003383137612,
        "F": 34.019304950580874,
        "I": 35.01243523937228,
        "B": 34.24731116420804,
        "C": 37.41518910330461
    },
    "Holding_per_stop": {
        "L": 8.235294117647058,
        "G": 7.9411764705882355,
        "E": 14.705882352941176,
        "K": 12.058823529411764,
        "D": 16.93069306930693,
        "J": 9.801980198019802,
        "H": 5.9405940594059405,
        "A": 4.117647058823529,
        "F": 12.475247524752476,
        "I": 4.752475247524752,
        "B": 8.910891089108912,
        "C": 17.524752475247524
    },
    "Actions_tfl_edges": {},
    "Load_per_bus_per_stop": {
        "bus0": {
            "D": 69.58823529411765,
            "E": 68.3529411764706,
            "F": 69.58823529411765,
            "G": 70.6470588235294,
            "H": 71.47058823529412,
            "I": 73.52941176470588,
            "J": 74.05882352941177,
            "K": 73.47058823529412,
            "L": 75.11764705882354,
            "A": 75.82352941176471,
            "B": 75,
            "C": 74.4375
        },
        "bus1": {
            "E": 71.52941176470588,
            "F": 72.6470588235294,
            "G": 71.82352941176471,
            "H": 70.23529411764706,
            "I": 72,
            "J": 73.47058823529412,
            "K": 74.05882352941177,
            "L": 73.11764705882354,
            "A": 73.3529411764706,
            "B": 74.47058823529412,
            "C": 75.41176470588235,
            "D": 77.375
        },
        "bus2": {
            "G": 74.11764705882354,
            "H": 74.52941176470588,
            "I": 74.11764705882354,
            "J": 74.05882352941177,
            "K": 75.23529411764706,
            "L": 77.17647058823529,
            "A": 78.82352941176471,
            "B": 80.58823529411765,
            "C": 80.29411764705883,
            "D": 82.23529411764706,
            "E": 81.70588235294117,
            "F": 81.0625
        },
        "bus3": {
            "J": 73.41176470588235,
            "K": 71.6470588235294,
            "L": 72.11764705882354,
            "A": 73.52941176470588,
            "B": 73.23529411764706,
            "C": 75.58823529411765,
            "D": 76.29411764705883,
            "E": 77.05882352941177,
            "F": 78.05882352941177,
            "G": 79.3529411764706,
            "H": 78.5625,
            "I": 77.9375
        },
        "bus4": {
            "K": 72.41176470588235,
            "L": 73,
            "A": 71.41176470588235,
            "B": 72.23529411764706,
            "C": 73.17647058823529,
            "D": 72.76470588235294,
            "E": 72.6470588235294,
            "F": 72.58823529411765,
            "G": 72.29411764705883,
            "H": 73.3529411764706,
            "I": 76.3529411764706,
            "J": 77.125
        },
        "bus5": {
            "L": 74.6470588235294,
            "A": 74.41176470588235,
            "B": 73.41176470588235,
            "C": 73.52941176470588,
            "D": 76.23529411764706,
            "E": 76.88235294117646,
            "F": 76.70588235294117,
            "G": 77.05882352941177,
            "H": 77.05882352941177,
            "I": 77.17647058823529,
            "J": 78.88235294117646,
            "K": 79.29411764705883
        }
    },
    "Obs_and_actions_busses": {
        "5": 183.61328445533434,
        "0": -132.22519445843116,
        "1": 46.10553697862082,
        "3": 73.80048268799273
    },
    "Obs_and_actions_tfls": {}
}