{
    "Average_holding_time": 13.114071606994171,
    "Average_holding_actions": [
        935,
        102,
        131,
        4,
        29,
        0
    ],
    "Average_travel_time_passengers": 2514.9923301717895,
    "Average_passenger_waiting_time": 296.4139653830334,
    "Average_passenger_in_vehicle_time": 2218.578364788678,
    "Average_speed_busses": 0.050041666666666665,
    "Average_experienced_crowding": 73.85616780421958,
    "Average_covariation_headway": 0.11829639169536162,
    "Average_covariation_headway_stops": {
        "C": 0.11848476643436766,
        "D": 0.11123539189826456,
        "E": 0.11706299771654191,
        "F": 0.12348836426753296,
        "J": 0.13425749385175523,
        "A": 0.14040146023051356,
        "G": 0.09422482920846911,
        "K": 0.10240766731075399,
        "B": 0.11334604512571904,
        "H": 0.08854435997943781,
        "I": 0.10997571392546991,
        "L": 0.10502436656566153
    },
    "Average_excess_waiting_time": {
        "C": 38.473327707888245,
        "D": 36.53397832450656,
        "E": 35.451334246540284,
        "F": 34.35699558632518,
        "J": 37.949885508908096,
        "A": 40.33256086411791,
        "G": 33.82010947328382,
        "K": 37.23757455401727,
        "B": 39.8076657533141,
        "H": 35.23782311443534,
        "I": 37.6917436077743,
        "L": 39.1719444694146
    },
    "Holding_per_stop": {
        "D": 7.5,
        "F": 19.603960396039604,
        "E": 12.178217821782178,
        "J": 13.2,
        "A": 2.4,
        "C": 17.7,
        "G": 13.069306930693068,
        "H": 10.8,
        "K": 27.9,
        "B": 5.454545454545454,
        "I": 14.1,
        "L": 13.333333333333334
    },
    "Actions_tfl_edges": {},
    "Load_per_bus_per_stop": {
        "bus0": {
            "C": 74,
            "D": 75.76470588235294,
            "E": 75.47058823529412,
            "F": 76.58823529411765,
            "G": 76.76470588235294,
            "H": 78.23529411764706,
            "I": 78.94117647058823,
            "J": 77.17647058823529,
            "K": 77.1875,
            "L": 78.4375,
            "A": 75.375,
            "B": 76.6875
        },
        "bus1": {
            "D": 70.23529411764706,
            "E": 69.3529411764706,
            "F": 71.52941176470588,
            "G": 72.11764705882354,
            "H": 73.76470588235294,
            "I": 74.41176470588235,
            "J": 73.6470588235294,
            "K": 73.6470588235294,
            "L": 75.6470588235294,
            "A": 74.8125,
            "B": 73.625,
            "C": 73.25
        },
        "bus2": {
            "E": 71.58823529411765,
            "F": 72.82352941176471,
            "G": 74.05882352941177,
            "H": 74.17647058823529,
            "I": 73.3529411764706,
            "J": 73.17647058823529,
            "K": 72.52941176470588,
            "L": 73.05882352941177,
            "A": 73.88235294117646,
            "B": 75.05882352941177,
            "C": 73.3125,
            "D": 74.625
        },
        "bus3": {
            "F": 68.52941176470588,
            "G": 70.70588235294117,
            "H": 71.76470588235294,
            "I": 73.05882352941177,
            "J": 75.05882352941177,
            "K": 74.82352941176471,
            "L": 74.47058823529412,
            "A": 73,
            "B": 73.58823529411765,
            "C": 73.3529411764706,
            "D": 75.0625,
            "E": 73.25
        },
        "bus4": {
            "J": 70.94117647058823,
            "K": 71.41176470588235,
            "L": 74,
            "A": 76,
            "B": 73.3529411764706,
            "C": 76.47058823529412,
            "D": 77.76470588235294,
            "E": 77.17647058823529,
            "F": 78.3529411764706,
            "G": 75.5625,
            "H": 73.6875,
            "I": 74.125
        },
        "bus5": {
            "A": 68.88235294117646,
            "B": 68.23529411764706,
            "C": 69.41176470588235,
            "D": 72.41176470588235,
            "E": 72.76470588235294,
            "F": 70.94117647058823,
            "G": 72,
            "H": 72.11764705882354,
            "I": 73.75,
            "J": 72.8125,
            "K": 72.625,
            "L": 72
        }
    },
    "Obs_and_actions_busses": {
        "0": -115.60229867606705,
        "1": 24.392228688433857,
        "5": 168.56900484003995,
        "2": 56.883787625330754,
        "4": 42.3500111984552
    },
    "Obs_and_actions_tfls": {}
}1303503864
    },
    "Obs_and_actions_tfls": {}
}
    },
    "Obs_and_actions_tfls": {}
}