{
    "Average_holding_time": 33.98563734290844,
    "Average_holding_actions": [
        31,
        966,
        86,
        31,
        0,
        0
    ],
    "Average_travel_time_passengers": 2724.7227110082545,
    "Average_passenger_waiting_time": 316.126808729465,
    "Average_passenger_in_vehicle_time": 2408.595902278686,
    "Average_speed_busses": 0.04641666666666667,
    "Average_experienced_crowding": 81.90844995040733,
    "Average_covariation_headway": 0.11363968621142648,
    "Average_covariation_headway_stops": {
        "B": 0.10281994571564768,
        "F": 0.12087019852226137,
        "G": 0.11707927299876433,
        "J": 0.09145879562420925,
        "L": 0.08605418896341928,
        "A": 0.09486854253547353,
        "C": 0.07679506748734732,
        "H": 0.07928423497200124,
        "K": 0.056914412322281546,
        "D": 0.0721148639860972,
        "I": 0.06708681423897418,
        "E": 0.0952820298371345
    },
    "Average_excess_waiting_time": {
        "B": 56.95707848059817,
        "F": 61.48283582639698,
        "G": 59.708890880517345,
        "J": 59.84770960190241,
        "L": 59.51580540075577,
        "A": 58.18364358811988,
        "C": 57.17110037635291,
        "H": 59.00871646531516,
        "K": 59.9439664755339,
        "D": 58.63701212653302,
        "I": 60.357762868165196,
        "E": 61.56775319763989
    },
    "Holding_per_stop": {
        "B": 32.234042553191486,
        "G": 35.16129032258065,
        "A": 29.032258064516128,
        "L": 34.83870967741935,
        "J": 31.93548387096774,
        "F": 37.74193548387097,
        "C": 37.41935483870968,
        "H": 35.16129032258065,
        "K": 34.23913043478261,
        "I": 32.93478260869565,
        "D": 34.516129032258064,
        "E": 32.608695652173914
    },
    "Actions_tfl_edges": {},
    "Load_per_bus_per_stop": {
        "bus0": {
            "B": 76.125,
            "C": 79.4375,
            "D": 80.75,
            "E": 81.5625,
            "F": 81.25,
            "G": 82.8125,
            "H": 82.875,
            "I": 82.26666666666667,
            "J": 80.73333333333333,
            "K": 79.53333333333333,
            "L": 82.46666666666667,
            "A": 82.93333333333334
        },
        "bus1": {
            "F": 77.625,
            "G": 79.75,
            "H": 81.125,
            "I": 80.125,
            "J": 79.875,
            "K": 76.93333333333334,
            "L": 77.66666666666667,
            "A": 80.2,
            "B": 82.06666666666666,
            "C": 82.86666666666666,
            "D": 82.8,
            "E": 82.4
        },
        "bus2": {
            "G": 80.9375,
            "H": 80.0625,
            "I": 81.125,
            "J": 81.875,
            "K": 82.5,
            "L": 81.125,
            "A": 82.6,
            "B": 83.4,
            "C": 85.8,
            "D": 84.2,
            "E": 85.26666666666667,
            "F": 85.06666666666666
        },
        "bus3": {
            "J": 81.5,
            "K": 84.25,
            "L": 85.8125,
            "A": 84.375,
            "B": 82.125,
            "C": 82.13333333333334,
            "D": 82.6,
            "E": 84.26666666666667,
            "F": 82.46666666666667,
            "G": 83.06666666666666,
            "H": 85.66666666666667,
            "I": 85.86666666666666
        },
        "bus4": {
            "L": 76.5,
            "A": 78.625,
            "B": 78.625,
            "C": 78.6875,
            "D": 80.125,
            "E": 80.8,
            "F": 82.2,
            "G": 83.86666666666666,
            "H": 82.86666666666666,
            "I": 83.4,
            "J": 81.66666666666667,
            "K": 80
        },
        "bus5": {
            "A": 78.875,
            "B": 79.1875,
            "C": 81,
            "D": 81.9375,
            "E": 81.875,
            "F": 80.3125,
            "G": 80.93333333333334,
            "H": 79.33333333333333,
            "I": 81.93333333333334,
            "J": 82.86666666666666,
            "K": 83.53333333333333,
            "L": 83.4
        }
    },
    "Obs_and_actions_busses": {
        "4": 176.80490528940564,
        "2": 59.932740669761266,
        "1": -24.000685551735973,
        "0": -404.5654376995331
    },
    "Obs_and_actions_tfls": {}
} {}
}