{
    "Average_holding_time": 27.68421052631579,
    "Average_holding_actions": [
        259,
        768,
        85,
        0,
        15,
        0
    ],
    "Average_travel_time_passengers": 2679.987381047622,
    "Average_passenger_waiting_time": 315.46010981680104,
    "Average_passenger_in_vehicle_time": 2364.5272712307274,
    "Average_speed_busses": 0.0475,
    "Average_experienced_crowding": 80.09028661773586,
    "Average_covariation_headway": 0.12405151500442758,
    "Average_covariation_headway_stops": {
        "D": 0.15994124592394193,
        "E": 0.1529460580895051,
        "F": 0.14958179563173954,
        "G": 0.14822692279195707,
        "I": 0.11908472335185352,
        "K": 0.09847848708835805,
        "L": 0.06811118359773398,
        "H": 0.1182798001222571,
        "J": 0.08218265558044788,
        "A": 0.06748924160635027,
        "B": 0.09224059442628126,
        "C": 0.13569741562686302
    },
    "Average_excess_waiting_time": {
        "D": 60.11939343106519,
        "E": 57.69515479654649,
        "F": 55.662403611590605,
        "G": 53.886147393839906,
        "I": 51.65680083726704,
        "K": 50.33365572102855,
        "L": 50.4069535174944,
        "H": 53.26530756547936,
        "J": 51.056559984651926,
        "A": 52.18894974770694,
        "B": 54.66722968249786,
        "C": 59.470112841174966
    },
    "Holding_per_stop": {
        "K": 31.875,
        "G": 29.6875,
        "F": 29.36842105263158,
        "E": 28.105263157894736,
        "I": 30.625,
        "D": 25.53191489361702,
        "L": 27.473684210526315,
        "H": 32.526315789473685,
        "J": 27.157894736842106,
        "A": 18.63157894736842,
        "B": 26.170212765957448,
        "C": 24.893617021276597
    },
    "Actions_tfl_edges": {},
    "Load_per_bus_per_stop": {
        "bus0": {
            "D": 78.25,
            "E": 77.0625,
            "F": 78.375,
            "G": 79.8125,
            "H": 78.3125,
            "I": 79,
            "J": 80.375,
            "K": 80.4375,
            "L": 81.86666666666666,
            "A": 83.8,
            "B": 84.26666666666667,
            "C": 83.4
        },
        "bus1": {
            "E": 76.375,
            "F": 76.4375,
            "G": 77.875,
            "H": 77.75,
            "I": 78.5625,
            "J": 78.5625,
            "K": 80.5625,
            "L": 79.9375,
            "A": 77.25,
            "B": 78.26666666666667,
            "C": 79.26666666666667,
            "D": 80.13333333333334
        },
        "bus2": {
            "F": 79.0625,
            "G": 80.625,
            "H": 79.8125,
            "I": 79.5,
            "J": 77.9375,
            "K": 79.6875,
            "L": 79.1875,
            "A": 79.0625,
            "B": 80.125,
            "C": 78.625,
            "D": 81.13333333333334,
            "E": 82.33333333333333
        },
        "bus3": {
            "G": 76.8125,
            "H": 80.5,
            "I": 78.125,
            "J": 76.875,
            "K": 76,
            "L": 75.1875,
            "A": 76,
            "B": 75.25,
            "C": 75.75,
            "D": 76.0625,
            "E": 79.1875,
            "F": 80.73333333333333
        },
        "bus4": {
            "I": 75.5,
            "J": 75.6875,
            "K": 77.5625,
            "L": 76.1875,
            "A": 77.25,
            "B": 79.3125,
            "C": 80.5,
            "D": 82.25,
            "E": 81.875,
            "F": 80.4375,
            "G": 80.9375,
            "H": 83.26666666666667
        },
        "bus5": {
            "K": 78,
            "L": 79.4375,
            "A": 78.25,
            "B": 77.25,
            "C": 80.625,
            "D": 81.5625,
            "E": 80.6875,
            "F": 82.125,
            "G": 81.25,
            "H": 81.25,
            "I": 81.8125,
            "J": 84.66666666666667
        }
    },
    "Obs_and_actions_busses": {
        "5": 379.1048702107261,
        "0": -191.3217356083123,
        "2": -21.581075794552117,
        "1": 11.53167209694919,
        "3": 86.7570174728733
    },
    "Obs_and_actions_tfls": {}
}