{
    "Average_holding_time": 31.678507992895206,
    "Average_holding_actions": [
        313,
        567,
        179,
        29,
        17,
        0
    ],
    "Average_travel_time_passengers": 2688.126457903517,
    "Average_passenger_waiting_time": 313.14687672298095,
    "Average_passenger_in_vehicle_time": 2374.979581180447,
    "Average_speed_busses": 0.04691666666666667,
    "Average_experienced_crowding": 79.56214702638309,
    "Average_covariation_headway": 0.1203098249652657,
    "Average_covariation_headway_stops": {
        "D": 0.10677849557965409,
        "H": 0.12325061887129375,
        "I": 0.11866920643456541,
        "J": 0.11776256932467015,
        "L": 0.10872581960172123,
        "A": 0.1069706858269102,
        "B": 0.08397357278351285,
        "K": 0.08201395927012428,
        "E": 0.07978583372254452,
        "F": 0.08646813745545104,
        "C": 0.08747915446309844,
        "G": 0.09853623131137958
    },
    "Average_excess_waiting_time": {
        "D": 55.83537066794594,
        "H": 60.45033227979735,
        "I": 58.351465219716204,
        "J": 56.47228687895347,
        "L": 55.98820508568883,
        "A": 54.115961856929516,
        "B": 54.38854525631427,
        "K": 56.23049683065665,
        "E": 55.8494037624738,
        "F": 58.06531249711543,
        "C": 56.087915027561905,
        "G": 60.459504407512384
    },
    "Holding_per_stop": {
        "A": 3.473684210526316,
        "J": 41.48936170212766,
        "D": 27.76595744680851,
        "I": 38.297872340425535,
        "L": 29.04255319148936,
        "H": 34.516129032258064,
        "E": 31.595744680851062,
        "B": 18.19148936170213,
        "K": 44.361702127659576,
        "F": 33.87096774193548,
        "C": 46.91489361702128,
        "G": 30.967741935483872
    },
    "Actions_tfl_edges": {},
    "Load_per_bus_per_stop": {
        "bus0": {
            "D": 75.4375,
            "E": 75.3125,
            "F": 78.3125,
            "G": 80.0625,
            "H": 80.375,
            "I": 81.875,
            "J": 83.5,
            "K": 83.125,
            "L": 82.06666666666666,
            "A": 81,
            "B": 81.26666666666667,
            "C": 81.73333333333333
        },
        "bus1": {
            "H": 76.0625,
            "I": 75.9375,
            "J": 76.0625,
            "K": 77.9375,
            "L": 77.5625,
            "A": 79.6875,
            "B": 80.93333333333334,
            "C": 81.46666666666667,
            "D": 83.86666666666666,
            "E": 82.13333333333334,
            "F": 82.66666666666667,
            "G": 82
        },
        "bus2": {
            "I": 72.8125,
            "J": 75.125,
            "K": 77.125,
            "L": 76.125,
            "A": 78.4375,
            "B": 78.5,
            "C": 80.8125,
            "D": 80.73333333333333,
            "E": 82.26666666666667,
            "F": 82.66666666666667,
            "G": 82.2,
            "H": 79.2
        },
        "bus3": {
            "J": 74.375,
            "K": 74.75,
            "L": 77.25,
            "A": 75.75,
            "B": 75,
            "C": 75.125,
            "D": 75.5,
            "E": 75.9375,
            "F": 74.2,
            "G": 76,
            "H": 76.26666666666667,
            "I": 76.86666666666666
        },
        "bus4": {
            "L": 75.375,
            "A": 77.625,
            "B": 78,
            "C": 78.0625,
            "D": 79.3125,
            "E": 78.4375,
            "F": 78.3125,
            "G": 80.875,
            "H": 78.66666666666667,
            "I": 80.06666666666666,
            "J": 81.06666666666666,
            "K": 80.8
        },
        "bus5": {
            "A": 77.5625,
            "B": 77.5,
            "C": 75.9375,
            "D": 78.625,
            "E": 78.4375,
            "F": 80.5625,
            "G": 82.0625,
            "H": 82.5625,
            "I": 83.9375,
            "J": 84.93333333333334,
            "K": 85.13333333333334,
            "L": 83.4
        }
    },
    "Obs_and_actions_busses": {
        "5": 237.36149770358173,
        "4": 79.85637802465781,
        "2": 41.464858290172614,
        "3": 24.399888984584933,
        "1": 1.5884916462562666,
        "0": -121.04949894929585
    },
    "Obs_and_actions_tfls": {}
}