{
    "Average_holding_time": 20.26405451448041,
    "Average_holding_actions": [
        894,
        0,
        157,
        0,
        55,
        0
    ],
    "Average_travel_time_passengers": 2599.7317743402355,
    "Average_passenger_waiting_time": 307.3150275613072,
    "Average_passenger_in_vehicle_time": 2292.4167467788625,
    "Average_speed_busses": 0.048916666666666664,
    "Average_experienced_crowding": 76.39700201421385,
    "Average_covariation_headway": 0.1620384597319013,
    "Average_covariation_headway_stops": {
        "D": 0.13861965636546916,
        "F": 0.1223584940461979,
        "H": 0.1184180875144951,
        "I": 0.12336410013835479,
        "J": 0.12556970018741764,
        "L": 0.12459793267229845,
        "K": 0.11576628241676483,
        "G": 0.11065631083041232,
        "A": 0.12224618407555617,
        "E": 0.11840707143230039,
        "B": 0.12316670087011221,
        "C": 0.1296704322670902
    },
    "Average_excess_waiting_time": {
        "D": 47.1096439936224,
        "F": 45.75476023794516,
        "H": 45.43192112725052,
        "I": 44.125555213756456,
        "J": 43.05436833502165,
        "L": 43.258531782346836,
        "K": 43.82782616035985,
        "G": 46.57630990367437,
        "A": 44.87146189832623,
        "E": 46.83849402465398,
        "B": 46.36882493109994,
        "C": 47.74394153055266
    },
    "Holding_per_stop": {
        "J": 26.020408163265305,
        "F": 22.653061224489797,
        "I": 16.836734693877553,
        "L": 23.333333333333332,
        "H": 18.06122448979592,
        "D": 19.285714285714285,
        "K": 28.46938775510204,
        "A": 3.979591836734694,
        "G": 15.77319587628866,
        "E": 24.123711340206185,
        "B": 10.10204081632653,
        "C": 34.63917525773196
    },
    "Actions_tfl_edges": {},
    "Load_per_bus_per_stop": {
        "bus0": {
            "D": 70.29411764705883,
            "E": 70.41176470588235,
            "F": 72.41176470588235,
            "G": 73.1875,
            "H": 72.75,
            "I": 73.4375,
            "J": 75.1875,
            "K": 76,
            "L": 76.5,
            "A": 77.5,
            "B": 76.375,
            "C": 76.5
        },
        "bus1": {
            "F": 68.76470588235294,
            "G": 70.6470588235294,
            "H": 71.76470588235294,
            "I": 73.1875,
            "J": 73.375,
            "K": 75.25,
            "L": 77.75,
            "A": 76.5,
            "B": 75.375,
            "C": 76.25,
            "D": 77.125,
            "E": 73.125
        },
        "bus2": {
            "H": 73.23529411764706,
            "I": 73.58823529411765,
            "J": 74.94117647058823,
            "K": 76.625,
            "L": 75.875,
            "A": 76.75,
            "B": 77.5625,
            "C": 77.5,
            "D": 78.8125,
            "E": 79.4375,
            "F": 81.5625,
            "G": 80.1875
        },
        "bus3": {
            "I": 70.52941176470588,
            "J": 72.82352941176471,
            "K": 73.23529411764706,
            "L": 74.76470588235294,
            "A": 75.1875,
            "B": 76.0625,
            "C": 77.25,
            "D": 77.6875,
            "E": 76.6875,
            "F": 76.625,
            "G": 74.5,
            "H": 76.375
        },
        "bus4": {
            "J": 72.3529411764706,
            "K": 72.23529411764706,
            "L": 71.41176470588235,
            "A": 72.11764705882354,
            "B": 72.6470588235294,
            "C": 74.125,
            "D": 76.5,
            "E": 75.875,
            "F": 76.125,
            "G": 76.3125,
            "H": 78.125,
            "I": 77.125
        },
        "bus5": {
            "L": 77.23529411764706,
            "A": 76.82352941176471,
            "B": 76.58823529411765,
            "C": 76.70588235294117,
            "D": 79.17647058823529,
            "E": 80.4375,
            "F": 80.1875,
            "G": 80.75,
            "H": 81.5625,
            "I": 81.8125,
            "J": 81.5,
            "K": 81.25
        }
    },
    "Obs_and_actions_busses": {
        "5": 81.24082720401957,
        "3": 129.35194356823982,
        "2": 47.008021839572386,
        "0": -117.75673926936301
    },
    "Obs_and_actions_tfls": {}
}