{
    "Average_holding_time": 31.518650088809945,
    "Average_holding_actions": [
        294,
        605,
        168,
        25,
        20,
        0
    ],
    "Average_travel_time_passengers": 2704.33103304241,
    "Average_passenger_waiting_time": 315.6742995932951,
    "Average_passenger_in_vehicle_time": 2388.6567334490355,
    "Average_speed_busses": 0.04691666666666667,
    "Average_experienced_crowding": 79.61388594501312,
    "Average_covariation_headway": 0.11116734683000631,
    "Average_covariation_headway_stops": {
        "E": 0.10937790719564368,
        "F": 0.09984455976045135,
        "H": 0.0883888880049076,
        "I": 0.09499221715226773,
        "L": 0.08565802721555037,
        "A": 0.08655401628816405,
        "B": 0.04902595931704907,
        "G": 0.05987819759160096,
        "J": 0.07061417437986811,
        "C": 0.043819928618994065,
        "K": 0.06161735411913829,
        "D": 0.08240541179012344
    },
    "Average_excess_waiting_time": {
        "E": 58.33625114018446,
        "F": 56.11224838753577,
        "H": 55.48424809512687,
        "I": 54.20202066266825,
        "L": 55.44232426026559,
        "A": 53.65504162205383,
        "B": 53.7077008474443,
        "G": 55.80781832316171,
        "J": 54.699351015073546,
        "C": 55.058981313976574,
        "K": 55.92782823329884,
        "D": 58.59525294408019
    },
    "Holding_per_stop": {
        "A": 3.1578947368421053,
        "F": 32.5531914893617,
        "I": 37.97872340425532,
        "H": 38.93617021276596,
        "L": 25.21276595744681,
        "E": 32.87234042553192,
        "B": 15.638297872340425,
        "G": 37.096774193548384,
        "J": 40.53191489361702,
        "C": 48.191489361702125,
        "K": 44.193548387096776,
        "D": 22.258064516129032
    },
    "Actions_tfl_edges": {},
    "Load_per_bus_per_stop": {
        "bus0": {
            "E": 77.8125,
            "F": 79.5625,
            "G": 80.1875,
            "H": 80.875,
            "I": 83.875,
            "J": 84,
            "K": 83.8125,
            "L": 82.8,
            "A": 82.4,
            "B": 82.13333333333334,
            "C": 80.8,
            "D": 81
        },
        "bus1": {
            "F": 76.9375,
            "G": 77.9375,
            "H": 79,
            "I": 80.375,
            "J": 79.6875,
            "K": 80.4375,
            "L": 80.3125,
            "A": 80.375,
            "B": 80.66666666666667,
            "C": 82,
            "D": 81.46666666666667,
            "E": 81.46666666666667
        },
        "bus2": {
            "H": 74.125,
            "I": 74.625,
            "J": 76.1875,
            "K": 75.9375,
            "L": 75.0625,
            "A": 74.9375,
            "B": 76,
            "C": 77.6875,
            "D": 77.26666666666667,
            "E": 77.73333333333333,
            "F": 77.06666666666666,
            "G": 79
        },
        "bus3": {
            "I": 78.25,
            "J": 78.8125,
            "K": 81.3125,
            "L": 82.3125,
            "A": 82.6875,
            "B": 82.125,
            "C": 83,
            "D": 81,
            "E": 81,
            "F": 80.6,
            "G": 79.73333333333333,
            "H": 81.73333333333333
        },
        "bus4": {
            "L": 76.9375,
            "A": 77.625,
            "B": 77.75,
            "C": 77.9375,
            "D": 78.3125,
            "E": 80.3125,
            "F": 80.5625,
            "G": 80.5,
            "H": 79.6,
            "I": 79.13333333333334,
            "J": 81.06666666666666,
            "K": 81.4
        },
        "bus5": {
            "A": 75.5,
            "B": 75.4375,
            "C": 77.0625,
            "D": 77.625,
            "E": 76.4375,
            "F": 77.125,
            "G": 78.25,
            "H": 79.5,
            "I": 79,
            "J": 79.53333333333333,
            "K": 80.2,
            "L": 78.93333333333334
        }
    },
    "Obs_and_actions_busses": {
        "5": 208.56479056881756,
        "0": -103.49186217209383,
        "2": 42.03600491784995,
        "1": 1.966525749651758,
        "4": 74.66738193323316,
        "3": 25.13823454451716
    },
    "Obs_and_actions_tfls": {}
}   "3": 25.18246819659271
    },
    "Obs_and_actions_tfls": {}
}