{
    "Average_holding_time": 7.854812398042414,
    "Average_holding_actions": [
        1152,
        0,
        0,
        49,
        25,
        0
    ],
    "Average_travel_time_passengers": 2491.149885958722,
    "Average_passenger_waiting_time": 291.6350082299352,
    "Average_passenger_in_vehicle_time": 2199.514877728704,
    "Average_speed_busses": 0.051083333333333335,
    "Average_experienced_crowding": 75.73287954470463,
    "Average_covariation_headway": 0.25091536016868304,
    "Average_covariation_headway_stops": {
        "B": 0.160238942216105,
        "D": 0.1598574934348811,
        "H": 0.181005867432635,
        "I": 0.17888273805703,
        "K": 0.16002505623304802,
        "L": 0.15674424843584817,
        "A": 0.14272089619684478,
        "J": 0.16163593259232154,
        "C": 0.1520298695696787,
        "E": 0.14730777717959032,
        "F": 0.1517918090888247,
        "G": 0.16202161278340152
    },
    "Average_excess_waiting_time": {
        "B": 34.06305690164311,
        "D": 34.1871820347194,
        "H": 38.785975844290306,
        "I": 37.067136896395255,
        "K": 35.707982254982255,
        "L": 33.88839793877088,
        "A": 34.0617384053765,
        "J": 36.81844483681584,
        "C": 34.94076106388434,
        "E": 34.65189741991554,
        "F": 36.4239703148902,
        "G": 38.42569386901829
    },
    "Holding_per_stop": {
        "L": 9.611650485436893,
        "I": 11.470588235294118,
        "B": 1.1650485436893203,
        "D": 6.407766990291262,
        "K": 11.764705882352942,
        "H": 2.6470588235294117,
        "A": 1.1764705882352942,
        "C": 13.823529411764707,
        "E": 2.6470588235294117,
        "J": 17.352941176470587,
        "F": 10,
        "G": 6.237623762376238
    },
    "Actions_tfl_edges": {},
    "Load_per_bus_per_stop": {
        "bus0": {
            "B": 66.61111111111111,
            "C": 67.70588235294117,
            "D": 68,
            "E": 68.94117647058823,
            "F": 68.88235294117646,
            "G": 67.29411764705883,
            "H": 68,
            "I": 69.58823529411765,
            "J": 68.94117647058823,
            "K": 69.29411764705883,
            "L": 69.23529411764706,
            "A": 69.3529411764706
        },
        "bus1": {
            "D": 74.22222222222223,
            "E": 73.47058823529412,
            "F": 74.41176470588235,
            "G": 76,
            "H": 76.6470588235294,
            "I": 75.88235294117646,
            "J": 75.3529411764706,
            "K": 76.76470588235294,
            "L": 77.70588235294117,
            "A": 78.23529411764706,
            "B": 78.11764705882354,
            "C": 77.82352941176471
        },
        "bus2": {
            "H": 73.47058823529412,
            "I": 72.11764705882354,
            "J": 71.94117647058823,
            "K": 73.23529411764706,
            "L": 70.47058823529412,
            "A": 70.94117647058823,
            "B": 72.47058823529412,
            "C": 73.05882352941177,
            "D": 74.76470588235294,
            "E": 73.52941176470588,
            "F": 75.76470588235294,
            "G": 78.125
        },
        "bus3": {
            "I": 68.88235294117646,
            "J": 69.23529411764706,
            "K": 68.58823529411765,
            "L": 69.11764705882354,
            "A": 69.17647058823529,
            "B": 70.41176470588235,
            "C": 70.05882352941177,
            "D": 70.41176470588235,
            "E": 70.29411764705883,
            "F": 70.94117647058823,
            "G": 71.82352941176471,
            "H": 72.70588235294117
        },
        "bus4": {
            "K": 80.17647058823529,
            "L": 79.58823529411765,
            "A": 79.23529411764706,
            "B": 78.6470588235294,
            "C": 80.11764705882354,
            "D": 81.58823529411765,
            "E": 81.3529411764706,
            "F": 83.6470588235294,
            "G": 83.70588235294117,
            "H": 83.3529411764706,
            "I": 83.82352941176471,
            "J": 83.52941176470588
        },
        "bus5": {
            "L": 74.61111111111111,
            "A": 76.82352941176471,
            "B": 77.17647058823529,
            "C": 77.47058823529412,
            "D": 78.88235294117646,
            "E": 77.58823529411765,
            "F": 76.6470588235294,
            "G": 77.70588235294117,
            "H": 77.11764705882354,
            "I": 77.17647058823529,
            "J": 77.82352941176471,
            "K": 78
        }
    },
    "Obs_and_actions_busses": {
        "0": -127.71230935519159,
        "4": 123.43991851950103,
        "5": 257.9511289113136
    },
    "Obs_and_actions_tfls": {}
}ns_tfls": {}
}