{
    "Average_holding_time": 15.12541806020067,
    "Average_holding_actions": [
        977,
        0,
        124,
        6,
        32,
        0
    ],
    "Average_travel_time_passengers": 2569.4636634543417,
    "Average_passenger_waiting_time": 297.06208310605905,
    "Average_passenger_in_vehicle_time": 2272.4015803482052,
    "Average_speed_busses": 0.049833333333333334,
    "Average_experienced_crowding": 76.36052519771047,
    "Average_covariation_headway": 0.1452599998709999,
    "Average_covariation_headway_stops": {
        "C": 0.11909862501821503,
        "D": 0.10083740664329247,
        "F": 0.09082073074363979,
        "J": 0.14087738439435774,
        "K": 0.13607588952092248,
        "L": 0.13491427417499743,
        "E": 0.06590249638243152,
        "A": 0.10612107884490062,
        "G": 0.06717148964256284,
        "B": 0.10169958183994258,
        "H": 0.08404828912547202,
        "I": 0.11443863061080553
    },
    "Average_excess_waiting_time": {
        "C": 39.81944518511028,
        "D": 37.219131919500626,
        "F": 36.56162512286289,
        "J": 42.678600034968895,
        "K": 40.641063340702715,
        "L": 39.26004159142832,
        "E": 37.00586610654085,
        "A": 38.63906060065631,
        "G": 36.93543598478169,
        "B": 40.28282283735098,
        "H": 38.95436107031304,
        "I": 42.208798003334834
    },
    "Holding_per_stop": {
        "D": 11.4,
        "K": 25.5,
        "L": 17.7,
        "F": 14.1,
        "C": 18.6,
        "J": 29.393939393939394,
        "A": 3.6,
        "E": 7.8,
        "G": 16.2,
        "B": 3.0303030303030303,
        "H": 13.030303030303031,
        "I": 21.21212121212121
    },
    "Actions_tfl_edges": {},
    "Load_per_bus_per_stop": {
        "bus0": {
            "C": 74.17647058823529,
            "D": 72.29411764705883,
            "E": 73.41176470588235,
            "F": 72.94117647058823,
            "G": 73.3529411764706,
            "H": 74.47058823529412,
            "I": 73.29411764705883,
            "J": 73.1875,
            "K": 75.3125,
            "L": 77.875,
            "A": 78.4375,
            "B": 79.5
        },
        "bus1": {
            "D": 74.29411764705883,
            "E": 75.41176470588235,
            "F": 74.88235294117646,
            "G": 75.76470588235294,
            "H": 77.23529411764706,
            "I": 75.82352941176471,
            "J": 75.23529411764706,
            "K": 75.23529411764706,
            "L": 75.8125,
            "A": 74.8125,
            "B": 75.75,
            "C": 78.375
        },
        "bus2": {
            "F": 76.70588235294117,
            "G": 76.29411764705883,
            "H": 77.23529411764706,
            "I": 78.94117647058823,
            "J": 79.82352941176471,
            "K": 79.41176470588235,
            "L": 78.58823529411765,
            "A": 79.3529411764706,
            "B": 80.6875,
            "C": 79.8125,
            "D": 79.875,
            "E": 79.6875
        },
        "bus3": {
            "J": 76.3529411764706,
            "K": 76.94117647058823,
            "L": 77.11764705882354,
            "A": 76.52941176470588,
            "B": 77.11764705882354,
            "C": 77,
            "D": 79,
            "E": 79.4375,
            "F": 79.3125,
            "G": 79.5625,
            "H": 80.5625,
            "I": 81.375
        },
        "bus4": {
            "K": 71.05882352941177,
            "L": 72.6470588235294,
            "A": 74.3529411764706,
            "B": 75,
            "C": 77.29411764705883,
            "D": 79.94117647058823,
            "E": 79.76470588235294,
            "F": 77.625,
            "G": 76.4375,
            "H": 76.125,
            "I": 76.1875,
            "J": 74.1875
        },
        "bus5": {
            "L": 69.52941176470588,
            "A": 71.47058823529412,
            "B": 71.94117647058823,
            "C": 73.41176470588235,
            "D": 72.88235294117646,
            "E": 72.6470588235294,
            "F": 73.11764705882354,
            "G": 72.94117647058823,
            "H": 70.5,
            "I": 70.6875,
            "J": 72.625,
            "K": 74.125
        }
    },
    "Obs_and_actions_busses": {
        "5": 139.6022628796788,
        "3": 116.6049558522407,
        "0": -111.033754964796,
        "2": 46.63784122078012,
        "4": 58.67951516061537
    },
    "Obs_and_actions_tfls": {}
}