{
    "Average_holding_time": 10.445544554455445,
    "Average_holding_actions": [
        1117,
        0,
        0,
        53,
        42,
        0
    ],
    "Average_travel_time_passengers": 2516.5465774179897,
    "Average_passenger_waiting_time": 301.8161805652937,
    "Average_passenger_in_vehicle_time": 2214.730396852614,
    "Average_speed_busses": 0.0505,
    "Average_experienced_crowding": 76.90481276832745,
    "Average_covariation_headway": 0.26482788958040815,
    "Average_covariation_headway_stops": {
        "D": 0.1871340019425246,
        "G": 0.18144594923423532,
        "H": 0.18293724548448342,
        "J": 0.1805662263180834,
        "L": 0.17498747366339779,
        "A": 0.18347462992317531,
        "I": 0.16553609963958238,
        "E": 0.17042495118725043,
        "K": 0.16942930207965506,
        "B": 0.1742513764095496,
        "C": 0.17850750738424656,
        "F": 0.1749413252417233
    },
    "Average_excess_waiting_time": {
        "D": 40.559439285276994,
        "G": 40.96060022075375,
        "H": 40.00452567400947,
        "J": 39.70743967090573,
        "L": 39.20616109633329,
        "A": 38.54073721359879,
        "I": 39.79387386900572,
        "E": 40.2442860026631,
        "K": 40.12993447099393,
        "B": 38.82529988154738,
        "C": 40.717712051029594,
        "F": 41.8873479253279
    },
    "Holding_per_stop": {
        "H": 11.881188118811881,
        "D": 10.693069306930694,
        "J": 11.584158415841584,
        "A": 4.117647058823529,
        "L": 15.742574257425742,
        "G": 11.881188118811881,
        "I": 8.01980198019802,
        "K": 14.851485148514852,
        "B": 4.158415841584159,
        "E": 7.7227722772277225,
        "C": 13.96039603960396,
        "F": 10.8
    },
    "Actions_tfl_edges": {},
    "Load_per_bus_per_stop": {
        "bus0": {
            "D": 72.41176470588235,
            "E": 74.41176470588235,
            "F": 78,
            "G": 81.17647058823529,
            "H": 80.17647058823529,
            "I": 79.47058823529412,
            "J": 78.11764705882354,
            "K": 78.29411764705883,
            "L": 76.52941176470588,
            "A": 76.41176470588235,
            "B": 77.5,
            "C": 76.75
        },
        "bus1": {
            "G": 71.52941176470588,
            "H": 70.41176470588235,
            "I": 71.70588235294117,
            "J": 72.47058823529412,
            "K": 73.82352941176471,
            "L": 73.17647058823529,
            "A": 71.76470588235294,
            "B": 73.11764705882354,
            "C": 73,
            "D": 74.25,
            "E": 74.9375,
            "F": 75.9375
        },
        "bus2": {
            "H": 69.82352941176471,
            "I": 70.11764705882354,
            "J": 69.52941176470588,
            "K": 70.70588235294117,
            "L": 72.47058823529412,
            "A": 73.6470588235294,
            "B": 72.70588235294117,
            "C": 73.41176470588235,
            "D": 73.11764705882354,
            "E": 71.47058823529412,
            "F": 74.3125,
            "G": 74.8125
        },
        "bus3": {
            "J": 66.23529411764706,
            "K": 65.05882352941177,
            "L": 64.6470588235294,
            "A": 65.52941176470588,
            "B": 65.47058823529412,
            "C": 66.82352941176471,
            "D": 68.29411764705883,
            "E": 68.17647058823529,
            "F": 69.94117647058823,
            "G": 70.52941176470588,
            "H": 70.3125,
            "I": 71.1875
        },
        "bus4": {
            "L": 64.58823529411765,
            "A": 67.23529411764706,
            "B": 68.23529411764706,
            "C": 68.23529411764706,
            "D": 67.3529411764706,
            "E": 67.17647058823529,
            "F": 67.29411764705883,
            "G": 68.05882352941177,
            "H": 68,
            "I": 67.52941176470588,
            "J": 67.1875,
            "K": 67.9375
        },
        "bus5": {
            "A": 86.70588235294117,
            "B": 86.47058823529412,
            "C": 87.58823529411765,
            "D": 87.6470588235294,
            "E": 85.3529411764706,
            "F": 87.52941176470588,
            "G": 89.6470588235294,
            "H": 91.82352941176471,
            "I": 93.23529411764706,
            "J": 93.11764705882354,
            "K": 93.58823529411765,
            "L": 93.25
        }
    },
    "Obs_and_actions_busses": {
        "0": -138.4786720810545,
        "5": 209.7848279546856,
        "4": 122.69505709064165
    },
    "Obs_and_actions_tfls": {}
}        "0": -125.55198886449368,
        "4": 122.31311703969135,
        "5": 192.96878703055938
    },
    "Obs_and_actions_tfls": {}
}