{
    "Average_holding_time": 30.345744680851062,
    "Average_holding_actions": [
        307,
        590,
        187,
        15,
        15,
        0
    ],
    "Average_travel_time_passengers": 2676.4235964771583,
    "Average_passenger_waiting_time": 316.71987989453163,
    "Average_passenger_in_vehicle_time": 2359.7037165825323,
    "Average_speed_busses": 0.047,
    "Average_experienced_crowding": 79.64782961061478,
    "Average_covariation_headway": 0.11279985587837965,
    "Average_covariation_headway_stops": {
        "B": 0.09756810871658098,
        "C": 0.10472307523813475,
        "E": 0.09558084951711283,
        "I": 0.11917589470634633,
        "J": 0.10972989703077658,
        "A": 0.0917334337491893,
        "D": 0.07077729944442493,
        "K": 0.06728393825717456,
        "F": 0.055379444720282826,
        "L": 0.056866920955050713,
        "G": 0.04618214260554845,
        "H": 0.09051742480676404
    },
    "Average_excess_waiting_time": {
        "B": 54.680883273660356,
        "C": 53.36668338755311,
        "E": 52.81906059086555,
        "I": 57.81222411233392,
        "J": 55.37255552044121,
        "A": 56.19345487614419,
        "D": 53.34078963598199,
        "K": 54.77432665831043,
        "F": 52.58075785305965,
        "L": 56.17872460066991,
        "G": 54.086541470365034,
        "H": 57.630627262588746
    },
    "Holding_per_stop": {
        "C": 44.21052631578947,
        "J": 38.93617021276596,
        "E": 31.57894736842105,
        "B": 13.72340425531915,
        "A": 3.1914893617021276,
        "I": 37.97872340425532,
        "D": 27.76595744680851,
        "K": 44.361702127659576,
        "F": 29.680851063829788,
        "L": 27.096774193548388,
        "G": 33.51063829787234,
        "H": 31.93548387096774
    },
    "Actions_tfl_edges": {},
    "Load_per_bus_per_stop": {
        "bus0": {
            "B": 78.9375,
            "C": 78.3125,
            "D": 78.6875,
            "E": 78.6875,
            "F": 78.25,
            "G": 79.0625,
            "H": 78.8125,
            "I": 78.5,
            "J": 79.0625,
            "K": 82.73333333333333,
            "L": 82.73333333333333,
            "A": 83.86666666666666
        },
        "bus1": {
            "C": 71.4375,
            "D": 71.1875,
            "E": 73.1875,
            "F": 73.8125,
            "G": 75.75,
            "H": 75.25,
            "I": 75.8125,
            "J": 78.1875,
            "K": 77.9375,
            "L": 76.33333333333333,
            "A": 75.93333333333334,
            "B": 75.93333333333334
        },
        "bus2": {
            "E": 81.25,
            "F": 81.1875,
            "G": 80.5625,
            "H": 79.8125,
            "I": 78.8125,
            "J": 79,
            "K": 80.5625,
            "L": 82.5,
            "A": 84.5,
            "B": 86.75,
            "C": 86.6,
            "D": 86.2
        },
        "bus3": {
            "I": 79.0625,
            "J": 81.5,
            "K": 79.9375,
            "L": 79.75,
            "A": 78.8125,
            "B": 80.625,
            "C": 81.25,
            "D": 82.5625,
            "E": 84.53333333333333,
            "F": 83.93333333333334,
            "G": 82.33333333333333,
            "H": 83.33333333333333
        },
        "bus4": {
            "J": 73.6875,
            "K": 73.5625,
            "L": 74.1875,
            "A": 75.75,
            "B": 76.875,
            "C": 76.625,
            "D": 78.6875,
            "E": 77.8125,
            "F": 78.0625,
            "G": 78.26666666666667,
            "H": 80.73333333333333,
            "I": 80.86666666666666
        },
        "bus5": {
            "A": 76.375,
            "B": 77.5625,
            "C": 79,
            "D": 80.5625,
            "E": 80.1875,
            "F": 79.75,
            "G": 78.25,
            "H": 79.5625,
            "I": 79.06666666666666,
            "J": 80.66666666666667,
            "K": 81.26666666666667,
            "L": 81.06666666666666
        }
    },
    "Obs_and_actions_busses": {
        "0": -120.92363316882435,
        "4": 77.5484563389493,
        "1": 1.4119744184349152,
        "3": 24.727318571648116,
        "2": 40.99616656236342,
        "5": 275.28117074591256
    },
    "Obs_and_actions_tfls": {}
}