{
    "Average_holding_time": 18.284023668639055,
    "Average_holding_actions": [
        820,
        41,
        310,
        0,
        12,
        0
    ],
    "Average_travel_time_passengers": 2565.847452640613,
    "Average_passenger_waiting_time": 303.2649068543981,
    "Average_passenger_in_vehicle_time": 2262.5825457861397,
    "Average_speed_busses": 0.049291666666666664,
    "Average_experienced_crowding": 74.95869072116417,
    "Average_covariation_headway": 0.14353022761792253,
    "Average_covariation_headway_stops": {
        "B": 0.13413048636569053,
        "G": 0.1738772775134116,
        "H": 0.15930829484474793,
        "K": 0.13658794694558196,
        "L": 0.12937714336096204,
        "A": 0.12765139724834176,
        "I": 0.13344413064355964,
        "C": 0.1032246367193729,
        "J": 0.11692737071623466,
        "D": 0.1097253650788572,
        "E": 0.12321609277855368,
        "F": 0.15443841447998563
    },
    "Average_excess_waiting_time": {
        "B": 40.3072676252491,
        "G": 48.857369532966345,
        "H": 45.728891746984516,
        "K": 45.13758179625614,
        "L": 43.201115459447806,
        "A": 41.42106684096484,
        "I": 44.97080226259328,
        "C": 39.794170253865786,
        "J": 45.45004927872924,
        "D": 41.60133903624427,
        "E": 44.21816435295557,
        "F": 48.265040539033635
    },
    "Holding_per_stop": {
        "A": 5.454545454545454,
        "H": 11.818181818181818,
        "B": 13.2,
        "L": 23.03030303030303,
        "K": 41.63265306122449,
        "G": 12.857142857142858,
        "I": 22.959183673469386,
        "C": 20.90909090909091,
        "J": 25.102040816326532,
        "D": 14.242424242424242,
        "E": 9.489795918367347,
        "F": 18.979591836734695
    },
    "Actions_tfl_edges": {},
    "Load_per_bus_per_stop": {
        "bus0": {
            "B": 70.23529411764706,
            "C": 70,
            "D": 70.94117647058823,
            "E": 73.11764705882354,
            "F": 74.88235294117646,
            "G": 76.47058823529412,
            "H": 77.29411764705883,
            "I": 78.125,
            "J": 77.4375,
            "K": 77.5,
            "L": 76.8125,
            "A": 76.4375
        },
        "bus1": {
            "G": 72.23529411764706,
            "H": 75.23529411764706,
            "I": 74.47058823529412,
            "J": 74.29411764705883,
            "K": 74.1875,
            "L": 75.4375,
            "A": 75.5,
            "B": 75.625,
            "C": 76.8125,
            "D": 77.75,
            "E": 77.625,
            "F": 77.0625
        },
        "bus2": {
            "H": 73.05882352941177,
            "I": 72.94117647058823,
            "J": 74.58823529411765,
            "K": 72.94117647058823,
            "L": 72.6470588235294,
            "A": 75.25,
            "B": 74.5625,
            "C": 75,
            "D": 74.375,
            "E": 75.1875,
            "F": 74.625,
            "G": 76
        },
        "bus3": {
            "K": 76.52941176470588,
            "L": 74.82352941176471,
            "A": 73.17647058823529,
            "B": 74.11764705882354,
            "C": 75.9375,
            "D": 77.3125,
            "E": 78.1875,
            "F": 79.75,
            "G": 80.8125,
            "H": 81.625,
            "I": 82.25,
            "J": 80.4375
        },
        "bus4": {
            "L": 69.6470588235294,
            "A": 69.82352941176471,
            "B": 70.47058823529412,
            "C": 72,
            "D": 71.76470588235294,
            "E": 72.25,
            "F": 72.6875,
            "G": 70.4375,
            "H": 70.875,
            "I": 73.0625,
            "J": 75,
            "K": 75.4375
        },
        "bus5": {
            "A": 71.05882352941177,
            "B": 68.52941176470588,
            "C": 68.23529411764706,
            "D": 69.29411764705883,
            "E": 69.29411764705883,
            "F": 68.23529411764706,
            "G": 70.125,
            "H": 71.6875,
            "I": 72.4375,
            "J": 73.0625,
            "K": 75.25,
            "L": 76.25
        }
    },
    "Obs_and_actions_busses": {
        "0": -111.52730764931394,
        "1": 12.168189929969804,
        "2": 46.656077744921234,
        "5": 465.12407263487296
    },
    "Obs_and_actions_tfls": {}
}19
    },
    "Obs_and_actions_tfls": {}
}