{
    "Average_holding_time": 33.50892857142857,
    "Average_holding_actions": [
        23,
        987,
        88,
        22,
        0,
        0
    ],
    "Average_travel_time_passengers": 2711.026619914282,
    "Average_passenger_waiting_time": 315.12078985174867,
    "Average_passenger_in_vehicle_time": 2395.905830062434,
    "Average_speed_busses": 0.04666666666666667,
    "Average_experienced_crowding": 80.2799743945704,
    "Average_covariation_headway": 0.11529416298007038,
    "Average_covariation_headway_stops": {
        "C": 0.09235831074355456,
        "D": 0.09705004533953533,
        "E": 0.10235789149501243,
        "I": 0.1280892424806786,
        "K": 0.10909198899828416,
        "L": 0.10556916521901202,
        "A": 0.06531628195260913,
        "F": 0.07867385293046164,
        "J": 0.10012861538871143,
        "B": 0.0626814038791449,
        "G": 0.07914268416080593,
        "H": 0.10287654531857306
    },
    "Average_excess_waiting_time": {
        "C": 58.8104809328799,
        "D": 57.287241837549914,
        "E": 55.82018385836227,
        "I": 61.058886614532696,
        "K": 59.861624944185166,
        "L": 57.82547217836918,
        "A": 57.37390771724313,
        "F": 56.25959457369652,
        "J": 60.81526980292227,
        "B": 58.92949017855824,
        "G": 57.80606096601133,
        "H": 60.88410078187161
    },
    "Holding_per_stop": {
        "L": 36.702127659574465,
        "E": 31.27659574468085,
        "D": 33.51063829787234,
        "C": 35.16129032258065,
        "I": 34.83870967741935,
        "K": 35.806451612903224,
        "A": 28.06451612903226,
        "F": 32.5531914893617,
        "J": 35.483870967741936,
        "B": 30.967741935483872,
        "G": 33.54838709677419,
        "H": 34.193548387096776
    },
    "Actions_tfl_edges": {},
    "Load_per_bus_per_stop": {
        "bus0": {
            "C": 78.625,
            "D": 80,
            "E": 80,
            "F": 78.125,
            "G": 79.5,
            "H": 80.125,
            "I": 82.33333333333333,
            "J": 81.8,
            "K": 81.33333333333333,
            "L": 81.2,
            "A": 83.06666666666666,
            "B": 82.4
        },
        "bus1": {
            "D": 76.125,
            "E": 75.8125,
            "F": 76.625,
            "G": 78.375,
            "H": 77.5625,
            "I": 77.8125,
            "J": 78.125,
            "K": 76.2,
            "L": 77.53333333333333,
            "A": 77.13333333333334,
            "B": 77.53333333333333,
            "C": 79.93333333333334
        },
        "bus2": {
            "E": 77.25,
            "F": 78.8125,
            "G": 79.25,
            "H": 81.125,
            "I": 83.5,
            "J": 86.0625,
            "K": 85.8125,
            "L": 86.875,
            "A": 83.06666666666666,
            "B": 80,
            "C": 80.8,
            "D": 83
        },
        "bus3": {
            "I": 75.8125,
            "J": 75.375,
            "K": 75.9375,
            "L": 78.25,
            "A": 80.4375,
            "B": 79.625,
            "C": 80.33333333333333,
            "D": 80.73333333333333,
            "E": 81.4,
            "F": 81.13333333333334,
            "G": 80.6,
            "H": 81.46666666666667
        },
        "bus4": {
            "K": 76.0625,
            "L": 77.125,
            "A": 78.4375,
            "B": 78.8125,
            "C": 80.1875,
            "D": 78.6875,
            "E": 80.4,
            "F": 79.66666666666667,
            "G": 80.4,
            "H": 81.93333333333334,
            "I": 80.06666666666666,
            "J": 80.73333333333333
        },
        "bus5": {
            "L": 75.75,
            "A": 74.75,
            "B": 76.875,
            "C": 78.625,
            "D": 81.3125,
            "E": 80.5625,
            "F": 81.625,
            "G": 83.13333333333334,
            "H": 82.13333333333334,
            "I": 84.73333333333333,
            "J": 83.33333333333333,
            "K": 80.66666666666667
        }
    },
    "Obs_and_actions_busses": {
        "4": 219.75603894017416,
        "2": 58.2265144625944,
        "1": -25.73292645219705,
        "0": -442.3177840949903
    },
    "Obs_and_actions_tfls": {}
}