{
    "Average_holding_time": 13.591022443890274,
    "Average_holding_actions": [
        970,
        141,
        0,
        0,
        64,
        0
    ],
    "Average_travel_time_passengers": 2523.0893432626426,
    "Average_passenger_waiting_time": 295.69961402857365,
    "Average_passenger_in_vehicle_time": 2227.389729234004,
    "Average_speed_busses": 0.050125,
    "Average_experienced_crowding": 73.64852164428306,
    "Average_covariation_headway": 0.16414278906182636,
    "Average_covariation_headway_stops": {
        "B": 0.11886111098930013,
        "D": 0.12573501227128048,
        "G": 0.11309282358965309,
        "H": 0.10368149201536361,
        "K": 0.11526931488746525,
        "A": 0.11796591740522597,
        "E": 0.10785585153752988,
        "I": 0.07091340694070151,
        "C": 0.1021043424009696,
        "L": 0.09727549333132879,
        "J": 0.07555650884903885,
        "F": 0.10603102383184494
    },
    "Average_excess_waiting_time": {
        "B": 36.17779171951281,
        "D": 36.79628686744451,
        "G": 37.59316013426525,
        "H": 35.482859383034054,
        "K": 37.53707153631552,
        "A": 37.68690030649259,
        "E": 37.17614007296612,
        "I": 35.27470077186115,
        "C": 36.754517434288005,
        "L": 37.84857646568088,
        "J": 36.862991012904274,
        "F": 38.45645186656952
    },
    "Holding_per_stop": {
        "D": 17.524752475247524,
        "H": 5.643564356435643,
        "B": 12.475247524752476,
        "G": 8.4,
        "K": 21.9,
        "A": 5.1,
        "C": 26.4,
        "I": 5.4,
        "E": 22.8,
        "L": 15.3,
        "F": 12.6,
        "J": 9.6
    },
    "Actions_tfl_edges": {},
    "Load_per_bus_per_stop": {
        "bus0": {
            "B": 71.23529411764706,
            "C": 71.94117647058823,
            "D": 72.70588235294117,
            "E": 72.76470588235294,
            "F": 72.52941176470588,
            "G": 72.70588235294117,
            "H": 72.58823529411765,
            "I": 73.41176470588235,
            "J": 75.76470588235294,
            "K": 77.25,
            "L": 75.9375,
            "A": 75.6875
        },
        "bus1": {
            "D": 70.76470588235294,
            "E": 72.58823529411765,
            "F": 70.52941176470588,
            "G": 69.76470588235294,
            "H": 70,
            "I": 71.29411764705883,
            "J": 73,
            "K": 73.6470588235294,
            "L": 73.11764705882354,
            "A": 74.25,
            "B": 74.9375,
            "C": 74.625
        },
        "bus2": {
            "G": 70.94117647058823,
            "H": 69.76470588235294,
            "I": 69.41176470588235,
            "J": 69.6470588235294,
            "K": 69.11764705882354,
            "L": 70.3529411764706,
            "A": 70.88235294117646,
            "B": 73.17647058823529,
            "C": 73.5625,
            "D": 74.125,
            "E": 73.9375,
            "F": 74.9375
        },
        "bus3": {
            "H": 69.94117647058823,
            "I": 70.58823529411765,
            "J": 71.11764705882354,
            "K": 72.3529411764706,
            "L": 71.94117647058823,
            "A": 73.94117647058823,
            "B": 76.11764705882354,
            "C": 76.47058823529412,
            "D": 78.94117647058823,
            "E": 75.9375,
            "F": 72.8125,
            "G": 72.875
        },
        "bus4": {
            "K": 71.3529411764706,
            "L": 71.6470588235294,
            "A": 70.88235294117646,
            "B": 72.17647058823529,
            "C": 72.52941176470588,
            "D": 71.29411764705883,
            "E": 72.17647058823529,
            "F": 73.17647058823529,
            "G": 73.875,
            "H": 74.375,
            "I": 75.875,
            "J": 74.875
        },
        "bus5": {
            "A": 72.88235294117646,
            "B": 74.11764705882354,
            "C": 74,
            "D": 74.58823529411765,
            "E": 76,
            "F": 75.6470588235294,
            "G": 76.3529411764706,
            "H": 76.29411764705883,
            "I": 74.4375,
            "J": 74.125,
            "K": 74.8125,
            "L": 76
        }
    },
    "Obs_and_actions_busses": {
        "0": -120.86661773909681,
        "1": 46.19371312334405,
        "5": 139.21038387518328,
        "3": 73.75357680505601
    },
    "Obs_and_actions_tfls": {}
}