{
    "Average_holding_time": 35.52346570397112,
    "Average_holding_actions": [
        43,
        926,
        85,
        54,
        0,
        0
    ],
    "Average_travel_time_passengers": 2733.139426943246,
    "Average_passenger_waiting_time": 334.23333131703504,
    "Average_passenger_in_vehicle_time": 2398.906095626119,
    "Average_speed_busses": 0.04616666666666667,
    "Average_experienced_crowding": 83.02034343368723,
    "Average_covariation_headway": 0.1672089034401873,
    "Average_covariation_headway_stops": {
        "C": 0.22376981388800554,
        "D": 0.21432290238400514,
        "E": 0.21073923679577256,
        "F": 0.20871076861754692,
        "G": 0.20515537276521018,
        "A": 0.23988787896376687,
        "H": 0.18935702042407607,
        "B": 0.21866531502857015,
        "I": 0.17030828953798965,
        "J": 0.17021614367165572,
        "K": 0.1906614903644069,
        "L": 0.21846172397726393
    },
    "Average_excess_waiting_time": {
        "C": 76.29405245195261,
        "D": 73.02121006996407,
        "E": 70.9863743782081,
        "F": 68.88807609672034,
        "G": 66.73375079643188,
        "A": 78.77692070462308,
        "H": 66.31673336809376,
        "B": 77.39684543968309,
        "I": 65.93007262486498,
        "J": 67.67879747554355,
        "K": 71.8148092074569,
        "L": 77.22017589450792
    },
    "Holding_per_stop": {
        "G": 37.02127659574468,
        "D": 35.54347826086956,
        "E": 32.903225806451616,
        "F": 37.41935483870968,
        "C": 38.80434782608695,
        "A": 30.652173913043477,
        "H": 36.774193548387096,
        "B": 33.956043956043956,
        "I": 36.774193548387096,
        "J": 36.52173913043478,
        "K": 34.891304347826086,
        "L": 34.94505494505494
    },
    "Actions_tfl_edges": {},
    "Load_per_bus_per_stop": {
        "bus0": {
            "C": 76.125,
            "D": 76.75,
            "E": 76.6875,
            "F": 78.2,
            "G": 79.53333333333333,
            "H": 77.8,
            "I": 77.46666666666667,
            "J": 77.2,
            "K": 77.8,
            "L": 78.8,
            "A": 79.26666666666667,
            "B": 81.6
        },
        "bus1": {
            "D": 74,
            "E": 76.0625,
            "F": 77.8125,
            "G": 77.625,
            "H": 78.26666666666667,
            "I": 79.26666666666667,
            "J": 80.66666666666667,
            "K": 79.8,
            "L": 80.66666666666667,
            "A": 81.26666666666667,
            "B": 79.53333333333333,
            "C": 80.6
        },
        "bus2": {
            "E": 75.4375,
            "F": 76.0625,
            "G": 75.375,
            "H": 76.25,
            "I": 75.8125,
            "J": 76.1875,
            "K": 78.26666666666667,
            "L": 78.73333333333333,
            "A": 79.46666666666667,
            "B": 79.66666666666667,
            "C": 82.2,
            "D": 81.73333333333333
        },
        "bus3": {
            "F": 69.9375,
            "G": 71.75,
            "H": 73.6875,
            "I": 73.6875,
            "J": 71.5625,
            "K": 71.875,
            "L": 70.8125,
            "A": 71.66666666666667,
            "B": 71.86666666666666,
            "C": 71.93333333333334,
            "D": 71.4,
            "E": 73.13333333333334
        },
        "bus4": {
            "G": 84,
            "H": 84.0625,
            "I": 86.1875,
            "J": 86.1875,
            "K": 86.5625,
            "L": 86.375,
            "A": 87.25,
            "B": 89.8125,
            "C": 90.73333333333333,
            "D": 90.86666666666666,
            "E": 89.33333333333333,
            "F": 91.4
        },
        "bus5": {
            "A": 85.1875,
            "B": 84.5625,
            "C": 85.5,
            "D": 85.125,
            "E": 87.26666666666667,
            "F": 86,
            "G": 85.06666666666666,
            "H": 85.73333333333333,
            "I": 87.2,
            "J": 88.66666666666667,
            "K": 89.6,
            "L": 90.26666666666667
        }
    },
    "Obs_and_actions_busses": {
        "1": -21.620004139598652,
        "4": 271.26183837504993,
        "2": 61.12292393016398,
        "0": -665.1661259687892
    },
    "Obs_and_actions_tfls": {}
}