{
    "Average_holding_time": 7.487804878048781,
    "Average_holding_actions": [
        1163,
        0,
        0,
        28,
        39,
        0
    ],
    "Average_travel_time_passengers": 2440.7312685582183,
    "Average_passenger_waiting_time": 296.199843414548,
    "Average_passenger_in_vehicle_time": 2144.5314251436157,
    "Average_speed_busses": 0.05125,
    "Average_experienced_crowding": 73.09663045663643,
    "Average_covariation_headway": 0.2834488066412563,
    "Average_covariation_headway_stops": {
        "B": 0.20601520398267614,
        "C": 0.19759859320223272,
        "D": 0.200128499009028,
        "G": 0.1831413479419905,
        "H": 0.18630491897921247,
        "L": 0.207414535688779,
        "I": 0.1801656019657658,
        "E": 0.19359546979151618,
        "A": 0.1953894621995287,
        "F": 0.1847203873381963,
        "J": 0.18599025868619756,
        "K": 0.19764744242021437
    },
    "Average_excess_waiting_time": {
        "B": 39.40537740611791,
        "C": 36.86743200236333,
        "D": 35.59604401597204,
        "G": 36.406971989298825,
        "H": 35.7643450235546,
        "L": 39.955478911780006,
        "I": 35.97582844598577,
        "E": 36.5591957720718,
        "A": 40.02236137300923,
        "F": 36.98070591609229,
        "J": 38.06491401860302,
        "K": 40.82458760460486
    },
    "Holding_per_stop": {
        "H": 9.029126213592233,
        "D": 11.826923076923077,
        "C": 8.737864077669903,
        "L": 2.9411764705882355,
        "B": 9.705882352941176,
        "G": 5.242718446601942,
        "E": 11.941747572815533,
        "I": 5,
        "F": 6.764705882352941,
        "J": 7.0588235294117645,
        "A": 5.588235294117647,
        "K": 5.882352941176471
    },
    "Actions_tfl_edges": {},
    "Load_per_bus_per_stop": {
        "bus0": {
            "B": 68.94117647058823,
            "C": 69.05882352941177,
            "D": 69.05882352941177,
            "E": 68.94117647058823,
            "F": 68.29411764705883,
            "G": 69,
            "H": 69.23529411764706,
            "I": 69.23529411764706,
            "J": 69.70588235294117,
            "K": 69.58823529411765,
            "L": 71.70588235294117,
            "A": 72.29411764705883
        },
        "bus1": {
            "C": 64.5,
            "D": 64.38888888888889,
            "E": 64.41176470588235,
            "F": 63.588235294117645,
            "G": 63.94117647058823,
            "H": 65.6470588235294,
            "I": 66.11764705882354,
            "J": 66.17647058823529,
            "K": 67.70588235294117,
            "L": 68,
            "A": 68.47058823529412,
            "B": 68.23529411764706
        },
        "bus2": {
            "D": 63,
            "E": 62.5,
            "F": 62.333333333333336,
            "G": 63.23529411764706,
            "H": 63.588235294117645,
            "I": 62.88235294117647,
            "J": 63.8235294117647,
            "K": 66.11764705882354,
            "L": 66.3529411764706,
            "A": 66.52941176470588,
            "B": 66.6470588235294,
            "C": 67.3529411764706
        },
        "bus3": {
            "G": 66.88888888888889,
            "H": 65.17647058823529,
            "I": 64.76470588235294,
            "J": 64.3529411764706,
            "K": 66.11764705882354,
            "L": 67.47058823529412,
            "A": 65.88235294117646,
            "B": 67.47058823529412,
            "C": 67.88235294117646,
            "D": 68.52941176470588,
            "E": 70.05882352941177,
            "F": 71.47058823529412
        },
        "bus4": {
            "H": 82.22222222222223,
            "I": 81,
            "J": 81.29411764705883,
            "K": 82.52941176470588,
            "L": 83.23529411764706,
            "A": 85.70588235294117,
            "B": 86.47058823529412,
            "C": 88.05882352941177,
            "D": 88.70588235294117,
            "E": 87.6470588235294,
            "F": 86.82352941176471,
            "G": 87.29411764705883
        },
        "bus5": {
            "L": 71,
            "A": 72.41176470588235,
            "B": 74.29411764705883,
            "C": 73.41176470588235,
            "D": 74.47058823529412,
            "E": 75.52941176470588,
            "F": 76.05882352941177,
            "G": 74.29411764705883,
            "H": 74.05882352941177,
            "I": 72.70588235294117,
            "J": 72.88235294117646,
            "K": 74.23529411764706
        }
    },
    "Obs_and_actions_busses": {
        "5": 235.97550585326957,
        "4": 124.0495702760044,
        "0": -141.29146005403976
    },
    "Obs_and_actions_tfls": {}
}.35906993916595,
        "4": 119.30988300799457
    },
    "Obs_and_actions_tfls": {}
}