{
    "Average_holding_time": 12.014925373134329,
    "Average_holding_actions": [
        941,
        98,
        150,
        0,
        17,
        0
    ],
    "Average_travel_time_passengers": 2537.853431376321,
    "Average_passenger_waiting_time": 297.1980258952991,
    "Average_passenger_in_vehicle_time": 2240.655405480943,
    "Average_speed_busses": 0.05025,
    "Average_experienced_crowding": 75.97730913598163,
    "Average_covariation_headway": 0.1308427556447626,
    "Average_covariation_headway_stops": {
        "D": 0.16588788348788544,
        "E": 0.16252689291982636,
        "F": 0.16321425731956737,
        "G": 0.15489903436429117,
        "H": 0.15383902505488478,
        "L": 0.13977878926461948,
        "I": 0.12588209436537692,
        "A": 0.1194792960169042,
        "J": 0.11597264136103234,
        "B": 0.12728085852268778,
        "K": 0.12550126617770865,
        "C": 0.1455642708420345
    },
    "Average_excess_waiting_time": {
        "D": 42.62400727014386,
        "E": 40.68333785192971,
        "F": 39.34170382077281,
        "G": 37.03234076755314,
        "H": 35.41695425303186,
        "L": 37.34970525161765,
        "I": 34.51080349219785,
        "A": 37.326263735073894,
        "J": 35.3669768544371,
        "B": 39.37086982506747,
        "K": 37.734821524851725,
        "C": 42.28500628721582
    },
    "Holding_per_stop": {
        "G": 12.178217821782178,
        "E": 9,
        "F": 15.742574257425742,
        "H": 10,
        "L": 15.445544554455445,
        "D": 12.6,
        "I": 12.475247524752476,
        "A": 2.1,
        "J": 16.633663366336634,
        "B": 5.4,
        "K": 24.6,
        "C": 7.878787878787879
    },
    "Actions_tfl_edges": {},
    "Load_per_bus_per_stop": {
        "bus0": {
            "D": 69.3529411764706,
            "E": 70.11764705882354,
            "F": 71.05882352941177,
            "G": 72.70588235294117,
            "H": 74.88235294117646,
            "I": 74.23529411764706,
            "J": 73.58823529411765,
            "K": 73.25,
            "L": 72.25,
            "A": 72.5,
            "B": 72.5625,
            "C": 74
        },
        "bus1": {
            "E": 73.82352941176471,
            "F": 72.88235294117646,
            "G": 72.41176470588235,
            "H": 74.58823529411765,
            "I": 75.70588235294117,
            "J": 75.76470588235294,
            "K": 75.88235294117646,
            "L": 76.70588235294117,
            "A": 77.25,
            "B": 77.9375,
            "C": 78.875,
            "D": 77.8125
        },
        "bus2": {
            "F": 71.58823529411765,
            "G": 71.94117647058823,
            "H": 73,
            "I": 73.58823529411765,
            "J": 74.47058823529412,
            "K": 76.94117647058823,
            "L": 77.52941176470588,
            "A": 78.70588235294117,
            "B": 77.6470588235294,
            "C": 77.05882352941177,
            "D": 76.5625,
            "E": 77.25
        },
        "bus3": {
            "G": 69.88235294117646,
            "H": 69.82352941176471,
            "I": 70.70588235294117,
            "J": 69.23529411764706,
            "K": 69.76470588235294,
            "L": 71.94117647058823,
            "A": 72.52941176470588,
            "B": 71.94117647058823,
            "C": 72.3529411764706,
            "D": 72.6470588235294,
            "E": 71.94117647058823,
            "F": 71.5
        },
        "bus4": {
            "H": 74.88235294117646,
            "I": 75.58823529411765,
            "J": 75.76470588235294,
            "K": 76.29411764705883,
            "L": 76.52941176470588,
            "A": 76.41176470588235,
            "B": 76.82352941176471,
            "C": 76.76470588235294,
            "D": 78.70588235294117,
            "E": 79.17647058823529,
            "F": 78.6470588235294,
            "G": 78.58823529411765
        },
        "bus5": {
            "L": 72.47058823529412,
            "A": 74.52941176470588,
            "B": 76.6470588235294,
            "C": 77.23529411764706,
            "D": 78.52941176470588,
            "E": 79.23529411764706,
            "F": 79.11764705882354,
            "G": 77.41176470588235,
            "H": 76.70588235294117,
            "I": 78.23529411764706,
            "J": 77.0625,
            "K": 76.5625
        }
    },
    "Obs_and_actions_busses": {
        "5": 319.1499676644982,
        "2": 58.55951386658217,
        "1": 25.081864328043295,
        "0": -119.474972876561
    },
    "Obs_and_actions_tfls": {}
}