{
    "Average_holding_time": 9.500818330605565,
    "Average_holding_actions": [
        1136,
        0,
        0,
        43,
        43,
        0
    ],
    "Average_travel_time_passengers": 2484.2656504358943,
    "Average_passenger_waiting_time": 297.3432470322458,
    "Average_passenger_in_vehicle_time": 2186.922403403576,
    "Average_speed_busses": 0.050916666666666666,
    "Average_experienced_crowding": 74.95439652882446,
    "Average_covariation_headway": 0.2598489572359407,
    "Average_covariation_headway_stops": {
        "B": 0.1939840762138234,
        "D": 0.17796513639442868,
        "E": 0.1769866565261637,
        "H": 0.17536439929095762,
        "L": 0.20209971397290544,
        "A": 0.1862444011371627,
        "I": 0.15806032850069163,
        "F": 0.18159252190484176,
        "C": 0.18261510656491495,
        "G": 0.1802981790264215,
        "J": 0.17150941190256966,
        "K": 0.19761607742259968
    },
    "Average_excess_waiting_time": {
        "B": 39.08059938119584,
        "D": 37.64998364782451,
        "E": 36.06409624645994,
        "H": 37.2424277741556,
        "L": 42.99877819400547,
        "A": 39.638721670623966,
        "I": 36.94867961512256,
        "F": 38.01757584315641,
        "C": 39.285047150954995,
        "G": 39.32395553004909,
        "J": 39.92490951745697,
        "K": 44.26974013720678
    },
    "Holding_per_stop": {
        "H": 10.588235294117647,
        "E": 4.077669902912621,
        "B": 2.9411764705882355,
        "A": 4.117647058823529,
        "D": 5.294117647058823,
        "L": 12.178217821782178,
        "F": 17.058823529411764,
        "I": 6.176470588235294,
        "C": 13.235294117647058,
        "G": 11.176470588235293,
        "J": 13.366336633663366,
        "K": 13.96039603960396
    },
    "Actions_tfl_edges": {},
    "Load_per_bus_per_stop": {
        "bus0": {
            "B": 60.529411764705884,
            "C": 61.94117647058823,
            "D": 62.529411764705884,
            "E": 61.94117647058823,
            "F": 63.05882352941177,
            "G": 61.64705882352941,
            "H": 60.294117647058826,
            "I": 62,
            "J": 63.8235294117647,
            "K": 64.41176470588235,
            "L": 63.76470588235294,
            "A": 63.1764705882353
        },
        "bus1": {
            "D": 74.3529411764706,
            "E": 75.17647058823529,
            "F": 74.11764705882354,
            "G": 75.6470588235294,
            "H": 75.29411764705883,
            "I": 76.76470588235294,
            "J": 78.23529411764706,
            "K": 78.52941176470588,
            "L": 77.82352941176471,
            "A": 76.88235294117646,
            "B": 79.05882352941177,
            "C": 79.76470588235294
        },
        "bus2": {
            "E": 77.77777777777777,
            "F": 77.05882352941177,
            "G": 78.6470588235294,
            "H": 77.23529411764706,
            "I": 77.29411764705883,
            "J": 77.3529411764706,
            "K": 78.29411764705883,
            "L": 78.94117647058823,
            "A": 79.94117647058823,
            "B": 80.6470588235294,
            "C": 81.11764705882354,
            "D": 81.29411764705883
        },
        "bus3": {
            "H": 74.70588235294117,
            "I": 75.3529411764706,
            "J": 77.05882352941177,
            "K": 77.58823529411765,
            "L": 78.58823529411765,
            "A": 78.82352941176471,
            "B": 79.41176470588235,
            "C": 79.76470588235294,
            "D": 79.23529411764706,
            "E": 81,
            "F": 81.11764705882354,
            "G": 79
        },
        "bus4": {
            "L": 70.47058823529412,
            "A": 72.52941176470588,
            "B": 73.11764705882354,
            "C": 75.29411764705883,
            "D": 77.52941176470588,
            "E": 76.6470588235294,
            "F": 78.41176470588235,
            "G": 77.6470588235294,
            "H": 75.17647058823529,
            "I": 74.11764705882354,
            "J": 74.5625,
            "K": 74.9375
        },
        "bus5": {
            "A": 63.23529411764706,
            "B": 66,
            "C": 65.47058823529412,
            "D": 65.6470588235294,
            "E": 64.47058823529412,
            "F": 64.23529411764706,
            "G": 65.88235294117646,
            "H": 65.76470588235294,
            "I": 66.6470588235294,
            "J": 67.52941176470588,
            "K": 67.58823529411765,
            "L": 67.8125
        }
    },
    "Obs_and_actions_busses": {
        "0": -118.02729587404812,
        "5": 235.18954455312823,
        "4": 120.00240893334997
    },
    "Obs_and_actions_tfls": {}
}