{
    "Average_holding_time": 9.221311475409836,
    "Average_holding_actions": [
        1136,
        0,
        0,
        45,
        39,
        0
    ],
    "Average_travel_time_passengers": 2516.1223336626435,
    "Average_passenger_waiting_time": 302.3708865030671,
    "Average_passenger_in_vehicle_time": 2213.7514471594914,
    "Average_speed_busses": 0.050833333333333335,
    "Average_experienced_crowding": 77.09695581532506,
    "Average_covariation_headway": 0.30906197090059967,
    "Average_covariation_headway_stops": {
        "B": 0.2013834567446646,
        "E": 0.20981054644646283,
        "G": 0.20431459509826164,
        "J": 0.2062136312931194,
        "K": 0.20066188366136703,
        "A": 0.18741726486215807,
        "C": 0.19458691015615656,
        "H": 0.18578878702677676,
        "L": 0.18244050381144636,
        "F": 0.20317258850689815,
        "D": 0.19502956981150707,
        "I": 0.19106372824393922
    },
    "Average_excess_waiting_time": {
        "B": 38.28521793584588,
        "E": 42.18799669388915,
        "G": 40.72535970518783,
        "J": 42.13128710361747,
        "K": 39.66465989682183,
        "A": 38.30016993930849,
        "C": 40.05363455895582,
        "H": 40.09133290113874,
        "L": 39.05891334519151,
        "F": 42.16737644067348,
        "D": 41.90626704557701,
        "I": 41.91586634636104
    },
    "Holding_per_stop": {
        "B": 6.470588235294118,
        "G": 10.588235294117647,
        "K": 8.529411764705882,
        "E": 12.647058823529411,
        "A": 4.117647058823529,
        "J": 12.058823529411764,
        "C": 9.117647058823529,
        "H": 3.8613861386138613,
        "L": 10.294117647058824,
        "F": 14.554455445544555,
        "I": 10.396039603960396,
        "D": 8.01980198019802
    },
    "Actions_tfl_edges": {},
    "Load_per_bus_per_stop": {
        "bus0": {
            "B": 77.33333333333333,
            "C": 79.3529411764706,
            "D": 81.17647058823529,
            "E": 83.94117647058823,
            "F": 83.76470588235294,
            "G": 85.47058823529412,
            "H": 86,
            "I": 87.94117647058823,
            "J": 86.05882352941177,
            "K": 84.05882352941177,
            "L": 83.88235294117646,
            "A": 82.52941176470588
        },
        "bus1": {
            "E": 70.76470588235294,
            "F": 68.94117647058823,
            "G": 69.52941176470588,
            "H": 69.23529411764706,
            "I": 69.94117647058823,
            "J": 71.3529411764706,
            "K": 72.94117647058823,
            "L": 73.76470588235294,
            "A": 73.11764705882354,
            "B": 72.41176470588235,
            "C": 72.6470588235294,
            "D": 75.375
        },
        "bus2": {
            "G": 94.82352941176471,
            "H": 93.52941176470588,
            "I": 94.88235294117646,
            "J": 93.6470588235294,
            "K": 91.41176470588235,
            "L": 92.82352941176471,
            "A": 93,
            "B": 92.41176470588235,
            "C": 92.70588235294117,
            "D": 94.3529411764706,
            "E": 97,
            "F": 99.9375
        },
        "bus3": {
            "J": 64,
            "K": 64.23529411764706,
            "L": 65.58823529411765,
            "A": 66.6470588235294,
            "B": 65.29411764705883,
            "C": 65.76470588235294,
            "D": 65.17647058823529,
            "E": 66.82352941176471,
            "F": 65.94117647058823,
            "G": 67.6470588235294,
            "H": 67.76470588235294,
            "I": 68.25
        },
        "bus4": {
            "K": 66.94117647058823,
            "L": 68.29411764705883,
            "A": 68.82352941176471,
            "B": 68.52941176470588,
            "C": 67.05882352941177,
            "D": 67.58823529411765,
            "E": 68.23529411764706,
            "F": 67.3529411764706,
            "G": 66.41176470588235,
            "H": 67.70588235294117,
            "I": 68.47058823529412,
            "J": 69.58823529411765
        },
        "bus5": {
            "A": 57.705882352941174,
            "B": 58.23529411764706,
            "C": 59.294117647058826,
            "D": 60.529411764705884,
            "E": 60.588235294117645,
            "F": 59.8235294117647,
            "G": 60.11764705882353,
            "H": 59.35294117647059,
            "I": 59.1764705882353,
            "J": 59.1764705882353,
            "K": 59.470588235294116,
            "L": 59.64705882352941
        }
    },
    "Obs_and_actions_busses": {
        "0": -144.6849619765899,
        "4": 125.6350788758093,
        "5": 220.93573171444615
    },
    "Obs_and_actions_tfls": {}
}