{
    "Average_holding_time": 18.096446700507613,
    "Average_holding_actions": [
        831,
        28,
        310,
        0,
        13,
        0
    ],
    "Average_travel_time_passengers": 2537.464502440461,
    "Average_passenger_waiting_time": 303.882343564295,
    "Average_passenger_in_vehicle_time": 2233.5821588760873,
    "Average_speed_busses": 0.04925,
    "Average_experienced_crowding": 75.14848291084623,
    "Average_covariation_headway": 0.1547937898184246,
    "Average_covariation_headway_stops": {
        "D": 0.1564172380365298,
        "H": 0.18306427511535975,
        "I": 0.17078968960000726,
        "J": 0.16807909031552196,
        "K": 0.16277305202996725,
        "L": 0.16058044544092132,
        "E": 0.14922684081454995,
        "A": 0.13456316630330759,
        "B": 0.12710976269880594,
        "F": 0.13963446115642503,
        "C": 0.1360110052402827,
        "G": 0.1642934995093667
    },
    "Average_excess_waiting_time": {
        "D": 45.31623158570744,
        "H": 50.997712143389265,
        "I": 48.0019765357373,
        "J": 46.369629636267064,
        "K": 44.28488697250771,
        "L": 42.74781857339349,
        "E": 46.13419740111317,
        "A": 42.063120235677275,
        "B": 42.898870740926725,
        "F": 46.75292897819725,
        "C": 45.12670054536852,
        "G": 50.747990358735365
    },
    "Holding_per_stop": {
        "D": 9.090909090909092,
        "J": 21.515151515151516,
        "K": 40.90909090909091,
        "I": 21.73469387755102,
        "L": 26.4,
        "H": 17.448979591836736,
        "A": 6.363636363636363,
        "E": 12.857142857142858,
        "B": 15.757575757575758,
        "F": 19.591836734693878,
        "C": 17.755102040816325,
        "G": 7.422680412371134
    },
    "Actions_tfl_edges": {},
    "Load_per_bus_per_stop": {
        "bus0": {
            "D": 72.82352941176471,
            "E": 74.23529411764706,
            "F": 74.47058823529412,
            "G": 74.76470588235294,
            "H": 75.41176470588235,
            "I": 73.75,
            "J": 75.375,
            "K": 74.5625,
            "L": 74.9375,
            "A": 75.5,
            "B": 75,
            "C": 76.6875
        },
        "bus1": {
            "H": 69.94117647058823,
            "I": 70.11764705882354,
            "J": 72.05882352941177,
            "K": 70.375,
            "L": 70.875,
            "A": 70.75,
            "B": 72.375,
            "C": 73.3125,
            "D": 73.4375,
            "E": 75.1875,
            "F": 74.75,
            "G": 75.0625
        },
        "bus2": {
            "I": 74.76470588235294,
            "J": 75.58823529411765,
            "K": 74.17647058823529,
            "L": 74,
            "A": 74.5,
            "B": 75.3125,
            "C": 75.3125,
            "D": 77.75,
            "E": 79.5625,
            "F": 79.6875,
            "G": 78.9375,
            "H": 78.5625
        },
        "bus3": {
            "J": 71.6470588235294,
            "K": 71.88235294117646,
            "L": 70.58823529411765,
            "A": 71.05882352941177,
            "B": 72.05882352941177,
            "C": 74.25,
            "D": 73.0625,
            "E": 73.5,
            "F": 73.8125,
            "G": 74.5,
            "H": 75.0625,
            "I": 75.375
        },
        "bus4": {
            "K": 68.88235294117646,
            "L": 68.29411764705883,
            "A": 70.3529411764706,
            "B": 71.3529411764706,
            "C": 71.05882352941177,
            "D": 71.11764705882354,
            "E": 70.3125,
            "F": 69.6875,
            "G": 71,
            "H": 72.1875,
            "I": 71.5,
            "J": 71.4375
        },
        "bus5": {
            "L": 72.82352941176471,
            "A": 73.47058823529412,
            "B": 74.11764705882354,
            "C": 74.6470588235294,
            "D": 74.94117647058823,
            "E": 76.52941176470588,
            "F": 76.52941176470588,
            "G": 78.3125,
            "H": 78.6875,
            "I": 80.0625,
            "J": 79.75,
            "K": 78.625
        }
    },
    "Obs_and_actions_busses": {
        "0": -118.39235497466996,
        "5": 368.7036031848438,
        "2": 46.917427070221315,
        "1": 9.62476346534623
    },
    "Obs_and_actions_tfls": {}
}