{
    "Average_holding_time": 8.796068796068797,
    "Average_holding_actions": [
        1140,
        0,
        0,
        47,
        34,
        0
    ],
    "Average_travel_time_passengers": 2506.576453386344,
    "Average_passenger_waiting_time": 300.43208165125225,
    "Average_passenger_in_vehicle_time": 2206.144371735005,
    "Average_speed_busses": 0.050875,
    "Average_experienced_crowding": 76.50768102208038,
    "Average_covariation_headway": 0.290112663458991,
    "Average_covariation_headway_stops": {
        "B": 0.19994896107519725,
        "C": 0.20107607969273342,
        "E": 0.18305097174371548,
        "H": 0.19767674539207009,
        "J": 0.2010614497232585,
        "L": 0.19963796712892573,
        "D": 0.17584279539856584,
        "K": 0.19050348350501067,
        "F": 0.18018276543785175,
        "A": 0.19124135049497307,
        "I": 0.19612365793103811,
        "G": 0.18406897868173888
    },
    "Average_excess_waiting_time": {
        "B": 40.50445605223223,
        "C": 39.72806889421378,
        "E": 37.12321284023602,
        "H": 39.814718997992145,
        "J": 40.04755319591197,
        "L": 40.127021455651004,
        "D": 38.38735711335602,
        "K": 40.3285697062214,
        "F": 38.310059355466876,
        "A": 40.56288971246312,
        "I": 41.118385039500424,
        "G": 39.78272244954985
    },
    "Holding_per_stop": {
        "C": 20.58823529411765,
        "J": 8.235294117647058,
        "E": 3.5294117647058822,
        "L": 11.470588235294118,
        "B": 8.235294117647058,
        "H": 7.352941176470588,
        "D": 7.9411764705882355,
        "K": 6.470588235294118,
        "A": 6.8316831683168315,
        "F": 6.176470588235294,
        "I": 14.257425742574258,
        "G": 4.455445544554456
    },
    "Actions_tfl_edges": {},
    "Load_per_bus_per_stop": {
        "bus0": {
            "B": 59.411764705882355,
            "C": 59,
            "D": 59.64705882352941,
            "E": 61.35294117647059,
            "F": 62.529411764705884,
            "G": 64.94117647058823,
            "H": 64.3529411764706,
            "I": 65,
            "J": 61.64705882352941,
            "K": 62.8235294117647,
            "L": 63.64705882352941,
            "A": 64.23529411764706
        },
        "bus1": {
            "C": 74.41176470588235,
            "D": 76.17647058823529,
            "E": 77.29411764705883,
            "F": 76.47058823529412,
            "G": 77.82352941176471,
            "H": 78.58823529411765,
            "I": 79.82352941176471,
            "J": 80.29411764705883,
            "K": 80.52941176470588,
            "L": 80.29411764705883,
            "A": 80.70588235294117,
            "B": 79.41176470588235
        },
        "bus2": {
            "E": 87.05882352941177,
            "F": 89.52941176470588,
            "G": 90.23529411764706,
            "H": 89.41176470588235,
            "I": 88.94117647058823,
            "J": 89.23529411764706,
            "K": 89.70588235294117,
            "L": 91.52941176470588,
            "A": 92.6470588235294,
            "B": 91.41176470588235,
            "C": 94,
            "D": 95.29411764705883
        },
        "bus3": {
            "H": 71.88235294117646,
            "I": 72.70588235294117,
            "J": 72.29411764705883,
            "K": 72.17647058823529,
            "L": 71.82352941176471,
            "A": 74.52941176470588,
            "B": 74.05882352941177,
            "C": 74.88235294117646,
            "D": 77.41176470588235,
            "E": 77.3529411764706,
            "F": 78.3529411764706,
            "G": 76.4375
        },
        "bus4": {
            "J": 65.23529411764706,
            "K": 66,
            "L": 67.52941176470588,
            "A": 67.70588235294117,
            "B": 68.58823529411765,
            "C": 67.82352941176471,
            "D": 69.41176470588235,
            "E": 70,
            "F": 69.70588235294117,
            "G": 70.6470588235294,
            "H": 69.52941176470588,
            "I": 68.94117647058823
        },
        "bus5": {
            "L": 67.47058823529412,
            "A": 67.29411764705883,
            "B": 67.3529411764706,
            "C": 68.52941176470588,
            "D": 69.76470588235294,
            "E": 69,
            "F": 69,
            "G": 70,
            "H": 71.05882352941177,
            "I": 70.11764705882354,
            "J": 71.58823529411765,
            "K": 71.88235294117646
        }
    },
    "Obs_and_actions_busses": {
        "0": -146.2497252274505,
        "4": 125.02383387230296,
        "5": 226.8132832808237
    },
    "Obs_and_actions_tfls": {}
}