{
    "Average_holding_time": 36.00541027953111,
    "Average_holding_actions": [
        84,
        746,
        270,
        0,
        9,
        0
    ],
    "Average_travel_time_passengers": 2752.5363167427618,
    "Average_passenger_waiting_time": 321.4595622816083,
    "Average_passenger_in_vehicle_time": 2431.0767544610553,
    "Average_speed_busses": 0.04620833333333333,
    "Average_experienced_crowding": 81.49881456432553,
    "Average_covariation_headway": 0.12357576490204893,
    "Average_covariation_headway_stops": {
        "D": 0.1586126103969778,
        "E": 0.15075677951234343,
        "F": 0.14612241393173328,
        "H": 0.1172010498397015,
        "I": 0.11049050810276694,
        "K": 0.09477647607095911,
        "J": 0.07835872931965003,
        "L": 0.06852052767592715,
        "G": 0.1151159018168054,
        "A": 0.06651035453803675,
        "B": 0.09341761494167108,
        "C": 0.1333538119303864
    },
    "Average_excess_waiting_time": {
        "D": 68.73261296787814,
        "E": 66.15172783799107,
        "F": 63.94662485335118,
        "H": 61.5271053087439,
        "I": 59.04472936513264,
        "K": 58.08049386891145,
        "J": 58.97861255387443,
        "L": 58.589932675755506,
        "G": 63.09230299431431,
        "A": 60.48600430992019,
        "B": 63.47273355689339,
        "C": 68.26639704176762
    },
    "Holding_per_stop": {
        "I": 33.87096774193548,
        "K": 53.225806451612904,
        "F": 33.87096774193548,
        "E": 33.26086956521739,
        "D": 33.26086956521739,
        "H": 37.41935483870968,
        "J": 36.12903225806452,
        "L": 50.32258064516129,
        "G": 32.93478260869565,
        "A": 24.130434782608695,
        "B": 29.347826086956523,
        "C": 33.956043956043956
    },
    "Actions_tfl_edges": {},
    "Load_per_bus_per_stop": {
        "bus0": {
            "D": 80.375,
            "E": 82.3125,
            "F": 80.6875,
            "G": 79.86666666666666,
            "H": 79.6,
            "I": 78.66666666666667,
            "J": 79.13333333333334,
            "K": 80.66666666666667,
            "L": 81.66666666666667,
            "A": 82.66666666666667,
            "B": 82.73333333333333,
            "C": 84.8
        },
        "bus1": {
            "E": 78.0625,
            "F": 77.375,
            "G": 79.8125,
            "H": 80.375,
            "I": 82.26666666666667,
            "J": 81.93333333333334,
            "K": 83.66666666666667,
            "L": 83.06666666666666,
            "A": 82,
            "B": 82.53333333333333,
            "C": 82.06666666666666,
            "D": 82.33333333333333
        },
        "bus2": {
            "F": 75.9375,
            "G": 78,
            "H": 76.375,
            "I": 76.625,
            "J": 79,
            "K": 79.8,
            "L": 81.06666666666666,
            "A": 80.8,
            "B": 79.86666666666666,
            "C": 79.73333333333333,
            "D": 79.26666666666667,
            "E": 78.66666666666667
        },
        "bus3": {
            "H": 73.3125,
            "I": 72.8125,
            "J": 73.1875,
            "K": 71.8125,
            "L": 73.25,
            "A": 72.6,
            "B": 72.73333333333333,
            "C": 75.33333333333333,
            "D": 74.66666666666667,
            "E": 75.8,
            "F": 75.73333333333333,
            "G": 77.33333333333333
        },
        "bus4": {
            "I": 74.625,
            "J": 77.1875,
            "K": 78.6875,
            "L": 79.9375,
            "A": 81.1875,
            "B": 81.625,
            "C": 81.66666666666667,
            "D": 81.33333333333333,
            "E": 80.26666666666667,
            "F": 80.33333333333333,
            "G": 79.86666666666666,
            "H": 79.4
        },
        "bus5": {
            "K": 82.4375,
            "L": 83.1875,
            "A": 86.8125,
            "B": 88.375,
            "C": 87.4375,
            "D": 87.3125,
            "E": 88.93333333333334,
            "F": 89.2,
            "G": 90.8,
            "H": 90.13333333333334,
            "I": 89.6,
            "J": 88.26666666666667
        }
    },
    "Obs_and_actions_busses": {
        "5": 567.016313844474,
        "1": -9.62497159141638,
        "2": 42.73443391435152,
        "0": -330.48650123629056
    },
    "Obs_and_actions_tfls": {}
}