{
    "Average_holding_time": 36.515837104072396,
    "Average_holding_actions": [
        56,
        771,
        272,
        0,
        6,
        0
    ],
    "Average_travel_time_passengers": 2745.9524692793048,
    "Average_passenger_waiting_time": 323.97396330680704,
    "Average_passenger_in_vehicle_time": 2421.9785059723954,
    "Average_speed_busses": 0.04604166666666667,
    "Average_experienced_crowding": 80.58049489954564,
    "Average_covariation_headway": 0.09924121542191726,
    "Average_covariation_headway_stops": {
        "B": 0.08988674718764811,
        "D": 0.08187016100386722,
        "G": 0.08786648700503907,
        "H": 0.09277603949549496,
        "I": 0.09993785379625057,
        "K": 0.08863017721155249,
        "E": 0.05222047531739663,
        "J": 0.06666086870262398,
        "L": 0.049511318141361366,
        "C": 0.05360953571744696,
        "F": 0.051648992394664264,
        "A": 0.05695628326492551
    },
    "Average_excess_waiting_time": {
        "B": 60.98731479286289,
        "D": 60.62393769680688,
        "G": 62.705987125675904,
        "H": 61.182749319422385,
        "I": 59.82582382485009,
        "K": 59.02484640751817,
        "E": 60.96832898327415,
        "J": 59.75747594095577,
        "L": 59.1114174366777,
        "C": 61.05360492865452,
        "F": 62.66577413654693,
        "A": 61.40668466155063
    },
    "Holding_per_stop": {
        "D": 31.304347826086957,
        "I": 34.193548387096776,
        "K": 56.45161290322581,
        "H": 32.608695652173914,
        "B": 31.956521739130434,
        "G": 34.23913043478261,
        "J": 36.84782608695652,
        "E": 31.304347826086957,
        "L": 53.15217391304348,
        "C": 37.17391304347826,
        "A": 25.76086956521739,
        "F": 32.967032967032964
    },
    "Actions_tfl_edges": {},
    "Load_per_bus_per_stop": {
        "bus0": {
            "B": 77.5625,
            "C": 78.125,
            "D": 78.4375,
            "E": 79.125,
            "F": 80.0625,
            "G": 79.46666666666667,
            "H": 77.46666666666667,
            "I": 78.46666666666667,
            "J": 80,
            "K": 79.53333333333333,
            "L": 81.2,
            "A": 82.4
        },
        "bus1": {
            "D": 77.8125,
            "E": 77.9375,
            "F": 79.8125,
            "G": 79.5625,
            "H": 81.5625,
            "I": 81.13333333333334,
            "J": 81.06666666666666,
            "K": 82.86666666666666,
            "L": 82.66666666666667,
            "A": 83.06666666666666,
            "B": 80.06666666666666,
            "C": 81.2
        },
        "bus2": {
            "G": 79.25,
            "H": 77.6875,
            "I": 77.4375,
            "J": 77.25,
            "K": 77.66666666666667,
            "L": 78.46666666666667,
            "A": 78.86666666666666,
            "B": 80.33333333333333,
            "C": 78.4,
            "D": 82.66666666666667,
            "E": 83,
            "F": 82.13333333333334
        },
        "bus3": {
            "H": 79.5625,
            "I": 81.0625,
            "J": 81,
            "K": 80,
            "L": 80.625,
            "A": 80.73333333333333,
            "B": 81.46666666666667,
            "C": 81.13333333333334,
            "D": 83.13333333333334,
            "E": 84.8,
            "F": 84.06666666666666,
            "G": 85.53333333333333
        },
        "bus4": {
            "I": 75.4375,
            "J": 75.5,
            "K": 74.6875,
            "L": 77.1875,
            "A": 78.0625,
            "B": 79.4375,
            "C": 80.86666666666666,
            "D": 81.2,
            "E": 81.4,
            "F": 80.06666666666666,
            "G": 79.93333333333334,
            "H": 81.33333333333333
        },
        "bus5": {
            "K": 78.0625,
            "L": 79.6875,
            "A": 81.75,
            "B": 81.875,
            "C": 81.3125,
            "D": 81.25,
            "E": 80.6,
            "F": 80.46666666666667,
            "G": 80.73333333333333,
            "H": 81.53333333333333,
            "I": 82.73333333333333,
            "J": 83.33333333333333
        }
    },
    "Obs_and_actions_busses": {
        "5": 273.066052155302,
        "1": -8.634842985200347,
        "2": 42.03649927096309,
        "0": -276.2879315108033
    },
    "Obs_and_actions_tfls": {}
}nd_actions_tfls": {}
}