{
    "Average_holding_time": 9.41031941031941,
    "Average_holding_actions": [
        1040,
        112,
        0,
        0,
        32,
        0
    ],
    "Average_travel_time_passengers": 2469.8583183459104,
    "Average_passenger_waiting_time": 289.2160233615912,
    "Average_passenger_in_vehicle_time": 2180.642294984251,
    "Average_speed_busses": 0.050875,
    "Average_experienced_crowding": 72.80220642519676,
    "Average_covariation_headway": 0.13704742069495102,
    "Average_covariation_headway_stops": {
        "C": 0.1174810107701768,
        "D": 0.10642165877676486,
        "E": 0.10946552219898678,
        "H": 0.09747971609960634,
        "I": 0.09253552805031158,
        "A": 0.13270102954366797,
        "F": 0.09226204278665695,
        "J": 0.058233814259897564,
        "B": 0.10835884465473017,
        "G": 0.0790672571012342,
        "K": 0.08562146655716663,
        "L": 0.11584286792131754
    },
    "Average_excess_waiting_time": {
        "C": 33.79160394055867,
        "D": 31.668485644485884,
        "E": 30.332601264134553,
        "H": 31.160411124106588,
        "I": 29.40625298929814,
        "A": 35.13864278276026,
        "F": 30.760072751005623,
        "J": 29.74515324320521,
        "B": 34.67707564195422,
        "G": 31.4671025712733,
        "K": 31.996578920151762,
        "L": 35.33309605584856
    },
    "Holding_per_stop": {
        "D": 7.647058823529412,
        "E": 6.990291262135922,
        "I": 6.407766990291262,
        "C": 18.11881188118812,
        "H": 8.235294117647058,
        "A": 3.5643564356435644,
        "F": 9.705882352941176,
        "J": 9.705882352941176,
        "K": 15.742574257425742,
        "B": 7.425742574257426,
        "G": 6.176470588235294,
        "L": 13.366336633663366
    },
    "Actions_tfl_edges": {},
    "Load_per_bus_per_stop": {
        "bus0": {
            "C": 70.58823529411765,
            "D": 68.70588235294117,
            "E": 69.17647058823529,
            "F": 71.58823529411765,
            "G": 71.70588235294117,
            "H": 73.94117647058823,
            "I": 74.88235294117646,
            "J": 75.41176470588235,
            "K": 74.88235294117646,
            "L": 75.05882352941177,
            "A": 75.76470588235294,
            "B": 74.625
        },
        "bus1": {
            "D": 68.76470588235294,
            "E": 68.11764705882354,
            "F": 68.17647058823529,
            "G": 68.47058823529412,
            "H": 70.11764705882354,
            "I": 72.29411764705883,
            "J": 71.88235294117646,
            "K": 71.94117647058823,
            "L": 72.47058823529412,
            "A": 73.11764705882354,
            "B": 72.29411764705883,
            "C": 72.3529411764706
        },
        "bus2": {
            "E": 69.27777777777777,
            "F": 69.17647058823529,
            "G": 70.88235294117646,
            "H": 70.82352941176471,
            "I": 72.05882352941177,
            "J": 72.6470588235294,
            "K": 71.82352941176471,
            "L": 72.41176470588235,
            "A": 72.58823529411765,
            "B": 73.41176470588235,
            "C": 70.88235294117646,
            "D": 71.82352941176471
        },
        "bus3": {
            "H": 69.58823529411765,
            "I": 70.82352941176471,
            "J": 71.05882352941177,
            "K": 72.52941176470588,
            "L": 72.52941176470588,
            "A": 72.23529411764706,
            "B": 70.05882352941177,
            "C": 71.3529411764706,
            "D": 71.23529411764706,
            "E": 72.29411764705883,
            "F": 72.52941176470588,
            "G": 72.70588235294117
        },
        "bus4": {
            "I": 71.83333333333333,
            "J": 70.76470588235294,
            "K": 71.3529411764706,
            "L": 72.88235294117646,
            "A": 72.3529411764706,
            "B": 72.23529411764706,
            "C": 75.3529411764706,
            "D": 75.52941176470588,
            "E": 76.29411764705883,
            "F": 77.41176470588235,
            "G": 77,
            "H": 75.58823529411765
        },
        "bus5": {
            "A": 68,
            "B": 69.29411764705883,
            "C": 71.17647058823529,
            "D": 71.17647058823529,
            "E": 71.52941176470588,
            "F": 72.58823529411765,
            "G": 73.29411764705883,
            "H": 74.47058823529412,
            "I": 74.70588235294117,
            "J": 74.70588235294117,
            "K": 72.875,
            "L": 73
        }
    },
    "Obs_and_actions_busses": {
        "5": 174.97634762432367,
        "0": -121.67339735707452,
        "1": 46.29347831233948,
        "3": 75.72887643399743
    },
    "Obs_and_actions_tfls": {}
}