{
    "Average_holding_time": 17.954353338968723,
    "Average_holding_actions": [
        916,
        0,
        164,
        1,
        35,
        0
    ],
    "Average_travel_time_passengers": 2581.677569063238,
    "Average_passenger_waiting_time": 304.809864369414,
    "Average_passenger_in_vehicle_time": 2276.8677046937473,
    "Average_speed_busses": 0.049291666666666664,
    "Average_experienced_crowding": 77.46084579236762,
    "Average_covariation_headway": 0.17776362288662545,
    "Average_covariation_headway_stops": {
        "F": 0.1968268675146033,
        "G": 0.18319811114488407,
        "J": 0.14334966783535713,
        "K": 0.1461209967287604,
        "L": 0.1489955826645905,
        "A": 0.15973125834717777,
        "H": 0.1550360439736078,
        "B": 0.1441517981869949,
        "I": 0.1411445916638562,
        "C": 0.13809379111360615,
        "D": 0.14600914081695654,
        "E": 0.17496548321555655
    },
    "Average_excess_waiting_time": {
        "F": 51.74899603256716,
        "G": 48.489181960422854,
        "J": 45.94571795470978,
        "K": 44.61709377820978,
        "L": 43.528902643346214,
        "A": 42.87745230878011,
        "H": 46.962795294563364,
        "B": 43.33789255411824,
        "I": 47.47397708447585,
        "C": 44.30505424876475,
        "D": 46.23439559824112,
        "E": 51.03210520053619
    },
    "Holding_per_stop": {
        "K": 24.848484848484848,
        "G": 22.424242424242426,
        "L": 18.181818181818183,
        "A": 9.6,
        "F": 19.285714285714285,
        "J": 17.755102040816325,
        "H": 14.693877551020408,
        "B": 13.93939393939394,
        "I": 15,
        "C": 20.606060606060606,
        "D": 16.224489795918366,
        "E": 22.959183673469386
    },
    "Actions_tfl_edges": {},
    "Load_per_bus_per_stop": {
        "bus0": {
            "F": 72.58823529411765,
            "G": 72.88235294117646,
            "H": 73.94117647058823,
            "I": 77.3529411764706,
            "J": 79,
            "K": 77.875,
            "L": 77,
            "A": 78.5625,
            "B": 79.1875,
            "C": 79.1875,
            "D": 78.375,
            "E": 78.4375
        },
        "bus1": {
            "G": 76,
            "H": 77.6470588235294,
            "I": 78.94117647058823,
            "J": 79.6470588235294,
            "K": 81.47058823529412,
            "L": 81.6875,
            "A": 82.0625,
            "B": 82.25,
            "C": 82.75,
            "D": 82.125,
            "E": 80.875,
            "F": 82.3125
        },
        "bus2": {
            "J": 74.94117647058823,
            "K": 74.76470588235294,
            "L": 73.6470588235294,
            "A": 75.76470588235294,
            "B": 73.3125,
            "C": 72.625,
            "D": 75,
            "E": 75.4375,
            "F": 74.5,
            "G": 76.4375,
            "H": 78.8125,
            "I": 79.4375
        },
        "bus3": {
            "K": 70.47058823529412,
            "L": 70.76470588235294,
            "A": 73.88235294117646,
            "B": 73.52941176470588,
            "C": 74.23529411764706,
            "D": 72.4375,
            "E": 73.25,
            "F": 73.9375,
            "G": 74.625,
            "H": 74.4375,
            "I": 73.4375,
            "J": 74.4375
        },
        "bus4": {
            "L": 68.76470588235294,
            "A": 70,
            "B": 71.6470588235294,
            "C": 72.47058823529412,
            "D": 73.82352941176471,
            "E": 74.76470588235294,
            "F": 73.3125,
            "G": 72.25,
            "H": 73.3125,
            "I": 72.6875,
            "J": 74.25,
            "K": 73.75
        },
        "bus5": {
            "A": 72.23529411764706,
            "B": 71.94117647058823,
            "C": 75.52941176470588,
            "D": 77.6470588235294,
            "E": 78.29411764705883,
            "F": 80.47058823529412,
            "G": 81.52941176470588,
            "H": 81.75,
            "I": 81.9375,
            "J": 80.125,
            "K": 77.625,
            "L": 77.875
        }
    },
    "Obs_and_actions_busses": {
        "5": 172.35906460780944,
        "3": 136.3378593573501,
        "2": 46.032960128188094,
        "0": -126.90312235958106,
        "4": 60.26830434953208
    },
    "Obs_and_actions_tfls": {}
}