{
    "Average_holding_time": 11.574608408903545,
    "Average_holding_actions": [
        954,
        107,
        129,
        12,
        11,
        0
    ],
    "Average_travel_time_passengers": 2516.829741848267,
    "Average_passenger_waiting_time": 291.92538711743873,
    "Average_passenger_in_vehicle_time": 2224.904354730745,
    "Average_speed_busses": 0.050541666666666665,
    "Average_experienced_crowding": 74.13872845012857,
    "Average_covariation_headway": 0.10963334301846728,
    "Average_covariation_headway_stops": {
        "C": 0.08861751245082328,
        "E": 0.09580852494692567,
        "G": 0.08646179442331044,
        "H": 0.09736024610464675,
        "K": 0.09679636028957357,
        "A": 0.08091206728013355,
        "I": 0.06785746915430166,
        "D": 0.06876510261514304,
        "B": 0.061729606116071034,
        "F": 0.06638969316761457,
        "L": 0.06031886175771426,
        "J": 0.07639123356749546
    },
    "Average_excess_waiting_time": {
        "C": 33.32087324741019,
        "E": 33.89309061956567,
        "G": 33.36523008002723,
        "H": 32.469831746740056,
        "K": 33.8637612695577,
        "A": 33.06386890634275,
        "I": 32.41676904029049,
        "D": 34.054518210265826,
        "B": 33.695409119714384,
        "F": 33.90055442624822,
        "L": 33.71937655864406,
        "J": 34.19543543478659
    },
    "Holding_per_stop": {
        "H": 8.529411764705882,
        "C": 15.148514851485148,
        "A": 1.4851485148514851,
        "E": 10.099009900990099,
        "K": 23.762376237623762,
        "G": 11.584158415841584,
        "D": 8.910891089108912,
        "I": 14.851485148514852,
        "B": 3.267326732673267,
        "F": 14.257425742574258,
        "L": 10.693069306930694,
        "J": 16.336633663366335
    },
    "Actions_tfl_edges": {},
    "Load_per_bus_per_stop": {
        "bus0": {
            "C": 72.29411764705883,
            "D": 72.70588235294117,
            "E": 71.94117647058823,
            "F": 73.17647058823529,
            "G": 74.6470588235294,
            "H": 74.94117647058823,
            "I": 73.88235294117646,
            "J": 73.82352941176471,
            "K": 73.58823529411765,
            "L": 73.88235294117646,
            "A": 75.5625,
            "B": 76.9375
        },
        "bus1": {
            "E": 70.76470588235294,
            "F": 71,
            "G": 72.3529411764706,
            "H": 71.29411764705883,
            "I": 71.52941176470588,
            "J": 73.6470588235294,
            "K": 75.82352941176471,
            "L": 77.41176470588235,
            "A": 76.17647058823529,
            "B": 75.70588235294117,
            "C": 74.5,
            "D": 74
        },
        "bus2": {
            "G": 69.52941176470588,
            "H": 71.05882352941177,
            "I": 70.17647058823529,
            "J": 71.70588235294117,
            "K": 72.82352941176471,
            "L": 73.29411764705883,
            "A": 74.6470588235294,
            "B": 74.17647058823529,
            "C": 72.52941176470588,
            "D": 74.82352941176471,
            "E": 73.3125,
            "F": 74.9375
        },
        "bus3": {
            "H": 69.6470588235294,
            "I": 70.82352941176471,
            "J": 70.58823529411765,
            "K": 71.17647058823529,
            "L": 74,
            "A": 75.11764705882354,
            "B": 75.17647058823529,
            "C": 76,
            "D": 76.94117647058823,
            "E": 76.6470588235294,
            "F": 76.6470588235294,
            "G": 76.25
        },
        "bus4": {
            "K": 68.23529411764706,
            "L": 69.76470588235294,
            "A": 71.05882352941177,
            "B": 71.6470588235294,
            "C": 72,
            "D": 71.05882352941177,
            "E": 73.52941176470588,
            "F": 74.29411764705883,
            "G": 75.6470588235294,
            "H": 76,
            "I": 74.875,
            "J": 74.6875
        },
        "bus5": {
            "A": 73,
            "B": 74.11764705882354,
            "C": 75.05882352941177,
            "D": 74.70588235294117,
            "E": 74.47058823529412,
            "F": 74.88235294117646,
            "G": 74.23529411764706,
            "H": 74,
            "I": 74.52941176470588,
            "J": 77.58823529411765,
            "K": 78.4375,
            "L": 77.625
        }
    },
    "Obs_and_actions_busses": {
        "0": -110.47039380869623,
        "2": 59.90037507366068,
        "5": 162.08223754903295,
        "1": 23.09327935461349,
        "4": 42.042388236168506
    },
    "Obs_and_actions_tfls": {}
}