{
    "Average_holding_time": 36.01083032490975,
    "Average_holding_actions": [
        63,
        769,
        273,
        0,
        3,
        0
    ],
    "Average_travel_time_passengers": 2729.757260561458,
    "Average_passenger_waiting_time": 320.8640245281163,
    "Average_passenger_in_vehicle_time": 2408.893236033241,
    "Average_speed_busses": 0.04616666666666667,
    "Average_experienced_crowding": 80.56438633269558,
    "Average_covariation_headway": 0.09637676558712957,
    "Average_covariation_headway_stops": {
        "C": 0.0818728592790319,
        "E": 0.07902459626798387,
        "G": 0.07809714110081181,
        "H": 0.08409652450878302,
        "J": 0.08112562552285621,
        "A": 0.08456796696455199,
        "I": 0.05328086919957968,
        "K": 0.04204032270496586,
        "D": 0.04984211251922464,
        "F": 0.04605601664142657,
        "B": 0.04248673479284643,
        "L": 0.04856620457600376
    },
    "Average_excess_waiting_time": {
        "C": 60.52666273168222,
        "E": 60.31018655157635,
        "G": 60.101459742084955,
        "H": 58.624955386864485,
        "J": 58.52891177511373,
        "A": 60.67513482392866,
        "I": 59.01391902880766,
        "K": 58.66712394816841,
        "D": 60.80879255785766,
        "F": 60.594400179709965,
        "B": 60.71092648000058,
        "L": 60.763105185251675
    },
    "Holding_per_stop": {
        "H": 31.612903225806452,
        "J": 39.67741935483871,
        "C": 34.891304347826086,
        "E": 30.97826086956522,
        "A": 28.369565217391305,
        "G": 33.54838709677419,
        "I": 32.58064516129032,
        "K": 56.08695652173913,
        "D": 33.58695652173913,
        "F": 34.56521739130435,
        "B": 30,
        "L": 46.30434782608695
    },
    "Actions_tfl_edges": {},
    "Load_per_bus_per_stop": {
        "bus0": {
            "C": 75.75,
            "D": 78.3125,
            "E": 77.4375,
            "F": 79.125,
            "G": 77.9375,
            "H": 77.13333333333334,
            "I": 79.93333333333334,
            "J": 81.8,
            "K": 83.2,
            "L": 83.26666666666667,
            "A": 83.13333333333334,
            "B": 82.8
        },
        "bus1": {
            "E": 75.4375,
            "F": 76.8125,
            "G": 76.75,
            "H": 77,
            "I": 78,
            "J": 79.53333333333333,
            "K": 80.53333333333333,
            "L": 81.33333333333333,
            "A": 80.26666666666667,
            "B": 81.6,
            "C": 80.86666666666666,
            "D": 80.6
        },
        "bus2": {
            "G": 75.75,
            "H": 77.25,
            "I": 77.0625,
            "J": 78.3125,
            "K": 79.75,
            "L": 80.06666666666666,
            "A": 80.06666666666666,
            "B": 78.73333333333333,
            "C": 77.86666666666666,
            "D": 77.46666666666667,
            "E": 77.4,
            "F": 78.8
        },
        "bus3": {
            "H": 75.5,
            "I": 76.25,
            "J": 79.1875,
            "K": 79.4375,
            "L": 80.1875,
            "A": 78.75,
            "B": 79.06666666666666,
            "C": 79.4,
            "D": 80.73333333333333,
            "E": 81.46666666666667,
            "F": 80.06666666666666,
            "G": 79.73333333333333
        },
        "bus4": {
            "J": 79.625,
            "K": 81.625,
            "L": 82,
            "A": 82.125,
            "B": 83.9375,
            "C": 86.625,
            "D": 86.26666666666667,
            "E": 86.2,
            "F": 85.53333333333333,
            "G": 86.13333333333334,
            "H": 85.8,
            "I": 84.06666666666666
        },
        "bus5": {
            "A": 78.3125,
            "B": 79,
            "C": 78.875,
            "D": 80.125,
            "E": 80.1875,
            "F": 80.86666666666666,
            "G": 81.13333333333334,
            "H": 80.46666666666667,
            "I": 79.93333333333334,
            "J": 81,
            "K": 80.86666666666666,
            "L": 83.8
        }
    },
    "Obs_and_actions_busses": {
        "1": -11.898306944132804,
        "2": 41.114982068642675,
        "0": -271.5348691990825,
        "5": 226.29760502506713
    },
    "Obs_and_actions_tfls": {}
}