{
    "Average_holding_time": 33.096085409252666,
    "Average_holding_actions": [
        31,
        998,
        69,
        26,
        0,
        0
    ],
    "Average_travel_time_passengers": 2713.628178744816,
    "Average_passenger_waiting_time": 315.2231120031389,
    "Average_passenger_in_vehicle_time": 2398.405066741601,
    "Average_speed_busses": 0.04683333333333333,
    "Average_experienced_crowding": 78.92505031091734,
    "Average_covariation_headway": 0.10539834062771165,
    "Average_covariation_headway_stops": {
        "D": 0.09373425652410254,
        "E": 0.0916621007602541,
        "G": 0.08069596667813334,
        "K": 0.11726514696114569,
        "L": 0.11500226430458071,
        "A": 0.12058438784345006,
        "B": 0.09212138038345899,
        "H": 0.04867566337580096,
        "F": 0.05757832338846319,
        "C": 0.08453531892925782,
        "I": 0.04726102725347792,
        "J": 0.08433038541788578
    },
    "Average_excess_waiting_time": {
        "D": 56.87340309444767,
        "E": 55.21321255879434,
        "G": 54.84606368709052,
        "K": 60.40383760698262,
        "L": 58.56694211819058,
        "A": 57.146671142502555,
        "B": 57.020434255055534,
        "H": 55.15250051775405,
        "F": 55.26903942615951,
        "C": 58.0798997298013,
        "I": 56.81664495973786,
        "J": 60.06677903723681
    },
    "Holding_per_stop": {
        "A": 28.085106382978722,
        "G": 33.829787234042556,
        "E": 35.1063829787234,
        "L": 32.87234042553192,
        "K": 33.54838709677419,
        "D": 36.06382978723404,
        "B": 30.95744680851064,
        "H": 31.595744680851062,
        "F": 33.829787234042556,
        "C": 36.12903225806452,
        "I": 31.612903225806452,
        "J": 33.54838709677419
    },
    "Actions_tfl_edges": {},
    "Load_per_bus_per_stop": {
        "bus0": {
            "D": 70.1875,
            "E": 71,
            "F": 72.3125,
            "G": 73.5,
            "H": 73.8125,
            "I": 73.875,
            "J": 74.125,
            "K": 76.4,
            "L": 76.26666666666667,
            "A": 76.46666666666667,
            "B": 74.6,
            "C": 74.8
        },
        "bus1": {
            "E": 76.8125,
            "F": 76.9375,
            "G": 77.8125,
            "H": 77.6875,
            "I": 77.4375,
            "J": 77.8125,
            "K": 79.3125,
            "L": 78.0625,
            "A": 78.4,
            "B": 81.06666666666666,
            "C": 79.93333333333334,
            "D": 80.26666666666667
        },
        "bus2": {
            "G": 75.75,
            "H": 77.75,
            "I": 78.8125,
            "J": 79.75,
            "K": 82.5,
            "L": 85,
            "A": 83.375,
            "B": 83.4375,
            "C": 83.33333333333333,
            "D": 82.86666666666666,
            "E": 83.6,
            "F": 81.93333333333334
        },
        "bus3": {
            "K": 74.5625,
            "L": 75.625,
            "A": 76.5,
            "B": 77.625,
            "C": 78.125,
            "D": 79.0625,
            "E": 79,
            "F": 80.06666666666666,
            "G": 80.66666666666667,
            "H": 81,
            "I": 80.86666666666666,
            "J": 80.33333333333333
        },
        "bus4": {
            "L": 80,
            "A": 80.25,
            "B": 79.0625,
            "C": 78.5625,
            "D": 78.0625,
            "E": 77.25,
            "F": 77.4375,
            "G": 79.26666666666667,
            "H": 78.73333333333333,
            "I": 80.33333333333333,
            "J": 82.53333333333333,
            "K": 84.4
        },
        "bus5": {
            "A": 74.9375,
            "B": 75.1875,
            "C": 77.3125,
            "D": 77.25,
            "E": 75.25,
            "F": 75.625,
            "G": 76.375,
            "H": 76.9375,
            "I": 78,
            "J": 78.33333333333333,
            "K": 77.93333333333334,
            "L": 77.73333333333333
        }
    },
    "Obs_and_actions_busses": {
        "0": -345.2104531488098,
        "1": -20.6092460358751,
        "4": 203.53365668439886,
        "2": 55.40714489194842
    },
    "Obs_and_actions_tfls": {}
}s_tfls": {}
}