{
    "Average_holding_time": 9.852216748768473,
    "Average_holding_actions": [
        1131,
        0,
        0,
        35,
        52,
        0
    ],
    "Average_travel_time_passengers": 2510.209358273221,
    "Average_passenger_waiting_time": 298.75164066408223,
    "Average_passenger_in_vehicle_time": 2211.4577176090597,
    "Average_speed_busses": 0.05075,
    "Average_experienced_crowding": 76.00151067884654,
    "Average_covariation_headway": 0.2906404564520502,
    "Average_covariation_headway_stops": {
        "B": 0.22354563234119612,
        "C": 0.22987489988325513,
        "F": 0.1918941549960938,
        "K": 0.23203393158735536,
        "L": 0.22254704241206766,
        "A": 0.2197321116581894,
        "D": 0.2012500803301751,
        "G": 0.18181187245594851,
        "E": 0.2030628314421486,
        "H": 0.17320677804988643,
        "I": 0.18420805515505898,
        "J": 0.2108542636129182
    },
    "Average_excess_waiting_time": {
        "B": 42.21436290830968,
        "C": 41.48924086386074,
        "F": 38.98445325800827,
        "K": 47.60347397018364,
        "L": 44.7615865476003,
        "A": 42.794330935013534,
        "D": 39.55456702925221,
        "G": 39.3821986440787,
        "E": 41.15924306464706,
        "H": 40.437526745871594,
        "I": 41.806108997414015,
        "J": 46.45547891149931
    },
    "Holding_per_stop": {
        "A": 4.117647058823529,
        "C": 15.436893203883495,
        "F": 12.352941176470589,
        "B": 7.9411764705882355,
        "L": 6.8316831683168315,
        "K": 8.01980198019802,
        "D": 17.647058823529413,
        "G": 12.058823529411764,
        "H": 8.01980198019802,
        "E": 12.352941176470589,
        "I": 5.7,
        "J": 7.5
    },
    "Actions_tfl_edges": {},
    "Load_per_bus_per_stop": {
        "bus0": {
            "B": 62.470588235294116,
            "C": 63.705882352941174,
            "D": 64.6470588235294,
            "E": 66.05882352941177,
            "F": 66.29411764705883,
            "G": 68.58823529411765,
            "H": 69.29411764705883,
            "I": 70.11764705882354,
            "J": 70,
            "K": 68.6470588235294,
            "L": 68.29411764705883,
            "A": 67.23529411764706
        },
        "bus1": {
            "C": 67.77777777777777,
            "D": 68.41176470588235,
            "E": 68.94117647058823,
            "F": 69.41176470588235,
            "G": 71.23529411764706,
            "H": 71.70588235294117,
            "I": 71.58823529411765,
            "J": 72.94117647058823,
            "K": 74.52941176470588,
            "L": 74.47058823529412,
            "A": 73.17647058823529,
            "B": 72.88235294117646
        },
        "bus2": {
            "F": 78.41176470588235,
            "G": 76.41176470588235,
            "H": 76.23529411764706,
            "I": 78.70588235294117,
            "J": 79.6470588235294,
            "K": 81.17647058823529,
            "L": 81.3529411764706,
            "A": 82.05882352941177,
            "B": 82.41176470588235,
            "C": 82.05882352941177,
            "D": 81.58823529411765,
            "E": 81.29411764705883
        },
        "bus3": {
            "K": 71.47058823529412,
            "L": 71.88235294117646,
            "A": 71.88235294117646,
            "B": 72.88235294117646,
            "C": 71.3529411764706,
            "D": 73.58823529411765,
            "E": 73.52941176470588,
            "F": 74.70588235294117,
            "G": 75.52941176470588,
            "H": 76.5,
            "I": 75.8125,
            "J": 74.625
        },
        "bus4": {
            "L": 74.88235294117646,
            "A": 76.11764705882354,
            "B": 76.52941176470588,
            "C": 76.82352941176471,
            "D": 78.41176470588235,
            "E": 77.6470588235294,
            "F": 79.6470588235294,
            "G": 81.58823529411765,
            "H": 80,
            "I": 79.5625,
            "J": 79.5625,
            "K": 79.375
        },
        "bus5": {
            "A": 68.05882352941177,
            "B": 68.70588235294117,
            "C": 67.6470588235294,
            "D": 67.29411764705883,
            "E": 68.47058823529412,
            "F": 69.29411764705883,
            "G": 71.82352941176471,
            "H": 71.82352941176471,
            "I": 71.23529411764706,
            "J": 70.76470588235294,
            "K": 73.82352941176471,
            "L": 73
        }
    },
    "Obs_and_actions_busses": {
        "0": -135.68541645526457,
        "5": 253.3330852923403,
        "4": 123.36011427678582
    },
    "Obs_and_actions_tfls": {}
}3168
    },
    "Obs_and_actions_tfls": {}
}