{
    "Average_holding_time": 11.34599504541701,
    "Average_holding_actions": [
        954,
        108,
        130,
        5,
        14,
        0
    ],
    "Average_travel_time_passengers": 2524.1135643365174,
    "Average_passenger_waiting_time": 292.14154236518,
    "Average_passenger_in_vehicle_time": 2231.9720219712412,
    "Average_speed_busses": 0.050458333333333334,
    "Average_experienced_crowding": 74.85786843130433,
    "Average_covariation_headway": 0.11009135656487722,
    "Average_covariation_headway_stops": {
        "C": 0.08091811421718918,
        "D": 0.08594547580586527,
        "E": 0.09380017936467114,
        "H": 0.10090282283039853,
        "J": 0.09547401160517525,
        "A": 0.08550104790184272,
        "F": 0.07678456145683299,
        "K": 0.06503232113624915,
        "I": 0.08024884284139336,
        "B": 0.05363561522268204,
        "G": 0.07553458459844445,
        "L": 0.06202856512184834
    },
    "Average_excess_waiting_time": {
        "C": 34.105515900315766,
        "D": 32.735824015915,
        "E": 31.65382814887488,
        "H": 33.555936130371094,
        "J": 32.94528635541121,
        "A": 34.289280302116765,
        "F": 32.36078632041358,
        "K": 33.19196679280412,
        "I": 33.869620654010134,
        "B": 34.57009645247024,
        "G": 33.7390414095571,
        "L": 34.46975075863452
    },
    "Holding_per_stop": {
        "E": 10.588235294117647,
        "D": 10.396039603960396,
        "J": 13.96039603960396,
        "H": 15.742574257425742,
        "A": 2.6732673267326734,
        "C": 12.475247524752476,
        "F": 10.693069306930694,
        "K": 22.277227722772277,
        "I": 13.366336633663366,
        "B": 1.8,
        "G": 11.584158415841584,
        "L": 10.5
    },
    "Actions_tfl_edges": {},
    "Load_per_bus_per_stop": {
        "bus0": {
            "C": 71.88235294117646,
            "D": 73.47058823529412,
            "E": 72.76470588235294,
            "F": 74.29411764705883,
            "G": 73.58823529411765,
            "H": 73.23529411764706,
            "I": 71.76470588235294,
            "J": 72.76470588235294,
            "K": 75.47058823529412,
            "L": 76,
            "A": 76.8125,
            "B": 75.25
        },
        "bus1": {
            "D": 72.58823529411765,
            "E": 74.47058823529412,
            "F": 75.29411764705883,
            "G": 75,
            "H": 73.23529411764706,
            "I": 74.17647058823529,
            "J": 73.23529411764706,
            "K": 74,
            "L": 74.76470588235294,
            "A": 76.11764705882354,
            "B": 77.25,
            "C": 77.6875
        },
        "bus2": {
            "E": 72.3529411764706,
            "F": 72.58823529411765,
            "G": 74.82352941176471,
            "H": 74.11764705882354,
            "I": 73.17647058823529,
            "J": 75.11764705882354,
            "K": 75.94117647058823,
            "L": 74.76470588235294,
            "A": 74.47058823529412,
            "B": 76,
            "C": 77.17647058823529,
            "D": 75.6875
        },
        "bus3": {
            "H": 74.70588235294117,
            "I": 74.76470588235294,
            "J": 76.05882352941177,
            "K": 76.6470588235294,
            "L": 78.82352941176471,
            "A": 78.05882352941177,
            "B": 76.52941176470588,
            "C": 78.3529411764706,
            "D": 77.3529411764706,
            "E": 78,
            "F": 78.9375,
            "G": 78.6875
        },
        "bus4": {
            "J": 71.70588235294117,
            "K": 71.6470588235294,
            "L": 71.52941176470588,
            "A": 71.41176470588235,
            "B": 72.94117647058823,
            "C": 73.05882352941177,
            "D": 73.05882352941177,
            "E": 74.05882352941177,
            "F": 74.3529411764706,
            "G": 74.23529411764706,
            "H": 74.625,
            "I": 74.9375
        },
        "bus5": {
            "A": 70.3529411764706,
            "B": 72,
            "C": 73,
            "D": 73.3529411764706,
            "E": 73.82352941176471,
            "F": 71.52941176470588,
            "G": 74.41176470588235,
            "H": 73.58823529411765,
            "I": 75.3529411764706,
            "J": 76,
            "K": 76.8125,
            "L": 75.3125
        }
    },
    "Obs_and_actions_busses": {
        "5": 161.40942221912076,
        "0": -111.2618209633824,
        "2": 55.35814035149667,
        "1": 25.060905103400092,
        "4": 44.43739567621809
    },
    "Obs_and_actions_tfls": {}
}