{
    "Average_holding_time": 17.088607594936708,
    "Average_holding_actions": [
        926,
        0,
        164,
        0,
        31,
        0
    ],
    "Average_travel_time_passengers": 2550.2298751668714,
    "Average_passenger_waiting_time": 299.4464756786025,
    "Average_passenger_in_vehicle_time": 2250.7833994881976,
    "Average_speed_busses": 0.049375,
    "Average_experienced_crowding": 76.38423847957378,
    "Average_covariation_headway": 0.16017983136432457,
    "Average_covariation_headway_stops": {
        "C": 0.13161582224513677,
        "D": 0.13503062022295384,
        "E": 0.12951859106589292,
        "I": 0.13650033234953046,
        "K": 0.11510917060099078,
        "A": 0.1339144082871206,
        "F": 0.10499395456383404,
        "B": 0.12769438034515967,
        "L": 0.11905730336905604,
        "J": 0.10233961298317715,
        "G": 0.09965953469774418,
        "H": 0.12165806440319347
    },
    "Average_excess_waiting_time": {
        "C": 43.14986075111301,
        "D": 41.75099529476614,
        "E": 39.74405120264453,
        "I": 43.69049004109684,
        "K": 42.14740396932683,
        "A": 44.03650353685725,
        "F": 39.82211015098392,
        "B": 44.49884835027194,
        "L": 44.47409270127548,
        "J": 42.85448338461066,
        "G": 41.01207506743202,
        "H": 44.134559141381885
    },
    "Holding_per_stop": {
        "D": 19.696969696969695,
        "E": 19.8,
        "A": 3.6363636363636362,
        "K": 20.90909090909091,
        "C": 26.666666666666668,
        "I": 16.363636363636363,
        "F": 21.818181818181817,
        "B": 10.408163265306122,
        "L": 20.20408163265306,
        "G": 14.545454545454545,
        "J": 17.755102040816325,
        "H": 13.16326530612245
    },
    "Actions_tfl_edges": {},
    "Load_per_bus_per_stop": {
        "bus0": {
            "C": 71.47058823529412,
            "D": 68.88235294117646,
            "E": 69.23529411764706,
            "F": 70.29411764705883,
            "G": 72.11764705882354,
            "H": 72,
            "I": 73.375,
            "J": 71.9375,
            "K": 73.4375,
            "L": 73.75,
            "A": 74.0625,
            "B": 74.375
        },
        "bus1": {
            "D": 68.52941176470588,
            "E": 69.76470588235294,
            "F": 69.47058823529412,
            "G": 70.23529411764706,
            "H": 71.11764705882354,
            "I": 70.41176470588235,
            "J": 70.0625,
            "K": 72.5625,
            "L": 71.6875,
            "A": 72.25,
            "B": 71.9375,
            "C": 72.6875
        },
        "bus2": {
            "E": 75.88235294117646,
            "F": 75.88235294117646,
            "G": 75.11764705882354,
            "H": 76.3529411764706,
            "I": 77.52941176470588,
            "J": 81.41176470588235,
            "K": 81.29411764705883,
            "L": 82,
            "A": 82.9375,
            "B": 81.375,
            "C": 81.375,
            "D": 80.5625
        },
        "bus3": {
            "I": 75.76470588235294,
            "J": 75.94117647058823,
            "K": 76.82352941176471,
            "L": 77.41176470588235,
            "A": 79.6470588235294,
            "B": 78.5,
            "C": 77.125,
            "D": 76.1875,
            "E": 79.1875,
            "F": 80.0625,
            "G": 80.5,
            "H": 82.6875
        },
        "bus4": {
            "K": 74.29411764705883,
            "L": 75.17647058823529,
            "A": 76.94117647058823,
            "B": 78.41176470588235,
            "C": 78.6470588235294,
            "D": 78.75,
            "E": 79,
            "F": 79.25,
            "G": 79.375,
            "H": 77.5625,
            "I": 76.8125,
            "J": 78.25
        },
        "bus5": {
            "A": 73.05882352941177,
            "B": 74.94117647058823,
            "C": 74,
            "D": 73.23529411764706,
            "E": 74,
            "F": 74.6875,
            "G": 75.9375,
            "H": 77.3125,
            "I": 78,
            "J": 77.1875,
            "K": 76.125,
            "L": 76.6875
        }
    },
    "Obs_and_actions_busses": {
        "0": -114.54402790877147,
        "2": 46.65866823556177,
        "3": 132.12155949218752,
        "5": 81.09507146701834
    },
    "Obs_and_actions_tfls": {}
}0303398,
        "2": 46.241569030357525
    },
    "Obs_and_actions_tfls": {}
}