{
    "Average_holding_time": 13.713572023313905,
    "Average_holding_actions": [
        901,
        114,
        165,
        0,
        21,
        0
    ],
    "Average_travel_time_passengers": 2529.9368376725797,
    "Average_passenger_waiting_time": 296.48106056772684,
    "Average_passenger_in_vehicle_time": 2233.45577710478,
    "Average_speed_busses": 0.050041666666666665,
    "Average_experienced_crowding": 75.51228025156352,
    "Average_covariation_headway": 0.12252988417490612,
    "Average_covariation_headway_stops": {
        "C": 0.13484792435478352,
        "F": 0.14142337833245286,
        "H": 0.13429894496266262,
        "I": 0.11866221638489823,
        "J": 0.12157616205004167,
        "K": 0.12852805150784108,
        "L": 0.09882270567113141,
        "D": 0.11924711090962593,
        "G": 0.11511693375076335,
        "A": 0.08722952449509347,
        "E": 0.11972967233644066,
        "B": 0.1078416400318891
    },
    "Average_excess_waiting_time": {
        "C": 39.01553266365079,
        "F": 41.22331219412547,
        "H": 40.519133744893395,
        "I": 37.902740537599755,
        "J": 36.54995234285661,
        "K": 35.54539803236867,
        "L": 35.11921236058777,
        "D": 39.520648775560005,
        "G": 40.76641397385032,
        "A": 36.02531004065793,
        "E": 41.165821651340195,
        "B": 38.62170084700176
    },
    "Holding_per_stop": {
        "I": 13.5,
        "K": 26.138613861386137,
        "J": 13.96039603960396,
        "C": 14.1,
        "F": 13.2,
        "H": 13.5,
        "L": 20.198019801980198,
        "D": 13.8,
        "G": 10.606060606060606,
        "A": 4.8,
        "E": 13.93939393939394,
        "B": 6.6
    },
    "Actions_tfl_edges": {},
    "Load_per_bus_per_stop": {
        "bus0": {
            "C": 73.29411764705883,
            "D": 71.3529411764706,
            "E": 73.23529411764706,
            "F": 74.3529411764706,
            "G": 75.70588235294117,
            "H": 76.23529411764706,
            "I": 76,
            "J": 77,
            "K": 76.5625,
            "L": 77.0625,
            "A": 76.9375,
            "B": 78.25
        },
        "bus1": {
            "F": 77.47058823529412,
            "G": 79.11764705882354,
            "H": 79.3529411764706,
            "I": 79.23529411764706,
            "J": 78.70588235294117,
            "K": 78.23529411764706,
            "L": 79.82352941176471,
            "A": 79.9375,
            "B": 80.3125,
            "C": 80.8125,
            "D": 82,
            "E": 82.9375
        },
        "bus2": {
            "H": 72.17647058823529,
            "I": 70.94117647058823,
            "J": 71.76470588235294,
            "K": 75.05882352941177,
            "L": 74.52941176470588,
            "A": 74.41176470588235,
            "B": 75.17647058823529,
            "C": 76.6875,
            "D": 76.5,
            "E": 74.25,
            "F": 73.75,
            "G": 76.6875
        },
        "bus3": {
            "I": 72.29411764705883,
            "J": 73.23529411764706,
            "K": 73.41176470588235,
            "L": 72,
            "A": 71.94117647058823,
            "B": 71.94117647058823,
            "C": 72.3529411764706,
            "D": 73.52941176470588,
            "E": 73.9375,
            "F": 73.9375,
            "G": 74.1875,
            "H": 75.3125
        },
        "bus4": {
            "J": 69,
            "K": 68.88235294117646,
            "L": 69.76470588235294,
            "A": 72,
            "B": 73.05882352941177,
            "C": 72.76470588235294,
            "D": 72.76470588235294,
            "E": 73.6470588235294,
            "F": 71.47058823529412,
            "G": 71.5,
            "H": 71.8125,
            "I": 72.0625
        },
        "bus5": {
            "K": 71.47058823529412,
            "L": 71.3529411764706,
            "A": 72.82352941176471,
            "B": 76,
            "C": 76.58823529411765,
            "D": 78.41176470588235,
            "E": 78.58823529411765,
            "F": 79.6470588235294,
            "G": 77.70588235294117,
            "H": 77.58823529411765,
            "I": 77.5625,
            "J": 76.4375
        }
    },
    "Obs_and_actions_busses": {
        "5": 207.07355315718507,
        "2": 57.41686718841664,
        "1": 23.17626290297841,
        "0": -119.52700590009027
    },
    "Obs_and_actions_tfls": {}
}