{
    "Average_holding_time": 91.41891891891892,
    "Average_holding_actions": [
        3,
        0,
        363,
        342,
        36,
        0
    ],
    "Average_travel_time_passengers": 2557.8512192962075,
    "Average_passenger_waiting_time": 401.6957055752421,
    "Average_passenger_in_vehicle_time": 2156.155513720818,
    "Average_speed_busses": 0.037,
    "Average_experienced_crowding": 101.24424638575768,
    "Average_covariation_headway": 0.22900508168154823,
    "Average_covariation_headway_stops": {
        "G": 0.14425251365907063,
        "F": 0.10806907062543776,
        "J": 0.1212029111585629,
        "K": 0.13873738710200706,
        "H": 0.12033432393287108,
        "A": 0.1137254240952227,
        "C": 0.09319372781380915,
        "I": 0.09386544327991031,
        "L": 0.10544421820208429,
        "B": 0.08036077446025466,
        "D": 0.06304387679005444,
        "E": 0.06284023633476299
    },
    "Average_excess_waiting_time": {
        "G": 137.15288618990593,
        "F": 136.5007095012503,
        "J": 136.52614539795854,
        "K": 135.27808733751,
        "H": 137.16254089933966,
        "A": 132.4275653823184,
        "C": 132.36610472623556,
        "I": 137.016166879565,
        "L": 134.4266532355299,
        "B": 133.50627838716866,
        "D": 133.49766469593845,
        "E": 136.5568388761498
    },
    "Holding_per_stop": {
        "G": 94.05405405405405,
        "K": 73.6,
        "A": 81.2,
        "J": 76.62162162162163,
        "H": 82.29729729729729,
        "C": 105.4054054054054,
        "F": 113.10810810810811,
        "I": 82.1917808219178,
        "L": 75.4054054054054,
        "D": 107.02702702702703,
        "B": 100.13513513513513,
        "E": 106.43835616438356
    },
    "Actions_tfl_edges": {},
    "Load_per_bus_per_stop": {
        "bus2": {
            "G": 119.53846153846153,
            "H": 132.30769230769232,
            "I": 126.46153846153847,
            "J": 116.6923076923077,
            "K": 104.92307692307692,
            "L": 92.83333333333333,
            "A": 83,
            "B": 72.66666666666667,
            "C": 67.25,
            "D": 61.5,
            "E": 58,
            "F": 88.58333333333333
        },
        "bus1": {
            "F": 82.3076923076923,
            "G": 118.61538461538461,
            "H": 126,
            "I": 121.61538461538461,
            "J": 115,
            "K": 104,
            "L": 93.5,
            "A": 81.41666666666667,
            "B": 71.66666666666667,
            "C": 65.5,
            "D": 62.5,
            "E": 62.333333333333336
        },
        "bus3": {
            "J": 112.84615384615384,
            "K": 101,
            "L": 91.38461538461539,
            "A": 79.61538461538461,
            "B": 65.83333333333333,
            "C": 58.583333333333336,
            "D": 56.75,
            "E": 56.333333333333336,
            "F": 86.66666666666667,
            "G": 127.41666666666667,
            "H": 135,
            "I": 132.16666666666666
        },
        "bus4": {
            "K": 106.92307692307692,
            "L": 92.76923076923077,
            "A": 81.15384615384616,
            "B": 68.23076923076923,
            "C": 60.75,
            "D": 58.75,
            "E": 56.416666666666664,
            "F": 81.91666666666667,
            "G": 125.25,
            "H": 137.83333333333334,
            "I": 131.5,
            "J": 125.58333333333333
        },
        "bus5": {
            "A": 76.15384615384616,
            "B": 63.30769230769231,
            "C": 59,
            "D": 56.76923076923077,
            "E": 54.666666666666664,
            "F": 86.75,
            "G": 125.25,
            "H": 134.33333333333334,
            "I": 126.83333333333333,
            "J": 117.66666666666667,
            "K": 107.08333333333333,
            "L": 93.16666666666667
        },
        "bus0": {
            "C": 60.92307692307692,
            "D": 54.76923076923077,
            "E": 55.23076923076923,
            "F": 87.46153846153847,
            "G": 131.91666666666666,
            "H": 143.16666666666666,
            "I": 140.91666666666666,
            "J": 131.83333333333334,
            "K": 116.5,
            "L": 105.08333333333333,
            "A": 90.33333333333333,
            "B": 73.33333333333333
        }
    },
    "Obs_and_actions_busses": {
        "2": -66.7237163918375,
        "4": 61.46247016134209,
        "3": -13.458333332083425,
        "5": 39.5104564317653,
        "0": -303.6437826733412
    },
    "Obs_and_actions_tfls": {}
}       "0": -605.9492326765546
    },
    "Obs_and_actions_tfls": {}
}17266228916
    },
    "Obs_and_actions_tfls": {}
}