{
    "Average_holding_time": 92.30508474576271,
    "Average_holding_actions": [
        9,
        0,
        345,
        276,
        82,
        0
    ],
    "Average_travel_time_passengers": 2561.505580675695,
    "Average_passenger_waiting_time": 404.7511631908038,
    "Average_passenger_in_vehicle_time": 2156.7544174847667,
    "Average_speed_busses": 0.036875,
    "Average_experienced_crowding": 101.95506748343057,
    "Average_covariation_headway": 0.22515643238901428,
    "Average_covariation_headway_stops": {
        "H": 0.14110725474117972,
        "I": 0.15407973110276957,
        "F": 0.10242552911468183,
        "D": 0.09574334789292337,
        "A": 0.09792654030460457,
        "B": 0.10717855280746469,
        "J": 0.12024944518806158,
        "G": 0.09318891000328194,
        "K": 0.08179698046511942,
        "E": 0.04717044370332484,
        "C": 0.06447464738388062,
        "L": 0.07330468719317126
    },
    "Average_excess_waiting_time": {
        "H": 138.99625845727348,
        "I": 137.1558603432494,
        "F": 135.38655071697934,
        "D": 135.01072903914138,
        "A": 136.56328139121405,
        "B": 135.2764777242083,
        "J": 135.9551292511295,
        "G": 137.36769644041402,
        "K": 135.23781787561853,
        "E": 135.172780600524,
        "C": 135.7616194126768,
        "L": 137.6097142505896
    },
    "Holding_per_stop": {
        "I": 74.4,
        "H": 85.54054054054055,
        "A": 83.91891891891892,
        "F": 116.75675675675676,
        "J": 80.27027027027027,
        "B": 96.89189189189189,
        "D": 103.78378378378379,
        "K": 75.4054054054054,
        "G": 101.0958904109589,
        "E": 118.76712328767124,
        "C": 102.32876712328768,
        "L": 69.04109589041096
    },
    "Actions_tfl_edges": {},
    "Load_per_bus_per_stop": {
        "bus3": {
            "H": 124.84615384615384,
            "I": 121.6923076923077,
            "J": 113.84615384615384,
            "K": 104.07692307692308,
            "L": 91.08333333333333,
            "A": 80.08333333333333,
            "B": 71,
            "C": 63.5,
            "D": 60.833333333333336,
            "E": 57.333333333333336,
            "F": 86.25,
            "G": 127.25
        },
        "bus4": {
            "I": 122.3076923076923,
            "J": 114.92307692307692,
            "K": 106.76923076923077,
            "L": 95.15384615384616,
            "A": 81.23076923076923,
            "B": 68.58333333333333,
            "C": 61.166666666666664,
            "D": 56.666666666666664,
            "E": 57.416666666666664,
            "F": 87.25,
            "G": 126.08333333333333,
            "H": 135
        },
        "bus2": {
            "F": 79.84615384615384,
            "G": 125.23076923076923,
            "H": 134.69230769230768,
            "I": 129.6153846153846,
            "J": 123.41666666666667,
            "K": 114.16666666666667,
            "L": 101.58333333333333,
            "A": 85.83333333333333,
            "B": 76.08333333333333,
            "C": 67.16666666666667,
            "D": 61.583333333333336,
            "E": 56.333333333333336
        },
        "bus1": {
            "D": 58.23076923076923,
            "E": 56.46153846153846,
            "F": 86.15384615384616,
            "G": 127,
            "H": 139.25,
            "I": 134.33333333333334,
            "J": 124.66666666666667,
            "K": 113.75,
            "L": 101.25,
            "A": 89.58333333333333,
            "B": 76.66666666666667,
            "C": 69.91666666666667
        },
        "bus5": {
            "A": 81.23076923076923,
            "B": 70,
            "C": 58.84615384615385,
            "D": 55,
            "E": 53.75,
            "F": 84.66666666666667,
            "G": 128.75,
            "H": 139.25,
            "I": 133.91666666666666,
            "J": 125.75,
            "K": 112.33333333333333,
            "L": 100.91666666666667
        },
        "bus0": {
            "B": 68.61538461538461,
            "C": 61.69230769230769,
            "D": 57.30769230769231,
            "E": 55.25,
            "F": 81.5,
            "G": 122.33333333333333,
            "H": 133.66666666666666,
            "I": 132,
            "J": 122.5,
            "K": 112.33333333333333,
            "L": 98.25,
            "A": 85.83333333333333
        }
    },
    "Obs_and_actions_busses": {
        "4": 74.98203980232884,
        "3": -14.487744649098929,
        "2": -56.97401717939692,
        "5": 11.70929946747114,
        "0": -474.6280162372705
    },
    "Obs_and_actions_tfls": {}
}