{
    "Average_holding_time": 92.10407239819004,
    "Average_holding_actions": [
        8,
        0,
        353,
        313,
        63,
        0
    ],
    "Average_travel_time_passengers": 2550.7440807282073,
    "Average_passenger_waiting_time": 406.14167911765225,
    "Average_passenger_in_vehicle_time": 2144.602401610399,
    "Average_speed_busses": 0.036833333333333336,
    "Average_experienced_crowding": 101.26746568408133,
    "Average_covariation_headway": 0.2311715409689824,
    "Average_covariation_headway_stops": {
        "I": 0.1402540765963107,
        "F": 0.11923869316684896,
        "K": 0.11527430395990222,
        "L": 0.1298860253385964,
        "B": 0.10828101487728882,
        "C": 0.10878007677098028,
        "J": 0.09875885199296998,
        "G": 0.10584908729592922,
        "A": 0.09686567081543487,
        "D": 0.07695974663464411,
        "H": 0.10913652088747224,
        "E": 0.07398888710680405
    },
    "Average_excess_waiting_time": {
        "I": 140.1821136767552,
        "F": 136.37311220223285,
        "K": 137.38030303281363,
        "L": 135.76275377081146,
        "B": 133.96952547578593,
        "C": 132.2240768335431,
        "J": 139.09017406532342,
        "G": 137.43219597630878,
        "A": 135.59440628675867,
        "D": 132.79104455593279,
        "H": 140.23231890482953,
        "E": 135.30344386659755
    },
    "Holding_per_stop": {
        "I": 84.72972972972973,
        "L": 71.35135135135135,
        "K": 77.02702702702703,
        "F": 109.86486486486487,
        "C": 102.97297297297297,
        "B": 96.48648648648648,
        "J": 78.08219178082192,
        "A": 81.48648648648648,
        "D": 104.5945945945946,
        "G": 96.57534246575342,
        "H": 88.76712328767124,
        "E": 113.42465753424658
    },
    "Actions_tfl_edges": {},
    "Load_per_bus_per_stop": {
        "bus3": {
            "I": 126.46153846153847,
            "J": 117.46153846153847,
            "K": 109.53846153846153,
            "L": 93.75,
            "A": 81.91666666666667,
            "B": 70.33333333333333,
            "C": 63.416666666666664,
            "D": 62.083333333333336,
            "E": 60.5,
            "F": 87.41666666666667,
            "G": 130.41666666666666,
            "H": 141.25
        },
        "bus2": {
            "F": 80.15384615384616,
            "G": 119.53846153846153,
            "H": 128.69230769230768,
            "I": 125.76923076923077,
            "J": 120.91666666666667,
            "K": 110.83333333333333,
            "L": 97.58333333333333,
            "A": 83.75,
            "B": 72.25,
            "C": 64.58333333333333,
            "D": 61.75,
            "E": 59.166666666666664
        },
        "bus4": {
            "K": 97.07692307692308,
            "L": 86.76923076923077,
            "A": 75,
            "B": 64.83333333333333,
            "C": 59.25,
            "D": 54.333333333333336,
            "E": 54.5,
            "F": 80.66666666666667,
            "G": 122,
            "H": 128.33333333333334,
            "I": 123.91666666666667,
            "J": 114.41666666666667
        },
        "bus5": {
            "L": 88.6923076923077,
            "A": 78,
            "B": 67.15384615384616,
            "C": 60.61538461538461,
            "D": 55.916666666666664,
            "E": 55.166666666666664,
            "F": 83.58333333333333,
            "G": 121.83333333333333,
            "H": 133.91666666666666,
            "I": 126.83333333333333,
            "J": 119.16666666666667,
            "K": 110.66666666666667
        },
        "bus0": {
            "B": 68.07692307692308,
            "C": 59.46153846153846,
            "D": 55.23076923076923,
            "E": 54.61538461538461,
            "F": 87,
            "G": 127.25,
            "H": 138.91666666666666,
            "I": 132.5,
            "J": 125.08333333333333,
            "K": 112.25,
            "L": 99.08333333333333,
            "A": 85.5
        },
        "bus1": {
            "C": 63.53846153846154,
            "D": 57.30769230769231,
            "E": 55.38461538461539,
            "F": 87.53846153846153,
            "G": 133.84615384615384,
            "H": 141.66666666666666,
            "I": 136.16666666666666,
            "J": 126.66666666666667,
            "K": 114,
            "L": 100.66666666666667,
            "A": 86.25,
            "B": 74.75
        }
    },
    "Obs_and_actions_busses": {
        "4": 78.37395030645425,
        "3": -13.10847925381852,
        "5": 2.0317460322220438,
        "2": -67.90530942138162,
        "0": -445.16872161788126
    },
    "Obs_and_actions_tfls": {}
}