{
    "Average_holding_time": 92.98980747451868,
    "Average_holding_actions": [
        6,
        0,
        351,
        331,
        63,
        0
    ],
    "Average_travel_time_passengers": 2587.492957568216,
    "Average_passenger_waiting_time": 407.16098810106877,
    "Average_passenger_in_vehicle_time": 2180.3319694670313,
    "Average_speed_busses": 0.03679166666666667,
    "Average_experienced_crowding": 102.7519869426975,
    "Average_covariation_headway": 0.23218606007370066,
    "Average_covariation_headway_stops": {
        "H": 0.15315617920291305,
        "E": 0.12162362016129052,
        "F": 0.1319547820223199,
        "J": 0.1341462469642499,
        "D": 0.11326799504636154,
        "A": 0.10933385624219288,
        "I": 0.12306956276864918,
        "G": 0.11534311673660093,
        "K": 0.09893403817444577,
        "B": 0.07801311356905546,
        "L": 0.08592042904654978,
        "C": 0.07702844951617852
    },
    "Average_excess_waiting_time": {
        "H": 139.2906722012748,
        "E": 138.40389336875762,
        "F": 136.62963025509515,
        "J": 135.9526123203005,
        "D": 140.30963651029856,
        "A": 136.0563151159642,
        "I": 138.201950259233,
        "G": 137.7973441695741,
        "K": 135.14149498831028,
        "B": 136.52434806598757,
        "L": 136.96982674632505,
        "C": 140.22491867941375
    },
    "Holding_per_stop": {
        "H": 92.02702702702703,
        "J": 79.45945945945945,
        "A": 80.67567567567568,
        "F": 110.67567567567568,
        "E": 108.24324324324324,
        "D": 105.20547945205479,
        "I": 87.56756756756756,
        "K": 75.4054054054054,
        "G": 96.16438356164383,
        "B": 100.27397260273973,
        "L": 75.61643835616438,
        "C": 104.79452054794521
    },
    "Actions_tfl_edges": {},
    "Load_per_bus_per_stop": {
        "bus3": {
            "H": 137.6153846153846,
            "I": 135.30769230769232,
            "J": 126.23076923076923,
            "K": 112.15384615384616,
            "L": 99.38461538461539,
            "A": 85.66666666666667,
            "B": 73.5,
            "C": 63.833333333333336,
            "D": 57.666666666666664,
            "E": 56,
            "F": 87.83333333333333,
            "G": 135.33333333333334
        },
        "bus1": {
            "E": 52.76923076923077,
            "F": 81.53846153846153,
            "G": 124,
            "H": 133.5,
            "I": 129.66666666666666,
            "J": 121.16666666666667,
            "K": 108.91666666666667,
            "L": 96.25,
            "A": 87,
            "B": 75.08333333333333,
            "C": 65.66666666666667,
            "D": 57.916666666666664
        },
        "bus2": {
            "F": 86.23076923076923,
            "G": 125.23076923076923,
            "H": 134.46153846153845,
            "I": 128.84615384615384,
            "J": 117.58333333333333,
            "K": 108.41666666666667,
            "L": 95.25,
            "A": 82.5,
            "B": 72.75,
            "C": 65.25,
            "D": 60,
            "E": 59.083333333333336
        },
        "bus4": {
            "J": 112.23076923076923,
            "K": 102.38461538461539,
            "L": 91.76923076923077,
            "A": 80.46153846153847,
            "B": 68.25,
            "C": 61.916666666666664,
            "D": 58.5,
            "E": 56.416666666666664,
            "F": 82.5,
            "G": 125.08333333333333,
            "H": 136.75,
            "I": 131.16666666666666
        },
        "bus0": {
            "D": 57.61538461538461,
            "E": 56.69230769230769,
            "F": 80.75,
            "G": 123.58333333333333,
            "H": 135,
            "I": 129.75,
            "J": 120,
            "K": 108.66666666666667,
            "L": 95.25,
            "A": 82.58333333333333,
            "B": 72.25,
            "C": 65.83333333333333
        },
        "bus5": {
            "A": 78.15384615384616,
            "B": 68.61538461538461,
            "C": 64.53846153846153,
            "D": 60.75,
            "E": 58.5,
            "F": 89.83333333333333,
            "G": 134.41666666666666,
            "H": 143.16666666666666,
            "I": 135.33333333333334,
            "J": 126.41666666666667,
            "K": 111.33333333333333,
            "L": 96
        }
    },
    "Obs_and_actions_busses": {
        "4": 69.40129772769862,
        "2": -75.7656740813803,
        "3": -16.43181818333322,
        "5": 51.873500256966906,
        "0": -433.56600449651035
    },
    "Obs_and_actions_tfls": {}
}