{
    "Average_holding_time": 91.49490373725935,
    "Average_holding_actions": [
        10,
        0,
        368,
        334,
        54,
        0
    ],
    "Average_travel_time_passengers": 2551.069194823253,
    "Average_passenger_waiting_time": 405.2848628496056,
    "Average_passenger_in_vehicle_time": 2145.7843319734907,
    "Average_speed_busses": 0.03679166666666667,
    "Average_experienced_crowding": 103.61920792012296,
    "Average_covariation_headway": 0.24504204978660996,
    "Average_covariation_headway_stops": {
        "H": 0.1762622799078696,
        "J": 0.15013779084099027,
        "L": 0.13616446524762194,
        "D": 0.12462933202145461,
        "A": 0.14193716895477126,
        "B": 0.14331225027817282,
        "I": 0.14676195176292886,
        "E": 0.10581946381712824,
        "K": 0.12102800894823208,
        "C": 0.10960583403978186,
        "F": 0.09315528197047697,
        "G": 0.1207486617732016
    },
    "Average_excess_waiting_time": {
        "H": 146.13406360385693,
        "J": 141.8015734463229,
        "L": 139.9727894421681,
        "D": 134.75407575745947,
        "A": 137.86289890505662,
        "B": 135.7996713254377,
        "I": 144.49371531669175,
        "E": 135.87213732815832,
        "K": 141.17054189914666,
        "C": 135.99108632876994,
        "F": 137.91297503288752,
        "G": 142.58860158217493
    },
    "Holding_per_stop": {
        "H": 82.6027397260274,
        "D": 110.67567567567568,
        "J": 79.45945945945945,
        "L": 71.35135135135135,
        "A": 83.91891891891892,
        "B": 101.75675675675676,
        "I": 85.89041095890411,
        "E": 107.02702702702703,
        "K": 77.26027397260275,
        "C": 106.62162162162163,
        "F": 103.56164383561644,
        "G": 87.53424657534246
    },
    "Actions_tfl_edges": {},
    "Load_per_bus_per_stop": {
        "bus2": {
            "H": 130.6153846153846,
            "I": 125.92307692307692,
            "J": 118.53846153846153,
            "K": 107.5,
            "L": 96.58333333333333,
            "A": 81.58333333333333,
            "B": 69.08333333333333,
            "C": 61.75,
            "D": 57,
            "E": 53.75,
            "F": 86.25,
            "G": 134.16666666666666
        },
        "bus3": {
            "J": 112,
            "K": 101.23076923076923,
            "L": 89.84615384615384,
            "A": 76.33333333333333,
            "B": 66.41666666666667,
            "C": 59.666666666666664,
            "D": 53.583333333333336,
            "E": 54,
            "F": 80.16666666666667,
            "G": 118,
            "H": 133.83333333333334,
            "I": 131.41666666666666
        },
        "bus4": {
            "L": 88.76923076923077,
            "A": 76.15384615384616,
            "B": 65.3076923076923,
            "C": 59.416666666666664,
            "D": 55.25,
            "E": 55.75,
            "F": 83.25,
            "G": 123.16666666666667,
            "H": 131.83333333333334,
            "I": 128.66666666666666,
            "J": 121.83333333333333,
            "K": 108.58333333333333
        },
        "bus1": {
            "D": 61.46153846153846,
            "E": 58,
            "F": 92,
            "G": 134.53846153846155,
            "H": 148.53846153846155,
            "I": 142.91666666666666,
            "J": 134.25,
            "K": 121.5,
            "L": 106.08333333333333,
            "A": 95.83333333333333,
            "B": 82.41666666666667,
            "C": 73.33333333333333
        },
        "bus5": {
            "A": 79.6923076923077,
            "B": 69.23076923076923,
            "C": 60.15384615384615,
            "D": 57.166666666666664,
            "E": 56.25,
            "F": 87.83333333333333,
            "G": 129.5,
            "H": 139.66666666666666,
            "I": 135.33333333333334,
            "J": 124,
            "K": 111.91666666666667,
            "L": 100.08333333333333
        },
        "bus0": {
            "B": 68.46153846153847,
            "C": 59,
            "D": 54.30769230769231,
            "E": 54.46153846153846,
            "F": 84.58333333333333,
            "G": 127,
            "H": 138.25,
            "I": 135.58333333333334,
            "J": 126,
            "K": 114.66666666666667,
            "L": 100.58333333333333,
            "A": 89
        }
    },
    "Obs_and_actions_busses": {
        "5": 77.26182113574494,
        "4": 70.99282663987258,
        "2": -74.86696258535481,
        "3": -14.413491349732613,
        "0": -454.70828630977735
    },
    "Obs_and_actions_tfls": {}
}