{
    "Average_holding_time": 92.65005662514156,
    "Average_holding_actions": [
        13,
        0,
        350,
        325,
        71,
        0
    ],
    "Average_travel_time_passengers": 2565.7159303837443,
    "Average_passenger_waiting_time": 409.3862989652061,
    "Average_passenger_in_vehicle_time": 2156.3296314183895,
    "Average_speed_busses": 0.03679166666666667,
    "Average_experienced_crowding": 102.98097105464355,
    "Average_covariation_headway": 0.25640845306880106,
    "Average_covariation_headway_stops": {
        "H": 0.1963914073002744,
        "G": 0.17233773471837616,
        "I": 0.205704340647952,
        "F": 0.14701309475399862,
        "L": 0.16934353513123038,
        "D": 0.16538819863124118,
        "J": 0.17768478270284946,
        "A": 0.14639291349542313,
        "E": 0.1281028197071644,
        "K": 0.15743960206525476,
        "B": 0.1319320421707339,
        "C": 0.14321285872124026
    },
    "Average_excess_waiting_time": {
        "H": 143.8146521577342,
        "G": 144.72505911725523,
        "I": 142.3655789794622,
        "F": 144.08963284450954,
        "L": 138.69538524290567,
        "D": 146.17432640495826,
        "J": 141.04401572074516,
        "A": 139.56498301611805,
        "E": 144.25079144941049,
        "K": 140.2949737521111,
        "B": 140.8972395463568,
        "C": 145.63175115726176
    },
    "Holding_per_stop": {
        "I": 82.4,
        "H": 87.16216216216216,
        "L": 74.5945945945946,
        "G": 96.16438356164383,
        "F": 99.86301369863014,
        "D": 114.24657534246575,
        "J": 81.89189189189189,
        "A": 81.48648648648648,
        "K": 79.45945945945945,
        "E": 113.83561643835617,
        "B": 97.3972602739726,
        "C": 104.38356164383562
    },
    "Actions_tfl_edges": {},
    "Load_per_bus_per_stop": {
        "bus3": {
            "H": 123.3076923076923,
            "I": 119.53846153846153,
            "J": 112,
            "K": 103.46153846153847,
            "L": 90.07692307692308,
            "A": 77.41666666666667,
            "B": 67.41666666666667,
            "C": 59.75,
            "D": 57.333333333333336,
            "E": 57.25,
            "F": 86.25,
            "G": 124.41666666666667
        },
        "bus2": {
            "G": 112.38461538461539,
            "H": 120.46153846153847,
            "I": 117.6923076923077,
            "J": 110.84615384615384,
            "K": 102.91666666666667,
            "L": 90.16666666666667,
            "A": 78.58333333333333,
            "B": 66.25,
            "C": 57.583333333333336,
            "D": 57.083333333333336,
            "E": 55.166666666666664,
            "F": 82.91666666666667
        },
        "bus4": {
            "I": 126.61538461538461,
            "J": 115.46153846153847,
            "K": 105.92307692307692,
            "L": 92.61538461538461,
            "A": 80.3076923076923,
            "B": 69.75,
            "C": 62.5,
            "D": 59.083333333333336,
            "E": 56.166666666666664,
            "F": 86.08333333333333,
            "G": 130.58333333333334,
            "H": 141.41666666666666
        },
        "bus1": {
            "F": 87,
            "G": 124.76923076923077,
            "H": 133.83333333333334,
            "I": 128.41666666666666,
            "J": 121.83333333333333,
            "K": 108.5,
            "L": 95,
            "A": 84,
            "B": 74.08333333333333,
            "C": 66.33333333333333,
            "D": 61.333333333333336,
            "E": 60.833333333333336
        },
        "bus5": {
            "L": 95.61538461538461,
            "A": 81.76923076923077,
            "B": 70.53846153846153,
            "C": 60.30769230769231,
            "D": 56.75,
            "E": 58.166666666666664,
            "F": 93.66666666666667,
            "G": 137.16666666666666,
            "H": 144.83333333333334,
            "I": 139.91666666666666,
            "J": 126.25,
            "K": 115
        },
        "bus0": {
            "D": 58.69230769230769,
            "E": 56.92307692307692,
            "F": 87.83333333333333,
            "G": 132,
            "H": 143.16666666666666,
            "I": 137.75,
            "J": 128.75,
            "K": 118.58333333333333,
            "L": 103,
            "A": 89.33333333333333,
            "B": 76.25,
            "C": 68.5
        }
    },
    "Obs_and_actions_busses": {
        "4": 88.05691195792069,
        "2": -82.66273861070081,
        "3": -8.379032256370788,
        "5": 42.71895134975293,
        "0": -533.367075362255
    },
    "Obs_and_actions_tfls": {}
}