{
    "Average_holding_time": 94.59893048128342,
    "Average_holding_actions": [
        57,
        0,
        177,
        132,
        151,
        0
    ],
    "Average_travel_time_passengers": 6052.930853637453,
    "Average_passenger_waiting_time": 2300.7546700050866,
    "Average_passenger_in_vehicle_time": 3752.1761836322203,
    "Average_speed_busses": 0.023375,
    "Average_experienced_crowding": 564.0689872238687,
    "Average_covariation_headway": 2.0572555636151346,
    "Average_covariation_headway_stops": {
        "G": 1.5861021476606607,
        "I": 1.9033619467144798,
        "F": 1.6873753366102067,
        "J": 1.9471757937111602,
        "K": 1.9601234229071438,
        "L": 1.9839622904518808,
        "H": 1.7754387445164763,
        "A": 1.9669616062388127,
        "B": 1.9427815072049193,
        "C": 1.9089946114974454,
        "D": 1.8767358052871008,
        "E": 1.8669086933785963
    },
    "Average_excess_waiting_time": {
        "G": 2019.5209947027197,
        "I": 2373.5694061578292,
        "F": 2093.387311331719,
        "J": 2445.1171861474286,
        "K": 2455.006491297895,
        "L": 2485.427160828736,
        "H": 2128.337553540487,
        "A": 2485.434800528397,
        "B": 2470.7836635214176,
        "C": 2433.870606985217,
        "D": 2399.71713103801,
        "E": 2414.862014559405
    },
    "Holding_per_stop": {
        "G": 92.04545454545455,
        "L": 83.75,
        "I": 94.66666666666667,
        "J": 95.21739130434783,
        "K": 91.91489361702128,
        "F": 91.27659574468085,
        "H": 100.22727272727273,
        "A": 86.25,
        "B": 96.25,
        "C": 98.125,
        "D": 100,
        "E": 105.625
    },
    "Actions_tfl_edges": {},
    "Load_per_bus_per_stop": {
        "bus1": {
            "G": 38.5,
            "H": 41.75,
            "I": 38.5,
            "J": 34,
            "K": 29,
            "L": 24.5,
            "A": 21.875,
            "B": 19.875,
            "C": 17.625,
            "D": 18.25,
            "E": 19.625,
            "F": 29.875
        },
        "bus2": {
            "I": 19,
            "J": 18.5,
            "K": 16.875,
            "L": 16.125,
            "A": 14.5,
            "B": 13,
            "C": 12.875,
            "D": 13.75,
            "E": 13.25,
            "F": 17,
            "G": 21.857142857142858,
            "H": 23.142857142857142
        },
        "bus0": {
            "F": 86.125,
            "G": 120,
            "H": 127.75,
            "I": 120.25,
            "J": 111.375,
            "K": 101.125,
            "L": 89.5,
            "A": 78,
            "B": 67.125,
            "C": 62.375,
            "D": 58,
            "E": 59.75
        },
        "bus3": {
            "J": 18.25,
            "K": 17.625,
            "L": 15,
            "A": 13.875,
            "B": 13.125,
            "C": 12.5,
            "D": 11.375,
            "E": 9.25,
            "F": 14.625,
            "G": 24.714285714285715,
            "H": 24.857142857142858,
            "I": 22.428571428571427
        },
        "bus4": {
            "K": 74.75,
            "L": 65.875,
            "A": 53.75,
            "B": 42.375,
            "C": 32.75,
            "D": 25.875,
            "E": 22.625,
            "F": 60,
            "G": 116.14285714285714,
            "H": 121.14285714285714,
            "I": 110.28571428571429,
            "J": 96.85714285714286
        },
        "bus5": {
            "L": 551.625,
            "A": 485,
            "B": 427.75,
            "C": 398.5,
            "D": 385.625,
            "E": 379.125,
            "F": 561.375,
            "G": 839.125,
            "H": 833.2857142857143,
            "I": 818.1428571428571,
            "J": 772.8571428571429,
            "K": 702
        }
    },
    "Obs_and_actions_busses": {
        "2": -1444.1818721692646,
        "4": 103.92786548441593,
        "3": -8.636363636136341,
        "5": 3249.194795323652,
        "0": -4087.9767330982995
    },
    "Obs_and_actions_tfls": {}
}53846153846153,
            "G": 151.58333333333334,
            "H": 167.75,
            "I": 160.25,
            "J": 148.5,
            "K": 136.25,
            "L": 118.16666666666667,
            "A": 102.58333333333333,
            "B": 89.75
        }
    },
    "Obs_and_actions_busses": {
        "5": 532.7196186002,
        "4": 75.58423913119557,
        "2": -103.03093810717053,
        "0": -1174.24802117215,
        "3": -2.227722775841256
    },
    "Obs_and_actions_tfls": {}
} "Obs_and_actions_tfls": {}
}