{
    "Average_holding_time": 92.17440543601359,
    "Average_holding_actions": [
        1,
        0,
        384,
        275,
        88,
        0
    ],
    "Average_travel_time_passengers": 2554.9230317060637,
    "Average_passenger_waiting_time": 403.110174698762,
    "Average_passenger_in_vehicle_time": 2151.8128570071544,
    "Average_speed_busses": 0.03679166666666667,
    "Average_experienced_crowding": 102.5012928235569,
    "Average_covariation_headway": 0.23726880437651454,
    "Average_covariation_headway_stops": {
        "H": 0.15277715000975012,
        "E": 0.11922226971204437,
        "K": 0.12615708809043322,
        "L": 0.13511381082241553,
        "A": 0.14413903573939463,
        "C": 0.1203614748399364,
        "I": 0.13000041805140522,
        "F": 0.1024658629138393,
        "B": 0.11972323448731886,
        "D": 0.08830065893876583,
        "J": 0.10495282691695712,
        "G": 0.09854246248351337
    },
    "Average_excess_waiting_time": {
        "H": 141.75394402575603,
        "E": 135.9056570332205,
        "K": 140.5241413261375,
        "L": 138.31845938172927,
        "A": 136.66201260408667,
        "C": 135.65740704829483,
        "I": 141.1546050449586,
        "F": 137.39006673754335,
        "B": 137.37150268333858,
        "D": 135.76708083007895,
        "J": 141.52083409158314,
        "G": 139.39805859362605
    },
    "Holding_per_stop": {
        "H": 87.16216216216216,
        "E": 118.37837837837837,
        "L": 72.97297297297297,
        "A": 81.89189189189189,
        "K": 78.08219178082192,
        "C": 101.35135135135135,
        "I": 85.89041095890411,
        "F": 97.3972602739726,
        "B": 98.91891891891892,
        "D": 103.37837837837837,
        "J": 79.72602739726027,
        "G": 100.68493150684931
    },
    "Actions_tfl_edges": {},
    "Load_per_bus_per_stop": {
        "bus2": {
            "H": 130.53846153846155,
            "I": 126.38461538461539,
            "J": 120.15384615384616,
            "K": 106.75,
            "L": 94.25,
            "A": 81.08333333333333,
            "B": 69.91666666666667,
            "C": 64.75,
            "D": 60,
            "E": 58.333333333333336,
            "F": 86.33333333333333,
            "G": 129.66666666666666
        },
        "bus1": {
            "E": 56.07692307692308,
            "F": 85.23076923076923,
            "G": 125,
            "H": 134.84615384615384,
            "I": 131.08333333333334,
            "J": 124.33333333333333,
            "K": 114.5,
            "L": 99.16666666666667,
            "A": 87.25,
            "B": 74.33333333333333,
            "C": 66.75,
            "D": 61.916666666666664
        },
        "bus3": {
            "K": 101.38461538461539,
            "L": 90,
            "A": 79.61538461538461,
            "B": 68.91666666666667,
            "C": 60.916666666666664,
            "D": 58.416666666666664,
            "E": 56.416666666666664,
            "F": 85,
            "G": 127.33333333333333,
            "H": 138.58333333333334,
            "I": 132.66666666666666,
            "J": 124.5
        },
        "bus4": {
            "L": 92.38461538461539,
            "A": 80.6923076923077,
            "B": 70.15384615384616,
            "C": 59.916666666666664,
            "D": 55.416666666666664,
            "E": 55.166666666666664,
            "F": 84.41666666666667,
            "G": 125.25,
            "H": 136.33333333333334,
            "I": 131.66666666666666,
            "J": 122.91666666666667,
            "K": 111.08333333333333
        },
        "bus5": {
            "A": 76.61538461538461,
            "B": 66.61538461538461,
            "C": 61,
            "D": 58.38461538461539,
            "E": 56.083333333333336,
            "F": 85.08333333333333,
            "G": 122.83333333333333,
            "H": 131.08333333333334,
            "I": 125.33333333333333,
            "J": 115.83333333333333,
            "K": 104.5,
            "L": 92.16666666666667
        },
        "bus0": {
            "C": 64.84615384615384,
            "D": 63.15384615384615,
            "E": 57.76923076923077,
            "F": 87.3076923076923,
            "G": 132.08333333333334,
            "H": 144.58333333333334,
            "I": 137.25,
            "J": 128.58333333333334,
            "K": 116.5,
            "L": 101.91666666666667,
            "A": 87.5,
            "B": 78.33333333333333
        }
    },
    "Obs_and_actions_busses": {
        "4": 85.70833569209188,
        "3": -7.13572563870569,
        "5": 32.19318182045474,
        "2": -78.52857137498677,
        "0": -369.0000000099999
    },
    "Obs_and_actions_tfls": {}
}ns_tfls": {}
}