{
    "Average_holding_time": 91.69875424688561,
    "Average_holding_actions": [
        11,
        0,
        360,
        347,
        48,
        0
    ],
    "Average_travel_time_passengers": 2567.588356428892,
    "Average_passenger_waiting_time": 417.0231045426642,
    "Average_passenger_in_vehicle_time": 2150.565251886086,
    "Average_speed_busses": 0.03679166666666667,
    "Average_experienced_crowding": 104.83740777585363,
    "Average_covariation_headway": 0.2723685502658674,
    "Average_covariation_headway_stops": {
        "G": 0.2152819508349309,
        "J": 0.21037757270468052,
        "K": 0.20356760139830082,
        "A": 0.1700542976003331,
        "B": 0.16468630187076647,
        "C": 0.1584380439885235,
        "H": 0.23603092580174087,
        "L": 0.17134823772317787,
        "I": 0.21501885289320444,
        "D": 0.13206893818306775,
        "E": 0.12779960295507464,
        "F": 0.14802631850937964
    },
    "Average_excess_waiting_time": {
        "G": 151.15019980347728,
        "J": 152.04454025219502,
        "K": 147.72494779200866,
        "A": 142.6689998543191,
        "B": 139.5759765026129,
        "C": 137.03636416849253,
        "H": 157.70283438895672,
        "L": 145.3750912532007,
        "I": 156.56566806857444,
        "D": 136.62780821454368,
        "E": 139.120515414211,
        "F": 144.69236876593982
    },
    "Holding_per_stop": {
        "G": 93.6986301369863,
        "K": 75.8108108108108,
        "J": 77.26027397260275,
        "A": 84.72972972972973,
        "C": 103.2,
        "B": 102.56756756756756,
        "H": 82.6027397260274,
        "L": 74.79452054794521,
        "D": 111.08108108108108,
        "I": 83.42465753424658,
        "E": 108.64864864864865,
        "F": 101.91780821917808
    },
    "Actions_tfl_edges": {},
    "Load_per_bus_per_stop": {
        "bus2": {
            "G": 129.84615384615384,
            "H": 141.07692307692307,
            "I": 135.69230769230768,
            "J": 127.25,
            "K": 117.66666666666667,
            "L": 103.83333333333333,
            "A": 90.66666666666667,
            "B": 79.08333333333333,
            "C": 71.75,
            "D": 65.75,
            "E": 62.333333333333336,
            "F": 95.33333333333333
        },
        "bus3": {
            "J": 120.38461538461539,
            "K": 110.76923076923077,
            "L": 96.6923076923077,
            "A": 81.08333333333333,
            "B": 70.5,
            "C": 62.5,
            "D": 58.166666666666664,
            "E": 61.333333333333336,
            "F": 90.83333333333333,
            "G": 130.33333333333334,
            "H": 141.66666666666666,
            "I": 138.5
        },
        "bus4": {
            "K": 95.92307692307692,
            "L": 84.61538461538461,
            "A": 76.84615384615384,
            "B": 68.75,
            "C": 64.33333333333333,
            "D": 60,
            "E": 55.25,
            "F": 82,
            "G": 122,
            "H": 127.91666666666667,
            "I": 121,
            "J": 114.33333333333333
        },
        "bus5": {
            "A": 77.3076923076923,
            "B": 66.23076923076923,
            "C": 58.92307692307692,
            "D": 56.083333333333336,
            "E": 55.75,
            "F": 83.91666666666667,
            "G": 121.75,
            "H": 131.41666666666666,
            "I": 127.91666666666667,
            "J": 120.58333333333333,
            "K": 108.5,
            "L": 96.66666666666667
        },
        "bus0": {
            "B": 64.61538461538461,
            "C": 59,
            "D": 56.92307692307692,
            "E": 57.38461538461539,
            "F": 86.58333333333333,
            "G": 127.08333333333333,
            "H": 136.25,
            "I": 129.08333333333334,
            "J": 118.75,
            "K": 108.33333333333333,
            "L": 94.25,
            "A": 82.83333333333333
        },
        "bus1": {
            "C": 64.23076923076923,
            "D": 59.69230769230769,
            "E": 60.23076923076923,
            "F": 92.15384615384616,
            "G": 138.3846153846154,
            "H": 147.41666666666666,
            "I": 139.83333333333334,
            "J": 128.16666666666666,
            "K": 117.33333333333333,
            "L": 104.08333333333333,
            "A": 91,
            "B": 76.5
        }
    },
    "Obs_and_actions_busses": {
        "5": 198.62199912219452,
        "4": 80.11657257550623,
        "2": -83.55090249530633,
        "0": -1118.000000026364,
        "3": -8.83871079338727
    },
    "Obs_and_actions_tfls": {}
}