{
    "Average_holding_time": 90.81264108352144,
    "Average_holding_actions": [
        21,
        0,
        363,
        336,
        57,
        0
    ],
    "Average_travel_time_passengers": 2572.9937118717226,
    "Average_passenger_waiting_time": 423.47788924417904,
    "Average_passenger_in_vehicle_time": 2149.5158226273998,
    "Average_speed_busses": 0.03691666666666667,
    "Average_experienced_crowding": 106.34640615301103,
    "Average_covariation_headway": 0.31019568733527964,
    "Average_covariation_headway_stops": {
        "I": 0.27290054082846504,
        "E": 0.2526604812842356,
        "J": 0.2671653188729485,
        "K": 0.26282507726747917,
        "L": 0.2583145776565467,
        "A": 0.2606053826824708,
        "F": 0.2222889227407771,
        "B": 0.23385112723751314,
        "G": 0.21967491037635464,
        "C": 0.22471711112721462,
        "H": 0.2461739055891766,
        "D": 0.23579354130282185
    },
    "Average_excess_waiting_time": {
        "I": 164.6112677187814,
        "E": 155.42019262264245,
        "J": 160.45293903471196,
        "K": 156.73738535630844,
        "L": 152.5553574234358,
        "A": 149.4579741356988,
        "F": 152.61301027051547,
        "B": 147.8382087134038,
        "G": 154.99315788748805,
        "C": 150.13754404370962,
        "H": 162.03814553254568,
        "D": 155.23655317273597
    },
    "Holding_per_stop": {
        "J": 80.67567567567568,
        "I": 83.42465753424658,
        "L": 74.4,
        "K": 75.8108108108108,
        "A": 82.4,
        "E": 108.64864864864865,
        "B": 100.4,
        "F": 96.57534246575342,
        "C": 102.97297297297297,
        "G": 94.52054794520548,
        "D": 104.79452054794521,
        "H": 85.47945205479452
    },
    "Actions_tfl_edges": {},
    "Load_per_bus_per_stop": {
        "bus1": {
            "I": 131.3846153846154,
            "J": 123.92307692307692,
            "K": 112,
            "L": 98.83333333333333,
            "A": 86.75,
            "B": 73.5,
            "C": 66.75,
            "D": 60.583333333333336,
            "E": 62.333333333333336,
            "F": 93.41666666666667,
            "G": 138.08333333333334,
            "H": 147.66666666666666
        },
        "bus0": {
            "E": 59.30769230769231,
            "F": 91.38461538461539,
            "G": 136.07692307692307,
            "H": 148.30769230769232,
            "I": 143.91666666666666,
            "J": 137.08333333333334,
            "K": 127.41666666666667,
            "L": 112.08333333333333,
            "A": 96,
            "B": 82.41666666666667,
            "C": 74.75,
            "D": 69.41666666666667
        },
        "bus2": {
            "J": 106.6923076923077,
            "K": 96.84615384615384,
            "L": 85.15384615384616,
            "A": 72,
            "B": 63.333333333333336,
            "C": 58.166666666666664,
            "D": 55.666666666666664,
            "E": 52.75,
            "F": 77.58333333333333,
            "G": 119.16666666666667,
            "H": 130.08333333333334,
            "I": 122.25
        },
        "bus3": {
            "K": 93.3076923076923,
            "L": 82.6923076923077,
            "A": 69.15384615384616,
            "B": 58.38461538461539,
            "C": 52.25,
            "D": 52.083333333333336,
            "E": 50.083333333333336,
            "F": 76,
            "G": 113.5,
            "H": 122.58333333333333,
            "I": 118,
            "J": 110.16666666666667
        },
        "bus4": {
            "L": 81.07692307692308,
            "A": 71.53846153846153,
            "B": 61.53846153846154,
            "C": 57.30769230769231,
            "D": 53.07692307692308,
            "E": 52.5,
            "F": 77.75,
            "G": 116.83333333333333,
            "H": 126.16666666666667,
            "I": 121.75,
            "J": 110.08333333333333,
            "K": 98.83333333333333
        },
        "bus5": {
            "A": 88.15384615384616,
            "B": 75.6923076923077,
            "C": 69.92307692307692,
            "D": 63,
            "E": 62.15384615384615,
            "F": 94.07692307692308,
            "G": 140.83333333333334,
            "H": 151.08333333333334,
            "I": 143.91666666666666,
            "J": 134.33333333333334,
            "K": 123.58333333333333,
            "L": 109.41666666666667
        }
    },
    "Obs_and_actions_busses": {
        "5": 230.92780846331104,
        "4": 90.47309555832155,
        "3": -6.596330274403012,
        "2": -87.05378278916486,
        "0": -856.8285114290545
    },
    "Obs_and_actions_tfls": {}
}