{
    "Average_holding_time": 90.20247469066366,
    "Average_holding_actions": [
        16,
        0,
        371,
        355,
        35,
        0
    ],
    "Average_travel_time_passengers": 2578.530455258738,
    "Average_passenger_waiting_time": 408.2760236430097,
    "Average_passenger_in_vehicle_time": 2170.2544316155577,
    "Average_speed_busses": 0.03704166666666667,
    "Average_experienced_crowding": 103.53871905280316,
    "Average_covariation_headway": 0.2598561108228007,
    "Average_covariation_headway_stops": {
        "H": 0.21777916091908026,
        "G": 0.18065622246026092,
        "J": 0.1917814426905063,
        "K": 0.1911557031400277,
        "A": 0.1611753724720366,
        "I": 0.1937147895288318,
        "C": 0.13780185724418312,
        "L": 0.16038361093086623,
        "B": 0.12976629991097177,
        "D": 0.10999633938344835,
        "E": 0.10176872784840346,
        "F": 0.12621742646942255
    },
    "Average_excess_waiting_time": {
        "H": 147.7830389207419,
        "G": 145.81216087140047,
        "J": 143.50082572086865,
        "K": 140.36592674878364,
        "A": 136.15640944188476,
        "I": 146.43671389202092,
        "C": 134.70082789304513,
        "L": 138.54486832986356,
        "B": 135.69552280347148,
        "D": 134.90380417469657,
        "E": 137.01926632985982,
        "F": 141.89379041401975
    },
    "Holding_per_stop": {
        "H": 84.32432432432432,
        "G": 95.75342465753425,
        "J": 75.4054054054054,
        "K": 74.8,
        "A": 81.6,
        "I": 81.48648648648648,
        "C": 104,
        "L": 70.54054054054055,
        "B": 100.94594594594595,
        "D": 103.78378378378379,
        "E": 101.75675675675676,
        "F": 108.4931506849315
    },
    "Actions_tfl_edges": {},
    "Load_per_bus_per_stop": {
        "bus2": {
            "H": 116.61538461538461,
            "I": 117.53846153846153,
            "J": 112.3076923076923,
            "K": 99.53846153846153,
            "L": 87.84615384615384,
            "A": 79.41666666666667,
            "B": 68.25,
            "C": 62.416666666666664,
            "D": 56.416666666666664,
            "E": 54.333333333333336,
            "F": 80.5,
            "G": 114.08333333333333
        },
        "bus1": {
            "G": 120,
            "H": 129.53846153846155,
            "I": 127.53846153846153,
            "J": 121.08333333333333,
            "K": 112,
            "L": 99.58333333333333,
            "A": 86.83333333333333,
            "B": 75.66666666666667,
            "C": 67.75,
            "D": 62.333333333333336,
            "E": 58.416666666666664,
            "F": 86.41666666666667
        },
        "bus3": {
            "J": 114.84615384615384,
            "K": 103,
            "L": 91.38461538461539,
            "A": 80.23076923076923,
            "B": 69,
            "C": 59.833333333333336,
            "D": 56.333333333333336,
            "E": 55,
            "F": 85.41666666666667,
            "G": 127.75,
            "H": 138.25,
            "I": 130.5
        },
        "bus4": {
            "K": 102,
            "L": 91.92307692307692,
            "A": 82,
            "B": 68.53846153846153,
            "C": 62.38461538461539,
            "D": 57.583333333333336,
            "E": 56.916666666666664,
            "F": 85.66666666666667,
            "G": 126.33333333333333,
            "H": 135.41666666666666,
            "I": 132,
            "J": 122.75
        },
        "bus5": {
            "A": 84.07692307692308,
            "B": 69.84615384615384,
            "C": 63.84615384615385,
            "D": 60.76923076923077,
            "E": 57.07692307692308,
            "F": 88.83333333333333,
            "G": 132.25,
            "H": 141.25,
            "I": 137.41666666666666,
            "J": 130.5,
            "K": 120.25,
            "L": 105.66666666666667
        },
        "bus0": {
            "C": 65.53846153846153,
            "D": 63.07692307692308,
            "E": 63.07692307692308,
            "F": 94.07692307692308,
            "G": 134,
            "H": 144.25,
            "I": 140.66666666666666,
            "J": 131.41666666666666,
            "K": 118,
            "L": 105,
            "A": 91.33333333333333,
            "B": 79.5
        }
    },
    "Obs_and_actions_busses": {
        "2": -72.16819229297596,
        "4": 67.8359306098074,
        "3": -11.089285712321255,
        "5": 232.2528315966511,
        "0": -608.2438178358316
    },
    "Obs_and_actions_tfls": {}
}