{
    "Average_holding_time": 41.39834406623735,
    "Average_holding_actions": [
        21,
        680,
        370,
        0,
        16,
        0
    ],
    "Average_travel_time_passengers": 2120.427991932747,
    "Average_passenger_waiting_time": 329.23184734173753,
    "Average_passenger_in_vehicle_time": 1791.1961445909424,
    "Average_speed_busses": 0.04529166666666667,
    "Average_experienced_crowding": 60.14160598695814,
    "Average_covariation_headway": 0.1267636305272061,
    "Average_covariation_headway_stops": {
        "B": 0.1299643460942842,
        "G": 0.16775512455269614,
        "I": 0.1448228402376389,
        "J": 0.13670659731628124,
        "L": 0.12321884027764986,
        "A": 0.12234253789253484,
        "C": 0.10326986206511529,
        "K": 0.10676223854204521,
        "H": 0.14048103827386005,
        "D": 0.09715658924365701,
        "E": 0.11630597161146851,
        "F": 0.1432362897163444
    },
    "Average_excess_waiting_time": {
        "B": 65.87341065326672,
        "G": 74.62154553273837,
        "I": 72.40361178222253,
        "J": 69.91863715461523,
        "L": 68.78745881629442,
        "A": 66.87223881915497,
        "C": 65.4512285054218,
        "K": 69.35600579988045,
        "H": 74.19753217117227,
        "D": 67.019389313842,
        "E": 70.12315435857084,
        "F": 74.15353974046297
    },
    "Holding_per_stop": {
        "B": 40.76086956521739,
        "J": 41.53846153846154,
        "A": 40.21978021978022,
        "G": 42.666666666666664,
        "L": 41.20879120879121,
        "I": 41.666666666666664,
        "C": 40.879120879120876,
        "K": 42,
        "D": 39.56043956043956,
        "H": 42.666666666666664,
        "E": 42,
        "F": 41.666666666666664
    },
    "Actions_tfl_edges": {},
    "Load_per_bus_per_stop": {
        "bus0": {
            "B": 61.1875,
            "C": 62.5625,
            "D": 60.25,
            "E": 59.13333333333333,
            "F": 59.93333333333333,
            "G": 60.666666666666664,
            "H": 61.93333333333333,
            "I": 64.73333333333333,
            "J": 66,
            "K": 64.93333333333334,
            "L": 66.73333333333333,
            "A": 65.86666666666666
        },
        "bus1": {
            "G": 57.6875,
            "H": 58.733333333333334,
            "I": 60.46666666666667,
            "J": 61.53333333333333,
            "K": 62.8,
            "L": 61.666666666666664,
            "A": 64.13333333333334,
            "B": 63.86666666666667,
            "C": 61.6,
            "D": 62.13333333333333,
            "E": 62.06666666666667,
            "F": 61.733333333333334
        },
        "bus2": {
            "I": 53.13333333333333,
            "J": 53.733333333333334,
            "K": 53.93333333333333,
            "L": 55.06666666666667,
            "A": 55.733333333333334,
            "B": 55.666666666666664,
            "C": 58.6,
            "D": 60.8,
            "E": 60.6,
            "F": 62.46666666666667,
            "G": 62,
            "H": 59.666666666666664
        },
        "bus3": {
            "J": 56.9375,
            "K": 57.6,
            "L": 59.2,
            "A": 58.333333333333336,
            "B": 57.06666666666667,
            "C": 58.2,
            "D": 57.8,
            "E": 56.93333333333333,
            "F": 57,
            "G": 58.6,
            "H": 58.8,
            "I": 59.13333333333333
        },
        "bus4": {
            "L": 54.3125,
            "A": 54.375,
            "B": 54.333333333333336,
            "C": 54.4,
            "D": 54.13333333333333,
            "E": 56,
            "F": 56.666666666666664,
            "G": 57.53333333333333,
            "H": 57.86666666666667,
            "I": 57.06666666666667,
            "J": 55.53333333333333,
            "K": 57.666666666666664
        },
        "bus5": {
            "A": 55.75,
            "B": 58.5,
            "C": 59,
            "D": 58.2,
            "E": 58.06666666666667,
            "F": 58.2,
            "G": 59.666666666666664,
            "H": 60.333333333333336,
            "I": 62,
            "J": 61,
            "K": 60.733333333333334,
            "L": 59.333333333333336
        }
    },
    "Obs_and_actions_busses": {
        "0": -547.855651231334,
        "1": -27.52855093765355,
        "2": 49.395522270673055,
        "5": 377.4971947155876
    },
    "Obs_and_actions_tfls": {}
}