{
    "Average_holding_time": 41.966911764705884,
    "Average_holding_actions": [
        26,
        662,
        380,
        0,
        20,
        0
    ],
    "Average_travel_time_passengers": 2125.3197886020666,
    "Average_passenger_waiting_time": 333.07701096336297,
    "Average_passenger_in_vehicle_time": 1792.2427776386544,
    "Average_speed_busses": 0.04533333333333334,
    "Average_experienced_crowding": 60.12781209088854,
    "Average_covariation_headway": 0.13510287431479404,
    "Average_covariation_headway_stops": {
        "E": 0.16985956264308208,
        "F": 0.1657532721791701,
        "H": 0.1380856725201369,
        "J": 0.11299781301727721,
        "K": 0.12748086982957452,
        "L": 0.14037327791830503,
        "A": 0.11165696735715322,
        "G": 0.1356707756726436,
        "I": 0.10916474922782972,
        "B": 0.09953087576248087,
        "C": 0.11011390415793072,
        "D": 0.15093881156728253
    },
    "Average_excess_waiting_time": {
        "E": 75.94835248192385,
        "F": 73.50664889080616,
        "H": 70.89802684767477,
        "J": 68.97826765297867,
        "K": 68.2183391025834,
        "L": 67.49120460774043,
        "A": 66.61090717539105,
        "G": 72.36458864183862,
        "I": 70.49192495965224,
        "B": 67.71459388887865,
        "C": 70.20576910649754,
        "D": 75.6971433694481
    },
    "Holding_per_stop": {
        "L": 43.04347826086956,
        "F": 41.53846153846154,
        "H": 40.879120879120876,
        "K": 42.1978021978022,
        "E": 42.666666666666664,
        "J": 41.86813186813187,
        "A": 40.54945054945055,
        "G": 43.666666666666664,
        "I": 42,
        "B": 42.1978021978022,
        "C": 41.333333333333336,
        "D": 41.666666666666664
    },
    "Actions_tfl_edges": {},
    "Load_per_bus_per_stop": {
        "bus0": {
            "E": 55.53333333333333,
            "F": 56.93333333333333,
            "G": 57.13333333333333,
            "H": 59.2,
            "I": 59.333333333333336,
            "J": 58.93333333333333,
            "K": 58.666666666666664,
            "L": 60.333333333333336,
            "A": 61.93333333333333,
            "B": 60.53333333333333,
            "C": 62.333333333333336,
            "D": 60.6
        },
        "bus1": {
            "F": 60.5,
            "G": 61.06666666666667,
            "H": 61.666666666666664,
            "I": 63.4,
            "J": 63.06666666666667,
            "K": 61.53333333333333,
            "L": 62.06666666666667,
            "A": 62.06666666666667,
            "B": 61.13333333333333,
            "C": 62.266666666666666,
            "D": 61.13333333333333,
            "E": 62.8
        },
        "bus2": {
            "H": 56.625,
            "I": 55.733333333333334,
            "J": 56.4,
            "K": 57.4,
            "L": 56.86666666666667,
            "A": 56.266666666666666,
            "B": 56.666666666666664,
            "C": 56.86666666666667,
            "D": 57.06666666666667,
            "E": 59.86666666666667,
            "F": 58.666666666666664,
            "G": 60.2
        },
        "bus3": {
            "J": 55.4375,
            "K": 57.8,
            "L": 58.8,
            "A": 58.8,
            "B": 57.2,
            "C": 56.4,
            "D": 55,
            "E": 57,
            "F": 56.46666666666667,
            "G": 56.4,
            "H": 56.46666666666667,
            "I": 57.6
        },
        "bus4": {
            "K": 54.3125,
            "L": 56.1875,
            "A": 55.6,
            "B": 55.666666666666664,
            "C": 56.6,
            "D": 55.666666666666664,
            "E": 54.6,
            "F": 55.333333333333336,
            "G": 56.86666666666667,
            "H": 57.333333333333336,
            "I": 58.86666666666667,
            "J": 58.6
        },
        "bus5": {
            "L": 56.875,
            "A": 58.625,
            "B": 60,
            "C": 59.93333333333333,
            "D": 60.266666666666666,
            "E": 60.8,
            "F": 64.26666666666667,
            "G": 63,
            "H": 64.73333333333333,
            "I": 61.53333333333333,
            "J": 59.666666666666664,
            "K": 60.266666666666666
        }
    },
    "Obs_and_actions_busses": {
        "5": 374.3608044325155,
        "2": 48.33191905776057,
        "1": -29.487916886124882,
        "0": -516.8191468997943
    },
    "Obs_and_actions_tfls": {}
}