{
    "Average_holding_time": 40.81651376146789,
    "Average_holding_actions": [
        21,
        709,
        342,
        0,
        18,
        0
    ],
    "Average_travel_time_passengers": 2144.0926126078753,
    "Average_passenger_waiting_time": 328.71211427094596,
    "Average_passenger_in_vehicle_time": 1815.3804983368454,
    "Average_speed_busses": 0.04541666666666667,
    "Average_experienced_crowding": 61.16460090784589,
    "Average_covariation_headway": 0.12112730949065975,
    "Average_covariation_headway_stops": {
        "C": 0.09773910477151274,
        "D": 0.1076729341630519,
        "I": 0.1545496120323751,
        "J": 0.14996695915370273,
        "K": 0.14864894028021092,
        "A": 0.1144078801415203,
        "E": 0.08196854254134242,
        "L": 0.10949673018374557,
        "B": 0.08179654066445106,
        "F": 0.07265364258091075,
        "G": 0.08461263722002688,
        "H": 0.12699169967072155
    },
    "Average_excess_waiting_time": {
        "C": 65.66960798481722,
        "D": 64.48675055838464,
        "I": 74.01227332824203,
        "J": 71.6174229824033,
        "K": 69.69857589233936,
        "A": 67.04552518081368,
        "E": 64.79847838145753,
        "L": 68.35244480001035,
        "B": 66.76942837759168,
        "F": 66.03988473429354,
        "G": 68.51695994643774,
        "H": 73.32441510660755
    },
    "Holding_per_stop": {
        "D": 40.76086956521739,
        "K": 40.21978021978022,
        "J": 39.23076923076923,
        "A": 41.20879120879121,
        "I": 40,
        "C": 42.857142857142854,
        "E": 41.53846153846154,
        "L": 41.53846153846154,
        "B": 41.53846153846154,
        "F": 40.54945054945055,
        "G": 41,
        "H": 39.333333333333336
    },
    "Actions_tfl_edges": {},
    "Load_per_bus_per_stop": {
        "bus0": {
            "C": 57.125,
            "D": 58.25,
            "E": 59.6,
            "F": 58.13333333333333,
            "G": 58.53333333333333,
            "H": 60.13333333333333,
            "I": 60.666666666666664,
            "J": 61.06666666666667,
            "K": 62,
            "L": 61.86666666666667,
            "A": 60,
            "B": 59.53333333333333
        },
        "bus1": {
            "D": 57.9375,
            "E": 57.5625,
            "F": 56.4375,
            "G": 58.733333333333334,
            "H": 59.6,
            "I": 60.733333333333334,
            "J": 61.2,
            "K": 62.8,
            "L": 63.333333333333336,
            "A": 64.86666666666666,
            "B": 63.266666666666666,
            "C": 63.6
        },
        "bus2": {
            "I": 57,
            "J": 57.53333333333333,
            "K": 57.333333333333336,
            "L": 57.4,
            "A": 58.46666666666667,
            "B": 59.46666666666667,
            "C": 60.13333333333333,
            "D": 62.8,
            "E": 62.53333333333333,
            "F": 61.13333333333333,
            "G": 62,
            "H": 61.266666666666666
        },
        "bus3": {
            "J": 61.5,
            "K": 60.13333333333333,
            "L": 61.53333333333333,
            "A": 61.2,
            "B": 61.733333333333334,
            "C": 62,
            "D": 60.733333333333334,
            "E": 62.13333333333333,
            "F": 61.333333333333336,
            "G": 62.333333333333336,
            "H": 62.93333333333333,
            "I": 62.46666666666667
        },
        "bus4": {
            "K": 57.5,
            "L": 56.9375,
            "A": 57.86666666666667,
            "B": 57.86666666666667,
            "C": 59.333333333333336,
            "D": 58.06666666666667,
            "E": 58.86666666666667,
            "F": 59.53333333333333,
            "G": 59.13333333333333,
            "H": 60.333333333333336,
            "I": 62.86666666666667,
            "J": 61.666666666666664
        },
        "bus5": {
            "A": 57.5,
            "B": 57.625,
            "C": 57.86666666666667,
            "D": 59.2,
            "E": 60.86666666666667,
            "F": 60.53333333333333,
            "G": 60.2,
            "H": 61.53333333333333,
            "I": 63,
            "J": 62.4,
            "K": 61.666666666666664,
            "L": 60.13333333333333
        }
    },
    "Obs_and_actions_busses": {
        "5": 398.1021080224151,
        "0": -512.3720101566211,
        "1": -24.792636574900598,
        "2": 45.236312512864565
    },
    "Obs_and_actions_tfls": {}
}