{
    "Average_holding_time": 42.14944649446495,
    "Average_holding_actions": [
        18,
        656,
        390,
        13,
        7,
        0
    ],
    "Average_travel_time_passengers": 2120.1379349157614,
    "Average_passenger_waiting_time": 325.9356316645523,
    "Average_passenger_in_vehicle_time": 1794.2023032511393,
    "Average_speed_busses": 0.04516666666666667,
    "Average_experienced_crowding": 60.35944013810712,
    "Average_covariation_headway": 0.10569201566197603,
    "Average_covariation_headway_stops": {
        "B": 0.09595239920051844,
        "D": 0.08840010162297621,
        "F": 0.08800671440940974,
        "I": 0.09410008255309588,
        "J": 0.09801516422402949,
        "A": 0.09931445446879394,
        "C": 0.057783123035449295,
        "G": 0.06257409905356418,
        "K": 0.059927482543428404,
        "E": 0.07163189090403592,
        "L": 0.06372034863450315,
        "H": 0.05677822223048366
    },
    "Average_excess_waiting_time": {
        "B": 67.09921278734566,
        "D": 66.5588263854184,
        "F": 66.23733737176156,
        "I": 68.57738592462789,
        "J": 67.04600640001416,
        "A": 68.7769451405581,
        "C": 66.9240007435447,
        "G": 66.93211239074407,
        "K": 66.89482309923602,
        "E": 67.14003549377514,
        "L": 68.85496269928638,
        "H": 68.72562984940862
    },
    "Holding_per_stop": {
        "B": 41.20879120879121,
        "F": 41.86813186813187,
        "J": 43.84615384615385,
        "D": 40.879120879120876,
        "A": 44.333333333333336,
        "I": 41,
        "K": 43,
        "C": 42.333333333333336,
        "G": 40.333333333333336,
        "E": 42,
        "H": 41,
        "L": 44
    },
    "Actions_tfl_edges": {},
    "Load_per_bus_per_stop": {
        "bus0": {
            "B": 58.4375,
            "C": 58.93333333333333,
            "D": 59.13333333333333,
            "E": 60.6,
            "F": 60.86666666666667,
            "G": 62,
            "H": 60.86666666666667,
            "I": 61.86666666666667,
            "J": 59.666666666666664,
            "K": 60.4,
            "L": 60.4,
            "A": 60.4
        },
        "bus1": {
            "D": 60.375,
            "E": 58.4,
            "F": 59.733333333333334,
            "G": 59.6,
            "H": 59.86666666666667,
            "I": 61.53333333333333,
            "J": 62.6,
            "K": 63.86666666666667,
            "L": 64.73333333333333,
            "A": 65.26666666666667,
            "B": 66.26666666666667,
            "C": 63.86666666666667
        },
        "bus2": {
            "F": 54.0625,
            "G": 56.1875,
            "H": 57.46666666666667,
            "I": 57.93333333333333,
            "J": 59.4,
            "K": 59.13333333333333,
            "L": 59.266666666666666,
            "A": 61,
            "B": 59.46666666666667,
            "C": 57.93333333333333,
            "D": 55.6,
            "E": 57.46666666666667
        },
        "bus3": {
            "I": 53.733333333333334,
            "J": 54.2,
            "K": 56.93333333333333,
            "L": 58.266666666666666,
            "A": 58.2,
            "B": 57.2,
            "C": 57.6,
            "D": 57.666666666666664,
            "E": 58.53333333333333,
            "F": 58.733333333333334,
            "G": 58.2,
            "H": 58
        },
        "bus4": {
            "J": 56.0625,
            "K": 58.266666666666666,
            "L": 60.266666666666666,
            "A": 61.06666666666667,
            "B": 60.333333333333336,
            "C": 61.666666666666664,
            "D": 60.266666666666666,
            "E": 61.13333333333333,
            "F": 60.733333333333334,
            "G": 60.733333333333334,
            "H": 59.46666666666667,
            "I": 59.8
        },
        "bus5": {
            "A": 57.25,
            "B": 56.733333333333334,
            "C": 58.2,
            "D": 58.93333333333333,
            "E": 59,
            "F": 58.53333333333333,
            "G": 58.266666666666666,
            "H": 60,
            "I": 62.06666666666667,
            "J": 63.2,
            "K": 63.13333333333333,
            "L": 61.4
        }
    },
    "Obs_and_actions_busses": {
        "1": -31.973473546078793,
        "4": 10.36862251917615,
        "2": 47.33811344944613,
        "0": -233.99113664033885,
        "5": 317.1862018752829
    },
    "Obs_and_actions_tfls": {}
}
        "4": 10.100000002999513
    },
    "Obs_and_actions_tfls": {}
}0038,
        "0": -301.2138825315568,
        "5": 231.6189582499424
    },
    "Obs_and_actions_tfls": {}
}