{
    "Average_holding_time": 21.43612334801762,
    "Average_holding_actions": [
        552,
        507,
        0,
        76,
        0,
        0
    ],
    "Average_travel_time_passengers": 2038.7540900242864,
    "Average_passenger_waiting_time": 327.8366696953452,
    "Average_passenger_in_vehicle_time": 1710.917420328946,
    "Average_speed_busses": 0.04729166666666667,
    "Average_experienced_crowding": 60.49694459288121,
    "Average_covariation_headway": 0.30718096857127775,
    "Average_covariation_headway_stops": {
        "D": 0.25986151521673323,
        "A": 0.2754079714859943,
        "G": 0.2382200921907049,
        "L": 0.2758384756464694,
        "C": 0.2736893636908789,
        "B": 0.28021047947052846,
        "E": 0.22724820930524992,
        "H": 0.23351531465606618,
        "F": 0.2255946502916143,
        "I": 0.20997493502273346,
        "J": 0.22768710590789468,
        "K": 0.2574495320753671
    },
    "Average_excess_waiting_time": {
        "D": 56.03126146028012,
        "A": 63.467801628945836,
        "G": 54.973617358332774,
        "L": 65.46089942168044,
        "C": 60.1499572932201,
        "B": 62.55342959322638,
        "E": 53.207716398042976,
        "H": 55.6082208654135,
        "F": 54.76114536147833,
        "I": 54.23408872397465,
        "J": 58.491993495700115,
        "K": 64.13752473918242
    },
    "Holding_per_stop": {
        "D": 25.625,
        "G": 19.894736842105264,
        "A": 19.46808510638298,
        "C": 21.157894736842106,
        "B": 21.789473684210527,
        "L": 21.382978723404257,
        "E": 21.789473684210527,
        "H": 23.05263157894737,
        "F": 21.157894736842106,
        "I": 21.382978723404257,
        "J": 17.872340425531913,
        "K": 22.580645161290324
    },
    "Actions_tfl_edges": {
        "AB": [
            51,
            0,
            44
        ],
        "BC": [
            52,
            0,
            44
        ],
        "CD": [
            48,
            0,
            48
        ],
        "FG": [
            41,
            0,
            55
        ],
        "KL": [
            49,
            0,
            45
        ],
        "LA": [
            50,
            0,
            45
        ],
        "DE": [
            44,
            0,
            52
        ],
        "GH": [
            47,
            0,
            48
        ],
        "EF": [
            42,
            0,
            53
        ],
        "HI": [
            50,
            0,
            45
        ],
        "IJ": [
            41,
            0,
            53
        ],
        "JK": [
            45,
            0,
            49
        ]
    },
    "Load_per_bus_per_stop": {
        "bus2": {
            "D": 56.375,
            "E": 58.3125,
            "F": 60.375,
            "G": 59.625,
            "H": 61.25,
            "I": 63.625,
            "J": 64.6875,
            "K": 64.6875,
            "L": 63.1875,
            "A": 61.0625,
            "B": 60.5625,
            "C": 59.266666666666666
        },
        "bus5": {
            "A": 52.0625,
            "B": 53.3125,
            "C": 53.9375,
            "D": 54.3125,
            "E": 54.0625,
            "F": 56.125,
            "G": 57.8125,
            "H": 57,
            "I": 56.53333333333333,
            "J": 57,
            "K": 56.93333333333333,
            "L": 56.266666666666666
        },
        "bus3": {
            "G": 60.0625,
            "H": 60.4375,
            "I": 59.75,
            "J": 60.0625,
            "K": 58.625,
            "L": 58.125,
            "A": 60.0625,
            "B": 61,
            "C": 62.625,
            "D": 63.5,
            "E": 64.06666666666666,
            "F": 64.66666666666667
        },
        "bus4": {
            "L": 60.6875,
            "A": 61.25,
            "B": 62.0625,
            "C": 60.3125,
            "D": 59.0625,
            "E": 60.5,
            "F": 60.125,
            "G": 63.13333333333333,
            "H": 63.46666666666667,
            "I": 65.06666666666666,
            "J": 64.06666666666666,
            "K": 64.26666666666667
        },
        "bus1": {
            "C": 54.625,
            "D": 54.8125,
            "E": 55.6875,
            "F": 56.1875,
            "G": 57.9375,
            "H": 58.3125,
            "I": 60.375,
            "J": 61.5625,
            "K": 59.4375,
            "L": 57.3125,
            "A": 57.2,
            "B": 59.8
        },
        "bus0": {
            "B": 49.5625,
            "C": 49.9375,
            "D": 49,
            "E": 48.4375,
            "F": 48.375,
            "G": 48.25,
            "H": 47.625,
            "I": 49.625,
            "J": 48.375,
            "K": 47.6,
            "L": 50.2,
            "A": 51.2
        }
    },
    "Obs_and_actions_busses": {
        "1": 92.70521847269227,
        "4": 353.37274370618553,
        "0": -169.34060092055665
    },
    "Obs_and_actions_tfls": {
        "2": -47.37726178870093,
        "0": 317.55683075458734
    }
}-186.4513679811815
    },
    "Obs_and_actions_tfls": {
        "2": -38.03366020939485,
        "0": 319.855659882292
    }
}