{
    "Average_holding_time": 20.26178010471204,
    "Average_holding_actions": [
        549,
        538,
        0,
        59,
        0,
        0
    ],
    "Average_travel_time_passengers": 2031.1088668539164,
    "Average_passenger_waiting_time": 323.4282044814152,
    "Average_passenger_in_vehicle_time": 1707.6806623725097,
    "Average_speed_busses": 0.04775,
    "Average_experienced_crowding": 57.52754421310796,
    "Average_covariation_headway": 0.2799631559691296,
    "Average_covariation_headway_stops": {
        "E": 0.21611725639777657,
        "J": 0.2305157455398432,
        "C": 0.2289238763355368,
        "G": 0.21376369704057727,
        "L": 0.2223599667049361,
        "I": 0.212368254347024,
        "F": 0.20740874961046765,
        "H": 0.2098472026151557,
        "A": 0.21712966290210692,
        "K": 0.21314075806389174,
        "D": 0.2109222865969887,
        "B": 0.22592521607673455
    },
    "Average_excess_waiting_time": {
        "E": 50.709264685125106,
        "J": 49.77229809151129,
        "C": 51.84966992441264,
        "G": 50.323338849420225,
        "L": 48.818596841421254,
        "I": 50.25374015456987,
        "F": 51.5168451263695,
        "H": 51.09336337243059,
        "A": 49.663843058400914,
        "K": 49.25848070860343,
        "D": 51.970052540359234,
        "B": 53.29593926020573
    },
    "Holding_per_stop": {
        "J": 21.875,
        "E": 20.210526315789473,
        "G": 19.375,
        "L": 19.0625,
        "I": 16.42105263157895,
        "C": 21.5625,
        "F": 20.210526315789473,
        "H": 19.894736842105264,
        "A": 19.6875,
        "K": 21.5625,
        "D": 23.36842105263158,
        "B": 19.894736842105264
    },
    "Actions_tfl_edges": {
        "BC": [
            47,
            0,
            49
        ],
        "DE": [
            47,
            0,
            49
        ],
        "FG": [
            53,
            0,
            43
        ],
        "HI": [
            55,
            0,
            41
        ],
        "IJ": [
            49,
            0,
            47
        ],
        "KL": [
            47,
            0,
            50
        ],
        "JK": [
            49,
            0,
            47
        ],
        "EF": [
            46,
            0,
            49
        ],
        "GH": [
            48,
            0,
            47
        ],
        "LA": [
            47,
            0,
            49
        ],
        "CD": [
            40,
            0,
            56
        ],
        "AB": [
            46,
            0,
            50
        ]
    },
    "Load_per_bus_per_stop": {
        "bus1": {
            "E": 55.75,
            "F": 55.875,
            "G": 57.75,
            "H": 55.125,
            "I": 55.8125,
            "J": 56.5625,
            "K": 56.4375,
            "L": 57.5625,
            "A": 54.75,
            "B": 56.4375,
            "C": 57.4375,
            "D": 58.266666666666666
        },
        "bus4": {
            "J": 53.0625,
            "K": 52.25,
            "L": 53.25,
            "A": 54.3125,
            "B": 54.3125,
            "C": 55.6875,
            "D": 56.0625,
            "E": 55.5,
            "F": 55.3125,
            "G": 54.1875,
            "H": 54.9375,
            "I": 55.6875
        },
        "bus0": {
            "C": 55.125,
            "D": 56.125,
            "E": 56.5625,
            "F": 58.3125,
            "G": 58.25,
            "H": 57.125,
            "I": 56.5625,
            "J": 56.75,
            "K": 57.9375,
            "L": 57.3125,
            "A": 57.75,
            "B": 58.6
        },
        "bus2": {
            "G": 50.375,
            "H": 49.875,
            "I": 51,
            "J": 53.4375,
            "K": 53.8125,
            "L": 53.6875,
            "A": 54.375,
            "B": 54.4375,
            "C": 56.4375,
            "D": 54.375,
            "E": 55.5,
            "F": 56.266666666666666
        },
        "bus5": {
            "L": 57.625,
            "A": 58.8125,
            "B": 59.625,
            "C": 57.6875,
            "D": 56.125,
            "E": 55.75,
            "F": 57.125,
            "G": 58.125,
            "H": 56.9375,
            "I": 56.6875,
            "J": 58,
            "K": 60.5
        },
        "bus3": {
            "I": 49.9375,
            "J": 52.875,
            "K": 54.5,
            "L": 56.125,
            "A": 56.0625,
            "B": 56.0625,
            "C": 55.5625,
            "D": 57.75,
            "E": 56.4375,
            "F": 55.3125,
            "G": 53.75,
            "H": 51.8
        }
    },
    "Obs_and_actions_busses": {
        "1": 90.76688246610107,
        "0": -147.52910954440415,
        "4": 312.15917652016765
    },
    "Obs_and_actions_tfls": {
        "0": 304.3528920811387,
        "2": -31.59263115630285
    }
}actions_busses": {
        "4": 361.28003663741276,
        "1": 93.21449061267953,
        "0": -162.0930436877391
    },
    "Obs_and_actions_tfls": {
        "2": -33.081917141909905,
        "0": 310.9694365955258
    }
}