{
    "Average_holding_time": 21.300527240773288,
    "Average_holding_actions": [
        552,
        512,
        0,
        74,
        0,
        0
    ],
    "Average_travel_time_passengers": 2041.4141319219973,
    "Average_passenger_waiting_time": 323.6655523956096,
    "Average_passenger_in_vehicle_time": 1717.748579526381,
    "Average_speed_busses": 0.04741666666666667,
    "Average_experienced_crowding": 59.45874060111732,
    "Average_covariation_headway": 0.3025408812092009,
    "Average_covariation_headway_stops": {
        "A": 0.22238882630535187,
        "F": 0.22913312780332643,
        "B": 0.24200431753037446,
        "G": 0.21235184489012995,
        "L": 0.22562720566170386,
        "J": 0.2114522297508624,
        "H": 0.1920196841619591,
        "C": 0.2250442418922586,
        "K": 0.20462243446923303,
        "I": 0.18912640929547778,
        "D": 0.2374282337258331,
        "E": 0.2584835574894446
    },
    "Average_excess_waiting_time": {
        "A": 51.804430693403276,
        "F": 55.03894752199409,
        "B": 52.68637367831201,
        "G": 50.795290748887055,
        "L": 55.02143319232795,
        "J": 52.70388149421899,
        "H": 49.68599301820194,
        "C": 51.71790773045643,
        "K": 54.061238239486556,
        "I": 51.332474028923286,
        "D": 55.263566743406955,
        "E": 60.48932436424411
    },
    "Holding_per_stop": {
        "A": 20.842105263157894,
        "B": 18.75,
        "G": 24.31578947368421,
        "J": 17.68421052631579,
        "F": 21.473684210526315,
        "L": 22.42105263157895,
        "H": 23.05263157894737,
        "C": 17.05263157894737,
        "K": 23.29787234042553,
        "I": 19.78723404255319,
        "D": 19.57894736842105,
        "E": 27.4468085106383
    },
    "Actions_tfl_edges": {
        "AB": [
            42,
            0,
            54
        ],
        "EF": [
            46,
            0,
            49
        ],
        "FG": [
            41,
            0,
            55
        ],
        "IJ": [
            45,
            0,
            50
        ],
        "KL": [
            37,
            0,
            58
        ],
        "LA": [
            40,
            0,
            56
        ],
        "BC": [
            44,
            0,
            52
        ],
        "GH": [
            43,
            0,
            52
        ],
        "JK": [
            47,
            0,
            48
        ],
        "HI": [
            42,
            0,
            53
        ],
        "CD": [
            51,
            0,
            44
        ],
        "DE": [
            48,
            0,
            47
        ]
    },
    "Load_per_bus_per_stop": {
        "bus5": {
            "A": 54.6875,
            "B": 55.5625,
            "C": 58.125,
            "D": 60.6875,
            "E": 60.375,
            "F": 60.3125,
            "G": 62.375,
            "H": 60.75,
            "I": 60.9375,
            "J": 59.8125,
            "K": 58.333333333333336,
            "L": 58
        },
        "bus1": {
            "F": 56.375,
            "G": 56.375,
            "H": 56.375,
            "I": 55.875,
            "J": 57.1875,
            "K": 55.75,
            "L": 54.9375,
            "A": 55.875,
            "B": 57.125,
            "C": 59.1875,
            "D": 60,
            "E": 58.666666666666664
        },
        "bus0": {
            "B": 55.8125,
            "C": 57.125,
            "D": 55.4375,
            "E": 57.125,
            "F": 58.8125,
            "G": 59.4375,
            "H": 59.5,
            "I": 60.1875,
            "J": 59.1875,
            "K": 60.5,
            "L": 61.6875,
            "A": 58.333333333333336
        },
        "bus2": {
            "G": 50.4375,
            "H": 49.8125,
            "I": 51.25,
            "J": 52.3125,
            "K": 53.875,
            "L": 55,
            "A": 56.1875,
            "B": 55.75,
            "C": 57,
            "D": 56,
            "E": 55.125,
            "F": 55.46666666666667
        },
        "bus4": {
            "L": 61.1875,
            "A": 63.6875,
            "B": 61.8125,
            "C": 61.0625,
            "D": 61,
            "E": 60.4375,
            "F": 59.1875,
            "G": 58.6875,
            "H": 56.8125,
            "I": 59.06666666666667,
            "J": 61.2,
            "K": 64.73333333333333
        },
        "bus3": {
            "J": 52.6875,
            "K": 50.9375,
            "L": 54.8125,
            "A": 56.125,
            "B": 58,
            "C": 57.5,
            "D": 58.9375,
            "E": 58.4375,
            "F": 59.1875,
            "G": 58.06666666666667,
            "H": 59.266666666666666,
            "I": 58.333333333333336
        }
    },
    "Obs_and_actions_busses": {
        "1": 101.40923018898644,
        "0": -166.39603794784898,
        "4": 329.98546133110784
    },
    "Obs_and_actions_tfls": {
        "2": -34.850627580697626,
        "0": 321.6666378822314
    }
}}6641031029
    },
    "Obs_and_actions_tfls": {
        "2": -36.980422890481336,
        "0": 315.4098116499363
    }
}