{
    "Average_holding_time": 21.52691968225949,
    "Average_holding_actions": [
        506,
        565,
        0,
        62,
        0,
        0
    ],
    "Average_travel_time_passengers": 2045.0612826996955,
    "Average_passenger_waiting_time": 323.9747870174706,
    "Average_passenger_in_vehicle_time": 1721.0864956822134,
    "Average_speed_busses": 0.04720833333333333,
    "Average_experienced_crowding": 58.9073705297063,
    "Average_covariation_headway": 0.29275593668417577,
    "Average_covariation_headway_stops": {
        "L": 0.2188760599947001,
        "I": 0.22677783257659365,
        "E": 0.20011402714245402,
        "C": 0.2259888864594064,
        "D": 0.20563603641961817,
        "K": 0.21051788929721874,
        "A": 0.2147758088989426,
        "F": 0.1879898863156184,
        "J": 0.19964083029427004,
        "B": 0.22352749534248648,
        "G": 0.20492692128131063,
        "H": 0.21019929178171498
    },
    "Average_excess_waiting_time": {
        "L": 52.51949164786856,
        "I": 56.05777438317881,
        "E": 49.709774641456306,
        "C": 55.329489544484204,
        "D": 51.89501182312887,
        "K": 53.10052742472533,
        "A": 53.89208712906867,
        "F": 49.68890015897847,
        "J": 54.258025311946426,
        "B": 56.758999709963746,
        "G": 53.37817165136977,
        "H": 55.579923989828046
    },
    "Holding_per_stop": {
        "L": 22.736842105263158,
        "E": 20.526315789473685,
        "D": 23.68421052631579,
        "K": 17.872340425531913,
        "I": 22.02127659574468,
        "C": 26.526315789473685,
        "A": 18.829787234042552,
        "F": 18.94736842105263,
        "B": 22.02127659574468,
        "J": 24.574468085106382,
        "G": 19.78723404255319,
        "H": 20.74468085106383
    },
    "Actions_tfl_edges": {
        "BC": [
            45,
            0,
            50
        ],
        "CD": [
            49,
            0,
            46
        ],
        "DE": [
            49,
            0,
            47
        ],
        "HI": [
            51,
            0,
            44
        ],
        "JK": [
            49,
            0,
            46
        ],
        "KL": [
            43,
            0,
            52
        ],
        "LA": [
            41,
            0,
            54
        ],
        "EF": [
            49,
            0,
            46
        ],
        "IJ": [
            51,
            0,
            43
        ],
        "AB": [
            51,
            0,
            43
        ],
        "FG": [
            49,
            0,
            46
        ],
        "GH": [
            46,
            0,
            48
        ]
    },
    "Load_per_bus_per_stop": {
        "bus5": {
            "L": 53.6875,
            "A": 55.125,
            "B": 57.3125,
            "C": 58.5625,
            "D": 59.1875,
            "E": 57.6875,
            "F": 58.0625,
            "G": 56.5,
            "H": 56.1875,
            "I": 55.06666666666667,
            "J": 54.733333333333334,
            "K": 55.13333333333333
        },
        "bus3": {
            "I": 55.5625,
            "J": 55.5625,
            "K": 56.375,
            "L": 57.5,
            "A": 58.9375,
            "B": 59.4375,
            "C": 61.5,
            "D": 63.0625,
            "E": 63.93333333333333,
            "F": 61.733333333333334,
            "G": 60.8,
            "H": 60.53333333333333
        },
        "bus2": {
            "E": 56.25,
            "F": 58.0625,
            "G": 58.0625,
            "H": 59.4375,
            "I": 61.5,
            "J": 61.0625,
            "K": 64.0625,
            "L": 64.75,
            "A": 64.625,
            "B": 62.75,
            "C": 61.3125,
            "D": 60.06666666666667
        },
        "bus0": {
            "C": 53.375,
            "D": 52.25,
            "E": 51.875,
            "F": 52.625,
            "G": 53.4375,
            "H": 54.9375,
            "I": 54.375,
            "J": 55.5,
            "K": 55.266666666666666,
            "L": 56.13333333333333,
            "A": 55.53333333333333,
            "B": 56.733333333333334
        },
        "bus1": {
            "D": 51,
            "E": 49.875,
            "F": 50.0625,
            "G": 51.4375,
            "H": 50.6875,
            "I": 50,
            "J": 49.6875,
            "K": 49.1875,
            "L": 50.875,
            "A": 50.25,
            "B": 51.2,
            "C": 52.93333333333333
        },
        "bus4": {
            "K": 57.6875,
            "L": 55.4375,
            "A": 54.6875,
            "B": 54.625,
            "C": 57.5625,
            "D": 59.0625,
            "E": 61.5,
            "F": 63,
            "G": 64.06666666666666,
            "H": 63.13333333333333,
            "I": 61.6,
            "J": 61.8
        }
    },
    "Obs_and_actions_busses": {
        "0": -171.49921967606494,
        "1": 94.35799595561306,
        "4": 321.12805289754976
    },
    "Obs_and_actions_tfls": {
        "0": 308.2591253894455,
        "2": -38.265234569023086
    }
}