{
    "Average_holding_time": 19.586994727592266,
    "Average_holding_actions": [
        545,
        543,
        0,
        50,
        0,
        0
    ],
    "Average_travel_time_passengers": 2053.9984446769263,
    "Average_passenger_waiting_time": 324.7607004302784,
    "Average_passenger_in_vehicle_time": 1729.2377442466643,
    "Average_speed_busses": 0.04741666666666667,
    "Average_experienced_crowding": 58.018366868092734,
    "Average_covariation_headway": 0.27299592465987826,
    "Average_covariation_headway_stops": {
        "D": 0.1840298710616921,
        "H": 0.21129894818368963,
        "A": 0.22909022446213861,
        "K": 0.22527434837813787,
        "L": 0.22719431455304573,
        "C": 0.1925952649842548,
        "B": 0.2069659284944991,
        "E": 0.1702176617527011,
        "I": 0.19408149961484972,
        "F": 0.17132410175926194,
        "J": 0.1994701229295508,
        "G": 0.17265085584537238
    },
    "Average_excess_waiting_time": {
        "D": 46.098214451627484,
        "H": 51.985468309599355,
        "A": 52.394740561447634,
        "K": 56.12549010634041,
        "L": 54.293768878156754,
        "C": 48.80220044829116,
        "B": 51.87568154821503,
        "E": 45.087835224497155,
        "I": 51.356890542645544,
        "F": 47.18520999996963,
        "J": 53.52375039091868,
        "G": 49.369777184294946
    },
    "Holding_per_stop": {
        "D": 19.375,
        "A": 19.6875,
        "H": 18,
        "L": 19.894736842105264,
        "K": 21.70212765957447,
        "C": 19.894736842105264,
        "B": 20.842105263157894,
        "E": 17.68421052631579,
        "I": 20.106382978723403,
        "F": 20.526315789473685,
        "J": 20.425531914893618,
        "G": 16.914893617021278
    },
    "Actions_tfl_edges": {
        "BC": [
            45,
            0,
            51
        ],
        "CD": [
            44,
            0,
            52
        ],
        "GH": [
            43,
            0,
            52
        ],
        "JK": [
            49,
            0,
            46
        ],
        "KL": [
            50,
            0,
            45
        ],
        "LA": [
            53,
            0,
            43
        ],
        "DE": [
            44,
            0,
            52
        ],
        "AB": [
            40,
            0,
            56
        ],
        "HI": [
            49,
            0,
            46
        ],
        "EF": [
            49,
            0,
            46
        ],
        "IJ": [
            51,
            0,
            43
        ],
        "FG": [
            44,
            0,
            51
        ]
    },
    "Load_per_bus_per_stop": {
        "bus1": {
            "D": 55.4375,
            "E": 56.875,
            "F": 57.5,
            "G": 58.4375,
            "H": 60.0625,
            "I": 58.6875,
            "J": 60.1875,
            "K": 59.8125,
            "L": 58.1875,
            "A": 58.25,
            "B": 59.4375,
            "C": 58.93333333333333
        },
        "bus2": {
            "H": 48.9375,
            "I": 49.75,
            "J": 53.125,
            "K": 55,
            "L": 55.25,
            "A": 56.5625,
            "B": 57.6875,
            "C": 58.3125,
            "D": 56.5625,
            "E": 55.86666666666667,
            "F": 54,
            "G": 52.6
        },
        "bus5": {
            "A": 49.25,
            "B": 50,
            "C": 50.875,
            "D": 53.375,
            "E": 52.5625,
            "F": 53.3125,
            "G": 54.3125,
            "H": 54.75,
            "I": 54.25,
            "J": 54.25,
            "K": 52.93333333333333,
            "L": 53.2
        },
        "bus3": {
            "K": 55.4375,
            "L": 57.375,
            "A": 58.25,
            "B": 58.8125,
            "C": 58.3125,
            "D": 59.25,
            "E": 60.5,
            "F": 61.3125,
            "G": 59.266666666666666,
            "H": 57.86666666666667,
            "I": 57.6,
            "J": 57.733333333333334
        },
        "bus4": {
            "L": 53.625,
            "A": 56.5625,
            "B": 59.9375,
            "C": 59.5,
            "D": 58.5,
            "E": 56.75,
            "F": 54.8125,
            "G": 54.125,
            "H": 55.4375,
            "I": 55.375,
            "J": 55.13333333333333,
            "K": 55.53333333333333
        },
        "bus0": {
            "C": 55.0625,
            "D": 54.8125,
            "E": 56,
            "F": 55.625,
            "G": 55.75,
            "H": 55.0625,
            "I": 57.8125,
            "J": 58.625,
            "K": 60.375,
            "L": 58.375,
            "A": 57.5625,
            "B": 58.4
        }
    },
    "Obs_and_actions_busses": {
        "0": -156.59605039588405,
        "1": 99.26408161343784,
        "4": 347.2275991200174
    },
    "Obs_and_actions_tfls": {
        "0": 319.03134206874574,
        "2": -44.5841304703997
    }
} 100.95269174952078,
        "0": -177.85275643142114,
        "3": -702.1300711684429
    },
    "Obs_and_actions_tfls": {
        "0": 311.05940430393764,
        "2": -47.58965935640702
    }
}