{
    "Average_holding_time": 19.868766404199476,
    "Average_holding_actions": [
        557,
        529,
        0,
        57,
        0,
        0
    ],
    "Average_travel_time_passengers": 2029.9924166070753,
    "Average_passenger_waiting_time": 321.2142151833017,
    "Average_passenger_in_vehicle_time": 1708.77820142379,
    "Average_speed_busses": 0.047625,
    "Average_experienced_crowding": 56.62538948607998,
    "Average_covariation_headway": 0.26711833922989303,
    "Average_covariation_headway_stops": {
        "A": 0.23204694728598932,
        "L": 0.2058471211768382,
        "E": 0.19073900394609827,
        "G": 0.17930456662828342,
        "D": 0.20619008639072753,
        "K": 0.18942643859163572,
        "B": 0.1936497009144674,
        "F": 0.1709020395867136,
        "H": 0.17082679352276212,
        "C": 0.1876219555707599,
        "I": 0.18608020629979835,
        "J": 0.20125615542544648
    },
    "Average_excess_waiting_time": {
        "A": 51.050453010204706,
        "L": 49.09076744153293,
        "E": 45.63211553831195,
        "G": 44.51414848264852,
        "D": 49.27692523697897,
        "K": 49.54439851280256,
        "B": 47.470680891546124,
        "F": 45.344733445918564,
        "H": 45.22951159965214,
        "C": 48.51501338034484,
        "I": 48.69484168966244,
        "J": 52.16865813380974
    },
    "Holding_per_stop": {
        "A": 21.875,
        "E": 16.875,
        "L": 19.894736842105264,
        "G": 17.1875,
        "D": 25.894736842105264,
        "B": 26.5625,
        "F": 19.263157894736842,
        "K": 19.57894736842105,
        "H": 17.05263157894737,
        "C": 17.36842105263158,
        "I": 18.31578947368421,
        "J": 18.51063829787234
    },
    "Actions_tfl_edges": {
        "CD": [
            41,
            0,
            55
        ],
        "DE": [
            43,
            0,
            53
        ],
        "FG": [
            47,
            0,
            49
        ],
        "JK": [
            45,
            0,
            50
        ],
        "KL": [
            47,
            0,
            49
        ],
        "LA": [
            52,
            0,
            44
        ],
        "AB": [
            44,
            0,
            52
        ],
        "EF": [
            48,
            0,
            48
        ],
        "GH": [
            51,
            0,
            45
        ],
        "BC": [
            39,
            0,
            57
        ],
        "HI": [
            49,
            0,
            46
        ],
        "IJ": [
            51,
            0,
            44
        ]
    },
    "Load_per_bus_per_stop": {
        "bus5": {
            "A": 53.375,
            "B": 53.875,
            "C": 54.5625,
            "D": 55.8125,
            "E": 57.25,
            "F": 57.1875,
            "G": 57.25,
            "H": 56.6875,
            "I": 56.1875,
            "J": 57,
            "K": 57.1875,
            "L": 56.733333333333334
        },
        "bus4": {
            "L": 50.6875,
            "A": 52.8125,
            "B": 51.75,
            "C": 52,
            "D": 53.375,
            "E": 53.5625,
            "F": 53.3125,
            "G": 55.0625,
            "H": 56,
            "I": 54.75,
            "J": 55.125,
            "K": 53.4
        },
        "bus1": {
            "E": 53.625,
            "F": 56,
            "G": 55,
            "H": 54.5,
            "I": 53.8125,
            "J": 54.6875,
            "K": 56.4375,
            "L": 56.5,
            "A": 56.3125,
            "B": 56.625,
            "C": 56.6875,
            "D": 57
        },
        "bus2": {
            "G": 54.875,
            "H": 53.9375,
            "I": 55.875,
            "J": 57.4375,
            "K": 57.875,
            "L": 57.25,
            "A": 58.25,
            "B": 57.5625,
            "C": 56.5625,
            "D": 59.375,
            "E": 59.9375,
            "F": 60.8125
        },
        "bus0": {
            "D": 52.625,
            "E": 55.1875,
            "F": 55.5,
            "G": 56.9375,
            "H": 57.8125,
            "I": 57.3125,
            "J": 59.4375,
            "K": 60.875,
            "L": 60.9375,
            "A": 59.875,
            "B": 59.9375,
            "C": 57
        },
        "bus3": {
            "K": 49.75,
            "L": 49.8125,
            "A": 50.75,
            "B": 50,
            "C": 51.375,
            "D": 53.125,
            "E": 52.625,
            "F": 50.5625,
            "G": 51.6875,
            "H": 51.75,
            "I": 53.266666666666666,
            "J": 53.2
        }
    },
    "Obs_and_actions_busses": {
        "1": 97.96382575051943,
        "4": 312.029236612908,
        "0": -150.40775413033768
    },
    "Obs_and_actions_tfls": {
        "0": 316.5679107176709,
        "2": -34.87098687129751
    }
}
        "1": 98.8733332975632,
        "0": -170.87463822471068
    },
    "Obs_and_actions_tfls": {
        "0": 318.08851288687424,
        "2": -35.82976274481714
    }
}