{
    "Average_holding_time": 22.486772486772487,
    "Average_holding_actions": [
        543,
        509,
        0,
        69,
        13,
        0
    ],
    "Average_travel_time_passengers": 2049.043874085396,
    "Average_passenger_waiting_time": 325.2630580099063,
    "Average_passenger_in_vehicle_time": 1723.780816075456,
    "Average_speed_busses": 0.04725,
    "Average_experienced_crowding": 59.26426956944801,
    "Average_covariation_headway": 0.29295203591379443,
    "Average_covariation_headway_stops": {
        "A": 0.2015948592372881,
        "B": 0.20144690746428387,
        "L": 0.22381028238013692,
        "D": 0.21430856679995278,
        "I": 0.24382920753061338,
        "F": 0.20983960788483663,
        "C": 0.210241948115812,
        "E": 0.2044602008218717,
        "G": 0.20455970863647538,
        "J": 0.2281336233802446,
        "H": 0.22682112061425747,
        "K": 0.23120995587822024
    },
    "Average_excess_waiting_time": {
        "A": 52.08593018800326,
        "B": 51.62680651741033,
        "L": 56.886337358585365,
        "D": 52.79936820364156,
        "I": 57.18791999354585,
        "F": 51.35432230131721,
        "C": 54.332547930581484,
        "E": 52.400699916657004,
        "G": 52.298184419029326,
        "J": 56.66096428383054,
        "H": 56.402537846506334,
        "K": 58.5086425338053
    },
    "Holding_per_stop": {
        "B": 21.789473684210527,
        "D": 21.789473684210527,
        "A": 19.894736842105264,
        "F": 22.736842105263158,
        "I": 24.94736842105263,
        "L": 27.76595744680851,
        "C": 19.148936170212767,
        "E": 20.106382978723403,
        "G": 23.05263157894737,
        "J": 23.29787234042553,
        "H": 21.70212765957447,
        "K": 23.617021276595743
    },
    "Actions_tfl_edges": {
        "AB": [
            48,
            0,
            47
        ],
        "CD": [
            42,
            0,
            53
        ],
        "EF": [
            48,
            0,
            47
        ],
        "HI": [
            47,
            0,
            48
        ],
        "KL": [
            49,
            0,
            46
        ],
        "LA": [
            51,
            0,
            44
        ],
        "BC": [
            44,
            0,
            51
        ],
        "DE": [
            48,
            0,
            47
        ],
        "FG": [
            52,
            0,
            43
        ],
        "IJ": [
            43,
            0,
            52
        ],
        "GH": [
            53,
            0,
            42
        ],
        "JK": [
            50,
            0,
            44
        ]
    },
    "Load_per_bus_per_stop": {
        "bus5": {
            "A": 53,
            "B": 55,
            "C": 56,
            "D": 56.375,
            "E": 56.3125,
            "F": 55.8125,
            "G": 56.5625,
            "H": 57,
            "I": 58.4375,
            "J": 57.4,
            "K": 57.266666666666666,
            "L": 57.53333333333333
        },
        "bus0": {
            "B": 57.75,
            "C": 57.4375,
            "D": 57.25,
            "E": 56.5,
            "F": 58.125,
            "G": 59.1875,
            "H": 59.9375,
            "I": 58.9375,
            "J": 58.375,
            "K": 59.8125,
            "L": 60.6,
            "A": 61.46666666666667
        },
        "bus4": {
            "L": 55.375,
            "A": 55.9375,
            "B": 56.875,
            "C": 56.1875,
            "D": 56.8125,
            "E": 55.75,
            "F": 55.25,
            "G": 57.375,
            "H": 58.93333333333333,
            "I": 59.53333333333333,
            "J": 59.333333333333336,
            "K": 58.266666666666666
        },
        "bus1": {
            "D": 54.5,
            "E": 57,
            "F": 57,
            "G": 56.1875,
            "H": 56.6875,
            "I": 57.1875,
            "J": 56.25,
            "K": 55.875,
            "L": 55.1875,
            "A": 55.375,
            "B": 55.266666666666666,
            "C": 57.86666666666667
        },
        "bus3": {
            "I": 54.5625,
            "J": 54.5,
            "K": 53.6875,
            "L": 52.9375,
            "A": 52.625,
            "B": 52.3125,
            "C": 52.5,
            "D": 54.6875,
            "E": 55.53333333333333,
            "F": 55.2,
            "G": 57.4,
            "H": 55.86666666666667
        },
        "bus2": {
            "F": 61.0625,
            "G": 60.125,
            "H": 60.4375,
            "I": 62.125,
            "J": 61.5625,
            "K": 59.8125,
            "L": 60.6875,
            "A": 62.125,
            "B": 62.9375,
            "C": 61.8,
            "D": 65.06666666666666,
            "E": 64.06666666666666
        }
    },
    "Obs_and_actions_busses": {
        "0": -163.14965535630208,
        "1": 92.95235655441837,
        "4": 328.21948532194926,
        "5": 241.7345568057117
    },
    "Obs_and_actions_tfls": {
        "2": -37.030408687216756,
        "0": 313.87289620938066
    }
}