{
    "Average_holding_time": 22.186666666666667,
    "Average_holding_actions": [
        543,
        505,
        0,
        58,
        19,
        0
    ],
    "Average_travel_time_passengers": 2050.6208252664824,
    "Average_passenger_waiting_time": 323.9796663883346,
    "Average_passenger_in_vehicle_time": 1726.6411588781366,
    "Average_speed_busses": 0.046875,
    "Average_experienced_crowding": 59.00387082086206,
    "Average_covariation_headway": 0.293741331657108,
    "Average_covariation_headway_stops": {
        "G": 0.21183154087602504,
        "B": 0.2637630783130552,
        "H": 0.20431044085217404,
        "I": 0.22740887452608635,
        "D": 0.20982248082571187,
        "L": 0.2353927598998476,
        "J": 0.2100847637912334,
        "E": 0.21031237066289557,
        "C": 0.23330125609446545,
        "A": 0.24179514002559507,
        "F": 0.19333783366065585,
        "K": 0.22139523389633753
    },
    "Average_excess_waiting_time": {
        "G": 56.562729407456914,
        "B": 62.63913287787108,
        "H": 52.76883646540949,
        "I": 54.621367172718806,
        "D": 55.33007374659468,
        "L": 59.01777880836863,
        "J": 53.96833848078825,
        "E": 56.63862967375502,
        "C": 59.678437635189084,
        "A": 61.14283515635236,
        "F": 56.10108045253884,
        "K": 57.50807112479754
    },
    "Holding_per_stop": {
        "I": 22.42105263157895,
        "D": 24.574468085106382,
        "B": 24.574468085106382,
        "H": 22.02127659574468,
        "L": 21.70212765957447,
        "G": 24.893617021276597,
        "J": 20.74468085106383,
        "E": 19.35483870967742,
        "C": 22.580645161290324,
        "A": 23.225806451612904,
        "F": 20,
        "K": 20.106382978723403
    },
    "Actions_tfl_edges": {
        "AB": [
            47,
            0,
            47
        ],
        "CD": [
            48,
            0,
            46
        ],
        "FG": [
            43,
            0,
            51
        ],
        "GH": [
            43,
            0,
            52
        ],
        "HI": [
            51,
            0,
            44
        ],
        "KL": [
            48,
            0,
            47
        ],
        "IJ": [
            48,
            0,
            47
        ],
        "DE": [
            41,
            0,
            53
        ],
        "BC": [
            45,
            0,
            49
        ],
        "LA": [
            51,
            0,
            43
        ],
        "JK": [
            42,
            0,
            52
        ],
        "EF": [
            39,
            0,
            54
        ]
    },
    "Load_per_bus_per_stop": {
        "bus2": {
            "G": 52.25,
            "H": 54.3125,
            "I": 55.375,
            "J": 56.875,
            "K": 56.9375,
            "L": 57.4375,
            "A": 58.06666666666667,
            "B": 57.733333333333334,
            "C": 56.8,
            "D": 54.13333333333333,
            "E": 54.666666666666664,
            "F": 55.13333333333333
        },
        "bus0": {
            "B": 56.375,
            "C": 56.8125,
            "D": 56.25,
            "E": 54.6875,
            "F": 56.8125,
            "G": 58.875,
            "H": 58.625,
            "I": 58.125,
            "J": 57.46666666666667,
            "K": 57.266666666666666,
            "L": 58.86666666666667,
            "A": 60.86666666666667
        },
        "bus3": {
            "H": 54.375,
            "I": 53.8125,
            "J": 54.0625,
            "K": 52.125,
            "L": 55.3125,
            "A": 55.9375,
            "B": 57.25,
            "C": 55.25,
            "D": 54.53333333333333,
            "E": 55.53333333333333,
            "F": 55.6,
            "G": 59.13333333333333
        },
        "bus4": {
            "I": 55.875,
            "J": 58.125,
            "K": 59.4375,
            "L": 60.375,
            "A": 60.375,
            "B": 60.9375,
            "C": 59.75,
            "D": 60,
            "E": 60.666666666666664,
            "F": 61.266666666666666,
            "G": 62.733333333333334,
            "H": 61.06666666666667
        },
        "bus1": {
            "D": 54.125,
            "E": 53.8125,
            "F": 54.0625,
            "G": 57.4375,
            "H": 57.1875,
            "I": 56.8125,
            "J": 56,
            "K": 55.6875,
            "L": 57.6,
            "A": 56,
            "B": 56.4,
            "C": 56.8
        },
        "bus5": {
            "L": 53.25,
            "A": 54.0625,
            "B": 52.625,
            "C": 54.25,
            "D": 56.25,
            "E": 59,
            "F": 60.25,
            "G": 61.875,
            "H": 62.06666666666667,
            "I": 63.2,
            "J": 62.46666666666667,
            "K": 59.86666666666667
        }
    },
    "Obs_and_actions_busses": {
        "4": 336.92216563551096,
        "1": 97.06117168023631,
        "0": -163.83662249193603,
        "5": 239.26313539358836
    },
    "Obs_and_actions_tfls": {
        "2": -32.13802185751176,
        "0": 315.4844889132909
    }
}