{
    "Average_holding_time": 95.02173913043478,
    "Average_holding_actions": [
        0,
        136,
        0,
        326,
        50,
        0
    ],
    "Average_travel_time_passengers": 2489.0958912111364,
    "Average_passenger_waiting_time": 389.93917538229186,
    "Average_passenger_in_vehicle_time": 2099.1567158287558,
    "Average_speed_busses": 0.03833333333333333,
    "Average_experienced_crowding": 70.43681476116603,
    "Average_covariation_headway": 0.14729296804128228,
    "Average_covariation_headway_stops": {
        "C": 0.11835164102226535,
        "F": 0.12780127003323963,
        "G": 0.13342807260786765,
        "H": 0.1441586910254574,
        "I": 0.14806775623657656,
        "A": 0.14267271946189405,
        "J": 0.11238696471129547,
        "D": 0.102073497028353,
        "B": 0.10231813037721586,
        "K": 0.09879065911320144,
        "E": 0.09957303820690293,
        "L": 0.11310437006313856
    },
    "Average_excess_waiting_time": {
        "C": 128.21930439432805,
        "F": 131.77315161462275,
        "G": 129.5431992526377,
        "H": 128.27103843007296,
        "I": 126.23552617545835,
        "A": 130.8023467847799,
        "J": 124.81472739622058,
        "D": 129.34868977242314,
        "B": 129.8569214194681,
        "K": 126.76133649715922,
        "E": 131.78951239919917,
        "L": 130.37105977455923
    },
    "Holding_per_stop": {
        "I": 95,
        "C": 94.67532467532467,
        "G": 96.23376623376623,
        "H": 95.06493506493507,
        "A": 95.84415584415585,
        "F": 94.34210526315789,
        "J": 95.45454545454545,
        "D": 93.15789473684211,
        "B": 95.92105263157895,
        "K": 94.67532467532467,
        "E": 91.97368421052632,
        "L": 97.89473684210526
    },
    "Actions_tfl_edges": {},
    "Load_per_bus_per_stop": {
        "bus0": {
            "C": 67.15384615384616,
            "D": 69.23076923076923,
            "E": 71.92307692307692,
            "F": 72.53846153846153,
            "G": 73.07692307692308,
            "H": 70.76923076923077,
            "I": 72.23076923076923,
            "J": 74.15384615384616,
            "K": 73.53846153846153,
            "L": 74.16666666666667,
            "A": 72.91666666666667,
            "B": 72.41666666666667
        },
        "bus1": {
            "F": 64.61538461538461,
            "G": 67,
            "H": 70.23076923076923,
            "I": 68.46153846153847,
            "J": 67.92307692307692,
            "K": 66.76923076923077,
            "L": 67.07692307692308,
            "A": 67.92307692307692,
            "B": 68.58333333333333,
            "C": 69.66666666666667,
            "D": 68.5,
            "E": 69.83333333333333
        },
        "bus2": {
            "G": 62.92307692307692,
            "H": 63.15384615384615,
            "I": 64.53846153846153,
            "J": 64.15384615384616,
            "K": 64.84615384615384,
            "L": 64.07692307692308,
            "A": 64.46153846153847,
            "B": 64.92307692307692,
            "C": 65.07692307692308,
            "D": 64.61538461538461,
            "E": 65,
            "F": 66.16666666666667
        },
        "bus3": {
            "H": 69.46153846153847,
            "I": 69.76923076923077,
            "J": 70.53846153846153,
            "K": 71.84615384615384,
            "L": 71.38461538461539,
            "A": 73.76923076923077,
            "B": 73.15384615384616,
            "C": 72.46153846153847,
            "D": 72.76923076923077,
            "E": 69.92307692307692,
            "F": 70.07692307692308,
            "G": 73.66666666666667
        },
        "bus4": {
            "I": 65.15384615384616,
            "J": 63.76923076923077,
            "K": 64.38461538461539,
            "L": 66.3076923076923,
            "A": 67.38461538461539,
            "B": 68.84615384615384,
            "C": 70.15384615384616,
            "D": 70,
            "E": 70.53846153846153,
            "F": 70.38461538461539,
            "G": 69.84615384615384,
            "H": 71.53846153846153
        },
        "bus5": {
            "A": 70.76923076923077,
            "B": 71.61538461538461,
            "C": 71.23076923076923,
            "D": 70.76923076923077,
            "E": 70.84615384615384,
            "F": 69.61538461538461,
            "G": 73,
            "H": 73.46153846153847,
            "I": 72.07692307692308,
            "J": 73.3076923076923,
            "K": 74.66666666666667,
            "L": 75.08333333333333
        }
    },
    "Obs_and_actions_busses": {
        "3": -38.54634997209394,
        "4": 53.33809306589464,
        "5": 205.80701696962612,
        "1": -172.20822608756143
    },
    "Obs_and_actions_tfls": {}
}