{
    "Average_holding_time": 91.32116004296455,
    "Average_holding_actions": [
        0,
        165,
        0,
        299,
        36,
        0
    ],
    "Average_travel_time_passengers": 2467.8308152064074,
    "Average_passenger_waiting_time": 381.24674053451594,
    "Average_passenger_in_vehicle_time": 2086.584074671806,
    "Average_speed_busses": 0.03879166666666667,
    "Average_experienced_crowding": 69.9814104844234,
    "Average_covariation_headway": 0.1559416153355813,
    "Average_covariation_headway_stops": {
        "B": 0.11746584895075148,
        "F": 0.14211296566274179,
        "G": 0.14376378531456943,
        "H": 0.1457671550987452,
        "J": 0.12679160219614705,
        "K": 0.1344376983974686,
        "L": 0.10778243664567642,
        "C": 0.09559967350559882,
        "I": 0.11075015537544057,
        "A": 0.09648365407120381,
        "D": 0.08873814783328958,
        "E": 0.10123015414774889
    },
    "Average_excess_waiting_time": {
        "B": 122.68424362959956,
        "F": 130.3639453224855,
        "G": 127.99895750503487,
        "H": 125.68611945856117,
        "J": 123.11228105665083,
        "K": 121.71881178007305,
        "L": 121.3052318616592,
        "C": 123.394080446847,
        "I": 124.5205601144014,
        "A": 122.5333434269063,
        "D": 125.57659314739442,
        "E": 129.19753353516876
    },
    "Holding_per_stop": {
        "K": 92.3076923076923,
        "B": 91.53846153846153,
        "H": 94.23076923076923,
        "G": 91.16883116883118,
        "F": 92.33766233766234,
        "J": 92.3076923076923,
        "L": 89.61538461538461,
        "I": 90.76923076923077,
        "C": 88.07692307692308,
        "A": 95.38461538461539,
        "D": 88.83116883116882,
        "E": 89.21052631578948
    },
    "Actions_tfl_edges": {},
    "Load_per_bus_per_stop": {
        "bus0": {
            "B": 66.38461538461539,
            "C": 68.07692307692308,
            "D": 68.53846153846153,
            "E": 68.23076923076923,
            "F": 69,
            "G": 69.92307692307692,
            "H": 70.92307692307692,
            "I": 72.3076923076923,
            "J": 72.53846153846153,
            "K": 72.84615384615384,
            "L": 72.46153846153847,
            "A": 71
        },
        "bus1": {
            "F": 66.6923076923077,
            "G": 65.6923076923077,
            "H": 65.38461538461539,
            "I": 68.46153846153847,
            "J": 67.53846153846153,
            "K": 69.76923076923077,
            "L": 72.6923076923077,
            "A": 72.6923076923077,
            "B": 69,
            "C": 68.84615384615384,
            "D": 70.16666666666667,
            "E": 70.91666666666667
        },
        "bus2": {
            "G": 64.07692307692308,
            "H": 62.69230769230769,
            "I": 63.46153846153846,
            "J": 64.84615384615384,
            "K": 65.61538461538461,
            "L": 67.3076923076923,
            "A": 68.07692307692308,
            "B": 68.38461538461539,
            "C": 69.61538461538461,
            "D": 68.61538461538461,
            "E": 69.76923076923077,
            "F": 70.33333333333333
        },
        "bus3": {
            "H": 61.92307692307692,
            "I": 61.92307692307692,
            "J": 62.61538461538461,
            "K": 64.92307692307692,
            "L": 63.84615384615385,
            "A": 64.38461538461539,
            "B": 66.46153846153847,
            "C": 68.07692307692308,
            "D": 70.84615384615384,
            "E": 69.53846153846153,
            "F": 68.46153846153847,
            "G": 67
        },
        "bus4": {
            "J": 65.84615384615384,
            "K": 67.6923076923077,
            "L": 68.6923076923077,
            "A": 69.38461538461539,
            "B": 70.46153846153847,
            "C": 70.92307692307692,
            "D": 73.23076923076923,
            "E": 70.23076923076923,
            "F": 68.76923076923077,
            "G": 68.61538461538461,
            "H": 70.53846153846153,
            "I": 70.38461538461539
        },
        "bus5": {
            "K": 67.35714285714286,
            "L": 66.92307692307692,
            "A": 69.6923076923077,
            "B": 71.46153846153847,
            "C": 72.46153846153847,
            "D": 72.61538461538461,
            "E": 74.15384615384616,
            "F": 73.84615384615384,
            "G": 73.07692307692308,
            "H": 71.23076923076923,
            "I": 72.38461538461539,
            "J": 72.6923076923077
        }
    },
    "Obs_and_actions_busses": {
        "1": -152.95559541395494,
        "3": -33.28338176550047,
        "4": 59.846666667000115,
        "5": 259.0666167081427
    },
    "Obs_and_actions_tfls": {}
}