{
    "Average_holding_time": 96.66666666666667,
    "Average_holding_actions": [
        0,
        80,
        21,
        339,
        23,
        0
    ],
    "Average_travel_time_passengers": 2530.3069819517345,
    "Average_passenger_waiting_time": 386.892950447209,
    "Average_passenger_in_vehicle_time": 2143.4140315044397,
    "Average_speed_busses": 0.03825,
    "Average_experienced_crowding": 71.76038458690259,
    "Average_covariation_headway": 0.1333420041764126,
    "Average_covariation_headway_stops": {
        "B": 0.10783988621851831,
        "C": 0.11739634893283407,
        "G": 0.12830509312401916,
        "H": 0.1291775833426015,
        "J": 0.11224526819043136,
        "L": 0.10102849255326615,
        "I": 0.09581681858613343,
        "D": 0.07510968644163495,
        "K": 0.07605491590092939,
        "A": 0.0672103304433344,
        "E": 0.06764535259685509,
        "F": 0.08856513130813262
    },
    "Average_excess_waiting_time": {
        "B": 128.65786480929427,
        "C": 126.25748744650502,
        "G": 132.95139065461785,
        "H": 129.97518424449652,
        "J": 129.2002852673075,
        "L": 127.83072472609825,
        "I": 130.33725123522652,
        "D": 125.83464918145205,
        "K": 129.06709367024865,
        "A": 128.26779305783504,
        "E": 127.61631864017806,
        "F": 131.41940877489827
    },
    "Holding_per_stop": {
        "H": 96.23376623376623,
        "C": 94.28571428571429,
        "J": 96.23376623376623,
        "L": 95.84415584415585,
        "B": 96.23376623376623,
        "G": 96.3157894736842,
        "I": 97.89473684210526,
        "D": 98.57142857142857,
        "K": 93.94736842105263,
        "A": 98.6842105263158,
        "E": 99.07894736842105,
        "F": 96.71052631578948
    },
    "Actions_tfl_edges": {},
    "Load_per_bus_per_stop": {
        "bus0": {
            "B": 67.84615384615384,
            "C": 66.84615384615384,
            "D": 67.76923076923077,
            "E": 67.38461538461539,
            "F": 69.07692307692308,
            "G": 68.61538461538461,
            "H": 70.46153846153847,
            "I": 72.07692307692308,
            "J": 71.15384615384616,
            "K": 72,
            "L": 71.41666666666667,
            "A": 73.41666666666667
        },
        "bus1": {
            "C": 70.46153846153847,
            "D": 69.53846153846153,
            "E": 67.61538461538461,
            "F": 70.61538461538461,
            "G": 71.46153846153847,
            "H": 73.84615384615384,
            "I": 76.3076923076923,
            "J": 79.15384615384616,
            "K": 78.46153846153847,
            "L": 76.92307692307692,
            "A": 76.16666666666667,
            "B": 74.5
        },
        "bus2": {
            "G": 68.3076923076923,
            "H": 68.84615384615384,
            "I": 68.53846153846153,
            "J": 69.61538461538461,
            "K": 69.61538461538461,
            "L": 69.38461538461539,
            "A": 68.07692307692308,
            "B": 70.53846153846153,
            "C": 71.5,
            "D": 73.5,
            "E": 72.91666666666667,
            "F": 73.33333333333333
        },
        "bus3": {
            "H": 67.3076923076923,
            "I": 67.38461538461539,
            "J": 67.38461538461539,
            "K": 67,
            "L": 68.38461538461539,
            "A": 69.84615384615384,
            "B": 70.6923076923077,
            "C": 71.07692307692308,
            "D": 72.15384615384616,
            "E": 74.16666666666667,
            "F": 73.25,
            "G": 73.08333333333333
        },
        "bus4": {
            "J": 68.38461538461539,
            "K": 68.46153846153847,
            "L": 69.3076923076923,
            "A": 70.61538461538461,
            "B": 68.76923076923077,
            "C": 69.84615384615384,
            "D": 67,
            "E": 67.6923076923077,
            "F": 69.15384615384616,
            "G": 73.58333333333333,
            "H": 73.75,
            "I": 73.25
        },
        "bus5": {
            "L": 68.84615384615384,
            "A": 67,
            "B": 69.76923076923077,
            "C": 69.15384615384616,
            "D": 70.84615384615384,
            "E": 72.07692307692308,
            "F": 71,
            "G": 71.15384615384616,
            "H": 72.38461538461539,
            "I": 72.41666666666667,
            "J": 73.83333333333333,
            "K": 74.75
        }
    },
    "Obs_and_actions_busses": {
        "5": 269.5579960854407,
        "4": 52.58286855217681,
        "3": -34.66239908594932,
        "2": -88.52380952476223,
        "1": -186.1341703352005
    },
    "Obs_and_actions_tfls": {}
}