{
    "Average_holding_time": 90,
    "Average_holding_actions": [
        0,
        206,
        17,
        323,
        53,
        0
    ],
    "Average_travel_time_passengers": 2466.1419049847564,
    "Average_passenger_waiting_time": 383.688469948258,
    "Average_passenger_in_vehicle_time": 2082.453435036416,
    "Average_speed_busses": 0.03891666666666667,
    "Average_experienced_crowding": 69.92341011337001,
    "Average_covariation_headway": 0.16958941432524047,
    "Average_covariation_headway_stops": {
        "D": 0.13183090486231056,
        "H": 0.14243030860438355,
        "I": 0.15096624078207863,
        "J": 0.15158331347423035,
        "L": 0.12933023624655202,
        "A": 0.13996196763220223,
        "E": 0.10046434554655181,
        "K": 0.11683174562892987,
        "B": 0.11260728653353438,
        "C": 0.10596352078583736,
        "F": 0.09150798591964383,
        "G": 0.10558547891895492
    },
    "Average_excess_waiting_time": {
        "D": 122.13548509314995,
        "H": 128.07654464809428,
        "I": 126.87040566706906,
        "J": 124.3513717014747,
        "L": 121.87771307437418,
        "A": 120.76341321217154,
        "E": 121.94928550995797,
        "K": 123.40788996882333,
        "B": 120.39401835164762,
        "C": 122.28029714258656,
        "F": 123.72439416862142,
        "G": 126.99639595485382
    },
    "Holding_per_stop": {
        "D": 87.3076923076923,
        "J": 88.84615384615384,
        "A": 89.62025316455696,
        "I": 89.61538461538461,
        "L": 91.15384615384616,
        "H": 91.55844155844156,
        "B": 90.76923076923077,
        "E": 92.3076923076923,
        "K": 86.53846153846153,
        "C": 92.6923076923077,
        "F": 88.44155844155844,
        "G": 91.16883116883118
    },
    "Actions_tfl_edges": {},
    "Load_per_bus_per_stop": {
        "bus0": {
            "D": 67.53846153846153,
            "E": 68.61538461538461,
            "F": 69.61538461538461,
            "G": 70.92307692307692,
            "H": 74.84615384615384,
            "I": 77,
            "J": 75.07692307692308,
            "K": 75.92307692307692,
            "L": 75.46153846153847,
            "A": 74.15384615384616,
            "B": 72.92307692307692,
            "C": 73.46153846153847
        },
        "bus1": {
            "H": 64,
            "I": 63.61538461538461,
            "J": 64.46153846153847,
            "K": 66.53846153846153,
            "L": 66.61538461538461,
            "A": 66.53846153846153,
            "B": 68.3076923076923,
            "C": 69.15384615384616,
            "D": 70.53846153846153,
            "E": 70.38461538461539,
            "F": 70.3076923076923,
            "G": 71.08333333333333
        },
        "bus2": {
            "I": 67.53846153846153,
            "J": 68.6923076923077,
            "K": 67.38461538461539,
            "L": 67.84615384615384,
            "A": 67.3076923076923,
            "B": 66.92307692307692,
            "C": 67.61538461538461,
            "D": 65.3076923076923,
            "E": 68.53846153846153,
            "F": 69.84615384615384,
            "G": 68.53846153846153,
            "H": 72.6923076923077
        },
        "bus3": {
            "J": 60.69230769230769,
            "K": 61.84615384615385,
            "L": 63.53846153846154,
            "A": 69.23076923076923,
            "B": 70,
            "C": 71.84615384615384,
            "D": 70.76923076923077,
            "E": 69.23076923076923,
            "F": 69.53846153846153,
            "G": 67.84615384615384,
            "H": 67.23076923076923,
            "I": 66.23076923076923
        },
        "bus4": {
            "L": 67,
            "A": 64.15384615384616,
            "B": 64.46153846153847,
            "C": 66.07692307692308,
            "D": 69.53846153846153,
            "E": 69.46153846153847,
            "F": 70.46153846153847,
            "G": 70.07692307692308,
            "H": 67.76923076923077,
            "I": 68.46153846153847,
            "J": 69.07692307692308,
            "K": 71.61538461538461
        },
        "bus5": {
            "A": 66.92857142857143,
            "B": 64.92307692307692,
            "C": 64.92307692307692,
            "D": 66,
            "E": 66.92307692307692,
            "F": 66.76923076923077,
            "G": 68.07692307692308,
            "H": 68.3076923076923,
            "I": 71.07692307692308,
            "J": 71.6923076923077,
            "K": 73.61538461538461,
            "L": 72
        }
    },
    "Obs_and_actions_busses": {
        "1": -161.37992727693822,
        "3": -36.188062388655055,
        "4": 60.82208129161163,
        "2": -90.52941176352901,
        "5": 232.17850199854126
    },
    "Obs_and_actions_tfls": {}
}}