{
    "Average_holding_time": 94.39739413680782,
    "Average_holding_actions": [
        0,
        104,
        0,
        267,
        38,
        0
    ],
    "Average_travel_time_passengers": 2529.948938068895,
    "Average_passenger_waiting_time": 398.0146888349325,
    "Average_passenger_in_vehicle_time": 2131.934249233854,
    "Average_speed_busses": 0.038375,
    "Average_experienced_crowding": 73.25132798396088,
    "Average_covariation_headway": 0.18830237406143052,
    "Average_covariation_headway_stops": {
        "B": 0.2329739823462181,
        "C": 0.22816001946444645,
        "D": 0.22909487449992638,
        "E": 0.22658563152589822,
        "F": 0.21956494961907755,
        "H": 0.1958761161909613,
        "G": 0.19127586247074702,
        "I": 0.16893098120614383,
        "J": 0.15322077962209207,
        "K": 0.1587392207560734,
        "L": 0.17465982710939806,
        "A": 0.2089196258765818
    },
    "Average_excess_waiting_time": {
        "B": 148.58097053427224,
        "C": 145.24698686128988,
        "D": 142.78170625508676,
        "E": 139.66472663483876,
        "F": 135.26685088625322,
        "H": 131.9168095223826,
        "G": 133.40471547997544,
        "I": 130.68676755228466,
        "J": 130.86511158505868,
        "K": 134.3359172740178,
        "L": 139.5100391585126,
        "A": 146.93682899967303
    },
    "Holding_per_stop": {
        "F": 95,
        "H": 93.46153846153847,
        "C": 94.34210526315789,
        "D": 95.84415584415585,
        "E": 94.28571428571429,
        "B": 97.10526315789474,
        "G": 92.72727272727273,
        "I": 94.23076923076923,
        "J": 94.28571428571429,
        "K": 94.34210526315789,
        "L": 92.36842105263158,
        "A": 94.8
    },
    "Actions_tfl_edges": {},
    "Load_per_bus_per_stop": {
        "bus0": {
            "B": 63.07692307692308,
            "C": 63.07692307692308,
            "D": 61.23076923076923,
            "E": 63.53846153846154,
            "F": 66.07692307692308,
            "G": 67,
            "H": 66.84615384615384,
            "I": 68.15384615384616,
            "J": 68.25,
            "K": 69.41666666666667,
            "L": 69.66666666666667,
            "A": 68.08333333333333
        },
        "bus1": {
            "C": 67.84615384615384,
            "D": 66.92307692307692,
            "E": 67.38461538461539,
            "F": 71.15384615384616,
            "G": 73,
            "H": 72.3076923076923,
            "I": 72.61538461538461,
            "J": 71.6923076923077,
            "K": 69.61538461538461,
            "L": 71.5,
            "A": 71.58333333333333,
            "B": 73.5
        },
        "bus2": {
            "D": 62.92307692307692,
            "E": 64.84615384615384,
            "F": 64.76923076923077,
            "G": 64.15384615384616,
            "H": 64,
            "I": 65.23076923076923,
            "J": 66.84615384615384,
            "K": 67.15384615384616,
            "L": 68.76923076923077,
            "A": 69.6923076923077,
            "B": 69.33333333333333,
            "C": 68.33333333333333
        },
        "bus3": {
            "E": 64,
            "F": 63.46153846153846,
            "G": 65.38461538461539,
            "H": 66.53846153846153,
            "I": 66.6923076923077,
            "J": 68,
            "K": 68.92307692307692,
            "L": 68.92307692307692,
            "A": 68.15384615384616,
            "B": 67.76923076923077,
            "C": 71.6923076923077,
            "D": 70.41666666666667
        },
        "bus4": {
            "F": 68.76923076923077,
            "G": 67.92307692307692,
            "H": 67.07692307692308,
            "I": 67.07692307692308,
            "J": 67.84615384615384,
            "K": 69.15384615384616,
            "L": 71.3076923076923,
            "A": 68.92307692307692,
            "B": 71.61538461538461,
            "C": 73,
            "D": 72,
            "E": 72.53846153846153
        },
        "bus5": {
            "H": 75.38461538461539,
            "I": 79.46153846153847,
            "J": 80.92307692307692,
            "K": 81.07692307692308,
            "L": 83.38461538461539,
            "A": 81.61538461538461,
            "B": 82,
            "C": 81.23076923076923,
            "D": 84.38461538461539,
            "E": 83.15384615384616,
            "F": 83.38461538461539,
            "G": 82.23076923076923
        }
    },
    "Obs_and_actions_busses": {
        "3": -24.301556421498006,
        "4": 58.40006843224523,
        "5": 530.4423716952197,
        "1": -328.63769404358476
    },
    "Obs_and_actions_tfls": {}
}