{
    "Average_holding_time": 88.14893617021276,
    "Average_holding_actions": [
        0,
        271,
        0,
        300,
        92,
        0
    ],
    "Average_travel_time_passengers": 2450.662614265618,
    "Average_passenger_waiting_time": 372.416082270864,
    "Average_passenger_in_vehicle_time": 2078.246531994648,
    "Average_speed_busses": 0.03916666666666667,
    "Average_experienced_crowding": 70.02793781466228,
    "Average_covariation_headway": 0.17759304519299196,
    "Average_covariation_headway_stops": {
        "C": 0.1269341836232439,
        "F": 0.1313549364986926,
        "G": 0.13708068615234154,
        "J": 0.12725249064210697,
        "K": 0.13719458657088565,
        "A": 0.12501564832102874,
        "L": 0.10223001888902715,
        "H": 0.11006049448670936,
        "D": 0.10318838176174047,
        "B": 0.10330025113819247,
        "I": 0.09638994569555491,
        "E": 0.09841100445661248
    },
    "Average_excess_waiting_time": {
        "C": 120.50278594034637,
        "F": 123.15772949201403,
        "G": 121.47803441172948,
        "J": 122.90232916827898,
        "K": 121.10935018768186,
        "A": 120.28359596028366,
        "L": 120.62710710845761,
        "H": 120.35015166568803,
        "D": 120.51971757613529,
        "B": 120.74863925899382,
        "I": 121.95076425654469,
        "E": 122.52652229836343
    },
    "Holding_per_stop": {
        "K": 90.37974683544304,
        "G": 86.20253164556962,
        "C": 90.75949367088607,
        "A": 87.72151898734177,
        "F": 91.53846153846153,
        "J": 89.61538461538461,
        "L": 86.92307692307692,
        "H": 84.23076923076923,
        "D": 87.6923076923077,
        "B": 88.07692307692308,
        "I": 88.46153846153847,
        "E": 86.15384615384616
    },
    "Actions_tfl_edges": {},
    "Load_per_bus_per_stop": {
        "bus0": {
            "C": 66.14285714285714,
            "D": 67.23076923076923,
            "E": 69.76923076923077,
            "F": 68.61538461538461,
            "G": 71.38461538461539,
            "H": 69.6923076923077,
            "I": 71.46153846153847,
            "J": 71.07692307692308,
            "K": 69.15384615384616,
            "L": 69.92307692307692,
            "A": 70.92307692307692,
            "B": 70.84615384615384
        },
        "bus1": {
            "F": 64.61538461538461,
            "G": 67.84615384615384,
            "H": 71.07692307692308,
            "I": 70.84615384615384,
            "J": 71.61538461538461,
            "K": 69.53846153846153,
            "L": 71.07692307692308,
            "A": 72,
            "B": 72,
            "C": 70,
            "D": 68.76923076923077,
            "E": 67.6923076923077
        },
        "bus2": {
            "G": 68.14285714285714,
            "H": 69.3076923076923,
            "I": 69.38461538461539,
            "J": 70.23076923076923,
            "K": 71.07692307692308,
            "L": 70.92307692307692,
            "A": 71.53846153846153,
            "B": 73.84615384615384,
            "C": 74.3076923076923,
            "D": 74.07692307692308,
            "E": 73.46153846153847,
            "F": 72.6923076923077
        },
        "bus3": {
            "J": 64.07692307692308,
            "K": 63.69230769230769,
            "L": 64.3076923076923,
            "A": 65.38461538461539,
            "B": 67.6923076923077,
            "C": 67.15384615384616,
            "D": 67.92307692307692,
            "E": 70.07692307692308,
            "F": 71.46153846153847,
            "G": 71.23076923076923,
            "H": 71.46153846153847,
            "I": 69.3076923076923
        },
        "bus4": {
            "K": 64.85714285714286,
            "L": 65.53846153846153,
            "A": 66.84615384615384,
            "B": 68.38461538461539,
            "C": 68,
            "D": 67.6923076923077,
            "E": 68.23076923076923,
            "F": 67,
            "G": 67,
            "H": 69.53846153846153,
            "I": 69.61538461538461,
            "J": 69.92307692307692
        },
        "bus5": {
            "A": 66.28571428571429,
            "B": 67.76923076923077,
            "C": 67.53846153846153,
            "D": 67.53846153846153,
            "E": 69.6923076923077,
            "F": 71.3076923076923,
            "G": 72.46153846153847,
            "H": 71.53846153846153,
            "I": 70.92307692307692,
            "J": 71.07692307692308,
            "K": 71.53846153846153,
            "L": 69.61538461538461
        }
    },
    "Obs_and_actions_busses": {
        "5": 186.0355894100216,
        "4": 61.339999999433445,
        "1": -154.13343003462003,
        "3": -47.24285403994178
    },
    "Obs_and_actions_tfls": {}
}