{
    "Average_holding_time": 95.36294691224269,
    "Average_holding_actions": [
        0,
        99,
        0,
        269,
        47,
        0
    ],
    "Average_travel_time_passengers": 2504.408235263633,
    "Average_passenger_waiting_time": 394.29012634689826,
    "Average_passenger_in_vehicle_time": 2110.118108916632,
    "Average_speed_busses": 0.03845833333333333,
    "Average_experienced_crowding": 71.79884537613009,
    "Average_covariation_headway": 0.19469193577177207,
    "Average_covariation_headway_stops": {
        "B": 0.20171059708933053,
        "H": 0.2219904885828709,
        "I": 0.21818755382449156,
        "K": 0.20353011367764326,
        "L": 0.20913666395597777,
        "A": 0.20150423986531396,
        "J": 0.19796170710171251,
        "C": 0.17367507572081367,
        "D": 0.15892933298835413,
        "E": 0.15524416040558386,
        "F": 0.16176494052470025,
        "G": 0.1952512659682599
    },
    "Average_excess_waiting_time": {
        "B": 131.98355077320593,
        "H": 145.61502752083186,
        "I": 142.2927596330356,
        "K": 139.91848606007846,
        "L": 138.60990115958816,
        "A": 134.77250753539698,
        "J": 142.1694201863852,
        "C": 130.7481913822333,
        "D": 131.270982511795,
        "E": 133.42299196491985,
        "F": 137.13121647846492,
        "G": 144.38632748772653
    },
    "Holding_per_stop": {
        "I": 95.06493506493507,
        "B": 96.15384615384616,
        "A": 96.15384615384616,
        "L": 93.8961038961039,
        "H": 96.3157894736842,
        "K": 94.67532467532467,
        "J": 94.34210526315789,
        "C": 95,
        "D": 96.62337662337663,
        "E": 95.45454545454545,
        "F": 95.92105263157895,
        "G": 94.73684210526316
    },
    "Actions_tfl_edges": {},
    "Load_per_bus_per_stop": {
        "bus0": {
            "B": 75.76923076923077,
            "C": 76.61538461538461,
            "D": 74.61538461538461,
            "E": 74.6923076923077,
            "F": 73.53846153846153,
            "G": 76.15384615384616,
            "H": 77.46153846153847,
            "I": 77.6923076923077,
            "J": 76.61538461538461,
            "K": 78.46153846153847,
            "L": 79.46153846153847,
            "A": 80.15384615384616
        },
        "bus1": {
            "H": 66,
            "I": 64.92307692307692,
            "J": 67.84615384615384,
            "K": 70.23076923076923,
            "L": 70.61538461538461,
            "A": 71,
            "B": 70.15384615384616,
            "C": 68.84615384615384,
            "D": 70.66666666666667,
            "E": 70.25,
            "F": 71.66666666666667,
            "G": 70.5
        },
        "bus2": {
            "I": 67.23076923076923,
            "J": 67.6923076923077,
            "K": 68.3076923076923,
            "L": 69.3076923076923,
            "A": 70.61538461538461,
            "B": 70.38461538461539,
            "C": 70.6923076923077,
            "D": 72.76923076923077,
            "E": 71.92307692307692,
            "F": 72.33333333333333,
            "G": 73.5,
            "H": 73.66666666666667
        },
        "bus3": {
            "K": 63.53846153846154,
            "L": 61.76923076923077,
            "A": 60.84615384615385,
            "B": 61.30769230769231,
            "C": 62.69230769230769,
            "D": 64,
            "E": 67.07692307692308,
            "F": 68.53846153846153,
            "G": 68,
            "H": 67.91666666666667,
            "I": 66.41666666666667,
            "J": 67.58333333333333
        },
        "bus4": {
            "L": 63.30769230769231,
            "A": 64.15384615384616,
            "B": 64.76923076923077,
            "C": 64.76923076923077,
            "D": 63.53846153846154,
            "E": 64.23076923076923,
            "F": 63.38461538461539,
            "G": 67.46153846153847,
            "H": 68.61538461538461,
            "I": 71.38461538461539,
            "J": 69.08333333333333,
            "K": 68.41666666666667
        },
        "bus5": {
            "A": 62.46153846153846,
            "B": 63.30769230769231,
            "C": 63.61538461538461,
            "D": 65.15384615384616,
            "E": 66.76923076923077,
            "F": 68.6923076923077,
            "G": 70.92307692307692,
            "H": 71.53846153846153,
            "I": 71.6923076923077,
            "J": 70.07692307692308,
            "K": 73,
            "L": 68.75
        }
    },
    "Obs_and_actions_busses": {
        "1": -341.12200402801477,
        "4": 61.36938196608241,
        "3": -27.084158414916267,
        "5": 421.32701268840844
    },
    "Obs_and_actions_tfls": {}
}