{
    "Average_holding_time": 95.8759521218716,
    "Average_holding_actions": [
        0,
        93,
        60,
        346,
        40,
        0
    ],
    "Average_travel_time_passengers": 2523.4432506990343,
    "Average_passenger_waiting_time": 393.0179774684319,
    "Average_passenger_in_vehicle_time": 2130.425273230519,
    "Average_speed_busses": 0.03829166666666667,
    "Average_experienced_crowding": 70.36330495062286,
    "Average_covariation_headway": 0.16647314595990975,
    "Average_covariation_headway_stops": {
        "B": 0.157808389055465,
        "G": 0.17697102868554399,
        "H": 0.17442392010263816,
        "K": 0.143837067558686,
        "L": 0.14274609667225555,
        "A": 0.15223765590866117,
        "C": 0.12899002551797722,
        "I": 0.14724747758501525,
        "D": 0.10760573329662942,
        "J": 0.13177889573399296,
        "E": 0.1165210321442557,
        "F": 0.1462803443424796
    },
    "Average_excess_waiting_time": {
        "B": 126.84010274158464,
        "G": 137.15246806889047,
        "H": 134.30721752300133,
        "K": 132.67907077169394,
        "L": 130.20755361249047,
        "A": 128.37315995491906,
        "C": 126.40566196024878,
        "I": 133.7165763558641,
        "D": 127.14109601825834,
        "J": 133.77475565814575,
        "E": 130.37147345263207,
        "F": 136.29154242676384
    },
    "Holding_per_stop": {
        "B": 96.92307692307692,
        "H": 92.72727272727273,
        "A": 100.9090909090909,
        "L": 94.28571428571429,
        "K": 95.13157894736842,
        "G": 95.13157894736842,
        "C": 95.84415584415585,
        "I": 97.89473684210526,
        "D": 97.40259740259741,
        "J": 96.3157894736842,
        "E": 93.94736842105263,
        "F": 93.94736842105263
    },
    "Actions_tfl_edges": {},
    "Load_per_bus_per_stop": {
        "bus0": {
            "B": 75.53846153846153,
            "C": 76.23076923076923,
            "D": 74.46153846153847,
            "E": 73.61538461538461,
            "F": 73.15384615384616,
            "G": 74,
            "H": 73.76923076923077,
            "I": 74.38461538461539,
            "J": 79.76923076923077,
            "K": 81.53846153846153,
            "L": 80.23076923076923,
            "A": 81.53846153846153
        },
        "bus1": {
            "G": 70.38461538461539,
            "H": 69.76923076923077,
            "I": 67.6923076923077,
            "J": 67.53846153846153,
            "K": 69.53846153846153,
            "L": 68.15384615384616,
            "A": 68.07692307692308,
            "B": 69.76923076923077,
            "C": 70,
            "D": 71,
            "E": 71.5,
            "F": 73.5
        },
        "bus2": {
            "H": 67.6923076923077,
            "I": 66.46153846153847,
            "J": 68.15384615384616,
            "K": 68.46153846153847,
            "L": 68.38461538461539,
            "A": 70.6923076923077,
            "B": 70.07692307692308,
            "C": 70.84615384615384,
            "D": 69.92307692307692,
            "E": 70.38461538461539,
            "F": 69.75,
            "G": 69.91666666666667
        },
        "bus3": {
            "K": 63.84615384615385,
            "L": 64,
            "A": 64.84615384615384,
            "B": 65.61538461538461,
            "C": 64.92307692307692,
            "D": 66.92307692307692,
            "E": 66.92307692307692,
            "F": 66.3076923076923,
            "G": 66.07692307692308,
            "H": 68,
            "I": 67.75,
            "J": 67.08333333333333
        },
        "bus4": {
            "L": 62.07692307692308,
            "A": 62.53846153846154,
            "B": 62.92307692307692,
            "C": 63.53846153846154,
            "D": 63.46153846153846,
            "E": 65.53846153846153,
            "F": 65.76923076923077,
            "G": 63.69230769230769,
            "H": 64.38461538461539,
            "I": 66,
            "J": 67.41666666666667,
            "K": 69.33333333333333
        },
        "bus5": {
            "A": 63.92307692307692,
            "B": 62.76923076923077,
            "C": 63.84615384615385,
            "D": 65.46153846153847,
            "E": 67.23076923076923,
            "F": 67.23076923076923,
            "G": 66.76923076923077,
            "H": 67.15384615384616,
            "I": 69.92307692307692,
            "J": 72.15384615384616,
            "K": 70.53846153846153,
            "L": 71.66666666666667
        }
    },
    "Obs_and_actions_busses": {
        "1": -260.39994080346935,
        "3": -33.66178627258325,
        "2": -89.15000000299997,
        "4": 50.95687844761475,
        "5": 345.20043324996277
    },
    "Obs_and_actions_tfls": {}
}1434868
    },
    "Obs_and_actions_tfls": {}
}