{
    "Average_holding_time": [
        10.329062022795581,
        [
            8.766066838046273,
            9.896373056994818,
            7.1416382252559725,
            8.549356223175966,
            9.206896551724139,
            9.087779690189329,
            8.188841201716738,
            11.498257839721255,
            16.575463371579875,
            14.379947229551451
        ]
    ],
    "Average_travel_time_passengers": [
        2598.5695713108616,
        [
            2555.6828521678735,
            2586.068099437882,
            2569.6032636826917,
            2574.4034932561212,
            2586.1559967141184,
            2575.2687929398285,
            2592.923739330091,
            2619.5083004278767,
            2677.182513005738,
            2648.898662146397
        ]
    ],
    "Average_speed_busses": [
        0.048195833333333334,
        [
            0.048625,
            0.04825,
            0.04883333333333333,
            0.048541666666666664,
            0.04833333333333333,
            0.04841666666666666,
            0.048541666666666664,
            0.04783333333333333,
            0.04720833333333333,
            0.047375
        ]
    ],
    "Average_experienced_crowding": [
        105.81394447840844,
        [
            101.921282995705,
            105.05064994983289,
            103.5166939574527,
            103.65913411161239,
            105.14083868556355,
            104.23407007801548,
            105.69051927052746,
            108.00376796796331,
            111.0810673497466,
            109.84142041766505
        ]
    ],
    "Average_covariation_headway": [
        0.2564063386085705,
        [
            0.24493430072478437,
            0.2452546651271087,
            0.23192884357295573,
            0.25175443234780476,
            0.2472720689865854,
            0.2435975305682685,
            0.23416136359186315,
            0.2644044439280745,
            0.31749639873769825,
            0.28325933850056173
        ]
    ],
    "Average_covariation_headway_stops": [
        {
            "H": 0.11372050206038746,
            "E": 0.12997031803206086,
            "F": 0.1212887563140829,
            "K": 0.0886166029073538,
            "I": 0.08734639784344715,
            "D": 0.12724156575826032,
            "C": 0.13364792468887388,
            "G": 0.08311515981211814,
            "L": 0.06892535898983901,
            "J": 0.068476208028808,
            "A": 0.0755747053542107,
            "B": 0.12049828822198998
        },
        {
            "H": 0.13038674106211526,
            "I": 0.13936938218018122,
            "F": 0.12787009054748796,
            "L": 0.11136354203895799,
            "B": 0.10419633852347854,
            "C": 0.10174182533814234,
            "J": 0.10451156842174672,
            "G": 0.09194373816794424,
            "A": 0.09227036736386832,
            "K": 0.08991669352334372,
            "D": 0.09122281862343154,
            "E": 0.11418571687346736
        },
        {
            "H": 0.10759177313788443,
            "F": 0.1022923202193902,
            "J": 0.08381705815613805,
            "D": 0.08856436627918694,
            "A": 0.08335169440855734,
            "B": 0.08348048941570152,
            "I": 0.06702695183795296,
            "K": 0.0557935651614862,
            "G": 0.05591444476582332,
            "E": 0.08139664425136872,
            "C": 0.06720867585309219,
            "L": 0.060620367856401874
        },
        {
            "F": 0.12010245065841874,
            "K": 0.13361387152291457,
            "L": 0.13098893939028367,
            "D": 0.11563907370901043,
            "A": 0.12331975834557746,
            "B": 0.11871049539363672,
            "G": 0.09191564220486693,
            "E": 0.10397660567876285,
            "H": 0.08249908954005038,
            "C": 0.10648101269073182,
            "I": 0.08403769294053184,
            "J": 0.11198658542611449
        },
        {
            "H": 0.16298320838641545,
            "J": 0.14279021080862547,
            "K": 0.13579378981370885,
            "D": 0.1013641132758112,
            "B": 0.10472177352976193,
            "C": 0.10000635219355694,
            "I": 0.14364740667917963,
            "L": 0.10429297749585073,
            "E": 0.07413266342806224,
            "A": 0.09958624963658785,
            "F": 0.08448360333013848,
            "G": 0.09786906792791096
        },
        {
            "H": 0.11202111551724112,
            "E": 0.10478785059207119,
            "L": 0.11643103582774636,
            "I": 0.09747762198908877,
            "A": 0.11876411405952483,
            "B": 0.11531042432930232,
            "C": 0.10996090154794597,
            "F": 0.0772111812803244,
            "J": 0.08732481937648184,
            "D": 0.08969570773780307,
            "G": 0.05725354096726589,
            "K": 0.09252646151404907
        },
        {
            "G": 0.09986414477151108,
            "F": 0.1009939543983857,
            "K": 0.08882532409300803,
            "L": 0.09556615184018408,
            "H": 0.08130009972591,
            "D": 0.09658371110518514,
            "C": 0.09757918705713448,
            "I": 0.06038469136141231,
            "A": 0.06261830536311179,
            "E": 0.07621786989093748,
            "J": 0.059448664795876384,
            "B": 0.08322302906632764
        },
        {
            "H": 0.1704462621894096,
            "K": 0.1671488288583305,
            "L": 0.1616037279291531,
            "I": 0.16955737115798925,
            "D": 0.1268768153674357,
            "A": 0.1545871146965487,
            "B": 0.14386154724411399,
            "E": 0.10673937102835311,
            "J": 0.16299357224476374,
            "C": 0.12790918604141488,
            "F": 0.10714550371865207,
            "G": 0.10810245287373947
        },
        {
            "H": 0.2663636141100954,
            "G": 0.2378642520023485,
            "E": 0.225862089178372,
            "F": 0.2296657021005443,
            "J": 0.2542294714647553,
            "C": 0.231795560566302,
            "I": 0.25411626650414726,
            "K": 0.2306530982113516,
            "D": 0.2192138908928177,
            "L": 0.21413523825569233,
            "A": 0.21664078203941992,
            "B": 0.23377961949332274
        },
        {
            "G": 0.19575971497578815,
            "F": 0.18713476266631277,
            "J": 0.19158940818144576,
            "K": 0.18921460750673055,
            "L": 0.18411694665770606,
            "H": 0.2020780381954435,
            "B": 0.1588570504332217,
            "A": 0.16066312960271292,
            "I": 0.19354989541277953,
            "C": 0.1334697737528397,
            "D": 0.14220743284885082,
            "E": 0.17822495945541855
        }
    ],
    "Average_excess_waiting_time": [
        {
            "H": 36.29728967358977,
            "E": 39.24619542502097,
            "F": 37.064892656813015,
            "K": 35.89124568735423,
            "I": 35.93690305365385,
            "D": 40.755894056726504,
            "C": 42.68553219779483,
            "G": 36.551391937864196,
            "L": 36.52247580668035,
            "J": 36.63840525798395,
            "A": 38.62295975735407,
            "B": 42.843065685546094
        },
        {
            "H": 42.606053557418875,
            "I": 41.33420861754723,
            "F": 42.94175889422212,
            "L": 40.58525542678285,
            "B": 40.79145861031827,
            "C": 39.60070770604017,
            "J": 40.33221044561577,
            "G": 41.882056881496,
            "A": 41.212509859363024,
            "K": 41.01800573248329,
            "D": 40.71771023592214,
            "E": 43.655175811988954
        },
        {
            "H": 36.581060169184525,
            "F": 36.99856045648261,
            "J": 34.788720672168495,
            "D": 36.412901659607655,
            "A": 36.409194680223266,
            "B": 35.46016876181028,
            "I": 35.56924753601743,
            "K": 35.034330666788435,
            "G": 36.004104023993534,
            "E": 37.526759178977045,
            "C": 36.746740836688616,
            "L": 36.81705191938971
        },
        {
            "F": 38.567433356170056,
            "K": 42.94503889840598,
            "L": 41.06576590545268,
            "D": 38.388838442041674,
            "A": 39.042479189091466,
            "B": 37.70645327395823,
            "G": 38.16869897905565,
            "E": 39.053038975906816,
            "H": 39.11767546272796,
            "C": 39.14545448485501,
            "I": 39.943955059536336,
            "J": 43.09083761915713
        },
        {
            "H": 45.53835150892121,
            "J": 42.83671542795213,
            "K": 40.58938960065831,
            "D": 37.87432815792971,
            "B": 40.64784419620378,
            "C": 39.160905104557116,
            "I": 44.637309845728794,
            "L": 39.76080016368991,
            "E": 37.764165022829275,
            "A": 41.43257813921815,
            "F": 39.75866900090813,
            "G": 42.15938223258331
        },
        {
            "H": 39.5341288111876,
            "E": 37.58271076225293,
            "L": 42.34188867509317,
            "I": 39.76341986964235,
            "A": 41.07843600677586,
            "B": 39.489772369886055,
            "C": 38.02195890093691,
            "F": 37.70368985793954,
            "J": 40.59378001966712,
            "D": 38.40474439204468,
            "G": 38.5633332054806,
            "K": 42.498118148938886
        },
        {
            "G": 36.22686464993507,
            "F": 38.16955291285558,
            "K": 38.06138561295671,
            "L": 36.72017378031359,
            "H": 36.39945193045543,
            "D": 37.99897949151705,
            "C": 39.582146266185305,
            "I": 36.849773063337295,
            "A": 36.93326028746833,
            "E": 38.3935227665915,
            "J": 38.289898709453496,
            "B": 39.92240246647788
        },
        {
            "H": 49.28451193299321,
            "K": 50.250517630528975,
            "L": 47.83942452778325,
            "I": 50.66398579285061,
            "D": 42.50119297142646,
            "A": 45.85552712381366,
            "B": 43.7561583732238,
            "E": 42.58013518467874,
            "J": 51.52726774945012,
            "C": 44.66689978289793,
            "F": 44.13965908232262,
            "G": 45.90541103441774
        },
        {
            "H": 63.403599826203276,
            "G": 61.068641562321716,
            "E": 62.89556105669487,
            "F": 61.63317602247156,
            "J": 60.96061279834623,
            "C": 63.5093928902852,
            "I": 62.774845484354614,
            "K": 58.79205770253469,
            "D": 63.912674040444244,
            "L": 58.052968256388624,
            "A": 60.11393106568295,
            "B": 64.83157543182352
        },
        {
            "G": 54.809033102499654,
            "F": 55.366993357675995,
            "J": 54.77590774956627,
            "K": 52.81587786285775,
            "L": 50.418597570622296,
            "H": 57.0032621251313,
            "B": 48.502666773251576,
            "A": 49.86214599997368,
            "I": 56.82615100057501,
            "C": 48.42273972847943,
            "D": 51.10978914014936,
            "E": 56.28257474140469
        }
    ],
    "Actions_tfl_edges": [
        {},
        {},
        {},
        {},
        {},
        {},
        {},
        {},
        {},
        {}
    ],
    "Holding_per_stop": [
        {
            "H": 8.877551020408163,
            "K": 0.9183673469387755,
            "I": 4.8979591836734695,
            "F": 49.59183673469388,
            "E": 13.917525773195877,
            "D": 6.804123711340206,
            "C": 4.329896907216495,
            "L": 3.402061855670103,
            "G": 5.876288659793815,
            "J": 3.402061855670103,
            "A": 1.2371134020618557,
            "B": 1.5625
        },
        {
            "I": 3.711340206185567,
            "H": 12.061855670103093,
            "L": 5.257731958762887,
            "C": 4.948453608247423,
            "F": 49.6875,
            "J": 7.731958762886598,
            "B": 3.711340206185567,
            "A": 3.4375,
            "K": 2.1875,
            "D": 4.375,
            "G": 11.25,
            "E": 10.625
        },
        {
            "H": 9.795918367346939,
            "J": 6.73469387755102,
            "D": 0.6122448979591837,
            "B": 1.530612244897959,
            "F": 43.775510204081634,
            "A": 1.2244897959183674,
            "K": 0.30612244897959184,
            "I": 4.285714285714286,
            "E": 4.329896907216495,
            "G": 8.350515463917526,
            "L": 2.783505154639175,
            "C": 1.8556701030927836
        },
        {
            "F": 40.824742268041234,
            "D": 4.8979591836734695,
            "L": 6.185567010309279,
            "K": 1.2371134020618557,
            "B": 3.979591836734694,
            "A": 4.285714285714286,
            "G": 10.824742268041238,
            "E": 7.11340206185567,
            "H": 9.587628865979381,
            "C": 4.020618556701031,
            "I": 3.4375,
            "J": 6.25
        },
        {
            "H": 7.731958762886598,
            "K": 2.4742268041237114,
            "D": 6.494845360824742,
            "J": 7.731958762886598,
            "C": 7.11340206185567,
            "B": 4.020618556701031,
            "L": 6.494845360824742,
            "I": 5,
            "E": 6.804123711340206,
            "A": 3.125,
            "F": 44.6875,
            "G": 9.0625
        },
        {
            "H": 5.876288659793815,
            "E": 9.489795918367347,
            "I": 4.948453608247423,
            "L": 3.4375,
            "C": 6.428571428571429,
            "A": 3.711340206185567,
            "B": 5.257731958762887,
            "J": 5.9375,
            "F": 46.70103092783505,
            "D": 7.11340206185567,
            "K": 0.3125,
            "G": 9.6875
        },
        {
            "G": 6.73469387755102,
            "L": 6.428571428571429,
            "H": 4.020618556701031,
            "D": 6.185567010309279,
            "K": 1.8556701030927836,
            "F": 46.391752577319586,
            "I": 3.0927835051546393,
            "C": 3.711340206185567,
            "A": 0.9278350515463918,
            "E": 11.1340206185567,
            "J": 5.56701030927835,
            "B": 2.1875
        },
        {
            "H": 6.5625,
            "D": 9.0625,
            "I": 6.631578947368421,
            "L": 7.5,
            "K": 2.526315789473684,
            "B": 6.804123711340206,
            "A": 5.625,
            "E": 12.5,
            "J": 5.684210526315789,
            "C": 7.5,
            "F": 56.526315789473685,
            "G": 11.368421052631579
        },
        {
            "H": 19.894736842105264,
            "J": 15.157894736842104,
            "G": 18.63157894736842,
            "E": 21.382978723404257,
            "C": 12.127659574468085,
            "F": 48.829787234042556,
            "K": 7.894736842105263,
            "I": 13.894736842105264,
            "D": 14.193548387096774,
            "L": 11.052631578947368,
            "A": 8.297872340425531,
            "B": 7.659574468085107
        },
        {
            "G": 15.789473684210526,
            "L": 8.125,
            "K": 5.052631578947368,
            "J": 9.157894736842104,
            "B": 6.25,
            "F": 60.638297872340424,
            "H": 15,
            "A": 5.684210526315789,
            "I": 8.936170212765957,
            "C": 7.894736842105263,
            "D": 9.574468085106384,
            "E": 21.06382978723404
        }
    ],
    "Load_per_bus_per_stop": [
        {
            "bus4": {
                "H": 120.23529411764706,
                "I": 116.76470588235294,
                "J": 108.52941176470588,
                "K": 99.52941176470588,
                "L": 91.1875,
                "A": 82.8125,
                "B": 73.25,
                "C": 69.1875,
                "D": 69,
                "E": 68.375,
                "F": 90.4375,
                "G": 120.625
            },
            "bus2": {
                "E": 74.3529411764706,
                "F": 97.94117647058823,
                "G": 130.35294117647058,
                "H": 137.875,
                "I": 133.25,
                "J": 129,
                "K": 121,
                "L": 110.4375,
                "A": 101.0625,
                "B": 91.0625,
                "C": 84.25,
                "D": 80.75
            },
            "bus3": {
                "F": 90.70588235294117,
                "G": 121.3529411764706,
                "H": 127.82352941176471,
                "I": 124.41176470588235,
                "J": 118,
                "K": 110.0625,
                "L": 100.8125,
                "A": 91.8125,
                "B": 83.4375,
                "C": 78.5625,
                "D": 74.4375,
                "E": 73.8125
            },
            "bus5": {
                "K": 106.29411764705883,
                "L": 98.05882352941177,
                "A": 90.29411764705883,
                "B": 81.25,
                "C": 76.6875,
                "D": 75.6875,
                "E": 75,
                "F": 94.625,
                "G": 125.125,
                "H": 132,
                "I": 126.8125,
                "J": 120.9375
            },
            "bus1": {
                "D": 70.29411764705883,
                "E": 68.52941176470588,
                "F": 89.5,
                "G": 119.375,
                "H": 129,
                "I": 125.0625,
                "J": 118.75,
                "K": 111.6875,
                "L": 103.625,
                "A": 93.25,
                "B": 83.3125,
                "C": 77.875
            },
            "bus0": {
                "C": 69.88235294117646,
                "D": 66.5,
                "E": 66.5625,
                "F": 86.8125,
                "G": 116.5,
                "H": 122.8125,
                "I": 119.6875,
                "J": 111.875,
                "K": 102.9375,
                "L": 95.125,
                "A": 87,
                "B": 79.4375
            }
        },
        {
            "bus3": {
                "H": 121.3529411764706,
                "I": 115.875,
                "J": 108.75,
                "K": 102.5,
                "L": 93.375,
                "A": 84.4375,
                "B": 77.75,
                "C": 72.4375,
                "D": 70.125,
                "E": 69.5625,
                "F": 90.875,
                "G": 120.9375
            },
            "bus4": {
                "I": 115.29411764705883,
                "J": 109.52941176470588,
                "K": 101.8125,
                "L": 93.5625,
                "A": 85.3125,
                "B": 76.9375,
                "C": 74,
                "D": 71.1875,
                "E": 70.25,
                "F": 92.25,
                "G": 121.75,
                "H": 129
            },
            "bus2": {
                "F": 93.88235294117646,
                "G": 127.6875,
                "H": 136.6875,
                "I": 134.5625,
                "J": 129.125,
                "K": 120.5,
                "L": 112.4375,
                "A": 99.9375,
                "B": 90.8125,
                "C": 84.5625,
                "D": 79.0625,
                "E": 75.5
            },
            "bus5": {
                "L": 99.3529411764706,
                "A": 90.0625,
                "B": 82.75,
                "C": 77.25,
                "D": 72.8125,
                "E": 70.3125,
                "F": 92.9375,
                "G": 125.8125,
                "H": 134.5,
                "I": 131.8125,
                "J": 123.875,
                "K": 114.5
            },
            "bus0": {
                "B": 79.76470588235294,
                "C": 74,
                "D": 68.625,
                "E": 69.125,
                "F": 91.1875,
                "G": 122.75,
                "H": 130.6875,
                "I": 127.0625,
                "J": 118.375,
                "K": 109.4375,
                "L": 101.25,
                "A": 93
            },
            "bus1": {
                "C": 81.41176470588235,
                "D": 77.375,
                "E": 75.75,
                "F": 100.375,
                "G": 135.5625,
                "H": 144.5625,
                "I": 141.5625,
                "J": 135.625,
                "K": 125.8125,
                "L": 115.75,
                "A": 103.875,
                "B": 91.1875
            }
        },
        {
            "bus3": {
                "H": 127,
                "I": 124.88235294117646,
                "J": 118.82352941176471,
                "K": 111.47058823529412,
                "L": 99.6875,
                "A": 92,
                "B": 83.125,
                "C": 76.0625,
                "D": 74.375,
                "E": 72.75,
                "F": 95.8125,
                "G": 127
            },
            "bus2": {
                "F": 83.82352941176471,
                "G": 117.58823529411765,
                "H": 123,
                "I": 120.29411764705883,
                "J": 116.0625,
                "K": 109.3125,
                "L": 98.375,
                "A": 89.5,
                "B": 81.625,
                "C": 74.8125,
                "D": 72.1875,
                "E": 71.1875
            },
            "bus4": {
                "J": 124.82352941176471,
                "K": 116.47058823529412,
                "L": 107.47058823529412,
                "A": 96.23529411764706,
                "B": 86.375,
                "C": 79.625,
                "D": 77.1875,
                "E": 76.625,
                "F": 105.3125,
                "G": 137.4375,
                "H": 143.8125,
                "I": 139.5
            },
            "bus1": {
                "D": 69.52941176470588,
                "E": 69.47058823529412,
                "F": 93.70588235294117,
                "G": 123.125,
                "H": 128.5,
                "I": 126.4375,
                "J": 119.4375,
                "K": 110.75,
                "L": 101.3125,
                "A": 92.8125,
                "B": 82.3125,
                "C": 77.1875
            },
            "bus5": {
                "A": 87.70588235294117,
                "B": 78.23529411764706,
                "C": 73.875,
                "D": 72.8125,
                "E": 71.4375,
                "F": 94.375,
                "G": 123.25,
                "H": 129.375,
                "I": 126.125,
                "J": 119.6875,
                "K": 111.0625,
                "L": 102.6875
            },
            "bus0": {
                "B": 77.17647058823529,
                "C": 71.88235294117646,
                "D": 69.70588235294117,
                "E": 68.1875,
                "F": 90.5,
                "G": 122.9375,
                "H": 130.8125,
                "I": 127.75,
                "J": 120,
                "K": 112.75,
                "L": 101.3125,
                "A": 90.75
            }
        },
        {
            "bus2": {
                "F": 86.76470588235294,
                "G": 120.58823529411765,
                "H": 129.41176470588235,
                "I": 124.875,
                "J": 118.8125,
                "K": 110.1875,
                "L": 101.9375,
                "A": 92.875,
                "B": 82.0625,
                "C": 76.0625,
                "D": 72.8125,
                "E": 70.75
            },
            "bus3": {
                "K": 104.82352941176471,
                "L": 96.625,
                "A": 87.375,
                "B": 78.75,
                "C": 73.3125,
                "D": 72.625,
                "E": 72.1875,
                "F": 92.5,
                "G": 120.75,
                "H": 130.625,
                "I": 127.875,
                "J": 120.9375
            },
            "bus4": {
                "L": 100.94117647058823,
                "A": 91.11764705882354,
                "B": 79.5,
                "C": 75.125,
                "D": 72.375,
                "E": 71.25,
                "F": 93.25,
                "G": 123.25,
                "H": 131.5625,
                "I": 130.5,
                "J": 122.9375,
                "K": 116.1875
            },
            "bus1": {
                "D": 69.58823529411765,
                "E": 69.58823529411765,
                "F": 91,
                "G": 122.625,
                "H": 128.4375,
                "I": 124,
                "J": 118.75,
                "K": 111.25,
                "L": 101.8125,
                "A": 91.3125,
                "B": 81.375,
                "C": 75.5625
            },
            "bus5": {
                "A": 83.52941176470588,
                "B": 75.41176470588235,
                "C": 69,
                "D": 65.4375,
                "E": 67.4375,
                "F": 89.3125,
                "G": 118.875,
                "H": 128.125,
                "I": 123.5,
                "J": 116.75,
                "K": 107.0625,
                "L": 98.375
            },
            "bus0": {
                "B": 85.88235294117646,
                "C": 83.29411764705883,
                "D": 79.29411764705883,
                "E": 78.5,
                "F": 101.4375,
                "G": 136,
                "H": 141.8125,
                "I": 138.125,
                "J": 129.5625,
                "K": 121.9375,
                "L": 113.0625,
                "A": 102.25
            }
        },
        {
            "bus3": {
                "H": 123.3529411764706,
                "I": 119.25,
                "J": 115.0625,
                "K": 106.5,
                "L": 99,
                "A": 89.3125,
                "B": 82.5,
                "C": 77.8125,
                "D": 76.5625,
                "E": 74.9375,
                "F": 95.25,
                "G": 125.0625
            },
            "bus4": {
                "J": 119.58823529411765,
                "K": 110,
                "L": 99.6875,
                "A": 90.4375,
                "B": 82.1875,
                "C": 76.8125,
                "D": 73.25,
                "E": 72.875,
                "F": 98.9375,
                "G": 131.6875,
                "H": 138.75,
                "I": 135.5
            },
            "bus5": {
                "K": 106.82352941176471,
                "L": 97.52941176470588,
                "A": 87.875,
                "B": 80.125,
                "C": 76.1875,
                "D": 73.0625,
                "E": 72.5625,
                "F": 96.6875,
                "G": 128.25,
                "H": 134.6875,
                "I": 131.1875,
                "J": 122.9375
            },
            "bus2": {
                "D": 73.52941176470588,
                "E": 73.29411764705883,
                "F": 96.70588235294117,
                "G": 128.5625,
                "H": 137.625,
                "I": 134.6875,
                "J": 127.3125,
                "K": 118.6875,
                "L": 108.5625,
                "A": 96.625,
                "B": 87,
                "C": 81.25
            },
            "bus0": {
                "B": 80.41176470588235,
                "C": 74.375,
                "D": 70.1875,
                "E": 69.0625,
                "F": 92.4375,
                "G": 126.3125,
                "H": 134.0625,
                "I": 130.3125,
                "J": 125.5625,
                "K": 117.25,
                "L": 106.5625,
                "A": 96.5625
            },
            "bus1": {
                "C": 75.47058823529412,
                "D": 72.88235294117646,
                "E": 72.5,
                "F": 93.5,
                "G": 124.4375,
                "H": 130.75,
                "I": 126.625,
                "J": 120.625,
                "K": 111.75,
                "L": 102.0625,
                "A": 94.1875,
                "B": 84.375
            }
        },
        {
            "bus3": {
                "H": 130.1764705882353,
                "I": 125.94117647058823,
                "J": 116.8125,
                "K": 110.75,
                "L": 101.1875,
                "A": 92.375,
                "B": 82.4375,
                "C": 75.6875,
                "D": 73.125,
                "E": 72.0625,
                "F": 96.625,
                "G": 128.75
            },
            "bus2": {
                "E": 68.29411764705883,
                "F": 89.52941176470588,
                "G": 122.76470588235294,
                "H": 131.6875,
                "I": 128.8125,
                "J": 123.75,
                "K": 114.6875,
                "L": 103.1875,
                "A": 93.125,
                "B": 83,
                "C": 77.75,
                "D": 74.6875
            },
            "bus4": {
                "L": 94.75,
                "A": 85.9375,
                "B": 77.875,
                "C": 73.0625,
                "D": 70.3125,
                "E": 69.625,
                "F": 90.9375,
                "G": 120.8125,
                "H": 126.9375,
                "I": 126,
                "J": 118.3125,
                "K": 110.75
            },
            "bus5": {
                "A": 88.3529411764706,
                "B": 78.6875,
                "C": 73.3125,
                "D": 70.375,
                "E": 68.3125,
                "F": 93.3125,
                "G": 124.625,
                "H": 133.5625,
                "I": 130.3125,
                "J": 122.5625,
                "K": 114.25,
                "L": 104.0625
            },
            "bus0": {
                "B": 74.58823529411765,
                "C": 69.82352941176471,
                "D": 66.0625,
                "E": 65.5625,
                "F": 86.9375,
                "G": 120.3125,
                "H": 128.1875,
                "I": 121.625,
                "J": 114.0625,
                "K": 106.9375,
                "L": 99.1875,
                "A": 88.6875
            },
            "bus1": {
                "C": 78.29411764705883,
                "D": 75,
                "E": 75.47058823529412,
                "F": 100.1875,
                "G": 134.1875,
                "H": 141.6875,
                "I": 139.4375,
                "J": 132.5625,
                "K": 122.625,
                "L": 110.5,
                "A": 99.8125,
                "B": 91
            }
        },
        {
            "bus3": {
                "G": 118.58823529411765,
                "H": 125.88235294117646,
                "I": 121.05882352941177,
                "J": 115.47058823529412,
                "K": 107,
                "L": 97.75,
                "A": 88.6875,
                "B": 80.25,
                "C": 75.875,
                "D": 71.4375,
                "E": 71.25,
                "F": 91.8125
            },
            "bus2": {
                "F": 95.82352941176471,
                "G": 128.35294117647058,
                "H": 138.47058823529412,
                "I": 134.1875,
                "J": 127.75,
                "K": 117.875,
                "L": 106.75,
                "A": 97,
                "B": 88.8125,
                "C": 83.1875,
                "D": 78.8125,
                "E": 75.3125
            },
            "bus4": {
                "K": 108.11764705882354,
                "L": 100.88235294117646,
                "A": 92.5,
                "B": 83.5625,
                "C": 78.5625,
                "D": 76.6875,
                "E": 75.3125,
                "F": 97,
                "G": 128.1875,
                "H": 133.9375,
                "I": 130.375,
                "J": 123.3125
            },
            "bus5": {
                "L": 97.23529411764706,
                "A": 87.82352941176471,
                "B": 79.82352941176471,
                "C": 73.4375,
                "D": 69.1875,
                "E": 69,
                "F": 90.1875,
                "G": 124.875,
                "H": 132.4375,
                "I": 128,
                "J": 120.375,
                "K": 111.875
            },
            "bus1": {
                "D": 75.29411764705883,
                "E": 74.11764705882354,
                "F": 99.8125,
                "G": 132.8125,
                "H": 141.625,
                "I": 136.9375,
                "J": 130.875,
                "K": 121.625,
                "L": 110.625,
                "A": 101.1875,
                "B": 91.375,
                "C": 82.8125
            },
            "bus0": {
                "C": 74.29411764705883,
                "D": 71.3125,
                "E": 70.8125,
                "F": 95.125,
                "G": 126.6875,
                "H": 133.25,
                "I": 129.4375,
                "J": 122.75,
                "K": 114.5,
                "L": 104.375,
                "A": 93.8125,
                "B": 84.375
            }
        },
        {
            "bus2": {
                "H": 136.3125,
                "I": 133.75,
                "J": 127.375,
                "K": 120.625,
                "L": 109.3125,
                "A": 100.625,
                "B": 89.8125,
                "C": 84.6875,
                "D": 82.625,
                "E": 81.4375,
                "F": 104.875,
                "G": 139.13333333333333
            },
            "bus3": {
                "K": 104.3125,
                "L": 96.6875,
                "A": 86.3125,
                "B": 77.8125,
                "C": 74.25,
                "D": 73.125,
                "E": 72.875,
                "F": 95.4375,
                "G": 125.5625,
                "H": 133.375,
                "I": 127.73333333333333,
                "J": 121.33333333333333
            },
            "bus4": {
                "L": 92.125,
                "A": 82.375,
                "B": 73.0625,
                "C": 68.25,
                "D": 64.8125,
                "E": 63.1875,
                "F": 86,
                "G": 117.875,
                "H": 125.8125,
                "I": 122.625,
                "J": 117.4375,
                "K": 108.2
            },
            "bus1": {
                "D": 76.625,
                "E": 73.0625,
                "F": 95.375,
                "G": 129.625,
                "H": 140.8125,
                "I": 137.5625,
                "J": 132.875,
                "K": 124.1875,
                "L": 113.9375,
                "A": 102.5625,
                "B": 92.9375,
                "C": 87.125
            },
            "bus5": {
                "A": 86.3125,
                "B": 77.625,
                "C": 73.25,
                "D": 70.5625,
                "E": 70.125,
                "F": 96.4375,
                "G": 128.3125,
                "H": 135.0625,
                "I": 131,
                "J": 123.25,
                "K": 114.875,
                "L": 102.875
            },
            "bus0": {
                "B": 86.23529411764706,
                "C": 78.3125,
                "D": 74.375,
                "E": 75.0625,
                "F": 100.3125,
                "G": 132.875,
                "H": 143.625,
                "I": 140.5625,
                "J": 132.1875,
                "K": 123.125,
                "L": 111.875,
                "A": 102.5625
            }
        },
        {
            "bus4": {
                "H": 129.875,
                "I": 127,
                "J": 121.1875,
                "K": 112.8125,
                "L": 101.625,
                "A": 93.625,
                "B": 82.4375,
                "C": 78.3125,
                "D": 74.75,
                "E": 71.1875,
                "F": 95.66666666666667,
                "G": 128
            },
            "bus3": {
                "G": 122.625,
                "H": 132.375,
                "I": 128.125,
                "J": 119.25,
                "K": 111.8125,
                "L": 101.625,
                "A": 92.75,
                "B": 83.4375,
                "C": 78.375,
                "D": 76.06666666666666,
                "E": 74,
                "F": 97
            },
            "bus1": {
                "E": 67.4375,
                "F": 89.25,
                "G": 118.375,
                "H": 127.4375,
                "I": 121.625,
                "J": 117.375,
                "K": 108.0625,
                "L": 96.75,
                "A": 85.93333333333334,
                "B": 78.6,
                "C": 75.46666666666667,
                "D": 72.8
            },
            "bus2": {
                "F": 85.6875,
                "G": 115.625,
                "H": 120.5625,
                "I": 118.25,
                "J": 112.1875,
                "K": 105.0625,
                "L": 96.4375,
                "A": 88.625,
                "B": 77.5625,
                "C": 70.93333333333334,
                "D": 69.33333333333333,
                "E": 68.4
            },
            "bus5": {
                "J": 142.375,
                "K": 134,
                "L": 123.3125,
                "A": 113.625,
                "B": 103.375,
                "C": 95.25,
                "D": 90.75,
                "E": 89.4375,
                "F": 117,
                "G": 153.125,
                "H": 165.66666666666666,
                "I": 161.73333333333332
            },
            "bus0": {
                "C": 76.6875,
                "D": 74.9375,
                "E": 72.125,
                "F": 93.625,
                "G": 126.3125,
                "H": 133.0625,
                "I": 129.875,
                "J": 123.0625,
                "K": 114.66666666666667,
                "L": 103.8,
                "A": 95,
                "B": 86.4
            }
        },
        {
            "bus2": {
                "G": 111.1875,
                "H": 120.5,
                "I": 117.25,
                "J": 111.5,
                "K": 104.625,
                "L": 95.75,
                "A": 86.25,
                "B": 78.5,
                "C": 73.375,
                "D": 70.73333333333333,
                "E": 69.66666666666667,
                "F": 89.13333333333334
            },
            "bus1": {
                "F": 95.4375,
                "G": 129.0625,
                "H": 136.4375,
                "I": 133.5,
                "J": 126.875,
                "K": 117.75,
                "L": 109.8125,
                "A": 99,
                "B": 89.8125,
                "C": 84.06666666666666,
                "D": 81.6,
                "E": 78
            },
            "bus3": {
                "J": 113.5625,
                "K": 105.5,
                "L": 95.4375,
                "A": 86.3125,
                "B": 78.125,
                "C": 72.75,
                "D": 68.5,
                "E": 70.1875,
                "F": 90.25,
                "G": 123,
                "H": 131.13333333333333,
                "I": 127.06666666666666
            },
            "bus4": {
                "K": 115.375,
                "L": 105.375,
                "A": 96.3125,
                "B": 86.8125,
                "C": 80,
                "D": 78,
                "E": 78.0625,
                "F": 104.8125,
                "G": 136.625,
                "H": 144,
                "I": 138.73333333333332,
                "J": 131.33333333333334
            },
            "bus5": {
                "L": 94.25,
                "A": 85.375,
                "B": 77.6875,
                "C": 73.6875,
                "D": 70.0625,
                "E": 70.375,
                "F": 92.1875,
                "G": 123.3125,
                "H": 130.9375,
                "I": 127.25,
                "J": 119.25,
                "K": 111.6
            },
            "bus0": {
                "B": 96.6875,
                "C": 89.75,
                "D": 87.0625,
                "E": 85.9375,
                "F": 111.3125,
                "G": 147.8125,
                "H": 157.5,
                "I": 151.3125,
                "J": 144.0625,
                "K": 135.0625,
                "L": 122.75,
                "A": 114.6
            }
        }
    ]
}