{
    "Average_holding_time": 8.46483704974271,
    "Average_holding_actions": [
        1004,
        101,
        17,
        13,
        5,
        13
    ],
    "Average_travel_time_passengers": 2592.673641994472,
    "Average_passenger_waiting_time": 305.96999552449876,
    "Average_passenger_in_vehicle_time": 2286.7036464698454,
    "Average_speed_busses": 0.04858333333333333,
    "Average_experienced_crowding": 104.49492546949789,
    "Average_covariation_headway": 0.24282885667805076,
    "Average_covariation_headway_stops": {
        "H": 0.14561862466716713,
        "G": 0.13701781605349997,
        "E": 0.13774381693155402,
        "J": 0.11593724747154069,
        "K": 0.11184176590986815,
        "B": 0.09330290792374168,
        "I": 0.10944271382750725,
        "L": 0.07619850175867295,
        "F": 0.12767168879907512,
        "C": 0.08816809997859855,
        "A": 0.07865703296935876,
        "D": 0.11766877224146864
    },
    "Average_excess_waiting_time": {
        "H": 40.857297712257434,
        "G": 42.18173472860366,
        "E": 42.636350880024736,
        "J": 38.14606181111543,
        "K": 36.283534125274855,
        "B": 37.002699976148335,
        "I": 39.43364085194298,
        "L": 35.720165095089044,
        "F": 43.20870498927707,
        "C": 38.96101967915712,
        "A": 37.31063340996707,
        "D": 42.80548879798238
    },
    "Holding_per_stop": {
        "K": 4.591836734693878,
        "E": 6.804123711340206,
        "H": 11.1340206185567,
        "G": 7.731958762886598,
        "B": 1.2244897959183674,
        "J": 12.551020408163266,
        "L": 3.36734693877551,
        "I": 12.989690721649485,
        "F": 33.125,
        "C": 1.8556701030927836,
        "A": 0.9278350515463918,
        "D": 5.625
    },
    "Actions_tfl_edges": {},
    "Load_per_bus_per_stop": {
        "bus3": {
            "H": 121.6470588235294,
            "I": 118.76470588235294,
            "J": 113.88235294117646,
            "K": 105.3125,
            "L": 96.6875,
            "A": 87.0625,
            "B": 78.5,
            "C": 72.5,
            "D": 70.4375,
            "E": 70.6875,
            "F": 92.125,
            "G": 122.6875
        },
        "bus2": {
            "G": 113.29411764705883,
            "H": 120.88235294117646,
            "I": 118.5625,
            "J": 111.75,
            "K": 104.0625,
            "L": 95,
            "A": 85.625,
            "B": 77.25,
            "C": 73.25,
            "D": 70.5,
            "E": 69.3125,
            "F": 89.0625
        },
        "bus1": {
            "E": 66.94117647058823,
            "F": 85.3125,
            "G": 117.5625,
            "H": 127.1875,
            "I": 125.5625,
            "J": 118.625,
            "K": 110.5625,
            "L": 100.75,
            "A": 89.6875,
            "B": 81.4375,
            "C": 77.0625,
            "D": 72.1875
        },
        "bus4": {
            "J": 116.05882352941177,
            "K": 108.58823529411765,
            "L": 98.23529411764706,
            "A": 88.3125,
            "B": 80.125,
            "C": 75,
            "D": 73.125,
            "E": 72.4375,
            "F": 95.3125,
            "G": 128.4375,
            "H": 135.5625,
            "I": 131.125
        },
        "bus5": {
            "K": 111.52941176470588,
            "L": 103.70588235294117,
            "A": 94.41176470588235,
            "B": 84.94117647058823,
            "C": 81.8125,
            "D": 74.9375,
            "E": 74.125,
            "F": 97.375,
            "G": 129.75,
            "H": 137.75,
            "I": 132.875,
            "J": 126.5625
        },
        "bus0": {
            "B": 87.3529411764706,
            "C": 79.52941176470588,
            "D": 75.75,
            "E": 77.75,
            "F": 104.375,
            "G": 141.5,
            "H": 149.125,
            "I": 144.25,
            "J": 137.6875,
            "K": 126.125,
            "L": 116.625,
            "A": 104.9375
        }
    },
    "Obs_and_actions_busses": {
        "6": 267.96548983343934,
        "0": 596.189540563339,
        "1": 527.8620891827645,
        "2": 492.8147064363318,
        "4": 438.9696393695504,
        "3": 463.9212740132168,
        "5": 398.7421241333119
    },
    "Obs_and_actions_tfls": {}
}