{
    "Average_holding_time": 9.896373056994818,
    "Average_travel_time_passengers": 2586.068099437882,
    "Average_speed_busses": 0.04825,
    "Average_experienced_crowding": 105.05064994983289,
    "Average_covariation_headway": 0.2452546651271087,
    "Average_covariation_headway_stops": {
        "H": 0.13038674106211526,
        "I": 0.13936938218018122,
        "F": 0.12787009054748796,
        "L": 0.11136354203895799,
        "B": 0.10419633852347854,
        "C": 0.10174182533814234,
        "J": 0.10451156842174672,
        "G": 0.09194373816794424,
        "A": 0.09227036736386832,
        "K": 0.08991669352334372,
        "D": 0.09122281862343154,
        "E": 0.11418571687346736
    },
    "Average_excess_waiting_time": {
        "H": 42.606053557418875,
        "I": 41.33420861754723,
        "F": 42.94175889422212,
        "L": 40.58525542678285,
        "B": 40.79145861031827,
        "C": 39.60070770604017,
        "J": 40.33221044561577,
        "G": 41.882056881496,
        "A": 41.212509859363024,
        "K": 41.01800573248329,
        "D": 40.71771023592214,
        "E": 43.655175811988954
    },
    "Holding_per_stop": {
        "I": 3.711340206185567,
        "H": 12.061855670103093,
        "L": 5.257731958762887,
        "C": 4.948453608247423,
        "F": 49.6875,
        "J": 7.731958762886598,
        "B": 3.711340206185567,
        "A": 3.4375,
        "K": 2.1875,
        "D": 4.375,
        "G": 11.25,
        "E": 10.625
    },
    "Actions_tfl_edges": {},
    "Load_per_bus_per_stop": {
        "bus3": {
            "H": 121.3529411764706,
            "I": 115.875,
            "J": 108.75,
            "K": 102.5,
            "L": 93.375,
            "A": 84.4375,
            "B": 77.75,
            "C": 72.4375,
            "D": 70.125,
            "E": 69.5625,
            "F": 90.875,
            "G": 120.9375
        },
        "bus4": {
            "I": 115.29411764705883,
            "J": 109.52941176470588,
            "K": 101.8125,
            "L": 93.5625,
            "A": 85.3125,
            "B": 76.9375,
            "C": 74,
            "D": 71.1875,
            "E": 70.25,
            "F": 92.25,
            "G": 121.75,
            "H": 129
        },
        "bus2": {
            "F": 93.88235294117646,
            "G": 127.6875,
            "H": 136.6875,
            "I": 134.5625,
            "J": 129.125,
            "K": 120.5,
            "L": 112.4375,
            "A": 99.9375,
            "B": 90.8125,
            "C": 84.5625,
            "D": 79.0625,
            "E": 75.5
        },
        "bus5": {
            "L": 99.3529411764706,
            "A": 90.0625,
            "B": 82.75,
            "C": 77.25,
            "D": 72.8125,
            "E": 70.3125,
            "F": 92.9375,
            "G": 125.8125,
            "H": 134.5,
            "I": 131.8125,
            "J": 123.875,
            "K": 114.5
        },
        "bus0": {
            "B": 79.76470588235294,
            "C": 74,
            "D": 68.625,
            "E": 69.125,
            "F": 91.1875,
            "G": 122.75,
            "H": 130.6875,
            "I": 127.0625,
            "J": 118.375,
            "K": 109.4375,
            "L": 101.25,
            "A": 93
        },
        "bus1": {
            "C": 81.41176470588235,
            "D": 77.375,
            "E": 75.75,
            "F": 100.375,
            "G": 135.5625,
            "H": 144.5625,
            "I": 141.5625,
            "J": 135.625,
            "K": 125.8125,
            "L": 115.75,
            "A": 103.875,
            "B": 91.1875
        }
    }
}