{
    "Average_holding_time": 28.282548476454295,
    "Average_holding_actions": [
        721,
        0,
        263,
        0,
        99,
        0
    ],
    "Average_travel_time_passengers": 2149.0793698823713,
    "Average_passenger_waiting_time": 354.47473870286626,
    "Average_passenger_in_vehicle_time": 1794.6046311795105,
    "Average_speed_busses": 0.045125,
    "Average_experienced_crowding": 63.074044969387025,
    "Average_covariation_headway": 0.3665045830562156,
    "Average_covariation_headway_stops": {
        "D": 0.31628255512210457,
        "B": 0.3084695363803174,
        "F": 0.29529441860073113,
        "L": 0.2962879041831969,
        "I": 0.2990535360797208,
        "E": 0.3092202571216348,
        "C": 0.3051085554334858,
        "J": 0.282644968668718,
        "G": 0.2578995169330719,
        "A": 0.28583127408604997,
        "H": 0.27453114354849517,
        "K": 0.3010014623159316
    },
    "Average_excess_waiting_time": {
        "D": 86.60851427906363,
        "B": 85.4710472577782,
        "F": 79.67949074101108,
        "L": 82.18083067354985,
        "I": 81.88955072112918,
        "E": 82.89290526669873,
        "C": 86.40646914721685,
        "J": 80.2355312077558,
        "G": 75.10537570903159,
        "A": 82.71301298075599,
        "H": 79.4316190072862,
        "K": 85.65378540574511
    },
    "Holding_per_stop": {
        "B": 28.666666666666668,
        "D": 26,
        "F": 29.34065934065934,
        "I": 27.032967032967033,
        "E": 33.956043956043956,
        "L": 34.333333333333336,
        "C": 28.666666666666668,
        "G": 28.333333333333332,
        "J": 19.666666666666668,
        "A": 27.666666666666668,
        "H": 25,
        "K": 30.666666666666668
    },
    "Actions_tfl_edges": {
        "AB": [
            27,
            55,
            9
        ],
        "CD": [
            33,
            47,
            11
        ],
        "DE": [
            25,
            50,
            16
        ],
        "EF": [
            30,
            47,
            15
        ],
        "HI": [
            30,
            45,
            16
        ],
        "KL": [
            36,
            40,
            15
        ],
        "BC": [
            38,
            42,
            10
        ],
        "FG": [
            38,
            43,
            10
        ],
        "IJ": [
            36,
            42,
            13
        ],
        "LA": [
            33,
            43,
            14
        ],
        "GH": [
            30,
            48,
            12
        ],
        "JK": [
            40,
            35,
            15
        ]
    },
    "Load_per_bus_per_stop": {
        "bus1": {
            "D": 48.333333333333336,
            "E": 51.8,
            "F": 55.8,
            "G": 56.46666666666667,
            "H": 56.46666666666667,
            "I": 56.333333333333336,
            "J": 57.8,
            "K": 56.46666666666667,
            "L": 55.93333333333333,
            "A": 54.13333333333333,
            "B": 53.13333333333333,
            "C": 52.2
        },
        "bus0": {
            "B": 58.53333333333333,
            "C": 58.333333333333336,
            "D": 58.13333333333333,
            "E": 56.86666666666667,
            "F": 57.06666666666667,
            "G": 57.6,
            "H": 58.86666666666667,
            "I": 59.53333333333333,
            "J": 60.8,
            "K": 62,
            "L": 61.53333333333333,
            "A": 61.93333333333333
        },
        "bus3": {
            "F": 53.8125,
            "G": 52.625,
            "H": 53.13333333333333,
            "I": 54.93333333333333,
            "J": 54.733333333333334,
            "K": 58,
            "L": 58.53333333333333,
            "A": 56.86666666666667,
            "B": 56.8,
            "C": 55.8,
            "D": 55.53333333333333,
            "E": 55.8
        },
        "bus5": {
            "L": 66.125,
            "A": 66.53333333333333,
            "B": 68.06666666666666,
            "C": 66.73333333333333,
            "D": 67.73333333333333,
            "E": 69.4,
            "F": 69.93333333333334,
            "G": 69.06666666666666,
            "H": 68.86666666666666,
            "I": 69.13333333333334,
            "J": 70.93333333333334,
            "K": 69.6
        },
        "bus4": {
            "I": 64.875,
            "J": 63.06666666666667,
            "K": 63.53333333333333,
            "L": 65.93333333333334,
            "A": 66.13333333333334,
            "B": 67.66666666666667,
            "C": 69,
            "D": 68.26666666666667,
            "E": 68.06666666666666,
            "F": 68.33333333333333,
            "G": 67.93333333333334,
            "H": 67.13333333333334
        },
        "bus2": {
            "E": 48.75,
            "F": 48.733333333333334,
            "G": 48.93333333333333,
            "H": 49.93333333333333,
            "I": 50.733333333333334,
            "J": 52.06666666666667,
            "K": 53.733333333333334,
            "L": 53.333333333333336,
            "A": 52.93333333333333,
            "B": 51.13333333333333,
            "C": 51.733333333333334,
            "D": 50.8
        }
    },
    "Obs_and_actions_busses": {
        "0": -145.16805705738017,
        "5": 373.92735972766934,
        "2": 182.55465202625405
    },
    "Obs_and_actions_tfls": {
        "1": -65.6137398200103,
        "0": 269.2648867930803,
        "2": 466.0219873107847
    }
}