{
    "Average_holding_time": 25.89908256880734,
    "Average_holding_actions": [
        720,
        0,
        303,
        0,
        67,
        0
    ],
    "Average_travel_time_passengers": 2126.4796725018855,
    "Average_passenger_waiting_time": 345.51906975539134,
    "Average_passenger_in_vehicle_time": 1780.9606027464943,
    "Average_speed_busses": 0.04541666666666667,
    "Average_experienced_crowding": 61.938696684398586,
    "Average_covariation_headway": 0.35217226507978183,
    "Average_covariation_headway_stops": {
        "L": 0.27589974759018554,
        "D": 0.22659853156358087,
        "G": 0.2718804780391624,
        "H": 0.2698215966598132,
        "C": 0.24459912269966835,
        "A": 0.28029477682252124,
        "E": 0.2215133464013569,
        "I": 0.25352820899126555,
        "B": 0.2718285178656709,
        "F": 0.24360278427970916,
        "J": 0.25381918041069923,
        "K": 0.27059844175964315
    },
    "Average_excess_waiting_time": {
        "L": 78.06706438314365,
        "D": 66.48812001861126,
        "G": 74.43519627426241,
        "H": 71.94421058861366,
        "C": 71.26908645295697,
        "A": 78.00874367891919,
        "E": 66.95129136459127,
        "I": 71.35647471282545,
        "B": 77.10622290149246,
        "F": 72.24008537122603,
        "J": 73.94403673176367,
        "K": 78.55544803892832
    },
    "Holding_per_stop": {
        "D": 20.76923076923077,
        "H": 23.47826086956522,
        "A": 29.67032967032967,
        "C": 29.01098901098901,
        "L": 25.333333333333332,
        "G": 25.714285714285715,
        "E": 23.736263736263737,
        "I": 26.043956043956044,
        "B": 30.333333333333332,
        "F": 18.46153846153846,
        "J": 29.67032967032967,
        "K": 28.666666666666668
    },
    "Actions_tfl_edges": {
        "BC": [
            31,
            49,
            11
        ],
        "CD": [
            40,
            46,
            6
        ],
        "FG": [
            22,
            52,
            17
        ],
        "GH": [
            33,
            46,
            13
        ],
        "KL": [
            25,
            51,
            15
        ],
        "LA": [
            30,
            45,
            16
        ],
        "DE": [
            37,
            45,
            9
        ],
        "HI": [
            32,
            44,
            16
        ],
        "AB": [
            35,
            46,
            10
        ],
        "EF": [
            35,
            45,
            11
        ],
        "IJ": [
            39,
            42,
            10
        ],
        "JK": [
            34,
            44,
            13
        ]
    },
    "Load_per_bus_per_stop": {
        "bus4": {
            "L": 57.875,
            "A": 56.53333333333333,
            "B": 58.06666666666667,
            "C": 59.46666666666667,
            "D": 58.733333333333334,
            "E": 59.666666666666664,
            "F": 60.06666666666667,
            "G": 61,
            "H": 60.733333333333334,
            "I": 62.4,
            "J": 62.06666666666667,
            "K": 62
        },
        "bus1": {
            "D": 58,
            "E": 58.9375,
            "F": 58.25,
            "G": 58.53333333333333,
            "H": 59.6,
            "I": 60.46666666666667,
            "J": 61,
            "K": 60.333333333333336,
            "L": 59.8,
            "A": 60.13333333333333,
            "B": 60.93333333333333,
            "C": 61.733333333333334
        },
        "bus2": {
            "G": 54.5625,
            "H": 54.5625,
            "I": 56.733333333333334,
            "J": 56.06666666666667,
            "K": 56.86666666666667,
            "L": 57.93333333333333,
            "A": 59.46666666666667,
            "B": 56.333333333333336,
            "C": 56.6,
            "D": 57.4,
            "E": 57.86666666666667,
            "F": 56.6
        },
        "bus3": {
            "H": 64.125,
            "I": 63.125,
            "J": 63.375,
            "K": 64.73333333333333,
            "L": 65.46666666666667,
            "A": 65.86666666666666,
            "B": 65.86666666666666,
            "C": 65.73333333333333,
            "D": 67.33333333333333,
            "E": 67.66666666666667,
            "F": 67.86666666666666,
            "G": 67.46666666666667
        },
        "bus0": {
            "C": 55.125,
            "D": 54.0625,
            "E": 51.2,
            "F": 54.266666666666666,
            "G": 55.53333333333333,
            "H": 55,
            "I": 56.733333333333334,
            "J": 56.93333333333333,
            "K": 56.46666666666667,
            "L": 55.53333333333333,
            "A": 55.2,
            "B": 57.4
        },
        "bus5": {
            "A": 56.6875,
            "B": 57.93333333333333,
            "C": 58.733333333333334,
            "D": 60.6,
            "E": 61,
            "F": 60.93333333333333,
            "G": 60.4,
            "H": 61.4,
            "I": 61.333333333333336,
            "J": 61.4,
            "K": 60.6,
            "L": 59.6
        }
    },
    "Obs_and_actions_busses": {
        "5": 400.55911591407965,
        "2": 182.4224260204768,
        "0": -138.76987081821775
    },
    "Obs_and_actions_tfls": {
        "0": 268.60661554922507,
        "1": -49.05894810129611,
        "2": 458.73705462497446
    }
}