{
    "Average_holding_time": 28.333333333333332,
    "Average_holding_actions": [
        699,
        0,
        295,
        0,
        86,
        0
    ],
    "Average_travel_time_passengers": 2168.71361559395,
    "Average_passenger_waiting_time": 348.5851224265071,
    "Average_passenger_in_vehicle_time": 1820.1284931674577,
    "Average_speed_busses": 0.045,
    "Average_experienced_crowding": 63.06941931268764,
    "Average_covariation_headway": 0.35615911675244816,
    "Average_covariation_headway_stops": {
        "G": 0.2516734677547638,
        "E": 0.2695986500207434,
        "A": 0.28496147116138676,
        "J": 0.297071952792629,
        "I": 0.2788228745385225,
        "H": 0.266159777372028,
        "B": 0.27341415251430584,
        "K": 0.27002856013331816,
        "F": 0.2444222644979436,
        "L": 0.24080480877211685,
        "C": 0.26897106266095766,
        "D": 0.27487299813619953
    },
    "Average_excess_waiting_time": {
        "G": 77.72275309489038,
        "E": 79.49985789531667,
        "A": 78.7657806419902,
        "J": 80.27382544465496,
        "I": 78.66125020748802,
        "H": 77.4713099537309,
        "B": 77.05752797240712,
        "K": 77.35310671890835,
        "F": 78.74861275527417,
        "L": 73.0251191050977,
        "C": 78.20123843029353,
        "D": 81.39602699358653
    },
    "Holding_per_stop": {
        "A": 26.703296703296704,
        "J": 31.64835164835165,
        "I": 26.666666666666668,
        "G": 28,
        "H": 27.333333333333332,
        "E": 28.333333333333332,
        "B": 23.333333333333332,
        "K": 36,
        "F": 29.662921348314608,
        "L": 26,
        "C": 24.333333333333332,
        "D": 32.02247191011236
    },
    "Actions_tfl_edges": {
        "DE": [
            32,
            45,
            13
        ],
        "FG": [
            33,
            49,
            8
        ],
        "GH": [
            40,
            41,
            10
        ],
        "HI": [
            30,
            45,
            16
        ],
        "IJ": [
            35,
            44,
            12
        ],
        "LA": [
            34,
            46,
            11
        ],
        "AB": [
            25,
            54,
            12
        ],
        "JK": [
            26,
            52,
            13
        ],
        "EF": [
            33,
            48,
            9
        ],
        "BC": [
            31,
            44,
            15
        ],
        "KL": [
            32,
            45,
            13
        ],
        "CD": [
            21,
            47,
            22
        ]
    },
    "Load_per_bus_per_stop": {
        "bus1": {
            "G": 57.333333333333336,
            "H": 60.266666666666666,
            "I": 60.666666666666664,
            "J": 61.53333333333333,
            "K": 61.666666666666664,
            "L": 62,
            "A": 60.46666666666667,
            "B": 59.06666666666667,
            "C": 57.8,
            "D": 57.4,
            "E": 56.266666666666666,
            "F": 59.214285714285715
        },
        "bus0": {
            "E": 54,
            "F": 55.266666666666666,
            "G": 57.06666666666667,
            "H": 57.8,
            "I": 56.6,
            "J": 57.4,
            "K": 56.8,
            "L": 58.266666666666666,
            "A": 58.46666666666667,
            "B": 59.06666666666667,
            "C": 58.13333333333333,
            "D": 56.333333333333336
        },
        "bus5": {
            "A": 56.9375,
            "B": 55.266666666666666,
            "C": 56.46666666666667,
            "D": 58.2,
            "E": 60.13333333333333,
            "F": 62.6,
            "G": 61.8,
            "H": 62.6,
            "I": 62.4,
            "J": 64.93333333333334,
            "K": 63.4,
            "L": 61.333333333333336
        },
        "bus4": {
            "J": 57.0625,
            "K": 56.5625,
            "L": 54.06666666666667,
            "A": 56.266666666666666,
            "B": 58.2,
            "C": 58.13333333333333,
            "D": 58.666666666666664,
            "E": 62.4,
            "F": 61.2,
            "G": 61.46666666666667,
            "H": 62.86666666666667,
            "I": 61.666666666666664
        },
        "bus3": {
            "I": 59.25,
            "J": 60,
            "K": 60.266666666666666,
            "L": 62.53333333333333,
            "A": 62.06666666666667,
            "B": 62.93333333333333,
            "C": 63.8,
            "D": 66.53333333333333,
            "E": 64.66666666666667,
            "F": 63.333333333333336,
            "G": 62.666666666666664,
            "H": 61.86666666666667
        },
        "bus2": {
            "H": 61.2,
            "I": 62.6,
            "J": 62.06666666666667,
            "K": 60.8,
            "L": 61.733333333333334,
            "A": 61.2,
            "B": 61.333333333333336,
            "C": 64.26666666666667,
            "D": 66.06666666666666,
            "E": 67.4,
            "F": 68.4,
            "G": 67.33333333333333
        }
    },
    "Obs_and_actions_busses": {
        "5": 361.02298436372297,
        "2": 174.71286340461108,
        "0": -148.1517778315501
    },
    "Obs_and_actions_tfls": {
        "2": 449.6069986944583,
        "0": 268.85134847553815,
        "1": -59.02187022879384
    }
}45369803198534,
        "2": 181.2404856884471
    },
    "Obs_and_actions_tfls": {
        "2": 474.9156547016702,
        "1": -66.71402972970289,
        "0": 269.900317904927
    }
}