{
    "Average_holding_time": 23.972602739726028,
    "Average_holding_actions": [
        746,
        0,
        290,
        0,
        59,
        0
    ],
    "Average_travel_time_passengers": 2106.691192155245,
    "Average_passenger_waiting_time": 339.7910089720942,
    "Average_passenger_in_vehicle_time": 1766.900183183127,
    "Average_speed_busses": 0.045625,
    "Average_experienced_crowding": 61.15945677783825,
    "Average_covariation_headway": 0.3381141502848842,
    "Average_covariation_headway_stops": {
        "B": 0.2517362628344661,
        "E": 0.2694698186609048,
        "H": 0.2544130072958007,
        "F": 0.24643970612456728,
        "L": 0.2622994502420337,
        "J": 0.22964339171341533,
        "C": 0.25673705847527806,
        "G": 0.23564079814372293,
        "A": 0.23385026739038,
        "I": 0.23081033233460702,
        "K": 0.25178656923264225,
        "D": 0.2592352397983771
    },
    "Average_excess_waiting_time": {
        "B": 70.06319152543699,
        "E": 74.19018162755498,
        "H": 70.02130313261097,
        "F": 68.63109822584943,
        "L": 72.09007614126426,
        "J": 66.66781835465514,
        "C": 73.15042677841262,
        "G": 69.25079754082003,
        "A": 68.93774587790796,
        "I": 69.16599108274795,
        "K": 72.29702367251213,
        "D": 75.47253515092933
    },
    "Holding_per_stop": {
        "B": 21.52173913043478,
        "H": 21.52173913043478,
        "F": 29.347826086956523,
        "L": 22.417582417582416,
        "E": 30,
        "J": 21.52173913043478,
        "C": 26.703296703296704,
        "A": 21.75824175824176,
        "G": 23.406593406593405,
        "I": 24.395604395604394,
        "K": 22.747252747252748,
        "D": 22.333333333333332
    },
    "Actions_tfl_edges": {
        "AB": [
            45,
            40,
            7
        ],
        "DE": [
            36,
            42,
            13
        ],
        "EF": [
            39,
            42,
            11
        ],
        "GH": [
            29,
            51,
            12
        ],
        "IJ": [
            28,
            50,
            14
        ],
        "KL": [
            38,
            44,
            10
        ],
        "BC": [
            45,
            40,
            7
        ],
        "HI": [
            31,
            48,
            13
        ],
        "FG": [
            37,
            44,
            11
        ],
        "LA": [
            41,
            40,
            10
        ],
        "JK": [
            29,
            52,
            11
        ],
        "CD": [
            33,
            42,
            16
        ]
    },
    "Load_per_bus_per_stop": {
        "bus0": {
            "B": 54.5,
            "C": 54.1875,
            "D": 55.75,
            "E": 56.86666666666667,
            "F": 59.86666666666667,
            "G": 60.06666666666667,
            "H": 59.86666666666667,
            "I": 59.8,
            "J": 59.93333333333333,
            "K": 58.86666666666667,
            "L": 57.666666666666664,
            "A": 57.93333333333333
        },
        "bus1": {
            "E": 53.0625,
            "F": 53.4375,
            "G": 54.733333333333334,
            "H": 54.6,
            "I": 54.53333333333333,
            "J": 54.53333333333333,
            "K": 55.6,
            "L": 58.333333333333336,
            "A": 58.93333333333333,
            "B": 59.13333333333333,
            "C": 58.53333333333333,
            "D": 58.53333333333333
        },
        "bus3": {
            "H": 59.125,
            "I": 60.8125,
            "J": 60.6875,
            "K": 61.733333333333334,
            "L": 60.6,
            "A": 61.93333333333333,
            "B": 63.8,
            "C": 64.06666666666666,
            "D": 64.33333333333333,
            "E": 65,
            "F": 63.4,
            "G": 62.13333333333333
        },
        "bus2": {
            "F": 56.125,
            "G": 55.0625,
            "H": 56.1875,
            "I": 54.13333333333333,
            "J": 54.8,
            "K": 54.86666666666667,
            "L": 55.46666666666667,
            "A": 54.53333333333333,
            "B": 56,
            "C": 55.93333333333333,
            "D": 60.6,
            "E": 60.8
        },
        "bus5": {
            "L": 59.625,
            "A": 59.0625,
            "B": 58.6875,
            "C": 59.4,
            "D": 56.46666666666667,
            "E": 58.8,
            "F": 60.8,
            "G": 61.266666666666666,
            "H": 65.26666666666667,
            "I": 66.4,
            "J": 66.13333333333334,
            "K": 64.13333333333334
        },
        "bus4": {
            "J": 57,
            "K": 57.5,
            "L": 58.8125,
            "A": 56.8,
            "B": 57.6,
            "C": 56.93333333333333,
            "D": 59.46666666666667,
            "E": 57.2,
            "F": 58.46666666666667,
            "G": 58.4,
            "H": 57.666666666666664,
            "I": 59.93333333333333
        }
    },
    "Obs_and_actions_busses": {
        "0": -119.80907801587101,
        "2": 176.19939711305204,
        "5": 359.3471440287224
    },
    "Obs_and_actions_tfls": {
        "1": -48.104035745417065,
        "0": 258.601326947185,
        "2": 459.80735371879274
    }
}