{
    "Average_holding_time": 31.368715083798882,
    "Average_holding_actions": [
        667,
        0,
        304,
        0,
        103,
        0
    ],
    "Average_travel_time_passengers": 2172.0106972656527,
    "Average_passenger_waiting_time": 360.97858954967637,
    "Average_passenger_in_vehicle_time": 1811.032107715951,
    "Average_speed_busses": 0.04475,
    "Average_experienced_crowding": 64.4363162002938,
    "Average_covariation_headway": 0.39378773002515927,
    "Average_covariation_headway_stops": {
        "L": 0.33308202985669183,
        "B": 0.3114753978665115,
        "F": 0.29872889908386363,
        "C": 0.30705653820242124,
        "E": 0.2736113637689692,
        "I": 0.3068607863357864,
        "G": 0.29203528457274164,
        "J": 0.28864808220777444,
        "D": 0.278338664221462,
        "A": 0.29487455097558274,
        "H": 0.30463855498478026,
        "K": 0.2945743696045189
    },
    "Average_excess_waiting_time": {
        "L": 93.23504680800698,
        "B": 90.29998739261038,
        "F": 82.43574034124993,
        "C": 87.15863190699008,
        "E": 79.72823363480478,
        "I": 85.70409943879997,
        "G": 83.65893599788973,
        "J": 84.1817112295912,
        "D": 82.85768431724131,
        "A": 87.51274873691676,
        "H": 87.08964952705293,
        "K": 87.65396096294035
    },
    "Holding_per_stop": {
        "F": 27.333333333333332,
        "C": 40.666666666666664,
        "I": 34.666666666666664,
        "E": 31,
        "L": 31.333333333333332,
        "B": 33.70786516853933,
        "G": 26,
        "J": 28.651685393258425,
        "D": 34.04494382022472,
        "A": 29.325842696629213,
        "H": 29.325842696629213,
        "K": 30.337078651685392
    },
    "Actions_tfl_edges": {
        "AB": [
            30,
            44,
            16
        ],
        "BC": [
            36,
            43,
            11
        ],
        "DE": [
            30,
            47,
            13
        ],
        "EF": [
            35,
            47,
            9
        ],
        "HI": [
            31,
            43,
            16
        ],
        "KL": [
            32,
            45,
            13
        ],
        "FG": [
            36,
            41,
            13
        ],
        "CD": [
            36,
            42,
            12
        ],
        "IJ": [
            30,
            46,
            14
        ],
        "LA": [
            30,
            44,
            16
        ],
        "GH": [
            40,
            36,
            14
        ],
        "JK": [
            29,
            47,
            13
        ]
    },
    "Load_per_bus_per_stop": {
        "bus5": {
            "L": 49.8,
            "A": 51.06666666666667,
            "B": 53.86666666666667,
            "C": 56.666666666666664,
            "D": 58.2,
            "E": 60.06666666666667,
            "F": 60.86666666666667,
            "G": 60.266666666666666,
            "H": 58.93333333333333,
            "I": 56.733333333333334,
            "J": 54.266666666666666,
            "K": 53.07142857142857
        },
        "bus0": {
            "B": 55.666666666666664,
            "C": 55.53333333333333,
            "D": 56.86666666666667,
            "E": 58.666666666666664,
            "F": 59,
            "G": 62.2,
            "H": 63.93333333333333,
            "I": 62.733333333333334,
            "J": 63.733333333333334,
            "K": 64.26666666666667,
            "L": 62.2,
            "A": 59.57142857142857
        },
        "bus3": {
            "F": 71.3125,
            "G": 72.53333333333333,
            "H": 73.26666666666667,
            "I": 71.66666666666667,
            "J": 70.46666666666667,
            "K": 72.6,
            "L": 73.06666666666666,
            "A": 72.73333333333333,
            "B": 71.4,
            "C": 73.4,
            "D": 72.26666666666667,
            "E": 74.66666666666667
        },
        "bus1": {
            "C": 52.2,
            "D": 54.46666666666667,
            "E": 56.53333333333333,
            "F": 57.06666666666667,
            "G": 57.666666666666664,
            "H": 59.8,
            "I": 59.46666666666667,
            "J": 57.2,
            "K": 53.8,
            "L": 54.8,
            "A": 53.8,
            "B": 53.642857142857146
        },
        "bus2": {
            "E": 49.86666666666667,
            "F": 50.733333333333334,
            "G": 52.46666666666667,
            "H": 54.2,
            "I": 53.06666666666667,
            "J": 54.333333333333336,
            "K": 54.06666666666667,
            "L": 52.733333333333334,
            "A": 53.13333333333333,
            "B": 51.333333333333336,
            "C": 52.53333333333333,
            "D": 53.285714285714285
        },
        "bus4": {
            "I": 62.13333333333333,
            "J": 60.86666666666667,
            "K": 62.4,
            "L": 63,
            "A": 64.26666666666667,
            "B": 63.333333333333336,
            "C": 61.2,
            "D": 63.2,
            "E": 63.333333333333336,
            "F": 61.06666666666667,
            "G": 62.333333333333336,
            "H": 65.78571428571429
        }
    },
    "Obs_and_actions_busses": {
        "5": 363.0520446796978,
        "0": -167.16724209626315,
        "2": 181.5683095291519
    },
    "Obs_and_actions_tfls": {
        "0": 267.3241629271689,
        "1": -80.61103324055243,
        "2": 474.300730623655
    }
}