{
    "Average_holding_time": 27.235023041474655,
    "Average_holding_actions": [
        735,
        0,
        255,
        0,
        95,
        0
    ],
    "Average_travel_time_passengers": 2118.574917234932,
    "Average_passenger_waiting_time": 343.7142145541432,
    "Average_passenger_in_vehicle_time": 1774.8607026808165,
    "Average_speed_busses": 0.045208333333333336,
    "Average_experienced_crowding": 61.307984243742624,
    "Average_covariation_headway": 0.3405049602807146,
    "Average_covariation_headway_stops": {
        "G": 0.2886192958910953,
        "L": 0.24239452332616715,
        "B": 0.23455919277021228,
        "J": 0.262895646045525,
        "H": 0.27527334987683416,
        "C": 0.2523193531750315,
        "K": 0.25171080684785113,
        "A": 0.22395369770161616,
        "I": 0.2636979242602019,
        "D": 0.2514790838384666,
        "E": 0.24447404439366446,
        "F": 0.2779801905968412
    },
    "Average_excess_waiting_time": {
        "G": 79.8533946555795,
        "L": 70.72723249884427,
        "B": 70.34047910312444,
        "J": 74.42921331199608,
        "H": 75.44723407947544,
        "C": 72.70015933947013,
        "K": 74.7028516848685,
        "A": 70.65579655793243,
        "I": 76.27119149300586,
        "D": 73.68288550869255,
        "E": 74.46331100049247,
        "F": 82.0107060333554
    },
    "Holding_per_stop": {
        "L": 27.36263736263736,
        "J": 30.32967032967033,
        "B": 24.395604395604394,
        "H": 30.32967032967033,
        "C": 24.725274725274726,
        "G": 26,
        "K": 27.333333333333332,
        "A": 28.666666666666668,
        "I": 34.666666666666664,
        "D": 25,
        "E": 20.333333333333332,
        "F": 27.666666666666668
    },
    "Actions_tfl_edges": {
        "AB": [
            42,
            40,
            9
        ],
        "BC": [
            33,
            48,
            11
        ],
        "FG": [
            29,
            45,
            17
        ],
        "GH": [
            34,
            44,
            13
        ],
        "IJ": [
            26,
            47,
            18
        ],
        "KL": [
            34,
            44,
            13
        ],
        "LA": [
            35,
            44,
            12
        ],
        "JK": [
            29,
            47,
            15
        ],
        "HI": [
            32,
            43,
            16
        ],
        "CD": [
            35,
            48,
            8
        ],
        "DE": [
            32,
            48,
            10
        ],
        "EF": [
            33,
            42,
            15
        ]
    },
    "Load_per_bus_per_stop": {
        "bus2": {
            "G": 62.266666666666666,
            "H": 63.46666666666667,
            "I": 62.333333333333336,
            "J": 62.06666666666667,
            "K": 62.8,
            "L": 62.13333333333333,
            "A": 63.666666666666664,
            "B": 62.333333333333336,
            "C": 64.33333333333333,
            "D": 66.2,
            "E": 67.8,
            "F": 67.66666666666667
        },
        "bus5": {
            "L": 49.75,
            "A": 51.733333333333334,
            "B": 52.46666666666667,
            "C": 56.4,
            "D": 56.666666666666664,
            "E": 56.6,
            "F": 58.13333333333333,
            "G": 57.666666666666664,
            "H": 57.2,
            "I": 56.13333333333333,
            "J": 55,
            "K": 52.6
        },
        "bus0": {
            "B": 49.875,
            "C": 50.733333333333334,
            "D": 50.06666666666667,
            "E": 50.06666666666667,
            "F": 50.86666666666667,
            "G": 50.266666666666666,
            "H": 49.93333333333333,
            "I": 50.2,
            "J": 52.733333333333334,
            "K": 53.13333333333333,
            "L": 52.6,
            "A": 52.333333333333336
        },
        "bus4": {
            "J": 63.0625,
            "K": 64.06666666666666,
            "L": 64.93333333333334,
            "A": 67,
            "B": 68.86666666666666,
            "C": 67.73333333333333,
            "D": 66.86666666666666,
            "E": 65.06666666666666,
            "F": 64.46666666666667,
            "G": 64.2,
            "H": 65,
            "I": 67.73333333333333
        },
        "bus3": {
            "H": 56.875,
            "I": 58.875,
            "J": 59.46666666666667,
            "K": 58.8,
            "L": 59.93333333333333,
            "A": 62.06666666666667,
            "B": 63.86666666666667,
            "C": 63.733333333333334,
            "D": 65.26666666666667,
            "E": 64.26666666666667,
            "F": 62.06666666666667,
            "G": 60.6
        },
        "bus1": {
            "C": 56.125,
            "D": 53.8,
            "E": 54.266666666666666,
            "F": 54.2,
            "G": 57.13333333333333,
            "H": 56.4,
            "I": 55.93333333333333,
            "J": 58.666666666666664,
            "K": 58.333333333333336,
            "L": 60.333333333333336,
            "A": 59.86666666666667,
            "B": 59.8
        }
    },
    "Obs_and_actions_busses": {
        "5": 394.4757655669239,
        "0": -137.2050093966082,
        "2": 174.5725225582969
    },
    "Obs_and_actions_tfls": {
        "0": 262.1349704055659,
        "1": -56.44502714844266,
        "2": 468.59722868212884
    }
}9876
    }
}