{
    "Average_holding_time": 27.622119815668203,
    "Average_holding_actions": [
        734,
        0,
        252,
        0,
        99,
        0
    ],
    "Average_travel_time_passengers": 2165.2060780726097,
    "Average_passenger_waiting_time": 353.82717349068577,
    "Average_passenger_in_vehicle_time": 1811.3789045818955,
    "Average_speed_busses": 0.045208333333333336,
    "Average_experienced_crowding": 63.62902175634039,
    "Average_covariation_headway": 0.3714642572683594,
    "Average_covariation_headway_stops": {
        "A": 0.28379223075408916,
        "B": 0.2871807918281579,
        "G": 0.30475263575974537,
        "K": 0.30463940247779064,
        "H": 0.29772721053313983,
        "I": 0.3056048274950716,
        "C": 0.2677002713901157,
        "L": 0.27358626890259563,
        "J": 0.29924876299416164,
        "D": 0.2623140737386974,
        "E": 0.28784647828805454,
        "F": 0.28189229835825913
    },
    "Average_excess_waiting_time": {
        "A": 78.3492901252157,
        "B": 78.08149977328969,
        "G": 87.39511953153749,
        "K": 81.97251026584496,
        "H": 83.28060881384391,
        "I": 82.66424045924168,
        "C": 76.39171491323754,
        "L": 77.65113502487401,
        "J": 83.20274277301922,
        "D": 76.97685867698658,
        "E": 83.45064516495921,
        "F": 84.8637142708759
    },
    "Holding_per_stop": {
        "B": 31.318681318681318,
        "K": 26.703296703296704,
        "H": 26.333333333333332,
        "I": 28.681318681318682,
        "A": 29.34065934065934,
        "G": 28.666666666666668,
        "C": 24.395604395604394,
        "L": 26.043956043956044,
        "J": 25.333333333333332,
        "D": 29,
        "E": 29.333333333333332,
        "F": 26.292134831460675
    },
    "Actions_tfl_edges": {
        "AB": [
            37,
            47,
            8
        ],
        "FG": [
            36,
            43,
            11
        ],
        "GH": [
            31,
            46,
            14
        ],
        "HI": [
            31,
            46,
            14
        ],
        "JK": [
            23,
            49,
            19
        ],
        "LA": [
            32,
            43,
            17
        ],
        "BC": [
            32,
            50,
            9
        ],
        "KL": [
            33,
            39,
            19
        ],
        "IJ": [
            30,
            47,
            14
        ],
        "CD": [
            31,
            44,
            16
        ],
        "DE": [
            38,
            41,
            11
        ],
        "EF": [
            34,
            45,
            11
        ]
    },
    "Load_per_bus_per_stop": {
        "bus5": {
            "A": 53.0625,
            "B": 55.8,
            "C": 57.86666666666667,
            "D": 57.333333333333336,
            "E": 57.266666666666666,
            "F": 58.2,
            "G": 59.6,
            "H": 60.46666666666667,
            "I": 58.333333333333336,
            "J": 56.53333333333333,
            "K": 56.93333333333333,
            "L": 57
        },
        "bus0": {
            "B": 57.9375,
            "C": 56.8125,
            "D": 54.733333333333334,
            "E": 53.6,
            "F": 55.2,
            "G": 60.2,
            "H": 61.4,
            "I": 61.2,
            "J": 62.86666666666667,
            "K": 63.4,
            "L": 63.86666666666667,
            "A": 61.4
        },
        "bus1": {
            "G": 63.266666666666666,
            "H": 64.06666666666666,
            "I": 64.2,
            "J": 61.93333333333333,
            "K": 62,
            "L": 64.4,
            "A": 65.93333333333334,
            "B": 65.93333333333334,
            "C": 64.93333333333334,
            "D": 64.73333333333333,
            "E": 66.06666666666666,
            "F": 68.71428571428571
        },
        "bus4": {
            "K": 60.9375,
            "L": 61.1875,
            "A": 63.86666666666667,
            "B": 64.26666666666667,
            "C": 61.93333333333333,
            "D": 61.8,
            "E": 59.266666666666666,
            "F": 60.266666666666666,
            "G": 62.4,
            "H": 61.666666666666664,
            "I": 62.6,
            "J": 64.6
        },
        "bus2": {
            "H": 61.666666666666664,
            "I": 63.46666666666667,
            "J": 62.8,
            "K": 63.6,
            "L": 61.8,
            "A": 60.86666666666667,
            "B": 61.86666666666667,
            "C": 63.06666666666667,
            "D": 63.333333333333336,
            "E": 62.93333333333333,
            "F": 63,
            "G": 64.53333333333333
        },
        "bus3": {
            "I": 55.375,
            "J": 55.86666666666667,
            "K": 54.86666666666667,
            "L": 53.333333333333336,
            "A": 53.46666666666667,
            "B": 54.733333333333334,
            "C": 56.46666666666667,
            "D": 60.8,
            "E": 59.6,
            "F": 60.2,
            "G": 61,
            "H": 60.06666666666667
        }
    },
    "Obs_and_actions_busses": {
        "5": 404.8393460704376,
        "2": 178.8824698564404,
        "0": -147.80367389622396
    },
    "Obs_and_actions_tfls": {
        "1": -65.98067984649272,
        "0": 251.2481363945225,
        "2": 485.23783463582674
    }
}