{
    "Average_holding_time": 33.85998107852412,
    "Average_holding_actions": [
        648,
        0,
        284,
        0,
        125,
        0
    ],
    "Average_travel_time_passengers": 2202.9795212334584,
    "Average_passenger_waiting_time": 376.350404266648,
    "Average_passenger_in_vehicle_time": 1826.629116966814,
    "Average_speed_busses": 0.044041666666666666,
    "Average_experienced_crowding": 65.25033595685002,
    "Average_covariation_headway": 0.43239012303704505,
    "Average_covariation_headway_stops": {
        "B": 0.37462005456508796,
        "A": 0.35650495824396256,
        "H": 0.36672132388217404,
        "J": 0.34106735510445063,
        "C": 0.37642801016345745,
        "L": 0.33778299651665505,
        "D": 0.3639207196214244,
        "K": 0.33017968789763996,
        "I": 0.33885444632689,
        "E": 0.33286834814532035,
        "F": 0.34586054502618735,
        "G": 0.35627686383753493
    },
    "Average_excess_waiting_time": {
        "B": 106.65517818950974,
        "A": 105.8166049154849,
        "H": 106.0113877241784,
        "J": 101.23729776084423,
        "C": 104.9516337817766,
        "L": 101.68717510863235,
        "D": 104.11097324958115,
        "K": 100.62469096022136,
        "I": 101.68355362464087,
        "E": 95.99325963223612,
        "F": 101.58929107513757,
        "G": 107.00404661065056
    },
    "Holding_per_stop": {
        "B": 35.79545454545455,
        "A": 30,
        "J": 33.06818181818182,
        "C": 35.39325842696629,
        "L": 26.25,
        "H": 34.77272727272727,
        "D": 36.40449438202247,
        "K": 34.09090909090909,
        "E": 34.09090909090909,
        "I": 36.47727272727273,
        "F": 38.86363636363637,
        "G": 31.03448275862069
    },
    "Actions_tfl_edges": {
        "AB": [
            38,
            39,
            12
        ],
        "BC": [
            37,
            41,
            11
        ],
        "GH": [
            23,
            49,
            16
        ],
        "IJ": [
            37,
            39,
            13
        ],
        "KL": [
            40,
            39,
            10
        ],
        "LA": [
            33,
            42,
            14
        ],
        "JK": [
            37,
            40,
            11
        ],
        "CD": [
            29,
            45,
            15
        ],
        "HI": [
            40,
            35,
            13
        ],
        "DE": [
            33,
            41,
            15
        ],
        "EF": [
            25,
            47,
            16
        ],
        "FG": [
            25,
            46,
            17
        ]
    },
    "Load_per_bus_per_stop": {
        "bus0": {
            "B": 46.93333333333333,
            "C": 46.4,
            "D": 47,
            "E": 47.733333333333334,
            "F": 49.46666666666667,
            "G": 50.266666666666666,
            "H": 52.666666666666664,
            "I": 53.4,
            "J": 53.46666666666667,
            "K": 53.86666666666667,
            "L": 52.92857142857143,
            "A": 50.214285714285715
        },
        "bus5": {
            "A": 51.93333333333333,
            "B": 51.733333333333334,
            "C": 52.6,
            "D": 53.733333333333334,
            "E": 52.2,
            "F": 53.13333333333333,
            "G": 54.06666666666667,
            "H": 54.53333333333333,
            "I": 55.733333333333334,
            "J": 57.214285714285715,
            "K": 57.642857142857146,
            "L": 56.92857142857143
        },
        "bus2": {
            "H": 61.666666666666664,
            "I": 62.666666666666664,
            "J": 63.86666666666667,
            "K": 65.13333333333334,
            "L": 66.6,
            "A": 66.26666666666667,
            "B": 66.35714285714286,
            "C": 67.85714285714286,
            "D": 68.57142857142857,
            "E": 68.07142857142857,
            "F": 68.78571428571429,
            "G": 67.5
        },
        "bus3": {
            "J": 60.4,
            "K": 59.733333333333334,
            "L": 58.733333333333334,
            "A": 58.06666666666667,
            "B": 56.46666666666667,
            "C": 58.13333333333333,
            "D": 57.6,
            "E": 56.92857142857143,
            "F": 58,
            "G": 59,
            "H": 59.642857142857146,
            "I": 62.785714285714285
        },
        "bus1": {
            "C": 64.66666666666667,
            "D": 64.4,
            "E": 64.6,
            "F": 64.13333333333334,
            "G": 64.66666666666667,
            "H": 65.86666666666666,
            "I": 66.46666666666667,
            "J": 65.26666666666667,
            "K": 66.13333333333334,
            "L": 66.06666666666666,
            "A": 69.85714285714286,
            "B": 67.42857142857143
        },
        "bus4": {
            "L": 58.06666666666667,
            "A": 58.06666666666667,
            "B": 58.733333333333334,
            "C": 60.2,
            "D": 60.93333333333333,
            "E": 63.06666666666667,
            "F": 64.2,
            "G": 64.2,
            "H": 62.285714285714285,
            "I": 64,
            "J": 63.214285714285715,
            "K": 62.214285714285715
        }
    },
    "Obs_and_actions_busses": {
        "0": -184.78631902776138,
        "2": 179.7315923240168,
        "5": 367.25341598757535
    },
    "Obs_and_actions_tfls": {
        "1": -114.95803762274792,
        "0": 258.038603865046,
        "2": 478.20881411546065
    }
}