{
    "Average_holding_time": 0,
    "Average_holding_actions": [
        725,
        0,
        0,
        0,
        0,
        0
    ],
    "Average_travel_time_passengers": 5432.820584832373,
    "Average_passenger_waiting_time": 2531.5471494512217,
    "Average_passenger_in_vehicle_time": 2901.2734353810088,
    "Average_speed_busses": 0.030208333333333334,
    "Average_experienced_crowding": 449.93840272110447,
    "Average_covariation_headway": 2.2674659066614264,
    "Average_covariation_headway_stops": {
        "C": 2.116392683586277,
        "D": 2.1202486928077278,
        "E": 2.1431258571235388,
        "F": 2.1446891842614897,
        "G": 2.152075680184029,
        "L": 2.1218935449748986,
        "H": 2.139282913641227,
        "A": 2.113342270677251,
        "B": 2.098030302771696,
        "I": 2.128941591055979,
        "J": 2.121878292109991,
        "K": 2.1162374354222155
    },
    "Average_excess_waiting_time": {
        "C": 2324.548201316093,
        "D": 2316.629492085526,
        "E": 2293.601872424236,
        "F": 2280.1680736511576,
        "G": 2279.061921073685,
        "L": 2302.8109018624796,
        "H": 2281.2506006910126,
        "A": 2311.2525875472743,
        "B": 2306.04021903348,
        "I": 2285.175811808333,
        "J": 2296.0778317776885,
        "K": 2307.7751397918237
    },
    "Holding_per_stop": {
        "D": 0,
        "F": 0,
        "G": 0,
        "C": 0,
        "L": 0,
        "E": 0,
        "A": 0,
        "H": 0,
        "B": 0,
        "I": 0,
        "J": 0,
        "K": 0
    },
    "Actions_tfl_edges": {},
    "Load_per_bus_per_stop": {
        "bus0": {
            "C": 4,
            "D": 5.090909090909091,
            "E": 5.3,
            "F": 5.7,
            "G": 5.6,
            "H": 5.6,
            "I": 5.4,
            "J": 5.3,
            "K": 4.6,
            "L": 4,
            "A": 3.7,
            "B": 3.3
        },
        "bus1": {
            "D": 3.6363636363636362,
            "E": 4.5,
            "F": 4.2,
            "G": 3.7,
            "H": 3.3,
            "I": 3.4,
            "J": 3.4,
            "K": 3.4,
            "L": 3.5,
            "A": 3.8,
            "B": 3.4,
            "C": 4.1
        },
        "bus2": {
            "E": 5,
            "F": 4.8,
            "G": 4.4,
            "H": 4.4,
            "I": 4.9,
            "J": 4.8,
            "K": 5.1,
            "L": 5.7,
            "A": 6.1,
            "B": 6.1,
            "C": 5.5,
            "D": 5.4
        },
        "bus3": {
            "F": 23.4,
            "G": 23.9,
            "H": 25.1,
            "I": 25.7,
            "J": 26.8,
            "K": 26.5,
            "L": 26,
            "A": 25.2,
            "B": 25.8,
            "C": 26.7,
            "D": 26,
            "E": 25.333333333333332
        },
        "bus4": {
            "G": 431.8,
            "H": 441.2,
            "I": 439.6,
            "J": 436.5,
            "K": 433,
            "L": 439.2,
            "A": 442,
            "B": 454.5,
            "C": 462.6,
            "D": 474,
            "E": 467.44444444444446,
            "F": 471.8888888888889
        },
        "bus5": {
            "L": 25.454545454545453,
            "A": 26.09090909090909,
            "B": 25.181818181818183,
            "C": 25.818181818181817,
            "D": 25.636363636363637,
            "E": 29.2,
            "F": 31.6,
            "G": 29.7,
            "H": 29.1,
            "I": 27.8,
            "J": 28.2,
            "K": 27.4
        }
    },
    "Obs_and_actions_busses": {
        "0": 17.515297120205908
    },
    "Obs_and_actions_tfls": {}
}