{
    "Average_holding_time": 31.89087488240828,
    "Average_holding_actions": [
        399,
        334,
        257,
        15,
        24,
        0
    ],
    "Average_travel_time_passengers": 2146.675909161305,
    "Average_passenger_waiting_time": 339.7657365578313,
    "Average_passenger_in_vehicle_time": 1806.9101726035194,
    "Average_speed_busses": 0.04429166666666667,
    "Average_experienced_crowding": 84.85669861209082,
    "Average_covariation_headway": 0.27808105223244123,
    "Average_covariation_headway_stops": {
        "H": 0.18976875959145093,
        "A": 0.165140310898317,
        "K": 0.17107828198997513,
        "E": 0.17658825601667943,
        "I": 0.18405887765669932,
        "D": 0.17936273850152115,
        "C": 0.17704446792697964,
        "L": 0.14040722015618587,
        "F": 0.1584764141188415,
        "J": 0.16421244791282838,
        "B": 0.17323886778913075,
        "G": 0.1473475730000467
    },
    "Average_excess_waiting_time": {
        "H": 69.87584588044268,
        "A": 68.87313837061407,
        "K": 68.87049733286324,
        "E": 66.95661044852,
        "I": 70.83911623583754,
        "D": 69.32277756485195,
        "C": 70.72327128515639,
        "L": 67.16041588314783,
        "F": 67.42959606872535,
        "J": 70.11902778852107,
        "B": 72.79372939977486,
        "G": 67.24432867763329
    },
    "Holding_per_stop": {
        "H": 29.325842696629213,
        "A": 31.685393258426966,
        "K": 37.41573033707865,
        "E": 31.685393258426966,
        "I": 30.337078651685392,
        "D": 30,
        "C": 29.65909090909091,
        "L": 45.34090909090909,
        "F": 29.325842696629213,
        "B": 24.545454545454547,
        "J": 33.06818181818182,
        "G": 30.34090909090909
    },
    "Actions_tfl_edges": {
        "CD": [
            41,
            0,
            48
        ],
        "GH": [
            0,
            0,
            89
        ],
        "JK": [
            0,
            0,
            89
        ],
        "HI": [
            0,
            0,
            89
        ],
        "FG": [
            0,
            0,
            89
        ]
    },
    "Load_per_bus_per_stop": {
        "bus3": {
            "H": 103.93333333333334,
            "I": 100.73333333333333,
            "J": 94.33333333333333,
            "K": 88.33333333333333,
            "L": 79.2,
            "A": 68.33333333333333,
            "B": 58.266666666666666,
            "C": 51.666666666666664,
            "D": 48.266666666666666,
            "E": 47.2,
            "F": 69.57142857142857,
            "G": 104.07142857142857
        },
        "bus5": {
            "A": 71.2,
            "B": 61.4,
            "C": 53.86666666666667,
            "D": 49.8,
            "E": 47.93333333333333,
            "F": 71.93333333333334,
            "G": 104.66666666666667,
            "H": 112.86666666666666,
            "I": 110.4,
            "J": 105,
            "K": 97,
            "L": 86.42857142857143
        },
        "bus4": {
            "K": 89.46666666666667,
            "L": 79.73333333333333,
            "A": 68.2,
            "B": 59.93333333333333,
            "C": 56.13333333333333,
            "D": 54.53333333333333,
            "E": 53.2,
            "F": 78.13333333333334,
            "G": 109.64285714285714,
            "H": 116.64285714285714,
            "I": 111.71428571428571,
            "J": 103.57142857142857
        },
        "bus2": {
            "E": 47.333333333333336,
            "F": 71.73333333333333,
            "G": 106.6,
            "H": 115.33333333333333,
            "I": 110.73333333333333,
            "J": 103,
            "K": 92.6,
            "L": 80.8,
            "A": 71.8,
            "B": 63.46666666666667,
            "C": 57.642857142857146,
            "D": 52.07142857142857
        },
        "bus1": {
            "D": 46.733333333333334,
            "E": 45.13333333333333,
            "F": 64.53333333333333,
            "G": 96.93333333333334,
            "H": 105.6,
            "I": 102.6,
            "J": 95.06666666666666,
            "K": 84,
            "L": 73.8,
            "A": 63.53333333333333,
            "B": 56.357142857142854,
            "C": 52.07142857142857
        },
        "bus0": {
            "C": 50.6,
            "D": 47.13333333333333,
            "E": 44.333333333333336,
            "F": 70.06666666666666,
            "G": 102.66666666666667,
            "H": 111.6,
            "I": 107.2,
            "J": 100.26666666666667,
            "K": 93.26666666666667,
            "L": 82.66666666666667,
            "A": 72.78571428571429,
            "B": 62.785714285714285
        }
    },
    "Obs_and_actions_busses": {
        "2": 122.16890138238747,
        "5": 310.9876419510426,
        "1": -0.39629784410476626,
        "3": 220.6397093214834,
        "0": -156.4141410949207,
        "4": 185.60201129797923
    },
    "Obs_and_actions_tfls": {
        "2": 3.1690623522980146,
        "0": -146.47809295972178
    }
} 4.4951367700171785,
        "0": -147.85201543455943
    }
}