{
    "Average_holding_time": 37.27536231884058,
    "Average_holding_actions": [
        414,
        254,
        223,
        10,
        72,
        0
    ],
    "Average_travel_time_passengers": 2246.8664731284875,
    "Average_passenger_waiting_time": 383.1259201547023,
    "Average_passenger_in_vehicle_time": 1863.7405529737775,
    "Average_speed_busses": 0.043125,
    "Average_experienced_crowding": 94.34667047333302,
    "Average_covariation_headway": 0.3867523990694828,
    "Average_covariation_headway_stops": {
        "I": 0.3888862747232661,
        "G": 0.3444746758323655,
        "A": 0.3081291434581638,
        "F": 0.32265511643063655,
        "L": 0.3031243214096099,
        "H": 0.3689900804076042,
        "B": 0.32939116204475843,
        "J": 0.3526916196990985,
        "K": 0.31028225011790905,
        "C": 0.331918725285167,
        "D": 0.31299034961857014,
        "E": 0.3164855676853788
    },
    "Average_excess_waiting_time": {
        "I": 117.95140365542198,
        "G": 108.29423284391959,
        "A": 99.62941773787122,
        "F": 105.95000376893728,
        "L": 100.47916936059676,
        "H": 115.67702088149628,
        "B": 102.48525461786443,
        "J": 111.16711755911467,
        "K": 103.40645758346812,
        "C": 104.96606916010552,
        "D": 103.36425959773953,
        "E": 106.546091410141
    },
    "Holding_per_stop": {
        "I": 37.241379310344826,
        "G": 36.627906976744185,
        "A": 37.93103448275862,
        "F": 31.74418604651163,
        "L": 42.906976744186046,
        "B": 36.206896551724135,
        "J": 38.72093023255814,
        "H": 37.674418604651166,
        "K": 39.76744186046512,
        "C": 41.37931034482759,
        "D": 35.93023255813954,
        "E": 31.058823529411764
    },
    "Actions_tfl_edges": {
        "FG": [
            3,
            0,
            84
        ],
        "HI": [
            1,
            0,
            86
        ],
        "GH": [
            2,
            0,
            84
        ],
        "JK": [
            1,
            0,
            85
        ],
        "CD": [
            44,
            0,
            43
        ]
    },
    "Load_per_bus_per_stop": {
        "bus3": {
            "I": 107.33333333333333,
            "J": 100.46666666666667,
            "K": 92.4,
            "L": 80.6,
            "A": 70.2,
            "B": 58.714285714285715,
            "C": 51.214285714285715,
            "D": 48.07142857142857,
            "E": 46.714285714285715,
            "F": 73.42857142857143,
            "G": 109.71428571428571,
            "H": 120.42857142857143
        },
        "bus2": {
            "G": 103.33333333333333,
            "H": 113,
            "I": 107.73333333333333,
            "J": 99.8,
            "K": 89.73333333333333,
            "L": 79.85714285714286,
            "A": 69.85714285714286,
            "B": 60.92857142857143,
            "C": 55.357142857142854,
            "D": 53.714285714285715,
            "E": 50.214285714285715,
            "F": 74
        },
        "bus5": {
            "A": 62.46666666666667,
            "B": 55,
            "C": 48.86666666666667,
            "D": 44.13333333333333,
            "E": 43.2,
            "F": 66.35714285714286,
            "G": 97.14285714285714,
            "H": 103.85714285714286,
            "I": 99.78571428571429,
            "J": 91.57142857142857,
            "K": 84.14285714285714,
            "L": 74.57142857142857
        },
        "bus1": {
            "F": 82,
            "G": 114.93333333333334,
            "H": 123.93333333333334,
            "I": 118.93333333333334,
            "J": 111.64285714285714,
            "K": 102.07142857142857,
            "L": 91.92857142857143,
            "A": 80.57142857142857,
            "B": 70.28571428571429,
            "C": 66.35714285714286,
            "D": 62.07142857142857,
            "E": 60.142857142857146
        },
        "bus4": {
            "L": 71,
            "A": 61.2,
            "B": 53.333333333333336,
            "C": 49.8,
            "D": 47.57142857142857,
            "E": 46.714285714285715,
            "F": 68.85714285714286,
            "G": 94.71428571428571,
            "H": 104.07142857142857,
            "I": 99.64285714285714,
            "J": 93.85714285714286,
            "K": 85.5
        },
        "bus0": {
            "B": 64,
            "C": 56.6,
            "D": 52.46666666666667,
            "E": 49.93333333333333,
            "F": 80.86666666666666,
            "G": 120.6,
            "H": 131.5,
            "I": 125.42857142857143,
            "J": 116.5,
            "K": 105.14285714285714,
            "L": 92.42857142857143,
            "A": 79.64285714285714
        }
    },
    "Obs_and_actions_busses": {
        "0": -248.21724451108759,
        "1": 3.0220372789667636,
        "3": 241.14490678798148,
        "2": 120.33954857932558,
        "5": 544.1184376519503,
        "4": 214.36349300817622
    },
    "Obs_and_actions_tfls": {
        "2": 35.157699660182764,
        "0": -432.07856775827236
    }
}