{
    "Average_holding_time": 34.48571428571429,
    "Average_holding_actions": [
        426,
        270,
        246,
        13,
        54,
        0
    ],
    "Average_travel_time_passengers": 2165.776662253237,
    "Average_passenger_waiting_time": 351.2162517605499,
    "Average_passenger_in_vehicle_time": 1814.5604104927027,
    "Average_speed_busses": 0.04375,
    "Average_experienced_crowding": 85.94652296061913,
    "Average_covariation_headway": 0.3221357079423915,
    "Average_covariation_headway_stops": {
        "H": 0.2407879406107733,
        "G": 0.2152984980060474,
        "E": 0.21625599011154906,
        "B": 0.26229009977959156,
        "I": 0.21721822705284374,
        "D": 0.2550302339462496,
        "F": 0.18468429605134667,
        "C": 0.24532754646381819,
        "J": 0.18326997760147617,
        "K": 0.1539516744464904,
        "L": 0.18657955377262675,
        "A": 0.2490170950654338
    },
    "Average_excess_waiting_time": {
        "H": 78.94891717340931,
        "G": 77.38867582311588,
        "E": 77.38750796145138,
        "B": 90.33667285375111,
        "I": 77.42817617447412,
        "D": 85.6591530449378,
        "F": 75.1085848905575,
        "C": 85.91883945378993,
        "J": 74.55541198083614,
        "K": 73.20570367245432,
        "L": 79.20047235048446,
        "A": 89.86647200182972
    },
    "Holding_per_stop": {
        "H": 32.359550561797754,
        "E": 33.06818181818182,
        "G": 34.77272727272727,
        "I": 30.681818181818183,
        "D": 38.86363636363637,
        "B": 30.689655172413794,
        "C": 36.89655172413793,
        "F": 35.86206896551724,
        "J": 34.77272727272727,
        "K": 32.758620689655174,
        "L": 42.758620689655174,
        "A": 30.348837209302324
    },
    "Actions_tfl_edges": {
        "CD": [
            44,
            0,
            44
        ],
        "FG": [
            0,
            0,
            88
        ],
        "GH": [
            1,
            0,
            88
        ],
        "HI": [
            1,
            0,
            88
        ],
        "JK": [
            0,
            0,
            88
        ]
    },
    "Load_per_bus_per_stop": {
        "bus5": {
            "H": 108.73333333333333,
            "I": 102.6,
            "J": 99.53333333333333,
            "K": 91.53333333333333,
            "L": 81.73333333333333,
            "A": 71.26666666666667,
            "B": 60.733333333333334,
            "C": 53.8,
            "D": 51.733333333333334,
            "E": 49.07142857142857,
            "F": 72.71428571428571,
            "G": 106.64285714285714
        },
        "bus4": {
            "G": 98.4,
            "H": 108.06666666666666,
            "I": 102.86666666666666,
            "J": 96.46666666666667,
            "K": 87.33333333333333,
            "L": 75.06666666666666,
            "A": 65.73333333333333,
            "B": 57.06666666666667,
            "C": 52.57142857142857,
            "D": 47.42857142857143,
            "E": 47.57142857142857,
            "F": 71.57142857142857
        },
        "bus3": {
            "E": 44.2,
            "F": 65.93333333333334,
            "G": 98.53333333333333,
            "H": 106.66666666666667,
            "I": 102.66666666666667,
            "J": 95.86666666666666,
            "K": 87.46666666666667,
            "L": 75.26666666666667,
            "A": 64.78571428571429,
            "B": 56.142857142857146,
            "C": 49.214285714285715,
            "D": 48.357142857142854
        },
        "bus0": {
            "B": 58.13333333333333,
            "C": 54.4,
            "D": 52.46666666666667,
            "E": 50.86666666666667,
            "F": 75,
            "G": 110.78571428571429,
            "H": 118.42857142857143,
            "I": 115.28571428571429,
            "J": 109.35714285714286,
            "K": 98.78571428571429,
            "L": 86.64285714285714,
            "A": 74.07142857142857
        },
        "bus2": {
            "D": 45,
            "E": 43.733333333333334,
            "F": 65.93333333333334,
            "G": 100,
            "H": 111.66666666666667,
            "I": 110.4,
            "J": 103.46666666666667,
            "K": 93.57142857142857,
            "L": 82.28571428571429,
            "A": 70.92857142857143,
            "B": 59.714285714285715,
            "C": 52.92857142857143
        },
        "bus1": {
            "C": 50.6,
            "D": 50.06666666666667,
            "E": 46.333333333333336,
            "F": 68.26666666666667,
            "G": 103.6,
            "H": 114.06666666666666,
            "I": 113.42857142857143,
            "J": 107.21428571428571,
            "K": 94.21428571428571,
            "L": 83.71428571428571,
            "A": 73.5,
            "B": 62.07142857142857
        }
    },
    "Obs_and_actions_busses": {
        "0": -202.40649658005918,
        "1": 3.8372576195658366,
        "2": 122.1044984323227,
        "3": 232.25361952410663,
        "5": 433.83771879781284,
        "4": 169.28704762507724
    },
    "Obs_and_actions_tfls": {
        "0": -238.05903966547987,
        "2": 6.571035647529459
    }
}