{
    "Average_holding_time": 35.960076045627375,
    "Average_holding_actions": [
        427,
        234,
        265,
        15,
        52,
        0
    ],
    "Average_travel_time_passengers": 2179.2257565805708,
    "Average_passenger_waiting_time": 351.7374107680473,
    "Average_passenger_in_vehicle_time": 1827.4883458124768,
    "Average_speed_busses": 0.043833333333333335,
    "Average_experienced_crowding": 87.81602354883985,
    "Average_covariation_headway": 0.3168795420367907,
    "Average_covariation_headway_stops": {
        "H": 0.2593060101290106,
        "J": 0.21895992228899752,
        "E": 0.21985619053567332,
        "D": 0.22643483188120012,
        "B": 0.20961851008916066,
        "C": 0.23158127713168858,
        "I": 0.21394178474078981,
        "F": 0.22023354325146186,
        "K": 0.19295308884939566,
        "L": 0.18967776060527952,
        "G": 0.22840343347036493,
        "A": 0.19164186855992985
    },
    "Average_excess_waiting_time": {
        "H": 84.61856438188562,
        "J": 76.12140878985576,
        "E": 75.88202494670952,
        "D": 80.86526336768861,
        "B": 80.71483510192951,
        "C": 82.03416881875995,
        "I": 78.8675548626037,
        "F": 78.15030650740948,
        "K": 74.90999044330857,
        "L": 76.95886134416128,
        "G": 80.99642225435508,
        "A": 79.09819805564655
    },
    "Holding_per_stop": {
        "J": 40.22727272727273,
        "E": 32.04545454545455,
        "H": 39.20454545454545,
        "D": 31.704545454545453,
        "C": 36.81818181818182,
        "B": 29.655172413793103,
        "K": 46.02272727272727,
        "I": 35.45454545454545,
        "F": 32.38636363636363,
        "L": 37.241379310344826,
        "G": 34.827586206896555,
        "A": 35.86206896551724
    },
    "Actions_tfl_edges": {
        "CD": [
            46,
            0,
            43
        ],
        "GH": [
            0,
            0,
            88
        ],
        "JK": [
            0,
            0,
            88
        ],
        "HI": [
            0,
            0,
            88
        ],
        "FG": [
            2,
            0,
            86
        ]
    },
    "Load_per_bus_per_stop": {
        "bus4": {
            "H": 115.26666666666667,
            "I": 109.66666666666667,
            "J": 104.33333333333333,
            "K": 93.93333333333334,
            "L": 86,
            "A": 74.46666666666667,
            "B": 63.4,
            "C": 58.6,
            "D": 53.857142857142854,
            "E": 53.285714285714285,
            "F": 78.78571428571429,
            "G": 114.21428571428571
        },
        "bus5": {
            "J": 98.53333333333333,
            "K": 90.6,
            "L": 77.73333333333333,
            "A": 68.4,
            "B": 59.86666666666667,
            "C": 54.2,
            "D": 53.266666666666666,
            "E": 52.5,
            "F": 75.92857142857143,
            "G": 111.57142857142857,
            "H": 117.35714285714286,
            "I": 112.92857142857143
        },
        "bus3": {
            "E": 45,
            "F": 68.6,
            "G": 104.33333333333333,
            "H": 111.53333333333333,
            "I": 108.46666666666667,
            "J": 100.73333333333333,
            "K": 89.93333333333334,
            "L": 80.66666666666667,
            "A": 72.06666666666666,
            "B": 62.142857142857146,
            "C": 53.92857142857143,
            "D": 48.785714285714285
        },
        "bus2": {
            "D": 42.8,
            "E": 39.333333333333336,
            "F": 63,
            "G": 90.53333333333333,
            "H": 97.46666666666667,
            "I": 95.33333333333333,
            "J": 88.53333333333333,
            "K": 82.46666666666667,
            "L": 74.57142857142857,
            "A": 65.57142857142857,
            "B": 56.357142857142854,
            "C": 49.142857142857146
        },
        "bus0": {
            "B": 60.2,
            "C": 52.666666666666664,
            "D": 49.13333333333333,
            "E": 45.93333333333333,
            "F": 70.2,
            "G": 105.06666666666666,
            "H": 115.57142857142857,
            "I": 112.71428571428571,
            "J": 105.5,
            "K": 98.57142857142857,
            "L": 86.78571428571429,
            "A": 78.21428571428571
        },
        "bus1": {
            "C": 51.06666666666667,
            "D": 47.333333333333336,
            "E": 46.266666666666666,
            "F": 74.93333333333334,
            "G": 111.46666666666667,
            "H": 119.73333333333333,
            "I": 115.4,
            "J": 103.5,
            "K": 94.21428571428571,
            "L": 85.21428571428571,
            "A": 73.78571428571429,
            "B": 61.42857142857143
        }
    },
    "Obs_and_actions_busses": {
        "5": 347.8423696421997,
        "2": 119.28655631626505,
        "1": -1.8617687439863402,
        "4": 224.01106475395014,
        "0": -195.60906762375123,
        "3": 235.881397727929
    },
    "Obs_and_actions_tfls": {
        "0": -184.0606690123479,
        "2": 6.294757776830032
    }
}