{
    "Average_holding_time": 34.05328258801142,
    "Average_holding_actions": [
        408,
        291,
        250,
        18,
        39,
        0
    ],
    "Average_travel_time_passengers": 2169.3492592909183,
    "Average_passenger_waiting_time": 345.40502400860777,
    "Average_passenger_in_vehicle_time": 1823.9442352822675,
    "Average_speed_busses": 0.043791666666666666,
    "Average_experienced_crowding": 86.72607082410107,
    "Average_covariation_headway": 0.29009191884485575,
    "Average_covariation_headway_stops": {
        "I": 0.19130861663025306,
        "J": 0.19039428310453715,
        "D": 0.20265641071873816,
        "A": 0.1855799317231758,
        "F": 0.19199205585970422,
        "B": 0.1982378837486566,
        "K": 0.16674873801956042,
        "G": 0.17354488188125433,
        "E": 0.16298623936761605,
        "L": 0.14762287452187592,
        "C": 0.20780235707513595,
        "H": 0.1689318324650986
    },
    "Average_excess_waiting_time": {
        "I": 74.57505497511482,
        "J": 72.56545684793281,
        "D": 76.07304252836542,
        "A": 73.7286225854528,
        "F": 74.90062744894857,
        "B": 75.40013903880703,
        "K": 71.85896249029128,
        "G": 74.15433126847552,
        "E": 73.26397462375621,
        "L": 71.72161450576544,
        "C": 78.95952774670496,
        "H": 74.20630768051097
    },
    "Holding_per_stop": {
        "J": 36.81818181818182,
        "F": 31.363636363636363,
        "I": 32.72727272727273,
        "D": 35.45454545454545,
        "B": 25.227272727272727,
        "A": 34.43181818181818,
        "K": 40.56818181818182,
        "G": 34.827586206896555,
        "E": 33.44827586206897,
        "C": 30.689655172413794,
        "L": 38.275862068965516,
        "H": 34.827586206896555
    },
    "Actions_tfl_edges": {
        "CD": [
            40,
            0,
            48
        ],
        "HI": [
            0,
            0,
            88
        ],
        "JK": [
            0,
            0,
            88
        ],
        "FG": [
            0,
            0,
            88
        ],
        "GH": [
            0,
            0,
            87
        ]
    },
    "Load_per_bus_per_stop": {
        "bus3": {
            "I": 98.46666666666667,
            "J": 91.33333333333333,
            "K": 82.73333333333333,
            "L": 75.26666666666667,
            "A": 65.46666666666667,
            "B": 57.86666666666667,
            "C": 53.6,
            "D": 50.142857142857146,
            "E": 48.42857142857143,
            "F": 70.5,
            "G": 102.5,
            "H": 108.35714285714286
        },
        "bus4": {
            "J": 101.13333333333334,
            "K": 93.66666666666667,
            "L": 82.6,
            "A": 73.66666666666667,
            "B": 62.46666666666667,
            "C": 56.93333333333333,
            "D": 52.46666666666667,
            "E": 52.333333333333336,
            "F": 79.28571428571429,
            "G": 115.35714285714286,
            "H": 124.14285714285714,
            "I": 118.28571428571429
        },
        "bus1": {
            "D": 47.666666666666664,
            "E": 46.8,
            "F": 66.8,
            "G": 98.6,
            "H": 109.53333333333333,
            "I": 107.2,
            "J": 102.06666666666666,
            "K": 94.93333333333334,
            "L": 86.06666666666666,
            "A": 75,
            "B": 62.357142857142854,
            "C": 54.357142857142854
        },
        "bus5": {
            "A": 69.8,
            "B": 58.733333333333334,
            "C": 51.13333333333333,
            "D": 47.333333333333336,
            "E": 45.266666666666666,
            "F": 70.8,
            "G": 106.6,
            "H": 113.64285714285714,
            "I": 113.35714285714286,
            "J": 107.21428571428571,
            "K": 98.07142857142857,
            "L": 88.07142857142857
        },
        "bus2": {
            "F": 73.86666666666666,
            "G": 105.8,
            "H": 114.66666666666667,
            "I": 109.4,
            "J": 102.26666666666667,
            "K": 95,
            "L": 83.6,
            "A": 72.2,
            "B": 62.42857142857143,
            "C": 57.285714285714285,
            "D": 55.714285714285715,
            "E": 54.214285714285715
        },
        "bus0": {
            "B": 54.86666666666667,
            "C": 48.266666666666666,
            "D": 45.266666666666666,
            "E": 46.733333333333334,
            "F": 73.2,
            "G": 110.33333333333333,
            "H": 116.06666666666666,
            "I": 111.4,
            "J": 102.73333333333333,
            "K": 91.28571428571429,
            "L": 80.5,
            "A": 69.92857142857143
        }
    },
    "Obs_and_actions_busses": {
        "5": 330.21013058120207,
        "1": -4.173911824873349,
        "0": -167.23528108650802,
        "2": 112.67277453335299,
        "3": 223.8883965807749,
        "4": 204.91540482310245
    },
    "Obs_and_actions_tfls": {
        "2": 5.936837557326955,
        "0": -190.3424149959432
    }
}ctions_tfls": {
        "2": 5.644922806128188,
        "0": -214.073688757004
    }
}4979
    }
}