{
    "Average_holding_time": 32.171052631578945,
    "Average_holding_actions": [
        417,
        323,
        237,
        23,
        30,
        0
    ],
    "Average_travel_time_passengers": 2130.8237551598736,
    "Average_passenger_waiting_time": 340.6921835958087,
    "Average_passenger_in_vehicle_time": 1790.1315715640408,
    "Average_speed_busses": 0.044333333333333336,
    "Average_experienced_crowding": 87.10634498532508,
    "Average_covariation_headway": 0.28987278980107417,
    "Average_covariation_headway_stops": {
        "E": 0.18957572025234543,
        "I": 0.186761278405657,
        "F": 0.18275755108599262,
        "L": 0.17331098726802407,
        "A": 0.18564631537211665,
        "B": 0.21412232573102663,
        "G": 0.1674275342119269,
        "J": 0.18970323768224173,
        "H": 0.1725440597568746,
        "K": 0.16593051282632595,
        "C": 0.18666706090338592,
        "D": 0.18826656724279361
    },
    "Average_excess_waiting_time": {
        "E": 71.47247953238718,
        "I": 69.83977658609001,
        "F": 69.22881879602636,
        "L": 69.78533783650619,
        "A": 69.34032404895225,
        "B": 71.75136855254499,
        "G": 68.97780502954458,
        "J": 72.20006893892554,
        "H": 70.23188909129277,
        "K": 70.25116351478704,
        "C": 69.88965568897021,
        "D": 73.32837797025314
    },
    "Holding_per_stop": {
        "I": 27.97752808988764,
        "F": 30,
        "A": 37.752808988764045,
        "E": 26.96629213483146,
        "B": 30,
        "L": 41.79775280898876,
        "J": 32.38636363636363,
        "G": 27.954545454545453,
        "H": 28.295454545454547,
        "C": 28.98876404494382,
        "K": 42.61363636363637,
        "D": 31.363636363636363
    },
    "Actions_tfl_edges": {
        "HI": [
            0,
            0,
            89
        ],
        "FG": [
            0,
            0,
            89
        ],
        "JK": [
            0,
            0,
            88
        ],
        "GH": [
            0,
            0,
            88
        ],
        "CD": [
            38,
            0,
            51
        ]
    },
    "Load_per_bus_per_stop": {
        "bus1": {
            "E": 48.53333333333333,
            "F": 70.53333333333333,
            "G": 104.93333333333334,
            "H": 114.53333333333333,
            "I": 110.06666666666666,
            "J": 101.26666666666667,
            "K": 93.46666666666667,
            "L": 83.73333333333333,
            "A": 72.8,
            "B": 64.2,
            "C": 56.642857142857146,
            "D": 53.5
        },
        "bus3": {
            "I": 105.06666666666666,
            "J": 97.66666666666667,
            "K": 89.33333333333333,
            "L": 77.93333333333334,
            "A": 66.93333333333334,
            "B": 57.266666666666666,
            "C": 50.4,
            "D": 47.733333333333334,
            "E": 46.46666666666667,
            "F": 69.21428571428571,
            "G": 104.35714285714286,
            "H": 114.57142857142857
        },
        "bus2": {
            "F": 68.13333333333334,
            "G": 103.73333333333333,
            "H": 110.86666666666666,
            "I": 106.46666666666667,
            "J": 100.33333333333333,
            "K": 91.06666666666666,
            "L": 82,
            "A": 72.46666666666667,
            "B": 61.4,
            "C": 52.2,
            "D": 47.785714285714285,
            "E": 46.642857142857146
        },
        "bus4": {
            "L": 79.93333333333334,
            "A": 68.4,
            "B": 56.266666666666666,
            "C": 52.266666666666666,
            "D": 49.06666666666667,
            "E": 48.2,
            "F": 76.8,
            "G": 114.86666666666666,
            "H": 123,
            "I": 116.14285714285714,
            "J": 108.42857142857143,
            "K": 97.71428571428571
        },
        "bus5": {
            "A": 63.266666666666666,
            "B": 56.46666666666667,
            "C": 49.266666666666666,
            "D": 46.93333333333333,
            "E": 44.333333333333336,
            "F": 68.53333333333333,
            "G": 101,
            "H": 107,
            "I": 103.66666666666667,
            "J": 97.13333333333334,
            "K": 86.28571428571429,
            "L": 76.35714285714286
        },
        "bus0": {
            "B": 58.4,
            "C": 53,
            "D": 49.93333333333333,
            "E": 50.06666666666667,
            "F": 76.33333333333333,
            "G": 111.33333333333333,
            "H": 119.8,
            "I": 118,
            "J": 109.53333333333333,
            "K": 97.06666666666666,
            "L": 84.86666666666666,
            "A": 71.71428571428571
        }
    },
    "Obs_and_actions_busses": {
        "5": 336.74662117972724,
        "2": 130.34722375062395,
        "1": 8.520157894392046,
        "0": -168.36987858459563,
        "3": 250.6855318482536,
        "4": 188.45420039502187
    },
    "Obs_and_actions_tfls": {
        "2": 4.736190652446314,
        "0": -198.67711302778181
    }
}
    }
}