{
    "Average_holding_time": 39.75868725868726,
    "Average_holding_actions": [
        381,
        258,
        253,
        19,
        79,
        0
    ],
    "Average_travel_time_passengers": 2232.015465029218,
    "Average_passenger_waiting_time": 373.098522412704,
    "Average_passenger_in_vehicle_time": 1858.9169426165147,
    "Average_speed_busses": 0.043166666666666666,
    "Average_experienced_crowding": 93.29486201356808,
    "Average_covariation_headway": 0.37518931658501736,
    "Average_covariation_headway_stops": {
        "G": 0.30818510450197156,
        "I": 0.3174892646927716,
        "E": 0.30969117488368003,
        "L": 0.2676861887963001,
        "A": 0.27328231447853596,
        "J": 0.2862182584521436,
        "H": 0.32106475875834306,
        "K": 0.26656105511491446,
        "F": 0.27508966632323373,
        "B": 0.2619765743398842,
        "C": 0.2508127939234832,
        "D": 0.2991118021203176
    },
    "Average_excess_waiting_time": {
        "G": 102.58517192260831,
        "I": 102.36358496361163,
        "E": 103.00486114070151,
        "L": 90.75280097666422,
        "A": 89.59078357726185,
        "J": 93.871070367696,
        "H": 107.14208097636879,
        "K": 92.40143032778076,
        "F": 97.57598941237143,
        "B": 89.34246145267974,
        "C": 91.26847360972488,
        "D": 101.94834044040908
    },
    "Holding_per_stop": {
        "I": 41.86046511627907,
        "G": 37.674418604651166,
        "A": 36.206896551724135,
        "E": 38.02325581395349,
        "L": 45.86206896551724,
        "J": 44.13793103448276,
        "H": 39.76744186046512,
        "K": 45.69767441860465,
        "B": 38.62068965517241,
        "F": 35.58139534883721,
        "C": 34.18604651162791,
        "D": 39.41860465116279
    },
    "Actions_tfl_edges": {
        "FG": [
            1,
            1,
            85
        ],
        "HI": [
            0,
            0,
            86
        ],
        "GH": [
            1,
            0,
            85
        ],
        "JK": [
            0,
            0,
            87
        ],
        "CD": [
            26,
            5,
            55
        ]
    },
    "Load_per_bus_per_stop": {
        "bus1": {
            "G": 107.73333333333333,
            "H": 117.46666666666667,
            "I": 115.53333333333333,
            "J": 107.26666666666667,
            "K": 97.93333333333334,
            "L": 85.21428571428571,
            "A": 72.78571428571429,
            "B": 62.785714285714285,
            "C": 56.285714285714285,
            "D": 53.142857142857146,
            "E": 51,
            "F": 78.07142857142857
        },
        "bus2": {
            "I": 100.73333333333333,
            "J": 94.2,
            "K": 85.73333333333333,
            "L": 75.8,
            "A": 66.13333333333334,
            "B": 57.642857142857146,
            "C": 53.285714285714285,
            "D": 52.42857142857143,
            "E": 51.57142857142857,
            "F": 72.28571428571429,
            "G": 106.42857142857143,
            "H": 112.35714285714286
        },
        "bus0": {
            "E": 49.13333333333333,
            "F": 74.93333333333334,
            "G": 106.06666666666666,
            "H": 115.86666666666666,
            "I": 111.92857142857143,
            "J": 103.92857142857143,
            "K": 95.78571428571429,
            "L": 86.42857142857143,
            "A": 76.78571428571429,
            "B": 67.78571428571429,
            "C": 58.857142857142854,
            "D": 55.92857142857143
        },
        "bus4": {
            "L": 70.86666666666666,
            "A": 60.93333333333333,
            "B": 52.266666666666666,
            "C": 46.733333333333334,
            "D": 44.46666666666667,
            "E": 42.357142857142854,
            "F": 64.78571428571429,
            "G": 96.35714285714286,
            "H": 105.78571428571429,
            "I": 101.85714285714286,
            "J": 96.35714285714286,
            "K": 86.71428571428571
        },
        "bus5": {
            "A": 79.26666666666667,
            "B": 68,
            "C": 61.06666666666667,
            "D": 56.8,
            "E": 54.6,
            "F": 84.26666666666667,
            "G": 128.71428571428572,
            "H": 138.85714285714286,
            "I": 134,
            "J": 123.57142857142857,
            "K": 113.21428571428571,
            "L": 99.5
        },
        "bus3": {
            "J": 96.93333333333334,
            "K": 88.46666666666667,
            "L": 79.46666666666667,
            "A": 69.33333333333333,
            "B": 59.46666666666667,
            "C": 52.07142857142857,
            "D": 45.857142857142854,
            "E": 46.785714285714285,
            "F": 71.35714285714286,
            "G": 106.28571428571429,
            "H": 115.78571428571429,
            "I": 112.07142857142857
        }
    },
    "Obs_and_actions_busses": {
        "5": 397.80827169289586,
        "1": -0.18757995034474134,
        "2": 130.62764263813767,
        "3": 249.99574430111764,
        "4": 201.48110990186538,
        "0": -248.36035219653886
    },
    "Obs_and_actions_tfls": {
        "2": 14.822600554726469,
        "0": -318.3052889238913,
        "1": -508.22751907239945
    }
}