{
    "Average_holding_time": 38.74755381604697,
    "Average_holding_actions": [
        378,
        273,
        222,
        42,
        57,
        0
    ],
    "Average_travel_time_passengers": 2217.163286354735,
    "Average_passenger_waiting_time": 357.0170267375031,
    "Average_passenger_in_vehicle_time": 1860.1462596172291,
    "Average_speed_busses": 0.042583333333333334,
    "Average_experienced_crowding": 90.97947794533356,
    "Average_covariation_headway": 0.2948529896062664,
    "Average_covariation_headway_stops": {
        "H": 0.19951210097704775,
        "E": 0.220879205312987,
        "K": 0.19529392995609007,
        "L": 0.18442346763906814,
        "I": 0.1882682478597944,
        "C": 0.21933542701881464,
        "D": 0.2154148187032165,
        "F": 0.19524448505821698,
        "A": 0.1799875833667988,
        "J": 0.18655936399160003,
        "G": 0.18233411746328496,
        "B": 0.20202335688355985
    },
    "Average_excess_waiting_time": {
        "H": 85.41877329322512,
        "E": 87.64220038324748,
        "K": 86.69298148583732,
        "L": 82.88080757726294,
        "I": 85.87476223997197,
        "C": 90.64225777626774,
        "D": 89.5621754503893,
        "F": 85.50740297807778,
        "A": 84.35571531266442,
        "J": 87.93419996558265,
        "G": 85.24254383729965,
        "B": 90.16599668634927
    },
    "Holding_per_stop": {
        "H": 38.8235294117647,
        "E": 31.3953488372093,
        "L": 56.16279069767442,
        "I": 36.705882352941174,
        "D": 32.470588235294116,
        "K": 52.94117647058823,
        "C": 33.88235294117647,
        "A": 28.941176470588236,
        "F": 40.588235294117645,
        "J": 43.411764705882355,
        "G": 39.529411764705884,
        "B": 30
    },
    "Actions_tfl_edges": {
        "CD": [
            38,
            20,
            28
        ],
        "GH": [
            0,
            0,
            86
        ],
        "JK": [
            0,
            0,
            86
        ],
        "HI": [
            0,
            0,
            85
        ],
        "FG": [
            0,
            0,
            85
        ]
    },
    "Load_per_bus_per_stop": {
        "bus3": {
            "H": 118.8,
            "I": 112.6,
            "J": 104.4,
            "K": 91.35714285714286,
            "L": 80.78571428571429,
            "A": 71,
            "B": 60.92857142857143,
            "C": 57.57142857142857,
            "D": 52.285714285714285,
            "E": 54,
            "F": 81.78571428571429,
            "G": 117.14285714285714
        },
        "bus2": {
            "E": 44.6,
            "F": 71.73333333333333,
            "G": 108.73333333333333,
            "H": 121.6,
            "I": 118.57142857142857,
            "J": 110.28571428571429,
            "K": 99.35714285714286,
            "L": 88,
            "A": 76.92857142857143,
            "B": 63.857142857142854,
            "C": 57.5,
            "D": 51.07142857142857
        },
        "bus4": {
            "K": 96.8,
            "L": 86.8,
            "A": 74.28571428571429,
            "B": 62.785714285714285,
            "C": 56.5,
            "D": 51.07142857142857,
            "E": 50.642857142857146,
            "F": 80.92857142857143,
            "G": 119.07142857142857,
            "H": 126.14285714285714,
            "I": 124.35714285714286,
            "J": 114.78571428571429
        },
        "bus5": {
            "L": 78.4,
            "A": 70.66666666666667,
            "B": 60.4,
            "C": 51.714285714285715,
            "D": 48.5,
            "E": 48.92857142857143,
            "F": 72,
            "G": 109.21428571428571,
            "H": 115.28571428571429,
            "I": 112.5,
            "J": 106.28571428571429,
            "K": 95.28571428571429
        },
        "bus0": {
            "C": 52.4,
            "D": 52.142857142857146,
            "E": 51.285714285714285,
            "F": 77.78571428571429,
            "G": 116.14285714285714,
            "H": 126.64285714285714,
            "I": 120.28571428571429,
            "J": 112.71428571428571,
            "K": 97.5,
            "L": 82.35714285714286,
            "A": 71,
            "B": 60.214285714285715
        },
        "bus1": {
            "D": 50.53333333333333,
            "E": 48.46666666666667,
            "F": 71.8,
            "G": 106.21428571428571,
            "H": 112.35714285714286,
            "I": 107.85714285714286,
            "J": 100.64285714285714,
            "K": 91.07142857142857,
            "L": 82.07142857142857,
            "A": 71.78571428571429,
            "B": 61.785714285714285,
            "C": 55
        }
    },
    "Obs_and_actions_busses": {
        "2": 108.32998942991816,
        "5": 323.54372773645963,
        "1": -18.381815101697757,
        "4": 165.95261137348166,
        "0": -193.62442124434642,
        "3": 227.63757874211254
    },
    "Obs_and_actions_tfls": {
        "0": -200.8086495673586,
        "2": 3.169349039643347,
        "1": 9.76763666968509
    }
}