{
    "Average_holding_time": 36.70487106017192,
    "Average_holding_actions": [
        385,
        293,
        246,
        23,
        52,
        0
    ],
    "Average_travel_time_passengers": 2184.7462275635576,
    "Average_passenger_waiting_time": 356.00949123786893,
    "Average_passenger_in_vehicle_time": 1828.7367363257297,
    "Average_speed_busses": 0.043625,
    "Average_experienced_crowding": 89.27730492159722,
    "Average_covariation_headway": 0.32023569265896196,
    "Average_covariation_headway_stops": {
        "H": 0.27097805079231585,
        "G": 0.248322522268098,
        "J": 0.23730689557446724,
        "L": 0.19921318962584603,
        "C": 0.23981362825657906,
        "I": 0.2536454470731227,
        "B": 0.22759654482281022,
        "K": 0.20783150566884026,
        "A": 0.20528144606753043,
        "D": 0.24469840811102817,
        "E": 0.21036654776202401,
        "F": 0.2088178663424671
    },
    "Average_excess_waiting_time": {
        "H": 89.07391533340137,
        "G": 88.17247082537591,
        "J": 82.8423011629223,
        "L": 76.5982813313214,
        "C": 82.28627357249377,
        "I": 87.73298018819492,
        "B": 81.31820581376047,
        "K": 79.309231705265,
        "A": 79.55663461621856,
        "D": 84.8264168628279,
        "E": 81.54841347384706,
        "F": 84.62761185562283
    },
    "Holding_per_stop": {
        "H": 35.86206896551724,
        "J": 36.81818181818182,
        "L": 39.88636363636363,
        "G": 36.55172413793103,
        "C": 35.45454545454545,
        "I": 35.86206896551724,
        "B": 33.40909090909091,
        "K": 44.48275862068966,
        "A": 34.13793103448276,
        "D": 37.58620689655172,
        "E": 34.48275862068966,
        "F": 35.93023255813954
    },
    "Actions_tfl_edges": {
        "FG": [
            0,
            0,
            87
        ],
        "GH": [
            0,
            0,
            88
        ],
        "HI": [
            0,
            0,
            87
        ],
        "JK": [
            0,
            0,
            88
        ],
        "CD": [
            42,
            0,
            46
        ]
    },
    "Load_per_bus_per_stop": {
        "bus3": {
            "H": 111.33333333333333,
            "I": 105.6,
            "J": 99.86666666666666,
            "K": 89.93333333333334,
            "L": 79.4,
            "A": 69.4,
            "B": 59.6,
            "C": 59.214285714285715,
            "D": 54.857142857142854,
            "E": 56.357142857142854,
            "F": 78.07142857142857,
            "G": 111.28571428571429
        },
        "bus2": {
            "G": 109.6,
            "H": 119.13333333333334,
            "I": 114.13333333333334,
            "J": 108.13333333333334,
            "K": 97.66666666666667,
            "L": 84.26666666666667,
            "A": 72.85714285714286,
            "B": 61.642857142857146,
            "C": 56.07142857142857,
            "D": 53.857142857142854,
            "E": 51.5,
            "F": 78
        },
        "bus4": {
            "J": 97.33333333333333,
            "K": 87.46666666666667,
            "L": 79.8,
            "A": 70.86666666666666,
            "B": 60,
            "C": 53.46666666666667,
            "D": 47.357142857142854,
            "E": 45.857142857142854,
            "F": 68,
            "G": 103.78571428571429,
            "H": 112.92857142857143,
            "I": 112.21428571428571
        },
        "bus5": {
            "L": 76.86666666666666,
            "A": 66.66666666666667,
            "B": 56.266666666666666,
            "C": 50.46666666666667,
            "D": 46.6,
            "E": 44.2,
            "F": 69.71428571428571,
            "G": 107.57142857142857,
            "H": 116.07142857142857,
            "I": 109.21428571428571,
            "J": 102.14285714285714,
            "K": 93.21428571428571
        },
        "bus1": {
            "C": 54.93333333333333,
            "D": 50.266666666666666,
            "E": 49.46666666666667,
            "F": 74.13333333333334,
            "G": 112.8,
            "H": 125.2,
            "I": 118.6,
            "J": 111.8,
            "K": 100.57142857142857,
            "L": 88.85714285714286,
            "A": 76.14285714285714,
            "B": 66.92857142857143
        },
        "bus0": {
            "B": 54.4,
            "C": 49.4,
            "D": 46.06666666666667,
            "E": 43.8,
            "F": 67.4,
            "G": 103.66666666666667,
            "H": 110.78571428571429,
            "I": 107.42857142857143,
            "J": 98.64285714285714,
            "K": 87.85714285714286,
            "L": 78.35714285714286,
            "A": 68.28571428571429
        }
    },
    "Obs_and_actions_busses": {
        "0": -213.9321993699038,
        "1": -0.6524460062102189,
        "4": 205.0835115282594,
        "5": 410.1089202181348,
        "3": 242.70469555304493,
        "2": 119.07142532803933
    },
    "Obs_and_actions_tfls": {
        "2": 11.047204625872132,
        "0": -218.7055162866018
    }
}bs_and_actions_tfls": {
        "2": 25.03908725097627,
        "0": -292.8162511142511
    }
}