{
    "Average_holding_time": 39.28225024248302,
    "Average_holding_actions": [
        376,
        274,
        238,
        29,
        71,
        0
    ],
    "Average_travel_time_passengers": 2210.2907062560407,
    "Average_passenger_waiting_time": 361.0761313771424,
    "Average_passenger_in_vehicle_time": 1849.2145748788791,
    "Average_speed_busses": 0.042958333333333334,
    "Average_experienced_crowding": 90.8124121284956,
    "Average_covariation_headway": 0.3226938160372552,
    "Average_covariation_headway_stops": {
        "H": 0.2882580395949722,
        "K": 0.2408466193104473,
        "J": 0.2438961650152293,
        "A": 0.20703165884947866,
        "B": 0.2419868996257445,
        "D": 0.20840920439458877,
        "I": 0.2654836247941831,
        "L": 0.19651984660927352,
        "E": 0.19594999415613626,
        "C": 0.21380609116268454,
        "F": 0.20091106475129325,
        "G": 0.2388094059618376
    },
    "Average_excess_waiting_time": {
        "H": 99.34971375586935,
        "K": 88.37127622989402,
        "J": 92.33841361399521,
        "A": 83.10186772853365,
        "B": 87.1423024654635,
        "D": 82.8844428039925,
        "I": 98.40878816329547,
        "L": 84.38256014413724,
        "E": 83.30055669233298,
        "C": 85.46337673547993,
        "F": 85.68605321122465,
        "G": 93.14271869628664
    },
    "Holding_per_stop": {
        "K": 55.46511627906977,
        "H": 40.116279069767444,
        "J": 47.7906976744186,
        "A": 27.906976744186046,
        "B": 34.13793103448276,
        "D": 35.172413793103445,
        "L": 50.58139534883721,
        "I": 40.23529411764706,
        "C": 34.18604651162791,
        "E": 31.3953488372093,
        "F": 35.64705882352941,
        "G": 38.8235294117647
    },
    "Actions_tfl_edges": {
        "CD": [
            36,
            27,
            24
        ],
        "GH": [
            0,
            0,
            86
        ],
        "JK": [
            0,
            0,
            87
        ],
        "HI": [
            1,
            0,
            85
        ],
        "FG": [
            1,
            0,
            84
        ]
    },
    "Load_per_bus_per_stop": {
        "bus2": {
            "H": 119.86666666666666,
            "I": 116.13333333333334,
            "J": 107,
            "K": 94.5,
            "L": 82.21428571428571,
            "A": 72.07142857142857,
            "B": 60.214285714285715,
            "C": 55.714285714285715,
            "D": 53,
            "E": 55.642857142857146,
            "F": 80.71428571428571,
            "G": 119.28571428571429
        },
        "bus4": {
            "K": 87.06666666666666,
            "L": 78.46666666666667,
            "A": 68.66666666666667,
            "B": 57.8,
            "C": 51.857142857142854,
            "D": 49.07142857142857,
            "E": 47.42857142857143,
            "F": 71.5,
            "G": 108,
            "H": 117.85714285714286,
            "I": 113.07142857142857,
            "J": 104.35714285714286
        },
        "bus3": {
            "J": 99.06666666666666,
            "K": 87.2,
            "L": 77.26666666666667,
            "A": 68.64285714285714,
            "B": 60.07142857142857,
            "C": 56.857142857142854,
            "D": 53,
            "E": 51.07142857142857,
            "F": 76.57142857142857,
            "G": 110.71428571428571,
            "H": 120,
            "I": 115.64285714285714
        },
        "bus5": {
            "A": 67.6,
            "B": 57.46666666666667,
            "C": 52.46666666666667,
            "D": 50.8,
            "E": 47.07142857142857,
            "F": 68.92857142857143,
            "G": 100,
            "H": 110.35714285714286,
            "I": 106.14285714285714,
            "J": 99.71428571428571,
            "K": 90.85714285714286,
            "L": 80
        },
        "bus0": {
            "B": 62.666666666666664,
            "C": 54.6,
            "D": 48.6,
            "E": 47.266666666666666,
            "F": 70.26666666666667,
            "G": 110.57142857142857,
            "H": 123.57142857142857,
            "I": 118.85714285714286,
            "J": 110.42857142857143,
            "K": 100.85714285714286,
            "L": 89.57142857142857,
            "A": 77.71428571428571
        },
        "bus1": {
            "D": 50.2,
            "E": 50.6,
            "F": 74.73333333333333,
            "G": 109.53333333333333,
            "H": 119,
            "I": 118.85714285714286,
            "J": 110.21428571428571,
            "K": 98.92857142857143,
            "L": 89,
            "A": 76.21428571428571,
            "B": 64.71428571428571,
            "C": 57.785714285714285
        }
    },
    "Obs_and_actions_busses": {
        "5": 366.34217465501115,
        "3": 258.3783538081063,
        "2": 105.59224995317025,
        "0": -228.91430133746627,
        "1": -16.360254152080728,
        "4": 161.6306852467986
    },
    "Obs_and_actions_tfls": {
        "0": -254.14984050437556,
        "2": 1.356122991979195,
        "1": 16.96339176884794
    }
}