{
    "Average_holding_time": [
        47.28876610451142,
        [
            44.28292682926829,
            41.54738878143134,
            47.00787401574803,
            50.98802395209581,
            48.656716417910445,
            54.339051463168516,
            39.6551724137931,
            48.39091806515301,
            47.4901185770751,
            50.52947052947053
        ]
    ],
    "Average_holding_actions": [
        [
            582,
            104,
            72,
            55,
            65,
            93
        ],
        [
            582,
            116,
            89,
            60,
            47,
            81
        ],
        [
            581,
            95,
            59,
            42,
            58,
            126
        ],
        [
            571,
            62,
            65,
            45,
            58,
            146
        ],
        [
            558,
            95,
            63,
            44,
            51,
            132
        ],
        [
            568,
            49,
            57,
            58,
            49,
            175
        ],
        [
            621,
            104,
            80,
            51,
            54,
            80
        ],
        [
            596,
            70,
            50,
            41,
            50,
            144
        ],
        [
            572,
            88,
            66,
            46,
            47,
            128
        ],
        [
            577,
            67,
            67,
            60,
            39,
            159
        ]
    ],
    "Average_travel_time_passengers": [
        2245.8292647554717,
        [
            2214.308922486491,
            2194.477700263091,
            2254.1186719504317,
            2269.89086665379,
            2255.2882862236966,
            2290.5016611026394,
            2196.292538986681,
            2266.75601095188,
            2250.3550233790825,
            2266.3029655569358
        ]
    ],
    "Average_passenger_waiting_time": [
        363.4314940107792,
        [
            356.4009121303852,
            349.5725610792859,
            373.5407316965122,
            366.5426954240477,
            371.0551629156803,
            374.1848859121038,
            350.6127210259194,
            364.19770302083236,
            360.2957203825221,
            367.91184652050293
        ]
    ],
    "Average_passenger_in_vehicle_time": [
        1882.3977707445922,
        [
            1857.9080103559952,
            1844.9051391837065,
            1880.5779402538226,
            1903.3481712296286,
            1884.23312330793,
            1916.3167751904464,
            1845.6798179606346,
            1902.558307930954,
            1890.0593029964468,
            1898.3911190363574
        ]
    ],
    "Average_speed_busses": [
        0.0422625,
        [
            0.042708333333333334,
            0.043083333333333335,
            0.042333333333333334,
            0.04175,
            0.041875,
            0.041291666666666664,
            0.0435,
            0.042208333333333334,
            0.042166666666666665,
            0.04170833333333333
        ]
    ],
    "Average_experienced_crowding": [
        90.3093258632172,
        [
            88.98665324264127,
            86.76004970346037,
            92.27084671797292,
            90.5811347582804,
            92.47293953203638,
            92.32561479818736,
            87.42888938418605,
            90.09564531286634,
            90.690409961683,
            91.48107522085787
        ]
    ],
    "Average_covariation_headway": [
        0.29905614338458214,
        [
            0.28625589107390687,
            0.26964637747946485,
            0.3302976240393242,
            0.30373749079667106,
            0.3046538762405562,
            0.31195228489156457,
            0.2777882111170816,
            0.30731859802079603,
            0.2899394831217658,
            0.3089715970646904
        ]
    ],
    "Average_covariation_headway_stops": [
        {
            "H": 0.19476498579599946,
            "I": 0.22025282638553959,
            "E": 0.1905525771215881,
            "L": 0.17536818689068687,
            "D": 0.16167153342255755,
            "B": 0.1765023440837088,
            "J": 0.1880893214403003,
            "F": 0.16482040776446746,
            "A": 0.17556989236655296,
            "K": 0.15389244453539486,
            "G": 0.17288804874264543,
            "C": 0.1367130579081603
        },
        {
            "H": 0.16983206928082706,
            "F": 0.17451272082241936,
            "J": 0.17917474444120257,
            "D": 0.15438450658420372,
            "A": 0.15636428407225247,
            "I": 0.1609782706950103,
            "B": 0.16857325534677367,
            "K": 0.1494497327675325,
            "G": 0.14643910938987226,
            "E": 0.15286012691186926,
            "C": 0.11951262868909794,
            "L": 0.1275320718554709
        },
        {
            "H": 0.30573537095209596,
            "G": 0.2768780275805487,
            "I": 0.28271363752774786,
            "F": 0.25333320343560506,
            "J": 0.2619241775266469,
            "D": 0.28576591413563496,
            "K": 0.2304267103621813,
            "E": 0.2609266110072504,
            "L": 0.23831194867304312,
            "A": 0.23345523505620744,
            "B": 0.23404157206682202,
            "C": 0.2642102430202702
        },
        {
            "H": 0.23044421581172325,
            "G": 0.20711143879818997,
            "F": 0.19802534335774735,
            "J": 0.2022571942342564,
            "L": 0.2009548219791074,
            "I": 0.19323815944857184,
            "C": 0.17543247082223107,
            "K": 0.17689602964809686,
            "A": 0.19732504946552806,
            "D": 0.1751919409500288,
            "B": 0.1619978729100844,
            "E": 0.17520974160842015
        },
        {
            "H": 0.24919846315460412,
            "G": 0.2152342840967707,
            "I": 0.28419811034492126,
            "K": 0.20209987680694824,
            "A": 0.22242063102174814,
            "C": 0.14042046020334745,
            "J": 0.2428345356142653,
            "L": 0.17058446389365908,
            "B": 0.1967408808391599,
            "D": 0.18059117728457674,
            "E": 0.20122667594909577,
            "F": 0.21054484508037397
        },
        {
            "H": 0.2189371837693871,
            "E": 0.19045120105571398,
            "J": 0.20216512252241003,
            "K": 0.18788448754960613,
            "L": 0.21713154454776437,
            "C": 0.1596755931000449,
            "I": 0.2115397869481882,
            "F": 0.1919232894703373,
            "A": 0.2092894168301699,
            "G": 0.18320381945371933,
            "D": 0.1959716012137,
            "B": 0.1936931516751206
        },
        {
            "G": 0.1931046225235046,
            "I": 0.1939196798896436,
            "E": 0.18272026107076536,
            "K": 0.19308922302462403,
            "D": 0.17368790575443308,
            "C": 0.17900067565782643,
            "J": 0.17788811871490376,
            "H": 0.17382012464254742,
            "L": 0.14712008445526534,
            "F": 0.16152635336544482,
            "A": 0.16565258089271642,
            "B": 0.16728103685843648
        },
        {
            "G": 0.21406574696737582,
            "I": 0.24874502732036927,
            "E": 0.21253334758884868,
            "J": 0.22932532087128138,
            "D": 0.20990699179936287,
            "A": 0.21324805522682888,
            "H": 0.2389362033202631,
            "F": 0.19691184180344828,
            "K": 0.18856013501335725,
            "B": 0.18546777630992922,
            "L": 0.19023933883871977,
            "C": 0.1710220163523525
        },
        {
            "H": 0.2112387254396296,
            "G": 0.2016756429534682,
            "E": 0.19429410018841287,
            "J": 0.19353498998386134,
            "L": 0.16778616102937519,
            "I": 0.16945778037440187,
            "B": 0.17048496697293378,
            "K": 0.18822519522751885,
            "A": 0.16431675784443797,
            "F": 0.1754747255399779,
            "C": 0.16469616833137266,
            "D": 0.15285139102600537
        },
        {
            "I": 0.22439493415092707,
            "E": 0.22129213188150104,
            "K": 0.20564343752019548,
            "D": 0.1905423337546765,
            "A": 0.21271786279165172,
            "B": 0.2250312405865884,
            "F": 0.20971026746433616,
            "L": 0.18708468433920306,
            "J": 0.21458000214094042,
            "G": 0.21652914486111283,
            "C": 0.16027906114276208,
            "H": 0.22337024154671759
        }
    ],
    "Average_excess_waiting_time": [
        {
            "H": 89.86847385235677,
            "I": 91.13183844023217,
            "E": 88.09344500679975,
            "L": 87.500111016164,
            "D": 87.029027119663,
            "B": 88.0933431020652,
            "J": 88.82663581023621,
            "F": 87.10606486681371,
            "A": 90.41090672284122,
            "K": 87.53012452905011,
            "G": 89.86266043945824,
            "C": 86.42931212405108
        },
        {
            "H": 82.96357882119554,
            "F": 82.98323708768322,
            "J": 82.26527829045324,
            "D": 81.51714810538107,
            "A": 81.70911378899393,
            "I": 82.55477256865896,
            "B": 82.06814875918838,
            "K": 81.39381115740929,
            "G": 82.1468069483762,
            "E": 84.23775157854544,
            "C": 80.26309915630702,
            "L": 80.95373416299782
        },
        {
            "H": 110.88376577306803,
            "G": 107.0198292883062,
            "I": 103.43261853992232,
            "F": 105.25023437619308,
            "J": 97.50350975789007,
            "D": 112.28756209909153,
            "K": 94.52265310889578,
            "E": 108.74237198321208,
            "L": 96.809576267853,
            "A": 99.27493543406763,
            "B": 101.91037892371116,
            "C": 109.70137849417193
        },
        {
            "H": 100.97501194544236,
            "G": 100.18028323973607,
            "F": 100.90164151448215,
            "J": 95.46316295500549,
            "L": 95.51267549043928,
            "I": 96.7802340575397,
            "C": 96.10306757140597,
            "K": 94.89177105771506,
            "A": 97.29683741253956,
            "D": 99.6041714952363,
            "B": 96.464483441585,
            "E": 100.61609140504578
        },
        {
            "H": 106.23531653348721,
            "G": 103.46961863608664,
            "I": 109.69218242318726,
            "K": 95.1852348876111,
            "A": 98.0255966971875,
            "C": 89.03319501667698,
            "J": 105.0087760171831,
            "L": 94.01179792284898,
            "B": 97.24082263366955,
            "D": 95.72405572099655,
            "E": 101.35410532698586,
            "F": 104.56104540219371
        },
        {
            "H": 107.20612757001237,
            "E": 102.331061023328,
            "J": 104.13293414626207,
            "K": 99.44769351458785,
            "L": 102.06342364767494,
            "C": 97.24364370122953,
            "I": 108.08378605291279,
            "F": 103.65714537936299,
            "A": 102.18014860288838,
            "G": 104.07571564593411,
            "D": 105.50943881166205,
            "B": 103.47105303643013
        },
        {
            "G": 82.65736960378507,
            "I": 81.83588153073896,
            "E": 81.92221031457251,
            "K": 81.52150389868228,
            "D": 83.43232399613396,
            "C": 86.02375213434237,
            "J": 82.02075061173622,
            "H": 81.86765715519704,
            "L": 78.35237776808845,
            "F": 81.18937126068926,
            "A": 82.37991421685587,
            "B": 85.60837131736048
        },
        {
            "G": 96.54246312287228,
            "I": 102.0242125754362,
            "E": 96.91732525323914,
            "J": 97.2370303106411,
            "D": 99.16214718884697,
            "A": 96.93727309768843,
            "H": 103.36794036794441,
            "F": 97.21498361199741,
            "K": 93.07469331320385,
            "B": 94.14784657166234,
            "L": 95.57539032716636,
            "C": 95.98730701224378
        },
        {
            "H": 95.73739866703636,
            "G": 97.04500754779997,
            "E": 95.28137445600782,
            "J": 92.80262438847234,
            "L": 88.06300543398572,
            "I": 91.55128692186184,
            "B": 89.45557581471962,
            "K": 93.0106362147531,
            "A": 90.66643147544994,
            "F": 95.66668087818402,
            "C": 91.62609106427391,
            "D": 92.51089991040993
        },
        {
            "I": 103.36258477697021,
            "E": 100.25393632847386,
            "K": 100.00412413627458,
            "D": 97.43471627443625,
            "A": 100.79768237919717,
            "B": 101.49461685945141,
            "F": 100.49961966416726,
            "L": 99.26675850523128,
            "J": 102.96067430385534,
            "G": 102.3817194722651,
            "C": 95.94710406633703,
            "H": 105.98460039805178
        }
    ],
    "Actions_tfl_edges": [
        {},
        {},
        {},
        {},
        {},
        {},
        {},
        {},
        {},
        {}
    ],
    "Holding_per_stop": [
        {
            "I": 42.2093023255814,
            "L": 42.2093023255814,
            "E": 33.83720930232558,
            "H": 44.651162790697676,
            "B": 51.1764705882353,
            "J": 44.651162790697676,
            "D": 45.529411764705884,
            "F": 44.470588235294116,
            "A": 37.76470588235294,
            "K": 42,
            "C": 53.294117647058826,
            "G": 49.76470588235294
        },
        {
            "H": 43.95348837209303,
            "J": 37.93103448275862,
            "B": 45.51724137931034,
            "F": 45,
            "D": 41.16279069767442,
            "A": 39.76744186046512,
            "K": 43.25581395348837,
            "I": 35.58139534883721,
            "C": 48.83720930232558,
            "G": 51.627906976744185,
            "L": 35.93023255813954,
            "E": 30
        },
        {
            "H": 54.705882352941174,
            "I": 47.7906976744186,
            "G": 46.785714285714285,
            "J": 55.116279069767444,
            "F": 53.214285714285715,
            "D": 48.57142857142857,
            "K": 39.76744186046512,
            "L": 39.529411764705884,
            "E": 30.72289156626506,
            "A": 40.94117647058823,
            "B": 58.214285714285715,
            "C": 48.57142857142857
        },
        {
            "H": 55.357142857142854,
            "G": 54.21686746987952,
            "J": 52.5,
            "L": 46.785714285714285,
            "I": 46.42857142857143,
            "C": 58.92857142857143,
            "F": 52.7710843373494,
            "K": 49.642857142857146,
            "A": 48.57142857142857,
            "D": 53.493975903614455,
            "B": 58.19277108433735,
            "E": 34.75609756097561
        },
        {
            "H": 50.357142857142854,
            "I": 43.214285714285715,
            "K": 52.5,
            "A": 41.785714285714285,
            "G": 57.46987951807229,
            "C": 55.714285714285715,
            "J": 46.785714285714285,
            "L": 49.285714285714285,
            "B": 60.357142857142854,
            "D": 45.714285714285715,
            "E": 32.53012048192771,
            "F": 48.0722891566265
        },
        {
            "K": 56.74698795180723,
            "L": 48.214285714285715,
            "E": 44.45783132530121,
            "H": 52.68292682926829,
            "J": 53.493975903614455,
            "C": 62.89156626506024,
            "F": 52.68292682926829,
            "A": 51.68674698795181,
            "I": 56.34146341463415,
            "D": 55.24390243902439,
            "G": 57.4390243902439,
            "B": 60.36585365853659
        },
        {
            "I": 32.72727272727273,
            "K": 34.43181818181818,
            "E": 25.862068965517242,
            "G": 46.89655172413793,
            "D": 41.37931034482759,
            "J": 42.06896551724138,
            "H": 38.275862068965516,
            "L": 33.793103448275865,
            "C": 43.95348837209303,
            "F": 50.689655172413794,
            "A": 34.48275862068966,
            "B": 51.627906976744185
        },
        {
            "E": 29.647058823529413,
            "J": 58.23529411764706,
            "I": 43.76470588235294,
            "G": 56.470588235294116,
            "A": 37.05882352941177,
            "D": 45.357142857142854,
            "K": 49.05882352941177,
            "H": 51.785714285714285,
            "F": 54.285714285714285,
            "B": 57.5,
            "L": 40.357142857142854,
            "C": 57.46987951807229
        },
        {
            "H": 60.705882352941174,
            "L": 44.11764705882353,
            "J": 44.470588235294116,
            "I": 47.142857142857146,
            "G": 49.285714285714285,
            "B": 48,
            "E": 36.785714285714285,
            "K": 41.07142857142857,
            "A": 50.357142857142854,
            "C": 52.5,
            "F": 43.92857142857143,
            "D": 51.42857142857143
        },
        {
            "E": 42.857142857142854,
            "K": 43.01204819277108,
            "A": 46.07142857142857,
            "D": 49.642857142857146,
            "I": 51.325301204819276,
            "B": 54.285714285714285,
            "L": 47.71084337349398,
            "F": 45.357142857142854,
            "C": 60.72289156626506,
            "J": 49.1566265060241,
            "G": 60,
            "H": 56.3855421686747
        }
    ],
    "Load_per_bus_per_stop": [
        {
            "bus3": {
                "H": 124.66666666666667,
                "I": 117.33333333333333,
                "J": 108,
                "K": 96.35714285714286,
                "L": 85.5,
                "A": 73.07142857142857,
                "B": 59.642857142857146,
                "C": 53.357142857142854,
                "D": 50.92857142857143,
                "E": 51.57142857142857,
                "F": 83.71428571428571,
                "G": 122.5
            },
            "bus4": {
                "I": 106.06666666666666,
                "J": 99.33333333333333,
                "K": 92.2,
                "L": 81.86666666666666,
                "A": 71.21428571428571,
                "B": 63.07142857142857,
                "C": 58.357142857142854,
                "D": 52.92857142857143,
                "E": 47.785714285714285,
                "F": 69.07142857142857,
                "G": 102.28571428571429,
                "H": 114.42857142857143
            },
            "bus2": {
                "E": 46.93333333333333,
                "F": 70.8,
                "G": 106,
                "H": 116.46666666666667,
                "I": 111.07142857142857,
                "J": 102.64285714285714,
                "K": 93.85714285714286,
                "L": 82.64285714285714,
                "A": 74.28571428571429,
                "B": 65.21428571428571,
                "C": 58,
                "D": 53.285714285714285
            },
            "bus5": {
                "L": 74.93333333333334,
                "A": 66.86666666666666,
                "B": 58.285714285714285,
                "C": 52.785714285714285,
                "D": 48.714285714285715,
                "E": 46.357142857142854,
                "F": 69.57142857142857,
                "G": 105.28571428571429,
                "H": 113.28571428571429,
                "I": 107.85714285714286,
                "J": 99.71428571428571,
                "K": 92.35714285714286
            },
            "bus1": {
                "D": 47.2,
                "E": 45.06666666666667,
                "F": 68.35714285714286,
                "G": 107.28571428571429,
                "H": 119.07142857142857,
                "I": 116.71428571428571,
                "J": 110.07142857142857,
                "K": 98.21428571428571,
                "L": 85.28571428571429,
                "A": 74.57142857142857,
                "B": 64,
                "C": 57.142857142857146
            },
            "bus0": {
                "B": 58.8,
                "C": 53.266666666666666,
                "D": 49.285714285714285,
                "E": 50.857142857142854,
                "F": 76,
                "G": 116.78571428571429,
                "H": 125.28571428571429,
                "I": 119.21428571428571,
                "J": 112.07142857142857,
                "K": 100.92857142857143,
                "L": 87.92857142857143,
                "A": 74.42857142857143
            }
        },
        {
            "bus3": {
                "H": 113.2,
                "I": 108.53333333333333,
                "J": 100.4,
                "K": 94.2,
                "L": 82.46666666666667,
                "A": 72,
                "B": 61.07142857142857,
                "C": 56.142857142857146,
                "D": 52.285714285714285,
                "E": 50.92857142857143,
                "F": 75.42857142857143,
                "G": 110.64285714285714
            },
            "bus2": {
                "F": 70.26666666666667,
                "G": 100.2,
                "H": 109.8,
                "I": 106.33333333333333,
                "J": 100.53333333333333,
                "K": 93.28571428571429,
                "L": 83.35714285714286,
                "A": 73.85714285714286,
                "B": 65.42857142857143,
                "C": 57.714285714285715,
                "D": 54.285714285714285,
                "E": 52.857142857142854
            },
            "bus4": {
                "J": 106.33333333333333,
                "K": 96.73333333333333,
                "L": 86.6,
                "A": 75.13333333333334,
                "B": 64.33333333333333,
                "C": 55.92857142857143,
                "D": 49.57142857142857,
                "E": 49.42857142857143,
                "F": 76.78571428571429,
                "G": 112.5,
                "H": 122.35714285714286,
                "I": 121.35714285714286
            },
            "bus1": {
                "D": 47.13333333333333,
                "E": 45.53333333333333,
                "F": 69.53333333333333,
                "G": 107.8,
                "H": 119.13333333333334,
                "I": 114.21428571428571,
                "J": 106.5,
                "K": 95.85714285714286,
                "L": 86.07142857142857,
                "A": 73.78571428571429,
                "B": 63.714285714285715,
                "C": 54.42857142857143
            },
            "bus5": {
                "A": 64.93333333333334,
                "B": 56.733333333333334,
                "C": 50.666666666666664,
                "D": 45.8,
                "E": 45.92857142857143,
                "F": 70.42857142857143,
                "G": 100.35714285714286,
                "H": 109.78571428571429,
                "I": 103.28571428571429,
                "J": 96.35714285714286,
                "K": 88.5,
                "L": 79.5
            },
            "bus0": {
                "B": 56.8,
                "C": 52.4,
                "D": 50.86666666666667,
                "E": 51.666666666666664,
                "F": 75.42857142857143,
                "G": 109.28571428571429,
                "H": 116,
                "I": 112.57142857142857,
                "J": 103.92857142857143,
                "K": 93.21428571428571,
                "L": 81.64285714285714,
                "A": 70.92857142857143
            }
        },
        {
            "bus3": {
                "H": 116.53333333333333,
                "I": 113.4,
                "J": 105.57142857142857,
                "K": 95.5,
                "L": 85.07142857142857,
                "A": 74.85714285714286,
                "B": 66.35714285714286,
                "C": 58.714285714285715,
                "D": 51.92857142857143,
                "E": 48.714285714285715,
                "F": 73.64285714285714,
                "G": 111.14285714285714
            },
            "bus2": {
                "G": 115.26666666666667,
                "H": 120.28571428571429,
                "I": 115.28571428571429,
                "J": 108,
                "K": 95.78571428571429,
                "L": 82.28571428571429,
                "A": 71.35714285714286,
                "B": 60.42857142857143,
                "C": 54.92857142857143,
                "D": 53.5,
                "E": 54.857142857142854,
                "F": 87.21428571428571
            },
            "bus4": {
                "I": 92.46666666666667,
                "J": 86.26666666666667,
                "K": 80.46666666666667,
                "L": 72.14285714285714,
                "A": 65.35714285714286,
                "B": 56.642857142857146,
                "C": 50.92857142857143,
                "D": 45.285714285714285,
                "E": 43.857142857142854,
                "F": 68.35714285714286,
                "G": 97.85714285714286,
                "H": 104.92857142857143
            },
            "bus1": {
                "F": 70,
                "G": 101.42857142857143,
                "H": 107.92857142857143,
                "I": 103.85714285714286,
                "J": 94.42857142857143,
                "K": 85.57142857142857,
                "L": 77.78571428571429,
                "A": 70.14285714285714,
                "B": 60.07142857142857,
                "C": 53.357142857142854,
                "D": 51.857142857142854,
                "E": 51.84615384615385
            },
            "bus5": {
                "J": 111.66666666666667,
                "K": 101.26666666666667,
                "L": 88,
                "A": 75.86666666666666,
                "B": 63.5,
                "C": 57.285714285714285,
                "D": 56.285714285714285,
                "E": 56.57142857142857,
                "F": 87.07142857142857,
                "G": 126.42857142857143,
                "H": 133.92857142857142,
                "I": 128.78571428571428
            },
            "bus0": {
                "D": 50.357142857142854,
                "E": 48.07142857142857,
                "F": 72,
                "G": 111.14285714285714,
                "H": 123.07142857142857,
                "I": 121,
                "J": 115.07142857142857,
                "K": 106.5,
                "L": 94.14285714285714,
                "A": 80.71428571428571,
                "B": 68.92857142857143,
                "C": 59.785714285714285
            }
        },
        {
            "bus3": {
                "H": 112.78571428571429,
                "I": 110.07142857142857,
                "J": 103.64285714285714,
                "K": 93.57142857142857,
                "L": 81.71428571428571,
                "A": 72,
                "B": 61.42857142857143,
                "C": 52.357142857142854,
                "D": 49.5,
                "E": 48.357142857142854,
                "F": 73.42857142857143,
                "G": 110.64285714285714
            },
            "bus2": {
                "G": 106.64285714285714,
                "H": 112.07142857142857,
                "I": 109.42857142857143,
                "J": 102.21428571428571,
                "K": 94.21428571428571,
                "L": 82,
                "A": 72.42857142857143,
                "B": 62.642857142857146,
                "C": 59.5,
                "D": 55.214285714285715,
                "E": 55.53846153846154,
                "F": 78.84615384615384
            },
            "bus1": {
                "F": 71.28571428571429,
                "G": 109,
                "H": 118.28571428571429,
                "I": 112.92857142857143,
                "J": 105.71428571428571,
                "K": 98.64285714285714,
                "L": 87,
                "A": 78.78571428571429,
                "B": 67.71428571428571,
                "C": 58.857142857142854,
                "D": 51.23076923076923,
                "E": 51.38461538461539
            },
            "bus4": {
                "J": 100.33333333333333,
                "K": 92.85714285714286,
                "L": 82.57142857142857,
                "A": 72.14285714285714,
                "B": 62.92857142857143,
                "C": 54.57142857142857,
                "D": 51.785714285714285,
                "E": 50.142857142857146,
                "F": 76.42857142857143,
                "G": 110.78571428571429,
                "H": 119.35714285714286,
                "I": 115.21428571428571
            },
            "bus5": {
                "L": 81.53333333333333,
                "A": 69.07142857142857,
                "B": 60.285714285714285,
                "C": 55.285714285714285,
                "D": 55,
                "E": 55,
                "F": 76.14285714285714,
                "G": 111.85714285714286,
                "H": 122.35714285714286,
                "I": 117.92857142857143,
                "J": 109.21428571428571,
                "K": 97.64285714285714
            },
            "bus0": {
                "C": 53.714285714285715,
                "D": 50.42857142857143,
                "E": 48.785714285714285,
                "F": 75.07142857142857,
                "G": 113.14285714285714,
                "H": 128.28571428571428,
                "I": 123,
                "J": 114.5,
                "K": 103.71428571428571,
                "L": 92.71428571428571,
                "A": 80.85714285714286,
                "B": 67.76923076923077
            }
        },
        {
            "bus2": {
                "H": 105.57142857142857,
                "I": 103.42857142857143,
                "J": 95.35714285714286,
                "K": 88.64285714285714,
                "L": 79.64285714285714,
                "A": 68.71428571428571,
                "B": 57.285714285714285,
                "C": 55,
                "D": 49.42857142857143,
                "E": 49.285714285714285,
                "F": 75,
                "G": 104.76923076923077
            },
            "bus1": {
                "G": 109.14285714285714,
                "H": 119.85714285714286,
                "I": 117.78571428571429,
                "J": 111.28571428571429,
                "K": 101.64285714285714,
                "L": 89.64285714285714,
                "A": 78.14285714285714,
                "B": 67.07142857142857,
                "C": 59.285714285714285,
                "D": 56.357142857142854,
                "E": 53.53846153846154,
                "F": 81.61538461538461
            },
            "bus3": {
                "I": 122.8,
                "J": 112.42857142857143,
                "K": 101.71428571428571,
                "L": 89.78571428571429,
                "A": 76.78571428571429,
                "B": 64.42857142857143,
                "C": 55.714285714285715,
                "D": 52.5,
                "E": 52.714285714285715,
                "F": 86,
                "G": 129.35714285714286,
                "H": 137.78571428571428
            },
            "bus4": {
                "K": 94.14285714285714,
                "L": 83.21428571428571,
                "A": 73.28571428571429,
                "B": 62.285714285714285,
                "C": 57.5,
                "D": 53.42857142857143,
                "E": 48.92857142857143,
                "F": 71.14285714285714,
                "G": 105.28571428571429,
                "H": 118,
                "I": 116.28571428571429,
                "J": 109.71428571428571
            },
            "bus5": {
                "A": 67,
                "B": 58,
                "C": 55.5,
                "D": 52.57142857142857,
                "E": 49,
                "F": 73.92857142857143,
                "G": 108.92857142857143,
                "H": 115.71428571428571,
                "I": 110.92857142857143,
                "J": 103,
                "K": 93.21428571428571,
                "L": 82.71428571428571
            },
            "bus0": {
                "C": 53.42857142857143,
                "D": 52.5,
                "E": 51.214285714285715,
                "F": 85.78571428571429,
                "G": 129.57142857142858,
                "H": 137.14285714285714,
                "I": 130,
                "J": 118.92857142857143,
                "K": 107.35714285714286,
                "L": 93.71428571428571,
                "A": 79,
                "B": 65.71428571428571
            }
        },
        {
            "bus2": {
                "H": 115.35714285714286,
                "I": 111.42857142857143,
                "J": 103.78571428571429,
                "K": 93.71428571428571,
                "L": 81.42857142857143,
                "A": 70.71428571428571,
                "B": 60.285714285714285,
                "C": 55.07142857142857,
                "D": 50.92307692307692,
                "E": 47.84615384615385,
                "F": 75.07692307692308,
                "G": 116.76923076923077
            },
            "bus1": {
                "E": 49.714285714285715,
                "F": 72.28571428571429,
                "G": 106.71428571428571,
                "H": 117.35714285714286,
                "I": 115.78571428571429,
                "J": 106.14285714285714,
                "K": 96.78571428571429,
                "L": 83.85714285714286,
                "A": 74.85714285714286,
                "B": 63.53846153846154,
                "C": 59.61538461538461,
                "D": 54.53846153846154
            },
            "bus3": {
                "J": 102.85714285714286,
                "K": 94.21428571428571,
                "L": 83.07142857142857,
                "A": 73.85714285714286,
                "B": 64.57142857142857,
                "C": 60.357142857142854,
                "D": 54.214285714285715,
                "E": 54.642857142857146,
                "F": 79.6923076923077,
                "G": 116,
                "H": 127,
                "I": 120.15384615384616
            },
            "bus4": {
                "K": 93.64285714285714,
                "L": 82.35714285714286,
                "A": 70,
                "B": 61.857142857142854,
                "C": 57.142857142857146,
                "D": 49.57142857142857,
                "E": 49,
                "F": 72.35714285714286,
                "G": 110.07142857142857,
                "H": 121.71428571428571,
                "I": 117.38461538461539,
                "J": 111
            },
            "bus5": {
                "L": 84.42857142857143,
                "A": 72.85714285714286,
                "B": 61.714285714285715,
                "C": 55.857142857142854,
                "D": 52.142857142857146,
                "E": 51.857142857142854,
                "F": 81.42857142857143,
                "G": 117.5,
                "H": 127.07142857142857,
                "I": 122,
                "J": 115,
                "K": 101.38461538461539
            },
            "bus0": {
                "C": 55.142857142857146,
                "D": 53.42857142857143,
                "E": 53,
                "F": 80.57142857142857,
                "G": 118.14285714285714,
                "H": 128.14285714285714,
                "I": 122.5,
                "J": 114,
                "K": 102.42857142857143,
                "L": 89.42857142857143,
                "A": 79.53846153846153,
                "B": 68
            }
        },
        {
            "bus3": {
                "G": 108.13333333333334,
                "H": 121.93333333333334,
                "I": 118.2,
                "J": 110.06666666666666,
                "K": 100.93333333333334,
                "L": 88.4,
                "A": 76.53333333333333,
                "B": 64.92857142857143,
                "C": 54.285714285714285,
                "D": 50.57142857142857,
                "E": 46.785714285714285,
                "F": 71.57142857142857
            },
            "bus4": {
                "I": 97.86666666666666,
                "J": 92.66666666666667,
                "K": 85.8,
                "L": 75.4,
                "A": 66.26666666666667,
                "B": 57.4,
                "C": 52.857142857142854,
                "D": 50.92857142857143,
                "E": 50.142857142857146,
                "F": 72.71428571428571,
                "G": 99.85714285714286,
                "H": 107.85714285714286
            },
            "bus2": {
                "E": 47.266666666666666,
                "F": 74.93333333333334,
                "G": 109.6,
                "H": 115.73333333333333,
                "I": 113.06666666666666,
                "J": 105.33333333333333,
                "K": 93.8,
                "L": 83.64285714285714,
                "A": 71.78571428571429,
                "B": 61.714285714285715,
                "C": 55.714285714285715,
                "D": 53.42857142857143
            },
            "bus5": {
                "K": 88.33333333333333,
                "L": 78.86666666666666,
                "A": 68.86666666666666,
                "B": 59,
                "C": 54.93333333333333,
                "D": 50.733333333333334,
                "E": 49.857142857142854,
                "F": 77.71428571428571,
                "G": 116.35714285714286,
                "H": 121.42857142857143,
                "I": 115,
                "J": 106.42857142857143
            },
            "bus1": {
                "D": 49.2,
                "E": 46.8,
                "F": 66.06666666666666,
                "G": 97.66666666666667,
                "H": 107.26666666666667,
                "I": 105.6,
                "J": 99.57142857142857,
                "K": 91.71428571428571,
                "L": 83.28571428571429,
                "A": 74.5,
                "B": 65.35714285714286,
                "C": 57.57142857142857
            },
            "bus0": {
                "C": 52.4,
                "D": 47.13333333333333,
                "E": 46.733333333333334,
                "F": 70.46666666666667,
                "G": 111.35714285714286,
                "H": 121.71428571428571,
                "I": 118.57142857142857,
                "J": 112.42857142857143,
                "K": 104,
                "L": 89.64285714285714,
                "A": 76.28571428571429,
                "B": 64.64285714285714
            }
        },
        {
            "bus2": {
                "G": 92.8,
                "H": 103,
                "I": 97.78571428571429,
                "J": 92.5,
                "K": 88.28571428571429,
                "L": 78.92857142857143,
                "A": 69.21428571428571,
                "B": 59.57142857142857,
                "C": 53.42857142857143,
                "D": 49.714285714285715,
                "E": 47.285714285714285,
                "F": 70.21428571428571
            },
            "bus3": {
                "I": 108.73333333333333,
                "J": 102.71428571428571,
                "K": 94.42857142857143,
                "L": 85,
                "A": 74.71428571428571,
                "B": 63.642857142857146,
                "C": 55.785714285714285,
                "D": 52,
                "E": 51.285714285714285,
                "F": 77.07142857142857,
                "G": 113.57142857142857,
                "H": 121.42857142857143
            },
            "bus1": {
                "E": 48.333333333333336,
                "F": 69.92857142857143,
                "G": 105.57142857142857,
                "H": 120.71428571428571,
                "I": 119.57142857142857,
                "J": 114.5,
                "K": 103.85714285714286,
                "L": 91.21428571428571,
                "A": 77.85714285714286,
                "B": 65.42857142857143,
                "C": 57.42857142857143,
                "D": 52.5
            },
            "bus4": {
                "J": 109.4,
                "K": 98.06666666666666,
                "L": 83.42857142857143,
                "A": 75,
                "B": 66.5,
                "C": 58.57142857142857,
                "D": 54,
                "E": 51.214285714285715,
                "F": 74.78571428571429,
                "G": 117.21428571428571,
                "H": 127.5,
                "I": 124.28571428571429
            },
            "bus0": {
                "D": 51.92857142857143,
                "E": 50.642857142857146,
                "F": 81.64285714285714,
                "G": 119,
                "H": 128.78571428571428,
                "I": 121.42857142857143,
                "J": 112.42857142857143,
                "K": 101.42857142857143,
                "L": 90,
                "A": 78.28571428571429,
                "B": 66.42857142857143,
                "C": 58.5
            },
            "bus5": {
                "A": 68.66666666666667,
                "B": 60.642857142857146,
                "C": 54.857142857142854,
                "D": 49.142857142857146,
                "E": 49.857142857142854,
                "F": 74.92857142857143,
                "G": 104.42857142857143,
                "H": 113.78571428571429,
                "I": 112.21428571428571,
                "J": 104,
                "K": 95,
                "L": 84.07142857142857
            }
        },
        {
            "bus3": {
                "H": 114.53333333333333,
                "I": 106.5,
                "J": 98.35714285714286,
                "K": 87.57142857142857,
                "L": 77.85714285714286,
                "A": 67.78571428571429,
                "B": 56.357142857142854,
                "C": 51.857142857142854,
                "D": 49.785714285714285,
                "E": 49.42857142857143,
                "F": 76.57142857142857,
                "G": 114.35714285714286
            },
            "bus2": {
                "G": 104.78571428571429,
                "H": 115.57142857142857,
                "I": 111.78571428571429,
                "J": 103.92857142857143,
                "K": 93.5,
                "L": 85.07142857142857,
                "A": 74.64285714285714,
                "B": 64.28571428571429,
                "C": 57.642857142857146,
                "D": 54.214285714285715,
                "E": 51.92857142857143,
                "F": 76.21428571428571
            },
            "bus1": {
                "E": 44.714285714285715,
                "F": 71,
                "G": 108.64285714285714,
                "H": 120.14285714285714,
                "I": 118.85714285714286,
                "J": 112.64285714285714,
                "K": 104.42857142857143,
                "L": 92.57142857142857,
                "A": 78.35714285714286,
                "B": 66.07142857142857,
                "C": 57.357142857142854,
                "D": 50.92857142857143
            },
            "bus4": {
                "J": 102.53333333333333,
                "K": 95.64285714285714,
                "L": 83.07142857142857,
                "A": 72.42857142857143,
                "B": 61.07142857142857,
                "C": 55.92857142857143,
                "D": 51.857142857142854,
                "E": 51,
                "F": 73.57142857142857,
                "G": 108.78571428571429,
                "H": 120.78571428571429,
                "I": 118
            },
            "bus5": {
                "L": 78.4,
                "A": 70.2,
                "B": 61.42857142857143,
                "C": 54.857142857142854,
                "D": 48.07142857142857,
                "E": 47.714285714285715,
                "F": 71.64285714285714,
                "G": 107.71428571428571,
                "H": 115.07142857142857,
                "I": 110.92857142857143,
                "J": 101.92857142857143,
                "K": 91.92857142857143
            },
            "bus0": {
                "B": 62.666666666666664,
                "C": 53.785714285714285,
                "D": 51.07142857142857,
                "E": 52.57142857142857,
                "F": 82.07142857142857,
                "G": 122.35714285714286,
                "H": 129.57142857142858,
                "I": 125,
                "J": 116.42857142857143,
                "K": 103.71428571428571,
                "L": 92,
                "A": 80.21428571428571
            }
        },
        {
            "bus3": {
                "I": 111.71428571428571,
                "J": 103.57142857142857,
                "K": 94.28571428571429,
                "L": 84.35714285714286,
                "A": 74.57142857142857,
                "B": 65.28571428571429,
                "C": 59.42857142857143,
                "D": 56.5,
                "E": 56.142857142857146,
                "F": 83.64285714285714,
                "G": 120.15384615384616,
                "H": 125.84615384615384
            },
            "bus2": {
                "E": 45.857142857142854,
                "F": 74.14285714285714,
                "G": 105.5,
                "H": 114.35714285714286,
                "I": 110.21428571428571,
                "J": 102.78571428571429,
                "K": 93.71428571428571,
                "L": 83.64285714285714,
                "A": 73.5,
                "B": 63.214285714285715,
                "C": 56.92857142857143,
                "D": 54.214285714285715
            },
            "bus4": {
                "K": 93.5,
                "L": 82.64285714285714,
                "A": 72.78571428571429,
                "B": 61.142857142857146,
                "C": 53.5,
                "D": 51.714285714285715,
                "E": 50.57142857142857,
                "F": 77.35714285714286,
                "G": 117.21428571428571,
                "H": 127.28571428571429,
                "I": 120.78571428571429,
                "J": 111.6923076923077
            },
            "bus1": {
                "D": 48.214285714285715,
                "E": 48.142857142857146,
                "F": 74.14285714285714,
                "G": 114.78571428571429,
                "H": 127.5,
                "I": 122,
                "J": 114.42857142857143,
                "K": 102.21428571428571,
                "L": 92.28571428571429,
                "A": 82.57142857142857,
                "B": 68.71428571428571,
                "C": 57.46153846153846
            },
            "bus5": {
                "A": 74.28571428571429,
                "B": 64.5,
                "C": 56.214285714285715,
                "D": 52.857142857142854,
                "E": 53.285714285714285,
                "F": 78.42857142857143,
                "G": 111.21428571428571,
                "H": 120.78571428571429,
                "I": 116.35714285714286,
                "J": 107.92857142857143,
                "K": 98.71428571428571,
                "L": 90.07692307692308
            },
            "bus0": {
                "B": 58.357142857142854,
                "C": 53.142857142857146,
                "D": 51,
                "E": 49.857142857142854,
                "F": 81.42857142857143,
                "G": 112.92857142857143,
                "H": 120.42857142857143,
                "I": 115.78571428571429,
                "J": 106.57142857142857,
                "K": 98.28571428571429,
                "L": 87.92857142857143,
                "A": 75.21428571428571
            }
        }
    ],
    "Obs_and_actions_busses": [
        {
            "6": 229.69519448376556,
            "5": 148.74387742337873,
            "4": 118.76363636545454,
            "0": -124.87506959681508,
            "2": 58.527777778749886,
            "1": 30.749999997115644,
            "3": 89.03437176695172
        },
        {
            "2": 59.19522962542775,
            "6": 209.9480861538047,
            "0": -109.10506155033289,
            "1": 28.958302456089143,
            "5": 148.50471672382477,
            "3": 89.88135593237273,
            "4": 120.05124990281664
        },
        {
            "1": 29.81687858943676,
            "2": 58.54753619273021,
            "5": 148.77913983902465,
            "0": -148.1311710078379,
            "4": 118.54761904523875,
            "6": 280.13040435795165,
            "3": 92.05454545527218
        },
        {
            "0": -152.3096614454546,
            "2": 60.107692306460116,
            "3": 89.25454545290918,
            "6": 230.30197840132016,
            "5": 151.7200588188212,
            "4": 119.37412517320023,
            "1": 29.32593166952812
        },
        {
            "1": 28.395825951226563,
            "6": 250.7238286407373,
            "5": 149.3921568619609,
            "4": 118.9090909090908,
            "0": -151.2963355834512,
            "2": 59.03174603365065,
            "3": 89.75806451483871
        },
        {
            "6": 229.55199831544087,
            "2": 59.59675973642959,
            "0": -164.38681532924437,
            "1": 27.858681251278597,
            "4": 119.94827586172413,
            "5": 147.59183673510233,
            "3": 89.22857142942804
        },
        {
            "6": 224.7579827357793,
            "0": -105.02500519002143,
            "4": 120.82352941117657,
            "1": 27.63683464880892,
            "5": 147.55555555574043,
            "3": 90.2762539850916,
            "2": 60.02499999912524
        },
        {
            "6": 229.40081044632288,
            "4": 119.22971091759771,
            "1": 26.84285714199985,
            "2": 58.720000000599455,
            "0": -141.82244636138856,
            "5": 147.76000000339934,
            "3": 89.4412739186314
        },
        {
            "0": -136.24185479455429,
            "1": 29.272432712984248,
            "6": 220.6211992588684,
            "4": 117.30434782521746,
            "5": 147.9558427721769,
            "3": 90.12121212196959,
            "2": 57.93231112959429
        },
        {
            "6": 223.15327050596255,
            "0": -149.72510530969487,
            "4": 119.0268040707433,
            "2": 60.92537313776088,
            "5": 146.82051281897498,
            "1": 27.082335322135016,
            "3": 88.94883955042255
        }
    ],
    "Obs_and_actions_tfls": [
        {},
        {},
        {},
        {},
        {},
        {},
        {},
        {},
        {},
        {}
    ]
}