{
    "Average_holding_time": 48.656716417910445,
    "Average_holding_actions": [
        558,
        95,
        63,
        44,
        51,
        132
    ],
    "Average_travel_time_passengers": 2255.2882862236966,
    "Average_passenger_waiting_time": 371.0551629156803,
    "Average_passenger_in_vehicle_time": 1884.23312330793,
    "Average_speed_busses": 0.041875,
    "Average_experienced_crowding": 92.47293953203638,
    "Average_covariation_headway": 0.3046538762405562,
    "Average_covariation_headway_stops": {
        "H": 0.24919846315460412,
        "G": 0.2152342840967707,
        "I": 0.28419811034492126,
        "K": 0.20209987680694824,
        "A": 0.22242063102174814,
        "C": 0.14042046020334745,
        "J": 0.2428345356142653,
        "L": 0.17058446389365908,
        "B": 0.1967408808391599,
        "D": 0.18059117728457674,
        "E": 0.20122667594909577,
        "F": 0.21054484508037397
    },
    "Average_excess_waiting_time": {
        "H": 106.23531653348721,
        "G": 103.46961863608664,
        "I": 109.69218242318726,
        "K": 95.1852348876111,
        "A": 98.0255966971875,
        "C": 89.03319501667698,
        "J": 105.0087760171831,
        "L": 94.01179792284898,
        "B": 97.24082263366955,
        "D": 95.72405572099655,
        "E": 101.35410532698586,
        "F": 104.56104540219371
    },
    "Holding_per_stop": {
        "H": 50.357142857142854,
        "I": 43.214285714285715,
        "K": 52.5,
        "A": 41.785714285714285,
        "G": 57.46987951807229,
        "C": 55.714285714285715,
        "J": 46.785714285714285,
        "L": 49.285714285714285,
        "B": 60.357142857142854,
        "D": 45.714285714285715,
        "E": 32.53012048192771,
        "F": 48.0722891566265
    },
    "Actions_tfl_edges": {},
    "Load_per_bus_per_stop": {
        "bus2": {
            "H": 105.57142857142857,
            "I": 103.42857142857143,
            "J": 95.35714285714286,
            "K": 88.64285714285714,
            "L": 79.64285714285714,
            "A": 68.71428571428571,
            "B": 57.285714285714285,
            "C": 55,
            "D": 49.42857142857143,
            "E": 49.285714285714285,
            "F": 75,
            "G": 104.76923076923077
        },
        "bus1": {
            "G": 109.14285714285714,
            "H": 119.85714285714286,
            "I": 117.78571428571429,
            "J": 111.28571428571429,
            "K": 101.64285714285714,
            "L": 89.64285714285714,
            "A": 78.14285714285714,
            "B": 67.07142857142857,
            "C": 59.285714285714285,
            "D": 56.357142857142854,
            "E": 53.53846153846154,
            "F": 81.61538461538461
        },
        "bus3": {
            "I": 122.8,
            "J": 112.42857142857143,
            "K": 101.71428571428571,
            "L": 89.78571428571429,
            "A": 76.78571428571429,
            "B": 64.42857142857143,
            "C": 55.714285714285715,
            "D": 52.5,
            "E": 52.714285714285715,
            "F": 86,
            "G": 129.35714285714286,
            "H": 137.78571428571428
        },
        "bus4": {
            "K": 94.14285714285714,
            "L": 83.21428571428571,
            "A": 73.28571428571429,
            "B": 62.285714285714285,
            "C": 57.5,
            "D": 53.42857142857143,
            "E": 48.92857142857143,
            "F": 71.14285714285714,
            "G": 105.28571428571429,
            "H": 118,
            "I": 116.28571428571429,
            "J": 109.71428571428571
        },
        "bus5": {
            "A": 67,
            "B": 58,
            "C": 55.5,
            "D": 52.57142857142857,
            "E": 49,
            "F": 73.92857142857143,
            "G": 108.92857142857143,
            "H": 115.71428571428571,
            "I": 110.92857142857143,
            "J": 103,
            "K": 93.21428571428571,
            "L": 82.71428571428571
        },
        "bus0": {
            "C": 53.42857142857143,
            "D": 52.5,
            "E": 51.214285714285715,
            "F": 85.78571428571429,
            "G": 129.57142857142858,
            "H": 137.14285714285714,
            "I": 130,
            "J": 118.92857142857143,
            "K": 107.35714285714286,
            "L": 93.71428571428571,
            "A": 79,
            "B": 65.71428571428571
        }
    },
    "Obs_and_actions_busses": {
        "1": 28.395825951226563,
        "6": 250.7238286407373,
        "5": 149.3921568619609,
        "4": 118.9090909090908,
        "0": -151.2963355834512,
        "2": 59.03174603365065,
        "3": 89.75806451483871
    },
    "Obs_and_actions_tfls": {}
}