{
    "Average_holding_time": 54.339051463168516,
    "Average_holding_actions": [
        568,
        49,
        57,
        58,
        49,
        175
    ],
    "Average_travel_time_passengers": 2290.5016611026394,
    "Average_passenger_waiting_time": 374.1848859121038,
    "Average_passenger_in_vehicle_time": 1916.3167751904464,
    "Average_speed_busses": 0.041291666666666664,
    "Average_experienced_crowding": 92.32561479818736,
    "Average_covariation_headway": 0.31195228489156457,
    "Average_covariation_headway_stops": {
        "H": 0.2189371837693871,
        "E": 0.19045120105571398,
        "J": 0.20216512252241003,
        "K": 0.18788448754960613,
        "L": 0.21713154454776437,
        "C": 0.1596755931000449,
        "I": 0.2115397869481882,
        "F": 0.1919232894703373,
        "A": 0.2092894168301699,
        "G": 0.18320381945371933,
        "D": 0.1959716012137,
        "B": 0.1936931516751206
    },
    "Average_excess_waiting_time": {
        "H": 107.20612757001237,
        "E": 102.331061023328,
        "J": 104.13293414626207,
        "K": 99.44769351458785,
        "L": 102.06342364767494,
        "C": 97.24364370122953,
        "I": 108.08378605291279,
        "F": 103.65714537936299,
        "A": 102.18014860288838,
        "G": 104.07571564593411,
        "D": 105.50943881166205,
        "B": 103.47105303643013
    },
    "Holding_per_stop": {
        "K": 56.74698795180723,
        "L": 48.214285714285715,
        "E": 44.45783132530121,
        "H": 52.68292682926829,
        "J": 53.493975903614455,
        "C": 62.89156626506024,
        "F": 52.68292682926829,
        "A": 51.68674698795181,
        "I": 56.34146341463415,
        "D": 55.24390243902439,
        "G": 57.4390243902439,
        "B": 60.36585365853659
    },
    "Actions_tfl_edges": {},
    "Load_per_bus_per_stop": {
        "bus2": {
            "H": 115.35714285714286,
            "I": 111.42857142857143,
            "J": 103.78571428571429,
            "K": 93.71428571428571,
            "L": 81.42857142857143,
            "A": 70.71428571428571,
            "B": 60.285714285714285,
            "C": 55.07142857142857,
            "D": 50.92307692307692,
            "E": 47.84615384615385,
            "F": 75.07692307692308,
            "G": 116.76923076923077
        },
        "bus1": {
            "E": 49.714285714285715,
            "F": 72.28571428571429,
            "G": 106.71428571428571,
            "H": 117.35714285714286,
            "I": 115.78571428571429,
            "J": 106.14285714285714,
            "K": 96.78571428571429,
            "L": 83.85714285714286,
            "A": 74.85714285714286,
            "B": 63.53846153846154,
            "C": 59.61538461538461,
            "D": 54.53846153846154
        },
        "bus3": {
            "J": 102.85714285714286,
            "K": 94.21428571428571,
            "L": 83.07142857142857,
            "A": 73.85714285714286,
            "B": 64.57142857142857,
            "C": 60.357142857142854,
            "D": 54.214285714285715,
            "E": 54.642857142857146,
            "F": 79.6923076923077,
            "G": 116,
            "H": 127,
            "I": 120.15384615384616
        },
        "bus4": {
            "K": 93.64285714285714,
            "L": 82.35714285714286,
            "A": 70,
            "B": 61.857142857142854,
            "C": 57.142857142857146,
            "D": 49.57142857142857,
            "E": 49,
            "F": 72.35714285714286,
            "G": 110.07142857142857,
            "H": 121.71428571428571,
            "I": 117.38461538461539,
            "J": 111
        },
        "bus5": {
            "L": 84.42857142857143,
            "A": 72.85714285714286,
            "B": 61.714285714285715,
            "C": 55.857142857142854,
            "D": 52.142857142857146,
            "E": 51.857142857142854,
            "F": 81.42857142857143,
            "G": 117.5,
            "H": 127.07142857142857,
            "I": 122,
            "J": 115,
            "K": 101.38461538461539
        },
        "bus0": {
            "C": 55.142857142857146,
            "D": 53.42857142857143,
            "E": 53,
            "F": 80.57142857142857,
            "G": 118.14285714285714,
            "H": 128.14285714285714,
            "I": 122.5,
            "J": 114,
            "K": 102.42857142857143,
            "L": 89.42857142857143,
            "A": 79.53846153846153,
            "B": 68
        }
    },
    "Obs_and_actions_busses": {
        "6": 229.55199831544087,
        "2": 59.59675973642959,
        "0": -164.38681532924437,
        "1": 27.858681251278597,
        "4": 119.94827586172413,
        "5": 147.59183673510233,
        "3": 89.22857142942804
    },
    "Obs_and_actions_tfls": {}
}