{
    "Average_holding_time": 69.81991525423729,
    "Average_holding_actions": [
        0,
        204,
        418,
        93,
        49,
        0
    ],
    "Average_travel_time_passengers": 2415.144821030676,
    "Average_passenger_waiting_time": 386.8807291877232,
    "Average_passenger_in_vehicle_time": 2028.264091842857,
    "Average_speed_busses": 0.03933333333333333,
    "Average_experienced_crowding": 97.8581732358302,
    "Average_covariation_headway": 0.27249600901617455,
    "Average_covariation_headway_stops": {
        "G": 0.2095791877033133,
        "I": 0.24643540565373426,
        "J": 0.2364567933424601,
        "L": 0.2035645361253521,
        "B": 0.17461822569270308,
        "C": 0.1660591727224284,
        "H": 0.22797415077724212,
        "K": 0.2059580661606512,
        "A": 0.1719666141429246,
        "D": 0.1424023670402512,
        "E": 0.1388552041109391,
        "F": 0.1519611079243847
    },
    "Average_excess_waiting_time": {
        "G": 124.38110386277106,
        "I": 129.5941142646576,
        "J": 124.64914129562686,
        "L": 119.38583264732529,
        "B": 116.7960381406757,
        "C": 113.68741075307298,
        "H": 129.33566792745518,
        "K": 122.29443178751046,
        "A": 117.61365803875697,
        "D": 113.73289550066931,
        "E": 115.93326984511884,
        "F": 119.44796802944859
    },
    "Holding_per_stop": {
        "I": 66.07594936708861,
        "J": 69.49367088607595,
        "G": 63.07692307692308,
        "L": 65.31645569620254,
        "C": 71.77215189873418,
        "B": 82.0253164556962,
        "H": 63.07692307692308,
        "K": 69.49367088607595,
        "A": 112.78481012658227,
        "D": 62.65822784810127,
        "E": 53.07692307692308,
        "F": 58.46153846153846
    },
    "Actions_tfl_edges": {},
    "Load_per_bus_per_stop": {
        "bus2": {
            "G": 115.28571428571429,
            "H": 124.23076923076923,
            "I": 120.46153846153847,
            "J": 112.15384615384616,
            "K": 103.76923076923077,
            "L": 94.3076923076923,
            "A": 79.6923076923077,
            "B": 68.38461538461539,
            "C": 62.07692307692308,
            "D": 56.38461538461539,
            "E": 55.69230769230769,
            "F": 84.46153846153847
        },
        "bus3": {
            "I": 115.21428571428571,
            "J": 108.07692307692308,
            "K": 96.92307692307692,
            "L": 84.76923076923077,
            "A": 74.53846153846153,
            "B": 63.69230769230769,
            "C": 57.69230769230769,
            "D": 54.92307692307692,
            "E": 53.76923076923077,
            "F": 83.15384615384616,
            "G": 120.15384615384616,
            "H": 127.07692307692308
        },
        "bus4": {
            "J": 107.42857142857143,
            "K": 99.28571428571429,
            "L": 89.84615384615384,
            "A": 76.23076923076923,
            "B": 67.53846153846153,
            "C": 61.84615384615385,
            "D": 56,
            "E": 52.69230769230769,
            "F": 77.61538461538461,
            "G": 119.61538461538461,
            "H": 129.15384615384616,
            "I": 125.6923076923077
        },
        "bus5": {
            "L": 80,
            "A": 69.28571428571429,
            "B": 59.92307692307692,
            "C": 54.69230769230769,
            "D": 53.46153846153846,
            "E": 52.23076923076923,
            "F": 75.15384615384616,
            "G": 113.76923076923077,
            "H": 120.46153846153847,
            "I": 118.46153846153847,
            "J": 110.6923076923077,
            "K": 99.61538461538461
        },
        "bus0": {
            "B": 55.57142857142857,
            "C": 51.92857142857143,
            "D": 49.15384615384615,
            "E": 49.38461538461539,
            "F": 79.61538461538461,
            "G": 114.23076923076923,
            "H": 121.76923076923077,
            "I": 114.38461538461539,
            "J": 105.23076923076923,
            "K": 94.23076923076923,
            "L": 83.3076923076923,
            "A": 70.46153846153847
        },
        "bus1": {
            "C": 64.28571428571429,
            "D": 59.285714285714285,
            "E": 59.61538461538461,
            "F": 90.15384615384616,
            "G": 134.92307692307693,
            "H": 142.53846153846155,
            "I": 138.07692307692307,
            "J": 129.76923076923077,
            "K": 117.53846153846153,
            "L": 106.23076923076923,
            "A": 92.6923076923077,
            "B": 80.3076923076923
        }
    },
    "Obs_and_actions_busses": {
        "5": 262.5738607395073,
        "4": 161.35176352495083,
        "2": -6.023390763492909,
        "3": 33.33134096836151,
        "1": -188.5366731308567
    },
    "Obs_and_actions_tfls": {}
}