{
    "Average_holding_time": 71.20985010706639,
    "Average_holding_actions": [
        0,
        206,
        384,
        105,
        53,
        0
    ],
    "Average_travel_time_passengers": 2481.2289872546608,
    "Average_passenger_waiting_time": 423.8701228885319,
    "Average_passenger_in_vehicle_time": 2057.3588643659796,
    "Average_speed_busses": 0.03891666666666667,
    "Average_experienced_crowding": 107.29745947366348,
    "Average_covariation_headway": 0.3709088989123817,
    "Average_covariation_headway_stops": {
        "H": 0.3646913170475676,
        "G": 0.32651680812091016,
        "I": 0.3731496186335884,
        "J": 0.3703050567477055,
        "D": 0.32767560879978497,
        "C": 0.333913249782215,
        "K": 0.34689556644027186,
        "E": 0.3053181108601982,
        "L": 0.3312970196159598,
        "F": 0.29986679044968123,
        "A": 0.3228721150723493,
        "B": 0.3321177096444954
    },
    "Average_excess_waiting_time": {
        "H": 159.78177982777447,
        "G": 152.49873631819003,
        "I": 158.81121573848873,
        "J": 154.74485292971735,
        "D": 151.10542781923414,
        "C": 154.724912934467,
        "K": 151.3711751640269,
        "E": 148.43674694878172,
        "L": 149.43322646475144,
        "F": 149.7719266399473,
        "A": 150.1959141336381,
        "B": 156.18417156825768
    },
    "Holding_per_stop": {
        "H": 66.53846153846153,
        "I": 67.9746835443038,
        "J": 67.9746835443038,
        "G": 63.506493506493506,
        "D": 62.30769230769231,
        "C": 75.97402597402598,
        "K": 69.49367088607595,
        "E": 55.714285714285715,
        "L": 65,
        "F": 58.83116883116883,
        "A": 113.84615384615384,
        "B": 87.27272727272727
    },
    "Actions_tfl_edges": {},
    "Load_per_bus_per_stop": {
        "bus3": {
            "H": 98,
            "I": 94.3076923076923,
            "J": 88.53846153846153,
            "K": 80.61538461538461,
            "L": 69.76923076923077,
            "A": 59.30769230769231,
            "B": 48.15384615384615,
            "C": 44.30769230769231,
            "D": 42.38461538461539,
            "E": 43.23076923076923,
            "F": 67,
            "G": 100.15384615384616
        },
        "bus2": {
            "G": 120.3076923076923,
            "H": 131.6153846153846,
            "I": 128.3846153846154,
            "J": 119.07692307692308,
            "K": 107.38461538461539,
            "L": 95.15384615384616,
            "A": 83.15384615384616,
            "B": 70,
            "C": 60.84615384615385,
            "D": 57.69230769230769,
            "E": 56.84615384615385,
            "F": 87.5
        },
        "bus4": {
            "I": 91.57142857142857,
            "J": 83.46153846153847,
            "K": 75.61538461538461,
            "L": 69.46153846153847,
            "A": 61.38461538461539,
            "B": 53.07692307692308,
            "C": 47.46153846153846,
            "D": 46.23076923076923,
            "E": 43.53846153846154,
            "F": 64,
            "G": 97.76923076923077,
            "H": 102.61538461538461
        },
        "bus5": {
            "J": 121.78571428571429,
            "K": 109.64285714285714,
            "L": 99.84615384615384,
            "A": 87.3076923076923,
            "B": 77.3076923076923,
            "C": 69.84615384615384,
            "D": 65.15384615384616,
            "E": 64.38461538461539,
            "F": 98.46153846153847,
            "G": 141.53846153846155,
            "H": 149.92307692307693,
            "I": 141.46153846153845
        },
        "bus1": {
            "D": 63.76923076923077,
            "E": 62.84615384615385,
            "F": 93.38461538461539,
            "G": 139.76923076923077,
            "H": 150.92307692307693,
            "I": 143.15384615384616,
            "J": 132.3846153846154,
            "K": 120.92307692307692,
            "L": 105.92307692307692,
            "A": 93.84615384615384,
            "B": 80.84615384615384,
            "C": 72.3076923076923
        },
        "bus0": {
            "C": 66.92307692307692,
            "D": 60.38461538461539,
            "E": 59.38461538461539,
            "F": 88.53846153846153,
            "G": 131.69230769230768,
            "H": 145.6153846153846,
            "I": 139.76923076923077,
            "J": 129.15384615384616,
            "K": 119.07692307692308,
            "L": 104.53846153846153,
            "A": 91,
            "B": 77.08333333333333
        }
    },
    "Obs_and_actions_busses": {
        "2": -27.25691858491093,
        "4": 279.71276723729824,
        "5": 323.23639699600653,
        "3": 84.3701468509856,
        "1": -288.50486655524196
    },
    "Obs_and_actions_tfls": {}
}