{
    "Average_holding_time": 64.8488008342023,
    "Average_holding_actions": [
        0,
        190,
        498,
        44,
        15,
        0
    ],
    "Average_travel_time_passengers": 2367.5466073386365,
    "Average_passenger_waiting_time": 372.0060380544212,
    "Average_passenger_in_vehicle_time": 1995.5405692841077,
    "Average_speed_busses": 0.03995833333333333,
    "Average_experienced_crowding": 94.72651554675782,
    "Average_covariation_headway": 0.2173304959477261,
    "Average_covariation_headway_stops": {
        "H": 0.15389835281845463,
        "G": 0.12818612899543697,
        "F": 0.1007543983090156,
        "I": 0.12177053053454148,
        "D": 0.10616419386051854,
        "A": 0.11929925195268205,
        "B": 0.11012111342092648,
        "J": 0.09182496653802492,
        "E": 0.07068942290195908,
        "C": 0.08641733192540675,
        "K": 0.07920820224161901,
        "L": 0.09425979364960155
    },
    "Average_excess_waiting_time": {
        "H": 103.61585682920878,
        "G": 104.20333331534033,
        "F": 104.58746110662457,
        "I": 102.55334973263928,
        "D": 105.74454908027047,
        "A": 107.3230745072641,
        "B": 105.25011113614244,
        "J": 102.71398987497139,
        "E": 105.4425373093656,
        "C": 106.22043968193123,
        "K": 104.21896500382633,
        "L": 107.50733111593559
    },
    "Holding_per_stop": {
        "H": 61.48148148148148,
        "G": 56.25,
        "I": 61.111111111111114,
        "F": 54.75,
        "B": 86.25,
        "D": 52.125,
        "A": 96,
        "J": 60,
        "E": 48.607594936708864,
        "C": 77.0886075949367,
        "K": 61.5,
        "L": 63.037974683544306
    },
    "Actions_tfl_edges": {},
    "Load_per_bus_per_stop": {
        "bus4": {
            "H": 124.85714285714286,
            "I": 119.71428571428571,
            "J": 111,
            "K": 100.57142857142857,
            "L": 88.92857142857143,
            "A": 77.64285714285714,
            "B": 65.84615384615384,
            "C": 57.30769230769231,
            "D": 54.46153846153846,
            "E": 52.84615384615385,
            "F": 83.15384615384616,
            "G": 122.38461538461539
        },
        "bus3": {
            "G": 111.21428571428571,
            "H": 121.14285714285714,
            "I": 114.85714285714286,
            "J": 106.35714285714286,
            "K": 96.78571428571429,
            "L": 88.38461538461539,
            "A": 77.3076923076923,
            "B": 64.84615384615384,
            "C": 56.46153846153846,
            "D": 55.15384615384615,
            "E": 51.92307692307692,
            "F": 80.46153846153847
        },
        "bus2": {
            "F": 72.71428571428571,
            "G": 110.35714285714286,
            "H": 121.78571428571429,
            "I": 117.07142857142857,
            "J": 112,
            "K": 102.15384615384616,
            "L": 90.3076923076923,
            "A": 78.15384615384616,
            "B": 66.23076923076923,
            "C": 60.23076923076923,
            "D": 53.69230769230769,
            "E": 50.30769230769231
        },
        "bus1": {
            "D": 49.357142857142854,
            "E": 50,
            "F": 78.85714285714286,
            "G": 119.5,
            "H": 128.30769230769232,
            "I": 123.53846153846153,
            "J": 114.92307692307692,
            "K": 103.6923076923077,
            "L": 94.15384615384616,
            "A": 80.23076923076923,
            "B": 66.15384615384616,
            "C": 57.53846153846154
        },
        "bus5": {
            "A": 75.85714285714286,
            "B": 66.07142857142857,
            "C": 60.42857142857143,
            "D": 57,
            "E": 53.69230769230769,
            "F": 83,
            "G": 119.92307692307692,
            "H": 129.23076923076923,
            "I": 124.3076923076923,
            "J": 116.92307692307692,
            "K": 107.23076923076923,
            "L": 94.23076923076923
        },
        "bus0": {
            "B": 62.07142857142857,
            "C": 55.642857142857146,
            "D": 50.785714285714285,
            "E": 49.53846153846154,
            "F": 75.46153846153847,
            "G": 115.15384615384616,
            "H": 125.92307692307692,
            "I": 119.76923076923077,
            "J": 111.6923076923077,
            "K": 101.53846153846153,
            "L": 90.3076923076923,
            "A": 79.92307692307692
        }
    },
    "Obs_and_actions_busses": {
        "1": -106.33436280627198,
        "2": 3.485142454849635,
        "3": 26.285591570620184,
        "4": 152.9273717918752,
        "5": 130.1287876249131
    },
    "Obs_and_actions_tfls": {}
}