{
    "Average_holding_time": 65.10373443983403,
    "Average_holding_actions": [
        0,
        236,
        447,
        63,
        28,
        0
    ],
    "Average_travel_time_passengers": 2370.036245428644,
    "Average_passenger_waiting_time": 370.25459040636963,
    "Average_passenger_in_vehicle_time": 1999.781655022174,
    "Average_speed_busses": 0.04016666666666667,
    "Average_experienced_crowding": 92.4435590370957,
    "Average_covariation_headway": 0.22463996123820612,
    "Average_covariation_headway_stops": {
        "H": 0.15135412902465134,
        "G": 0.1394508133574803,
        "E": 0.13063649156931714,
        "K": 0.11608898887383597,
        "I": 0.12607652219820725,
        "D": 0.12701398352201917,
        "C": 0.1309559797210525,
        "F": 0.11014214786613201,
        "L": 0.08482951957044309,
        "J": 0.0968133260853487,
        "A": 0.07237374797964015,
        "B": 0.11039831972668669
    },
    "Average_excess_waiting_time": {
        "H": 103.4295416127386,
        "G": 104.84431222539115,
        "E": 104.76118238035224,
        "K": 101.39227616875877,
        "I": 102.77243906229285,
        "D": 107.07762237659989,
        "C": 109.08508431600433,
        "F": 104.94821964463682,
        "L": 101.31152662828953,
        "J": 102.2954161004883,
        "A": 103.05187275155151,
        "B": 108.86001032221918
    },
    "Holding_per_stop": {
        "H": 58.888888888888886,
        "G": 57.77777777777778,
        "E": 47.407407407407405,
        "K": 61.851851851851855,
        "I": 62.592592592592595,
        "D": 55.875,
        "C": 70.5,
        "L": 63.75,
        "F": 53.625,
        "J": 62.25,
        "A": 102,
        "B": 85.44303797468355
    },
    "Actions_tfl_edges": {},
    "Load_per_bus_per_stop": {
        "bus4": {
            "H": 115.5,
            "I": 112.35714285714286,
            "J": 106.78571428571429,
            "K": 97.57142857142857,
            "L": 86.64285714285714,
            "A": 75.35714285714286,
            "B": 64.76923076923077,
            "C": 58.61538461538461,
            "D": 54.07692307692308,
            "E": 51.76923076923077,
            "F": 74.38461538461539,
            "G": 114.3076923076923
        },
        "bus3": {
            "G": 108.64285714285714,
            "H": 116.64285714285714,
            "I": 113.14285714285714,
            "J": 105.64285714285714,
            "K": 96.85714285714286,
            "L": 85.14285714285714,
            "A": 74,
            "B": 62.92307692307692,
            "C": 56.23076923076923,
            "D": 53.46153846153846,
            "E": 52,
            "F": 76.53846153846153
        },
        "bus2": {
            "E": 47.857142857142854,
            "F": 71.85714285714286,
            "G": 108.21428571428571,
            "H": 120.07142857142857,
            "I": 115.14285714285714,
            "J": 106.76923076923077,
            "K": 96.92307692307692,
            "L": 85.53846153846153,
            "A": 74.76923076923077,
            "B": 64,
            "C": 58.38461538461539,
            "D": 54
        },
        "bus5": {
            "K": 100.07142857142857,
            "L": 88.71428571428571,
            "A": 76.5,
            "B": 64.21428571428571,
            "C": 59.57142857142857,
            "D": 54.76923076923077,
            "E": 55.92307692307692,
            "F": 84.92307692307692,
            "G": 125.53846153846153,
            "H": 133.3846153846154,
            "I": 129.53846153846155,
            "J": 119.61538461538461
        },
        "bus1": {
            "D": 53.92857142857143,
            "E": 50.642857142857146,
            "F": 74.14285714285714,
            "G": 109,
            "H": 119.84615384615384,
            "I": 116.23076923076923,
            "J": 110.84615384615384,
            "K": 100.92307692307692,
            "L": 92.46153846153847,
            "A": 81.46153846153847,
            "B": 69.84615384615384,
            "C": 61.69230769230769
        },
        "bus0": {
            "C": 55.214285714285715,
            "D": 52.285714285714285,
            "E": 52.5,
            "F": 78.46153846153847,
            "G": 117.07692307692308,
            "H": 125.38461538461539,
            "I": 118.38461538461539,
            "J": 110.84615384615384,
            "K": 99.76923076923077,
            "L": 91.3076923076923,
            "A": 78.92307692307692,
            "B": 68.23076923076923
        }
    },
    "Obs_and_actions_busses": {
        "1": -103.1276406825309,
        "2": 2.561814588895291,
        "4": 154.67920244223373,
        "3": 21.353846333926853,
        "5": 125.86130670837561
    },
    "Obs_and_actions_tfls": {}
}