{
    "Average_holding_time": 72.72435897435898,
    "Average_holding_actions": [
        0,
        181,
        385,
        128,
        40,
        0
    ],
    "Average_travel_time_passengers": 2442.156807497394,
    "Average_passenger_waiting_time": 400.3891924472012,
    "Average_passenger_in_vehicle_time": 2041.7676150500718,
    "Average_speed_busses": 0.039,
    "Average_experienced_crowding": 100.78029472249268,
    "Average_covariation_headway": 0.3064167478343651,
    "Average_covariation_headway_stops": {
        "G": 0.2528863378627056,
        "F": 0.2261587584152776,
        "J": 0.257198440774477,
        "K": 0.24575514478149746,
        "L": 0.24460760259409703,
        "H": 0.26334983585284066,
        "D": 0.2391094950812547,
        "I": 0.2550000699247599,
        "A": 0.2158371502255181,
        "E": 0.22535239612625704,
        "B": 0.20538421624250716,
        "C": 0.22686615920117018
    },
    "Average_excess_waiting_time": {
        "G": 132.51333282430005,
        "F": 131.09956791237119,
        "J": 134.86091660492906,
        "K": 129.97877994117198,
        "L": 127.34859406569512,
        "H": 136.51129908409126,
        "D": 133.25621906207766,
        "I": 136.8247265521016,
        "A": 125.13960796877763,
        "E": 133.74840568424423,
        "B": 126.94156502236342,
        "C": 133.7633764448973
    },
    "Holding_per_stop": {
        "G": 63.07692307692308,
        "L": 72.15189873417721,
        "K": 71.77215189873418,
        "H": 69.23076923076923,
        "J": 73.84615384615384,
        "F": 60,
        "D": 63.84615384615385,
        "I": 70.76923076923077,
        "A": 115.38461538461539,
        "E": 56.493506493506494,
        "B": 83.84615384615384,
        "C": 72.07792207792208
    },
    "Actions_tfl_edges": {},
    "Load_per_bus_per_stop": {
        "bus2": {
            "G": 110.15384615384616,
            "H": 121.38461538461539,
            "I": 118.6923076923077,
            "J": 112.38461538461539,
            "K": 101.23076923076923,
            "L": 87.61538461538461,
            "A": 76.3076923076923,
            "B": 67,
            "C": 61.15384615384615,
            "D": 55.23076923076923,
            "E": 53.46153846153846,
            "F": 78.23076923076923
        },
        "bus1": {
            "F": 76.38461538461539,
            "G": 116.76923076923077,
            "H": 126.61538461538461,
            "I": 124.23076923076923,
            "J": 116.6923076923077,
            "K": 106.84615384615384,
            "L": 93.61538461538461,
            "A": 80.23076923076923,
            "B": 69.23076923076923,
            "C": 62.30769230769231,
            "D": 57.92307692307692,
            "E": 56
        },
        "bus3": {
            "J": 92.53846153846153,
            "K": 84,
            "L": 75.84615384615384,
            "A": 66,
            "B": 56.46153846153846,
            "C": 50.23076923076923,
            "D": 49.07692307692308,
            "E": 48.30769230769231,
            "F": 72.84615384615384,
            "G": 106.53846153846153,
            "H": 114.46153846153847,
            "I": 107.92307692307692
        },
        "bus4": {
            "K": 88.14285714285714,
            "L": 76.61538461538461,
            "A": 64.92307692307692,
            "B": 51.76923076923077,
            "C": 47.38461538461539,
            "D": 47.53846153846154,
            "E": 48.07692307692308,
            "F": 75.84615384615384,
            "G": 108.46153846153847,
            "H": 115.07692307692308,
            "I": 111.84615384615384,
            "J": 103.53846153846153
        },
        "bus5": {
            "L": 102.92857142857143,
            "A": 90.5,
            "B": 79.07692307692308,
            "C": 70.92307692307692,
            "D": 64,
            "E": 63.92307692307692,
            "F": 96.07692307692308,
            "G": 142.76923076923077,
            "H": 154,
            "I": 150.53846153846155,
            "J": 140.69230769230768,
            "K": 127.38461538461539
        },
        "bus0": {
            "D": 54.92307692307692,
            "E": 54,
            "F": 84.53846153846153,
            "G": 126.15384615384616,
            "H": 138,
            "I": 132.92307692307693,
            "J": 124.76923076923077,
            "K": 112.46153846153847,
            "L": 97.53846153846153,
            "A": 85.3076923076923,
            "B": 74.07692307692308,
            "C": 67.58333333333333
        }
    },
    "Obs_and_actions_busses": {
        "1": -232.79338362025024,
        "2": -18.37036415913676,
        "4": 196.4845370541266,
        "5": 128.34950938277296,
        "3": 65.53154258277826
    },
    "Obs_and_actions_tfls": {}
}actions_tfls": {}
}