{
    "Average_holding_time": 77.77335984095427,
    "Average_holding_actions": [
        0,
        153,
        146,
        31,
        108,
        0
    ],
    "Average_travel_time_passengers": 6960.777726860641,
    "Average_passenger_waiting_time": 2853.1260994747427,
    "Average_passenger_in_vehicle_time": 4107.651627385479,
    "Average_speed_busses": 0.020958333333333332,
    "Average_experienced_crowding": 701.5346228020015,
    "Average_covariation_headway": 2.1900080590903985,
    "Average_covariation_headway_stops": {
        "H": 1.9823227343520504,
        "G": 1.7171384029071322,
        "J": 2.014967930368891,
        "K": 2.0952631429980753,
        "L": 2.1202510496912925,
        "I": 2.091802402390221,
        "A": 2.087559647899782,
        "B": 2.0822452749639893,
        "C": 2.0554323606398266,
        "D": 2.0387689354217997,
        "E": 2.030281910960619,
        "F": 1.8226376769650157
    },
    "Average_excess_waiting_time": {
        "H": 2971.202630465415,
        "G": 2351.7111483619924,
        "J": 3418.203886791717,
        "K": 2963.4578966059375,
        "L": 2994.4115878703938,
        "I": 3304.459082468365,
        "A": 2896.5750312430787,
        "B": 2931.6838916856223,
        "C": 2920.7183596913255,
        "D": 2929.747825019186,
        "E": 2956.6165297705547,
        "F": 2554.884435569428
    },
    "Holding_per_stop": {
        "H": 74.31818181818181,
        "G": 68.37209302325581,
        "L": 76.09756097560975,
        "K": 73.5,
        "J": 73.84615384615384,
        "A": 102.85714285714286,
        "I": 72.95454545454545,
        "B": 89.28571428571429,
        "C": 87.85714285714286,
        "D": 76.42857142857143,
        "E": 70,
        "F": 67.85714285714286
    },
    "Actions_tfl_edges": {},
    "Load_per_bus_per_stop": {
        "bus1": {
            "H": 22.25,
            "I": 21.25,
            "J": 21,
            "K": 18.857142857142858,
            "L": 15.714285714285714,
            "A": 15.285714285714286,
            "B": 14,
            "C": 11.714285714285714,
            "D": 10.714285714285714,
            "E": 11.142857142857142,
            "F": 18.428571428571427,
            "G": 24
        },
        "bus0": {
            "G": 84.625,
            "H": 92.875,
            "I": 89.5,
            "J": 93.42857142857143,
            "K": 83.57142857142857,
            "L": 73.14285714285714,
            "A": 64.71428571428571,
            "B": 57.57142857142857,
            "C": 51.42857142857143,
            "D": 47.857142857142854,
            "E": 49.285714285714285,
            "F": 73
        },
        "bus2": {
            "J": 15.857142857142858,
            "K": 15,
            "L": 14.142857142857142,
            "A": 12,
            "B": 9.142857142857142,
            "C": 8.857142857142858,
            "D": 8.857142857142858,
            "E": 9,
            "F": 14.285714285714286,
            "G": 19,
            "H": 18.428571428571427,
            "I": 17.571428571428573
        },
        "bus3": {
            "K": 20.428571428571427,
            "L": 18.714285714285715,
            "A": 16,
            "B": 14,
            "C": 12,
            "D": 8.857142857142858,
            "E": 7.714285714285714,
            "F": 16.857142857142858,
            "G": 37.57142857142857,
            "H": 38,
            "I": 32.42857142857143,
            "J": 27.166666666666668
        },
        "bus4": {
            "L": 77.28571428571429,
            "A": 62.285714285714285,
            "B": 48.714285714285715,
            "C": 40.857142857142854,
            "D": 33,
            "E": 31.285714285714285,
            "F": 72.71428571428571,
            "G": 152.14285714285714,
            "H": 156.14285714285714,
            "I": 144.42857142857142,
            "J": 118,
            "K": 102.16666666666667
        },
        "bus5": {
            "A": 550.7142857142857,
            "B": 483.2857142857143,
            "C": 440.85714285714283,
            "D": 427.2857142857143,
            "E": 429,
            "F": 633.7142857142857,
            "G": 948,
            "H": 1051.5714285714287,
            "I": 1029.2857142857142,
            "J": 965.2857142857143,
            "K": 794,
            "L": 719.1666666666666
        }
    },
    "Obs_and_actions_busses": {
        "1": -2355.4172174921227,
        "2": -1036.4892792245791,
        "4": 2071.258064529029,
        "5": 4374.5679284448315,
        "3": 41.81538461630777
    },
    "Obs_and_actions_tfls": {}
}