{
    "Average_holding_time": 73.1027027027027,
    "Average_holding_actions": [
        0,
        226,
        332,
        139,
        62,
        0
    ],
    "Average_travel_time_passengers": 2530.113354404034,
    "Average_passenger_waiting_time": 449.31815847894984,
    "Average_passenger_in_vehicle_time": 2080.795195924906,
    "Average_speed_busses": 0.03854166666666667,
    "Average_experienced_crowding": 113.53633025336651,
    "Average_covariation_headway": 0.45411371376606,
    "Average_covariation_headway_stops": {
        "G": 0.4173569152825955,
        "I": 0.4698711528975055,
        "E": 0.4133518699328663,
        "F": 0.40388745717660796,
        "K": 0.4461773156950185,
        "H": 0.4537528517497101,
        "D": 0.41926026300222974,
        "J": 0.44827406203136877,
        "L": 0.4230929030639755,
        "A": 0.4110891945358948,
        "B": 0.4074475508499001,
        "C": 0.41253116994157607
    },
    "Average_excess_waiting_time": {
        "G": 176.86008595581717,
        "I": 193.7303859905029,
        "E": 182.01931582647762,
        "F": 176.3137770345145,
        "K": 184.78246858946858,
        "H": 190.84184125788124,
        "D": 187.28650187955753,
        "J": 189.00647124309307,
        "L": 179.85666026699397,
        "A": 179.1381898304628,
        "B": 182.18040064934218,
        "C": 187.5406423561455
    },
    "Holding_per_stop": {
        "G": 63.46153846153846,
        "I": 73.46153846153847,
        "K": 70,
        "F": 65.45454545454545,
        "E": 58.44155844155844,
        "H": 67.79220779220779,
        "D": 60.78947368421053,
        "J": 72.85714285714286,
        "L": 72.6923076923077,
        "A": 113.37662337662337,
        "B": 85.26315789473684,
        "C": 73.8157894736842
    },
    "Actions_tfl_edges": {},
    "Load_per_bus_per_stop": {
        "bus3": {
            "G": 83,
            "H": 89.6923076923077,
            "I": 86.61538461538461,
            "J": 81,
            "K": 74.46153846153847,
            "L": 63.23076923076923,
            "A": 53.84615384615385,
            "B": 46.92307692307692,
            "C": 42.61538461538461,
            "D": 38.61538461538461,
            "E": 37.84615384615385,
            "F": 58.666666666666664
        },
        "bus4": {
            "I": 85.23076923076923,
            "J": 79.15384615384616,
            "K": 71.23076923076923,
            "L": 63.76923076923077,
            "A": 54.76923076923077,
            "B": 46.92307692307692,
            "C": 44.76923076923077,
            "D": 40.30769230769231,
            "E": 39.61538461538461,
            "F": 59.69230769230769,
            "G": 90.6923076923077,
            "H": 97.92307692307692
        },
        "bus1": {
            "E": 56.46153846153846,
            "F": 89,
            "G": 129.84615384615384,
            "H": 139.84615384615384,
            "I": 134.6153846153846,
            "J": 125.38461538461539,
            "K": 111.92307692307692,
            "L": 97,
            "A": 85.38461538461539,
            "B": 73,
            "C": 66.66666666666667,
            "D": 60.583333333333336
        },
        "bus2": {
            "F": 80.46153846153847,
            "G": 116.92307692307692,
            "H": 127.07692307692308,
            "I": 124.46153846153847,
            "J": 118.23076923076923,
            "K": 106.07692307692308,
            "L": 94.84615384615384,
            "A": 82.07692307692308,
            "B": 70.23076923076923,
            "C": 62.92307692307692,
            "D": 57.583333333333336,
            "E": 57.416666666666664
        },
        "bus5": {
            "K": 132.69230769230768,
            "L": 115.38461538461539,
            "A": 97.84615384615384,
            "B": 85.15384615384616,
            "C": 77.76923076923077,
            "D": 74.38461538461539,
            "E": 73.61538461538461,
            "F": 110.46153846153847,
            "G": 164.46153846153845,
            "H": 173.6153846153846,
            "I": 167.3846153846154,
            "J": 154.92307692307693
        },
        "bus0": {
            "D": 65.46153846153847,
            "E": 64.76923076923077,
            "F": 99.15384615384616,
            "G": 145.6153846153846,
            "H": 156.23076923076923,
            "I": 147.53846153846155,
            "J": 135.46153846153845,
            "K": 123.15384615384616,
            "L": 108.46153846153847,
            "A": 96,
            "B": 82,
            "C": 74.91666666666667
        }
    },
    "Obs_and_actions_busses": {
        "1": -347.2459387991657,
        "2": -43.236708597873985,
        "3": 105.96987951765065,
        "4": 289.7410071968348,
        "5": 435.0637751487564
    },
    "Obs_and_actions_tfls": {}
}