{
    "Average_holding_time": 70.82441113490364,
    "Average_holding_actions": [
        0,
        217,
        377,
        118,
        48,
        0
    ],
    "Average_travel_time_passengers": 2498.757526097207,
    "Average_passenger_waiting_time": 426.5598036128092,
    "Average_passenger_in_vehicle_time": 2072.1977224842562,
    "Average_speed_busses": 0.03891666666666667,
    "Average_experienced_crowding": 107.71922337556695,
    "Average_covariation_headway": 0.3750379212941794,
    "Average_covariation_headway_stops": {
        "I": 0.3868586481991402,
        "E": 0.3395293243073561,
        "J": 0.3787793540525092,
        "K": 0.3679172742303041,
        "L": 0.36505124533781236,
        "A": 0.35928682742724977,
        "F": 0.32020115123330867,
        "B": 0.33756726656316954,
        "G": 0.3261288464135783,
        "C": 0.3284826725888236,
        "H": 0.3643320673059945,
        "D": 0.3303847259471309
    },
    "Average_excess_waiting_time": {
        "I": 170.30286602071334,
        "E": 153.62319341871012,
        "J": 164.85607475229375,
        "K": 158.8201073725437,
        "L": 155.02517785933094,
        "A": 150.9463587620932,
        "F": 151.07972791069295,
        "B": 149.22195908424158,
        "G": 155.10031991239498,
        "C": 150.82985154956418,
        "H": 167.43846181830418,
        "D": 154.39074159538484
    },
    "Holding_per_stop": {
        "I": 66.62337662337663,
        "J": 66.92307692307692,
        "K": 70,
        "L": 70.25316455696202,
        "E": 55.38461538461539,
        "A": 110.12658227848101,
        "F": 63.896103896103895,
        "B": 82.40506329113924,
        "G": 62.72727272727273,
        "C": 72.3076923076923,
        "H": 66.23376623376623,
        "D": 61.94805194805195
    },
    "Actions_tfl_edges": {},
    "Load_per_bus_per_stop": {
        "bus1": {
            "I": 121.38461538461539,
            "J": 115.07692307692308,
            "K": 105.53846153846153,
            "L": 91.76923076923077,
            "A": 79.3076923076923,
            "B": 67.76923076923077,
            "C": 64.23076923076923,
            "D": 61.15384615384615,
            "E": 60.07692307692308,
            "F": 88.6923076923077,
            "G": 127.41666666666667,
            "H": 136.08333333333334
        },
        "bus0": {
            "E": 62.38461538461539,
            "F": 93.92307692307692,
            "G": 138.92307692307693,
            "H": 152.23076923076923,
            "I": 146.69230769230768,
            "J": 137.76923076923077,
            "K": 126.53846153846153,
            "L": 114,
            "A": 98.3076923076923,
            "B": 86.23076923076923,
            "C": 76.07692307692308,
            "D": 69.92307692307692
        },
        "bus2": {
            "J": 110.23076923076923,
            "K": 98.46153846153847,
            "L": 87.23076923076923,
            "A": 73.23076923076923,
            "B": 61.53846153846154,
            "C": 57.53846153846154,
            "D": 52.07692307692308,
            "E": 49.53846153846154,
            "F": 77.38461538461539,
            "G": 120.23076923076923,
            "H": 133.3846153846154,
            "I": 129.33333333333334
        },
        "bus3": {
            "K": 81.92857142857143,
            "L": 70.38461538461539,
            "A": 62.07692307692308,
            "B": 52.61538461538461,
            "C": 49.30769230769231,
            "D": 45,
            "E": 45.69230769230769,
            "F": 71.15384615384616,
            "G": 101.38461538461539,
            "H": 108,
            "I": 105.76923076923077,
            "J": 97.84615384615384
        },
        "bus4": {
            "L": 68.07142857142857,
            "A": 60.357142857142854,
            "B": 48.46153846153846,
            "C": 44.53846153846154,
            "D": 43.84615384615385,
            "E": 41.92307692307692,
            "F": 64.61538461538461,
            "G": 96.07692307692308,
            "H": 101.76923076923077,
            "I": 97.38461538461539,
            "J": 91.6923076923077,
            "K": 83.61538461538461
        },
        "bus5": {
            "A": 92.42857142857143,
            "B": 78.5,
            "C": 71.15384615384616,
            "D": 63.61538461538461,
            "E": 63.92307692307692,
            "F": 97.92307692307692,
            "G": 145.53846153846155,
            "H": 159,
            "I": 151.23076923076923,
            "J": 142.07692307692307,
            "K": 130.6153846153846,
            "L": 115.15384615384616
        }
    },
    "Obs_and_actions_busses": {
        "4": 281.75282526489696,
        "5": 348.3469387822445,
        "3": 57.409413750623884,
        "2": -16.2371295479843,
        "1": -280.17100648384564
    },
    "Obs_and_actions_tfls": {}
}