{
    "Average_holding_time": 69.55696202531645,
    "Average_holding_actions": [
        0,
        220,
        398,
        114,
        39,
        0
    ],
    "Average_travel_time_passengers": 2378.0388129895027,
    "Average_passenger_waiting_time": 376.9552896750142,
    "Average_passenger_in_vehicle_time": 2001.083523314377,
    "Average_speed_busses": 0.0395,
    "Average_experienced_crowding": 93.60075326251456,
    "Average_covariation_headway": 0.22933143534025516,
    "Average_covariation_headway_stops": {
        "H": 0.15227405281391784,
        "F": 0.12442937948553709,
        "K": 0.11706736996936239,
        "I": 0.12915189062267057,
        "A": 0.10102466278835849,
        "B": 0.11221706840276219,
        "C": 0.11777355311428386,
        "G": 0.1036742680967034,
        "L": 0.09046550868280288,
        "J": 0.10215711038046014,
        "D": 0.09339519473092243,
        "E": 0.09052199915083292
    },
    "Average_excess_waiting_time": {
        "H": 111.96848695326446,
        "F": 110.53184073546123,
        "K": 110.54521657586702,
        "I": 111.76138203583537,
        "A": 109.69124769436547,
        "B": 108.7218232501649,
        "C": 107.55717750806008,
        "G": 110.76952551309023,
        "L": 110.75022615982482,
        "J": 111.97019257161912,
        "D": 108.2770476234312,
        "E": 110.54350135550925
    },
    "Holding_per_stop": {
        "H": 67.59493670886076,
        "K": 67.21518987341773,
        "I": 65.31645569620254,
        "F": 57.34177215189873,
        "C": 70.5,
        "A": 110.88607594936708,
        "B": 80.12658227848101,
        "L": 73.67088607594937,
        "J": 66.15384615384616,
        "G": 61.51898734177215,
        "D": 60.379746835443036,
        "E": 53.924050632911396
    },
    "Actions_tfl_edges": {},
    "Load_per_bus_per_stop": {
        "bus3": {
            "H": 120.5,
            "I": 115.57142857142857,
            "J": 108.21428571428571,
            "K": 101.38461538461539,
            "L": 89.6923076923077,
            "A": 77.53846153846153,
            "B": 65.38461538461539,
            "C": 59.61538461538461,
            "D": 55.84615384615385,
            "E": 53.30769230769231,
            "F": 81,
            "G": 119.6923076923077
        },
        "bus2": {
            "F": 78.78571428571429,
            "G": 114.78571428571429,
            "H": 122.46153846153847,
            "I": 117.61538461538461,
            "J": 109.3076923076923,
            "K": 100.38461538461539,
            "L": 90.15384615384616,
            "A": 79.92307692307692,
            "B": 69.07692307692308,
            "C": 63.07692307692308,
            "D": 58.84615384615385,
            "E": 55.46153846153846
        },
        "bus4": {
            "K": 99.64285714285714,
            "L": 88.78571428571429,
            "A": 76.84615384615384,
            "B": 64.6923076923077,
            "C": 57.53846153846154,
            "D": 51.38461538461539,
            "E": 49.69230769230769,
            "F": 78.76923076923077,
            "G": 119.46153846153847,
            "H": 129.07692307692307,
            "I": 123.15384615384616,
            "J": 116.6923076923077
        },
        "bus5": {
            "A": 69.07142857142857,
            "B": 58.23076923076923,
            "C": 52.76923076923077,
            "D": 50.69230769230769,
            "E": 51.76923076923077,
            "F": 76.84615384615384,
            "G": 114.53846153846153,
            "H": 121.6923076923077,
            "I": 115.46153846153847,
            "J": 108.53846153846153,
            "K": 98.07692307692308,
            "L": 85.92307692307692
        },
        "bus0": {
            "B": 63.92857142857143,
            "C": 56.92857142857143,
            "D": 51.69230769230769,
            "E": 51.15384615384615,
            "F": 79.07692307692308,
            "G": 114.6923076923077,
            "H": 122,
            "I": 119,
            "J": 112.76923076923077,
            "K": 103.84615384615384,
            "L": 91.15384615384616,
            "A": 79.61538461538461
        },
        "bus1": {
            "C": 56.57142857142857,
            "D": 54.07142857142857,
            "E": 53.5,
            "F": 82.3076923076923,
            "G": 118.23076923076923,
            "H": 126.61538461538461,
            "I": 120.07692307692308,
            "J": 112.46153846153847,
            "K": 101.76923076923077,
            "L": 90.38461538461539,
            "A": 79.3076923076923,
            "B": 65.76923076923077
        }
    },
    "Obs_and_actions_busses": {
        "1": -126.80726749846208,
        "2": -9.4503956698333,
        "4": 125.48281358418468,
        "5": 63.919765053684856,
        "3": 45.49943827043963
    },
    "Obs_and_actions_tfls": {}
}