{
    "Average_holding_time": 65.4858934169279,
    "Average_holding_actions": [
        0,
        239,
        416,
        78,
        17,
        0
    ],
    "Average_travel_time_passengers": 2368.7229305382366,
    "Average_passenger_waiting_time": 376.2301558222148,
    "Average_passenger_in_vehicle_time": 1992.4927747159404,
    "Average_speed_busses": 0.039875,
    "Average_experienced_crowding": 94.44289571435074,
    "Average_covariation_headway": 0.23799709344019462,
    "Average_covariation_headway_stops": {
        "E": 0.13593614805648252,
        "F": 0.14910692501363762,
        "J": 0.15558067825646324,
        "K": 0.15152061705137584,
        "D": 0.12929214659329683,
        "A": 0.11982389716365813,
        "G": 0.14693526656089348,
        "L": 0.12106466324646442,
        "H": 0.15752647303937764,
        "B": 0.08806695333543633,
        "I": 0.14861411405145672,
        "C": 0.1068663718204211
    },
    "Average_excess_waiting_time": {
        "E": 107.91502832845157,
        "F": 106.79988272499082,
        "J": 110.36667092363507,
        "K": 107.34910711678322,
        "D": 109.55410573724492,
        "A": 104.55498591093777,
        "G": 107.94857866528406,
        "L": 106.64893227910301,
        "H": 110.97512020130182,
        "B": 105.19964023392419,
        "I": 111.7898809140662,
        "C": 109.95150895294904
    },
    "Holding_per_stop": {
        "K": 65.25,
        "F": 52.125,
        "E": 52.125,
        "A": 96.375,
        "J": 64.5,
        "D": 56.20253164556962,
        "G": 54.75,
        "L": 66.75,
        "H": 60.75,
        "B": 82.5,
        "I": 61.89873417721519,
        "C": 72.53164556962025
    },
    "Actions_tfl_edges": {},
    "Load_per_bus_per_stop": {
        "bus1": {
            "E": 47.92857142857143,
            "F": 72.07142857142857,
            "G": 109.35714285714286,
            "H": 120.42857142857143,
            "I": 118,
            "J": 111.15384615384616,
            "K": 103.3076923076923,
            "L": 91.6923076923077,
            "A": 79.53846153846153,
            "B": 66.61538461538461,
            "C": 58.69230769230769,
            "D": 53.69230769230769
        },
        "bus2": {
            "F": 72,
            "G": 107.5,
            "H": 114.42857142857143,
            "I": 113.64285714285714,
            "J": 107.57142857142857,
            "K": 100.5,
            "L": 91.38461538461539,
            "A": 80.38461538461539,
            "B": 66.07692307692308,
            "C": 60.15384615384615,
            "D": 55.61538461538461,
            "E": 51.76923076923077
        },
        "bus3": {
            "J": 104.07142857142857,
            "K": 95.92857142857143,
            "L": 82,
            "A": 72.53846153846153,
            "B": 62.23076923076923,
            "C": 56.61538461538461,
            "D": 55.07692307692308,
            "E": 55.23076923076923,
            "F": 83.38461538461539,
            "G": 119.76923076923077,
            "H": 129.07692307692307,
            "I": 120.92307692307692
        },
        "bus4": {
            "K": 95.71428571428571,
            "L": 83.28571428571429,
            "A": 73.35714285714286,
            "B": 64.35714285714286,
            "C": 58.69230769230769,
            "D": 52.92307692307692,
            "E": 51.23076923076923,
            "F": 75.76923076923077,
            "G": 113.84615384615384,
            "H": 126.6923076923077,
            "I": 123.6923076923077,
            "J": 114.84615384615384
        },
        "bus0": {
            "D": 51.92857142857143,
            "E": 53.214285714285715,
            "F": 78.35714285714286,
            "G": 115.76923076923077,
            "H": 122.61538461538461,
            "I": 118.23076923076923,
            "J": 110.61538461538461,
            "K": 100.61538461538461,
            "L": 89.07692307692308,
            "A": 77.23076923076923,
            "B": 66.3076923076923,
            "C": 59.30769230769231
        },
        "bus5": {
            "A": 79.07142857142857,
            "B": 69.92857142857143,
            "C": 62.714285714285715,
            "D": 58.642857142857146,
            "E": 58.61538461538461,
            "F": 84.61538461538461,
            "G": 122.6923076923077,
            "H": 135.84615384615384,
            "I": 131.46153846153845,
            "J": 125.6923076923077,
            "K": 112.6923076923077,
            "L": 99.92307692307692
        }
    },
    "Obs_and_actions_busses": {
        "4": 174.80821633292678,
        "5": 136.5294117629424,
        "3": 47.347912915526365,
        "1": -134.07147325070883,
        "2": 0.32665704970440845
    },
    "Obs_and_actions_tfls": {}
}