{
    "Average_holding_time": 68.93347412882788,
    "Average_holding_actions": [
        0,
        230,
        381,
        110,
        33,
        0
    ],
    "Average_travel_time_passengers": 2423.943414470795,
    "Average_passenger_waiting_time": 381.903269153495,
    "Average_passenger_in_vehicle_time": 2042.0401453172053,
    "Average_speed_busses": 0.03945833333333333,
    "Average_experienced_crowding": 98.32739773813773,
    "Average_covariation_headway": 0.2568475262453881,
    "Average_covariation_headway_stops": {
        "H": 0.21763333117227152,
        "G": 0.17479529891882545,
        "J": 0.17811778439665876,
        "K": 0.17669222960628056,
        "I": 0.19069420239664872,
        "D": 0.16496012589982986,
        "C": 0.16980844889297084,
        "L": 0.15281807109659515,
        "E": 0.13465835606865573,
        "A": 0.1408957088789546,
        "F": 0.1266262544180846,
        "B": 0.15803440379188474
    },
    "Average_excess_waiting_time": {
        "H": 122.03891601697535,
        "G": 118.26650279757501,
        "J": 115.42755953189737,
        "K": 112.47203624154366,
        "I": 120.2000913918352,
        "D": 115.38107378706832,
        "C": 117.85920371337988,
        "L": 111.83062738591639,
        "E": 114.09288899156161,
        "A": 113.44475286127067,
        "F": 116.08936719920803,
        "B": 118.06272096190378
    },
    "Holding_per_stop": {
        "H": 66.07594936708861,
        "G": 59.24050632911393,
        "K": 70.5,
        "J": 66.07594936708861,
        "D": 63.41772151898734,
        "I": 66.45569620253164,
        "C": 71.77215189873418,
        "L": 68.73417721518987,
        "E": 52.40506329113924,
        "A": 105.18987341772151,
        "F": 56.53846153846154,
        "B": 80.76923076923077
    },
    "Actions_tfl_edges": {},
    "Load_per_bus_per_stop": {
        "bus3": {
            "H": 117.85714285714286,
            "I": 113.5,
            "J": 103.76923076923077,
            "K": 93.84615384615384,
            "L": 84.76923076923077,
            "A": 77,
            "B": 66.76923076923077,
            "C": 57.38461538461539,
            "D": 52.38461538461539,
            "E": 53.69230769230769,
            "F": 82.07692307692308,
            "G": 119.92307692307692
        },
        "bus2": {
            "G": 110.21428571428571,
            "H": 116.61538461538461,
            "I": 114,
            "J": 105.84615384615384,
            "K": 96.84615384615384,
            "L": 85.76923076923077,
            "A": 76,
            "B": 66.92307692307692,
            "C": 62.76923076923077,
            "D": 57.92307692307692,
            "E": 55.23076923076923,
            "F": 80.6923076923077
        },
        "bus4": {
            "J": 106.64285714285714,
            "K": 97.57142857142857,
            "L": 86.42857142857143,
            "A": 74.76923076923077,
            "B": 62.76923076923077,
            "C": 56.23076923076923,
            "D": 52,
            "E": 49.15384615384615,
            "F": 75.61538461538461,
            "G": 114.38461538461539,
            "H": 125.3076923076923,
            "I": 120.15384615384616
        },
        "bus5": {
            "K": 104.71428571428571,
            "L": 91.57142857142857,
            "A": 79.14285714285714,
            "B": 71.38461538461539,
            "C": 62.61538461538461,
            "D": 58.76923076923077,
            "E": 55.84615384615385,
            "F": 86.84615384615384,
            "G": 128.46153846153845,
            "H": 141.23076923076923,
            "I": 137.07692307692307,
            "J": 127.23076923076923
        },
        "bus1": {
            "D": 56.5,
            "E": 54.214285714285715,
            "F": 81.38461538461539,
            "G": 122.76923076923077,
            "H": 133,
            "I": 129.92307692307693,
            "J": 122.15384615384616,
            "K": 109.92307692307692,
            "L": 97.53846153846153,
            "A": 84.3076923076923,
            "B": 73,
            "C": 66.07692307692308
        },
        "bus0": {
            "C": 63.142857142857146,
            "D": 57.84615384615385,
            "E": 52.69230769230769,
            "F": 82.07692307692308,
            "G": 122.84615384615384,
            "H": 131.53846153846155,
            "I": 127.15384615384616,
            "J": 120,
            "K": 111.53846153846153,
            "L": 96.61538461538461,
            "A": 83.53846153846153,
            "B": 73.46153846153847
        }
    },
    "Obs_and_actions_busses": {
        "1": -165.7429938617748,
        "2": -7.344517914851498,
        "4": 174.10881974664724,
        "5": 163.6135358123143,
        "3": 49.67852862907007
    },
    "Obs_and_actions_tfls": {}
}