{
    "Average_holding_time": 64.74505723204994,
    "Average_holding_actions": [
        0,
        227,
        452,
        51,
        23,
        0
    ],
    "Average_travel_time_passengers": 2345.677744557673,
    "Average_passenger_waiting_time": 370.92974237261217,
    "Average_passenger_in_vehicle_time": 1974.7480021849735,
    "Average_speed_busses": 0.04004166666666667,
    "Average_experienced_crowding": 93.33919015510662,
    "Average_covariation_headway": 0.21998520521951598,
    "Average_covariation_headway_stops": {
        "H": 0.16475044078613219,
        "G": 0.13158177129619886,
        "K": 0.12142687809317874,
        "I": 0.14010236633773895,
        "D": 0.10048236470367082,
        "A": 0.09996526509192881,
        "B": 0.101432917531629,
        "L": 0.0804586502743526,
        "J": 0.11211871223662721,
        "E": 0.07584937985833111,
        "C": 0.0821428348653552,
        "F": 0.07183913261341895
    },
    "Average_excess_waiting_time": {
        "H": 108.15662945894559,
        "G": 107.09250502113287,
        "K": 104.70919500831059,
        "I": 106.90446208404217,
        "D": 102.27597219469533,
        "A": 102.86927967068596,
        "B": 101.41273317542965,
        "L": 103.87740915073016,
        "J": 106.50158028721046,
        "E": 103.10305513699961,
        "C": 103.46230809665155,
        "F": 105.41062212068704
    },
    "Holding_per_stop": {
        "H": 57.77777777777778,
        "G": 54,
        "K": 64.125,
        "I": 60.75,
        "D": 58.5,
        "B": 87.77777777777777,
        "A": 102,
        "J": 61.125,
        "E": 47.625,
        "L": 62.625,
        "C": 69,
        "F": 51.265822784810126
    },
    "Actions_tfl_edges": {},
    "Load_per_bus_per_stop": {
        "bus3": {
            "H": 118.64285714285714,
            "I": 112.85714285714286,
            "J": 107.28571428571429,
            "K": 98.14285714285714,
            "L": 87.57142857142857,
            "A": 77.53846153846153,
            "B": 64.53846153846153,
            "C": 58.84615384615385,
            "D": 57.15384615384615,
            "E": 51.92307692307692,
            "F": 78.53846153846153,
            "G": 115.38461538461539
        },
        "bus2": {
            "G": 112.85714285714286,
            "H": 121.64285714285714,
            "I": 115.64285714285714,
            "J": 108.21428571428571,
            "K": 100.46153846153847,
            "L": 89.6923076923077,
            "A": 78.3076923076923,
            "B": 66.53846153846153,
            "C": 58.92307692307692,
            "D": 54.76923076923077,
            "E": 54.07692307692308,
            "F": 82.23076923076923
        },
        "bus4": {
            "K": 91.35714285714286,
            "L": 81.21428571428571,
            "A": 70,
            "B": 61.857142857142854,
            "C": 57.46153846153846,
            "D": 54.30769230769231,
            "E": 51.61538461538461,
            "F": 78.23076923076923,
            "G": 111.53846153846153,
            "H": 119.84615384615384,
            "I": 116,
            "J": 109.53846153846153
        },
        "bus1": {
            "D": 54.142857142857146,
            "E": 53.857142857142854,
            "F": 81.78571428571429,
            "G": 118.57142857142857,
            "H": 126.92857142857143,
            "I": 122,
            "J": 113.23076923076923,
            "K": 104.07692307692308,
            "L": 91.3076923076923,
            "A": 80.07692307692308,
            "B": 67.07692307692308,
            "C": 61.23076923076923
        },
        "bus5": {
            "A": 72.71428571428571,
            "B": 61.42857142857143,
            "C": 57.07142857142857,
            "D": 54.23076923076923,
            "E": 52.30769230769231,
            "F": 77.3076923076923,
            "G": 118.38461538461539,
            "H": 124.46153846153847,
            "I": 117.61538461538461,
            "J": 109.61538461538461,
            "K": 101.15384615384616,
            "L": 89.92307692307692
        },
        "bus0": {
            "B": 62.785714285714285,
            "C": 55.785714285714285,
            "D": 52.214285714285715,
            "E": 49.42857142857143,
            "F": 75.28571428571429,
            "G": 111.38461538461539,
            "H": 122.6923076923077,
            "I": 121.15384615384616,
            "J": 114.61538461538461,
            "K": 105.53846153846153,
            "L": 92.46153846153847,
            "A": 79.92307692307692
        }
    },
    "Obs_and_actions_busses": {
        "1": -100.77032190148947,
        "3": 21.068214477210496,
        "4": 188.38742512579586,
        "2": 6.847902633179234,
        "5": 88.90742769972752
    },
    "Obs_and_actions_tfls": {}
}