{
    "Average_holding_time": 64.20997920997921,
    "Average_holding_actions": [
        0,
        204,
        494,
        45,
        15,
        0
    ],
    "Average_travel_time_passengers": 2352.457767750964,
    "Average_passenger_waiting_time": 369.8766010080106,
    "Average_passenger_in_vehicle_time": 1982.5811667428566,
    "Average_speed_busses": 0.04008333333333333,
    "Average_experienced_crowding": 93.93478982208919,
    "Average_covariation_headway": 0.20814430000314252,
    "Average_covariation_headway_stops": {
        "H": 0.12875356270525862,
        "I": 0.13686988050498622,
        "E": 0.10508402773537906,
        "L": 0.09965211176969345,
        "D": 0.08510997062882981,
        "B": 0.0788094705330964,
        "J": 0.10155803021547742,
        "F": 0.07188429548059336,
        "A": 0.05722222204871431,
        "K": 0.07875355415995466,
        "G": 0.06616810151813467,
        "C": 0.0547702723156794
    },
    "Average_excess_waiting_time": {
        "H": 105.50072753661999,
        "I": 103.45898207816248,
        "E": 102.0494320064521,
        "L": 102.21724848759487,
        "D": 103.29224408449437,
        "B": 101.86277287655389,
        "J": 102.92358335013529,
        "F": 102.46681705763666,
        "A": 102.57426691611806,
        "K": 103.44419231081275,
        "G": 103.74000929100106,
        "C": 103.7770622461361
    },
    "Holding_per_stop": {
        "I": 62.592592592592595,
        "H": 59.25,
        "E": 49.25925925925926,
        "L": 62.25,
        "B": 87,
        "D": 52.875,
        "J": 58.875,
        "F": 52.125,
        "A": 96,
        "K": 64.5,
        "C": 72,
        "G": 54
    },
    "Actions_tfl_edges": {},
    "Load_per_bus_per_stop": {
        "bus3": {
            "H": 120.42857142857143,
            "I": 117.35714285714286,
            "J": 107.21428571428571,
            "K": 98.21428571428571,
            "L": 87.14285714285714,
            "A": 76,
            "B": 64.61538461538461,
            "C": 56.53846153846154,
            "D": 52,
            "E": 50.92307692307692,
            "F": 78.61538461538461,
            "G": 118.23076923076923
        },
        "bus4": {
            "I": 114.57142857142857,
            "J": 106.92857142857143,
            "K": 95.85714285714286,
            "L": 86.35714285714286,
            "A": 75.85714285714286,
            "B": 66.15384615384616,
            "C": 60.30769230769231,
            "D": 55.46153846153846,
            "E": 55.07692307692308,
            "F": 82.61538461538461,
            "G": 121.38461538461539,
            "H": 129.6153846153846
        },
        "bus2": {
            "E": 53.142857142857146,
            "F": 79.92857142857143,
            "G": 115.35714285714286,
            "H": 126.21428571428571,
            "I": 122.5,
            "J": 114.53846153846153,
            "K": 107.07692307692308,
            "L": 93.92307692307692,
            "A": 79.84615384615384,
            "B": 68.46153846153847,
            "C": 61.84615384615385,
            "D": 57.46153846153846
        },
        "bus5": {
            "L": 82.5,
            "A": 71.92857142857143,
            "B": 62.07142857142857,
            "C": 57.07142857142857,
            "D": 56,
            "E": 54.69230769230769,
            "F": 80.23076923076923,
            "G": 114.76923076923077,
            "H": 123.07692307692308,
            "I": 118.15384615384616,
            "J": 110.15384615384616,
            "K": 100.84615384615384
        },
        "bus1": {
            "D": 56.07142857142857,
            "E": 52.5,
            "F": 75.5,
            "G": 111.42857142857143,
            "H": 125.3076923076923,
            "I": 120.07692307692308,
            "J": 109.46153846153847,
            "K": 98.53846153846153,
            "L": 87.61538461538461,
            "A": 76.46153846153847,
            "B": 68.46153846153847,
            "C": 63.15384615384615
        },
        "bus0": {
            "B": 62.142857142857146,
            "C": 59.857142857142854,
            "D": 57.857142857142854,
            "E": 56.857142857142854,
            "F": 83.6923076923077,
            "G": 120.38461538461539,
            "H": 131.92307692307693,
            "I": 124.61538461538461,
            "J": 117.3076923076923,
            "K": 105,
            "L": 92.61538461538461,
            "A": 77.15384615384616
        }
    },
    "Obs_and_actions_busses": {
        "4": 169.32294119311177,
        "5": 87.86666666399918,
        "3": 17.73706752436071,
        "2": 3.6467749810196706,
        "1": -92.45372069718866
    },
    "Obs_and_actions_tfls": {}
}