{
    "Average_holding_time": 68.97787144362486,
    "Average_holding_actions": [
        0,
        176,
        453,
        84,
        28,
        0
    ],
    "Average_travel_time_passengers": 2390.4585488230477,
    "Average_passenger_waiting_time": 375.6776186916418,
    "Average_passenger_in_vehicle_time": 2014.7809301312916,
    "Average_speed_busses": 0.03954166666666667,
    "Average_experienced_crowding": 94.15801095144306,
    "Average_covariation_headway": 0.2216423389385234,
    "Average_covariation_headway_stops": {
        "H": 0.15692661527225554,
        "F": 0.11819367907911317,
        "K": 0.1201773607578213,
        "A": 0.1042428726735451,
        "I": 0.13395925694610997,
        "B": 0.10404995812925916,
        "C": 0.10974237782182673,
        "G": 0.10359549619560351,
        "L": 0.09127108263925626,
        "J": 0.10545817759032955,
        "D": 0.0855304603512342,
        "E": 0.08555959998329045
    },
    "Average_excess_waiting_time": {
        "H": 112.10919112105285,
        "F": 109.12309266495316,
        "K": 109.74763855039879,
        "A": 109.39351639603751,
        "I": 111.27871529719118,
        "B": 107.6401739994185,
        "C": 106.33259627633169,
        "G": 109.80400434634373,
        "L": 110.09031731574663,
        "J": 111.03035676072886,
        "D": 107.03381531147659,
        "E": 109.4644856843068
    },
    "Holding_per_stop": {
        "H": 64.55696202531645,
        "K": 69.49367088607595,
        "I": 64.55696202531645,
        "F": 55.822784810126585,
        "C": 72.75,
        "A": 108.60759493670886,
        "B": 86.20253164556962,
        "L": 69.87341772151899,
        "G": 57.721518987341774,
        "J": 67.59493670886076,
        "D": 58.860759493670884,
        "E": 51.64556962025316
    },
    "Actions_tfl_edges": {},
    "Load_per_bus_per_stop": {
        "bus3": {
            "H": 121.21428571428571,
            "I": 116.85714285714286,
            "J": 109.42857142857143,
            "K": 98.53846153846153,
            "L": 87.15384615384616,
            "A": 78.23076923076923,
            "B": 66.61538461538461,
            "C": 61.23076923076923,
            "D": 57.69230769230769,
            "E": 55.53846153846154,
            "F": 81.61538461538461,
            "G": 118.92307692307692
        },
        "bus2": {
            "F": 78.78571428571429,
            "G": 118.14285714285714,
            "H": 128.28571428571428,
            "I": 122.76923076923077,
            "J": 115.6923076923077,
            "K": 103.92307692307692,
            "L": 93,
            "A": 81.38461538461539,
            "B": 69.3076923076923,
            "C": 65,
            "D": 58.15384615384615,
            "E": 55.84615384615385
        },
        "bus4": {
            "K": 90.21428571428571,
            "L": 78.85714285714286,
            "A": 70.92307692307692,
            "B": 62.61538461538461,
            "C": 58.15384615384615,
            "D": 54.46153846153846,
            "E": 53,
            "F": 75.46153846153847,
            "G": 108.84615384615384,
            "H": 116.84615384615384,
            "I": 116.92307692307692,
            "J": 107.07692307692308
        },
        "bus5": {
            "A": 73.28571428571429,
            "B": 62.642857142857146,
            "C": 55.23076923076923,
            "D": 53.84615384615385,
            "E": 52.38461538461539,
            "F": 79.23076923076923,
            "G": 116.07692307692308,
            "H": 124.76923076923077,
            "I": 121.3076923076923,
            "J": 114.23076923076923,
            "K": 104.76923076923077,
            "L": 91.38461538461539
        },
        "bus0": {
            "B": 60.642857142857146,
            "C": 56.857142857142854,
            "D": 53.30769230769231,
            "E": 52.53846153846154,
            "F": 76.53846153846153,
            "G": 112.6923076923077,
            "H": 123.15384615384616,
            "I": 119.07692307692308,
            "J": 112.53846153846153,
            "K": 101.15384615384616,
            "L": 90.84615384615384,
            "A": 77.53846153846153
        },
        "bus1": {
            "C": 60.357142857142854,
            "D": 55.785714285714285,
            "E": 53.285714285714285,
            "F": 82.3076923076923,
            "G": 121.76923076923077,
            "H": 131,
            "I": 126,
            "J": 118.07692307692308,
            "K": 107.23076923076923,
            "L": 93.15384615384616,
            "A": 82.3076923076923,
            "B": 70.84615384615384
        }
    },
    "Obs_and_actions_busses": {
        "1": -124.73699044679654,
        "2": -2.077171189710054,
        "4": 129.35957358276792,
        "5": 72.92395846727557,
        "3": 23.297042455681865
    },
    "Obs_and_actions_tfls": {}
}