{
    "Average_holding_time": 67.87144362486828,
    "Average_holding_actions": [
        0,
        217,
        424,
        92,
        33,
        0
    ],
    "Average_travel_time_passengers": 2382.208534475135,
    "Average_passenger_waiting_time": 377.04654189963173,
    "Average_passenger_in_vehicle_time": 2005.1619925754128,
    "Average_speed_busses": 0.03954166666666667,
    "Average_experienced_crowding": 95.21282255522713,
    "Average_covariation_headway": 0.22199129469540402,
    "Average_covariation_headway_stops": {
        "H": 0.14159688678512583,
        "I": 0.1546082132361463,
        "F": 0.11856219618044764,
        "K": 0.12657605650421624,
        "A": 0.11305880435369638,
        "C": 0.10124614908264994,
        "J": 0.12032301040672652,
        "L": 0.09731553519385494,
        "G": 0.09557237882678941,
        "D": 0.08057694382858199,
        "B": 0.09025489123251952,
        "E": 0.08164293678824355
    },
    "Average_excess_waiting_time": {
        "H": 111.93722186371406,
        "I": 110.63308962540981,
        "F": 110.64415180080437,
        "K": 107.60817749281938,
        "A": 106.2251701672206,
        "C": 107.24397236909857,
        "J": 109.55520522508152,
        "L": 107.20692356305176,
        "G": 110.5756793837736,
        "D": 108.01533793659644,
        "B": 108.06275590267887,
        "E": 110.48783818797699
    },
    "Holding_per_stop": {
        "I": 65.625,
        "H": 64.55696202531645,
        "K": 69,
        "A": 106.875,
        "C": 67.9746835443038,
        "F": 52.78481012658228,
        "J": 65.31645569620254,
        "L": 69.87341772151899,
        "D": 59.24050632911393,
        "B": 82.40506329113924,
        "G": 61.92307692307692,
        "E": 48.07692307692308
    },
    "Actions_tfl_edges": {},
    "Load_per_bus_per_stop": {
        "bus2": {
            "H": 121.07142857142857,
            "I": 117.5,
            "J": 109.23076923076923,
            "K": 98.84615384615384,
            "L": 89,
            "A": 79.07692307692308,
            "B": 66.46153846153847,
            "C": 58.46153846153846,
            "D": 55.38461538461539,
            "E": 54.61538461538461,
            "F": 81.3076923076923,
            "G": 118.23076923076923
        },
        "bus3": {
            "I": 117.07142857142857,
            "J": 110.07142857142857,
            "K": 99,
            "L": 86.38461538461539,
            "A": 75.38461538461539,
            "B": 65.53846153846153,
            "C": 57.23076923076923,
            "D": 52.30769230769231,
            "E": 50.38461538461539,
            "F": 78.07692307692308,
            "G": 121.07692307692308,
            "H": 130.23076923076923
        },
        "bus1": {
            "F": 78.85714285714286,
            "G": 116.07142857142857,
            "H": 124.53846153846153,
            "I": 120.53846153846153,
            "J": 113.38461538461539,
            "K": 103.38461538461539,
            "L": 92,
            "A": 80.46153846153847,
            "B": 68.61538461538461,
            "C": 62.23076923076923,
            "D": 60.23076923076923,
            "E": 60.30769230769231
        },
        "bus4": {
            "K": 88.21428571428571,
            "L": 78.85714285714286,
            "A": 69.14285714285714,
            "B": 58.30769230769231,
            "C": 53.38461538461539,
            "D": 51.38461538461539,
            "E": 51.07692307692308,
            "F": 76,
            "G": 111.3076923076923,
            "H": 119.6923076923077,
            "I": 116.15384615384616,
            "J": 107.38461538461539
        },
        "bus5": {
            "A": 74.57142857142857,
            "B": 65.28571428571429,
            "C": 57.92857142857143,
            "D": 53.92307692307692,
            "E": 54.92307692307692,
            "F": 81.15384615384616,
            "G": 120.23076923076923,
            "H": 131.07692307692307,
            "I": 122.84615384615384,
            "J": 115.38461538461539,
            "K": 103.61538461538461,
            "L": 92.3076923076923
        },
        "bus0": {
            "C": 55.214285714285715,
            "D": 52.42857142857143,
            "E": 49.5,
            "F": 76.15384615384616,
            "G": 118.84615384615384,
            "H": 129.07692307692307,
            "I": 126.38461538461539,
            "J": 120.53846153846153,
            "K": 109.61538461538461,
            "L": 97.53846153846153,
            "A": 83.76923076923077,
            "B": 69.3076923076923
        }
    },
    "Obs_and_actions_busses": {
        "4": 135.63985572481488,
        "5": 93.03618187071433,
        "3": 34.56830601114759,
        "2": -8.66822894101183,
        "1": -112.33532289883809
    },
    "Obs_and_actions_tfls": {}
}