{
    "Average_holding_time": 18.86019590382903,
    "Average_holding_actions": [
        759,
        198,
        0,
        0,
        5,
        0
    ],
    "Average_travel_time_passengers": 2757.942488394334,
    "Average_passenger_waiting_time": 347.59298889005294,
    "Average_passenger_in_vehicle_time": 2410.3494995042674,
    "Average_speed_busses": 0.04679166666666667,
    "Average_experienced_crowding": 85.91002005161013,
    "Average_covariation_headway": 0.4036339938099993,
    "Average_covariation_headway_stops": {
        "K": 0.36014214835411634,
        "F": 0.3272226458383795,
        "B": 0.34307653811824906,
        "E": 0.3230747199065416,
        "L": 0.3605705856510538,
        "D": 0.3158630876590187,
        "C": 0.3293863143420616,
        "A": 0.3477864479148061,
        "G": 0.301601045760999,
        "H": 0.29433370985416113,
        "I": 0.3109546859120147,
        "J": 0.33544365888845273
    },
    "Average_excess_waiting_time": {
        "K": 83.84754235198886,
        "F": 72.54022220930102,
        "B": 78.23957707470566,
        "E": 75.13656630865052,
        "L": 82.60998555673604,
        "D": 73.51916002665155,
        "C": 77.78470953327843,
        "A": 81.36609744364443,
        "G": 69.26237999539256,
        "H": 69.68057034534019,
        "I": 73.30492780038446,
        "J": 80.00297901342532
    },
    "Holding_per_stop": {
        "F": 20.74468085106383,
        "B": 16.914893617021278,
        "E": 20.74468085106383,
        "L": 26.80851063829787,
        "D": 15,
        "K": 20.64516129032258,
        "C": 23.225806451612904,
        "A": 11.612903225806452,
        "G": 15.638297872340425,
        "H": 21.70212765957447,
        "I": 17.419354838709676,
        "J": 15.806451612903226
    },
    "Actions_tfl_edges": {
        "AB": [
            17,
            46,
            31
        ],
        "CD": [
            18,
            45,
            31
        ],
        "DE": [
            20,
            40,
            35
        ],
        "EF": [
            19,
            42,
            34
        ],
        "JK": [
            16,
            43,
            35
        ],
        "KL": [
            16,
            43,
            35
        ],
        "FG": [
            17,
            45,
            32
        ],
        "BC": [
            17,
            46,
            31
        ],
        "LA": [
            21,
            41,
            32
        ],
        "GH": [
            18,
            45,
            31
        ],
        "HI": [
            18,
            44,
            32
        ],
        "IJ": [
            18,
            40,
            35
        ]
    },
    "Load_per_bus_per_stop": {
        "bus4": {
            "K": 80.75,
            "L": 80.8125,
            "A": 80.4375,
            "B": 81.4375,
            "C": 82.4375,
            "D": 82.375,
            "E": 87.26666666666667,
            "F": 85.4,
            "G": 84.66666666666667,
            "H": 83.66666666666667,
            "I": 84.73333333333333,
            "J": 84.86666666666666
        },
        "bus3": {
            "F": 81.5,
            "G": 82.0625,
            "H": 83.25,
            "I": 83.75,
            "J": 84.375,
            "K": 84.375,
            "L": 85.5,
            "A": 88,
            "B": 88,
            "C": 86.66666666666667,
            "D": 85.33333333333333,
            "E": 86.93333333333334
        },
        "bus0": {
            "B": 76.625,
            "C": 77.25,
            "D": 78.5,
            "E": 77.125,
            "F": 77.6875,
            "G": 79,
            "H": 78.4375,
            "I": 78.4,
            "J": 80.93333333333334,
            "K": 81.73333333333333,
            "L": 80.6,
            "A": 83
        },
        "bus2": {
            "E": 71,
            "F": 70.8125,
            "G": 72.75,
            "H": 73.6875,
            "I": 73.4375,
            "J": 74,
            "K": 76.125,
            "L": 75.9375,
            "A": 74.73333333333333,
            "B": 75,
            "C": 76.26666666666667,
            "D": 76.73333333333333
        },
        "bus5": {
            "L": 76.0625,
            "A": 75.75,
            "B": 76.5,
            "C": 76.625,
            "D": 77.125,
            "E": 77.8125,
            "F": 75.6,
            "G": 78.26666666666667,
            "H": 81.06666666666666,
            "I": 82.4,
            "J": 81.13333333333334,
            "K": 80.66666666666667
        },
        "bus1": {
            "D": 80.3125,
            "E": 77.75,
            "F": 77.875,
            "G": 79.1875,
            "H": 80.25,
            "I": 81.1875,
            "J": 80.0625,
            "K": 82.25,
            "L": 82.6,
            "A": 83.13333333333334,
            "B": 83.33333333333333,
            "C": 84.26666666666667
        }
    },
    "Obs_and_actions_busses": {
        "0": -233.74511583813052,
        "1": 93.03892146841073,
        "3": 240.54316181381535,
        "5": 806.567939099458
    },
    "Obs_and_actions_tfls": {
        "2": 63.13351605108935,
        "1": 311.4489248676681,
        "0": -292.7011525869598
    }
}