{
    "Average_holding_time": 26.580882352941178,
    "Average_holding_actions": [
        588,
        369,
        0,
        60,
        71,
        0
    ],
    "Average_travel_time_passengers": 2790.678392715358,
    "Average_passenger_waiting_time": 344.3881942749911,
    "Average_passenger_in_vehicle_time": 2446.2901984403916,
    "Average_speed_busses": 0.04533333333333334,
    "Average_experienced_crowding": 84.73187401574332,
    "Average_covariation_headway": 0.3028256824843363,
    "Average_covariation_headway_stops": {
        "H": 0.22358447098623457,
        "C": 0.22277431814765114,
        "L": 0.24156178446994678,
        "D": 0.22752236299650494,
        "I": 0.22769184340960616,
        "F": 0.21779002040994894,
        "J": 0.21026800357514275,
        "A": 0.21995041953925887,
        "E": 0.22103414037896343,
        "G": 0.20502495836383025,
        "K": 0.22284658880686248,
        "B": 0.23480135271431324
    },
    "Average_excess_waiting_time": {
        "H": 68.72549456729882,
        "C": 69.34959472255281,
        "L": 70.16453371147185,
        "D": 68.64401705707695,
        "I": 67.28270442492902,
        "F": 68.1254606547464,
        "J": 66.50499276897307,
        "A": 68.74040497494468,
        "E": 69.09401573885532,
        "G": 67.97013461992913,
        "K": 69.71996392586374,
        "B": 73.0828676960333
    },
    "Holding_per_stop": {
        "L": 21.0989010989011,
        "D": 29.01098901098901,
        "I": 34.61538461538461,
        "F": 21.0989010989011,
        "H": 28.681318681318682,
        "C": 39.89010989010989,
        "J": 23.736263736263737,
        "A": 10.219780219780219,
        "E": 30,
        "G": 25.333333333333332,
        "K": 30.333333333333332,
        "B": 25
    },
    "Actions_tfl_edges": {
        "BC": [
            33,
            38,
            20
        ],
        "CD": [
            35,
            42,
            15
        ],
        "EF": [
            22,
            47,
            22
        ],
        "GH": [
            25,
            40,
            26
        ],
        "HI": [
            30,
            41,
            21
        ],
        "KL": [
            27,
            48,
            16
        ],
        "LA": [
            22,
            45,
            24
        ],
        "DE": [
            27,
            43,
            21
        ],
        "IJ": [
            32,
            41,
            18
        ],
        "FG": [
            26,
            47,
            18
        ],
        "JK": [
            29,
            40,
            22
        ],
        "AB": [
            24,
            41,
            26
        ]
    },
    "Load_per_bus_per_stop": {
        "bus3": {
            "H": 79.0625,
            "I": 78.46666666666667,
            "J": 78.6,
            "K": 80.46666666666667,
            "L": 81.4,
            "A": 79.86666666666666,
            "B": 79.26666666666667,
            "C": 79.6,
            "D": 80.13333333333334,
            "E": 78.2,
            "F": 80,
            "G": 80.6
        },
        "bus0": {
            "C": 83.625,
            "D": 85.53333333333333,
            "E": 87.26666666666667,
            "F": 87,
            "G": 89.2,
            "H": 91.6,
            "I": 93.26666666666667,
            "J": 92.8,
            "K": 93.13333333333334,
            "L": 91.93333333333334,
            "A": 90.66666666666667,
            "B": 90.73333333333333
        },
        "bus5": {
            "L": 74.625,
            "A": 74.5,
            "B": 76.13333333333334,
            "C": 78.53333333333333,
            "D": 79.33333333333333,
            "E": 78.66666666666667,
            "F": 78.33333333333333,
            "G": 80.73333333333333,
            "H": 80.13333333333334,
            "I": 80,
            "J": 80.93333333333334,
            "K": 79.8
        },
        "bus1": {
            "D": 83.4375,
            "E": 84.625,
            "F": 89.06666666666666,
            "G": 89,
            "H": 88.8,
            "I": 88.73333333333333,
            "J": 87.53333333333333,
            "K": 88.93333333333334,
            "L": 91.73333333333333,
            "A": 90.73333333333333,
            "B": 88.13333333333334,
            "C": 87.86666666666666
        },
        "bus4": {
            "I": 74.4375,
            "J": 77.8125,
            "K": 78.0625,
            "L": 76.6,
            "A": 77.86666666666666,
            "B": 78.06666666666666,
            "C": 77.73333333333333,
            "D": 79.4,
            "E": 79.4,
            "F": 80,
            "G": 79.33333333333333,
            "H": 78.13333333333334
        },
        "bus2": {
            "F": 73.5,
            "G": 73.8,
            "H": 72.8,
            "I": 73.66666666666667,
            "J": 75.73333333333333,
            "K": 75.86666666666666,
            "L": 77.73333333333333,
            "A": 79.93333333333334,
            "B": 81.2,
            "C": 79.6,
            "D": 79.46666666666667,
            "E": 79.33333333333333
        }
    },
    "Obs_and_actions_busses": {
        "5": 295.2573011316018,
        "0": -253.2176610123919,
        "4": 155.14073318020013,
        "1": 53.417791514227474
    },
    "Obs_and_actions_tfls": {
        "0": 309.5366910721915,
        "1": -41.99515229835431,
        "2": 170.08062732480988
    }
}