{
    "Average_holding_time": 14.973867595818815,
    "Average_holding_actions": [
        829,
        193,
        0,
        0,
        1,
        0
    ],
    "Average_travel_time_passengers": 2687.4851480766915,
    "Average_passenger_waiting_time": 327.7439958568783,
    "Average_passenger_in_vehicle_time": 2359.7411522198054,
    "Average_speed_busses": 0.04783333333333333,
    "Average_experienced_crowding": 80.7045085660743,
    "Average_covariation_headway": 0.3443869213931897,
    "Average_covariation_headway_stops": {
        "K": 0.2475314081648164,
        "E": 0.2591827048076125,
        "D": 0.26598979373407305,
        "L": 0.2526096513145025,
        "A": 0.26153860021436875,
        "G": 0.26174415132069206,
        "F": 0.24438053329747167,
        "H": 0.24041450433298264,
        "B": 0.25235055972511244,
        "I": 0.23427060067638647,
        "C": 0.25745629071188614,
        "J": 0.24294481803924295
    },
    "Average_excess_waiting_time": {
        "K": 56.18534462355285,
        "E": 54.75382442250799,
        "D": 57.21826870404436,
        "L": 55.25715299147396,
        "A": 54.751059707922536,
        "G": 55.108871514343946,
        "F": 54.43640416086828,
        "H": 53.48112598861985,
        "B": 54.857783631238476,
        "I": 53.7061456287521,
        "C": 57.82721125858865,
        "J": 56.6961225699967
    },
    "Holding_per_stop": {
        "E": 14.375,
        "L": 16.25,
        "G": 14.375,
        "A": 9.0625,
        "D": 17.1875,
        "K": 16.42105263157895,
        "F": 15,
        "H": 17.1875,
        "B": 12.1875,
        "I": 15.157894736842104,
        "C": 15.473684210526315,
        "J": 17.05263157894737
    },
    "Actions_tfl_edges": {
        "CD": [
            16,
            38,
            42
        ],
        "DE": [
            14,
            37,
            46
        ],
        "FG": [
            14,
            36,
            47
        ],
        "JK": [
            14,
            37,
            45
        ],
        "KL": [
            14,
            37,
            45
        ],
        "LA": [
            17,
            37,
            43
        ],
        "EF": [
            15,
            41,
            40
        ],
        "GH": [
            14,
            48,
            34
        ],
        "AB": [
            19,
            37,
            40
        ],
        "HI": [
            14,
            39,
            43
        ],
        "BC": [
            16,
            37,
            43
        ],
        "IJ": [
            13,
            40,
            42
        ]
    },
    "Load_per_bus_per_stop": {
        "bus3": {
            "K": 75.1875,
            "L": 73.9375,
            "A": 75.25,
            "B": 76.0625,
            "C": 77,
            "D": 76.875,
            "E": 75.8125,
            "F": 77.625,
            "G": 79.625,
            "H": 78.375,
            "I": 79.53333333333333,
            "J": 80.53333333333333
        },
        "bus1": {
            "E": 70.375,
            "F": 69.9375,
            "G": 70.625,
            "H": 70.5,
            "I": 72,
            "J": 71.9375,
            "K": 71.9375,
            "L": 72.6875,
            "A": 74.5,
            "B": 74.75,
            "C": 75.5625,
            "D": 75
        },
        "bus0": {
            "D": 66.4375,
            "E": 65.4375,
            "F": 64.1875,
            "G": 62.8125,
            "H": 62.4375,
            "I": 64.25,
            "J": 66,
            "K": 65.6875,
            "L": 66.375,
            "A": 68.5,
            "B": 68.9375,
            "C": 70.53333333333333
        },
        "bus4": {
            "L": 82.375,
            "A": 83.6875,
            "B": 83.375,
            "C": 83,
            "D": 82.3125,
            "E": 83.625,
            "F": 83.875,
            "G": 84.125,
            "H": 83.9375,
            "I": 84.25,
            "J": 84.25,
            "K": 86.4
        },
        "bus5": {
            "A": 76.625,
            "B": 75.5,
            "C": 76.25,
            "D": 76.625,
            "E": 80.375,
            "F": 80.875,
            "G": 81.9375,
            "H": 83.125,
            "I": 82.25,
            "J": 80.3125,
            "K": 81.75,
            "L": 82.5
        },
        "bus2": {
            "G": 79.4375,
            "H": 79.4375,
            "I": 79.875,
            "J": 82.25,
            "K": 80.875,
            "L": 81.4375,
            "A": 82.3125,
            "B": 83.625,
            "C": 86,
            "D": 84.1875,
            "E": 84.875,
            "F": 85.8125
        }
    },
    "Obs_and_actions_busses": {
        "0": -219.36588512350565,
        "3": 253.08325502841447,
        "1": 87.46294525789553,
        "5": 1001.0713903054066
    },
    "Obs_and_actions_tfls": {
        "1": 312.83254584757975,
        "0": -257.7906171405859,
        "2": 58.996087901536775
    }
}