{
    "Average_holding_time": 19.17046490428441,
    "Average_holding_actions": [
        942,
        0,
        0,
        74,
        81,
        0
    ],
    "Average_travel_time_passengers": 2817.567283286667,
    "Average_passenger_waiting_time": 376.12256654061076,
    "Average_passenger_in_vehicle_time": 2441.4447167459853,
    "Average_speed_busses": 0.04570833333333333,
    "Average_experienced_crowding": 91.50148103089252,
    "Average_covariation_headway": 0.5349345102369865,
    "Average_covariation_headway_stops": {
        "F": 0.4077456197933142,
        "A": 0.4121463063540851,
        "L": 0.40995369089747197,
        "C": 0.42504140822335507,
        "G": 0.4203974131707841,
        "E": 0.4125929383946717,
        "B": 0.40241218399499434,
        "D": 0.40615722274946564,
        "H": 0.4097448502147586,
        "I": 0.41681117855199623,
        "J": 0.41916187941811683,
        "K": 0.4208183299733177
    },
    "Average_excess_waiting_time": {
        "F": 99.60097000410565,
        "A": 105.19788793803497,
        "L": 107.14185838033279,
        "C": 106.71986383057663,
        "G": 100.60816821708482,
        "E": 104.26784519154671,
        "B": 104.82071221131827,
        "D": 103.61559053692281,
        "H": 99.64573774428646,
        "I": 104.8908704461711,
        "J": 108.44256600207467,
        "K": 110.81681281630102
    },
    "Holding_per_stop": {
        "F": 16.956521739130434,
        "A": 19.78021978021978,
        "C": 20.76923076923077,
        "G": 25.161290322580644,
        "L": 18.333333333333332,
        "E": 23.47826086956522,
        "B": 8.571428571428571,
        "D": 18.13186813186813,
        "H": 20.869565217391305,
        "I": 22.17391304347826,
        "J": 22.417582417582416,
        "K": 13.186813186813186
    },
    "Actions_tfl_edges": {
        "BC": [
            0,
            92,
            0
        ],
        "DE": [
            0,
            92,
            0
        ],
        "EF": [
            0,
            93,
            0
        ],
        "FG": [
            1,
            92,
            0
        ],
        "KL": [
            0,
            91,
            1
        ],
        "LA": [
            0,
            90,
            1
        ],
        "AB": [
            0,
            91,
            0
        ],
        "CD": [
            0,
            91,
            0
        ],
        "GH": [
            1,
            92,
            0
        ],
        "HI": [
            1,
            91,
            0
        ],
        "IJ": [
            1,
            91,
            0
        ],
        "JK": [
            0,
            90,
            1
        ]
    },
    "Load_per_bus_per_stop": {
        "bus2": {
            "F": 68.625,
            "G": 69,
            "H": 71.1875,
            "I": 73.3125,
            "J": 74.26666666666667,
            "K": 75.26666666666667,
            "L": 75.46666666666667,
            "A": 73.6,
            "B": 73.26666666666667,
            "C": 74.33333333333333,
            "D": 75.13333333333334,
            "E": 73.8
        },
        "bus5": {
            "A": 79.625,
            "B": 78.25,
            "C": 78,
            "D": 78.46666666666667,
            "E": 79.26666666666667,
            "F": 77.46666666666667,
            "G": 77.8,
            "H": 79.4,
            "I": 80.73333333333333,
            "J": 80,
            "K": 81.93333333333334,
            "L": 82.2
        },
        "bus4": {
            "L": 97.66666666666667,
            "A": 99.13333333333334,
            "B": 98.73333333333333,
            "C": 98.13333333333334,
            "D": 96.93333333333334,
            "E": 96.06666666666666,
            "F": 97.13333333333334,
            "G": 96.13333333333334,
            "H": 96.13333333333334,
            "I": 99.33333333333333,
            "J": 102.13333333333334,
            "K": 103.06666666666666
        },
        "bus0": {
            "C": 65.375,
            "D": 66.125,
            "E": 67.5,
            "F": 63.733333333333334,
            "G": 63.53333333333333,
            "H": 64.8,
            "I": 65.33333333333333,
            "J": 66.6,
            "K": 66.8,
            "L": 69.53333333333333,
            "A": 69.73333333333333,
            "B": 69.2
        },
        "bus3": {
            "G": 82.125,
            "H": 84.125,
            "I": 84.5,
            "J": 85.1875,
            "K": 85.8125,
            "L": 89.53333333333333,
            "A": 92.86666666666666,
            "B": 91.86666666666666,
            "C": 92,
            "D": 93.06666666666666,
            "E": 90,
            "F": 87.33333333333333
        },
        "bus1": {
            "E": 77.4375,
            "F": 78.0625,
            "G": 75.8125,
            "H": 76.6875,
            "I": 79.4,
            "J": 82.46666666666667,
            "K": 83.33333333333333,
            "L": 83.73333333333333,
            "A": 82.46666666666667,
            "B": 82.2,
            "C": 81.6,
            "D": 83
        }
    },
    "Obs_and_actions_busses": {
        "0": -182.05098824173817,
        "5": 246.8058132909134,
        "4": 453.5352922401865
    },
    "Obs_and_actions_tfls": {
        "1": 106.45639128920817,
        "0": -1239.731211443356,
        "2": -1018.1660075909762
    }
}