{
    "Average_holding_time": 26.4477335800185,
    "Average_holding_actions": [
        606,
        60,
        394,
        0,
        21,
        0
    ],
    "Average_travel_time_passengers": 2805.8625635085327,
    "Average_passenger_waiting_time": 345.0383860915308,
    "Average_passenger_in_vehicle_time": 2460.824177416963,
    "Average_speed_busses": 0.04504166666666667,
    "Average_experienced_crowding": 84.7267418164562,
    "Average_covariation_headway": 0.2729115589326753,
    "Average_covariation_headway_stops": {
        "J": 0.20985281430548797,
        "I": 0.20728768480999388,
        "E": 0.24490238539492698,
        "B": 0.22358027425090848,
        "G": 0.23839258225940368,
        "K": 0.20629042807601622,
        "H": 0.20833696533945803,
        "C": 0.22987125388175203,
        "L": 0.19985631641359572,
        "F": 0.23792324325489597,
        "A": 0.21008133013884048,
        "D": 0.23210924390983226
    },
    "Average_excess_waiting_time": {
        "J": 67.26237707753876,
        "I": 69.1002126706075,
        "E": 75.48824132120791,
        "B": 69.78135086098843,
        "G": 73.34245794548013,
        "K": 64.74769660172257,
        "H": 70.92038729862543,
        "C": 73.05344204356771,
        "L": 65.87709051499314,
        "F": 75.22695684239494,
        "A": 69.79364508859481,
        "D": 74.8300773466828
    },
    "Holding_per_stop": {
        "J": 25.384615384615383,
        "B": 24.333333333333332,
        "G": 29.666666666666668,
        "K": 35.604395604395606,
        "I": 25.666666666666668,
        "E": 24.333333333333332,
        "L": 30.65934065934066,
        "H": 26,
        "C": 25.666666666666668,
        "F": 25.617977528089888,
        "A": 20.666666666666668,
        "D": 23.59550561797753
    },
    "Actions_tfl_edges": {
        "AB": [
            8,
            68,
            15
        ],
        "DE": [
            4,
            67,
            19
        ],
        "FG": [
            4,
            73,
            13
        ],
        "HI": [
            3,
            70,
            18
        ],
        "IJ": [
            4,
            64,
            23
        ],
        "JK": [
            4,
            72,
            16
        ],
        "BC": [
            5,
            71,
            14
        ],
        "GH": [
            4,
            72,
            14
        ],
        "KL": [
            5,
            74,
            12
        ],
        "EF": [
            3,
            69,
            18
        ],
        "LA": [
            7,
            64,
            20
        ],
        "CD": [
            6,
            62,
            22
        ]
    },
    "Load_per_bus_per_stop": {
        "bus4": {
            "J": 71.6875,
            "K": 74.8,
            "L": 75.26666666666667,
            "A": 75.53333333333333,
            "B": 76.66666666666667,
            "C": 76.26666666666667,
            "D": 76.33333333333333,
            "E": 78.2,
            "F": 77.53333333333333,
            "G": 78.53333333333333,
            "H": 79,
            "I": 77.06666666666666
        },
        "bus3": {
            "I": 81.8,
            "J": 80.2,
            "K": 81.46666666666667,
            "L": 79.26666666666667,
            "A": 81.8,
            "B": 82.66666666666667,
            "C": 81.33333333333333,
            "D": 81.86666666666666,
            "E": 83.73333333333333,
            "F": 83.66666666666667,
            "G": 84.33333333333333,
            "H": 84.8
        },
        "bus1": {
            "E": 78.86666666666666,
            "F": 81.26666666666667,
            "G": 80.93333333333334,
            "H": 79.53333333333333,
            "I": 78.26666666666667,
            "J": 76.8,
            "K": 78.13333333333334,
            "L": 78.2,
            "A": 77.66666666666667,
            "B": 80.73333333333333,
            "C": 84.66666666666667,
            "D": 85.53333333333333
        },
        "bus0": {
            "B": 81.0625,
            "C": 83.8,
            "D": 83.26666666666667,
            "E": 83.46666666666667,
            "F": 83.4,
            "G": 85,
            "H": 86.93333333333334,
            "I": 88.06666666666666,
            "J": 90.26666666666667,
            "K": 88.93333333333334,
            "L": 89.73333333333333,
            "A": 88.33333333333333
        },
        "bus2": {
            "G": 76.33333333333333,
            "H": 77.26666666666667,
            "I": 77.86666666666666,
            "J": 79.6,
            "K": 79.53333333333333,
            "L": 79.06666666666666,
            "A": 81.46666666666667,
            "B": 81.8,
            "C": 81.86666666666666,
            "D": 83.06666666666666,
            "E": 83.4,
            "F": 81.64285714285714
        },
        "bus5": {
            "K": 85.25,
            "L": 87.1875,
            "A": 87.26666666666667,
            "B": 89.6,
            "C": 89.6,
            "D": 90.2,
            "E": 90.86666666666666,
            "F": 89.86666666666666,
            "G": 91.33333333333333,
            "H": 91.86666666666666,
            "I": 92,
            "J": 90.4
        }
    },
    "Obs_and_actions_busses": {
        "2": 76.50138993729806,
        "1": 223.85722165084377,
        "5": 376.5555801749039,
        "0": -209.2349685205737
    },
    "Obs_and_actions_tfls": {
        "2": 38.202703395356544,
        "1": 145.9586410003563,
        "0": 445.8835822266816
    }
}