{
    "Average_holding_time": 31.481826654240447,
    "Average_holding_actions": [
        502,
        411,
        0,
        85,
        75,
        0
    ],
    "Average_travel_time_passengers": 2865.328798435786,
    "Average_passenger_waiting_time": 361.57523408441864,
    "Average_passenger_in_vehicle_time": 2503.7535643513875,
    "Average_speed_busses": 0.044708333333333336,
    "Average_experienced_crowding": 87.76930888156082,
    "Average_covariation_headway": 0.34159047663529485,
    "Average_covariation_headway_stops": {
        "D": 0.2767954010481115,
        "F": 0.2888973171136653,
        "B": 0.3124563527316696,
        "E": 0.29864482667832176,
        "L": 0.31689758417538444,
        "C": 0.298517680016912,
        "G": 0.27330634121916686,
        "A": 0.2995574794779566,
        "H": 0.2604117773476974,
        "I": 0.2592321893199084,
        "J": 0.2846117405815863,
        "K": 0.3159007714064943
    },
    "Average_excess_waiting_time": {
        "D": 80.73544998476456,
        "F": 80.74508046134576,
        "B": 91.21247082046006,
        "E": 84.81384597114817,
        "L": 92.30216065076075,
        "C": 86.27051467534568,
        "G": 77.29251264231937,
        "A": 90.15603639485857,
        "H": 77.52632372814412,
        "I": 79.25541201672263,
        "J": 85.54908951070985,
        "K": 94.30230874624624
    },
    "Holding_per_stop": {
        "F": 31.333333333333332,
        "D": 23.666666666666668,
        "E": 34.666666666666664,
        "C": 37,
        "B": 27.97752808988764,
        "L": 27.640449438202246,
        "G": 31.666666666666668,
        "H": 41.666666666666664,
        "A": 27.303370786516854,
        "I": 24.269662921348313,
        "J": 29.662921348314608,
        "K": 40.90909090909091
    },
    "Actions_tfl_edges": {
        "AB": [
            36,
            36,
            18
        ],
        "BC": [
            46,
            29,
            15
        ],
        "CD": [
            35,
            43,
            12
        ],
        "DE": [
            30,
            48,
            13
        ],
        "EF": [
            32,
            48,
            11
        ],
        "KL": [
            31,
            48,
            10
        ],
        "FG": [
            31,
            45,
            14
        ],
        "LA": [
            21,
            46,
            22
        ],
        "GH": [
            37,
            38,
            15
        ],
        "HI": [
            28,
            51,
            11
        ],
        "IJ": [
            35,
            39,
            15
        ],
        "JK": [
            29,
            45,
            15
        ]
    },
    "Load_per_bus_per_stop": {
        "bus2": {
            "D": 70.53333333333333,
            "E": 72.73333333333333,
            "F": 71.13333333333334,
            "G": 71.13333333333334,
            "H": 69.8,
            "I": 69.26666666666667,
            "J": 70.4,
            "K": 71.06666666666666,
            "L": 75.26666666666667,
            "A": 76.4,
            "B": 76.46666666666667,
            "C": 76.53333333333333
        },
        "bus4": {
            "F": 90.5,
            "G": 88.33333333333333,
            "H": 89.4,
            "I": 88.8,
            "J": 89.66666666666667,
            "K": 91.8,
            "L": 94,
            "A": 95.53333333333333,
            "B": 96.93333333333334,
            "C": 95.8,
            "D": 95.73333333333333,
            "E": 97.66666666666667
        },
        "bus0": {
            "B": 80.13333333333334,
            "C": 81.46666666666667,
            "D": 82.13333333333334,
            "E": 81.33333333333333,
            "F": 82,
            "G": 82.4,
            "H": 82.66666666666667,
            "I": 85.6,
            "J": 85.6,
            "K": 83.53333333333333,
            "L": 84.42857142857143,
            "A": 83.92857142857143
        },
        "bus3": {
            "E": 59.93333333333333,
            "F": 60.333333333333336,
            "G": 62.733333333333334,
            "H": 63.86666666666667,
            "I": 64.26666666666667,
            "J": 63.86666666666667,
            "K": 62.8,
            "L": 64.73333333333333,
            "A": 64.13333333333334,
            "B": 64.13333333333334,
            "C": 63.6,
            "D": 65.53333333333333
        },
        "bus5": {
            "L": 97.6,
            "A": 96.66666666666667,
            "B": 95.66666666666667,
            "C": 95.13333333333334,
            "D": 95.06666666666666,
            "E": 95.8,
            "F": 96.46666666666667,
            "G": 100.26666666666667,
            "H": 102.46666666666667,
            "I": 105.85714285714286,
            "J": 106.28571428571429,
            "K": 105.78571428571429
        },
        "bus1": {
            "C": 81.66666666666667,
            "D": 83.13333333333334,
            "E": 82.53333333333333,
            "F": 83.06666666666666,
            "G": 85.53333333333333,
            "H": 86.73333333333333,
            "I": 86.46666666666667,
            "J": 86.2,
            "K": 86.8,
            "L": 87.33333333333333,
            "A": 86.73333333333333,
            "B": 87.64285714285714
        }
    },
    "Obs_and_actions_busses": {
        "1": 51.92410071721008,
        "5": 361.29644418379354,
        "0": -315.747167979159,
        "4": 152.28384231738647
    },
    "Obs_and_actions_tfls": {
        "0": 315.65640465349827,
        "1": -87.58141351750896,
        "2": 163.43843025896675
    }
}