{
    "Average_holding_time": 19.331550802139038,
    "Average_holding_actions": [
        737,
        216,
        0,
        0,
        0,
        0
    ],
    "Average_travel_time_passengers": 2744.9800777757164,
    "Average_passenger_waiting_time": 347.9970857486125,
    "Average_passenger_in_vehicle_time": 2396.9829920271027,
    "Average_speed_busses": 0.04675,
    "Average_experienced_crowding": 86.96771104313929,
    "Average_covariation_headway": 0.4194065623543876,
    "Average_covariation_headway_stops": {
        "J": 0.3208015632358325,
        "L": 0.32966518270603895,
        "H": 0.3183945286187744,
        "C": 0.3115241278642403,
        "G": 0.3146998452993708,
        "B": 0.3000922417107361,
        "D": 0.3035202268903668,
        "I": 0.3236557203235158,
        "K": 0.3111857511621886,
        "A": 0.3148218998174915,
        "E": 0.2981392162267305,
        "F": 0.31380998011380823
    },
    "Average_excess_waiting_time": {
        "J": 73.45499220926945,
        "L": 75.97461860583206,
        "H": 74.02930466463488,
        "C": 69.69197964769427,
        "G": 75.48088496256855,
        "B": 69.50760310254344,
        "D": 70.34014923710049,
        "I": 75.88506952480941,
        "K": 73.66473369161201,
        "A": 74.30007030265972,
        "E": 72.61393677775442,
        "F": 77.38776616687932
    },
    "Holding_per_stop": {
        "J": 16.914893617021278,
        "H": 23.29787234042553,
        "C": 18.829787234042552,
        "L": 25.21276595744681,
        "B": 11.170212765957446,
        "G": 24.193548387096776,
        "I": 22.258064516129032,
        "D": 17.872340425531913,
        "K": 18.06451612903226,
        "A": 16.451612903225808,
        "E": 15.483870967741936,
        "F": 22.258064516129032
    },
    "Actions_tfl_edges": {
        "AB": [
            16,
            43,
            35
        ],
        "BC": [
            14,
            38,
            43
        ],
        "FG": [
            14,
            49,
            31
        ],
        "GH": [
            18,
            38,
            38
        ],
        "IJ": [
            16,
            42,
            36
        ],
        "KL": [
            16,
            35,
            43
        ],
        "JK": [
            16,
            40,
            38
        ],
        "HI": [
            17,
            33,
            44
        ],
        "CD": [
            16,
            40,
            38
        ],
        "LA": [
            17,
            39,
            38
        ],
        "DE": [
            18,
            35,
            41
        ],
        "EF": [
            14,
            38,
            41
        ]
    },
    "Load_per_bus_per_stop": {
        "bus4": {
            "J": 74.5625,
            "K": 71.6875,
            "L": 72.4375,
            "A": 74.25,
            "B": 74.125,
            "C": 74.375,
            "D": 75.8125,
            "E": 76.6,
            "F": 75.4,
            "G": 75.33333333333333,
            "H": 77.13333333333334,
            "I": 78.46666666666667
        },
        "bus5": {
            "L": 86.8125,
            "A": 86.8125,
            "B": 87.125,
            "C": 89.375,
            "D": 91.1875,
            "E": 90.5,
            "F": 88.9375,
            "G": 90.06666666666666,
            "H": 92.4,
            "I": 92.2,
            "J": 92.66666666666667,
            "K": 92.53333333333333
        },
        "bus3": {
            "H": 72.875,
            "I": 72.1875,
            "J": 71.5,
            "K": 71.4375,
            "L": 71.5625,
            "A": 72.3125,
            "B": 74.75,
            "C": 74.9375,
            "D": 75.06666666666666,
            "E": 76.33333333333333,
            "F": 76.6,
            "G": 76.86666666666666
        },
        "bus1": {
            "C": 87.625,
            "D": 87.5,
            "E": 88,
            "F": 88.875,
            "G": 91.9375,
            "H": 91,
            "I": 91.75,
            "J": 90.0625,
            "K": 89.5,
            "L": 92.06666666666666,
            "A": 93.26666666666667,
            "B": 92.6
        },
        "bus2": {
            "G": 73.875,
            "H": 74.75,
            "I": 74.375,
            "J": 75.25,
            "K": 75.25,
            "L": 76.9375,
            "A": 78.125,
            "B": 79.73333333333333,
            "C": 78.06666666666666,
            "D": 78,
            "E": 77.73333333333333,
            "F": 78.4
        },
        "bus0": {
            "B": 70.0625,
            "C": 72.625,
            "D": 71.4375,
            "E": 71.875,
            "F": 73.25,
            "G": 71.75,
            "H": 72.625,
            "I": 73,
            "J": 72.73333333333333,
            "K": 72.93333333333334,
            "L": 75.73333333333333,
            "A": 75.46666666666667
        }
    },
    "Obs_and_actions_busses": {
        "0": -253.13315298253485,
        "1": 86.21605655683176,
        "3": 253.34599409955132
    },
    "Obs_and_actions_tfls": {
        "1": 310.46198163317956,
        "2": 69.36946365184184,
        "0": -353.9689652606498
    }
}587957
    }
}