{
    "Average_holding_time": 13.37942955920484,
    "Average_holding_actions": [
        853,
        198,
        0,
        0,
        0,
        0
    ],
    "Average_travel_time_passengers": 2635.695266582632,
    "Average_passenger_waiting_time": 319.8322894354523,
    "Average_passenger_in_vehicle_time": 2315.8629771471383,
    "Average_speed_busses": 0.04820833333333333,
    "Average_experienced_crowding": 80.16957380305546,
    "Average_covariation_headway": 0.33035309886928965,
    "Average_covariation_headway_stops": {
        "H": 0.25405251659029365,
        "B": 0.258909993370767,
        "A": 0.25522708725874726,
        "E": 0.2564705325153207,
        "K": 0.23845192698033946,
        "C": 0.26990548211518106,
        "I": 0.2366665176227756,
        "F": 0.2452239905407686,
        "D": 0.233618616344539,
        "L": 0.2352115034302331,
        "G": 0.24225216004577782,
        "J": 0.2276132588323554
    },
    "Average_excess_waiting_time": {
        "H": 52.093331644063824,
        "B": 52.07766441175323,
        "A": 53.06706100698045,
        "E": 49.70756200857613,
        "K": 50.658812682362736,
        "C": 51.86753419374287,
        "I": 52.198549083902094,
        "F": 50.08848828264286,
        "D": 48.24869951624726,
        "L": 52.25025948228438,
        "G": 52.06464469248954,
        "J": 50.94530616241423
    },
    "Holding_per_stop": {
        "B": 11.75257731958763,
        "E": 16.391752577319586,
        "H": 12.371134020618557,
        "K": 15.3125,
        "C": 22.88659793814433,
        "A": 11.25,
        "F": 12.061855670103093,
        "D": 11.1340206185567,
        "I": 13.4375,
        "L": 13.125,
        "G": 10.3125,
        "J": 10.421052631578947
    },
    "Actions_tfl_edges": {
        "AB": [
            12,
            52,
            33
        ],
        "BC": [
            15,
            49,
            34
        ],
        "DE": [
            15,
            38,
            45
        ],
        "GH": [
            17,
            43,
            37
        ],
        "JK": [
            14,
            47,
            35
        ],
        "LA": [
            14,
            50,
            33
        ],
        "EF": [
            13,
            37,
            47
        ],
        "HI": [
            16,
            43,
            38
        ],
        "KL": [
            12,
            51,
            33
        ],
        "CD": [
            13,
            39,
            45
        ],
        "FG": [
            16,
            46,
            35
        ],
        "IJ": [
            15,
            48,
            33
        ]
    },
    "Load_per_bus_per_stop": {
        "bus3": {
            "H": 70.52941176470588,
            "I": 72.3125,
            "J": 74.625,
            "K": 75.875,
            "L": 77.125,
            "A": 76.625,
            "B": 76.1875,
            "C": 76.625,
            "D": 76.25,
            "E": 74.6875,
            "F": 74,
            "G": 74.8125
        },
        "bus0": {
            "B": 79.29411764705883,
            "C": 80.875,
            "D": 80.875,
            "E": 80.5625,
            "F": 80.3125,
            "G": 79.625,
            "H": 79.3125,
            "I": 81.75,
            "J": 82.5,
            "K": 84.875,
            "L": 85.875,
            "A": 84.5625
        },
        "bus5": {
            "A": 83.375,
            "B": 83.625,
            "C": 83.5625,
            "D": 84.375,
            "E": 82.875,
            "F": 82.875,
            "G": 81.625,
            "H": 84.125,
            "I": 86.4375,
            "J": 87.1875,
            "K": 87.625,
            "L": 87.5625
        },
        "bus2": {
            "E": 75.82352941176471,
            "F": 75.41176470588235,
            "G": 76.25,
            "H": 77.5,
            "I": 76.375,
            "J": 78.625,
            "K": 78.6875,
            "L": 79.5625,
            "A": 79.5,
            "B": 79.125,
            "C": 79.5625,
            "D": 80.125
        },
        "bus4": {
            "K": 62.0625,
            "L": 62.125,
            "A": 62.4375,
            "B": 62.625,
            "C": 62.6875,
            "D": 63.0625,
            "E": 65.375,
            "F": 68,
            "G": 67.25,
            "H": 66.875,
            "I": 67.8125,
            "J": 65.33333333333333
        },
        "bus1": {
            "C": 75,
            "D": 76.6470588235294,
            "E": 75.82352941176471,
            "F": 77.25,
            "G": 76.125,
            "H": 79.9375,
            "I": 80.75,
            "J": 81.6875,
            "K": 81,
            "L": 78.9375,
            "A": 78.875,
            "B": 78.125
        }
    },
    "Obs_and_actions_busses": {
        "1": 87.71607403560108,
        "3": 238.656321249873,
        "0": -197.75180742662474
    },
    "Obs_and_actions_tfls": {
        "2": 52.062266247349854,
        "1": 294.04129426296964,
        "0": -256.7103332798083
    }
}