{
    "Average_holding_time": 25.465437788018434,
    "Average_holding_actions": [
        635,
        15,
        423,
        0,
        12,
        0
    ],
    "Average_travel_time_passengers": 2837.6766440119486,
    "Average_passenger_waiting_time": 336.523764250682,
    "Average_passenger_in_vehicle_time": 2501.1528797612496,
    "Average_speed_busses": 0.045208333333333336,
    "Average_experienced_crowding": 83.38649349180777,
    "Average_covariation_headway": 0.22719686622232552,
    "Average_covariation_headway_stops": {
        "K": 0.18643641722361606,
        "C": 0.17846376499005825,
        "E": 0.16549954218327692,
        "J": 0.18659779250854144,
        "A": 0.17793832200303503,
        "F": 0.1734162999636726,
        "L": 0.1625568059880995,
        "B": 0.17504216327001898,
        "G": 0.1657944791628781,
        "D": 0.16417730689112645,
        "H": 0.1650560869939365,
        "I": 0.1794952620030504
    },
    "Average_excess_waiting_time": {
        "K": 64.28815676951513,
        "C": 63.15295059686366,
        "E": 61.70248999852856,
        "J": 66.75016105594193,
        "A": 63.50118202304708,
        "F": 60.45680422655147,
        "L": 64.88324923840753,
        "B": 64.65594118995676,
        "G": 61.63067960956596,
        "D": 63.56351053118061,
        "H": 63.42432297643933,
        "I": 67.07184966134236
    },
    "Holding_per_stop": {
        "K": 34.94505494505494,
        "A": 21.666666666666668,
        "F": 25.384615384615383,
        "C": 20.10989010989011,
        "E": 22.747252747252748,
        "J": 26.666666666666668,
        "L": 27.333333333333332,
        "G": 23.406593406593405,
        "B": 24.333333333333332,
        "D": 24.666666666666668,
        "H": 24,
        "I": 30.333333333333332
    },
    "Actions_tfl_edges": {
        "BC": [
            0,
            72,
            19
        ],
        "DE": [
            0,
            74,
            17
        ],
        "EF": [
            0,
            72,
            20
        ],
        "IJ": [
            2,
            67,
            22
        ],
        "JK": [
            3,
            68,
            20
        ],
        "LA": [
            4,
            63,
            24
        ],
        "KL": [
            2,
            76,
            13
        ],
        "AB": [
            3,
            70,
            17
        ],
        "FG": [
            1,
            71,
            19
        ],
        "CD": [
            2,
            71,
            18
        ],
        "GH": [
            4,
            75,
            12
        ],
        "HI": [
            2,
            74,
            14
        ]
    },
    "Load_per_bus_per_stop": {
        "bus4": {
            "K": 71.5625,
            "L": 74.6,
            "A": 76.26666666666667,
            "B": 75.8,
            "C": 76.2,
            "D": 75.86666666666666,
            "E": 75.4,
            "F": 75.2,
            "G": 76.93333333333334,
            "H": 77.4,
            "I": 78.46666666666667,
            "J": 78.46666666666667
        },
        "bus0": {
            "C": 79.5,
            "D": 78.46666666666667,
            "E": 80.4,
            "F": 81.06666666666666,
            "G": 83.86666666666666,
            "H": 84.6,
            "I": 84.6,
            "J": 84.53333333333333,
            "K": 83.93333333333334,
            "L": 85.8,
            "A": 85,
            "B": 83.66666666666667
        },
        "bus1": {
            "E": 80.75,
            "F": 81.26666666666667,
            "G": 82.2,
            "H": 83.06666666666666,
            "I": 84.4,
            "J": 83.13333333333334,
            "K": 84.33333333333333,
            "L": 84.26666666666667,
            "A": 84.6,
            "B": 85.33333333333333,
            "C": 86.46666666666667,
            "D": 86.93333333333334
        },
        "bus3": {
            "J": 79.66666666666667,
            "K": 78.53333333333333,
            "L": 77.73333333333333,
            "A": 79,
            "B": 78.73333333333333,
            "C": 79.86666666666666,
            "D": 82.13333333333334,
            "E": 82.6,
            "F": 84.13333333333334,
            "G": 85.4,
            "H": 84.26666666666667,
            "I": 84.4
        },
        "bus5": {
            "A": 82.26666666666667,
            "B": 84.2,
            "C": 82.06666666666666,
            "D": 81.86666666666666,
            "E": 83.66666666666667,
            "F": 83.13333333333334,
            "G": 84.46666666666667,
            "H": 84.73333333333333,
            "I": 85.73333333333333,
            "J": 87.53333333333333,
            "K": 87.93333333333334,
            "L": 87.2
        },
        "bus2": {
            "F": 80.9375,
            "G": 81.125,
            "H": 83.8,
            "I": 84.6,
            "J": 85.2,
            "K": 84.2,
            "L": 86.4,
            "A": 88,
            "B": 87.53333333333333,
            "C": 88.2,
            "D": 87.06666666666666,
            "E": 85.8
        }
    },
    "Obs_and_actions_busses": {
        "0": -192.788785340149,
        "2": 76.57786597549213,
        "5": 407.2325974514902,
        "1": 242.2835536311897
    },
    "Obs_and_actions_tfls": {
        "2": 35.96839020537209,
        "1": 154.4820195496614,
        "0": 476.12257056551744
    }
}