{
    "Average_holding_time": 28.418181818181818,
    "Average_holding_actions": [
        690,
        0,
        299,
        111,
        0,
        0
    ],
    "Average_travel_time_passengers": 2782.7102482704377,
    "Average_passenger_waiting_time": 349.6888262003175,
    "Average_passenger_in_vehicle_time": 2433.021422070131,
    "Average_speed_busses": 0.04583333333333333,
    "Average_experienced_crowding": 87.25758612676411,
    "Average_covariation_headway": 0.3732416475812115,
    "Average_covariation_headway_stops": {
        "A": 0.2932632848498853,
        "B": 0.2965641010439988,
        "F": 0.3085545221184068,
        "J": 0.2958942367949118,
        "K": 0.29210475558274634,
        "I": 0.31025792020108983,
        "C": 0.28836327903440634,
        "G": 0.29703278424043567,
        "L": 0.28443156198403463,
        "D": 0.2824884402740224,
        "H": 0.30627422281269295,
        "E": 0.2944751607853911
    },
    "Average_excess_waiting_time": {
        "A": 75.34177466899501,
        "B": 73.98959246795312,
        "F": 79.74657486224231,
        "J": 77.1265823031477,
        "K": 74.9961774776259,
        "I": 81.90340562388997,
        "C": 75.53286291478867,
        "G": 79.73731198990652,
        "L": 74.93463933618335,
        "D": 75.38622268763828,
        "H": 83.6007798623645,
        "E": 79.21690969107368
    },
    "Holding_per_stop": {
        "B": 20,
        "J": 26.08695652173913,
        "K": 28.695652173913043,
        "F": 33.26086956521739,
        "A": 20.869565217391305,
        "I": 37.582417582417584,
        "C": 33.91304347826087,
        "L": 27.391304347826086,
        "G": 32.30769230769231,
        "D": 27.032967032967033,
        "H": 30.32967032967033,
        "E": 23.736263736263737
    },
    "Actions_tfl_edges": {
        "AB": [
            9,
            39,
            45
        ],
        "EF": [
            7,
            38,
            47
        ],
        "HI": [
            10,
            36,
            46
        ],
        "IJ": [
            8,
            42,
            42
        ],
        "JK": [
            11,
            39,
            43
        ],
        "LA": [
            11,
            40,
            42
        ],
        "BC": [
            10,
            37,
            46
        ],
        "KL": [
            13,
            39,
            40
        ],
        "FG": [
            9,
            30,
            53
        ],
        "CD": [
            11,
            35,
            46
        ],
        "GH": [
            8,
            31,
            52
        ],
        "DE": [
            13,
            41,
            37
        ]
    },
    "Load_per_bus_per_stop": {
        "bus5": {
            "A": 72.1875,
            "B": 75.3125,
            "C": 75.375,
            "D": 72.06666666666666,
            "E": 70.73333333333333,
            "F": 72.93333333333334,
            "G": 72.2,
            "H": 72.93333333333334,
            "I": 73.33333333333333,
            "J": 74,
            "K": 75.13333333333334,
            "L": 75.73333333333333
        },
        "bus0": {
            "B": 93.5625,
            "C": 94.3125,
            "D": 94.75,
            "E": 94.6875,
            "F": 95.0625,
            "G": 96.86666666666666,
            "H": 99.06666666666666,
            "I": 102.13333333333334,
            "J": 104.53333333333333,
            "K": 104,
            "L": 101.53333333333333,
            "A": 99.6
        },
        "bus1": {
            "F": 86.875,
            "G": 87.8125,
            "H": 87.0625,
            "I": 89.86666666666666,
            "J": 88.86666666666666,
            "K": 90.13333333333334,
            "L": 90,
            "A": 91,
            "B": 91.33333333333333,
            "C": 90.73333333333333,
            "D": 92.46666666666667,
            "E": 93.53333333333333
        },
        "bus3": {
            "J": 68.0625,
            "K": 69.25,
            "L": 70.1875,
            "A": 68.8,
            "B": 68.2,
            "C": 68.6,
            "D": 70.73333333333333,
            "E": 74.53333333333333,
            "F": 73.73333333333333,
            "G": 72.6,
            "H": 72.06666666666666,
            "I": 72.46666666666667
        },
        "bus4": {
            "K": 78.4375,
            "L": 76.0625,
            "A": 76,
            "B": 75.5625,
            "C": 76.46666666666667,
            "D": 75.46666666666667,
            "E": 76.73333333333333,
            "F": 78.66666666666667,
            "G": 78.2,
            "H": 79.93333333333334,
            "I": 82.8,
            "J": 81.93333333333334
        },
        "bus2": {
            "I": 79.25,
            "J": 79,
            "K": 80.13333333333334,
            "L": 79.4,
            "A": 81,
            "B": 80.33333333333333,
            "C": 77.73333333333333,
            "D": 78.73333333333333,
            "E": 81,
            "F": 82.06666666666666,
            "G": 84.26666666666667,
            "H": 84.6
        }
    },
    "Obs_and_actions_busses": {
        "4": 295.57126167792387,
        "0": -232.51380324162406,
        "2": 97.07258000429685
    },
    "Obs_and_actions_tfls": {
        "1": -116.94897986350003,
        "2": 297.321206554643,
        "0": 119.6042629048317
    }
}