{
    "Average_holding_time": 20.80252479711452,
    "Average_holding_actions": [
        754,
        63,
        218,
        26,
        11,
        0
    ],
    "Average_travel_time_passengers": 2745.9692440798217,
    "Average_passenger_waiting_time": 325.2906759970541,
    "Average_passenger_in_vehicle_time": 2420.678568082757,
    "Average_speed_busses": 0.04620833333333333,
    "Average_experienced_crowding": 80.41038660097189,
    "Average_covariation_headway": 0.18306472075646366,
    "Average_covariation_headway_stops": {
        "F": 0.14492942794678282,
        "J": 0.16363956005337085,
        "D": 0.15642713030575336,
        "C": 0.138036793440582,
        "B": 0.14835491808483958,
        "L": 0.13127467829530212,
        "G": 0.1314732404361997,
        "E": 0.1314830944926367,
        "A": 0.12470808524502262,
        "K": 0.1274334266331356,
        "H": 0.12419642568906243,
        "I": 0.1449545359607627
    },
    "Average_excess_waiting_time": {
        "F": 50.093969044216294,
        "J": 55.53791989102882,
        "D": 51.705226103784014,
        "C": 51.47150073789214,
        "B": 54.292520732646835,
        "L": 53.05060354942174,
        "G": 50.62388348819468,
        "E": 51.23813595557158,
        "A": 54.19390043315781,
        "K": 54.136126259448474,
        "H": 51.851830207631565,
        "I": 55.660915983131304
    },
    "Holding_per_stop": {
        "F": 26.451612903225808,
        "D": 24.516129032258064,
        "C": 23.225806451612904,
        "L": 22.5,
        "J": 22.17391304347826,
        "B": 13.695652173913043,
        "G": 25.483870967741936,
        "E": 21.29032258064516,
        "A": 6.521739130434782,
        "H": 19.565217391304348,
        "K": 25.108695652173914,
        "I": 18.91304347826087
    },
    "Actions_tfl_edges": {
        "AB": [
            11,
            63,
            19
        ],
        "BC": [
            2,
            75,
            16
        ],
        "CD": [
            7,
            70,
            17
        ],
        "EF": [
            9,
            72,
            13
        ],
        "IJ": [
            6,
            72,
            15
        ],
        "KL": [
            8,
            73,
            12
        ],
        "FG": [
            11,
            70,
            12
        ],
        "DE": [
            9,
            67,
            17
        ],
        "LA": [
            7,
            65,
            20
        ],
        "JK": [
            13,
            64,
            15
        ],
        "GH": [
            9,
            69,
            15
        ],
        "HI": [
            8,
            72,
            12
        ]
    },
    "Load_per_bus_per_stop": {
        "bus3": {
            "F": 72.4375,
            "G": 72.9375,
            "H": 72.5625,
            "I": 73.4375,
            "J": 75.625,
            "K": 76.875,
            "L": 75.73333333333333,
            "A": 76.46666666666667,
            "B": 77,
            "C": 75.93333333333334,
            "D": 77.2,
            "E": 77.4
        },
        "bus4": {
            "J": 80.6875,
            "K": 82.5625,
            "L": 83.875,
            "A": 83.625,
            "B": 84.53333333333333,
            "C": 85.33333333333333,
            "D": 86.53333333333333,
            "E": 86.53333333333333,
            "F": 86.6,
            "G": 85.93333333333334,
            "H": 85.8,
            "I": 84.46666666666667
        },
        "bus2": {
            "D": 77.6875,
            "E": 77.125,
            "F": 76.75,
            "G": 78.3125,
            "H": 81.9375,
            "I": 82.1875,
            "J": 83.6,
            "K": 82.86666666666666,
            "L": 83.93333333333334,
            "A": 84.53333333333333,
            "B": 83.4,
            "C": 84.46666666666667
        },
        "bus1": {
            "C": 76.5,
            "D": 77.625,
            "E": 78.125,
            "F": 79.5,
            "G": 78.9375,
            "H": 79.06666666666666,
            "I": 80.6,
            "J": 79.2,
            "K": 80.8,
            "L": 80.06666666666666,
            "A": 81,
            "B": 80.6
        },
        "bus0": {
            "B": 75.5,
            "C": 76.9375,
            "D": 77.375,
            "E": 76.25,
            "F": 77,
            "G": 78.06666666666666,
            "H": 80.06666666666666,
            "I": 78.73333333333333,
            "J": 78.93333333333334,
            "K": 80.4,
            "L": 79.8,
            "A": 79.2
        },
        "bus5": {
            "L": 78.625,
            "A": 77.75,
            "B": 78.1875,
            "C": 79.875,
            "D": 80.33333333333333,
            "E": 82.26666666666667,
            "F": 85.06666666666666,
            "G": 84,
            "H": 82.73333333333333,
            "I": 81.2,
            "J": 80.33333333333333,
            "K": 81.86666666666666
        }
    },
    "Obs_and_actions_busses": {
        "0": -164.49858742259687,
        "2": 61.63283404978816,
        "1": 109.3167409974138,
        "3": 137.373555956956,
        "4": 179.08947049659864,
        "5": 332.21864794762195
    },
    "Obs_and_actions_tfls": {
        "1": 192.2294103273002,
        "0": -14.935798837014284,
        "2": -90.48404617567233
    }
}