{
    "Average_holding_time": 24.721969006381038,
    "Average_holding_actions": [
        638,
        59,
        385,
        0,
        15,
        0
    ],
    "Average_travel_time_passengers": 2778.439726452039,
    "Average_passenger_waiting_time": 335.1500895766928,
    "Average_passenger_in_vehicle_time": 2443.2896368753345,
    "Average_speed_busses": 0.04570833333333333,
    "Average_experienced_crowding": 82.02700716617552,
    "Average_covariation_headway": 0.2524341726638343,
    "Average_covariation_headway_stops": {
        "B": 0.20285831404948315,
        "C": 0.22131613425680058,
        "H": 0.20656719818292288,
        "A": 0.19277613153436252,
        "K": 0.21628369904190284,
        "F": 0.2066664106080555,
        "I": 0.18209831762112894,
        "D": 0.1884945689338302,
        "G": 0.1979397323976563,
        "L": 0.18021429904128278,
        "E": 0.18047574970633287,
        "J": 0.19086014801418383
    },
    "Average_excess_waiting_time": {
        "B": 62.0107922068276,
        "C": 61.614724954567976,
        "H": 62.65563967800978,
        "A": 62.582218163264315,
        "K": 65.40256390139018,
        "F": 61.85142568529528,
        "I": 61.48867844371671,
        "D": 59.40310375109766,
        "G": 62.47986072367064,
        "L": 62.6664264800425,
        "E": 60.29988217162298,
        "J": 64.1134362309171
    },
    "Holding_per_stop": {
        "C": 29.347826086956523,
        "H": 20.869565217391305,
        "B": 24.782608695652176,
        "F": 19.891304347826086,
        "A": 17.47252747252747,
        "K": 32.637362637362635,
        "D": 20.217391304347824,
        "I": 26.043956043956044,
        "G": 23.076923076923077,
        "E": 25.384615384615383,
        "L": 30.65934065934066,
        "J": 26.373626373626372
    },
    "Actions_tfl_edges": {
        "AB": [
            3,
            68,
            21
        ],
        "BC": [
            7,
            75,
            11
        ],
        "EF": [
            4,
            68,
            20
        ],
        "GH": [
            4,
            69,
            19
        ],
        "JK": [
            6,
            66,
            20
        ],
        "LA": [
            4,
            65,
            23
        ],
        "CD": [
            4,
            70,
            18
        ],
        "HI": [
            4,
            70,
            18
        ],
        "FG": [
            8,
            67,
            17
        ],
        "KL": [
            3,
            77,
            11
        ],
        "DE": [
            4,
            70,
            18
        ],
        "IJ": [
            4,
            65,
            22
        ]
    },
    "Load_per_bus_per_stop": {
        "bus0": {
            "B": 73.875,
            "C": 74.4375,
            "D": 73.5625,
            "E": 75.8,
            "F": 74.86666666666666,
            "G": 75.86666666666666,
            "H": 76.33333333333333,
            "I": 76.93333333333334,
            "J": 74,
            "K": 74.53333333333333,
            "L": 77.4,
            "A": 77.26666666666667
        },
        "bus1": {
            "C": 80.625,
            "D": 79.1875,
            "E": 79.25,
            "F": 78.8125,
            "G": 81.1875,
            "H": 81.46666666666667,
            "I": 81.46666666666667,
            "J": 83.8,
            "K": 84.53333333333333,
            "L": 83.8,
            "A": 85,
            "B": 84.4
        },
        "bus3": {
            "H": 73.9375,
            "I": 74.25,
            "J": 76.9375,
            "K": 74.2,
            "L": 74.73333333333333,
            "A": 75.66666666666667,
            "B": 77.2,
            "C": 78.46666666666667,
            "D": 76.53333333333333,
            "E": 76.33333333333333,
            "F": 78.26666666666667,
            "G": 78.86666666666666
        },
        "bus5": {
            "A": 84.5625,
            "B": 86.25,
            "C": 83.66666666666667,
            "D": 81,
            "E": 80.66666666666667,
            "F": 81.73333333333333,
            "G": 81.4,
            "H": 83.2,
            "I": 80.93333333333334,
            "J": 83.26666666666667,
            "K": 85.93333333333334,
            "L": 87.73333333333333
        },
        "bus4": {
            "K": 75.0625,
            "L": 76.6875,
            "A": 76.06666666666666,
            "B": 75.73333333333333,
            "C": 75.26666666666667,
            "D": 76.13333333333334,
            "E": 77.53333333333333,
            "F": 78.46666666666667,
            "G": 80.33333333333333,
            "H": 79.86666666666666,
            "I": 79.46666666666667,
            "J": 79.06666666666666
        },
        "bus2": {
            "F": 83.8125,
            "G": 83.625,
            "H": 87.0625,
            "I": 89,
            "J": 88.8,
            "K": 89.13333333333334,
            "L": 88.93333333333334,
            "A": 88.26666666666667,
            "B": 89.06666666666666,
            "C": 90,
            "D": 89.4,
            "E": 90.33333333333333
        }
    },
    "Obs_and_actions_busses": {
        "2": 73.31170334472685,
        "0": -204.33053782213966,
        "1": 234.18350050534497,
        "5": 357.2103104181469
    },
    "Obs_and_actions_tfls": {
        "2": 34.15977774071093,
        "0": 464.41052459115986,
        "1": 147.38786009343121
    }
}