{
    "Average_holding_time": 19.98209489704566,
    "Average_holding_actions": [
        782,
        70,
        186,
        33,
        16,
        0
    ],
    "Average_travel_time_passengers": 2673.6017620970215,
    "Average_passenger_waiting_time": 321.8194473179695,
    "Average_passenger_in_vehicle_time": 2351.782314779046,
    "Average_speed_busses": 0.04654166666666667,
    "Average_experienced_crowding": 79.00243941239914,
    "Average_covariation_headway": 0.20038198011896766,
    "Average_covariation_headway_stops": {
        "L": 0.16450125527604087,
        "D": 0.195385479753953,
        "H": 0.16860807785449783,
        "G": 0.15138074299885523,
        "F": 0.15115891102530182,
        "J": 0.14971353815216876,
        "A": 0.15014848741438785,
        "I": 0.14559365860327775,
        "E": 0.17633095804653987,
        "K": 0.14639376115112845,
        "B": 0.14566753262141868,
        "C": 0.16721457934719616
    },
    "Average_excess_waiting_time": {
        "L": 50.55202234716472,
        "D": 57.55531752589138,
        "H": 51.18689978186126,
        "G": 51.39602046359869,
        "F": 53.4073654985163,
        "J": 49.08359815155313,
        "A": 51.11656299531808,
        "I": 50.62684420454963,
        "E": 57.1958774933903,
        "K": 50.79850024472847,
        "B": 52.60044721401897,
        "C": 56.18689700235154
    },
    "Holding_per_stop": {
        "L": 15,
        "H": 22.659574468085108,
        "G": 18.387096774193548,
        "D": 19.032258064516128,
        "F": 23.870967741935484,
        "J": 22.659574468085108,
        "A": 13.548387096774194,
        "I": 15.161290322580646,
        "K": 25.161290322580644,
        "E": 25.76086956521739,
        "B": 16.451612903225808,
        "C": 22.17391304347826
    },
    "Actions_tfl_edges": {
        "CD": [
            11,
            68,
            14
        ],
        "EF": [
            8,
            72,
            13
        ],
        "FG": [
            7,
            76,
            11
        ],
        "GH": [
            7,
            67,
            20
        ],
        "IJ": [
            11,
            71,
            12
        ],
        "KL": [
            13,
            65,
            16
        ],
        "LA": [
            12,
            62,
            20
        ],
        "HI": [
            10,
            71,
            13
        ],
        "DE": [
            10,
            67,
            16
        ],
        "JK": [
            9,
            75,
            10
        ],
        "AB": [
            9,
            65,
            19
        ],
        "BC": [
            5,
            78,
            10
        ]
    },
    "Load_per_bus_per_stop": {
        "bus5": {
            "L": 71.875,
            "A": 71.625,
            "B": 73.4375,
            "C": 75.3125,
            "D": 76,
            "E": 75.3125,
            "F": 75.4375,
            "G": 75.8,
            "H": 75.26666666666667,
            "I": 76.86666666666666,
            "J": 76.86666666666666,
            "K": 77.13333333333334
        },
        "bus0": {
            "D": 71.8125,
            "E": 71.625,
            "F": 71.5,
            "G": 72.6875,
            "H": 75,
            "I": 75.8,
            "J": 74.93333333333334,
            "K": 76.4,
            "L": 78.13333333333334,
            "A": 76.26666666666667,
            "B": 77.06666666666666,
            "C": 77.53333333333333
        },
        "bus3": {
            "H": 75.625,
            "I": 76.1875,
            "J": 76.75,
            "K": 77.5,
            "L": 77.75,
            "A": 76,
            "B": 76.75,
            "C": 75.8,
            "D": 75.46666666666667,
            "E": 75.66666666666667,
            "F": 77.2,
            "G": 78.06666666666666
        },
        "bus2": {
            "G": 77.9375,
            "H": 78.875,
            "I": 80.75,
            "J": 83.5,
            "K": 85.625,
            "L": 84.75,
            "A": 86.06666666666666,
            "B": 85.13333333333334,
            "C": 83.46666666666667,
            "D": 83.6,
            "E": 82.46666666666667,
            "F": 81.6
        },
        "bus1": {
            "F": 78.25,
            "G": 79.125,
            "H": 78.5625,
            "I": 79.625,
            "J": 80,
            "K": 80.26666666666667,
            "L": 80.53333333333333,
            "A": 80.93333333333334,
            "B": 79.33333333333333,
            "C": 80.4,
            "D": 82.06666666666666,
            "E": 83.53333333333333
        },
        "bus4": {
            "J": 80.0625,
            "K": 78.375,
            "L": 79,
            "A": 78.25,
            "B": 79.5625,
            "C": 79.375,
            "D": 81.5,
            "E": 81.66666666666667,
            "F": 83.4,
            "G": 84.53333333333333,
            "H": 85.86666666666666,
            "I": 85.53333333333333
        }
    },
    "Obs_and_actions_busses": {
        "0": -165.7985923648152,
        "2": 63.685657490543065,
        "1": 107.9880380063041,
        "4": 170.55819704512876,
        "3": 138.86725482821063,
        "5": 327.16248380009324
    },
    "Obs_and_actions_tfls": {
        "1": 193.61522294024985,
        "0": -13.474865454319236,
        "2": -95.94849029637128
    }
}