{
    "Average_holding_time": 23.312101910828027,
    "Average_holding_actions": [
        698,
        0,
        375,
        26,
        0,
        0
    ],
    "Average_travel_time_passengers": 2905.4049362023525,
    "Average_passenger_waiting_time": 414.3533147795643,
    "Average_passenger_in_vehicle_time": 2491.051621422812,
    "Average_speed_busses": 0.04579166666666667,
    "Average_experienced_crowding": 101.63338428327977,
    "Average_covariation_headway": 0.6247027155435406,
    "Average_covariation_headway_stops": {
        "C": 0.537949414941641,
        "A": 0.5217634713316328,
        "K": 0.5250323903809444,
        "E": 0.5203386586905216,
        "B": 0.5216511208026544,
        "L": 0.5257666378864934,
        "D": 0.5302390706980283,
        "F": 0.5075989425991474,
        "G": 0.5057650983378685,
        "H": 0.5119855518759054,
        "I": 0.515258438439502,
        "J": 0.5349466753195187
    },
    "Average_excess_waiting_time": {
        "C": 138.38992345402409,
        "A": 136.89617209847637,
        "K": 143.04067017391867,
        "E": 130.42328258522457,
        "B": 134.92181920175318,
        "L": 140.95832320594366,
        "D": 135.817873389898,
        "F": 128.6950238153836,
        "G": 130.8024074993234,
        "H": 134.98065571371689,
        "I": 138.7566054602657,
        "J": 150.48717985767365
    },
    "Holding_per_stop": {
        "C": 22.580645161290324,
        "E": 26.451612903225808,
        "A": 24.130434782608695,
        "B": 18.91304347826087,
        "L": 25.714285714285715,
        "K": 26,
        "D": 20.869565217391305,
        "F": 24.782608695652176,
        "G": 23.47826086956522,
        "H": 23.076923076923077,
        "I": 19.78021978021978,
        "J": 24
    },
    "Actions_tfl_edges": {
        "AB": [
            27,
            38,
            28
        ],
        "BC": [
            21,
            41,
            31
        ],
        "DE": [
            30,
            28,
            35
        ],
        "JK": [
            24,
            40,
            27
        ],
        "KL": [
            24,
            33,
            34
        ],
        "LA": [
            28,
            29,
            35
        ],
        "CD": [
            27,
            28,
            37
        ],
        "EF": [
            30,
            31,
            32
        ],
        "FG": [
            33,
            30,
            29
        ],
        "GH": [
            32,
            27,
            33
        ],
        "HI": [
            34,
            28,
            29
        ],
        "IJ": [
            28,
            34,
            29
        ]
    },
    "Load_per_bus_per_stop": {
        "bus1": {
            "C": 49.0625,
            "D": 49.1875,
            "E": 50.125,
            "F": 49.6875,
            "G": 50.25,
            "H": 49.86666666666667,
            "I": 51,
            "J": 51.266666666666666,
            "K": 51.86666666666667,
            "L": 52.86666666666667,
            "A": 52.666666666666664,
            "B": 52.666666666666664
        },
        "bus5": {
            "A": 87.125,
            "B": 87,
            "C": 88.1875,
            "D": 89.8,
            "E": 91,
            "F": 93.33333333333333,
            "G": 91.2,
            "H": 91.4,
            "I": 94,
            "J": 93.2,
            "K": 93.4,
            "L": 92.13333333333334
        },
        "bus3": {
            "K": 84.2,
            "L": 86.93333333333334,
            "A": 88.73333333333333,
            "B": 88.4,
            "C": 88.2,
            "D": 89.2,
            "E": 90.2,
            "F": 89.93333333333334,
            "G": 89.26666666666667,
            "H": 90.93333333333334,
            "I": 91.26666666666667,
            "J": 90.53333333333333
        },
        "bus2": {
            "E": 85.3125,
            "F": 86.1875,
            "G": 89.375,
            "H": 89.4375,
            "I": 89.4375,
            "J": 94.46666666666667,
            "K": 94.8,
            "L": 92.8,
            "A": 93.86666666666666,
            "B": 92.93333333333334,
            "C": 91.73333333333333,
            "D": 90.6
        },
        "bus0": {
            "B": 60.3125,
            "C": 62.8125,
            "D": 63.1875,
            "E": 64.375,
            "F": 63.6875,
            "G": 61.06666666666667,
            "H": 62.6,
            "I": 62.46666666666667,
            "J": 63.4,
            "K": 63.4,
            "L": 63.46666666666667,
            "A": 64.26666666666667
        },
        "bus4": {
            "L": 103.625,
            "A": 103.4375,
            "B": 105.53333333333333,
            "C": 105.33333333333333,
            "D": 104.6,
            "E": 105.86666666666666,
            "F": 107.13333333333334,
            "G": 108.53333333333333,
            "H": 108.93333333333334,
            "I": 111.13333333333334,
            "J": 109.66666666666667,
            "K": 108.73333333333333
        }
    },
    "Obs_and_actions_busses": {
        "0": -311.8841140505453,
        "2": 238.63471831734248,
        "4": 986.5570648675713
    },
    "Obs_and_actions_tfls": {
        "1": 134.2752269821709,
        "0": -322.09642587777586,
        "2": 419.24694714492466
    }
}