{
    "Average_holding_time": 72.75815217391305,
    "Average_holding_actions": [
        345,
        16,
        0,
        106,
        269,
        0
    ],
    "Average_travel_time_passengers": 4743.43304671358,
    "Average_passenger_waiting_time": 1096.1769363467238,
    "Average_passenger_in_vehicle_time": 3647.2561103669677,
    "Average_speed_busses": 0.030666666666666665,
    "Average_experienced_crowding": 280.39132856771954,
    "Average_covariation_headway": 1.3796385023842428,
    "Average_covariation_headway_stops": {
        "J": 1.2021407127929404,
        "L": 1.225551336824516,
        "C": 1.1600160688664527,
        "H": 1.195685103008019,
        "B": 1.1662440070849422,
        "G": 1.1745855480779355,
        "K": 1.2067937049863802,
        "A": 1.2441868632733406,
        "I": 1.1916706842765274,
        "D": 1.1598216783014144,
        "E": 1.151269871623516,
        "F": 1.1589947350150074
    },
    "Average_excess_waiting_time": {
        "J": 864.8424184048463,
        "L": 884.3389228544374,
        "C": 804.833511401094,
        "H": 857.4351753679173,
        "B": 888.7647681869287,
        "G": 842.9214363820881,
        "K": 875.5915450054708,
        "A": 921.2473223872655,
        "I": 862.6656389735635,
        "D": 813.459935350282,
        "E": 814.872993727708,
        "F": 833.9514600310083
    },
    "Holding_per_stop": {
        "J": 73.80952380952381,
        "L": 67.61904761904762,
        "H": 77.41935483870968,
        "B": 69.66101694915254,
        "C": 73.5,
        "G": 73.77049180327869,
        "K": 73.80952380952381,
        "A": 56.19047619047619,
        "I": 77.41935483870968,
        "D": 71,
        "E": 83.5,
        "F": 76
    },
    "Actions_tfl_edges": {
        "AB": [
            13,
            36,
            15
        ],
        "BC": [
            21,
            26,
            13
        ],
        "FG": [
            19,
            36,
            6
        ],
        "GH": [
            17,
            40,
            5
        ],
        "IJ": [
            19,
            38,
            6
        ],
        "KL": [
            21,
            35,
            8
        ],
        "JK": [
            19,
            36,
            8
        ],
        "LA": [
            19,
            38,
            6
        ],
        "HI": [
            17,
            41,
            4
        ],
        "CD": [
            20,
            30,
            10
        ],
        "DE": [
            15,
            33,
            12
        ],
        "EF": [
            14,
            40,
            6
        ]
    },
    "Load_per_bus_per_stop": {
        "bus4": {
            "J": 9.363636363636363,
            "K": 9.454545454545455,
            "L": 9.727272727272727,
            "A": 10.181818181818182,
            "B": 11.2,
            "C": 12.2,
            "D": 12.2,
            "E": 12.2,
            "F": 12,
            "G": 12.1,
            "H": 11.1,
            "I": 11.1
        },
        "bus5": {
            "L": 6.636363636363637,
            "A": 7.181818181818182,
            "B": 7.8,
            "C": 8.4,
            "D": 10.9,
            "E": 11.1,
            "F": 10.7,
            "G": 10.1,
            "H": 9.4,
            "I": 8.3,
            "J": 8.2,
            "K": 7.8
        },
        "bus1": {
            "C": 308.2,
            "D": 315.9,
            "E": 320.2,
            "F": 325.9,
            "G": 332.6,
            "H": 333.3,
            "I": 338.4,
            "J": 345.2,
            "K": 349.6,
            "L": 355.6,
            "A": 359.5,
            "B": 356.2
        },
        "bus3": {
            "H": 59.54545454545455,
            "I": 59.90909090909091,
            "J": 60,
            "K": 60.36363636363637,
            "L": 61.72727272727273,
            "A": 62.18181818181818,
            "B": 68.2,
            "C": 68.5,
            "D": 67.3,
            "E": 65.8,
            "F": 64.6,
            "G": 65.3
        },
        "bus0": {
            "B": 25.5,
            "C": 26.5,
            "D": 28.6,
            "E": 29.5,
            "F": 30.2,
            "G": 31,
            "H": 31.7,
            "I": 31.6,
            "J": 31.6,
            "K": 30.9,
            "L": 30.8,
            "A": 30.4
        },
        "bus2": {
            "G": 249.1818181818182,
            "H": 253.0909090909091,
            "I": 254.45454545454547,
            "J": 254.0909090909091,
            "K": 250.1818181818182,
            "L": 251.27272727272728,
            "A": 259.7,
            "B": 263.2,
            "C": 265.9,
            "D": 270.4,
            "E": 271.7,
            "F": 271.4
        }
    },
    "Obs_and_actions_busses": {
        "0": -6.4432192172719995,
        "5": 953.0157555161129,
        "1": 238.30450431709207,
        "4": -2057.9334635158734
    },
    "Obs_and_actions_tfls": {
        "2": 403.63979361522746,
        "0": -887.4563032696642,
        "1": 479.22876682768594
    }
}  "C": 34.111111111111114,
            "D": 33.44444444444444,
            "E": 36.625,
            "F": 34.375,
            "G": 33.375
        }
    },
    "Obs_and_actions_busses": {
        "5": 1641.434965933284,
        "1": 243.78765768315085,
        "0": -11.664407215331059,
        "4": -2979.7965247312886
    },
    "Obs_and_actions_tfls": {
        "1": 450.9956855452768,
        "0": -2449.5055374881276,
        "2": 2132.9125145930257
    }
}