{
    "Average_holding_time": 32.36176194939082,
    "Average_holding_actions": [
        505,
        392,
        0,
        91,
        79,
        0
    ],
    "Average_travel_time_passengers": 2847.891471894372,
    "Average_passenger_waiting_time": 358.8323978327503,
    "Average_passenger_in_vehicle_time": 2489.059074061657,
    "Average_speed_busses": 0.044458333333333336,
    "Average_experienced_crowding": 88.7933673336245,
    "Average_covariation_headway": 0.3335125569745772,
    "Average_covariation_headway_stops": {
        "F": 0.3072392304804567,
        "C": 0.3426974367498987,
        "D": 0.33680816244920414,
        "H": 0.2800512324232121,
        "G": 0.3067059688100745,
        "B": 0.3515886487817159,
        "E": 0.3193865617155015,
        "I": 0.270771101777806,
        "J": 0.2512316095607531,
        "K": 0.25977043632416885,
        "L": 0.274139125571518,
        "A": 0.30028039138399654
    },
    "Average_excess_waiting_time": {
        "F": 88.46740136291044,
        "C": 98.03797018859478,
        "D": 94.57348105597185,
        "H": 79.96450854584566,
        "G": 86.68121733169119,
        "B": 101.97244931147617,
        "E": 92.52553950934043,
        "I": 80.42718675101571,
        "J": 80.86446682080879,
        "K": 82.71837183080004,
        "L": 87.40830554515333,
        "A": 94.15489943801111
    },
    "Holding_per_stop": {
        "D": 31.01123595505618,
        "C": 36.40449438202247,
        "H": 29,
        "G": 34,
        "F": 34.71910112359551,
        "B": 27.954545454545453,
        "E": 36.06741573033708,
        "I": 44.333333333333336,
        "J": 33.03370786516854,
        "K": 30,
        "L": 30.681818181818183,
        "A": 20.795454545454547
    },
    "Actions_tfl_edges": {
        "AB": [
            33,
            40,
            16
        ],
        "BC": [
            37,
            39,
            13
        ],
        "CD": [
            41,
            41,
            8
        ],
        "EF": [
            35,
            43,
            12
        ],
        "FG": [
            40,
            38,
            12
        ],
        "GH": [
            39,
            40,
            12
        ],
        "DE": [
            37,
            39,
            13
        ],
        "HI": [
            37,
            39,
            14
        ],
        "IJ": [
            28,
            49,
            13
        ],
        "JK": [
            28,
            48,
            13
        ],
        "KL": [
            25,
            49,
            14
        ],
        "LA": [
            23,
            48,
            17
        ]
    },
    "Load_per_bus_per_stop": {
        "bus3": {
            "F": 74.53333333333333,
            "G": 75.06666666666666,
            "H": 76.66666666666667,
            "I": 76.86666666666666,
            "J": 77.66666666666667,
            "K": 77.2,
            "L": 78.93333333333334,
            "A": 80.33333333333333,
            "B": 79.33333333333333,
            "C": 80.4,
            "D": 79.33333333333333,
            "E": 78.35714285714286
        },
        "bus1": {
            "C": 86.53333333333333,
            "D": 87.26666666666667,
            "E": 87.33333333333333,
            "F": 86.53333333333333,
            "G": 89.2,
            "H": 90.4,
            "I": 90.86666666666666,
            "J": 90,
            "K": 87.92857142857143,
            "L": 89.5,
            "A": 90.64285714285714,
            "B": 90.78571428571429
        },
        "bus2": {
            "D": 83.26666666666667,
            "E": 82.26666666666667,
            "F": 79.4,
            "G": 79.26666666666667,
            "H": 80.06666666666666,
            "I": 82.53333333333333,
            "J": 84.2,
            "K": 85.93333333333334,
            "L": 85.2,
            "A": 85.4,
            "B": 85.21428571428571,
            "C": 85.92857142857143
        },
        "bus5": {
            "H": 83.2,
            "I": 85.46666666666667,
            "J": 86.86666666666666,
            "K": 87.46666666666667,
            "L": 88.86666666666666,
            "A": 88,
            "B": 89.2,
            "C": 90.86666666666666,
            "D": 93.2,
            "E": 92.53333333333333,
            "F": 91.33333333333333,
            "G": 91
        },
        "bus4": {
            "G": 70.33333333333333,
            "H": 72.53333333333333,
            "I": 72.73333333333333,
            "J": 73.46666666666667,
            "K": 73.06666666666666,
            "L": 70.93333333333334,
            "A": 71.53333333333333,
            "B": 73.06666666666666,
            "C": 73.33333333333333,
            "D": 73.6,
            "E": 74.73333333333333,
            "F": 74.14285714285714
        },
        "bus0": {
            "B": 92.86666666666666,
            "C": 91.06666666666666,
            "D": 90.93333333333334,
            "E": 91.4,
            "F": 93.2,
            "G": 93.73333333333333,
            "H": 94.46666666666667,
            "I": 94.86666666666666,
            "J": 98.5,
            "K": 98.07142857142857,
            "L": 96.78571428571429,
            "A": 98.28571428571429
        }
    },
    "Obs_and_actions_busses": {
        "1": 50.8543286899165,
        "0": -297.49153179278954,
        "5": 347.0130586969527,
        "4": 155.10540643593572
    },
    "Obs_and_actions_tfls": {
        "0": 322.93933625311126,
        "1": -79.75870216251988,
        "2": 161.77378622523418
    }
}