{
    "Average_holding_time": 20.61482820976492,
    "Average_holding_actions": [
        704,
        198,
        127,
        77,
        0,
        0
    ],
    "Average_travel_time_passengers": 2757.4046233990985,
    "Average_passenger_waiting_time": 332.6901478607493,
    "Average_passenger_in_vehicle_time": 2424.714475538365,
    "Average_speed_busses": 0.04608333333333333,
    "Average_experienced_crowding": 81.55404199777918,
    "Average_covariation_headway": 0.28237004746691996,
    "Average_covariation_headway_stops": {
        "C": 0.21420904268327126,
        "K": 0.22271886407778016,
        "A": 0.20661809254023863,
        "E": 0.23297742063923624,
        "D": 0.21342577590297376,
        "H": 0.22255503880785593,
        "I": 0.21671770210844157,
        "B": 0.2085109884515576,
        "F": 0.2122716520545962,
        "L": 0.21034593459984938,
        "J": 0.1951979002058452,
        "G": 0.209469314917877
    },
    "Average_excess_waiting_time": {
        "C": 62.77919194288768,
        "K": 64.1658037506881,
        "A": 62.58017541943502,
        "E": 61.74953532927498,
        "D": 60.60558741862786,
        "H": 61.91072399626091,
        "I": 62.78465504501543,
        "B": 64.01788891612267,
        "F": 60.311763986150936,
        "L": 64.01300773720186,
        "J": 61.83063793397389,
        "G": 61.829823667884966
    },
    "Holding_per_stop": {
        "A": 12.065217391304348,
        "D": 21.612903225806452,
        "E": 26.774193548387096,
        "H": 20,
        "K": 23.47826086956522,
        "C": 22.5,
        "I": 17.934782608695652,
        "B": 19.45054945054945,
        "F": 19.677419354838708,
        "L": 24.395604395604394,
        "J": 19.23913043478261,
        "G": 20.217391304347824
    },
    "Actions_tfl_edges": {
        "BC": [
            0,
            92,
            0
        ],
        "CD": [
            0,
            93,
            0
        ],
        "DE": [
            0,
            94,
            0
        ],
        "GH": [
            0,
            93,
            0
        ],
        "JK": [
            0,
            93,
            0
        ],
        "LA": [
            0,
            92,
            0
        ],
        "AB": [
            0,
            92,
            0
        ],
        "EF": [
            0,
            93,
            0
        ],
        "HI": [
            0,
            93,
            0
        ],
        "KL": [
            0,
            92,
            0
        ],
        "IJ": [
            0,
            92,
            0
        ],
        "FG": [
            0,
            93,
            0
        ]
    },
    "Load_per_bus_per_stop": {
        "bus0": {
            "C": 71.0625,
            "D": 72,
            "E": 73.9375,
            "F": 74.1875,
            "G": 75.8,
            "H": 75.13333333333334,
            "I": 76.86666666666666,
            "J": 78.2,
            "K": 77,
            "L": 76.66666666666667,
            "A": 74.6,
            "B": 75.66666666666667
        },
        "bus4": {
            "K": 80.3125,
            "L": 80.125,
            "A": 79.875,
            "B": 80.6,
            "C": 82.6,
            "D": 85.66666666666667,
            "E": 86.06666666666666,
            "F": 88.06666666666666,
            "G": 89,
            "H": 86.66666666666667,
            "I": 85.26666666666667,
            "J": 84.2
        },
        "bus5": {
            "A": 80.0625,
            "B": 81.9375,
            "C": 80.1875,
            "D": 82.5,
            "E": 80.4,
            "F": 81.26666666666667,
            "G": 81.86666666666666,
            "H": 83.86666666666666,
            "I": 86.86666666666666,
            "J": 86.2,
            "K": 87.26666666666667,
            "L": 85.33333333333333
        },
        "bus2": {
            "E": 77.75,
            "F": 79.1875,
            "G": 79.5,
            "H": 79.5,
            "I": 78.125,
            "J": 79.1875,
            "K": 80.66666666666667,
            "L": 79.8,
            "A": 80.93333333333334,
            "B": 81.93333333333334,
            "C": 81.26666666666667,
            "D": 80.53333333333333
        },
        "bus1": {
            "D": 70.125,
            "E": 69.5625,
            "F": 70.4375,
            "G": 70.3125,
            "H": 71.1875,
            "I": 70.6,
            "J": 71.93333333333334,
            "K": 74.33333333333333,
            "L": 74.4,
            "A": 75,
            "B": 75.8,
            "C": 76.4
        },
        "bus3": {
            "H": 78.9375,
            "I": 79.875,
            "J": 79,
            "K": 78.6875,
            "L": 80,
            "A": 80.66666666666667,
            "B": 83.26666666666667,
            "C": 82.66666666666667,
            "D": 83.2,
            "E": 83.6,
            "F": 83.73333333333333,
            "G": 84.26666666666667
        }
    },
    "Obs_and_actions_busses": {
        "4": 235.20208220248895,
        "0": -217.3055965744311,
        "2": 121.88544210802569,
        "1": 58.3535590866713
    },
    "Obs_and_actions_tfls": {
        "1": 115.24417190628851
    }
}: 58.9344551734086,
        "4": 261.8989612355777,
        "2": 122.13170168787,
        "0": -218.38716511828162
    },
    "Obs_and_actions_tfls": {
        "1": 115.82706635527894
    }
}      "1": 116.85257743520913
    }
}