{
    "Average_holding_time": 13.797909407665506,
    "Average_holding_actions": [
        852,
        188,
        0,
        0,
        8,
        0
    ],
    "Average_travel_time_passengers": 2651.2532181108045,
    "Average_passenger_waiting_time": 321.8066767410036,
    "Average_passenger_in_vehicle_time": 2329.4465413698044,
    "Average_speed_busses": 0.04783333333333333,
    "Average_experienced_crowding": 80.48174528503982,
    "Average_covariation_headway": 0.3321423606088007,
    "Average_covariation_headway_stops": {
        "K": 0.24686035610331233,
        "B": 0.2693494593568488,
        "F": 0.2381847064906943,
        "I": 0.2378692394406149,
        "D": 0.24046910468169647,
        "H": 0.2298003498364984,
        "L": 0.22753376520892352,
        "E": 0.222450876963588,
        "J": 0.22991662927156656,
        "C": 0.2452970580259442,
        "G": 0.23271094501968054,
        "A": 0.23802142648251448
    },
    "Average_excess_waiting_time": {
        "K": 52.913905374423166,
        "B": 57.21991990416387,
        "F": 52.269616615381494,
        "I": 51.591195875411756,
        "D": 52.84877973856635,
        "H": 51.992682526603176,
        "L": 51.73525484711632,
        "E": 51.53653736193024,
        "J": 52.20260390679101,
        "C": 54.77012371237038,
        "G": 53.51027527698943,
        "A": 54.53425864320741
    },
    "Holding_per_stop": {
        "K": 16.25,
        "B": 15,
        "F": 15.3125,
        "D": 14.6875,
        "I": 12.5,
        "H": 9.0625,
        "L": 15,
        "C": 13.578947368421053,
        "J": 12.5,
        "E": 14.210526315789474,
        "G": 15.157894736842104,
        "A": 12.31578947368421
    },
    "Actions_tfl_edges": {
        "AB": [
            18,
            44,
            34
        ],
        "CD": [
            16,
            40,
            40
        ],
        "EF": [
            14,
            43,
            39
        ],
        "GH": [
            16,
            47,
            33
        ],
        "HI": [
            14,
            49,
            34
        ],
        "JK": [
            12,
            49,
            36
        ],
        "KL": [
            11,
            46,
            39
        ],
        "BC": [
            19,
            45,
            32
        ],
        "FG": [
            14,
            43,
            39
        ],
        "DE": [
            14,
            45,
            37
        ],
        "IJ": [
            13,
            51,
            32
        ],
        "LA": [
            16,
            41,
            39
        ]
    },
    "Load_per_bus_per_stop": {
        "bus5": {
            "K": 76,
            "L": 78.875,
            "A": 80.8125,
            "B": 81.3125,
            "C": 81.1875,
            "D": 78.8125,
            "E": 78.375,
            "F": 78.5,
            "G": 80.375,
            "H": 82.6875,
            "I": 83,
            "J": 81.625
        },
        "bus0": {
            "B": 73,
            "C": 74.25,
            "D": 73.625,
            "E": 71.375,
            "F": 73.25,
            "G": 76,
            "H": 76.625,
            "I": 75.5625,
            "J": 78.125,
            "K": 77.5625,
            "L": 77.875,
            "A": 77.73333333333333
        },
        "bus2": {
            "F": 74.125,
            "G": 75.625,
            "H": 76.0625,
            "I": 75.9375,
            "J": 75.25,
            "K": 76.0625,
            "L": 77.4375,
            "A": 79.125,
            "B": 80.0625,
            "C": 77.9375,
            "D": 79.625,
            "E": 78.73333333333333
        },
        "bus4": {
            "I": 87.5625,
            "J": 88.0625,
            "K": 88.625,
            "L": 88.5625,
            "A": 89.375,
            "B": 90,
            "C": 91.1875,
            "D": 92.3125,
            "E": 93.4375,
            "F": 93.1875,
            "G": 90.125,
            "H": 90.875
        },
        "bus1": {
            "D": 62.1875,
            "E": 63.6875,
            "F": 65.25,
            "G": 64.9375,
            "H": 64.0625,
            "I": 65.3125,
            "J": 65.4375,
            "K": 66.875,
            "L": 68.4375,
            "A": 68.9375,
            "B": 70.375,
            "C": 69.9375
        },
        "bus3": {
            "H": 74.3125,
            "I": 73.1875,
            "J": 74.75,
            "K": 74.375,
            "L": 75.5,
            "A": 75.875,
            "B": 76.1875,
            "C": 76.8125,
            "D": 77.9375,
            "E": 79,
            "F": 77.8125,
            "G": 79.2
        }
    },
    "Obs_and_actions_busses": {
        "0": -194.82117178291952,
        "3": 219.3722983369573,
        "1": 88.12102321443611,
        "5": 456.22235201209776
    },
    "Obs_and_actions_tfls": {
        "1": 296.3328265927387,
        "2": 54.25387620025538,
        "0": -239.2378177996992
    }
}0": -264.3903436853817,
        "1": 308.92647821033324,
        "2": 44.76629388948132
    }
}