{
    "Average_holding_time": 17.056672760511884,
    "Average_holding_actions": [
        958,
        0,
        0,
        58,
        78,
        0
    ],
    "Average_travel_time_passengers": 2798.083200791623,
    "Average_passenger_waiting_time": 367.91831225811035,
    "Average_passenger_in_vehicle_time": 2430.1648885334907,
    "Average_speed_busses": 0.04558333333333333,
    "Average_experienced_crowding": 90.20789854974672,
    "Average_covariation_headway": 0.5088290787740326,
    "Average_covariation_headway_stops": {
        "F": 0.36392283426381794,
        "J": 0.39247481460992095,
        "D": 0.38158590722203,
        "H": 0.3849290891038499,
        "I": 0.3863848856962968,
        "A": 0.37727901498596295,
        "K": 0.38477047825153526,
        "G": 0.3512066072865739,
        "B": 0.37016368265957383,
        "E": 0.3785090921728738,
        "L": 0.3783994177376471,
        "C": 0.3868446062869443
    },
    "Average_excess_waiting_time": {
        "F": 95.49964019749393,
        "J": 95.67667132309651,
        "D": 100.4948869222493,
        "H": 99.63550154929322,
        "I": 96.49946853790578,
        "A": 93.82033389092214,
        "K": 96.25962149234056,
        "G": 93.5621784924324,
        "B": 93.8344366427201,
        "E": 100.71358211877293,
        "L": 96.3795750991602,
        "C": 100.71601020723375
    },
    "Holding_per_stop": {
        "F": 18.46153846153846,
        "J": 22.82608695652174,
        "A": 9.782608695652174,
        "H": 15.164835164835164,
        "I": 23.076923076923077,
        "D": 18.46153846153846,
        "K": 21.52173913043478,
        "B": 11.73913043478261,
        "G": 8,
        "E": 25.666666666666668,
        "L": 16.483516483516482,
        "C": 13.516483516483516
    },
    "Actions_tfl_edges": {
        "CD": [
            0,
            86,
            6
        ],
        "EF": [
            0,
            86,
            5
        ],
        "GH": [
            0,
            87,
            4
        ],
        "HI": [
            0,
            87,
            5
        ],
        "IJ": [
            0,
            87,
            5
        ],
        "LA": [
            0,
            86,
            6
        ],
        "FG": [
            0,
            87,
            4
        ],
        "JK": [
            0,
            87,
            5
        ],
        "AB": [
            0,
            86,
            6
        ],
        "DE": [
            0,
            87,
            4
        ],
        "KL": [
            0,
            89,
            3
        ],
        "BC": [
            0,
            86,
            6
        ]
    },
    "Load_per_bus_per_stop": {
        "bus1": {
            "F": 86.625,
            "G": 84.6,
            "H": 84.6,
            "I": 86.53333333333333,
            "J": 87.06666666666666,
            "K": 88.86666666666666,
            "L": 88.26666666666667,
            "A": 89.2,
            "B": 91.26666666666667,
            "C": 91.73333333333333,
            "D": 90.93333333333334,
            "E": 92.6
        },
        "bus4": {
            "J": 74.875,
            "K": 75.0625,
            "L": 74.625,
            "A": 75.5,
            "B": 75.5,
            "C": 77.6,
            "D": 76.53333333333333,
            "E": 75.46666666666667,
            "F": 75.6,
            "G": 74.86666666666666,
            "H": 76.26666666666667,
            "I": 76.6
        },
        "bus0": {
            "D": 97.8125,
            "E": 96.86666666666666,
            "F": 100.2,
            "G": 99.46666666666667,
            "H": 103.2,
            "I": 105.86666666666666,
            "J": 107.8,
            "K": 106.93333333333334,
            "L": 106.53333333333333,
            "A": 106.13333333333334,
            "B": 106.2,
            "C": 105.73333333333333
        },
        "bus2": {
            "H": 70.5625,
            "I": 67.46666666666667,
            "J": 66,
            "K": 66.93333333333334,
            "L": 67.13333333333334,
            "A": 70.06666666666666,
            "B": 71.4,
            "C": 75.46666666666667,
            "D": 74.73333333333333,
            "E": 75.06666666666666,
            "F": 75.26666666666667,
            "G": 76.46666666666667
        },
        "bus3": {
            "I": 59.5625,
            "J": 59.125,
            "K": 59.1875,
            "L": 55.666666666666664,
            "A": 56.6,
            "B": 58.266666666666666,
            "C": 59.6,
            "D": 60.86666666666667,
            "E": 62.13333333333333,
            "F": 61.733333333333334,
            "G": 63,
            "H": 62.93333333333333
        },
        "bus5": {
            "A": 83.3125,
            "B": 82.3125,
            "C": 81.625,
            "D": 88,
            "E": 90.6,
            "F": 90.86666666666666,
            "G": 88.6,
            "H": 89.86666666666666,
            "I": 88.4,
            "J": 87.86666666666666,
            "K": 88,
            "L": 90.13333333333334
        }
    },
    "Obs_and_actions_busses": {
        "0": -180.10799395161845,
        "5": 260.8404513084753,
        "4": 418.9626627023669
    },
    "Obs_and_actions_tfls": {
        "1": 146.9876939294153,
        "2": -618.0009070204487
    }
}