{
    "Average_holding_time": 17.877984084880637,
    "Average_holding_actions": [
        794,
        0,
        337,
        0,
        0,
        0
    ],
    "Average_travel_time_passengers": 2703.3515485741286,
    "Average_passenger_waiting_time": 335.06018010387953,
    "Average_passenger_in_vehicle_time": 2368.29136847025,
    "Average_speed_busses": 0.047125,
    "Average_experienced_crowding": 82.4622643049668,
    "Average_covariation_headway": 0.36090442635822584,
    "Average_covariation_headway_stops": {
        "C": 0.2682630640526406,
        "L": 0.267619225904678,
        "E": 0.26915728729980803,
        "G": 0.26542649018630715,
        "J": 0.2749860869700041,
        "D": 0.273950005856883,
        "F": 0.2768430934471086,
        "A": 0.25826628801139706,
        "H": 0.26641051285203726,
        "K": 0.2592664589699659,
        "B": 0.25426779900621044,
        "I": 0.273234958236218
    },
    "Average_excess_waiting_time": {
        "C": 64.1307661495216,
        "L": 61.46650955345069,
        "E": 61.6112379263638,
        "G": 60.06989781678101,
        "J": 63.108678524195,
        "D": 63.12551062582094,
        "F": 63.26371457323722,
        "A": 62.087813505215365,
        "H": 61.72800547415295,
        "K": 62.22968277921427,
        "B": 63.20406344929688,
        "I": 64.76529581889963
    },
    "Holding_per_stop": {
        "L": 26.526315789473685,
        "E": 18.31578947368421,
        "G": 15.157894736842104,
        "J": 17.23404255319149,
        "D": 19.78723404255319,
        "C": 16.595744680851062,
        "F": 19.78723404255319,
        "A": 15.319148936170214,
        "H": 14.680851063829786,
        "K": 22.340425531914892,
        "B": 14.042553191489361,
        "I": 14.680851063829786
    },
    "Actions_tfl_edges": {
        "BC": [
            35,
            28,
            31
        ],
        "CD": [
            34,
            28,
            33
        ],
        "DE": [
            30,
            29,
            36
        ],
        "FG": [
            38,
            25,
            32
        ],
        "IJ": [
            29,
            33,
            33
        ],
        "KL": [
            37,
            25,
            33
        ],
        "LA": [
            33,
            25,
            36
        ],
        "EF": [
            30,
            32,
            33
        ],
        "GH": [
            40,
            24,
            31
        ],
        "JK": [
            23,
            34,
            37
        ],
        "AB": [
            35,
            19,
            40
        ],
        "HI": [
            37,
            24,
            33
        ]
    },
    "Load_per_bus_per_stop": {
        "bus0": {
            "C": 75.5625,
            "D": 77.375,
            "E": 78.5625,
            "F": 81.625,
            "G": 81.375,
            "H": 81.5,
            "I": 81.75,
            "J": 82.5625,
            "K": 81.33333333333333,
            "L": 82,
            "A": 80.4,
            "B": 79.8
        },
        "bus5": {
            "L": 79.5625,
            "A": 80.8125,
            "B": 83,
            "C": 83.6875,
            "D": 83.0625,
            "E": 85.5,
            "F": 87.375,
            "G": 87.75,
            "H": 85.8125,
            "I": 85.2,
            "J": 86.46666666666667,
            "K": 85.4
        },
        "bus2": {
            "E": 70.75,
            "F": 70.1875,
            "G": 69.8125,
            "H": 69.375,
            "I": 70.5,
            "J": 70.375,
            "K": 72.6875,
            "L": 74.3125,
            "A": 75.6875,
            "B": 75.6875,
            "C": 75.86666666666666,
            "D": 75.93333333333334
        },
        "bus3": {
            "G": 81.625,
            "H": 83.1875,
            "I": 84,
            "J": 86.5625,
            "K": 87.125,
            "L": 87.5,
            "A": 87.5625,
            "B": 87.5625,
            "C": 85.6875,
            "D": 85.0625,
            "E": 86.13333333333334,
            "F": 87.66666666666667
        },
        "bus4": {
            "J": 73.5625,
            "K": 77,
            "L": 77.125,
            "A": 76.625,
            "B": 78.5,
            "C": 80.8125,
            "D": 82.5625,
            "E": 82.125,
            "F": 80.2,
            "G": 78.26666666666667,
            "H": 80.8,
            "I": 80.4
        },
        "bus1": {
            "D": 68.6875,
            "E": 68.125,
            "F": 69.9375,
            "G": 69.8125,
            "H": 70,
            "I": 70.3125,
            "J": 70.4375,
            "K": 69.5625,
            "L": 70.625,
            "A": 71.93333333333334,
            "B": 69.93333333333334,
            "C": 69.73333333333333
        }
    },
    "Obs_and_actions_busses": {
        "2": 187.2491690849688,
        "0": -227.06596767289236
    },
    "Obs_and_actions_tfls": {
        "2": 360.2362094994303,
        "1": 107.91072245866566,
        "0": -113.03102624615181
    }
}