{
    "Average_holding_time": 27.95640326975477,
    "Average_holding_actions": [
        702,
        0,
        285,
        114,
        0,
        0
    ],
    "Average_travel_time_passengers": 2788.2868697650356,
    "Average_passenger_waiting_time": 342.244269393754,
    "Average_passenger_in_vehicle_time": 2446.042600371291,
    "Average_speed_busses": 0.045875,
    "Average_experienced_crowding": 86.25023314508427,
    "Average_covariation_headway": 0.384378333420322,
    "Average_covariation_headway_stops": {
        "H": 0.2875613147554377,
        "B": 0.2741193361940802,
        "L": 0.269330335182738,
        "D": 0.29104360938807483,
        "J": 0.27261102177153623,
        "E": 0.2823259687814578,
        "C": 0.28671205440767,
        "A": 0.2671511959498066,
        "K": 0.272960460571041,
        "F": 0.27677413894487735,
        "I": 0.2782143365138714,
        "G": 0.2847458040973786
    },
    "Average_excess_waiting_time": {
        "H": 76.29312499241405,
        "B": 71.8886986084994,
        "L": 72.902710124034,
        "D": 74.95148836470821,
        "J": 73.3620372404468,
        "E": 71.68745000951509,
        "C": 76.22329841202816,
        "A": 72.57274630409307,
        "K": 75.34515466955946,
        "F": 72.93988838227568,
        "I": 76.00632049774259,
        "G": 75.76294625960219
    },
    "Holding_per_stop": {
        "B": 23.47826086956522,
        "L": 26.73913043478261,
        "J": 27.391304347826086,
        "D": 23.47826086956522,
        "E": 23.225806451612904,
        "H": 26.08695652173913,
        "A": 19.12087912087912,
        "C": 31.956521739130434,
        "K": 36.92307692307692,
        "F": 29.347826086956523,
        "I": 29.67032967032967,
        "G": 38.24175824175824
    },
    "Actions_tfl_edges": {
        "AB": [
            11,
            38,
            43
        ],
        "CD": [
            8,
            39,
            45
        ],
        "DE": [
            13,
            41,
            39
        ],
        "GH": [
            8,
            33,
            51
        ],
        "IJ": [
            10,
            34,
            48
        ],
        "KL": [
            12,
            36,
            44
        ],
        "BC": [
            14,
            29,
            49
        ],
        "LA": [
            14,
            32,
            46
        ],
        "JK": [
            7,
            34,
            51
        ],
        "EF": [
            12,
            37,
            44
        ],
        "HI": [
            4,
            38,
            49
        ],
        "FG": [
            10,
            31,
            51
        ]
    },
    "Load_per_bus_per_stop": {
        "bus3": {
            "H": 85.5625,
            "I": 88,
            "J": 88.0625,
            "K": 88.4,
            "L": 88.46666666666667,
            "A": 91.2,
            "B": 91.33333333333333,
            "C": 92.4,
            "D": 92.93333333333334,
            "E": 93,
            "F": 91.13333333333334,
            "G": 91.6
        },
        "bus0": {
            "B": 68.5,
            "C": 68.5,
            "D": 70.25,
            "E": 70.75,
            "F": 70.66666666666667,
            "G": 71.93333333333334,
            "H": 73.06666666666666,
            "I": 71.33333333333333,
            "J": 70.86666666666666,
            "K": 70.46666666666667,
            "L": 71.8,
            "A": 72.26666666666667
        },
        "bus5": {
            "L": 68.6875,
            "A": 70.375,
            "B": 71.75,
            "C": 73.625,
            "D": 71.13333333333334,
            "E": 68.46666666666667,
            "F": 68.46666666666667,
            "G": 68.73333333333333,
            "H": 69.33333333333333,
            "I": 71.2,
            "J": 69.86666666666666,
            "K": 70.8
        },
        "bus1": {
            "D": 73.0625,
            "E": 74.3125,
            "F": 75.1875,
            "G": 72.9375,
            "H": 73.46666666666667,
            "I": 75.4,
            "J": 75.06666666666666,
            "K": 75.86666666666666,
            "L": 75.93333333333334,
            "A": 77.53333333333333,
            "B": 77.2,
            "C": 77.33333333333333
        },
        "bus4": {
            "J": 74.9375,
            "K": 75.75,
            "L": 78.375,
            "A": 77.13333333333334,
            "B": 80.26666666666667,
            "C": 83.06666666666666,
            "D": 84.33333333333333,
            "E": 85,
            "F": 84.2,
            "G": 84,
            "H": 80.86666666666666,
            "I": 79.86666666666666
        },
        "bus2": {
            "E": 101.5625,
            "F": 100.75,
            "G": 101,
            "H": 99.75,
            "I": 100.13333333333334,
            "J": 99.33333333333333,
            "K": 101.13333333333334,
            "L": 102.13333333333334,
            "A": 102.33333333333333,
            "B": 104.06666666666666,
            "C": 103.66666666666667,
            "D": 105.73333333333333
        }
    },
    "Obs_and_actions_busses": {
        "0": -230.86895297973746,
        "2": 90.85916501393159,
        "4": 304.27979762016827
    },
    "Obs_and_actions_tfls": {
        "1": -119.68893694026288,
        "2": 288.45045103237857,
        "0": 129.50217522124188
    }
}