{
    "Average_holding_time": 29.52777777777778,
    "Average_holding_actions": [
        541,
        389,
        0,
        76,
        74,
        0
    ],
    "Average_travel_time_passengers": 2798.088712788815,
    "Average_passenger_waiting_time": 349.35895192895157,
    "Average_passenger_in_vehicle_time": 2448.7297608598897,
    "Average_speed_busses": 0.045,
    "Average_experienced_crowding": 85.11836375430298,
    "Average_covariation_headway": 0.29506337307454117,
    "Average_covariation_headway_stops": {
        "G": 0.28925512516695784,
        "D": 0.2735078074496718,
        "J": 0.24207626120124598,
        "C": 0.27062312458937604,
        "I": 0.25477122616121856,
        "H": 0.26928555777133556,
        "E": 0.2799832007693243,
        "K": 0.22030199174317755,
        "F": 0.25652711163025843,
        "L": 0.2138851596245386,
        "A": 0.22472974742927943,
        "B": 0.2573740355916962
    },
    "Average_excess_waiting_time": {
        "G": 84.01648250298439,
        "D": 79.00140514470303,
        "J": 69.63397057848499,
        "C": 80.4186444224838,
        "I": 73.64597456796378,
        "H": 78.31949848976541,
        "E": 82.46241292286356,
        "K": 68.48987269268633,
        "F": 81.0870971384029,
        "L": 69.6767767858924,
        "A": 73.38892444954502,
        "B": 80.15986869190544
    },
    "Holding_per_stop": {
        "D": 29.666666666666668,
        "J": 28.021978021978022,
        "I": 26.703296703296704,
        "H": 34.333333333333336,
        "G": 34.71910112359551,
        "C": 39,
        "E": 41,
        "K": 23.406593406593405,
        "F": 34.71910112359551,
        "L": 21.333333333333332,
        "A": 19.333333333333332,
        "B": 22.247191011235955
    },
    "Actions_tfl_edges": {
        "BC": [
            47,
            28,
            15
        ],
        "CD": [
            39,
            38,
            14
        ],
        "FG": [
            26,
            51,
            13
        ],
        "GH": [
            30,
            49,
            11
        ],
        "HI": [
            26,
            45,
            20
        ],
        "IJ": [
            24,
            53,
            15
        ],
        "DE": [
            31,
            43,
            16
        ],
        "JK": [
            29,
            48,
            14
        ],
        "EF": [
            31,
            46,
            13
        ],
        "KL": [
            29,
            50,
            12
        ],
        "LA": [
            26,
            41,
            23
        ],
        "AB": [
            37,
            36,
            17
        ]
    },
    "Load_per_bus_per_stop": {
        "bus2": {
            "G": 72.73333333333333,
            "H": 75.06666666666666,
            "I": 74.8,
            "J": 75.2,
            "K": 74.4,
            "L": 75.8,
            "A": 75.8,
            "B": 76.13333333333334,
            "C": 76.73333333333333,
            "D": 77.6,
            "E": 77.26666666666667,
            "F": 78
        },
        "bus1": {
            "D": 78.06666666666666,
            "E": 80.26666666666667,
            "F": 84.4,
            "G": 86.13333333333334,
            "H": 87.66666666666667,
            "I": 88.8,
            "J": 87.6,
            "K": 88.46666666666667,
            "L": 87.4,
            "A": 87.46666666666667,
            "B": 84.2,
            "C": 83.73333333333333
        },
        "bus5": {
            "J": 93.25,
            "K": 90.8125,
            "L": 92.4,
            "A": 92.46666666666667,
            "B": 94.46666666666667,
            "C": 95.2,
            "D": 96.4,
            "E": 97.73333333333333,
            "F": 98.33333333333333,
            "G": 98.46666666666667,
            "H": 98.46666666666667,
            "I": 99.53333333333333
        },
        "bus0": {
            "C": 81,
            "D": 82.73333333333333,
            "E": 85.33333333333333,
            "F": 85.8,
            "G": 83.06666666666666,
            "H": 83.13333333333334,
            "I": 82.86666666666666,
            "J": 84,
            "K": 85.66666666666667,
            "L": 85.73333333333333,
            "A": 87.93333333333334,
            "B": 85.64285714285714
        },
        "bus4": {
            "I": 71.75,
            "J": 70,
            "K": 71.2,
            "L": 73.86666666666666,
            "A": 76.73333333333333,
            "B": 76.93333333333334,
            "C": 76.46666666666667,
            "D": 76.26666666666667,
            "E": 74.8,
            "F": 75.66666666666667,
            "G": 76.53333333333333,
            "H": 76.33333333333333
        },
        "bus3": {
            "H": 72.2,
            "I": 72.46666666666667,
            "J": 71.06666666666666,
            "K": 69.8,
            "L": 70.86666666666666,
            "A": 73.06666666666666,
            "B": 73.73333333333333,
            "C": 77,
            "D": 78,
            "E": 77.2,
            "F": 77.46666666666667,
            "G": 76.85714285714286
        }
    },
    "Obs_and_actions_busses": {
        "5": 294.25726542283945,
        "1": 53.66041210317567,
        "4": 147.1376931373115,
        "0": -273.4800808938613
    },
    "Obs_and_actions_tfls": {
        "0": 317.81723464091596,
        "1": -61.677326800519836,
        "2": 174.58359570093467
    }
}2064700597
    }
}