{
    "Average_holding_time": 27.315068493150687,
    "Average_holding_actions": [
        551,
        413,
        0,
        71,
        60,
        0
    ],
    "Average_travel_time_passengers": 2798.5685130668876,
    "Average_passenger_waiting_time": 339.26630873321074,
    "Average_passenger_in_vehicle_time": 2459.302204333675,
    "Average_speed_busses": 0.045625,
    "Average_experienced_crowding": 83.49822372936664,
    "Average_covariation_headway": 0.2748305619332476,
    "Average_covariation_headway_stops": {
        "L": 0.23262589673576964,
        "A": 0.22245974365081947,
        "J": 0.24017218765334805,
        "E": 0.23466442068590407,
        "I": 0.24183029789277963,
        "K": 0.24363116628357928,
        "B": 0.2157433592598668,
        "F": 0.23211078542814742,
        "C": 0.2174510412182833,
        "G": 0.23973255231442733,
        "D": 0.2109799008306403,
        "H": 0.2465844171715446
    },
    "Average_excess_waiting_time": {
        "L": 65.40746621867942,
        "A": 61.88108551570832,
        "J": 69.88504047251695,
        "E": 67.40644037638725,
        "I": 72.15210943237042,
        "K": 68.78395488639444,
        "B": 62.829230769501635,
        "F": 69.26460956860058,
        "C": 64.63824716544701,
        "G": 72.28315434654434,
        "D": 65.99311462344241,
        "H": 75.5512923073452
    },
    "Holding_per_stop": {
        "A": 14.193548387096774,
        "E": 28.695652173913043,
        "L": 28.043478260869566,
        "J": 33.956043956043956,
        "K": 32.967032967032964,
        "I": 31,
        "B": 20.543478260869566,
        "F": 24.725274725274726,
        "C": 33.58695652173913,
        "G": 32,
        "D": 25.714285714285715,
        "H": 22.666666666666668
    },
    "Actions_tfl_edges": {
        "DE": [
            29,
            50,
            13
        ],
        "HI": [
            36,
            41,
            14
        ],
        "IJ": [
            33,
            48,
            10
        ],
        "JK": [
            29,
            52,
            11
        ],
        "KL": [
            24,
            53,
            15
        ],
        "LA": [
            24,
            50,
            19
        ],
        "AB": [
            27,
            43,
            23
        ],
        "EF": [
            30,
            44,
            18
        ],
        "BC": [
            43,
            34,
            15
        ],
        "FG": [
            31,
            44,
            16
        ],
        "CD": [
            39,
            40,
            13
        ],
        "GH": [
            35,
            45,
            10
        ]
    },
    "Load_per_bus_per_stop": {
        "bus4": {
            "L": 73.75,
            "A": 73.8125,
            "B": 75.0625,
            "C": 75.3125,
            "D": 73.73333333333333,
            "E": 73.06666666666666,
            "F": 73.46666666666667,
            "G": 73.86666666666666,
            "H": 73.86666666666666,
            "I": 74.93333333333334,
            "J": 75.6,
            "K": 76.13333333333334
        },
        "bus5": {
            "A": 84.1875,
            "B": 85,
            "C": 85.0625,
            "D": 85.25,
            "E": 86.1875,
            "F": 85.73333333333333,
            "G": 85.8,
            "H": 87,
            "I": 89.46666666666667,
            "J": 90.86666666666666,
            "K": 89.4,
            "L": 89.06666666666666
        },
        "bus2": {
            "J": 79.3125,
            "K": 79.875,
            "L": 80.53333333333333,
            "A": 81,
            "B": 79.6,
            "C": 77.66666666666667,
            "D": 78.26666666666667,
            "E": 80.33333333333333,
            "F": 80.8,
            "G": 81.8,
            "H": 80.6,
            "I": 82.73333333333333
        },
        "bus0": {
            "E": 80.25,
            "F": 81.75,
            "G": 83.25,
            "H": 84.26666666666667,
            "I": 85.46666666666667,
            "J": 85.6,
            "K": 86.8,
            "L": 87.6,
            "A": 87.86666666666666,
            "B": 89.73333333333333,
            "C": 87.33333333333333,
            "D": 87.26666666666667
        },
        "bus1": {
            "I": 81.86666666666666,
            "J": 81.93333333333334,
            "K": 83.2,
            "L": 82.66666666666667,
            "A": 84.13333333333334,
            "B": 84.2,
            "C": 86.4,
            "D": 88,
            "E": 88.46666666666667,
            "F": 87.2,
            "G": 87,
            "H": 88.33333333333333
        },
        "bus3": {
            "K": 69.625,
            "L": 73.3125,
            "A": 73.1875,
            "B": 73.2,
            "C": 75.4,
            "D": 76.4,
            "E": 76.2,
            "F": 76.13333333333334,
            "G": 75.4,
            "H": 74.86666666666666,
            "I": 72.86666666666666,
            "J": 73.46666666666667
        }
    },
    "Obs_and_actions_busses": {
        "0": -265.3838666236497,
        "1": 52.63889632846606,
        "4": 157.62412567408282,
        "5": 274.5265833366672
    },
    "Obs_and_actions_tfls": {
        "1": -46.92124892822851,
        "0": 308.82833751291804,
        "2": 162.77673848819106
    }
}