{
    "Average_holding_time": 72.36311239193084,
    "Average_holding_actions": [
        329,
        13,
        0,
        99,
        253,
        0
    ],
    "Average_travel_time_passengers": 5101.308496237384,
    "Average_passenger_waiting_time": 1280.949857181092,
    "Average_passenger_in_vehicle_time": 3820.3586390562887,
    "Average_speed_busses": 0.028916666666666667,
    "Average_experienced_crowding": 319.86742878021477,
    "Average_covariation_headway": 1.5541781268431503,
    "Average_covariation_headway_stops": {
        "C": 1.3277095575326427,
        "K": 1.3160432721018145,
        "A": 1.3431729671613526,
        "E": 1.3825886422329376,
        "D": 1.348237815079332,
        "H": 1.4049613399654535,
        "B": 1.3196826589359592,
        "I": 1.3361601244545374,
        "F": 1.3669377439169772,
        "L": 1.3195567437256042,
        "J": 1.2817022542682766,
        "G": 1.3854714076375239
    },
    "Average_excess_waiting_time": {
        "C": 1050.3842888847355,
        "K": 1030.407028309688,
        "A": 1063.4748545342486,
        "E": 1104.4794042272524,
        "D": 1072.6550251846543,
        "H": 1163.4424360709882,
        "B": 1051.3463983834572,
        "I": 1190.4158394031695,
        "F": 1101.916351354191,
        "L": 1045.3593221793562,
        "J": 1000.3224999223962,
        "G": 1144.2173718993577
    },
    "Holding_per_stop": {
        "A": 72.63157894736842,
        "D": 77.79661016949153,
        "E": 62.5,
        "H": 74.75409836065573,
        "C": 79.13793103448276,
        "K": 73.39285714285714,
        "B": 70.52631578947368,
        "I": 70.9090909090909,
        "L": 70.17857142857143,
        "F": 76,
        "J": 69.27272727272727,
        "G": 71
    },
    "Actions_tfl_edges": {
        "BC": [
            16,
            30,
            12
        ],
        "CD": [
            18,
            27,
            14
        ],
        "DE": [
            19,
            31,
            10
        ],
        "GH": [
            18,
            34,
            9
        ],
        "JK": [
            17,
            31,
            8
        ],
        "LA": [
            18,
            32,
            7
        ],
        "AB": [
            19,
            31,
            7
        ],
        "EF": [
            14,
            37,
            9
        ],
        "HI": [
            20,
            34,
            7
        ],
        "KL": [
            16,
            33,
            7
        ],
        "IJ": [
            15,
            33,
            7
        ],
        "FG": [
            18,
            35,
            7
        ]
    },
    "Load_per_bus_per_stop": {
        "bus0": {
            "C": 4.8,
            "D": 5.4,
            "E": 6.4,
            "F": 6.6,
            "G": 6.8,
            "H": 6.8,
            "I": 6.666666666666667,
            "J": 6.333333333333333,
            "K": 6.111111111111111,
            "L": 5.888888888888889,
            "A": 5.333333333333333,
            "B": 5
        },
        "bus4": {
            "K": 45.4,
            "L": 45.2,
            "A": 46.5,
            "B": 45.6,
            "C": 45.4,
            "D": 45,
            "E": 45.3,
            "F": 46.1,
            "G": 45.9,
            "H": 47,
            "I": 51.44444444444444,
            "J": 50.111111111111114
        },
        "bus5": {
            "A": 9.4,
            "B": 11.2,
            "C": 13.4,
            "D": 12.9,
            "E": 12.5,
            "F": 12.2,
            "G": 12.9,
            "H": 11.7,
            "I": 12.11111111111111,
            "J": 11.333333333333334,
            "K": 10.444444444444445,
            "L": 8.777777777777779
        },
        "bus2": {
            "E": 364.1,
            "F": 364.1,
            "G": 371.5,
            "H": 377.8,
            "I": 389.3,
            "J": 359.22222222222223,
            "K": 367.77777777777777,
            "L": 373.77777777777777,
            "A": 378.22222222222223,
            "B": 393.22222222222223,
            "C": 399.77777777777777,
            "D": 403.44444444444446
        },
        "bus1": {
            "D": 29.7,
            "E": 29.5,
            "F": 30.5,
            "G": 31.3,
            "H": 31.9,
            "I": 30,
            "J": 31.88888888888889,
            "K": 33.77777777777778,
            "L": 34.55555555555556,
            "A": 32.55555555555556,
            "B": 32.55555555555556,
            "C": 31.444444444444443
        },
        "bus3": {
            "H": 221.36363636363637,
            "I": 236,
            "J": 233.8,
            "K": 236.7,
            "L": 235.3,
            "A": 233.2,
            "B": 233.3,
            "C": 238.4,
            "D": 241.1,
            "E": 243.4,
            "F": 242.7,
            "G": 241.9
        }
    },
    "Obs_and_actions_busses": {
        "5": 1369.4966902543056,
        "0": 5.078890968830103,
        "1": 248.3663735575455,
        "4": -2569.368787499521
    },
    "Obs_and_actions_tfls": {
        "2": 385.5144967545671,
        "0": -1204.9472167093786,
        "1": 570.0258326279017
    }
}
            "C": 456.8888888888889,
            "D": 465.55555555555554,
            "E": 417.625
        }
    },
    "Obs_and_actions_busses": {
        "5": 1778.0386822251933,
        "0": 3.4040527210220564,
        "1": 244.30995027143024,
        "4": -2819.779175517889
    },
    "Obs_and_actions_tfls": {
        "2": 624.574599234027,
        "0": -1002.4845544740965,
        "1": 533.6473421200769
    }
}