{
    "Average_holding_time": 17.862190812720847,
    "Average_holding_actions": [
        796,
        0,
        335,
        1,
        0,
        0
    ],
    "Average_travel_time_passengers": 2703.414036185496,
    "Average_passenger_waiting_time": 341.34483412896435,
    "Average_passenger_in_vehicle_time": 2362.0692020565543,
    "Average_speed_busses": 0.04716666666666667,
    "Average_experienced_crowding": 85.39253682721821,
    "Average_covariation_headway": 0.41766530898810267,
    "Average_covariation_headway_stops": {
        "I": 0.292272075162033,
        "K": 0.3188995097966371,
        "D": 0.34333792875682884,
        "C": 0.33007832502743245,
        "J": 0.31269484350674587,
        "G": 0.2984675557506613,
        "E": 0.318117945888755,
        "H": 0.2925186019028232,
        "L": 0.3085146775136446,
        "F": 0.30736178932759084,
        "A": 0.29533460980342446,
        "B": 0.31294066792520236
    },
    "Average_excess_waiting_time": {
        "I": 68.85220467538761,
        "K": 68.12208448260088,
        "D": 74.34408869199655,
        "C": 73.35389547195405,
        "J": 69.04302840383582,
        "G": 68.14880001191216,
        "E": 70.85828905584805,
        "H": 68.49968992996469,
        "L": 67.8922529463618,
        "F": 71.43679545939659,
        "A": 66.72216925161649,
        "B": 71.38136681848766
    },
    "Holding_per_stop": {
        "K": 21.473684210526315,
        "D": 18.31578947368421,
        "J": 14.042553191489361,
        "I": 15.319148936170214,
        "G": 19.78723404255319,
        "C": 18.31578947368421,
        "L": 24.63157894736842,
        "E": 17.23404255319149,
        "H": 18.51063829787234,
        "A": 13.404255319148936,
        "F": 15.957446808510639,
        "B": 17.23404255319149
    },
    "Actions_tfl_edges": {
        "BC": [
            38,
            19,
            38
        ],
        "CD": [
            33,
            31,
            32
        ],
        "FG": [
            33,
            27,
            35
        ],
        "HI": [
            33,
            30,
            32
        ],
        "IJ": [
            40,
            21,
            34
        ],
        "JK": [
            37,
            23,
            35
        ],
        "KL": [
            36,
            16,
            43
        ],
        "DE": [
            35,
            27,
            33
        ],
        "GH": [
            34,
            24,
            36
        ],
        "LA": [
            36,
            25,
            34
        ],
        "EF": [
            36,
            25,
            33
        ],
        "AB": [
            32,
            24,
            38
        ]
    },
    "Load_per_bus_per_stop": {
        "bus3": {
            "I": 72.125,
            "J": 73.75,
            "K": 71.9375,
            "L": 72.8125,
            "A": 73.8125,
            "B": 74.6875,
            "C": 76.1875,
            "D": 78,
            "E": 78.0625,
            "F": 79.2,
            "G": 77.8,
            "H": 77.66666666666667
        },
        "bus5": {
            "K": 81.6875,
            "L": 82,
            "A": 82.8125,
            "B": 82.375,
            "C": 84.6875,
            "D": 85.625,
            "E": 84.6875,
            "F": 85.75,
            "G": 85.4375,
            "H": 82.375,
            "I": 84.8,
            "J": 86.46666666666667
        },
        "bus1": {
            "D": 85.0625,
            "E": 86.25,
            "F": 86.25,
            "G": 88.4375,
            "H": 90,
            "I": 90.8125,
            "J": 93,
            "K": 92.625,
            "L": 92,
            "A": 92.4,
            "B": 92.46666666666667,
            "C": 91.46666666666667
        },
        "bus0": {
            "C": 87.0625,
            "D": 88.25,
            "E": 89.75,
            "F": 91.6875,
            "G": 94.1875,
            "H": 96.375,
            "I": 95.5625,
            "J": 94.93333333333334,
            "K": 94.13333333333334,
            "L": 92.46666666666667,
            "A": 93.93333333333334,
            "B": 92.93333333333334
        },
        "bus4": {
            "J": 49.9375,
            "K": 50.875,
            "L": 50.25,
            "A": 50.125,
            "B": 49.625,
            "C": 50.4375,
            "D": 50.8125,
            "E": 51.1875,
            "F": 52.75,
            "G": 50.666666666666664,
            "H": 51.8,
            "I": 52.4
        },
        "bus2": {
            "G": 79.1875,
            "H": 80.625,
            "I": 82.3125,
            "J": 83.6875,
            "K": 85.9375,
            "L": 86.5,
            "A": 85.0625,
            "B": 82.625,
            "C": 82.125,
            "D": 81.46666666666667,
            "E": 82.66666666666667,
            "F": 83
        }
    },
    "Obs_and_actions_busses": {
        "2": 204.67551400098625,
        "0": -242.20909082426758,
        "4": 617.4115841096327
    },
    "Obs_and_actions_tfls": {
        "2": 347.19001904844214,
        "0": -145.41554843255685,
        "1": 129.97238898023332
    }
}