{
    "Average_holding_time": 26.96941612604263,
    "Average_holding_actions": [
        549,
        402,
        0,
        72,
        56,
        0
    ],
    "Average_travel_time_passengers": 2819.7600213402807,
    "Average_passenger_waiting_time": 338.1571579496585,
    "Average_passenger_in_vehicle_time": 2481.6028633906617,
    "Average_speed_busses": 0.044958333333333336,
    "Average_experienced_crowding": 83.93221677021418,
    "Average_covariation_headway": 0.2513575149840983,
    "Average_covariation_headway_stops": {
        "L": 0.18686808861241658,
        "K": 0.1586566608188513,
        "J": 0.16262860486759034,
        "E": 0.22016597260318224,
        "G": 0.1835238117452539,
        "D": 0.22469693410129626,
        "A": 0.1733838750280127,
        "F": 0.20468073227122002,
        "H": 0.17957828180595553,
        "B": 0.1672705970066167,
        "I": 0.1810411289264405,
        "C": 0.19258926279387606
    },
    "Average_excess_waiting_time": {
        "L": 63.56104761563739,
        "K": 62.392167308040484,
        "J": 65.00107754154664,
        "E": 68.98829012625976,
        "G": 64.31755693737881,
        "D": 72.37788714402166,
        "A": 63.989448516081495,
        "F": 68.83140649431704,
        "H": 66.12813856672744,
        "B": 65.21636174150444,
        "I": 67.76817951748137,
        "C": 69.3690241996481
    },
    "Holding_per_stop": {
        "L": 29.01098901098901,
        "K": 25,
        "E": 29.333333333333332,
        "G": 27,
        "J": 24.333333333333332,
        "A": 19,
        "D": 34.666666666666664,
        "H": 24,
        "F": 33,
        "B": 17,
        "I": 29.325842696629213,
        "C": 32.02247191011236
    },
    "Actions_tfl_edges": {
        "CD": [
            34,
            37,
            19
        ],
        "DE": [
            34,
            45,
            12
        ],
        "FG": [
            22,
            51,
            18
        ],
        "IJ": [
            29,
            49,
            12
        ],
        "JK": [
            32,
            47,
            12
        ],
        "KL": [
            27,
            49,
            15
        ],
        "LA": [
            26,
            44,
            21
        ],
        "EF": [
            28,
            49,
            13
        ],
        "GH": [
            16,
            52,
            22
        ],
        "AB": [
            30,
            42,
            18
        ],
        "HI": [
            25,
            48,
            17
        ],
        "BC": [
            36,
            35,
            19
        ]
    },
    "Load_per_bus_per_stop": {
        "bus5": {
            "L": 81.875,
            "A": 83.4,
            "B": 81.4,
            "C": 83.86666666666666,
            "D": 85,
            "E": 85.6,
            "F": 85.2,
            "G": 86.26666666666667,
            "H": 85.8,
            "I": 87.46666666666667,
            "J": 88.46666666666667,
            "K": 87.66666666666667
        },
        "bus4": {
            "K": 82.93333333333334,
            "L": 84.66666666666667,
            "A": 82.53333333333333,
            "B": 83.86666666666666,
            "C": 85.53333333333333,
            "D": 85.53333333333333,
            "E": 86.33333333333333,
            "F": 85.06666666666666,
            "G": 84.06666666666666,
            "H": 87.93333333333334,
            "I": 86.93333333333334,
            "J": 88
        },
        "bus3": {
            "J": 78.93333333333334,
            "K": 81.13333333333334,
            "L": 81,
            "A": 79.93333333333334,
            "B": 80.66666666666667,
            "C": 79.8,
            "D": 78.4,
            "E": 75.6,
            "F": 75.73333333333333,
            "G": 77.26666666666667,
            "H": 80,
            "I": 81
        },
        "bus1": {
            "E": 76.6,
            "F": 77.53333333333333,
            "G": 80.46666666666667,
            "H": 81.4,
            "I": 82,
            "J": 81.66666666666667,
            "K": 81.8,
            "L": 82.6,
            "A": 82,
            "B": 81.93333333333334,
            "C": 81.46666666666667,
            "D": 81.6
        },
        "bus2": {
            "G": 76.1875,
            "H": 75.33333333333333,
            "I": 76.6,
            "J": 74.86666666666666,
            "K": 73.66666666666667,
            "L": 73.66666666666667,
            "A": 75.26666666666667,
            "B": 77.06666666666666,
            "C": 79.2,
            "D": 78.73333333333333,
            "E": 79.13333333333334,
            "F": 81.66666666666667
        },
        "bus0": {
            "D": 85.66666666666667,
            "E": 90.06666666666666,
            "F": 88.2,
            "G": 90.13333333333334,
            "H": 89.26666666666667,
            "I": 88.93333333333334,
            "J": 89.66666666666667,
            "K": 89,
            "L": 86.66666666666667,
            "A": 87.33333333333333,
            "B": 88.6,
            "C": 90.64285714285714
        }
    },
    "Obs_and_actions_busses": {
        "0": -260.09369277125614,
        "1": 56.182846675123116,
        "4": 148.84699128092976,
        "5": 260.72504019604764
    },
    "Obs_and_actions_tfls": {
        "0": 322.9679023557978,
        "1": -36.72428304774622,
        "2": 181.27392103312633
    }
}