{
    "Average_holding_time": 22.445255474452555,
    "Average_holding_actions": [
        746,
        45,
        211,
        35,
        18,
        0
    ],
    "Average_travel_time_passengers": 2767.7437865822603,
    "Average_passenger_waiting_time": 331.1973449031231,
    "Average_passenger_in_vehicle_time": 2436.5464416791597,
    "Average_speed_busses": 0.04566666666666667,
    "Average_experienced_crowding": 82.55112855803198,
    "Average_covariation_headway": 0.21354109865486195,
    "Average_covariation_headway_stops": {
        "G": 0.16901971330785867,
        "K": 0.15474867297936432,
        "C": 0.17733303330321634,
        "I": 0.1799917331429988,
        "H": 0.17605686193490883,
        "F": 0.17144593561027763,
        "J": 0.15768337925125392,
        "L": 0.15249401906943938,
        "D": 0.1638996758614556,
        "A": 0.13503404511056988,
        "E": 0.16595017425620587,
        "B": 0.1668617309201729
    },
    "Average_excess_waiting_time": {
        "G": 60.5080388622639,
        "K": 54.87770390150291,
        "C": 61.099566124767875,
        "I": 58.184177146123034,
        "H": 59.23054114607987,
        "F": 62.773012313033064,
        "J": 57.19325395064027,
        "L": 56.37403870174347,
        "D": 61.26867185418956,
        "A": 56.78558376118838,
        "E": 63.72808515927488,
        "B": 61.800617852149
    },
    "Holding_per_stop": {
        "K": 28.043478260869566,
        "I": 26.08695652173913,
        "H": 18.58695652173913,
        "G": 24.065934065934066,
        "C": 27.032967032967033,
        "F": 26.043956043956044,
        "J": 21.847826086956523,
        "L": 25.76086956521739,
        "D": 20.439560439560438,
        "A": 9.56043956043956,
        "B": 16.483516483516482,
        "E": 25.333333333333332
    },
    "Actions_tfl_edges": {
        "BC": [
            5,
            77,
            10
        ],
        "EF": [
            5,
            75,
            11
        ],
        "FG": [
            9,
            73,
            10
        ],
        "GH": [
            2,
            75,
            15
        ],
        "HI": [
            6,
            71,
            16
        ],
        "JK": [
            11,
            71,
            11
        ],
        "KL": [
            4,
            74,
            14
        ],
        "IJ": [
            8,
            65,
            19
        ],
        "CD": [
            8,
            67,
            16
        ],
        "LA": [
            11,
            66,
            15
        ],
        "DE": [
            10,
            60,
            21
        ],
        "AB": [
            8,
            67,
            16
        ]
    },
    "Load_per_bus_per_stop": {
        "bus2": {
            "G": 74.8125,
            "H": 75.25,
            "I": 76.46666666666667,
            "J": 77.86666666666666,
            "K": 79.53333333333333,
            "L": 79.53333333333333,
            "A": 77.46666666666667,
            "B": 76.6,
            "C": 75.4,
            "D": 74.93333333333334,
            "E": 77.06666666666666,
            "F": 80.53333333333333
        },
        "bus5": {
            "K": 86.3125,
            "L": 86.3125,
            "A": 88.875,
            "B": 87.375,
            "C": 86.73333333333333,
            "D": 87.46666666666667,
            "E": 86.86666666666666,
            "F": 89.26666666666667,
            "G": 87.06666666666666,
            "H": 87.6,
            "I": 87.73333333333333,
            "J": 89.2
        },
        "bus0": {
            "C": 84.75,
            "D": 83.9375,
            "E": 82.66666666666667,
            "F": 83,
            "G": 82.2,
            "H": 83.46666666666667,
            "I": 84.93333333333334,
            "J": 86.86666666666666,
            "K": 85.6,
            "L": 84.93333333333334,
            "A": 86.86666666666666,
            "B": 90.06666666666666
        },
        "bus4": {
            "I": 74.0625,
            "J": 73.875,
            "K": 75.8125,
            "L": 77.4375,
            "A": 78.2,
            "B": 77.2,
            "C": 78.8,
            "D": 80.33333333333333,
            "E": 80.06666666666666,
            "F": 79.6,
            "G": 79,
            "H": 79.06666666666666
        },
        "bus3": {
            "H": 75.8125,
            "I": 77.0625,
            "J": 79.25,
            "K": 81.26666666666667,
            "L": 80.33333333333333,
            "A": 80.26666666666667,
            "B": 80.73333333333333,
            "C": 81.33333333333333,
            "D": 82.33333333333333,
            "E": 81.26666666666667,
            "F": 80.4,
            "G": 82.2
        },
        "bus1": {
            "F": 79.5625,
            "G": 80.13333333333334,
            "H": 80.2,
            "I": 81.06666666666666,
            "J": 80.6,
            "K": 79.86666666666666,
            "L": 81.2,
            "A": 83.8,
            "B": 84.93333333333334,
            "C": 86.4,
            "D": 83.53333333333333,
            "E": 82.73333333333333
        }
    },
    "Obs_and_actions_busses": {
        "2": 63.78054920412392,
        "4": 176.1514970079974,
        "1": 109.71875607195122,
        "3": 140.02430337736092,
        "0": -171.74058369984368,
        "5": 319.22926247137434
    },
    "Obs_and_actions_tfls": {
        "1": 197.68949634512623,
        "2": -117.08435131886088,
        "0": -15.48596860999565
    }
}