{
    "Average_holding_time": 20.694319206492334,
    "Average_holding_actions": [
        750,
        96,
        178,
        26,
        16,
        0
    ],
    "Average_travel_time_passengers": 2759.2315778253815,
    "Average_passenger_waiting_time": 329.94666385019417,
    "Average_passenger_in_vehicle_time": 2429.284913975218,
    "Average_speed_busses": 0.04620833333333333,
    "Average_experienced_crowding": 81.56244147203125,
    "Average_covariation_headway": 0.22152152709606904,
    "Average_covariation_headway_stops": {
        "K": 0.1936181052130092,
        "G": 0.1730640589491755,
        "F": 0.17566186258799457,
        "D": 0.15546359305636548,
        "B": 0.1793335203421785,
        "A": 0.16140297125772077,
        "C": 0.16240983126120592,
        "E": 0.1519265314506447,
        "H": 0.1548295223265879,
        "L": 0.16828704595523938,
        "I": 0.1593022499116709,
        "J": 0.17445708582564576
    },
    "Average_excess_waiting_time": {
        "K": 59.74427663204045,
        "G": 52.96340640589807,
        "F": 55.250146028208576,
        "D": 52.60153223061474,
        "B": 55.16415632062899,
        "A": 55.20830599416382,
        "C": 54.9293863926398,
        "E": 53.79643543585405,
        "H": 52.988750387096104,
        "L": 58.22185331081562,
        "I": 55.664025163626434,
        "J": 58.86327615167926
    },
    "Holding_per_stop": {
        "G": 22.258064516129032,
        "D": 14.516129032258064,
        "B": 13.870967741935484,
        "F": 25.161290322580644,
        "K": 22.5,
        "A": 13.369565217391305,
        "C": 28.695652173913043,
        "E": 15.326086956521738,
        "H": 17.419354838709676,
        "I": 23.152173913043477,
        "L": 27.391304347826086,
        "J": 24.782608695652176
    },
    "Actions_tfl_edges": {
        "AB": [
            11,
            59,
            23
        ],
        "CD": [
            10,
            66,
            17
        ],
        "EF": [
            8,
            72,
            13
        ],
        "FG": [
            5,
            72,
            17
        ],
        "JK": [
            11,
            65,
            17
        ],
        "LA": [
            4,
            68,
            21
        ],
        "GH": [
            8,
            63,
            22
        ],
        "DE": [
            12,
            68,
            13
        ],
        "BC": [
            7,
            68,
            18
        ],
        "KL": [
            6,
            67,
            19
        ],
        "HI": [
            6,
            73,
            14
        ],
        "IJ": [
            5,
            76,
            11
        ]
    },
    "Load_per_bus_per_stop": {
        "bus4": {
            "K": 80.125,
            "L": 81.0625,
            "A": 82,
            "B": 84.9375,
            "C": 85.8125,
            "D": 86.86666666666666,
            "E": 88.2,
            "F": 89.66666666666667,
            "G": 89.73333333333333,
            "H": 89.4,
            "I": 89,
            "J": 87.13333333333334
        },
        "bus3": {
            "G": 78.4375,
            "H": 79.25,
            "I": 80.6875,
            "J": 83.25,
            "K": 86.5,
            "L": 89.1875,
            "A": 89.6,
            "B": 87.13333333333334,
            "C": 87.6,
            "D": 86.13333333333334,
            "E": 84.8,
            "F": 83.33333333333333
        },
        "bus2": {
            "F": 72,
            "G": 72.125,
            "H": 72,
            "I": 74.4375,
            "J": 75.1875,
            "K": 76.13333333333334,
            "L": 77.33333333333333,
            "A": 74.53333333333333,
            "B": 76.6,
            "C": 76.46666666666667,
            "D": 76.33333333333333,
            "E": 75.93333333333334
        },
        "bus1": {
            "D": 73.6875,
            "E": 75.75,
            "F": 76.1875,
            "G": 78.875,
            "H": 79.1875,
            "I": 82.06666666666666,
            "J": 80.6,
            "K": 78.66666666666667,
            "L": 78.26666666666667,
            "A": 78.46666666666667,
            "B": 78.73333333333333,
            "C": 78.46666666666667
        },
        "bus0": {
            "B": 76.9375,
            "C": 77.9375,
            "D": 79.125,
            "E": 81.8125,
            "F": 81.5625,
            "G": 82.46666666666667,
            "H": 83.13333333333334,
            "I": 83.93333333333334,
            "J": 82.8,
            "K": 83.66666666666667,
            "L": 81.93333333333334,
            "A": 81.66666666666667
        },
        "bus5": {
            "A": 78.3125,
            "B": 76.125,
            "C": 75.8125,
            "D": 76.875,
            "E": 78.1875,
            "F": 77.66666666666667,
            "G": 78.26666666666667,
            "H": 79.86666666666666,
            "I": 81.33333333333333,
            "J": 81.53333333333333,
            "K": 81.86666666666666,
            "L": 81.86666666666666
        }
    },
    "Obs_and_actions_busses": {
        "5": 344.6551945934676,
        "0": -183.1772603476713,
        "1": 94.74152457511158,
        "2": 64.705391799043,
        "3": 140.30705737019298,
        "4": 185.33289535169482
    },
    "Obs_and_actions_tfls": {
        "2": -96.8654115175193,
        "1": 196.3903305140523,
        "0": -15.646253415479352
    }
}029944
    }
}30630311,
        "2": -75.55624538520932,
        "0": -15.127954035622025
    }
}