{
    "Average_holding_time": 11.037489102005232,
    "Average_holding_actions": [
        989,
        56,
        0,
        60,
        0,
        0
    ],
    "Average_travel_time_passengers": 2667.8492933188004,
    "Average_passenger_waiting_time": 333.74864424944985,
    "Average_passenger_in_vehicle_time": 2334.1006490693567,
    "Average_speed_busses": 0.04779166666666667,
    "Average_experienced_crowding": 80.25644360312343,
    "Average_covariation_headway": 0.38424980815828885,
    "Average_covariation_headway_stops": {
        "E": 0.27772417215614686,
        "K": 0.2829958294754775,
        "D": 0.29103038736281184,
        "L": 0.2799275354891598,
        "A": 0.27862425238235383,
        "G": 0.29015138642744814,
        "F": 0.2785794874417601,
        "H": 0.2646026067937862,
        "B": 0.25937583172324885,
        "I": 0.27554862496605653,
        "C": 0.2705039569764568,
        "J": 0.27577643394726675
    },
    "Average_excess_waiting_time": {
        "E": 58.245139053097716,
        "K": 60.9910837699133,
        "D": 61.988067122611426,
        "L": 59.06292711218464,
        "A": 56.66625349925266,
        "G": 59.0489081680351,
        "F": 59.90812918208337,
        "H": 56.325291197201636,
        "B": 56.88436198455747,
        "I": 59.69667801562355,
        "C": 61.43085094073501,
        "J": 61.424544208251746
    },
    "Holding_per_stop": {
        "E": 8.4375,
        "L": 13.4375,
        "A": 7.8125,
        "G": 15,
        "K": 12.31578947368421,
        "D": 16.42105263157895,
        "F": 10.9375,
        "H": 6.5625,
        "B": 6.25,
        "I": 11.68421052631579,
        "C": 13.263157894736842,
        "J": 10.421052631578947
    },
    "Actions_tfl_edges": {
        "CD": [
            0,
            57,
            39
        ],
        "DE": [
            0,
            65,
            31
        ],
        "FG": [
            0,
            65,
            32
        ],
        "JK": [
            0,
            65,
            31
        ],
        "KL": [
            0,
            64,
            32
        ],
        "LA": [
            0,
            67,
            30
        ],
        "EF": [
            0,
            67,
            29
        ],
        "AB": [
            0,
            56,
            40
        ],
        "GH": [
            0,
            66,
            30
        ],
        "HI": [
            0,
            63,
            33
        ],
        "BC": [
            0,
            62,
            34
        ],
        "IJ": [
            0,
            60,
            35
        ]
    },
    "Load_per_bus_per_stop": {
        "bus1": {
            "E": 72.5625,
            "F": 72.875,
            "G": 73.75,
            "H": 76.625,
            "I": 77.0625,
            "J": 78.6875,
            "K": 78.625,
            "L": 78.1875,
            "A": 78.1875,
            "B": 78.5,
            "C": 79.375,
            "D": 76.06666666666666
        },
        "bus3": {
            "K": 63.375,
            "L": 64.75,
            "A": 64.375,
            "B": 66.25,
            "C": 66.375,
            "D": 66.25,
            "E": 68.25,
            "F": 68.75,
            "G": 68.6875,
            "H": 69.125,
            "I": 67.26666666666667,
            "J": 67.4
        },
        "bus0": {
            "D": 85.8125,
            "E": 85.5,
            "F": 84.3125,
            "G": 83.9375,
            "H": 82.5625,
            "I": 83.3125,
            "J": 85.8125,
            "K": 86.4375,
            "L": 87.6875,
            "A": 87.5625,
            "B": 88,
            "C": 90.73333333333333
        },
        "bus4": {
            "L": 72.125,
            "A": 71.125,
            "B": 71.8125,
            "C": 74.0625,
            "D": 73.4375,
            "E": 72.5,
            "F": 71.375,
            "G": 73.125,
            "H": 74.5625,
            "I": 73.5,
            "J": 75.25,
            "K": 75.6875
        },
        "bus5": {
            "A": 77.52941176470588,
            "B": 78.3125,
            "C": 77.3125,
            "D": 77.1875,
            "E": 81.125,
            "F": 80.75,
            "G": 81.75,
            "H": 81.9375,
            "I": 82.75,
            "J": 83.125,
            "K": 82.4375,
            "L": 82.5
        },
        "bus2": {
            "G": 71.625,
            "H": 70.375,
            "I": 71.8125,
            "J": 72.0625,
            "K": 73.75,
            "L": 73,
            "A": 75.0625,
            "B": 75.4375,
            "C": 75,
            "D": 76.625,
            "E": 77.125,
            "F": 77.0625
        }
    },
    "Obs_and_actions_busses": {
        "0": -187.18754922276588,
        "1": 146.2870523083869,
        "3": 191.38253233162982,
        "4": 363.8430423216338
    },
    "Obs_and_actions_tfls": {
        "1": 251.30899830584104,
        "2": -151.5962901684834
    }
}: -127.70832429328259
    }
}