{
    "Average_holding_time": 29.587534372135654,
    "Average_holding_actions": [
        687,
        0,
        270,
        134,
        0,
        0
    ],
    "Average_travel_time_passengers": 2801.114955619268,
    "Average_passenger_waiting_time": 360.2978950093635,
    "Average_passenger_in_vehicle_time": 2440.8170606099416,
    "Average_speed_busses": 0.04545833333333334,
    "Average_experienced_crowding": 88.08395532250374,
    "Average_covariation_headway": 0.4376928956237817,
    "Average_covariation_headway_stops": {
        "A": 0.3268263746701517,
        "F": 0.3476800442910332,
        "B": 0.3259192690581595,
        "C": 0.3298702093474602,
        "D": 0.34033977811445504,
        "I": 0.3560581828682341,
        "G": 0.33766730828442293,
        "J": 0.3267900539577444,
        "E": 0.32687760732635035,
        "K": 0.3270825053857676,
        "H": 0.338799163197952,
        "L": 0.3378315553626408
    },
    "Average_excess_waiting_time": {
        "A": 89.19788098794169,
        "F": 87.40505008348617,
        "B": 86.7214028482777,
        "C": 85.1133648595262,
        "D": 85.37280865393689,
        "I": 90.92230472416134,
        "G": 88.1224333344274,
        "J": 86.47750113138557,
        "E": 84.94892724824012,
        "K": 88.37054393960278,
        "H": 90.05228439518146,
        "L": 93.59139493538987
    },
    "Holding_per_stop": {
        "B": 25.054945054945055,
        "F": 29.347826086956523,
        "C": 31.64835164835165,
        "D": 29.347826086956523,
        "A": 20.666666666666668,
        "I": 32.967032967032964,
        "J": 28.35164835164835,
        "G": 31.64835164835165,
        "E": 31.64835164835165,
        "K": 24.666666666666668,
        "H": 34.94505494505494,
        "L": 34.666666666666664
    },
    "Actions_tfl_edges": {
        "AB": [
            18,
            32,
            41
        ],
        "BC": [
            16,
            26,
            50
        ],
        "CD": [
            17,
            31,
            44
        ],
        "EF": [
            21,
            29,
            42
        ],
        "HI": [
            18,
            28,
            46
        ],
        "LA": [
            19,
            29,
            43
        ],
        "FG": [
            18,
            29,
            45
        ],
        "DE": [
            18,
            33,
            41
        ],
        "IJ": [
            22,
            25,
            44
        ],
        "JK": [
            20,
            25,
            46
        ],
        "GH": [
            16,
            22,
            53
        ],
        "KL": [
            13,
            26,
            51
        ]
    },
    "Load_per_bus_per_stop": {
        "bus5": {
            "A": 72.86666666666666,
            "B": 74.26666666666667,
            "C": 75.8,
            "D": 77.93333333333334,
            "E": 77.2,
            "F": 76.8,
            "G": 76.6,
            "H": 76.93333333333334,
            "I": 74.86666666666666,
            "J": 76.13333333333334,
            "K": 75.13333333333334,
            "L": 77.8
        },
        "bus3": {
            "F": 97.4375,
            "G": 97.3125,
            "H": 97.4375,
            "I": 98.06666666666666,
            "J": 97.53333333333333,
            "K": 97.93333333333334,
            "L": 97.93333333333334,
            "A": 96.53333333333333,
            "B": 97.26666666666667,
            "C": 99.13333333333334,
            "D": 101.73333333333333,
            "E": 103
        },
        "bus0": {
            "B": 66.375,
            "C": 68.33333333333333,
            "D": 68.66666666666667,
            "E": 68.4,
            "F": 68.73333333333333,
            "G": 67.33333333333333,
            "H": 66.6,
            "I": 66.73333333333333,
            "J": 66.26666666666667,
            "K": 67.26666666666667,
            "L": 67.53333333333333,
            "A": 69.46666666666667
        },
        "bus1": {
            "C": 38.9375,
            "D": 39.25,
            "E": 37.46666666666667,
            "F": 36.666666666666664,
            "G": 37.46666666666667,
            "H": 38.46666666666667,
            "I": 37.8,
            "J": 39.06666666666667,
            "K": 39.93333333333333,
            "L": 40.6,
            "A": 40.46666666666667,
            "B": 41.266666666666666
        },
        "bus2": {
            "D": 93.375,
            "E": 95.6875,
            "F": 96,
            "G": 100.6,
            "H": 102.53333333333333,
            "I": 103.26666666666667,
            "J": 103.26666666666667,
            "K": 103.73333333333333,
            "L": 104.13333333333334,
            "A": 102.73333333333333,
            "B": 99.93333333333334,
            "C": 98.93333333333334
        },
        "bus4": {
            "I": 93.75,
            "J": 94.4375,
            "K": 95.5625,
            "L": 95.33333333333333,
            "A": 93.4,
            "B": 96.4,
            "C": 96.66666666666667,
            "D": 99.33333333333333,
            "E": 100.4,
            "F": 99.73333333333333,
            "G": 98.46666666666667,
            "H": 97.53333333333333
        }
    },
    "Obs_and_actions_busses": {
        "4": 332.8012429656001,
        "2": 103.1398809140015,
        "0": -246.61036958567584
    },
    "Obs_and_actions_tfls": {
        "1": -199.47653044646464,
        "2": 296.2251638131282,
        "0": 112.83251156241177
    }
}