{
    "Average_holding_time": 20.681198910081743,
    "Average_holding_actions": [
        752,
        75,
        192,
        32,
        11,
        0
    ],
    "Average_travel_time_passengers": 2751.8266741159036,
    "Average_passenger_waiting_time": 327.3842226824432,
    "Average_passenger_in_vehicle_time": 2424.4424514334514,
    "Average_speed_busses": 0.045875,
    "Average_experienced_crowding": 82.39595937256593,
    "Average_covariation_headway": 0.2043534652501168,
    "Average_covariation_headway_stops": {
        "A": 0.16476286780305313,
        "E": 0.17977284320134773,
        "K": 0.17210219824842457,
        "D": 0.16214557490783482,
        "I": 0.16794169179906265,
        "C": 0.1724251106947772,
        "B": 0.16626924999036152,
        "F": 0.16655827996652572,
        "L": 0.152665793292547,
        "J": 0.15713109303107164,
        "G": 0.14533465707439785,
        "H": 0.1601591304272959
    },
    "Average_excess_waiting_time": {
        "A": 58.216698546797204,
        "E": 55.80865738854516,
        "K": 58.420958886788014,
        "D": 55.58221333363775,
        "I": 58.209877603896814,
        "C": 58.21925211541293,
        "B": 59.05400013922298,
        "F": 55.97874901905857,
        "L": 58.579751218825834,
        "J": 58.27531697784366,
        "G": 55.69820484297247,
        "H": 59.37171381879688
    },
    "Holding_per_stop": {
        "A": 6.521739130434782,
        "D": 18.26086956521739,
        "K": 22.17391304347826,
        "E": 20.967741935483872,
        "C": 26.73913043478261,
        "I": 25.108695652173914,
        "B": 17.47252747252747,
        "F": 24.456521739130434,
        "L": 20.76923076923077,
        "J": 26.703296703296704,
        "G": 20.217391304347824,
        "H": 18.791208791208792
    },
    "Actions_tfl_edges": {
        "BC": [
            6,
            74,
            12
        ],
        "CD": [
            8,
            69,
            16
        ],
        "DE": [
            6,
            66,
            21
        ],
        "HI": [
            6,
            72,
            14
        ],
        "JK": [
            12,
            68,
            12
        ],
        "LA": [
            8,
            62,
            22
        ],
        "AB": [
            12,
            64,
            16
        ],
        "KL": [
            14,
            64,
            14
        ],
        "EF": [
            7,
            70,
            16
        ],
        "IJ": [
            5,
            79,
            8
        ],
        "FG": [
            4,
            71,
            17
        ],
        "GH": [
            7,
            69,
            16
        ]
    },
    "Load_per_bus_per_stop": {
        "bus5": {
            "A": 79.3125,
            "B": 80.875,
            "C": 82.125,
            "D": 81,
            "E": 81.2,
            "F": 82.06666666666666,
            "G": 83.46666666666667,
            "H": 83.6,
            "I": 82.66666666666667,
            "J": 82,
            "K": 80.93333333333334,
            "L": 81.73333333333333
        },
        "bus2": {
            "E": 79.75,
            "F": 82.3125,
            "G": 84.8125,
            "H": 85.75,
            "I": 86.1875,
            "J": 89.06666666666666,
            "K": 87.33333333333333,
            "L": 87.46666666666667,
            "A": 85.46666666666667,
            "B": 84.33333333333333,
            "C": 84.6,
            "D": 83.86666666666666
        },
        "bus4": {
            "K": 80.625,
            "L": 79.9375,
            "A": 82.3125,
            "B": 82.4,
            "C": 81.8,
            "D": 84.6,
            "E": 83.13333333333334,
            "F": 83.06666666666666,
            "G": 84.73333333333333,
            "H": 86.06666666666666,
            "I": 85.53333333333333,
            "J": 85.73333333333333
        },
        "bus1": {
            "D": 72.75,
            "E": 73.9375,
            "F": 73.9375,
            "G": 73.5,
            "H": 76.6,
            "I": 76.4,
            "J": 77.93333333333334,
            "K": 78,
            "L": 78.6,
            "A": 80.2,
            "B": 79.73333333333333,
            "C": 79.73333333333333
        },
        "bus3": {
            "I": 76.875,
            "J": 77.75,
            "K": 80.25,
            "L": 80.66666666666667,
            "A": 82.06666666666666,
            "B": 81.8,
            "C": 80.66666666666667,
            "D": 80.46666666666667,
            "E": 78.33333333333333,
            "F": 80,
            "G": 81.73333333333333,
            "H": 82.73333333333333
        },
        "bus0": {
            "C": 81.1875,
            "D": 80.4375,
            "E": 79.5,
            "F": 80.26666666666667,
            "G": 78.8,
            "H": 79.66666666666667,
            "I": 81.2,
            "J": 84.06666666666666,
            "K": 84.4,
            "L": 83.73333333333333,
            "A": 83.66666666666667,
            "B": 84.6
        }
    },
    "Obs_and_actions_busses": {
        "0": -176.17607143942686,
        "1": 97.55145883701077,
        "3": 139.31854680988343,
        "5": 362.5116347790558,
        "2": 63.780672609057675,
        "4": 182.92364213481483
    },
    "Obs_and_actions_tfls": {
        "1": 188.51659452746034,
        "2": -94.9894955221499,
        "0": -13.998604932255311
    }
}