{
    "Average_holding_time": 26.491387126019944,
    "Average_holding_actions": [
        692,
        0,
        335,
        76,
        0,
        0
    ],
    "Average_travel_time_passengers": 2778.1571570759825,
    "Average_passenger_waiting_time": 351.4107234092187,
    "Average_passenger_in_vehicle_time": 2426.746433666804,
    "Average_speed_busses": 0.04595833333333333,
    "Average_experienced_crowding": 84.92003104480375,
    "Average_covariation_headway": 0.35267533984364613,
    "Average_covariation_headway_stops": {
        "A": 0.3191196186502752,
        "D": 0.3109434022211649,
        "F": 0.3029563667275352,
        "H": 0.2821392989248777,
        "G": 0.29272042004648074,
        "E": 0.3088991440686105,
        "I": 0.2732855066310832,
        "B": 0.2992932265896641,
        "J": 0.2835403491126498,
        "C": 0.2942085237300342,
        "K": 0.27487619244134576,
        "L": 0.30427240458284466
    },
    "Average_excess_waiting_time": {
        "A": 82.26203932748172,
        "D": 83.01322392780571,
        "F": 77.04193307371685,
        "H": 69.53298458575762,
        "G": 73.00895114464191,
        "E": 80.2355035826144,
        "I": 69.58491925471458,
        "B": 80.83491934736998,
        "J": 73.80610843171974,
        "C": 81.25328331380797,
        "K": 74.1402058682832,
        "L": 81.21848825476434
    },
    "Holding_per_stop": {
        "H": 29.032258064516128,
        "F": 27.391304347826086,
        "G": 24.516129032258064,
        "E": 26.73913043478261,
        "A": 22.17391304347826,
        "D": 32.967032967032964,
        "I": 25.161290322580644,
        "B": 19.12087912087912,
        "J": 31.956521739130434,
        "C": 25.714285714285715,
        "K": 22.82608695652174,
        "L": 30.32967032967033
    },
    "Actions_tfl_edges": {
        "CD": [
            8,
            44,
            40
        ],
        "DE": [
            5,
            47,
            40
        ],
        "EF": [
            6,
            46,
            41
        ],
        "FG": [
            8,
            43,
            42
        ],
        "GH": [
            5,
            46,
            43
        ],
        "LA": [
            4,
            52,
            36
        ],
        "HI": [
            7,
            45,
            41
        ],
        "AB": [
            7,
            47,
            38
        ],
        "IJ": [
            4,
            44,
            45
        ],
        "BC": [
            7,
            41,
            43
        ],
        "JK": [
            10,
            37,
            45
        ],
        "KL": [
            7,
            48,
            36
        ]
    },
    "Load_per_bus_per_stop": {
        "bus5": {
            "A": 77.625,
            "B": 75.1875,
            "C": 75.6875,
            "D": 74.73333333333333,
            "E": 75.86666666666666,
            "F": 76.26666666666667,
            "G": 79.33333333333333,
            "H": 79.13333333333334,
            "I": 79.6,
            "J": 78.6,
            "K": 80.13333333333334,
            "L": 79.73333333333333
        },
        "bus0": {
            "D": 87.6875,
            "E": 87.5625,
            "F": 89.26666666666667,
            "G": 90.46666666666667,
            "H": 93.4,
            "I": 91.4,
            "J": 92.53333333333333,
            "K": 93.86666666666666,
            "L": 92.53333333333333,
            "A": 94.53333333333333,
            "B": 95.13333333333334,
            "C": 92.8
        },
        "bus2": {
            "F": 79.5625,
            "G": 77.75,
            "H": 76.3125,
            "I": 76.75,
            "J": 75.66666666666667,
            "K": 73.93333333333334,
            "L": 75.93333333333334,
            "A": 79.4,
            "B": 80.73333333333333,
            "C": 81.4,
            "D": 81.66666666666667,
            "E": 83
        },
        "bus4": {
            "H": 83.1875,
            "I": 85.25,
            "J": 86.0625,
            "K": 84.0625,
            "L": 85.4375,
            "A": 86,
            "B": 87.66666666666667,
            "C": 90.33333333333333,
            "D": 91.2,
            "E": 91.66666666666667,
            "F": 89.86666666666666,
            "G": 87.46666666666667
        },
        "bus3": {
            "G": 62.75,
            "H": 64.25,
            "I": 64.3125,
            "J": 65.5625,
            "K": 65.875,
            "L": 64.8,
            "A": 63.86666666666667,
            "B": 65.4,
            "C": 65.73333333333333,
            "D": 66,
            "E": 67.2,
            "F": 66.2
        },
        "bus1": {
            "E": 79,
            "F": 78.5,
            "G": 81.0625,
            "H": 81.53333333333333,
            "I": 81.26666666666667,
            "J": 80.6,
            "K": 83.4,
            "L": 81.86666666666666,
            "A": 82.13333333333334,
            "B": 81.13333333333334,
            "C": 82.33333333333333,
            "D": 83.53333333333333
        }
    },
    "Obs_and_actions_busses": {
        "4": 308.42482328000824,
        "2": 100.86271097108936,
        "0": -237.9960635967222
    },
    "Obs_and_actions_tfls": {
        "2": 299.9374141193524,
        "1": -71.47585132163356,
        "0": 135.57463309844252
    }
}