{
    "Average_holding_time": 76.02564102564102,
    "Average_holding_actions": [
        310,
        16,
        0,
        117,
        259,
        0
    ],
    "Average_travel_time_passengers": 5062.110085154344,
    "Average_passenger_waiting_time": 1233.945987648772,
    "Average_passenger_in_vehicle_time": 3828.1640975056057,
    "Average_speed_busses": 0.02925,
    "Average_experienced_crowding": 304.3366510833848,
    "Average_covariation_headway": 1.4164318399290232,
    "Average_covariation_headway_stops": {
        "F": 1.2223550681387136,
        "K": 1.2795226339632102,
        "D": 1.238497549781118,
        "G": 1.2374103437151098,
        "A": 1.2127020431717368,
        "B": 1.2390949180883113,
        "C": 1.2240809105269568,
        "E": 1.2195708781104344,
        "H": 1.242692419361758,
        "L": 1.2811851113218504,
        "I": 1.2616747874353957,
        "J": 1.2638367300500792
    },
    "Average_excess_waiting_time": {
        "F": 950.968210514535,
        "K": 1008.7400258670211,
        "D": 970.102737910129,
        "G": 958.2304190135469,
        "A": 1007.2833568924639,
        "B": 969.0698623120538,
        "C": 962.2725016867441,
        "E": 958.849018610681,
        "H": 978.4719300235352,
        "L": 1024.62596977531,
        "I": 983.178164813904,
        "J": 997.8464507336412
    },
    "Holding_per_stop": {
        "D": 81.72413793103448,
        "B": 71.57894736842105,
        "G": 71.5,
        "K": 73.5,
        "F": 71.1864406779661,
        "A": 95.35714285714286,
        "C": 75.78947368421052,
        "E": 80.17241379310344,
        "H": 71.69491525423729,
        "L": 73.5,
        "I": 76.27118644067797,
        "J": 71.1864406779661
    },
    "Actions_tfl_edges": {
        "AB": [
            23,
            27,
            7
        ],
        "CD": [
            17,
            30,
            11
        ],
        "EF": [
            19,
            29,
            11
        ],
        "FG": [
            12,
            37,
            11
        ],
        "JK": [
            12,
            38,
            10
        ],
        "LA": [
            15,
            38,
            8
        ],
        "DE": [
            16,
            32,
            10
        ],
        "BC": [
            12,
            32,
            13
        ],
        "GH": [
            12,
            39,
            9
        ],
        "KL": [
            14,
            40,
            6
        ],
        "HI": [
            15,
            37,
            7
        ],
        "IJ": [
            12,
            39,
            8
        ]
    },
    "Load_per_bus_per_stop": {
        "bus2": {
            "F": 28.2,
            "G": 29.3,
            "H": 30.6,
            "I": 31.3,
            "J": 32.1,
            "K": 34.5,
            "L": 34.9,
            "A": 33.55555555555556,
            "B": 33,
            "C": 33.55555555555556,
            "D": 32.44444444444444,
            "E": 31
        },
        "bus4": {
            "K": 257.3,
            "L": 257.3,
            "A": 259.1,
            "B": 265.9,
            "C": 263.5,
            "D": 258.1,
            "E": 261.6,
            "F": 263.5,
            "G": 268,
            "H": 276.1,
            "I": 276.22222222222223,
            "J": 281.6666666666667
        },
        "bus1": {
            "D": 5.5,
            "E": 6.2,
            "F": 7.7,
            "G": 8.1,
            "H": 7.9,
            "I": 8.4,
            "J": 8.9,
            "K": 8.9,
            "L": 8.7,
            "A": 7.888888888888889,
            "B": 7.222222222222222,
            "C": 6.444444444444445
        },
        "bus3": {
            "G": 352.5,
            "H": 352.5,
            "I": 358.6,
            "J": 364.3,
            "K": 373.1,
            "L": 377.7,
            "A": 381.6,
            "B": 374.22222222222223,
            "C": 378.1111111111111,
            "D": 382.44444444444446,
            "E": 384,
            "F": 382.44444444444446
        },
        "bus5": {
            "A": 49.8,
            "B": 51,
            "C": 52.2,
            "D": 53.5,
            "E": 56.1,
            "F": 56.6,
            "G": 55,
            "H": 54.5,
            "I": 53.8,
            "J": 51.3,
            "K": 50.6,
            "L": 48
        },
        "bus0": {
            "B": 9.9,
            "C": 10.1,
            "D": 11.6,
            "E": 12.1,
            "F": 12.4,
            "G": 12.9,
            "H": 13.4,
            "I": 13,
            "J": 12.4,
            "K": 11.4,
            "L": 10.5,
            "A": 11.11111111111111
        }
    },
    "Obs_and_actions_busses": {
        "5": 1049.6192402864083,
        "0": -0.5021970083792153,
        "1": 240.1897222645282,
        "4": -2313.435949479989
    },
    "Obs_and_actions_tfls": {
        "1": 498.19119923525074,
        "0": -1275.7208108809134,
        "2": 401.5004877670276
    }
}9160189172155,
        "1": 235.55416336742908
    },
    "Obs_and_actions_tfls": {
        "2": 831.5587707024878,
        "1": 357.8672046522735,
        "0": -1429.4703330140417
    }
}