{
    "Average_holding_time": 12.106194690265486,
    "Average_holding_actions": [
        968,
        52,
        0,
        74,
        0,
        0
    ],
    "Average_travel_time_passengers": 2741.8687393168448,
    "Average_passenger_waiting_time": 354.80247665868745,
    "Average_passenger_in_vehicle_time": 2387.066262658168,
    "Average_speed_busses": 0.04708333333333333,
    "Average_experienced_crowding": 90.0700374089022,
    "Average_covariation_headway": 0.4873520078137058,
    "Average_covariation_headway_stops": {
        "I": 0.414892328959573,
        "L": 0.36527740721466356,
        "A": 0.37144270543937213,
        "G": 0.3990188790139477,
        "K": 0.39203995504666805,
        "B": 0.3702100422944202,
        "J": 0.4026934992761906,
        "H": 0.39990101502708214,
        "C": 0.35429048326986157,
        "D": 0.366927254115737,
        "E": 0.3620055897714943,
        "F": 0.37937607659329
    },
    "Average_excess_waiting_time": {
        "I": 96.07872897135252,
        "L": 81.43430035880675,
        "A": 80.61640764324602,
        "G": 91.50694781967638,
        "K": 90.30172285862,
        "B": 78.21295516150354,
        "J": 95.02099907608812,
        "H": 93.42611501178408,
        "C": 76.12307115586862,
        "D": 80.53673026863981,
        "E": 82.12302869099841,
        "F": 88.98915517621936
    },
    "Holding_per_stop": {
        "I": 9.574468085106384,
        "L": 10.212765957446809,
        "A": 11.052631578947368,
        "G": 13.404255319148936,
        "K": 18.51063829787234,
        "B": 12.1875,
        "H": 13.548387096774194,
        "J": 11.612903225806452,
        "C": 6,
        "D": 16.105263157894736,
        "E": 9.574468085106384,
        "F": 13.548387096774194
    },
    "Actions_tfl_edges": {
        "AB": [
            0,
            61,
            35
        ],
        "FG": [
            0,
            67,
            27
        ],
        "HI": [
            0,
            67,
            27
        ],
        "JK": [
            0,
            63,
            31
        ],
        "KL": [
            0,
            69,
            26
        ],
        "LA": [
            0,
            64,
            31
        ],
        "IJ": [
            0,
            66,
            28
        ],
        "GH": [
            0,
            68,
            26
        ],
        "BC": [
            0,
            73,
            23
        ],
        "CD": [
            0,
            69,
            26
        ],
        "DE": [
            0,
            58,
            37
        ],
        "EF": [
            0,
            64,
            30
        ]
    },
    "Load_per_bus_per_stop": {
        "bus2": {
            "I": 73.6875,
            "J": 72.875,
            "K": 73.6875,
            "L": 75.4375,
            "A": 76.5625,
            "B": 77.4375,
            "C": 76.75,
            "D": 77.125,
            "E": 78.46666666666667,
            "F": 79.4,
            "G": 78.8,
            "H": 77.8
        },
        "bus4": {
            "L": 72.625,
            "A": 71.4375,
            "B": 70.5625,
            "C": 71,
            "D": 71.5,
            "E": 72.5,
            "F": 73.25,
            "G": 73.3125,
            "H": 74.8,
            "I": 75.33333333333333,
            "J": 77.93333333333334,
            "K": 77.26666666666667
        },
        "bus5": {
            "A": 65.6875,
            "B": 66.625,
            "C": 67.1875,
            "D": 68.0625,
            "E": 68.375,
            "F": 66.625,
            "G": 67.125,
            "H": 67.125,
            "I": 68.125,
            "J": 69.73333333333333,
            "K": 69.13333333333334,
            "L": 67.4
        },
        "bus1": {
            "G": 81.5625,
            "H": 81.3125,
            "I": 82.625,
            "J": 84.9375,
            "K": 84.25,
            "L": 84.3125,
            "A": 83.25,
            "B": 84.375,
            "C": 87.86666666666666,
            "D": 87.13333333333334,
            "E": 87.13333333333334,
            "F": 87.26666666666667
        },
        "bus3": {
            "K": 83.8125,
            "L": 83.125,
            "A": 81.9375,
            "B": 82.5,
            "C": 82.1875,
            "D": 83.3125,
            "E": 84.875,
            "F": 86.6,
            "G": 90.66666666666667,
            "H": 89.93333333333334,
            "I": 88.66666666666667,
            "J": 89.06666666666666
        },
        "bus0": {
            "B": 92.5,
            "C": 92.3125,
            "D": 94.375,
            "E": 94.4375,
            "F": 95.25,
            "G": 97.6875,
            "H": 99.625,
            "I": 99.875,
            "J": 100.75,
            "K": 99.125,
            "L": 99.2,
            "A": 98.53333333333333
        }
    },
    "Obs_and_actions_busses": {
        "0": -202.5252459019431,
        "4": 404.52129106452026,
        "3": 192.57100048646208,
        "1": 154.10639971711763
    },
    "Obs_and_actions_tfls": {
        "2": -200.40111575975658,
        "1": 252.77800176250432
    }
}