{
    "Average_holding_time": 26.341463414634145,
    "Average_holding_actions": [
        716,
        0,
        296,
        95,
        0,
        0
    ],
    "Average_travel_time_passengers": 2771.6207108257618,
    "Average_passenger_waiting_time": 345.3738620060785,
    "Average_passenger_in_vehicle_time": 2426.246848819695,
    "Average_speed_busses": 0.046125,
    "Average_experienced_crowding": 85.87486899403137,
    "Average_covariation_headway": 0.39900567521561253,
    "Average_covariation_headway_stops": {
        "C": 0.3120819323111476,
        "E": 0.31809976524551986,
        "D": 0.3328313253051204,
        "J": 0.30961798230661874,
        "A": 0.2950341075771548,
        "F": 0.30194817577342475,
        "G": 0.3072310127811001,
        "B": 0.2966211886599028,
        "K": 0.30060113489728496,
        "H": 0.28396870590413603,
        "L": 0.30280652091775434,
        "I": 0.30391370597257034
    },
    "Average_excess_waiting_time": {
        "C": 79.10323336664783,
        "E": 76.45424458641537,
        "D": 81.12639971821721,
        "J": 76.60664925964568,
        "A": 75.5113616269739,
        "F": 71.8029918002245,
        "G": 74.26154280237921,
        "B": 77.60724456990522,
        "K": 77.73074582230555,
        "H": 71.97514494975547,
        "L": 79.48511544549291,
        "I": 77.8979259876856
    },
    "Holding_per_stop": {
        "D": 33.54838709677419,
        "E": 25.161290322580644,
        "F": 21.93548387096774,
        "C": 32.608695652173914,
        "J": 26.73913043478261,
        "A": 18.26086956521739,
        "G": 28.387096774193548,
        "K": 30.652173913043477,
        "B": 21.52173913043478,
        "H": 28.695652173913043,
        "L": 25.714285714285715,
        "I": 22.82608695652174
    },
    "Actions_tfl_edges": {
        "BC": [
            11,
            27,
            55
        ],
        "CD": [
            16,
            33,
            44
        ],
        "DE": [
            20,
            37,
            37
        ],
        "EF": [
            10,
            36,
            48
        ],
        "IJ": [
            12,
            34,
            47
        ],
        "LA": [
            18,
            34,
            40
        ],
        "FG": [
            8,
            37,
            48
        ],
        "JK": [
            18,
            31,
            43
        ],
        "AB": [
            12,
            33,
            47
        ],
        "GH": [
            11,
            32,
            50
        ],
        "KL": [
            20,
            25,
            47
        ],
        "HI": [
            11,
            34,
            47
        ]
    },
    "Load_per_bus_per_stop": {
        "bus0": {
            "C": 77.0625,
            "D": 81.125,
            "E": 80.1875,
            "F": 80.1875,
            "G": 78.33333333333333,
            "H": 77.46666666666667,
            "I": 79.06666666666666,
            "J": 80.26666666666667,
            "K": 80.13333333333334,
            "L": 81.4,
            "A": 82.53333333333333,
            "B": 81.8
        },
        "bus2": {
            "E": 55.375,
            "F": 57.125,
            "G": 56.125,
            "H": 56.9375,
            "I": 57.0625,
            "J": 56.5,
            "K": 55.13333333333333,
            "L": 54.86666666666667,
            "A": 55.46666666666667,
            "B": 56.6,
            "C": 57.06666666666667,
            "D": 56.4
        },
        "bus1": {
            "D": 62.9375,
            "E": 64.6875,
            "F": 67.75,
            "G": 67.75,
            "H": 68,
            "I": 66.33333333333333,
            "J": 65.46666666666667,
            "K": 64,
            "L": 67.8,
            "A": 68,
            "B": 69.26666666666667,
            "C": 69.53333333333333
        },
        "bus4": {
            "J": 89.5,
            "K": 89.375,
            "L": 89.625,
            "A": 89,
            "B": 89.3125,
            "C": 90.8,
            "D": 90.2,
            "E": 90.73333333333333,
            "F": 89.53333333333333,
            "G": 90.6,
            "H": 92.46666666666667,
            "I": 94.4
        },
        "bus5": {
            "A": 90.1875,
            "B": 89,
            "C": 88.9375,
            "D": 90.4375,
            "E": 92.06666666666666,
            "F": 93.8,
            "G": 94.53333333333333,
            "H": 95.13333333333334,
            "I": 92.46666666666667,
            "J": 94.8,
            "K": 95.46666666666667,
            "L": 96.06666666666666
        },
        "bus3": {
            "F": 92.5625,
            "G": 93.5625,
            "H": 94.75,
            "I": 93.6875,
            "J": 94.125,
            "K": 95.0625,
            "L": 96.06666666666666,
            "A": 98,
            "B": 98.6,
            "C": 97.46666666666667,
            "D": 98.73333333333333,
            "E": 96.93333333333334
        }
    },
    "Obs_and_actions_busses": {
        "4": 287.25926768955736,
        "0": -230.25776368261788,
        "2": 101.67197112640753
    },
    "Obs_and_actions_tfls": {
        "2": 289.7822519157327,
        "1": -145.19265179357427,
        "0": 111.61612877365509
    }
}and_actions_tfls": {
        "1": -70.24005394128775,
        "2": 296.41778525866863,
        "0": 116.77260299359278
    }
}