{
    "Average_holding_time": 12.78688524590164,
    "Average_holding_actions": [
        839,
        233,
        0,
        0,
        0,
        0
    ],
    "Average_travel_time_passengers": 2613.1152897566863,
    "Average_passenger_waiting_time": 310.91978686396214,
    "Average_passenger_in_vehicle_time": 2302.1955028927605,
    "Average_speed_busses": 0.04829166666666666,
    "Average_experienced_crowding": 77.034709774731,
    "Average_covariation_headway": 0.25128730341004557,
    "Average_covariation_headway_stops": {
        "J": 0.1674541003700372,
        "B": 0.20940889395695692,
        "D": 0.2038894200913997,
        "F": 0.18421677022773167,
        "K": 0.18046791400358336,
        "I": 0.17482615531168835,
        "G": 0.16957552538606016,
        "L": 0.16970107301988127,
        "E": 0.19235743020512783,
        "C": 0.20744949753168176,
        "H": 0.1576600270824242,
        "A": 0.16940889464008918
    },
    "Average_excess_waiting_time": {
        "J": 41.19299641442012,
        "B": 44.74430324679935,
        "D": 43.76169457568642,
        "F": 41.95536607713257,
        "K": 40.2730143368741,
        "I": 43.76547052193723,
        "G": 41.97608146525124,
        "L": 40.67836243930128,
        "E": 44.15961362326891,
        "C": 46.305146870064334,
        "H": 42.75326508795581,
        "A": 41.915071991287334
    },
    "Holding_per_stop": {
        "J": 12.68041237113402,
        "D": 15.463917525773196,
        "F": 11.75257731958763,
        "B": 8.969072164948454,
        "K": 10.206185567010309,
        "I": 18.4375,
        "G": 15.3125,
        "L": 10.515463917525773,
        "E": 18.24742268041237,
        "C": 14.0625,
        "H": 12.8125,
        "A": 5
    },
    "Actions_tfl_edges": {
        "AB": [
            14,
            51,
            32
        ],
        "CD": [
            13,
            42,
            42
        ],
        "EF": [
            13,
            40,
            44
        ],
        "HI": [
            12,
            45,
            40
        ],
        "IJ": [
            10,
            42,
            45
        ],
        "JK": [
            12,
            50,
            36
        ],
        "DE": [
            10,
            43,
            44
        ],
        "FG": [
            10,
            42,
            45
        ],
        "BC": [
            14,
            43,
            40
        ],
        "KL": [
            9,
            43,
            45
        ],
        "GH": [
            9,
            41,
            46
        ],
        "LA": [
            13,
            45,
            39
        ]
    },
    "Load_per_bus_per_stop": {
        "bus4": {
            "J": 73.82352941176471,
            "K": 71.0625,
            "L": 71.0625,
            "A": 69.9375,
            "B": 68.75,
            "C": 69.5,
            "D": 71,
            "E": 73.6875,
            "F": 74.0625,
            "G": 74.75,
            "H": 75.375,
            "I": 77.5
        },
        "bus0": {
            "B": 77.58823529411765,
            "C": 79.3529411764706,
            "D": 80.0625,
            "E": 80.0625,
            "F": 79.125,
            "G": 83.25,
            "H": 84.1875,
            "I": 84.375,
            "J": 83.25,
            "K": 81.75,
            "L": 81.75,
            "A": 80.875
        },
        "bus1": {
            "D": 71.29411764705883,
            "E": 72.6470588235294,
            "F": 71.1875,
            "G": 72.0625,
            "H": 75.1875,
            "I": 77,
            "J": 77.9375,
            "K": 76.75,
            "L": 78,
            "A": 77.875,
            "B": 76.4375,
            "C": 77.5625
        },
        "bus2": {
            "F": 77.6470588235294,
            "G": 75.82352941176471,
            "H": 75.25,
            "I": 75.8125,
            "J": 76,
            "K": 76.5,
            "L": 79.0625,
            "A": 78,
            "B": 79.3125,
            "C": 81.1875,
            "D": 82,
            "E": 82.0625
        },
        "bus5": {
            "K": 71.52941176470588,
            "L": 71.05882352941177,
            "A": 70.9375,
            "B": 72.625,
            "C": 76.0625,
            "D": 75.8125,
            "E": 76.375,
            "F": 78.375,
            "G": 78.6875,
            "H": 79,
            "I": 76.8125,
            "J": 75.875
        },
        "bus3": {
            "I": 69.9375,
            "J": 71,
            "K": 71.5,
            "L": 70.0625,
            "A": 71.25,
            "B": 72.125,
            "C": 72.1875,
            "D": 73.5625,
            "E": 74.375,
            "F": 74.6875,
            "G": 74.3125,
            "H": 73.625
        }
    },
    "Obs_and_actions_busses": {
        "1": 84.2535301293651,
        "3": 208.6543125821672,
        "0": -187.09439045633437
    },
    "Obs_and_actions_tfls": {
        "1": 299.3972598571492,
        "0": -198.86344643285747,
        "2": 40.00025304291541
    }
}