{
    "Average_holding_time": 20.317316409791477,
    "Average_holding_actions": [
        774,
        69,
        176,
        48,
        13,
        0
    ],
    "Average_travel_time_passengers": 2745.0606413479372,
    "Average_passenger_waiting_time": 325.0952031039533,
    "Average_passenger_in_vehicle_time": 2419.9654382439508,
    "Average_speed_busses": 0.04595833333333333,
    "Average_experienced_crowding": 81.0713702741567,
    "Average_covariation_headway": 0.21389959366309305,
    "Average_covariation_headway_stops": {
        "J": 0.18182025042396,
        "F": 0.1692289188584031,
        "H": 0.1711352573143961,
        "I": 0.1816985102815452,
        "D": 0.18405297432174533,
        "L": 0.16793508860597198,
        "K": 0.1691223066242448,
        "G": 0.15519196667765797,
        "A": 0.1443249943075507,
        "E": 0.15600696195805497,
        "B": 0.1453312371960702,
        "C": 0.17541260646414925
    },
    "Average_excess_waiting_time": {
        "J": 55.17936171191275,
        "F": 57.35985730004904,
        "H": 57.19488418073939,
        "I": 56.20814815156672,
        "D": 59.27127168225951,
        "L": 52.95687340381255,
        "K": 55.26484413833782,
        "G": 57.56600733806391,
        "A": 52.624019529570944,
        "E": 57.72496698388824,
        "B": 54.802941651241326,
        "C": 59.66335386343491
    },
    "Holding_per_stop": {
        "J": 25.806451612903224,
        "F": 25.76086956521739,
        "H": 20.869565217391305,
        "I": 22.82608695652174,
        "L": 23.225806451612904,
        "D": 20.869565217391305,
        "K": 20.543478260869566,
        "G": 16.153846153846153,
        "A": 11.08695652173913,
        "E": 23.076923076923077,
        "B": 14.347826086956522,
        "C": 19.12087912087912
    },
    "Actions_tfl_edges": {
        "CD": [
            11,
            72,
            9
        ],
        "EF": [
            2,
            78,
            12
        ],
        "GH": [
            10,
            64,
            18
        ],
        "HI": [
            7,
            74,
            12
        ],
        "IJ": [
            8,
            70,
            15
        ],
        "KL": [
            8,
            65,
            20
        ],
        "JK": [
            5,
            73,
            15
        ],
        "FG": [
            7,
            72,
            13
        ],
        "LA": [
            9,
            62,
            22
        ],
        "DE": [
            11,
            70,
            11
        ],
        "AB": [
            5,
            72,
            15
        ],
        "BC": [
            4,
            77,
            11
        ]
    },
    "Load_per_bus_per_stop": {
        "bus4": {
            "J": 77.375,
            "K": 80.25,
            "L": 78.625,
            "A": 80.4375,
            "B": 80.0625,
            "C": 78.75,
            "D": 80,
            "E": 80.73333333333333,
            "F": 83.53333333333333,
            "G": 84.06666666666666,
            "H": 83.4,
            "I": 82.53333333333333
        },
        "bus1": {
            "F": 74.4375,
            "G": 76,
            "H": 76.8125,
            "I": 75.75,
            "J": 78.06666666666666,
            "K": 80.06666666666666,
            "L": 81.26666666666667,
            "A": 81.33333333333333,
            "B": 81,
            "C": 80.8,
            "D": 80,
            "E": 79.06666666666666
        },
        "bus2": {
            "H": 78.3125,
            "I": 77.25,
            "J": 77.125,
            "K": 75.73333333333333,
            "L": 75.2,
            "A": 77.4,
            "B": 78.53333333333333,
            "C": 80.13333333333334,
            "D": 80.8,
            "E": 82.93333333333334,
            "F": 81.8,
            "G": 81.66666666666667
        },
        "bus3": {
            "I": 71.875,
            "J": 74.25,
            "K": 72.75,
            "L": 71.875,
            "A": 73.4375,
            "B": 72.46666666666667,
            "C": 72.73333333333333,
            "D": 72,
            "E": 73.46666666666667,
            "F": 74.53333333333333,
            "G": 74,
            "H": 76.26666666666667
        },
        "bus0": {
            "D": 84.0625,
            "E": 84.5,
            "F": 86,
            "G": 85.25,
            "H": 83.2,
            "I": 83,
            "J": 82.4,
            "K": 86.13333333333334,
            "L": 87,
            "A": 85.73333333333333,
            "B": 85.06666666666666,
            "C": 87.86666666666666
        },
        "bus5": {
            "L": 80.75,
            "A": 83.75,
            "B": 83.5,
            "C": 83,
            "D": 83.8125,
            "E": 84.06666666666666,
            "F": 85.66666666666667,
            "G": 85.66666666666667,
            "H": 86.86666666666666,
            "I": 85.2,
            "J": 85.26666666666667,
            "K": 85.53333333333333
        }
    },
    "Obs_and_actions_busses": {
        "0": -175.3178949338856,
        "5": 314.16200045732336,
        "4": 167.8280249107805,
        "2": 62.956273164485566,
        "1": 111.19016032435815,
        "3": 136.2691893124619
    },
    "Obs_and_actions_tfls": {
        "1": 190.45882285548566,
        "0": -16.899677561917688,
        "2": -115.00232033262942
    }
}