{
    "Average_holding_time": 18.377659574468087,
    "Average_holding_actions": [
        749,
        223,
        0,
        0,
        0,
        0
    ],
    "Average_travel_time_passengers": 2741.48000930982,
    "Average_passenger_waiting_time": 344.4369514116911,
    "Average_passenger_in_vehicle_time": 2397.043057898104,
    "Average_speed_busses": 0.047,
    "Average_experienced_crowding": 85.95576945411764,
    "Average_covariation_headway": 0.3751765222501871,
    "Average_covariation_headway_stops": {
        "H": 0.27914852395553497,
        "I": 0.30268424550496836,
        "E": 0.2932261211410633,
        "J": 0.30096134679237946,
        "D": 0.29414764756236383,
        "C": 0.30458095904849003,
        "F": 0.29214507857227096,
        "K": 0.29796807148756477,
        "G": 0.2791466505185963,
        "L": 0.28131490034555456,
        "A": 0.27812005877891444,
        "B": 0.301988150222431
    },
    "Average_excess_waiting_time": {
        "H": 65.3600441368676,
        "I": 67.6481199964258,
        "E": 66.281448134769,
        "J": 66.11088146167646,
        "D": 68.43596462204152,
        "C": 71.84644027940044,
        "F": 67.72485144443107,
        "K": 67.42404621155788,
        "G": 67.47843828926597,
        "L": 66.13646061122319,
        "A": 67.25954854131828,
        "B": 73.50095077133204
    },
    "Holding_per_stop": {
        "E": 24.31578947368421,
        "I": 20.74468085106383,
        "J": 21.157894736842106,
        "D": 21.06382978723404,
        "H": 17.872340425531913,
        "C": 16.595744680851062,
        "F": 19.148936170212767,
        "K": 21.70212765957447,
        "G": 14.193548387096774,
        "L": 20.74468085106383,
        "A": 8.617021276595745,
        "B": 14.193548387096774
    },
    "Actions_tfl_edges": {
        "BC": [
            16,
            49,
            29
        ],
        "CD": [
            14,
            53,
            28
        ],
        "DE": [
            12,
            45,
            38
        ],
        "GH": [
            10,
            39,
            45
        ],
        "HI": [
            10,
            35,
            50
        ],
        "IJ": [
            16,
            37,
            42
        ],
        "EF": [
            10,
            40,
            44
        ],
        "JK": [
            12,
            40,
            43
        ],
        "FG": [
            12,
            37,
            45
        ],
        "KL": [
            16,
            41,
            37
        ],
        "LA": [
            15,
            37,
            42
        ],
        "AB": [
            15,
            37,
            41
        ]
    },
    "Load_per_bus_per_stop": {
        "bus3": {
            "H": 67.0625,
            "I": 67.875,
            "J": 68.8125,
            "K": 70.9375,
            "L": 72.75,
            "A": 72.1875,
            "B": 72.75,
            "C": 72.8125,
            "D": 73.4,
            "E": 74.86666666666666,
            "F": 73.4,
            "G": 71.13333333333334
        },
        "bus4": {
            "I": 59.8125,
            "J": 58.875,
            "K": 57.625,
            "L": 59.6875,
            "A": 60.625,
            "B": 58.8125,
            "C": 60.375,
            "D": 61.125,
            "E": 61.375,
            "F": 61.266666666666666,
            "G": 62.733333333333334,
            "H": 62.46666666666667
        },
        "bus2": {
            "E": 77.125,
            "F": 81.0625,
            "G": 81.1875,
            "H": 81.875,
            "I": 83.375,
            "J": 83.625,
            "K": 84.4375,
            "L": 84.8125,
            "A": 85.75,
            "B": 86.86666666666666,
            "C": 85.06666666666666,
            "D": 83.33333333333333
        },
        "bus5": {
            "J": 81.375,
            "K": 83.6875,
            "L": 82.375,
            "A": 83.3125,
            "B": 83.875,
            "C": 84.5,
            "D": 86.375,
            "E": 87,
            "F": 87.0625,
            "G": 85.9375,
            "H": 86.53333333333333,
            "I": 85.73333333333333
        },
        "bus1": {
            "D": 81.4375,
            "E": 83.125,
            "F": 82.375,
            "G": 85.25,
            "H": 86.875,
            "I": 88.625,
            "J": 86.375,
            "K": 85.875,
            "L": 86.2,
            "A": 88.66666666666667,
            "B": 90.33333333333333,
            "C": 88.33333333333333
        },
        "bus0": {
            "C": 91.125,
            "D": 91.8125,
            "E": 93.0625,
            "F": 93.375,
            "G": 93,
            "H": 91.875,
            "I": 93.875,
            "J": 92.13333333333334,
            "K": 94.06666666666666,
            "L": 93.13333333333334,
            "A": 95.06666666666666,
            "B": 96
        }
    },
    "Obs_and_actions_busses": {
        "3": 252.65363756178607,
        "0": -237.61708775737745,
        "1": 86.60219005973055
    },
    "Obs_and_actions_tfls": {
        "1": 311.1396041974987,
        "0": -365.81804453805165,
        "2": 62.72400964551544
    }
}