{
    "Average_holding_time": 28.054794520547944,
    "Average_holding_actions": [
        689,
        0,
        300,
        106,
        0,
        0
    ],
    "Average_travel_time_passengers": 2802.8707814794584,
    "Average_passenger_waiting_time": 348.63563792718054,
    "Average_passenger_in_vehicle_time": 2454.235143552239,
    "Average_speed_busses": 0.045625,
    "Average_experienced_crowding": 87.76572793947383,
    "Average_covariation_headway": 0.390606070836763,
    "Average_covariation_headway_stops": {
        "L": 0.3171310715878541,
        "H": 0.30182792690827737,
        "A": 0.2997719961375475,
        "D": 0.2980620018273326,
        "E": 0.31070652820991473,
        "G": 0.30808480822196777,
        "I": 0.28470622242926696,
        "F": 0.2982023831437736,
        "B": 0.28896637086172794,
        "J": 0.2787495464238939,
        "C": 0.281464421892647,
        "K": 0.30489482448736016
    },
    "Average_excess_waiting_time": {
        "L": 81.82674196546986,
        "H": 78.4050083232782,
        "A": 77.04047584110765,
        "D": 78.49018567867051,
        "E": 78.75701079350813,
        "G": 78.64477118220344,
        "I": 75.16710606907208,
        "F": 78.2401057905023,
        "B": 76.57794041666511,
        "J": 76.33387334841854,
        "C": 77.43516140977533,
        "K": 83.7717304375463
    },
    "Holding_per_stop": {
        "H": 28.695652173913043,
        "A": 18.91304347826087,
        "E": 28.043478260869566,
        "G": 28.695652173913043,
        "L": 34.94505494505494,
        "D": 30.98901098901099,
        "I": 32.30769230769231,
        "F": 23.736263736263737,
        "B": 16.483516483516482,
        "J": 29.01098901098901,
        "C": 33.62637362637363,
        "K": 31.333333333333332
    },
    "Actions_tfl_edges": {
        "CD": [
            11,
            38,
            43
        ],
        "DE": [
            8,
            45,
            39
        ],
        "FG": [
            7,
            42,
            43
        ],
        "GH": [
            7,
            43,
            43
        ],
        "KL": [
            14,
            34,
            43
        ],
        "LA": [
            7,
            40,
            45
        ],
        "HI": [
            6,
            40,
            46
        ],
        "AB": [
            9,
            41,
            42
        ],
        "EF": [
            12,
            40,
            40
        ],
        "IJ": [
            10,
            38,
            43
        ],
        "BC": [
            9,
            33,
            49
        ],
        "JK": [
            8,
            42,
            41
        ]
    },
    "Load_per_bus_per_stop": {
        "bus4": {
            "L": 76.5625,
            "A": 78.5,
            "B": 79.125,
            "C": 78.8,
            "D": 80.86666666666666,
            "E": 82.6,
            "F": 82.4,
            "G": 84.86666666666666,
            "H": 84.13333333333334,
            "I": 83.93333333333334,
            "J": 82.86666666666666,
            "K": 82.4
        },
        "bus3": {
            "H": 87.125,
            "I": 89.75,
            "J": 90.0625,
            "K": 91.8125,
            "L": 89.46666666666667,
            "A": 90.2,
            "B": 90.33333333333333,
            "C": 89.33333333333333,
            "D": 91.33333333333333,
            "E": 90.73333333333333,
            "F": 89.86666666666666,
            "G": 89.46666666666667
        },
        "bus5": {
            "A": 74.1875,
            "B": 75.3125,
            "C": 74.375,
            "D": 76.25,
            "E": 75.86666666666666,
            "F": 76.06666666666666,
            "G": 76.26666666666667,
            "H": 76.73333333333333,
            "I": 78.66666666666667,
            "J": 79,
            "K": 79.53333333333333,
            "L": 80.6
        },
        "bus0": {
            "D": 52.5,
            "E": 50.25,
            "F": 50.5,
            "G": 50.4,
            "H": 50.8,
            "I": 51,
            "J": 52.2,
            "K": 51.333333333333336,
            "L": 52.86666666666667,
            "A": 54.06666666666667,
            "B": 55.333333333333336,
            "C": 56.4
        },
        "bus1": {
            "E": 92.375,
            "F": 92.125,
            "G": 93.1875,
            "H": 96.33333333333333,
            "I": 94.46666666666667,
            "J": 95.46666666666667,
            "K": 97.53333333333333,
            "L": 99.8,
            "A": 100.2,
            "B": 99.26666666666667,
            "C": 98.86666666666666,
            "D": 100.06666666666666
        },
        "bus2": {
            "G": 91.875,
            "H": 93.3125,
            "I": 91.13333333333334,
            "J": 95.2,
            "K": 97.26666666666667,
            "L": 99.06666666666666,
            "A": 98.86666666666666,
            "B": 98.2,
            "C": 97.93333333333334,
            "D": 100.06666666666666,
            "E": 99.13333333333334,
            "F": 98.4
        }
    },
    "Obs_and_actions_busses": {
        "4": 310.2556661658467,
        "0": -252.9703485015493,
        "2": 104.18838086838868
    },
    "Obs_and_actions_tfls": {
        "2": 301.94777074377436,
        "1": -110.87801204692742,
        "0": 123.10212102508507
    }
}