{
    "Average_holding_time": 18.125568698817105,
    "Average_holding_actions": [
        948,
        0,
        0,
        91,
        60,
        0
    ],
    "Average_travel_time_passengers": 2865.1556565478527,
    "Average_passenger_waiting_time": 399.0390951754727,
    "Average_passenger_in_vehicle_time": 2466.1165613723633,
    "Average_speed_busses": 0.04579166666666667,
    "Average_experienced_crowding": 97.87313722593274,
    "Average_covariation_headway": 0.6078856592777803,
    "Average_covariation_headway_stops": {
        "K": 0.4736214553478375,
        "B": 0.4774772792363029,
        "L": 0.48939812130188953,
        "A": 0.48513803930164184,
        "G": 0.47893768337391673,
        "J": 0.478239106424906,
        "C": 0.46087335421788644,
        "H": 0.4623083781185681,
        "D": 0.4691157168120838,
        "I": 0.4718279573891939,
        "E": 0.4620388665568283,
        "F": 0.47529609076401846
    },
    "Average_excess_waiting_time": {
        "K": 121.87322496708128,
        "B": 116.60234639527783,
        "L": 123.65447139895542,
        "A": 120.37139640964745,
        "G": 125.73424803997568,
        "J": 125.33562190870822,
        "C": 113.74848698459886,
        "H": 122.7669829842356,
        "D": 119.37584098941983,
        "I": 125.919142189517,
        "E": 121.88226251931508,
        "F": 127.0621442759707
    },
    "Holding_per_stop": {
        "B": 24.838709677419356,
        "K": 14.021739130434783,
        "L": 19.565217391304348,
        "A": 20.322580645161292,
        "G": 19.45054945054945,
        "J": 14.505494505494505,
        "C": 16.129032258064516,
        "H": 26.703296703296704,
        "D": 15.326086956521738,
        "E": 11.538461538461538,
        "I": 20,
        "F": 15
    },
    "Actions_tfl_edges": {
        "AB": [
            1,
            88,
            5
        ],
        "FG": [
            1,
            87,
            3
        ],
        "IJ": [
            1,
            87,
            3
        ],
        "JK": [
            1,
            89,
            2
        ],
        "KL": [
            1,
            89,
            2
        ],
        "LA": [
            0,
            89,
            4
        ],
        "BC": [
            1,
            87,
            5
        ],
        "GH": [
            1,
            86,
            4
        ],
        "CD": [
            1,
            86,
            6
        ],
        "HI": [
            1,
            87,
            3
        ],
        "DE": [
            2,
            84,
            6
        ],
        "EF": [
            1,
            85,
            5
        ]
    },
    "Load_per_bus_per_stop": {
        "bus3": {
            "K": 81.4375,
            "L": 82.75,
            "A": 83.5625,
            "B": 83.66666666666667,
            "C": 85.13333333333334,
            "D": 86.06666666666666,
            "E": 85.66666666666667,
            "F": 86.33333333333333,
            "G": 86.06666666666666,
            "H": 85.2,
            "I": 83.93333333333334,
            "J": 83.6
        },
        "bus0": {
            "B": 82.625,
            "C": 83.375,
            "D": 83.25,
            "E": 82.6875,
            "F": 84.46666666666667,
            "G": 86,
            "H": 88.13333333333334,
            "I": 89.2,
            "J": 90.86666666666666,
            "K": 94.26666666666667,
            "L": 92.33333333333333,
            "A": 89.53333333333333
        },
        "bus4": {
            "L": 59.625,
            "A": 61,
            "B": 60.3125,
            "C": 58.625,
            "D": 58.86666666666667,
            "E": 62,
            "F": 62.4,
            "G": 61.2,
            "H": 62.06666666666667,
            "I": 62.6,
            "J": 63.266666666666666,
            "K": 64.13333333333334
        },
        "bus5": {
            "A": 56.0625,
            "B": 59.25,
            "C": 60,
            "D": 60.125,
            "E": 60.333333333333336,
            "F": 59.06666666666667,
            "G": 57.53333333333333,
            "H": 57.93333333333333,
            "I": 57.86666666666667,
            "J": 57.8,
            "K": 57.46666666666667,
            "L": 59.266666666666666
        },
        "bus1": {
            "G": 114.375,
            "H": 113.5,
            "I": 113.73333333333333,
            "J": 114.6,
            "K": 114.13333333333334,
            "L": 116.66666666666667,
            "A": 116,
            "B": 118.06666666666666,
            "C": 120.4,
            "D": 118.2,
            "E": 118.46666666666667,
            "F": 119.2
        },
        "bus2": {
            "J": 81.8125,
            "K": 81.8125,
            "L": 80.06666666666666,
            "A": 81.93333333333334,
            "B": 81.53333333333333,
            "C": 85.66666666666667,
            "D": 87.33333333333333,
            "E": 87.66666666666667,
            "F": 86.46666666666667,
            "G": 88.2,
            "H": 87.8,
            "I": 88
        }
    },
    "Obs_and_actions_busses": {
        "0": -186.4316354146365,
        "4": 418.6383616887084,
        "5": 258.7500073875102
    },
    "Obs_and_actions_tfls": {
        "0": -983.1474089330552,
        "1": 155.8663583044551,
        "2": -672.1432783510776
    }
}