{
    "Average_holding_time": 9.488734835355286,
    "Average_holding_actions": [
        1022,
        41,
        0,
        51,
        0,
        0
    ],
    "Average_travel_time_passengers": 2661.970742276615,
    "Average_passenger_waiting_time": 330.2799798300173,
    "Average_passenger_in_vehicle_time": 2331.690762446598,
    "Average_speed_busses": 0.04808333333333333,
    "Average_experienced_crowding": 81.72594444343788,
    "Average_covariation_headway": 0.3882160785609204,
    "Average_covariation_headway_stops": {
        "E": 0.3213003884204323,
        "F": 0.3029638517786989,
        "I": 0.2867847010145769,
        "L": 0.28958413942947897,
        "G": 0.28184417063194306,
        "K": 0.2768941986434237,
        "A": 0.27650813037384164,
        "J": 0.26904155812633973,
        "H": 0.2835016737410659,
        "B": 0.2769621849197215,
        "C": 0.2743274283683111,
        "D": 0.2888596473269707
    },
    "Average_excess_waiting_time": {
        "E": 67.64049077724417,
        "F": 63.32133174494231,
        "I": 58.38119012208648,
        "L": 55.29924409014512,
        "G": 57.51074996372205,
        "K": 55.026914507184586,
        "A": 54.72189783438364,
        "J": 55.565699940488344,
        "H": 59.74737303350406,
        "B": 56.55581611566396,
        "C": 57.99259611365426,
        "D": 62.186300994432656
    },
    "Holding_per_stop": {
        "F": 10.625,
        "I": 13.4375,
        "G": 4.375,
        "L": 14.22680412371134,
        "K": 6.494845360824742,
        "E": 14.0625,
        "A": 5.257731958762887,
        "J": 12.5,
        "H": 9.375,
        "B": 7.8125,
        "C": 8.4375,
        "D": 7.2631578947368425
    },
    "Actions_tfl_edges": {
        "DE": [
            0,
            71,
            25
        ],
        "EF": [
            0,
            67,
            30
        ],
        "FG": [
            0,
            64,
            33
        ],
        "HI": [
            0,
            65,
            32
        ],
        "JK": [
            0,
            64,
            33
        ],
        "KL": [
            0,
            65,
            33
        ],
        "IJ": [
            0,
            68,
            28
        ],
        "GH": [
            0,
            62,
            34
        ],
        "LA": [
            0,
            61,
            36
        ],
        "AB": [
            0,
            60,
            37
        ],
        "BC": [
            0,
            60,
            36
        ],
        "CD": [
            0,
            65,
            31
        ]
    },
    "Load_per_bus_per_stop": {
        "bus0": {
            "E": 73.625,
            "F": 75.375,
            "G": 74.0625,
            "H": 75,
            "I": 75.375,
            "J": 74.75,
            "K": 76.3125,
            "L": 77.3125,
            "A": 77.5625,
            "B": 78.125,
            "C": 78.5,
            "D": 77.125
        },
        "bus1": {
            "F": 79.625,
            "G": 75.9375,
            "H": 73.9375,
            "I": 72.8125,
            "J": 74.125,
            "K": 75.8125,
            "L": 77.875,
            "A": 79.0625,
            "B": 79.125,
            "C": 81,
            "D": 80.0625,
            "E": 81.5625
        },
        "bus3": {
            "I": 75.52941176470588,
            "J": 74.625,
            "K": 75.3125,
            "L": 76,
            "A": 77.5,
            "B": 77.625,
            "C": 78.4375,
            "D": 78.875,
            "E": 78.4375,
            "F": 80.6875,
            "G": 81.5,
            "H": 81.25
        },
        "bus5": {
            "L": 73.58823529411765,
            "A": 73.58823529411765,
            "B": 72.52941176470588,
            "C": 73.875,
            "D": 75.1875,
            "E": 75.25,
            "F": 76.0625,
            "G": 76.0625,
            "H": 77.5625,
            "I": 77.6875,
            "J": 78.625,
            "K": 78
        },
        "bus2": {
            "G": 82.52941176470588,
            "H": 81.8125,
            "I": 82.5,
            "J": 83.6875,
            "K": 85.5625,
            "L": 86.875,
            "A": 88.5625,
            "B": 89.3125,
            "C": 89.4375,
            "D": 87.0625,
            "E": 88,
            "F": 87.1875
        },
        "bus4": {
            "K": 72.17647058823529,
            "L": 71.1875,
            "A": 71.6875,
            "B": 71.5,
            "C": 71.5625,
            "D": 71.375,
            "E": 71.5,
            "F": 73.3125,
            "G": 74.4375,
            "H": 77.5,
            "I": 78,
            "J": 76.875
        }
    },
    "Obs_and_actions_busses": {
        "4": 378.85540510789133,
        "0": -170.4412259080568,
        "3": 197.3219315903503,
        "1": 154.39061216933047
    },
    "Obs_and_actions_tfls": {
        "1": 248.01265703186863,
        "2": -137.5448369755996
    }
}