{
    "Average_holding_time": 9.21875,
    "Average_holding_actions": [
        1005,
        63,
        0,
        39,
        0,
        0
    ],
    "Average_travel_time_passengers": 2649.526600058098,
    "Average_passenger_waiting_time": 318.91284629044986,
    "Average_passenger_in_vehicle_time": 2330.6137537676545,
    "Average_speed_busses": 0.048,
    "Average_experienced_crowding": 80.31199805837277,
    "Average_covariation_headway": 0.3257836617611798,
    "Average_covariation_headway_stops": {
        "J": 0.22617269493100706,
        "D": 0.2250159304503372,
        "B": 0.20173054228136808,
        "A": 0.20883404520675122,
        "F": 0.23872924442943375,
        "I": 0.24822610853955449,
        "C": 0.21083174707066632,
        "K": 0.21623961548137707,
        "G": 0.2279563458875163,
        "E": 0.23393931352387606,
        "L": 0.19424647835992645,
        "H": 0.24559735687695272
    },
    "Average_excess_waiting_time": {
        "J": 49.26637608993559,
        "D": 48.37960255620351,
        "B": 45.525386426499495,
        "A": 49.20141338123187,
        "F": 50.41305609847052,
        "I": 54.3957740002229,
        "C": 48.262431610278384,
        "K": 50.0337587732738,
        "G": 50.61518258016429,
        "E": 51.307106624822325,
        "L": 49.478151431866195,
        "H": 55.54365928922641
    },
    "Holding_per_stop": {
        "J": 10.9375,
        "D": 7.731958762886598,
        "B": 4.0625,
        "F": 6.804123711340206,
        "A": 6.875,
        "I": 12.1875,
        "C": 8.4375,
        "K": 11.875,
        "E": 7.8125,
        "G": 9.6875,
        "H": 12.631578947368421,
        "L": 11.68421052631579
    },
    "Actions_tfl_edges": {
        "AB": [
            0,
            59,
            38
        ],
        "CD": [
            0,
            66,
            31
        ],
        "EF": [
            0,
            57,
            40
        ],
        "HI": [
            0,
            61,
            35
        ],
        "IJ": [
            0,
            63,
            34
        ],
        "LA": [
            0,
            62,
            34
        ],
        "JK": [
            0,
            62,
            34
        ],
        "DE": [
            0,
            67,
            30
        ],
        "BC": [
            0,
            60,
            36
        ],
        "FG": [
            0,
            60,
            36
        ],
        "KL": [
            0,
            54,
            42
        ],
        "GH": [
            0,
            57,
            39
        ]
    },
    "Load_per_bus_per_stop": {
        "bus4": {
            "J": 78.5,
            "K": 80.4375,
            "L": 81.4375,
            "A": 81.0625,
            "B": 82.375,
            "C": 83.3125,
            "D": 82.875,
            "E": 82.25,
            "F": 83.1875,
            "G": 82.75,
            "H": 82.3125,
            "I": 83.75
        },
        "bus1": {
            "D": 69.76470588235294,
            "E": 69.25,
            "F": 68.3125,
            "G": 68.5625,
            "H": 68.125,
            "I": 70.25,
            "J": 70.625,
            "K": 70.9375,
            "L": 71,
            "A": 70.875,
            "B": 71.4375,
            "C": 72.875
        },
        "bus0": {
            "B": 70.5625,
            "C": 72.125,
            "D": 72.9375,
            "E": 73,
            "F": 71.375,
            "G": 70.5625,
            "H": 70.1875,
            "I": 69.4375,
            "J": 71.75,
            "K": 73.875,
            "L": 75.0625,
            "A": 75.5
        },
        "bus5": {
            "A": 81,
            "B": 80.4375,
            "C": 80,
            "D": 81.5625,
            "E": 81.9375,
            "F": 81.1875,
            "G": 84,
            "H": 83.8125,
            "I": 81.9375,
            "J": 82.6875,
            "K": 82.875,
            "L": 87.06666666666666
        },
        "bus2": {
            "F": 80.76470588235294,
            "G": 83.1875,
            "H": 82.125,
            "I": 83.3125,
            "J": 82,
            "K": 83.5,
            "L": 81.25,
            "A": 81.125,
            "B": 79.75,
            "C": 81.3125,
            "D": 80.875,
            "E": 83.875
        },
        "bus3": {
            "I": 76.5625,
            "J": 77.875,
            "K": 77.625,
            "L": 79.375,
            "A": 79.1875,
            "B": 78.1875,
            "C": 78,
            "D": 76.9375,
            "E": 79.3125,
            "F": 79.5625,
            "G": 78.125,
            "H": 81.33333333333333
        }
    },
    "Obs_and_actions_busses": {
        "0": -176.619626149399,
        "3": 187.83909839673368,
        "1": 147.3385324054003,
        "4": 317.33641080284485
    },
    "Obs_and_actions_tfls": {
        "2": -105.59956138805144,
        "1": 253.2979505755956
    }
}0933474348325,
        "2": -102.65797707557094
    }
}