{
    "Average_holding_time": 17.915194346289752,
    "Average_holding_actions": [
        795,
        0,
        336,
        1,
        0,
        0
    ],
    "Average_travel_time_passengers": 2696.0852033282845,
    "Average_passenger_waiting_time": 335.41048130081657,
    "Average_passenger_in_vehicle_time": 2360.6747220274615,
    "Average_speed_busses": 0.04716666666666667,
    "Average_experienced_crowding": 82.88061279081813,
    "Average_covariation_headway": 0.3835167373336145,
    "Average_covariation_headway_stops": {
        "L": 0.26580901436564236,
        "J": 0.27952856711293106,
        "A": 0.28321188534605035,
        "D": 0.2780935987659243,
        "G": 0.28271886095516074,
        "K": 0.26714514802746997,
        "B": 0.27286269662002743,
        "H": 0.2708121086976995,
        "E": 0.27077576666810377,
        "C": 0.2752998160231459,
        "F": 0.2828786022348849,
        "I": 0.2598139965613058
    },
    "Average_excess_waiting_time": {
        "L": 59.4526906857277,
        "J": 65.95397355951752,
        "A": 60.85432639077982,
        "D": 62.169580182233574,
        "G": 64.11231249205491,
        "K": 61.308463816422545,
        "B": 60.75536855581112,
        "H": 63.99353943159298,
        "E": 63.00337695277284,
        "C": 63.06815593307681,
        "F": 67.62892802669393,
        "I": 64.05238092707395
    },
    "Holding_per_stop": {
        "L": 24.63157894736842,
        "A": 10,
        "D": 15.789473684210526,
        "G": 21.70212765957447,
        "K": 22.97872340425532,
        "J": 17.872340425531913,
        "B": 18.94736842105263,
        "E": 14.042553191489361,
        "H": 17.872340425531913,
        "C": 17.23404255319149,
        "F": 16.595744680851062,
        "I": 17.419354838709676
    },
    "Actions_tfl_edges": {
        "CD": [
            34,
            28,
            33
        ],
        "FG": [
            35,
            32,
            28
        ],
        "IJ": [
            35,
            29,
            30
        ],
        "JK": [
            39,
            28,
            28
        ],
        "KL": [
            34,
            33,
            28
        ],
        "LA": [
            34,
            34,
            28
        ],
        "AB": [
            30,
            40,
            26
        ],
        "DE": [
            36,
            30,
            29
        ],
        "GH": [
            34,
            28,
            32
        ],
        "BC": [
            31,
            34,
            30
        ],
        "EF": [
            36,
            32,
            26
        ],
        "HI": [
            35,
            26,
            33
        ]
    },
    "Load_per_bus_per_stop": {
        "bus4": {
            "L": 62.75,
            "A": 64.75,
            "B": 65.8125,
            "C": 69.375,
            "D": 69.375,
            "E": 68.875,
            "F": 68.625,
            "G": 67,
            "H": 67.1875,
            "I": 67.375,
            "J": 66.4,
            "K": 66.46666666666667
        },
        "bus2": {
            "J": 88.0625,
            "K": 87.25,
            "L": 85.1875,
            "A": 87.9375,
            "B": 88.9375,
            "C": 87.9375,
            "D": 85.875,
            "E": 86.33333333333333,
            "F": 87.86666666666666,
            "G": 89.06666666666666,
            "H": 90.8,
            "I": 92.4
        },
        "bus5": {
            "A": 70.125,
            "B": 70.5,
            "C": 72.3125,
            "D": 73.4375,
            "E": 75.5,
            "F": 75.5625,
            "G": 74.5,
            "H": 74.4375,
            "I": 75.75,
            "J": 76.3125,
            "K": 75.93333333333334,
            "L": 74.86666666666666
        },
        "bus0": {
            "D": 60.75,
            "E": 61.25,
            "F": 61.1875,
            "G": 62.5625,
            "H": 65.1875,
            "I": 68.3125,
            "J": 69.1875,
            "K": 69.75,
            "L": 69.125,
            "A": 69,
            "B": 67,
            "C": 66.06666666666666
        },
        "bus1": {
            "G": 96.4375,
            "H": 95.0625,
            "I": 96.375,
            "J": 97.3125,
            "K": 99.8125,
            "L": 99.5625,
            "A": 99.4375,
            "B": 102.5,
            "C": 103,
            "D": 104.26666666666667,
            "E": 103.93333333333334,
            "F": 102
        },
        "bus3": {
            "K": 73.8125,
            "L": 73.8125,
            "A": 74.3125,
            "B": 76.125,
            "C": 76.9375,
            "D": 77.625,
            "E": 78,
            "F": 77.375,
            "G": 77.73333333333333,
            "H": 77.46666666666667,
            "I": 79.46666666666667,
            "J": 78.6
        }
    },
    "Obs_and_actions_busses": {
        "0": -238.1611784430094,
        "2": 197.17889214732384,
        "4": 716.5870234506309
    },
    "Obs_and_actions_tfls": {
        "1": 112.44497001119241,
        "0": -107.33879826423691,
        "2": 368.01427284700117
    }
}