{
    "Average_holding_time": 25.93314763231198,
    "Average_holding_actions": [
        609,
        32,
        427,
        0,
        9,
        0
    ],
    "Average_travel_time_passengers": 2827.723158646725,
    "Average_passenger_waiting_time": 335.74414298332493,
    "Average_passenger_in_vehicle_time": 2491.979015663402,
    "Average_speed_busses": 0.044875,
    "Average_experienced_crowding": 85.4567322944707,
    "Average_covariation_headway": 0.20964105760997284,
    "Average_covariation_headway_stops": {
        "A": 0.15740038272036236,
        "J": 0.16419477705834362,
        "K": 0.16942874935516725,
        "H": 0.1633025574937563,
        "D": 0.16204279709326266,
        "F": 0.1673933521867053,
        "B": 0.156222398664444,
        "G": 0.15310580409112415,
        "L": 0.15138426062921312,
        "I": 0.15891154416228312,
        "E": 0.16049877750878142,
        "C": 0.1375169212400067
    },
    "Average_excess_waiting_time": {
        "A": 61.621297133999406,
        "J": 63.900063809314474,
        "K": 62.621463980211445,
        "H": 64.19249586683708,
        "D": 63.242534960087994,
        "F": 63.99045094917483,
        "B": 63.38103145286544,
        "G": 64.43917320141293,
        "L": 62.238897664911065,
        "I": 65.62931504374365,
        "E": 65.24913963703307,
        "C": 63.119099171040716
    },
    "Holding_per_stop": {
        "A": 22,
        "K": 31.666666666666668,
        "F": 24.666666666666668,
        "H": 23.666666666666668,
        "D": 22.333333333333332,
        "J": 28,
        "B": 17.666666666666668,
        "L": 36.333333333333336,
        "G": 30,
        "I": 28.314606741573034,
        "E": 22.666666666666668,
        "C": 23.93258426966292
    },
    "Actions_tfl_edges": {
        "CD": [
            3,
            69,
            18
        ],
        "EF": [
            5,
            64,
            22
        ],
        "GH": [
            4,
            63,
            23
        ],
        "IJ": [
            6,
            67,
            17
        ],
        "JK": [
            2,
            69,
            20
        ],
        "LA": [
            2,
            68,
            21
        ],
        "AB": [
            0,
            76,
            14
        ],
        "KL": [
            1,
            78,
            11
        ],
        "FG": [
            3,
            69,
            18
        ],
        "HI": [
            3,
            75,
            12
        ],
        "DE": [
            6,
            69,
            15
        ],
        "BC": [
            0,
            73,
            17
        ]
    },
    "Load_per_bus_per_stop": {
        "bus5": {
            "A": 80.375,
            "B": 81.86666666666666,
            "C": 82.46666666666667,
            "D": 83.06666666666666,
            "E": 83.2,
            "F": 84.26666666666667,
            "G": 85.33333333333333,
            "H": 86.2,
            "I": 87.73333333333333,
            "J": 87,
            "K": 84.26666666666667,
            "L": 83.86666666666666
        },
        "bus3": {
            "J": 81.33333333333333,
            "K": 81.06666666666666,
            "L": 81,
            "A": 82.53333333333333,
            "B": 86.33333333333333,
            "C": 86.73333333333333,
            "D": 88.06666666666666,
            "E": 87.8,
            "F": 86.26666666666667,
            "G": 86.26666666666667,
            "H": 86.26666666666667,
            "I": 87.13333333333334
        },
        "bus4": {
            "K": 76.5625,
            "L": 78.93333333333334,
            "A": 79.33333333333333,
            "B": 79.93333333333334,
            "C": 79.53333333333333,
            "D": 81,
            "E": 79.2,
            "F": 78.93333333333334,
            "G": 79.73333333333333,
            "H": 81.13333333333334,
            "I": 81.33333333333333,
            "J": 81.46666666666667
        },
        "bus2": {
            "H": 81.53333333333333,
            "I": 83.2,
            "J": 85,
            "K": 86.06666666666666,
            "L": 84.6,
            "A": 84.2,
            "B": 84.26666666666667,
            "C": 85.8,
            "D": 86.93333333333334,
            "E": 87.13333333333334,
            "F": 87.86666666666666,
            "G": 87.13333333333334
        },
        "bus0": {
            "D": 81.13333333333334,
            "E": 84,
            "F": 85.8,
            "G": 86.6,
            "H": 87.13333333333334,
            "I": 87.6,
            "J": 90.13333333333334,
            "K": 88.2,
            "L": 86.26666666666667,
            "A": 87.46666666666667,
            "B": 87.73333333333333,
            "C": 86.33333333333333
        },
        "bus1": {
            "F": 81.66666666666667,
            "G": 83.33333333333333,
            "H": 83,
            "I": 83.33333333333333,
            "J": 84.46666666666667,
            "K": 83.13333333333334,
            "L": 85.4,
            "A": 84.4,
            "B": 85.8,
            "C": 86.86666666666666,
            "D": 86,
            "E": 86.26666666666667
        }
    },
    "Obs_and_actions_busses": {
        "0": -183.54164543959874,
        "2": 75.09184643805492,
        "1": 235.75766975443761,
        "5": 353.7114130502231
    },
    "Obs_and_actions_tfls": {
        "1": 154.7999754522746,
        "2": 29.489951545792543,
        "0": 451.93644321740175
    }
}