{
    "Average_holding_time": 26.180297397769518,
    "Average_holding_actions": [
        609,
        28,
        428,
        0,
        11,
        0
    ],
    "Average_travel_time_passengers": 2829.838471636306,
    "Average_passenger_waiting_time": 341.07268137358943,
    "Average_passenger_in_vehicle_time": 2488.7657902626597,
    "Average_speed_busses": 0.044833333333333336,
    "Average_experienced_crowding": 83.6679877768047,
    "Average_covariation_headway": 0.23876242602234904,
    "Average_covariation_headway_stops": {
        "A": 0.20975515987578633,
        "C": 0.19378304561908527,
        "E": 0.1851018936354523,
        "B": 0.20523727647010082,
        "G": 0.18574657980301854,
        "J": 0.1803110930563226,
        "D": 0.17733020216802917,
        "H": 0.16841732242795032,
        "F": 0.18933791353589022,
        "K": 0.15969906907178433,
        "I": 0.1703366838996441,
        "L": 0.17880703668182207
    },
    "Average_excess_waiting_time": {
        "A": 72.1287106645251,
        "C": 66.81783095714349,
        "E": 65.38400167072797,
        "B": 69.44808949208397,
        "G": 64.83468655578054,
        "J": 66.8004340507087,
        "D": 66.69934171701095,
        "H": 64.75656324916207,
        "F": 67.71652656376602,
        "K": 65.85469902115199,
        "I": 67.31955224890118,
        "L": 70.46934373514569
    },
    "Holding_per_stop": {
        "C": 24.666666666666668,
        "G": 22.333333333333332,
        "B": 18.333333333333332,
        "E": 28.333333333333332,
        "J": 24,
        "A": 22.247191011235955,
        "D": 27.666666666666668,
        "H": 26,
        "F": 30,
        "K": 32.359550561797754,
        "I": 27.97752808988764,
        "L": 30.337078651685392
    },
    "Actions_tfl_edges": {
        "AB": [
            2,
            72,
            16
        ],
        "BC": [
            0,
            77,
            14
        ],
        "DE": [
            3,
            72,
            16
        ],
        "FG": [
            3,
            72,
            16
        ],
        "IJ": [
            3,
            63,
            24
        ],
        "LA": [
            3,
            66,
            21
        ],
        "CD": [
            2,
            73,
            15
        ],
        "GH": [
            1,
            67,
            22
        ],
        "EF": [
            2,
            72,
            16
        ],
        "JK": [
            1,
            68,
            21
        ],
        "HI": [
            4,
            65,
            21
        ],
        "KL": [
            2,
            71,
            16
        ]
    },
    "Load_per_bus_per_stop": {
        "bus5": {
            "A": 81.4,
            "B": 81.86666666666666,
            "C": 83,
            "D": 81.33333333333333,
            "E": 82.33333333333333,
            "F": 81.66666666666667,
            "G": 82.6,
            "H": 83.13333333333334,
            "I": 84.13333333333334,
            "J": 84.06666666666666,
            "K": 84.42857142857143,
            "L": 86.07142857142857
        },
        "bus1": {
            "C": 79.2,
            "D": 80.8,
            "E": 78.66666666666667,
            "F": 79.13333333333334,
            "G": 78.6,
            "H": 80.8,
            "I": 82.46666666666667,
            "J": 84.13333333333334,
            "K": 85.33333333333333,
            "L": 83.33333333333333,
            "A": 81.73333333333333,
            "B": 82
        },
        "bus2": {
            "E": 75.93333333333334,
            "F": 78.4,
            "G": 78,
            "H": 78.4,
            "I": 80.8,
            "J": 81.33333333333333,
            "K": 81.66666666666667,
            "L": 83.33333333333333,
            "A": 84.8,
            "B": 84.06666666666666,
            "C": 85.4,
            "D": 84.46666666666667
        },
        "bus0": {
            "B": 75.2,
            "C": 75.06666666666666,
            "D": 73.6,
            "E": 76.53333333333333,
            "F": 79.33333333333333,
            "G": 80.4,
            "H": 81.4,
            "I": 82.46666666666667,
            "J": 82.13333333333334,
            "K": 80.73333333333333,
            "L": 81.46666666666667,
            "A": 81.92857142857143
        },
        "bus3": {
            "G": 82.53333333333333,
            "H": 85.2,
            "I": 87.06666666666666,
            "J": 86.6,
            "K": 86.46666666666667,
            "L": 86.06666666666666,
            "A": 87.4,
            "B": 86.26666666666667,
            "C": 87.13333333333334,
            "D": 88.26666666666667,
            "E": 87.2,
            "F": 86.4
        },
        "bus4": {
            "J": 79.53333333333333,
            "K": 82.33333333333333,
            "L": 83,
            "A": 85,
            "B": 83.6,
            "C": 84.26666666666667,
            "D": 83.93333333333334,
            "E": 84.6,
            "F": 84.53333333333333,
            "G": 85.6,
            "H": 86.8,
            "I": 84.21428571428571
        }
    },
    "Obs_and_actions_busses": {
        "0": -194.4197304669089,
        "2": 80.13135754047441,
        "1": 235.68989342579192,
        "5": 376.8626406335469
    },
    "Obs_and_actions_tfls": {
        "2": 32.69609626458586,
        "0": 473.8125474118581,
        "1": 160.42674117192533
    }
}8024150864976
    }
}