{
    "Average_holding_time": 17.931638913234003,
    "Average_holding_actions": [
        800,
        0,
        341,
        0,
        0,
        0
    ],
    "Average_travel_time_passengers": 2690.870985088482,
    "Average_passenger_waiting_time": 337.12292917047085,
    "Average_passenger_in_vehicle_time": 2353.748055917986,
    "Average_speed_busses": 0.04754166666666667,
    "Average_experienced_crowding": 85.40620608244939,
    "Average_covariation_headway": 0.4382883568751324,
    "Average_covariation_headway_stops": {
        "J": 0.33757496473700005,
        "A": 0.3307716133038469,
        "L": 0.3398137137426138,
        "G": 0.32867841908325457,
        "E": 0.3291955783371519,
        "C": 0.32786581510067647,
        "K": 0.33929958409936883,
        "H": 0.3166315360789029,
        "F": 0.3306912588365586,
        "B": 0.31748401684496086,
        "D": 0.32305527308569626,
        "I": 0.3167798692758382
    },
    "Average_excess_waiting_time": {
        "J": 73.18598384841846,
        "A": 70.15426222761653,
        "L": 73.91219730284138,
        "G": 68.76767543622668,
        "E": 68.80461552571256,
        "C": 69.50100612547698,
        "K": 75.30015494570324,
        "H": 68.57461196297345,
        "F": 70.9084461745262,
        "B": 70.3616501443475,
        "D": 70.49771239353328,
        "I": 70.83333643559291
    },
    "Holding_per_stop": {
        "A": 12,
        "G": 18.125,
        "J": 23.36842105263158,
        "E": 18.94736842105263,
        "L": 19.57894736842105,
        "C": 16.42105263157895,
        "F": 18.31578947368421,
        "H": 14.526315789473685,
        "B": 12.631578947368421,
        "K": 24.63157894736842,
        "D": 17.05263157894737,
        "I": 19.57894736842105
    },
    "Actions_tfl_edges": {
        "BC": [
            35,
            27,
            34
        ],
        "DE": [
            34,
            23,
            39
        ],
        "FG": [
            41,
            19,
            36
        ],
        "IJ": [
            34,
            21,
            40
        ],
        "KL": [
            34,
            22,
            40
        ],
        "LA": [
            44,
            21,
            31
        ],
        "AB": [
            34,
            31,
            30
        ],
        "GH": [
            38,
            23,
            35
        ],
        "JK": [
            38,
            23,
            34
        ],
        "EF": [
            32,
            17,
            46
        ],
        "CD": [
            37,
            19,
            39
        ],
        "HI": [
            38,
            21,
            36
        ]
    },
    "Load_per_bus_per_stop": {
        "bus3": {
            "J": 78.5625,
            "K": 79.5,
            "L": 83.3125,
            "A": 83.75,
            "B": 84.625,
            "C": 86,
            "D": 85.6875,
            "E": 86.4375,
            "F": 84.375,
            "G": 88.25,
            "H": 85.8,
            "I": 82.8
        },
        "bus5": {
            "A": 80.5625,
            "B": 80.125,
            "C": 79.6875,
            "D": 81.0625,
            "E": 82.3125,
            "F": 82.25,
            "G": 84.5625,
            "H": 85.3125,
            "I": 83.25,
            "J": 81.375,
            "K": 81.75,
            "L": 85.06666666666666
        },
        "bus4": {
            "L": 57.5625,
            "A": 60.375,
            "B": 60.8125,
            "C": 60.375,
            "D": 59,
            "E": 59.625,
            "F": 60.4375,
            "G": 62,
            "H": 60.875,
            "I": 60.8125,
            "J": 61.8,
            "K": 62.4
        },
        "bus2": {
            "G": 94.375,
            "H": 93.8125,
            "I": 94.4375,
            "J": 95,
            "K": 94.125,
            "L": 94.5625,
            "A": 93.1875,
            "B": 92.5625,
            "C": 94.25,
            "D": 94.3125,
            "E": 98.4,
            "F": 101.46666666666667
        },
        "bus1": {
            "E": 65,
            "F": 64.375,
            "G": 68.3125,
            "H": 68.75,
            "I": 70.5625,
            "J": 69.6875,
            "K": 69.125,
            "L": 70.1875,
            "A": 69.75,
            "B": 70.4375,
            "C": 69.8,
            "D": 69.26666666666667
        },
        "bus0": {
            "C": 78.4375,
            "D": 79.3125,
            "E": 80.3125,
            "F": 79.125,
            "G": 81.5,
            "H": 82.3125,
            "I": 81.125,
            "J": 81.3125,
            "K": 80.75,
            "L": 80.8125,
            "A": 80.625,
            "B": 83.8
        }
    },
    "Obs_and_actions_busses": {
        "2": 221.2403825828428,
        "0": -253.66053008156263
    },
    "Obs_and_actions_tfls": {
        "1": 121.50172551637934,
        "2": 355.7008951573438,
        "0": -159.22486933110196
    }
}