{
    "Average_holding_time": 18.869257950530034,
    "Average_holding_actions": [
        784,
        0,
        340,
        8,
        0,
        0
    ],
    "Average_travel_time_passengers": 2702.0710011737006,
    "Average_passenger_waiting_time": 349.86251412007925,
    "Average_passenger_in_vehicle_time": 2352.2084870536173,
    "Average_speed_busses": 0.04716666666666667,
    "Average_experienced_crowding": 85.47804976859884,
    "Average_covariation_headway": 0.4640866190026917,
    "Average_covariation_headway_stops": {
        "E": 0.3683095446128252,
        "F": 0.3801790109803003,
        "L": 0.33120711036567607,
        "G": 0.37340895133705804,
        "K": 0.34619225603278225,
        "H": 0.3507506809768189,
        "I": 0.3571457651371277,
        "A": 0.3137883930159118,
        "J": 0.352811961011353,
        "B": 0.30532909068005426,
        "C": 0.34452537056727606,
        "D": 0.3495115785073656
    },
    "Average_excess_waiting_time": {
        "E": 85.84966816180491,
        "F": 87.19314003352895,
        "L": 70.06143498150493,
        "G": 82.6870980247337,
        "K": 74.9396443752342,
        "H": 75.79890359225936,
        "I": 79.12200790809248,
        "A": 68.82496020201876,
        "J": 78.7071730525991,
        "B": 68.63333585692095,
        "C": 78.7138449875664,
        "D": 83.83192612186349
    },
    "Holding_per_stop": {
        "F": 21.06382978723404,
        "L": 22.105263157894736,
        "G": 19.78723404255319,
        "H": 19.57894736842105,
        "E": 16.129032258064516,
        "K": 21.473684210526315,
        "I": 20.842105263157894,
        "A": 17.68421052631579,
        "J": 17.23404255319149,
        "B": 13.263157894736842,
        "C": 17.23404255319149,
        "D": 20
    },
    "Actions_tfl_edges": {
        "DE": [
            29,
            33,
            32
        ],
        "EF": [
            36,
            24,
            34
        ],
        "FG": [
            33,
            31,
            31
        ],
        "GH": [
            34,
            31,
            30
        ],
        "JK": [
            30,
            32,
            33
        ],
        "KL": [
            32,
            32,
            32
        ],
        "LA": [
            33,
            31,
            31
        ],
        "HI": [
            32,
            29,
            34
        ],
        "IJ": [
            32,
            28,
            35
        ],
        "AB": [
            26,
            40,
            29
        ],
        "BC": [
            33,
            30,
            31
        ],
        "CD": [
            33,
            29,
            32
        ]
    },
    "Load_per_bus_per_stop": {
        "bus0": {
            "E": 67.25,
            "F": 67.125,
            "G": 66.125,
            "H": 67.625,
            "I": 69.125,
            "J": 68.4375,
            "K": 70.5,
            "L": 70.3125,
            "A": 70.4,
            "B": 69.4,
            "C": 70.8,
            "D": 71.13333333333334
        },
        "bus1": {
            "F": 79.75,
            "G": 81.1875,
            "H": 81.375,
            "I": 81.9375,
            "J": 83.3125,
            "K": 83.8125,
            "L": 83.1875,
            "A": 81.6875,
            "B": 82.5625,
            "C": 83.06666666666666,
            "D": 81.13333333333334,
            "E": 82.93333333333334
        },
        "bus5": {
            "L": 74.125,
            "A": 72.5,
            "B": 71.75,
            "C": 72.5,
            "D": 73.875,
            "E": 75.3125,
            "F": 76.4375,
            "G": 76.875,
            "H": 77.1875,
            "I": 78.3125,
            "J": 79.2,
            "K": 78.46666666666667
        },
        "bus2": {
            "G": 75.6875,
            "H": 76.1875,
            "I": 77,
            "J": 75.375,
            "K": 75.4375,
            "L": 75.75,
            "A": 76,
            "B": 77.75,
            "C": 76.5625,
            "D": 79.13333333333334,
            "E": 79.8,
            "F": 79.86666666666666
        },
        "bus4": {
            "K": 71.6875,
            "L": 72.375,
            "A": 75.375,
            "B": 78.4375,
            "C": 80.375,
            "D": 81.875,
            "E": 80,
            "F": 79.75,
            "G": 78.06666666666666,
            "H": 78.66666666666667,
            "I": 76.8,
            "J": 76.2
        },
        "bus3": {
            "H": 82.3125,
            "I": 82.5625,
            "J": 83.9375,
            "K": 85.8125,
            "L": 86.6875,
            "A": 86.3125,
            "B": 87.125,
            "C": 88,
            "D": 88.4375,
            "E": 88.25,
            "F": 90.46666666666667,
            "G": 88.73333333333333
        }
    },
    "Obs_and_actions_busses": {
        "4": 815.9680273863847,
        "2": 220.38104324889292,
        "0": -262.1758800854287
    },
    "Obs_and_actions_tfls": {
        "2": 375.844095101021,
        "0": -179.00381649464003,
        "1": 117.62906407223892
    }
}