{
    "Average_holding_time": 14.89399293286219,
    "Average_holding_actions": [
        802,
        214,
        0,
        0,
        0,
        0
    ],
    "Average_travel_time_passengers": 2675.9877566001346,
    "Average_passenger_waiting_time": 330.7624953871213,
    "Average_passenger_in_vehicle_time": 2345.225261213045,
    "Average_speed_busses": 0.04716666666666667,
    "Average_experienced_crowding": 81.34474612240399,
    "Average_covariation_headway": 0.3140231240371898,
    "Average_covariation_headway_stops": {
        "E": 0.25149829834710596,
        "C": 0.2749522683588321,
        "D": 0.2689379812824855,
        "J": 0.2834318521915829,
        "A": 0.2655007613740301,
        "F": 0.25579775800066035,
        "B": 0.2649672485911188,
        "K": 0.26491082819261486,
        "G": 0.2473627666849774,
        "H": 0.2682558661753003,
        "L": 0.26861295464765866,
        "I": 0.2826707549762203
    },
    "Average_excess_waiting_time": {
        "E": 57.055789434361486,
        "C": 64.71797986009369,
        "D": 61.23574392358711,
        "J": 63.61165139861561,
        "A": 63.44344698670159,
        "F": 56.335938735394905,
        "B": 64.94918570711496,
        "K": 62.54820798998793,
        "G": 57.4551878064683,
        "H": 61.17946345492567,
        "L": 64.72854771735075,
        "I": 65.34845549302867
    },
    "Holding_per_stop": {
        "D": 11.808510638297872,
        "E": 17.05263157894737,
        "C": 16.914893617021278,
        "F": 20.210526315789473,
        "J": 16.105263157894736,
        "A": 8.936170212765957,
        "G": 14.210526315789474,
        "B": 12.76595744680851,
        "K": 15.957446808510639,
        "H": 17.5531914893617,
        "L": 13.085106382978724,
        "I": 14.042553191489361
    },
    "Actions_tfl_edges": {
        "BC": [
            10,
            47,
            38
        ],
        "CD": [
            13,
            48,
            34
        ],
        "DE": [
            12,
            40,
            43
        ],
        "EF": [
            13,
            52,
            31
        ],
        "IJ": [
            11,
            51,
            33
        ],
        "LA": [
            12,
            37,
            46
        ],
        "FG": [
            14,
            45,
            36
        ],
        "JK": [
            14,
            45,
            36
        ],
        "AB": [
            11,
            39,
            44
        ],
        "GH": [
            13,
            45,
            37
        ],
        "KL": [
            10,
            38,
            46
        ],
        "HI": [
            12,
            45,
            37
        ]
    },
    "Load_per_bus_per_stop": {
        "bus2": {
            "E": 74.4375,
            "F": 74.0625,
            "G": 75.125,
            "H": 74.9375,
            "I": 75.9375,
            "J": 75.0625,
            "K": 76.125,
            "L": 77.25,
            "A": 77.875,
            "B": 79.125,
            "C": 79.13333333333334,
            "D": 79.33333333333333
        },
        "bus0": {
            "C": 67.0625,
            "D": 69.1875,
            "E": 70.5625,
            "F": 69.6875,
            "G": 68.4375,
            "H": 68.75,
            "I": 70.0625,
            "J": 69.9375,
            "K": 70.66666666666667,
            "L": 70.6,
            "A": 72.26666666666667,
            "B": 72.26666666666667
        },
        "bus1": {
            "D": 66.125,
            "E": 67.75,
            "F": 67.0625,
            "G": 66.8125,
            "H": 67.375,
            "I": 68.1875,
            "J": 69.625,
            "K": 69.25,
            "L": 70.375,
            "A": 67.6,
            "B": 68,
            "C": 67.73333333333333
        },
        "bus4": {
            "J": 77.5625,
            "K": 77.5625,
            "L": 77.6875,
            "A": 79.125,
            "B": 83.25,
            "C": 85.125,
            "D": 86.9375,
            "E": 88.125,
            "F": 87.875,
            "G": 87.66666666666667,
            "H": 86.4,
            "I": 83.86666666666666
        },
        "bus5": {
            "A": 81.125,
            "B": 82,
            "C": 83.1875,
            "D": 85.1875,
            "E": 86.625,
            "F": 87.375,
            "G": 88.125,
            "H": 85.6,
            "I": 84.66666666666667,
            "J": 85.8,
            "K": 84.73333333333333,
            "L": 85.33333333333333
        },
        "bus3": {
            "F": 82.25,
            "G": 81.875,
            "H": 83.875,
            "I": 86.25,
            "J": 86.125,
            "K": 85.6875,
            "L": 89.125,
            "A": 89,
            "B": 88.4375,
            "C": 86.625,
            "D": 89.06666666666666,
            "E": 89
        }
    },
    "Obs_and_actions_busses": {
        "1": 87.17758497539184,
        "3": 240.66773456262948,
        "0": -209.05723248876654
    },
    "Obs_and_actions_tfls": {
        "1": 303.2771992881997,
        "2": 34.83434108451585,
        "0": -288.79938465752554
    }
}