{
    "Average_holding_time": 21.545454545454547,
    "Average_holding_actions": [
        737,
        91,
        187,
        30,
        20,
        0
    ],
    "Average_travel_time_passengers": 2737.979077565611,
    "Average_passenger_waiting_time": 329.6186246978211,
    "Average_passenger_in_vehicle_time": 2408.360452867788,
    "Average_speed_busses": 0.04583333333333333,
    "Average_experienced_crowding": 80.85795201534816,
    "Average_covariation_headway": 0.22240517063557416,
    "Average_covariation_headway_stops": {
        "G": 0.19735192639577012,
        "J": 0.17706382536383172,
        "K": 0.16964963869998814,
        "F": 0.21390317015923646,
        "I": 0.17120627965967902,
        "C": 0.18252870382338834,
        "H": 0.1635168141492211,
        "L": 0.14764923508838493,
        "D": 0.17672053056437803,
        "A": 0.16630619457591114,
        "B": 0.1792903627992237,
        "E": 0.20086775728659162
    },
    "Average_excess_waiting_time": {
        "G": 61.73579670235762,
        "J": 56.642195997042336,
        "K": 54.094809310534515,
        "F": 66.21005721600994,
        "I": 58.23898035893944,
        "C": 59.58912962928338,
        "H": 59.504076442665905,
        "L": 53.87645991659173,
        "D": 61.264299579369094,
        "A": 57.51977356048644,
        "B": 61.085227220504635,
        "E": 65.91837492334491
    },
    "Holding_per_stop": {
        "G": 24.130434782608695,
        "K": 23.870967741935484,
        "J": 20.869565217391305,
        "I": 22.5,
        "C": 26.73913043478261,
        "F": 25.054945054945055,
        "H": 20.76923076923077,
        "L": 22.82608695652174,
        "D": 23.406593406593405,
        "A": 14.021739130434783,
        "B": 8.901098901098901,
        "E": 25.384615384615383
    },
    "Actions_tfl_edges": {
        "BC": [
            7,
            69,
            16
        ],
        "EF": [
            7,
            71,
            14
        ],
        "FG": [
            9,
            66,
            17
        ],
        "HI": [
            6,
            71,
            15
        ],
        "IJ": [
            9,
            70,
            14
        ],
        "JK": [
            10,
            67,
            16
        ],
        "GH": [
            9,
            65,
            18
        ],
        "KL": [
            8,
            68,
            17
        ],
        "CD": [
            8,
            69,
            15
        ],
        "LA": [
            9,
            63,
            20
        ],
        "DE": [
            5,
            69,
            17
        ],
        "AB": [
            9,
            64,
            19
        ]
    },
    "Load_per_bus_per_stop": {
        "bus2": {
            "G": 74.5625,
            "H": 74.625,
            "I": 74.9375,
            "J": 72.66666666666667,
            "K": 73.6,
            "L": 74.53333333333333,
            "A": 74.53333333333333,
            "B": 76.46666666666667,
            "C": 76.06666666666666,
            "D": 76.4,
            "E": 77.26666666666667,
            "F": 77.53333333333333
        },
        "bus4": {
            "J": 73.625,
            "K": 73.5625,
            "L": 72.5,
            "A": 74.6875,
            "B": 76.13333333333334,
            "C": 76.2,
            "D": 78.8,
            "E": 77.73333333333333,
            "F": 78.66666666666667,
            "G": 79.2,
            "H": 77.53333333333333,
            "I": 77.46666666666667
        },
        "bus5": {
            "K": 73.9375,
            "L": 73.625,
            "A": 73.1875,
            "B": 75.5625,
            "C": 78.5,
            "D": 77.6,
            "E": 76.46666666666667,
            "F": 78.13333333333334,
            "G": 80.06666666666666,
            "H": 81.53333333333333,
            "I": 81.93333333333334,
            "J": 80.93333333333334
        },
        "bus1": {
            "F": 86.375,
            "G": 85.0625,
            "H": 83.4,
            "I": 83.66666666666667,
            "J": 85.26666666666667,
            "K": 85.13333333333334,
            "L": 84.26666666666667,
            "A": 84.33333333333333,
            "B": 84.8,
            "C": 87.4,
            "D": 89.53333333333333,
            "E": 89.46666666666667
        },
        "bus3": {
            "I": 79.25,
            "J": 80.9375,
            "K": 80.9375,
            "L": 80.6,
            "A": 80.2,
            "B": 80.86666666666666,
            "C": 80.13333333333334,
            "D": 79.73333333333333,
            "E": 80.46666666666667,
            "F": 79,
            "G": 79.06666666666666,
            "H": 81.2
        },
        "bus0": {
            "C": 80.0625,
            "D": 80.5625,
            "E": 79.375,
            "F": 81.06666666666666,
            "G": 84,
            "H": 84.86666666666666,
            "I": 84.33333333333333,
            "J": 85.2,
            "K": 86.53333333333333,
            "L": 86.33333333333333,
            "A": 86.4,
            "B": 86.06666666666666
        }
    },
    "Obs_and_actions_busses": {
        "0": -181.8834970727406,
        "2": 65.5042234176072,
        "4": 177.15162567315588,
        "1": 93.33757837496405,
        "3": 140.53797941460417,
        "5": 335.84770276327555
    },
    "Obs_and_actions_tfls": {
        "1": 188.05111796319503,
        "2": -71.76818085254254,
        "0": -15.561327815504542
    }
}