{
    "Average_holding_time": 16.176211453744493,
    "Average_holding_actions": [
        829,
        0,
        306,
        0,
        0,
        0
    ],
    "Average_travel_time_passengers": 2732.54696177338,
    "Average_passenger_waiting_time": 332.5140065635261,
    "Average_passenger_in_vehicle_time": 2400.032955209847,
    "Average_speed_busses": 0.04729166666666667,
    "Average_experienced_crowding": 85.02704605082913,
    "Average_covariation_headway": 0.3705393999261139,
    "Average_covariation_headway_stops": {
        "A": 0.27452604552677085,
        "F": 0.2807939557106966,
        "H": 0.2763506356214801,
        "E": 0.2865008997226172,
        "C": 0.2606203083109477,
        "J": 0.27386385613556713,
        "G": 0.27345763509969384,
        "B": 0.2672294390615567,
        "I": 0.27262843411678944,
        "D": 0.26475786899254433,
        "K": 0.2608802912200174,
        "L": 0.25994096391703125
    },
    "Average_excess_waiting_time": {
        "A": 63.00964957936475,
        "F": 61.02412450760585,
        "H": 60.04824263299861,
        "E": 63.850660577385156,
        "C": 59.91556826782784,
        "J": 61.60431909317117,
        "G": 61.31484636379599,
        "B": 63.02392263074546,
        "I": 61.52424273147244,
        "D": 61.94060870073446,
        "K": 60.69201180710513,
        "L": 62.61065911403466
    },
    "Holding_per_stop": {
        "F": 13.894736842105264,
        "H": 17.05263157894737,
        "C": 14.526315789473685,
        "A": 10.212765957446809,
        "E": 17.68421052631579,
        "J": 16.42105263157895,
        "G": 17.05263157894737,
        "I": 16.42105263157895,
        "D": 14.680851063829786,
        "B": 10.851063829787234,
        "K": 22.340425531914892,
        "L": 22.97872340425532
    },
    "Actions_tfl_edges": {
        "BC": [
            36,
            31,
            28
        ],
        "DE": [
            34,
            28,
            33
        ],
        "EF": [
            29,
            34,
            33
        ],
        "GH": [
            31,
            34,
            31
        ],
        "IJ": [
            32,
            36,
            28
        ],
        "LA": [
            44,
            24,
            27
        ],
        "FG": [
            32,
            34,
            29
        ],
        "HI": [
            29,
            35,
            31
        ],
        "CD": [
            32,
            32,
            31
        ],
        "AB": [
            28,
            37,
            29
        ],
        "JK": [
            24,
            41,
            30
        ],
        "KL": [
            38,
            30,
            26
        ]
    },
    "Load_per_bus_per_stop": {
        "bus5": {
            "A": 91.375,
            "B": 92.1875,
            "C": 92.75,
            "D": 94.4375,
            "E": 94.5,
            "F": 92.75,
            "G": 94.6875,
            "H": 95.625,
            "I": 95.25,
            "J": 98.46666666666667,
            "K": 99.26666666666667,
            "L": 98.2
        },
        "bus2": {
            "F": 66.25,
            "G": 64.625,
            "H": 66.375,
            "I": 68.5,
            "J": 70.3125,
            "K": 70.625,
            "L": 69.3125,
            "A": 69.625,
            "B": 70.1875,
            "C": 70.5625,
            "D": 70,
            "E": 68.86666666666666
        },
        "bus3": {
            "H": 69.0625,
            "I": 68.75,
            "J": 67.4375,
            "K": 67.125,
            "L": 67.0625,
            "A": 66.125,
            "B": 66,
            "C": 68.5,
            "D": 69.25,
            "E": 71.25,
            "F": 73.06666666666666,
            "G": 73.4
        },
        "bus1": {
            "E": 71.0625,
            "F": 72,
            "G": 71.5625,
            "H": 71.625,
            "I": 72.9375,
            "J": 73.375,
            "K": 72.625,
            "L": 73.5625,
            "A": 74.25,
            "B": 73.2,
            "C": 74.4,
            "D": 75.53333333333333
        },
        "bus0": {
            "C": 89.625,
            "D": 90.6875,
            "E": 92.4375,
            "F": 92.5,
            "G": 94.375,
            "H": 91.625,
            "I": 93.0625,
            "J": 91.1875,
            "K": 91.13333333333334,
            "L": 93.2,
            "A": 93.73333333333333,
            "B": 96.53333333333333
        },
        "bus4": {
            "J": 82.1875,
            "K": 82.25,
            "L": 82.875,
            "A": 84.875,
            "B": 85.875,
            "C": 86.75,
            "D": 86.125,
            "E": 85.5,
            "F": 83.9375,
            "G": 84.5625,
            "H": 85.375,
            "I": 86.86666666666666
        }
    },
    "Obs_and_actions_busses": {
        "2": 176.8599033962517,
        "0": -220.374473359157
    },
    "Obs_and_actions_tfls": {
        "1": 107.3033446781887,
        "2": 334.72687589868787,
        "0": -97.65583693328472
    }
}