{
    "Average_holding_time": 77.28448275862068,
    "Average_holding_actions": [
        297,
        23,
        0,
        110,
        266,
        0
    ],
    "Average_travel_time_passengers": 5032.894078125645,
    "Average_passenger_waiting_time": 1199.947167657775,
    "Average_passenger_in_vehicle_time": 3832.946910467731,
    "Average_speed_busses": 0.029,
    "Average_experienced_crowding": 296.75216296884963,
    "Average_covariation_headway": 1.4432600207595792,
    "Average_covariation_headway_stops": {
        "L": 1.246109665394596,
        "G": 1.2518106219253071,
        "C": 1.2272721766011516,
        "H": 1.2728030771014993,
        "A": 1.2169474624760734,
        "E": 1.2440756320288218,
        "B": 1.191590755364781,
        "D": 1.2300520221029805,
        "F": 1.2331307054990934,
        "I": 1.2722352925406135,
        "J": 1.283874440479086,
        "K": 1.2906453365535955
    },
    "Average_excess_waiting_time": {
        "L": 1072.8509556791712,
        "G": 962.414591369258,
        "C": 937.6604418325194,
        "H": 978.7291099836252,
        "A": 924.6188884503085,
        "E": 955.5839774613585,
        "B": 906.7487816373991,
        "D": 951.3384358571914,
        "F": 951.6286816068798,
        "I": 986.4503122861793,
        "J": 1010.9443368653008,
        "K": 1034.783533447883
    },
    "Holding_per_stop": {
        "C": 77.89473684210526,
        "A": 80.35714285714286,
        "E": 69.3103448275862,
        "L": 77.45454545454545,
        "H": 71.5,
        "G": 79.32203389830508,
        "B": 78.21428571428571,
        "D": 85.78947368421052,
        "F": 83.27586206896552,
        "I": 73.5,
        "J": 73,
        "K": 78.5
    },
    "Actions_tfl_edges": {
        "BC": [
            15,
            28,
            14
        ],
        "DE": [
            16,
            31,
            11
        ],
        "FG": [
            13,
            35,
            11
        ],
        "GH": [
            13,
            37,
            10
        ],
        "KL": [
            13,
            39,
            9
        ],
        "LA": [
            11,
            35,
            10
        ],
        "CD": [
            14,
            30,
            13
        ],
        "AB": [
            17,
            30,
            9
        ],
        "EF": [
            13,
            33,
            12
        ],
        "HI": [
            11,
            39,
            10
        ],
        "IJ": [
            10,
            42,
            8
        ],
        "JK": [
            12,
            38,
            10
        ]
    },
    "Load_per_bus_per_stop": {
        "bus4": {
            "L": 250.6,
            "A": 251.3,
            "B": 250.7,
            "C": 249.6,
            "D": 248.2,
            "E": 246.6,
            "F": 251.5,
            "G": 253.3,
            "H": 255.2,
            "I": 256.5,
            "J": 254.1,
            "K": 259.7
        },
        "bus2": {
            "G": 32.4,
            "H": 34.3,
            "I": 35.7,
            "J": 35.9,
            "K": 37.2,
            "L": 37,
            "A": 37.888888888888886,
            "B": 37,
            "C": 37,
            "D": 36.55555555555556,
            "E": 34.55555555555556,
            "F": 34.666666666666664
        },
        "bus0": {
            "C": 8.7,
            "D": 8.9,
            "E": 9.8,
            "F": 9.6,
            "G": 9.6,
            "H": 10.2,
            "I": 9.6,
            "J": 10.2,
            "K": 11,
            "L": 11.222222222222221,
            "A": 9.444444444444445,
            "B": 8.88888888888889
        },
        "bus3": {
            "H": 340.4,
            "I": 346.1,
            "J": 356.1,
            "K": 355.6,
            "L": 366,
            "A": 344.55555555555554,
            "B": 353,
            "C": 356.44444444444446,
            "D": 362.55555555555554,
            "E": 368.55555555555554,
            "F": 370.8888888888889,
            "G": 372.55555555555554
        },
        "bus5": {
            "A": 67.5,
            "B": 69,
            "C": 69.9,
            "D": 70.7,
            "E": 72.2,
            "F": 72.5,
            "G": 71.8,
            "H": 72.3,
            "I": 71.5,
            "J": 69,
            "K": 68.3,
            "L": 74.44444444444444
        },
        "bus1": {
            "E": 6.3,
            "F": 6.6,
            "G": 7.4,
            "H": 7.3,
            "I": 7.7,
            "J": 8.3,
            "K": 8.3,
            "L": 8.444444444444445,
            "A": 7.555555555555555,
            "B": 7.555555555555555,
            "C": 7,
            "D": 6.444444444444445
        }
    },
    "Obs_and_actions_busses": {
        "0": -2.936288036772266,
        "5": 1104.258039344785,
        "1": 240.76983125396265,
        "4": -2335.756573926108
    },
    "Obs_and_actions_tfls": {
        "1": 497.4559023419141,
        "0": -1360.2795534467857,
        "2": 587.9119435527359
    }
}