{
    "Average_holding_time": 25.78125,
    "Average_holding_actions": [
        630,
        62,
        369,
        0,
        27,
        0
    ],
    "Average_travel_time_passengers": 2787.194918927087,
    "Average_passenger_waiting_time": 343.62379846376217,
    "Average_passenger_in_vehicle_time": 2443.5711204632635,
    "Average_speed_busses": 0.04533333333333334,
    "Average_experienced_crowding": 84.92566733632346,
    "Average_covariation_headway": 0.29687087907248133,
    "Average_covariation_headway_stops": {
        "H": 0.24916901862336893,
        "L": 0.2384732591648732,
        "B": 0.23237794319306435,
        "I": 0.2326950723671112,
        "F": 0.25987662427923786,
        "G": 0.24801283536411087,
        "J": 0.2306395540285498,
        "C": 0.22994149189887855,
        "A": 0.22094033954792516,
        "D": 0.21916157223953112,
        "K": 0.228266265202096,
        "E": 0.2379494850101408
    },
    "Average_excess_waiting_time": {
        "H": 70.92445341822759,
        "L": 69.59074385663024,
        "B": 68.78458336094235,
        "I": 66.47130558803013,
        "F": 76.85156613935186,
        "G": 73.17089369902686,
        "J": 68.02547375101432,
        "C": 70.48210221411216,
        "A": 68.69072214983674,
        "D": 71.46838634684889,
        "K": 69.40954652075169,
        "E": 75.88522086541701
    },
    "Holding_per_stop": {
        "I": 26.73913043478261,
        "H": 28.021978021978022,
        "B": 19.12087912087912,
        "G": 29,
        "L": 34.285714285714285,
        "F": 24.666666666666668,
        "J": 23.406593406593405,
        "C": 30.32967032967033,
        "A": 21.0989010989011,
        "D": 20.666666666666668,
        "K": 33.62637362637363,
        "E": 18.202247191011235
    },
    "Actions_tfl_edges": {
        "AB": [
            3,
            74,
            15
        ],
        "EF": [
            8,
            69,
            13
        ],
        "FG": [
            10,
            65,
            16
        ],
        "GH": [
            8,
            63,
            20
        ],
        "HI": [
            6,
            65,
            21
        ],
        "KL": [
            6,
            68,
            18
        ],
        "IJ": [
            5,
            67,
            20
        ],
        "BC": [
            3,
            77,
            11
        ],
        "LA": [
            6,
            65,
            20
        ],
        "JK": [
            7,
            69,
            15
        ],
        "CD": [
            5,
            70,
            16
        ],
        "DE": [
            4,
            72,
            14
        ]
    },
    "Load_per_bus_per_stop": {
        "bus3": {
            "H": 75.5,
            "I": 75.5,
            "J": 76.26666666666667,
            "K": 75.73333333333333,
            "L": 77.73333333333333,
            "A": 79.86666666666666,
            "B": 80.46666666666667,
            "C": 80,
            "D": 82.06666666666666,
            "E": 83.73333333333333,
            "F": 81.66666666666667,
            "G": 80.6
        },
        "bus5": {
            "L": 80.8125,
            "A": 81.5625,
            "B": 81.73333333333333,
            "C": 81.86666666666666,
            "D": 83.93333333333334,
            "E": 83.33333333333333,
            "F": 81.73333333333333,
            "G": 82.26666666666667,
            "H": 81.6,
            "I": 81.8,
            "J": 83.6,
            "K": 84.2
        },
        "bus0": {
            "B": 80.8125,
            "C": 82.5,
            "D": 80.4,
            "E": 80.93333333333334,
            "F": 80.66666666666667,
            "G": 82.2,
            "H": 85.26666666666667,
            "I": 86.13333333333334,
            "J": 86.86666666666666,
            "K": 86.93333333333334,
            "L": 84.8,
            "A": 83.93333333333334
        },
        "bus4": {
            "I": 82.3125,
            "J": 81.3125,
            "K": 82.875,
            "L": 84.33333333333333,
            "A": 84.6,
            "B": 87,
            "C": 87.46666666666667,
            "D": 87.4,
            "E": 91.33333333333333,
            "F": 91.8,
            "G": 91.53333333333333,
            "H": 90.6
        },
        "bus1": {
            "F": 66.4,
            "G": 67,
            "H": 68,
            "I": 69.6,
            "J": 69.66666666666667,
            "K": 70.13333333333334,
            "L": 68.46666666666667,
            "A": 69.66666666666667,
            "B": 69.8,
            "C": 71.2,
            "D": 68.73333333333333,
            "E": 69.46666666666667
        },
        "bus2": {
            "G": 88.125,
            "H": 88.33333333333333,
            "I": 89.13333333333334,
            "J": 90.2,
            "K": 90.8,
            "L": 93.93333333333334,
            "A": 92.73333333333333,
            "B": 92.06666666666666,
            "C": 94.86666666666666,
            "D": 95.06666666666666,
            "E": 95.06666666666666,
            "F": 94.6
        }
    },
    "Obs_and_actions_busses": {
        "2": 74.26020255862376,
        "5": 417.90051592881593,
        "0": -212.11192573463495,
        "1": 233.45176997969315
    },
    "Obs_and_actions_tfls": {
        "1": 140.90386166796074,
        "0": 483.416829358538,
        "2": 31.252372448232066
    }
}