{
    "Average_holding_time": 24.314079422382672,
    "Average_holding_actions": [
        731,
        0,
        305,
        72,
        0,
        0
    ],
    "Average_travel_time_passengers": 2747.1520700260253,
    "Average_passenger_waiting_time": 342.58419087070735,
    "Average_passenger_in_vehicle_time": 2404.5678791553264,
    "Average_speed_busses": 0.04616666666666667,
    "Average_experienced_crowding": 85.21740770872951,
    "Average_covariation_headway": 0.3322619384946573,
    "Average_covariation_headway_stops": {
        "F": 0.2602391117148355,
        "C": 0.29235554647350304,
        "B": 0.29144688240739186,
        "A": 0.27676203947912864,
        "L": 0.27049013383383924,
        "G": 0.26867783310597043,
        "D": 0.2833195250956556,
        "H": 0.23948140858853295,
        "E": 0.28012969003865335,
        "I": 0.23195483503554576,
        "J": 0.24174674160068144,
        "K": 0.26000034423225515
    },
    "Average_excess_waiting_time": {
        "F": 68.11317512405657,
        "C": 71.81354421346435,
        "B": 73.0628330124668,
        "A": 72.35167829321045,
        "L": 72.68724449279273,
        "G": 66.67810432874768,
        "D": 71.73647536650549,
        "H": 63.9198656579199,
        "E": 73.46155531946727,
        "I": 64.00538923891003,
        "J": 67.45558690172857,
        "K": 72.4192677266812
    },
    "Holding_per_stop": {
        "C": 28.387096774193548,
        "B": 12.903225806451612,
        "A": 13.043478260869565,
        "G": 33.54838709677419,
        "F": 23.47826086956522,
        "L": 21.52173913043478,
        "D": 30.967741935483872,
        "H": 29.032258064516128,
        "E": 24.782608695652176,
        "I": 25.434782608695652,
        "J": 23.47826086956522,
        "K": 25.054945054945055
    },
    "Actions_tfl_edges": {
        "AB": [
            12,
            34,
            47
        ],
        "BC": [
            10,
            29,
            55
        ],
        "EF": [
            8,
            37,
            48
        ],
        "FG": [
            11,
            39,
            43
        ],
        "KL": [
            8,
            36,
            48
        ],
        "LA": [
            9,
            40,
            44
        ],
        "CD": [
            6,
            35,
            52
        ],
        "GH": [
            15,
            39,
            39
        ],
        "DE": [
            10,
            43,
            40
        ],
        "HI": [
            15,
            39,
            39
        ],
        "IJ": [
            15,
            40,
            37
        ],
        "JK": [
            20,
            40,
            32
        ]
    },
    "Load_per_bus_per_stop": {
        "bus2": {
            "F": 68.6875,
            "G": 68,
            "H": 69.9375,
            "I": 71.4375,
            "J": 72.375,
            "K": 72.4,
            "L": 72.66666666666667,
            "A": 73.53333333333333,
            "B": 72.4,
            "C": 72.13333333333334,
            "D": 72.33333333333333,
            "E": 72.46666666666667
        },
        "bus1": {
            "C": 83.3125,
            "D": 81.3125,
            "E": 82.375,
            "F": 84.4375,
            "G": 86.375,
            "H": 88.1875,
            "I": 89.46666666666667,
            "J": 88.13333333333334,
            "K": 89.13333333333334,
            "L": 89.2,
            "A": 87.4,
            "B": 86.53333333333333
        },
        "bus0": {
            "B": 69.8125,
            "C": 70.4375,
            "D": 70.4375,
            "E": 72.0625,
            "F": 73.0625,
            "G": 70.2,
            "H": 71.46666666666667,
            "I": 70.46666666666667,
            "J": 72.06666666666666,
            "K": 73.26666666666667,
            "L": 73.06666666666666,
            "A": 75.46666666666667
        },
        "bus5": {
            "A": 75.375,
            "B": 75.4375,
            "C": 77.125,
            "D": 79.6875,
            "E": 77.73333333333333,
            "F": 76.8,
            "G": 77.53333333333333,
            "H": 79.26666666666667,
            "I": 80.2,
            "J": 80.8,
            "K": 79.46666666666667,
            "L": 80.2
        },
        "bus4": {
            "L": 77.25,
            "A": 77.4375,
            "B": 77.25,
            "C": 78.26666666666667,
            "D": 77.93333333333334,
            "E": 78.86666666666666,
            "F": 78.4,
            "G": 80.86666666666666,
            "H": 81.73333333333333,
            "I": 82.26666666666667,
            "J": 84.73333333333333,
            "K": 84.26666666666667
        },
        "bus3": {
            "G": 96.1875,
            "H": 93.9375,
            "I": 92.75,
            "J": 90.5,
            "K": 90.3125,
            "L": 92.5,
            "A": 94.66666666666667,
            "B": 95.53333333333333,
            "C": 98.8,
            "D": 99.2,
            "E": 97.73333333333333,
            "F": 100.13333333333334
        }
    },
    "Obs_and_actions_busses": {
        "0": -220.68702531510766,
        "2": 99.9131500431066,
        "4": 372.5394494559652
    },
    "Obs_and_actions_tfls": {
        "1": -99.95959509837003,
        "2": 306.04599916409563,
        "0": 113.89750064082885
    }
}