{
    "Average_holding_time": 16.28342245989305,
    "Average_holding_actions": [
        986,
        0,
        0,
        71,
        65,
        0
    ],
    "Average_travel_time_passengers": 2773.9253210274455,
    "Average_passenger_waiting_time": 367.3822780618683,
    "Average_passenger_in_vehicle_time": 2406.5430429656108,
    "Average_speed_busses": 0.04675,
    "Average_experienced_crowding": 89.11998412890107,
    "Average_covariation_headway": 0.5239680753336228,
    "Average_covariation_headway_stops": {
        "A": 0.39007609006927,
        "F": 0.39798328127287613,
        "B": 0.3877191529220162,
        "C": 0.3986994819427625,
        "D": 0.4138578117496869,
        "I": 0.39508393019709154,
        "E": 0.3818277629427695,
        "G": 0.3986550797666838,
        "J": 0.38071507943935323,
        "H": 0.4099197832647017,
        "K": 0.3830165827505261,
        "L": 0.39334536095881883
    },
    "Average_excess_waiting_time": {
        "A": 94.94910062547689,
        "F": 87.78832287387121,
        "B": 92.19707679572457,
        "C": 92.69943309340755,
        "D": 93.07697431027367,
        "I": 89.16992079672082,
        "E": 86.86124912408201,
        "G": 89.25332520406016,
        "J": 87.2127378627975,
        "H": 94.50599124705906,
        "K": 92.00215483819784,
        "L": 99.4788459374771
    },
    "Holding_per_stop": {
        "B": 14.193548387096774,
        "F": 12.127659574468085,
        "C": 18.51063829787234,
        "D": 22.340425531914892,
        "I": 24.25531914893617,
        "A": 11.41304347826087,
        "G": 14.680851063829786,
        "J": 20.106382978723403,
        "E": 10.212765957446809,
        "H": 20.74468085106383,
        "K": 8.709677419354838,
        "L": 17.934782608695652
    },
    "Actions_tfl_edges": {
        "AB": [
            0,
            92,
            1
        ],
        "BC": [
            0,
            94,
            0
        ],
        "CD": [
            0,
            95,
            0
        ],
        "EF": [
            0,
            94,
            1
        ],
        "HI": [
            0,
            93,
            2
        ],
        "LA": [
            0,
            90,
            3
        ],
        "FG": [
            0,
            93,
            1
        ],
        "DE": [
            0,
            94,
            0
        ],
        "IJ": [
            0,
            92,
            2
        ],
        "GH": [
            0,
            92,
            2
        ],
        "JK": [
            0,
            94,
            0
        ],
        "KL": [
            0,
            91,
            2
        ]
    },
    "Load_per_bus_per_stop": {
        "bus5": {
            "A": 74,
            "B": 74.5625,
            "C": 75.0625,
            "D": 76.75,
            "E": 77.375,
            "F": 78,
            "G": 77.26666666666667,
            "H": 78.13333333333334,
            "I": 77.4,
            "J": 75.73333333333333,
            "K": 77.06666666666666,
            "L": 78.4
        },
        "bus3": {
            "F": 74,
            "G": 74.6875,
            "H": 74.25,
            "I": 75.875,
            "J": 75.875,
            "K": 78.3125,
            "L": 78.625,
            "A": 76.13333333333334,
            "B": 75.46666666666667,
            "C": 74.8,
            "D": 76.06666666666666,
            "E": 77.13333333333334
        },
        "bus0": {
            "B": 69,
            "C": 69.5,
            "D": 70.0625,
            "E": 67.5625,
            "F": 67.6875,
            "G": 70.25,
            "H": 69.875,
            "I": 71.53333333333333,
            "J": 72.4,
            "K": 71.66666666666667,
            "L": 71.13333333333334,
            "A": 70.66666666666667
        },
        "bus1": {
            "C": 60.25,
            "D": 60.75,
            "E": 61.75,
            "F": 60.9375,
            "G": 62.5625,
            "H": 63.1875,
            "I": 64,
            "J": 62.375,
            "K": 61.93333333333333,
            "L": 63.06666666666667,
            "A": 61.333333333333336,
            "B": 61.93333333333333
        },
        "bus2": {
            "D": 82.375,
            "E": 84.9375,
            "F": 85.8125,
            "G": 85.75,
            "H": 87.375,
            "I": 87.5625,
            "J": 87.125,
            "K": 87.0625,
            "L": 92.93333333333334,
            "A": 90.4,
            "B": 89.73333333333333,
            "C": 87.33333333333333
        },
        "bus4": {
            "I": 94.5625,
            "J": 95.4375,
            "K": 96.6875,
            "L": 95.875,
            "A": 99,
            "B": 101.25,
            "C": 102.3125,
            "D": 103.46666666666667,
            "E": 101.66666666666667,
            "F": 102.13333333333334,
            "G": 101.93333333333334,
            "H": 99.86666666666666
        }
    },
    "Obs_and_actions_busses": {
        "4": 446.8549477316011,
        "0": -183.8190969850065,
        "5": 251.65073808239458
    },
    "Obs_and_actions_tfls": {
        "1": 104.0982776757932,
        "2": -672.0696402629425
    }
}746567
    }
}5473066037814,
        "2": -686.7794648299353
    }
}