{
    "Average_holding_time": 26.05698529411765,
    "Average_holding_actions": [
        543,
        423,
        0,
        88,
        34,
        0
    ],
    "Average_travel_time_passengers": 2802.2708807155577,
    "Average_passenger_waiting_time": 337.62889933453073,
    "Average_passenger_in_vehicle_time": 2464.64198138108,
    "Average_speed_busses": 0.04533333333333334,
    "Average_experienced_crowding": 82.20030429459734,
    "Average_covariation_headway": 0.270773264760068,
    "Average_covariation_headway_stops": {
        "H": 0.22432027719358305,
        "A": 0.25176282318707144,
        "E": 0.21477146153401527,
        "G": 0.22305817445724654,
        "C": 0.24667854133976663,
        "D": 0.22025476574469885,
        "I": 0.2069022026926798,
        "F": 0.20286349448196883,
        "B": 0.22681556591751217,
        "J": 0.1828612483011655,
        "K": 0.19665115612025266,
        "L": 0.22055442695786553
    },
    "Average_excess_waiting_time": {
        "H": 63.318138606884645,
        "A": 74.31368668493036,
        "E": 64.86499247797866,
        "G": 65.26714569834115,
        "C": 74.02185491202528,
        "D": 68.19607865526308,
        "I": 62.967818309459574,
        "F": 65.83261502819948,
        "B": 72.69605602364487,
        "J": 62.64246473447264,
        "K": 66.61100030162982,
        "L": 71.61191788444728
    },
    "Holding_per_stop": {
        "H": 29.347826086956523,
        "E": 21.75824175824176,
        "G": 25.714285714285715,
        "D": 21.428571428571427,
        "A": 21.666666666666668,
        "C": 35.666666666666664,
        "I": 31.978021978021978,
        "F": 26.373626373626372,
        "B": 26,
        "J": 27.36263736263736,
        "K": 26,
        "L": 19.333333333333332
    },
    "Actions_tfl_edges": {
        "BC": [
            40,
            34,
            17
        ],
        "CD": [
            28,
            47,
            16
        ],
        "DE": [
            26,
            56,
            10
        ],
        "FG": [
            35,
            49,
            8
        ],
        "GH": [
            33,
            44,
            15
        ],
        "LA": [
            16,
            55,
            20
        ],
        "HI": [
            30,
            46,
            16
        ],
        "EF": [
            32,
            45,
            14
        ],
        "AB": [
            29,
            47,
            14
        ],
        "IJ": [
            27,
            50,
            14
        ],
        "JK": [
            31,
            48,
            12
        ],
        "KL": [
            24,
            54,
            12
        ]
    },
    "Load_per_bus_per_stop": {
        "bus4": {
            "H": 88.75,
            "I": 88.5625,
            "J": 88.8125,
            "K": 89.53333333333333,
            "L": 91.6,
            "A": 90.46666666666667,
            "B": 91,
            "C": 91.73333333333333,
            "D": 92.8,
            "E": 94.93333333333334,
            "F": 95,
            "G": 95.8
        },
        "bus5": {
            "A": 78.8125,
            "B": 79,
            "C": 79.8,
            "D": 78.46666666666667,
            "E": 78.73333333333333,
            "F": 81.13333333333334,
            "G": 82.6,
            "H": 81.93333333333334,
            "I": 84.53333333333333,
            "J": 85.13333333333334,
            "K": 85.33333333333333,
            "L": 83.8
        },
        "bus2": {
            "E": 72.5625,
            "F": 71.9375,
            "G": 71.8,
            "H": 73.46666666666667,
            "I": 73.6,
            "J": 76.06666666666666,
            "K": 75.86666666666666,
            "L": 75.13333333333334,
            "A": 76.2,
            "B": 77.13333333333334,
            "C": 78.4,
            "D": 78.2
        },
        "bus3": {
            "G": 71.375,
            "H": 71.5,
            "I": 71.875,
            "J": 72,
            "K": 73.33333333333333,
            "L": 74.73333333333333,
            "A": 75.2,
            "B": 75.73333333333333,
            "C": 75.06666666666666,
            "D": 76.86666666666666,
            "E": 77.73333333333333,
            "F": 76.06666666666666
        },
        "bus0": {
            "C": 73.4,
            "D": 76.33333333333333,
            "E": 79.2,
            "F": 77.6,
            "G": 76.6,
            "H": 77.33333333333333,
            "I": 79.8,
            "J": 79.2,
            "K": 78.66666666666667,
            "L": 80.2,
            "A": 78,
            "B": 79.73333333333333
        },
        "bus1": {
            "D": 78,
            "E": 78.9375,
            "F": 78.46666666666667,
            "G": 80.46666666666667,
            "H": 82.13333333333334,
            "I": 81.13333333333334,
            "J": 80.93333333333334,
            "K": 82.33333333333333,
            "L": 82.6,
            "A": 83.8,
            "B": 84.53333333333333,
            "C": 83.2
        }
    },
    "Obs_and_actions_busses": {
        "0": -275.6046019950914,
        "1": 51.31914850963302,
        "4": 158.02459707363593,
        "5": 363.5110780867064
    },
    "Obs_and_actions_tfls": {
        "0": 324.5824919003967,
        "1": -43.66159823074748,
        "2": 187.0790520671188
    }
}