{
    "Average_holding_time": 9.6,
    "Average_holding_actions": [
        1016,
        40,
        0,
        46,
        0,
        0
    ],
    "Average_travel_time_passengers": 2669.0981231931214,
    "Average_passenger_waiting_time": 332.7640792380958,
    "Average_passenger_in_vehicle_time": 2336.3340439550166,
    "Average_speed_busses": 0.04791666666666667,
    "Average_experienced_crowding": 82.95808294701492,
    "Average_covariation_headway": 0.41045430851458636,
    "Average_covariation_headway_stops": {
        "G": 0.29728617473608393,
        "B": 0.29923908675803057,
        "D": 0.3006315891401083,
        "C": 0.29987293334764137,
        "K": 0.3080391687555312,
        "L": 0.30410153447522537,
        "H": 0.2985021388411154,
        "A": 0.28753205173018354,
        "E": 0.2925125014513513,
        "I": 0.28764732621868033,
        "F": 0.2912005391719007,
        "J": 0.2921411554167482
    },
    "Average_excess_waiting_time": {
        "G": 60.14039598971215,
        "B": 62.64186341538033,
        "D": 60.131978702611775,
        "C": 61.78266711793276,
        "K": 66.58620992496895,
        "L": 64.12546664817171,
        "H": 62.00716650803844,
        "A": 62.19689976563615,
        "E": 59.2476514592376,
        "I": 61.762152254197815,
        "F": 60.9050278786969,
        "J": 64.76032371129713
    },
    "Holding_per_stop": {
        "G": 12.5,
        "D": 8.65979381443299,
        "C": 12.8125,
        "L": 12.1875,
        "B": 9.6875,
        "K": 10.736842105263158,
        "H": 10,
        "A": 6.315789473684211,
        "E": 9.0625,
        "I": 6.875,
        "F": 11.875,
        "J": 4.421052631578948
    },
    "Actions_tfl_edges": {
        "AB": [
            0,
            61,
            35
        ],
        "BC": [
            0,
            64,
            33
        ],
        "CD": [
            0,
            67,
            30
        ],
        "FG": [
            0,
            60,
            37
        ],
        "JK": [
            0,
            68,
            28
        ],
        "KL": [
            0,
            68,
            28
        ],
        "GH": [
            0,
            62,
            34
        ],
        "DE": [
            0,
            64,
            33
        ],
        "LA": [
            0,
            63,
            33
        ],
        "HI": [
            0,
            64,
            32
        ],
        "EF": [
            0,
            65,
            31
        ],
        "IJ": [
            0,
            60,
            36
        ]
    },
    "Load_per_bus_per_stop": {
        "bus3": {
            "G": 83.6470588235294,
            "H": 83.4375,
            "I": 86.3125,
            "J": 87.625,
            "K": 87.4375,
            "L": 87.3125,
            "A": 87,
            "B": 87,
            "C": 87.875,
            "D": 86.6875,
            "E": 86.875,
            "F": 88.5625
        },
        "bus0": {
            "B": 71,
            "C": 72,
            "D": 71.75,
            "E": 72,
            "F": 71.0625,
            "G": 71.5,
            "H": 70.8125,
            "I": 72.5625,
            "J": 72.3125,
            "K": 73.0625,
            "L": 75,
            "A": 77
        },
        "bus2": {
            "D": 76.82352941176471,
            "E": 75.4375,
            "F": 76.375,
            "G": 77.1875,
            "H": 78.5,
            "I": 79.625,
            "J": 77.6875,
            "K": 77.6875,
            "L": 78.125,
            "A": 77.8125,
            "B": 80.3125,
            "C": 80.625
        },
        "bus1": {
            "C": 63.25,
            "D": 62.6875,
            "E": 63.0625,
            "F": 64,
            "G": 66,
            "H": 67.4375,
            "I": 68.1875,
            "J": 69,
            "K": 69.125,
            "L": 69.3125,
            "A": 69.375,
            "B": 69.0625
        },
        "bus4": {
            "K": 82,
            "L": 81.75,
            "A": 82.875,
            "B": 83.1875,
            "C": 84.8125,
            "D": 86.375,
            "E": 85.875,
            "F": 84.3125,
            "G": 84.125,
            "H": 86.9375,
            "I": 87.6875,
            "J": 86.8
        },
        "bus5": {
            "L": 79,
            "A": 81.5,
            "B": 81.5,
            "C": 82.625,
            "D": 83.75,
            "E": 83.6875,
            "F": 84,
            "G": 83.3125,
            "H": 82,
            "I": 82.8125,
            "J": 83.0625,
            "K": 84.13333333333334
        }
    },
    "Obs_and_actions_busses": {
        "0": -177.8700152069086,
        "4": 346.22830478164457,
        "1": 150.92271607475433,
        "3": 191.29898826667224
    },
    "Obs_and_actions_tfls": {
        "1": 240.55132034492283,
        "2": -138.38562058080086
    }
}