{
    "Average_holding_time": 14.31266846361186,
    "Average_holding_actions": [
        995,
        0,
        0,
        59,
        59,
        0
    ],
    "Average_travel_time_passengers": 2769.9380520166064,
    "Average_passenger_waiting_time": 351.5136752266204,
    "Average_passenger_in_vehicle_time": 2418.4243767899934,
    "Average_speed_busses": 0.046375,
    "Average_experienced_crowding": 87.75086723133329,
    "Average_covariation_headway": 0.4621877814219464,
    "Average_covariation_headway_stops": {
        "C": 0.36759189188305935,
        "B": 0.3691940437950007,
        "K": 0.36353902789556136,
        "H": 0.3563852585248079,
        "E": 0.3773803527744079,
        "I": 0.35411678835806387,
        "D": 0.3710460757559403,
        "L": 0.35439435395653496,
        "F": 0.37199146944947326,
        "J": 0.34519151089274214,
        "A": 0.3377729130580883,
        "G": 0.3466943866929148
    },
    "Average_excess_waiting_time": {
        "C": 86.99055731639766,
        "B": 89.34001000149414,
        "K": 84.68393439134667,
        "H": 83.80399363902501,
        "E": 87.80468367124041,
        "I": 81.38314901122283,
        "D": 89.74744099379404,
        "L": 84.88694007027794,
        "F": 88.72364080183132,
        "J": 81.22395977457785,
        "A": 86.38097746755159,
        "G": 84.71007735746855
    },
    "Holding_per_stop": {
        "C": 24.838709677419356,
        "K": 10,
        "I": 17.23404255319149,
        "E": 11.935483870967742,
        "B": 15.978260869565217,
        "H": 13.225806451612904,
        "D": 19.032258064516128,
        "L": 12.258064516129032,
        "F": 17.741935483870968,
        "J": 10,
        "A": 3.2967032967032965,
        "G": 15.978260869565217
    },
    "Actions_tfl_edges": {
        "AB": [
            0,
            91,
            1
        ],
        "BC": [
            0,
            93,
            0
        ],
        "DE": [
            0,
            94,
            0
        ],
        "GH": [
            0,
            93,
            0
        ],
        "HI": [
            0,
            94,
            0
        ],
        "JK": [
            0,
            94,
            0
        ],
        "CD": [
            0,
            93,
            0
        ],
        "KL": [
            0,
            93,
            0
        ],
        "IJ": [
            0,
            94,
            0
        ],
        "EF": [
            0,
            93,
            0
        ],
        "LA": [
            0,
            93,
            0
        ],
        "FG": [
            0,
            93,
            0
        ]
    },
    "Load_per_bus_per_stop": {
        "bus1": {
            "C": 66,
            "D": 67.5625,
            "E": 67.375,
            "F": 69.125,
            "G": 69.4375,
            "H": 69.75,
            "I": 69.0625,
            "J": 68.4,
            "K": 68.46666666666667,
            "L": 70.33333333333333,
            "A": 68.46666666666667,
            "B": 69.4
        },
        "bus0": {
            "B": 84.25,
            "C": 85.9375,
            "D": 88,
            "E": 87.9375,
            "F": 88.125,
            "G": 88.375,
            "H": 87.4,
            "I": 87.6,
            "J": 88.26666666666667,
            "K": 86.86666666666666,
            "L": 88.06666666666666,
            "A": 89.06666666666666
        },
        "bus5": {
            "K": 82.5625,
            "L": 82.5625,
            "A": 83.5,
            "B": 86.375,
            "C": 87.3125,
            "D": 87.0625,
            "E": 86.73333333333333,
            "F": 85.6,
            "G": 88.33333333333333,
            "H": 87.8,
            "I": 88.2,
            "J": 89.2
        },
        "bus3": {
            "H": 85.75,
            "I": 84.9375,
            "J": 84.9375,
            "K": 85.875,
            "L": 86.6875,
            "A": 89.86666666666666,
            "B": 91.2,
            "C": 91.33333333333333,
            "D": 91.4,
            "E": 91,
            "F": 92,
            "G": 92.06666666666666
        },
        "bus2": {
            "E": 66,
            "F": 66.125,
            "G": 66,
            "H": 67.0625,
            "I": 68.25,
            "J": 68.6875,
            "K": 69.9375,
            "L": 72,
            "A": 72.2,
            "B": 70.8,
            "C": 69.2,
            "D": 69.86666666666666
        },
        "bus4": {
            "I": 79.9375,
            "J": 81.4375,
            "K": 83.0625,
            "L": 84.375,
            "A": 85.9375,
            "B": 82.86666666666666,
            "C": 83.73333333333333,
            "D": 83.66666666666667,
            "E": 83.46666666666667,
            "F": 84.6,
            "G": 86.8,
            "H": 85
        }
    },
    "Obs_and_actions_busses": {
        "0": -176.22488640339333,
        "5": 249.37265607685546,
        "4": 408.1801019273354
    },
    "Obs_and_actions_tfls": {
        "1": 101.85973392949582,
        "2": -988.6595753776121
    }
}