{
    "Average_holding_time": 67.56756756756756,
    "Average_holding_actions": [
        329,
        25,
        0,
        85,
        227,
        0
    ],
    "Average_travel_time_passengers": 5611.50017250648,
    "Average_passenger_waiting_time": 1655.6105119209906,
    "Average_passenger_in_vehicle_time": 3955.889660585236,
    "Average_speed_busses": 0.02775,
    "Average_experienced_crowding": 419.8291684703926,
    "Average_covariation_headway": 1.7053130661049636,
    "Average_covariation_headway_stops": {
        "A": 1.7273233221065014,
        "E": 1.6001065713689415,
        "B": 1.6326702165717988,
        "C": 1.5833314934141371,
        "J": 1.67059230083829,
        "I": 1.6295529000299522,
        "F": 1.6075310389271882,
        "D": 1.59098546776792,
        "K": 1.6879218994642027,
        "G": 1.6093844472817478,
        "L": 1.6882271059792995,
        "H": 1.6129533470525652
    },
    "Average_excess_waiting_time": {
        "A": 1745.4067631296364,
        "E": 1442.0511020491617,
        "B": 1721.3862176227371,
        "C": 1399.8202082899872,
        "J": 1610.1726465167,
        "I": 1550.3878458584581,
        "F": 1476.7165506915403,
        "D": 1435.4480567756514,
        "K": 1665.7953656620593,
        "G": 1504.419567977421,
        "L": 1690.4156167758636,
        "H": 1530.7020037982647
    },
    "Holding_per_stop": {
        "B": 69.62264150943396,
        "E": 71.45454545454545,
        "C": 72.22222222222223,
        "J": 67.36842105263158,
        "A": 60.51724137931034,
        "F": 67.0909090909091,
        "I": 63.75,
        "D": 67.77777777777777,
        "K": 64.73684210526316,
        "G": 74.72727272727273,
        "L": 72.63157894736842,
        "H": 59.45454545454545
    },
    "Actions_tfl_edges": {
        "AB": [
            16,
            35,
            8
        ],
        "BC": [
            9,
            36,
            9
        ],
        "DE": [
            12,
            33,
            10
        ],
        "HI": [
            19,
            28,
            9
        ],
        "IJ": [
            14,
            34,
            9
        ],
        "LA": [
            15,
            32,
            11
        ],
        "EF": [
            10,
            37,
            8
        ],
        "CD": [
            8,
            35,
            11
        ],
        "JK": [
            16,
            30,
            11
        ],
        "FG": [
            22,
            25,
            8
        ],
        "KL": [
            15,
            30,
            12
        ],
        "GH": [
            17,
            32,
            6
        ]
    },
    "Load_per_bus_per_stop": {
        "bus5": {
            "A": 11.8,
            "B": 12.444444444444445,
            "C": 12.333333333333334,
            "D": 13.333333333333334,
            "E": 14.444444444444445,
            "F": 14.333333333333334,
            "G": 14.333333333333334,
            "H": 15,
            "I": 14.555555555555555,
            "J": 14.444444444444445,
            "K": 13.11111111111111,
            "L": 13.555555555555555
        },
        "bus2": {
            "E": 165.2,
            "F": 165.7,
            "G": 163.1,
            "H": 162.4,
            "I": 158.9,
            "J": 159,
            "K": 155.5,
            "L": 155.8,
            "A": 159,
            "B": 176.88888888888889,
            "C": 178.55555555555554,
            "D": 179.77777777777777
        },
        "bus0": {
            "B": 33.55555555555556,
            "C": 34.666666666666664,
            "D": 36.333333333333336,
            "E": 38.666666666666664,
            "F": 39.55555555555556,
            "G": 38.77777777777778,
            "H": 39.44444444444444,
            "I": 41.666666666666664,
            "J": 41.888888888888886,
            "K": 42.888888888888886,
            "L": 42.666666666666664,
            "A": 39.888888888888886
        },
        "bus1": {
            "C": 396.6666666666667,
            "D": 406.6666666666667,
            "E": 419.77777777777777,
            "F": 425.22222222222223,
            "G": 428.8888888888889,
            "H": 438.22222222222223,
            "I": 449.1111111111111,
            "J": 461.22222222222223,
            "K": 476.1111111111111,
            "L": 485.6666666666667,
            "A": 492.44444444444446,
            "B": 498.44444444444446
        },
        "bus4": {
            "J": 15.9,
            "K": 15.5,
            "L": 15.5,
            "A": 15.6,
            "B": 17.77777777777778,
            "C": 20.333333333333332,
            "D": 20.77777777777778,
            "E": 21.666666666666668,
            "F": 20.666666666666668,
            "G": 20.333333333333332,
            "H": 19,
            "I": 17.555555555555557
        },
        "bus3": {
            "I": 53.2,
            "J": 52.3,
            "K": 52.2,
            "L": 53.9,
            "A": 54,
            "B": 60.333333333333336,
            "C": 61.666666666666664,
            "D": 63.22222222222222,
            "E": 63.77777777777778,
            "F": 64.22222222222223,
            "G": 63,
            "H": 62.44444444444444
        }
    },
    "Obs_and_actions_busses": {
        "5": 2221.020428098953,
        "0": -29.68661178036268,
        "1": 240.7192345446506,
        "4": -3134.194657410743
    },
    "Obs_and_actions_tfls": {
        "0": -806.6424046489265,
        "2": 672.448480808927,
        "1": 397.9444373784983
    }
}