{
    "Average_holding_time": 16.509519492293744,
    "Average_holding_actions": [
        967,
        0,
        0,
        73,
        63,
        0
    ],
    "Average_travel_time_passengers": 2805.247464351088,
    "Average_passenger_waiting_time": 368.77478775077725,
    "Average_passenger_in_vehicle_time": 2436.4726766003423,
    "Average_speed_busses": 0.04595833333333333,
    "Average_experienced_crowding": 90.54192771158162,
    "Average_covariation_headway": 0.5126291113489906,
    "Average_covariation_headway_stops": {
        "B": 0.39811838313852294,
        "G": 0.3847627243401573,
        "J": 0.3849611577237626,
        "A": 0.4032298896885805,
        "K": 0.4024045269227976,
        "D": 0.36992412886622583,
        "C": 0.37495891594737146,
        "L": 0.3957756408743527,
        "H": 0.38828632273764735,
        "E": 0.37454558214827444,
        "I": 0.39816552496022634,
        "F": 0.3644310089056489
    },
    "Average_excess_waiting_time": {
        "B": 96.03905527574818,
        "G": 94.73357666732346,
        "J": 96.11303447923007,
        "A": 98.99452153657296,
        "K": 98.24732183834965,
        "D": 89.60857119281474,
        "C": 94.10007015887624,
        "L": 98.60996158259229,
        "H": 97.41164894667963,
        "E": 93.16278581319801,
        "I": 101.51591569640965,
        "F": 92.74725956617198
    },
    "Holding_per_stop": {
        "B": 16.129032258064516,
        "G": 14.347826086956522,
        "A": 17.282608695652176,
        "K": 17.282608695652176,
        "D": 12.391304347826088,
        "J": 18.58695652173913,
        "C": 19.565217391304348,
        "L": 15.978260869565217,
        "H": 15.326086956521738,
        "E": 19.23913043478261,
        "I": 25.384615384615383,
        "F": 6.593406593406593
    },
    "Actions_tfl_edges": {
        "AB": [
            0,
            93,
            0
        ],
        "CD": [
            0,
            93,
            0
        ],
        "FG": [
            0,
            92,
            0
        ],
        "IJ": [
            0,
            92,
            0
        ],
        "JK": [
            0,
            93,
            0
        ],
        "LA": [
            0,
            93,
            0
        ],
        "BC": [
            0,
            93,
            0
        ],
        "GH": [
            0,
            92,
            0
        ],
        "KL": [
            0,
            92,
            0
        ],
        "DE": [
            0,
            92,
            0
        ],
        "HI": [
            0,
            92,
            0
        ],
        "EF": [
            0,
            92,
            0
        ]
    },
    "Load_per_bus_per_stop": {
        "bus0": {
            "B": 65.8125,
            "C": 69.125,
            "D": 70.9375,
            "E": 69.3125,
            "F": 70.875,
            "G": 67.86666666666666,
            "H": 69.33333333333333,
            "I": 68.4,
            "J": 69.46666666666667,
            "K": 71.4,
            "L": 71.66666666666667,
            "A": 71.8
        },
        "bus2": {
            "G": 73.6875,
            "H": 75.875,
            "I": 76.8125,
            "J": 76.9375,
            "K": 77.4,
            "L": 76.86666666666666,
            "A": 75.46666666666667,
            "B": 76.06666666666666,
            "C": 77.06666666666666,
            "D": 78.73333333333333,
            "E": 77.66666666666667,
            "F": 78.2
        },
        "bus3": {
            "J": 84.8125,
            "K": 84.375,
            "L": 84.625,
            "A": 86.2,
            "B": 86.46666666666667,
            "C": 85.73333333333333,
            "D": 85.8,
            "E": 88,
            "F": 88.4,
            "G": 88.46666666666667,
            "H": 90.8,
            "I": 89.4
        },
        "bus5": {
            "A": 88.75,
            "B": 88.9375,
            "C": 90.25,
            "D": 84.86666666666666,
            "E": 87.8,
            "F": 88.53333333333333,
            "G": 89.13333333333334,
            "H": 92.33333333333333,
            "I": 93.6,
            "J": 94.4,
            "K": 94.93333333333334,
            "L": 94.6
        },
        "bus4": {
            "K": 85.125,
            "L": 84.8125,
            "A": 83.75,
            "B": 85.375,
            "C": 88.8,
            "D": 90.33333333333333,
            "E": 92.26666666666667,
            "F": 91.46666666666667,
            "G": 94.06666666666666,
            "H": 92.33333333333333,
            "I": 90.8,
            "J": 89.46666666666667
        },
        "bus1": {
            "D": 68.75,
            "E": 69.8125,
            "F": 69,
            "G": 70.125,
            "H": 71.1875,
            "I": 74.4,
            "J": 74.2,
            "K": 76.2,
            "L": 77,
            "A": 75.73333333333333,
            "B": 74.53333333333333,
            "C": 73.53333333333333
        }
    },
    "Obs_and_actions_busses": {
        "0": -178.92966718269852,
        "4": 420.7413718549192,
        "5": 246.2297399865246
    },
    "Obs_and_actions_tfls": {
        "1": 96.50793934079782
    }
}