{
    "Average_holding_time": 20.94032549728752,
    "Average_holding_actions": [
        748,
        86,
        187,
        23,
        17,
        0
    ],
    "Average_travel_time_passengers": 2746.5240780999156,
    "Average_passenger_waiting_time": 326.48989155879644,
    "Average_passenger_in_vehicle_time": 2420.0341865411215,
    "Average_speed_busses": 0.04608333333333333,
    "Average_experienced_crowding": 82.09205879301159,
    "Average_covariation_headway": 0.21985745506147886,
    "Average_covariation_headway_stops": {
        "K": 0.1642077761191958,
        "H": 0.16763433271085904,
        "G": 0.17545812111331388,
        "L": 0.1480547883580877,
        "C": 0.19654101173214902,
        "B": 0.174662182566763,
        "I": 0.14920717915757684,
        "A": 0.14096485436999864,
        "D": 0.16507531282513074,
        "J": 0.15553698375466818,
        "E": 0.1641246295319441,
        "F": 0.15508298252491476
    },
    "Average_excess_waiting_time": {
        "K": 56.84072655244148,
        "H": 55.24569597505371,
        "G": 57.99095445427622,
        "L": 53.416209133183486,
        "C": 56.46706948488662,
        "B": 56.051209029183724,
        "I": 55.464212787902454,
        "A": 54.71019036119901,
        "D": 54.666992201990354,
        "J": 57.694005428968126,
        "E": 56.32460716129589,
        "F": 57.60543227454178
    },
    "Holding_per_stop": {
        "H": 26.73913043478261,
        "L": 14.673913043478262,
        "C": 28.06451612903226,
        "B": 12.903225806451612,
        "K": 22.82608695652174,
        "G": 16.956521739130434,
        "I": 24.782608695652176,
        "D": 20.967741935483872,
        "A": 14.021739130434783,
        "J": 24.395604395604394,
        "E": 25.434782608695652,
        "F": 19.565217391304348
    },
    "Actions_tfl_edges": {
        "AB": [
            8,
            58,
            27
        ],
        "BC": [
            4,
            71,
            18
        ],
        "FG": [
            8,
            66,
            18
        ],
        "GH": [
            7,
            69,
            17
        ],
        "JK": [
            4,
            74,
            14
        ],
        "KL": [
            14,
            61,
            18
        ],
        "HI": [
            5,
            71,
            16
        ],
        "LA": [
            4,
            57,
            31
        ],
        "CD": [
            8,
            71,
            14
        ],
        "IJ": [
            5,
            73,
            14
        ],
        "DE": [
            13,
            60,
            20
        ],
        "EF": [
            9,
            67,
            16
        ]
    },
    "Load_per_bus_per_stop": {
        "bus4": {
            "K": 81.125,
            "L": 82.5625,
            "A": 82.6875,
            "B": 83.5,
            "C": 83.86666666666666,
            "D": 85.2,
            "E": 84.93333333333334,
            "F": 84.46666666666667,
            "G": 84,
            "H": 84.13333333333334,
            "I": 83.6,
            "J": 85.13333333333334
        },
        "bus3": {
            "H": 71.0625,
            "I": 71.5625,
            "J": 73.3125,
            "K": 75,
            "L": 77.46666666666667,
            "A": 78.86666666666666,
            "B": 78.8,
            "C": 79.93333333333334,
            "D": 78.86666666666666,
            "E": 76.86666666666666,
            "F": 75.13333333333334,
            "G": 75
        },
        "bus2": {
            "G": 86.4375,
            "H": 85.5625,
            "I": 85.9375,
            "J": 85.6875,
            "K": 86.66666666666667,
            "L": 88.8,
            "A": 90.4,
            "B": 89.6,
            "C": 88.53333333333333,
            "D": 87.33333333333333,
            "E": 89.8,
            "F": 91
        },
        "bus5": {
            "L": 76.25,
            "A": 77.25,
            "B": 78.625,
            "C": 80.75,
            "D": 82.0625,
            "E": 81.73333333333333,
            "F": 81.93333333333334,
            "G": 82.6,
            "H": 79.53333333333333,
            "I": 79.53333333333333,
            "J": 78.66666666666667,
            "K": 80.46666666666667
        },
        "bus1": {
            "C": 76.4375,
            "D": 77.375,
            "E": 80.0625,
            "F": 82.4375,
            "G": 83.4375,
            "H": 83.625,
            "I": 85.6,
            "J": 87.6,
            "K": 86.8,
            "L": 85.6,
            "A": 83.86666666666666,
            "B": 83.26666666666667
        },
        "bus0": {
            "B": 72.3125,
            "C": 73.25,
            "D": 73.6875,
            "E": 73.1875,
            "F": 74.125,
            "G": 74.93333333333334,
            "H": 75.8,
            "I": 75.33333333333333,
            "J": 76.06666666666666,
            "K": 74.8,
            "L": 77.6,
            "A": 77.8
        }
    },
    "Obs_and_actions_busses": {
        "5": 369.92382646309653,
        "4": 186.278960149975,
        "2": 59.9697671738301,
        "0": -183.34116666506952,
        "1": 106.96595619443339,
        "3": 147.54524834584905
    },
    "Obs_and_actions_tfls": {
        "1": 190.40491548635654,
        "2": -68.00148580644237,
        "0": -15.050269140101355
    }
}