{
    "Average_holding_time": 73.39887640449439,
    "Average_holding_actions": [
        328,
        18,
        0,
        106,
        260,
        0
    ],
    "Average_travel_time_passengers": 4866.48194191623,
    "Average_passenger_waiting_time": 1146.6017329966394,
    "Average_passenger_in_vehicle_time": 3719.8802089197457,
    "Average_speed_busses": 0.029666666666666668,
    "Average_experienced_crowding": 279.77449561125945,
    "Average_covariation_headway": 1.410353304836996,
    "Average_covariation_headway_stops": {
        "H": 1.250471630950666,
        "B": 1.2240310201579998,
        "F": 1.2393890083456813,
        "A": 1.2435469863804811,
        "I": 1.1899923582997023,
        "K": 1.2033640198340596,
        "L": 1.2017892537516195,
        "J": 1.1862405253108566,
        "G": 1.2411781598658023,
        "C": 1.2298495265977627,
        "D": 1.2277282140983434,
        "E": 1.230853403108883
    },
    "Average_excess_waiting_time": {
        "H": 969.6978983893262,
        "B": 905.0388866585824,
        "F": 941.9805610213486,
        "A": 937.7267131663964,
        "I": 880.5122403758453,
        "K": 896.5686942554169,
        "L": 901.3482846706729,
        "J": 885.7879638400061,
        "G": 954.4542394089701,
        "C": 920.9526076733143,
        "D": 928.7550999357254,
        "E": 940.8068109576302
    },
    "Holding_per_stop": {
        "K": 70.34482758620689,
        "I": 80.52631578947368,
        "B": 70,
        "H": 79.18032786885246,
        "F": 74.26229508196721,
        "A": 54.40677966101695,
        "L": 68.27586206896552,
        "J": 76.84210526315789,
        "G": 76.22950819672131,
        "C": 75.5,
        "D": 74.5,
        "E": 80.5
    },
    "Actions_tfl_edges": {
        "AB": [
            25,
            20,
            15
        ],
        "EF": [
            27,
            28,
            6
        ],
        "GH": [
            26,
            29,
            7
        ],
        "HI": [
            23,
            24,
            15
        ],
        "JK": [
            24,
            25,
            9
        ],
        "LA": [
            25,
            25,
            9
        ],
        "KL": [
            22,
            30,
            6
        ],
        "IJ": [
            25,
            22,
            10
        ],
        "BC": [
            27,
            19,
            14
        ],
        "FG": [
            23,
            31,
            7
        ],
        "CD": [
            23,
            20,
            17
        ],
        "DE": [
            21,
            25,
            14
        ]
    },
    "Load_per_bus_per_stop": {
        "bus2": {
            "H": 61.36363636363637,
            "I": 67.4,
            "J": 69.5,
            "K": 70,
            "L": 71.9,
            "A": 71.8,
            "B": 70.7,
            "C": 68.9,
            "D": 67.7,
            "E": 64.6,
            "F": 65.3,
            "G": 64.8
        },
        "bus0": {
            "B": 313.5,
            "C": 318.6,
            "D": 323.5,
            "E": 328.6,
            "F": 340.6,
            "G": 341.6,
            "H": 344.5,
            "I": 325,
            "J": 333,
            "K": 337.44444444444446,
            "L": 342.6666666666667,
            "A": 348.55555555555554
        },
        "bus1": {
            "F": 242,
            "G": 242.54545454545453,
            "H": 253.1,
            "I": 254.4,
            "J": 256.6,
            "K": 258.8,
            "L": 263.9,
            "A": 262.8,
            "B": 261.2,
            "C": 263.7,
            "D": 266.5,
            "E": 263.5
        },
        "bus5": {
            "A": 31.2,
            "B": 32.5,
            "C": 32.6,
            "D": 33.4,
            "E": 32.6,
            "F": 33.8,
            "G": 32.2,
            "H": 33.5,
            "I": 33.333333333333336,
            "J": 33.333333333333336,
            "K": 34.22222222222222,
            "L": 34.333333333333336
        },
        "bus3": {
            "I": 12.7,
            "J": 12.5,
            "K": 11.4,
            "L": 11.4,
            "A": 12.5,
            "B": 13.4,
            "C": 14.4,
            "D": 14.2,
            "E": 14.6,
            "F": 13.4,
            "G": 12.8,
            "H": 12.3
        },
        "bus4": {
            "K": 5,
            "L": 5.3,
            "A": 5.9,
            "B": 5.7,
            "C": 6.7,
            "D": 7.3,
            "E": 7.5,
            "F": 8,
            "G": 8.2,
            "H": 7,
            "I": 6.555555555555555,
            "J": 6.111111111111111
        }
    },
    "Obs_and_actions_busses": {
        "5": 990.5184649582508,
        "0": -18.2272706056409,
        "1": 237.25073343397148,
        "4": -2199.535411649264
    },
    "Obs_and_actions_tfls": {
        "0": -848.8266068957821,
        "2": 375.8725113943401,
        "1": 801.2236433914453
    }
}