{
    "Average_holding_time": 8.774805867126833,
    "Average_holding_actions": [
        1026,
        50,
        0,
        40,
        0,
        0
    ],
    "Average_travel_time_passengers": 2626.881145188068,
    "Average_passenger_waiting_time": 322.62454495806435,
    "Average_passenger_in_vehicle_time": 2304.256600230015,
    "Average_speed_busses": 0.04829166666666666,
    "Average_experienced_crowding": 79.79003149223071,
    "Average_covariation_headway": 0.34199269396287413,
    "Average_covariation_headway_stops": {
        "L": 0.24834868020290035,
        "G": 0.2593874876921665,
        "J": 0.2291492354110034,
        "D": 0.23369948088560547,
        "C": 0.23539511675557798,
        "F": 0.25294471849164285,
        "H": 0.23960341416370814,
        "A": 0.2367054656474317,
        "E": 0.2393113365453424,
        "K": 0.22353285375964957,
        "I": 0.23152817486624427,
        "B": 0.23956754977501915
    },
    "Average_excess_waiting_time": {
        "L": 50.63456664285604,
        "G": 49.925766723935624,
        "J": 48.332143819351984,
        "D": 47.880351518156886,
        "C": 49.8560212998496,
        "F": 51.58360582819239,
        "H": 49.21472161813966,
        "A": 49.911395688309085,
        "E": 50.65322189374268,
        "K": 48.575464374126625,
        "I": 50.388128941463265,
        "B": 52.26500349301898
    },
    "Holding_per_stop": {
        "L": 7.11340206185567,
        "G": 10.824742268041238,
        "D": 8.350515463917526,
        "F": 7.422680412371134,
        "J": 8.041237113402062,
        "C": 12.061855670103093,
        "H": 12.061855670103093,
        "A": 8.125,
        "E": 5.9375,
        "K": 7.8125,
        "I": 9.375,
        "B": 8.125
    },
    "Actions_tfl_edges": {
        "BC": [
            0,
            59,
            38
        ],
        "CD": [
            0,
            59,
            38
        ],
        "EF": [
            0,
            62,
            35
        ],
        "FG": [
            0,
            58,
            40
        ],
        "IJ": [
            0,
            68,
            29
        ],
        "KL": [
            0,
            60,
            37
        ],
        "LA": [
            0,
            60,
            37
        ],
        "GH": [
            0,
            60,
            37
        ],
        "DE": [
            0,
            59,
            38
        ],
        "JK": [
            0,
            63,
            34
        ],
        "HI": [
            0,
            56,
            41
        ],
        "AB": [
            0,
            57,
            39
        ]
    },
    "Load_per_bus_per_stop": {
        "bus5": {
            "L": 63.05882352941177,
            "A": 63.0625,
            "B": 63.0625,
            "C": 62.5,
            "D": 64.3125,
            "E": 66.125,
            "F": 66.6875,
            "G": 66.5625,
            "H": 67.25,
            "I": 66,
            "J": 65.375,
            "K": 67.25
        },
        "bus3": {
            "G": 69.6470588235294,
            "H": 70.82352941176471,
            "I": 71.3125,
            "J": 71.8125,
            "K": 73.6875,
            "L": 74.75,
            "A": 74.625,
            "B": 74.0625,
            "C": 73.0625,
            "D": 72.875,
            "E": 72.375,
            "F": 72.5
        },
        "bus4": {
            "J": 69.58823529411765,
            "K": 68,
            "L": 67.8125,
            "A": 68.125,
            "B": 68.875,
            "C": 70.1875,
            "D": 70,
            "E": 71.9375,
            "F": 72.625,
            "G": 73.125,
            "H": 72.9375,
            "I": 74.625
        },
        "bus1": {
            "D": 81.41176470588235,
            "E": 83.17647058823529,
            "F": 83.6875,
            "G": 83.5625,
            "H": 84.8125,
            "I": 87.5,
            "J": 87.625,
            "K": 89.625,
            "L": 88.25,
            "A": 86.375,
            "B": 85.375,
            "C": 84.625
        },
        "bus0": {
            "C": 80.58823529411765,
            "D": 82.75,
            "E": 84.5,
            "F": 85.5625,
            "G": 87.3125,
            "H": 88.625,
            "I": 89.5,
            "J": 87.3125,
            "K": 86.8125,
            "L": 84.25,
            "A": 84.5,
            "B": 83.3125
        },
        "bus2": {
            "F": 78.11764705882354,
            "G": 81.5625,
            "H": 81.875,
            "I": 81.6875,
            "J": 80.75,
            "K": 80.3125,
            "L": 81.6875,
            "A": 79.75,
            "B": 80.3125,
            "C": 80.125,
            "D": 81.1875,
            "E": 81.875
        }
    },
    "Obs_and_actions_busses": {
        "0": -176.0901881075064,
        "3": 191.57135253975724,
        "4": 347.44854161902924,
        "1": 150.8660030745755
    },
    "Obs_and_actions_tfls": {
        "1": 247.14912623716154,
        "2": -87.45239342061637
    }
}