{
    "Average_holding_time": 17.073170731707318,
    "Average_holding_actions": [
        754,
        182,
        118,
        53,
        0,
        0
    ],
    "Average_travel_time_passengers": 2738.435472497333,
    "Average_passenger_waiting_time": 327.7828148914915,
    "Average_passenger_in_vehicle_time": 2410.6526576058245,
    "Average_speed_busses": 0.046125,
    "Average_experienced_crowding": 81.68016063041517,
    "Average_covariation_headway": 0.27425254197247356,
    "Average_covariation_headway_stops": {
        "A": 0.2307672551898494,
        "G": 0.2100595827495224,
        "B": 0.21955043083827416,
        "E": 0.20556178951612217,
        "H": 0.21067986793447935,
        "D": 0.20556598699444384,
        "F": 0.18766886364470278,
        "C": 0.20185425007024593,
        "I": 0.19500584645763255,
        "J": 0.18989891097954303,
        "K": 0.18709922937974527,
        "L": 0.21652028419825803
    },
    "Average_excess_waiting_time": {
        "A": 66.1472621328362,
        "G": 59.39891260388276,
        "B": 62.47909205908172,
        "E": 58.14225921302892,
        "H": 57.96947929678572,
        "D": 59.782464237613226,
        "F": 57.508962258301835,
        "C": 62.05710733450047,
        "I": 58.02860403919294,
        "J": 59.58656735305112,
        "K": 60.93425218291253,
        "L": 65.77690768416778
    },
    "Holding_per_stop": {
        "B": 12.065217391304348,
        "H": 19.032258064516128,
        "E": 17.419354838709676,
        "D": 20.543478260869566,
        "G": 20.64516129032258,
        "A": 11.73913043478261,
        "C": 15.652173913043478,
        "F": 16.630434782608695,
        "I": 17.096774193548388,
        "J": 15.326086956521738,
        "K": 17.934782608695652,
        "L": 20.76923076923077
    },
    "Actions_tfl_edges": {
        "AB": [
            0,
            92,
            1
        ],
        "CD": [
            0,
            92,
            1
        ],
        "DE": [
            0,
            92,
            1
        ],
        "FG": [
            0,
            93,
            0
        ],
        "GH": [
            0,
            94,
            0
        ],
        "LA": [
            0,
            91,
            1
        ],
        "BC": [
            0,
            91,
            1
        ],
        "HI": [
            0,
            93,
            0
        ],
        "EF": [
            0,
            93,
            0
        ],
        "IJ": [
            0,
            93,
            0
        ],
        "JK": [
            0,
            92,
            0
        ],
        "KL": [
            0,
            91,
            0
        ]
    },
    "Load_per_bus_per_stop": {
        "bus5": {
            "A": 73.625,
            "B": 72.5625,
            "C": 72.9375,
            "D": 71.73333333333333,
            "E": 72.73333333333333,
            "F": 71,
            "G": 71.8,
            "H": 74.46666666666667,
            "I": 76.46666666666667,
            "J": 78,
            "K": 79.06666666666666,
            "L": 77.73333333333333
        },
        "bus3": {
            "G": 77.9375,
            "H": 79.6875,
            "I": 80.8125,
            "J": 81.4375,
            "K": 80,
            "L": 79.4,
            "A": 79.93333333333334,
            "B": 81.06666666666666,
            "C": 82.26666666666667,
            "D": 81.73333333333333,
            "E": 80.26666666666667,
            "F": 80.8
        },
        "bus0": {
            "B": 74.0625,
            "C": 73.1875,
            "D": 74.625,
            "E": 75.4375,
            "F": 78,
            "G": 79.93333333333334,
            "H": 79.46666666666667,
            "I": 79.66666666666667,
            "J": 79.33333333333333,
            "K": 79.13333333333334,
            "L": 76.06666666666666,
            "A": 77.73333333333333
        },
        "bus2": {
            "E": 81.5,
            "F": 82.3125,
            "G": 83.9375,
            "H": 84.9375,
            "I": 85.1875,
            "J": 85.26666666666667,
            "K": 86.06666666666666,
            "L": 86.53333333333333,
            "A": 87.4,
            "B": 87.93333333333334,
            "C": 88.66666666666667,
            "D": 87.66666666666667
        },
        "bus4": {
            "H": 79.9375,
            "I": 80.25,
            "J": 81,
            "K": 82.375,
            "L": 81.25,
            "A": 79.75,
            "B": 80.46666666666667,
            "C": 82.73333333333333,
            "D": 82.93333333333334,
            "E": 86.66666666666667,
            "F": 86.33333333333333,
            "G": 83.53333333333333
        },
        "bus1": {
            "D": 76.125,
            "E": 75.75,
            "F": 78.6875,
            "G": 80,
            "H": 78.33333333333333,
            "I": 77.86666666666666,
            "J": 78.93333333333334,
            "K": 78.66666666666667,
            "L": 79.66666666666667,
            "A": 79.13333333333334,
            "B": 78.66666666666667,
            "C": 79.93333333333334
        }
    },
    "Obs_and_actions_busses": {
        "0": -210.27180600025883,
        "2": 132.39486979655362,
        "1": 64.81767757908003,
        "4": 293.91252253118
    },
    "Obs_and_actions_tfls": {
        "1": 116.02608984420445,
        "2": 916.6376682784814
    }
}