{
    "Average_holding_time": 25.95783684692942,
    "Average_holding_actions": [
        574,
        390,
        0,
        81,
        46,
        0
    ],
    "Average_travel_time_passengers": 2788.3410839068856,
    "Average_passenger_waiting_time": 333.5530502049845,
    "Average_passenger_in_vehicle_time": 2454.78803370189,
    "Average_speed_busses": 0.04545833333333334,
    "Average_experienced_crowding": 82.70754093940793,
    "Average_covariation_headway": 0.265474980365752,
    "Average_covariation_headway_stops": {
        "F": 0.18058645889211059,
        "B": 0.18611864033558084,
        "J": 0.2165197281171151,
        "K": 0.20354576720844147,
        "G": 0.19389450554882967,
        "E": 0.1837553919687122,
        "H": 0.20290824790438036,
        "L": 0.19524811926082924,
        "C": 0.1741360625880994,
        "I": 0.20615080223172835,
        "A": 0.18477361703807457,
        "D": 0.18118315208908106
    },
    "Average_excess_waiting_time": {
        "F": 60.98529895726915,
        "B": 61.646406301608295,
        "J": 67.29015635495892,
        "K": 63.66757347242054,
        "G": 61.034580569975105,
        "E": 63.30317197702851,
        "H": 64.12406236419974,
        "L": 64.22203244338692,
        "C": 62.19862677860982,
        "I": 66.17220849477019,
        "A": 64.60198481058677,
        "D": 64.94360479728346
    },
    "Holding_per_stop": {
        "F": 21.0989010989011,
        "K": 25.714285714285715,
        "B": 20.10989010989011,
        "G": 30.652173913043477,
        "J": 30.32967032967033,
        "E": 30.98901098901099,
        "H": 25.384615384615383,
        "L": 31.318681318681318,
        "C": 27.36263736263736,
        "I": 30.65934065934066,
        "A": 14.333333333333334,
        "D": 23.333333333333332
    },
    "Actions_tfl_edges": {
        "AB": [
            30,
            45,
            16
        ],
        "DE": [
            27,
            50,
            14
        ],
        "EF": [
            27,
            55,
            10
        ],
        "FG": [
            28,
            51,
            13
        ],
        "IJ": [
            31,
            50,
            11
        ],
        "JK": [
            25,
            54,
            13
        ],
        "KL": [
            28,
            51,
            12
        ],
        "BC": [
            31,
            45,
            15
        ],
        "GH": [
            27,
            51,
            14
        ],
        "HI": [
            28,
            49,
            14
        ],
        "LA": [
            28,
            51,
            12
        ],
        "CD": [
            33,
            45,
            13
        ]
    },
    "Load_per_bus_per_stop": {
        "bus2": {
            "F": 82,
            "G": 82.8125,
            "H": 83.86666666666666,
            "I": 81.6,
            "J": 79.86666666666666,
            "K": 81.46666666666667,
            "L": 82.4,
            "A": 83.73333333333333,
            "B": 83.8,
            "C": 87.8,
            "D": 87,
            "E": 87.86666666666666
        },
        "bus0": {
            "B": 77.6875,
            "C": 78.5625,
            "D": 79.33333333333333,
            "E": 79.6,
            "F": 81.06666666666666,
            "G": 82.26666666666667,
            "H": 85.26666666666667,
            "I": 85.73333333333333,
            "J": 86.8,
            "K": 85.26666666666667,
            "L": 85.46666666666667,
            "A": 84.73333333333333
        },
        "bus4": {
            "J": 71.5,
            "K": 68.73333333333333,
            "L": 66.6,
            "A": 67.06666666666666,
            "B": 67.66666666666667,
            "C": 67.46666666666667,
            "D": 69.33333333333333,
            "E": 73.26666666666667,
            "F": 75.13333333333334,
            "G": 75.13333333333334,
            "H": 74.2,
            "I": 75.33333333333333
        },
        "bus5": {
            "K": 78.125,
            "L": 81.75,
            "A": 84.5625,
            "B": 83.93333333333334,
            "C": 83.53333333333333,
            "D": 82.86666666666666,
            "E": 83,
            "F": 84.06666666666666,
            "G": 83.66666666666667,
            "H": 81.06666666666666,
            "I": 81.06666666666666,
            "J": 82.13333333333334
        },
        "bus3": {
            "G": 79.125,
            "H": 80.0625,
            "I": 83.1875,
            "J": 83.66666666666667,
            "K": 84.06666666666666,
            "L": 84.46666666666667,
            "A": 85.26666666666667,
            "B": 85.66666666666667,
            "C": 85.93333333333334,
            "D": 85.53333333333333,
            "E": 83.8,
            "F": 82.93333333333334
        },
        "bus1": {
            "E": 79.3125,
            "F": 81,
            "G": 84.33333333333333,
            "H": 86.8,
            "I": 85.6,
            "J": 84.93333333333334,
            "K": 83.8,
            "L": 84.73333333333333,
            "A": 85.73333333333333,
            "B": 85,
            "C": 85.53333333333333,
            "D": 84.2
        }
    },
    "Obs_and_actions_busses": {
        "1": 54.62739590558759,
        "0": -266.0681160570311,
        "5": 287.2414895797599,
        "4": 156.62557507216317
    },
    "Obs_and_actions_tfls": {
        "1": -34.74011582104568,
        "0": 313.4836988749473,
        "2": 180.10417469163036
    }
}