{
    "Average_holding_time": 28.040478380864766,
    "Average_holding_actions": [
        549,
        394,
        0,
        98,
        46,
        0
    ],
    "Average_travel_time_passengers": 2780.7367826163318,
    "Average_passenger_waiting_time": 341.0655931849889,
    "Average_passenger_in_vehicle_time": 2439.671189431336,
    "Average_speed_busses": 0.04529166666666667,
    "Average_experienced_crowding": 84.07944358761063,
    "Average_covariation_headway": 0.2877751184623446,
    "Average_covariation_headway_stops": {
        "L": 0.2669755396929515,
        "A": 0.24948325970307855,
        "C": 0.23124370059505814,
        "D": 0.2272820421701875,
        "F": 0.2002982959626555,
        "G": 0.2001921069861,
        "B": 0.2262094668287781,
        "E": 0.2024994420919377,
        "H": 0.20983746670715916,
        "I": 0.20795336107841195,
        "J": 0.21392521881751822,
        "K": 0.25530608591328746
    },
    "Average_excess_waiting_time": {
        "L": 78.2974711148708,
        "A": 73.22061320102074,
        "C": 70.72077012352344,
        "D": 68.79979761757761,
        "F": 64.81554591070852,
        "G": 62.81189688258536,
        "B": 71.93900450697026,
        "E": 66.98018827888149,
        "H": 65.55991409226363,
        "I": 67.50665664046772,
        "J": 70.20009022388012,
        "K": 78.18140445994845
    },
    "Holding_per_stop": {
        "A": 16.153846153846153,
        "C": 27.032967032967033,
        "D": 35.27472527472528,
        "F": 27.032967032967033,
        "L": 32,
        "G": 28.35164835164835,
        "B": 21.666666666666668,
        "E": 30.333333333333332,
        "H": 31.318681318681318,
        "I": 26.373626373626372,
        "J": 26,
        "K": 35
    },
    "Actions_tfl_edges": {
        "BC": [
            38,
            37,
            16
        ],
        "CD": [
            34,
            40,
            18
        ],
        "EF": [
            24,
            43,
            24
        ],
        "FG": [
            28,
            37,
            27
        ],
        "KL": [
            29,
            43,
            19
        ],
        "LA": [
            25,
            45,
            21
        ],
        "AB": [
            31,
            43,
            17
        ],
        "DE": [
            27,
            48,
            16
        ],
        "GH": [
            28,
            37,
            26
        ],
        "HI": [
            28,
            42,
            21
        ],
        "IJ": [
            30,
            43,
            17
        ],
        "JK": [
            34,
            42,
            14
        ]
    },
    "Load_per_bus_per_stop": {
        "bus4": {
            "L": 72.6,
            "A": 74.4,
            "B": 76.53333333333333,
            "C": 76,
            "D": 77.2,
            "E": 77.8,
            "F": 79.53333333333333,
            "G": 79.66666666666667,
            "H": 78,
            "I": 79.33333333333333,
            "J": 78.06666666666666,
            "K": 79
        },
        "bus5": {
            "A": 72.875,
            "B": 70.26666666666667,
            "C": 71,
            "D": 71.6,
            "E": 73.53333333333333,
            "F": 74.33333333333333,
            "G": 75.6,
            "H": 76.93333333333334,
            "I": 75.53333333333333,
            "J": 77.93333333333334,
            "K": 77,
            "L": 77.2
        },
        "bus0": {
            "C": 80.625,
            "D": 79.6,
            "E": 81.86666666666666,
            "F": 85.26666666666667,
            "G": 84.86666666666666,
            "H": 85.53333333333333,
            "I": 85.8,
            "J": 84.66666666666667,
            "K": 85.6,
            "L": 84.73333333333333,
            "A": 85.26666666666667,
            "B": 85.13333333333334
        },
        "bus1": {
            "D": 80.5625,
            "E": 82.6875,
            "F": 83.2,
            "G": 84.93333333333334,
            "H": 85.53333333333333,
            "I": 86.93333333333334,
            "J": 88,
            "K": 89.53333333333333,
            "L": 91.4,
            "A": 91.8,
            "B": 91.06666666666666,
            "C": 88.2
        },
        "bus2": {
            "F": 81.3125,
            "G": 82.1875,
            "H": 83.26666666666667,
            "I": 82.53333333333333,
            "J": 82,
            "K": 83.33333333333333,
            "L": 84.4,
            "A": 82.4,
            "B": 83.4,
            "C": 83.06666666666666,
            "D": 82.86666666666666,
            "E": 85.53333333333333
        },
        "bus3": {
            "G": 80.4375,
            "H": 81.9375,
            "I": 82.0625,
            "J": 83.4,
            "K": 82.86666666666666,
            "L": 83.93333333333334,
            "A": 84.6,
            "B": 86.33333333333333,
            "C": 86.26666666666667,
            "D": 86.06666666666666,
            "E": 86.66666666666667,
            "F": 85.73333333333333
        }
    },
    "Obs_and_actions_busses": {
        "5": 333.7064969838295,
        "4": 161.48717841788783,
        "0": -267.2882732983675,
        "1": 50.29319207025271
    },
    "Obs_and_actions_tfls": {
        "0": 318.6988973628586,
        "2": 171.50672567648968,
        "1": -57.68535785348279
    }
}    "Obs_and_actions_tfls": {
        "0": 318.1547511668678,
        "1": -54.86741357618193,
        "2": 169.69653891901658
    }
}