{
    "Average_holding_time": 67.7431906614786,
    "Average_holding_actions": [
        380,
        28,
        0,
        102,
        261,
        0
    ],
    "Average_travel_time_passengers": 4519.771261165123,
    "Average_passenger_waiting_time": 988.8117633879667,
    "Average_passenger_in_vehicle_time": 3530.9594977773877,
    "Average_speed_busses": 0.032125,
    "Average_experienced_crowding": 241.02866715044746,
    "Average_covariation_headway": 1.1958909663996768,
    "Average_covariation_headway_stops": {
        "K": 1.1218648531722133,
        "G": 1.110111689636625,
        "H": 1.115731269623328,
        "L": 1.1295648641353402,
        "C": 1.160880554349536,
        "I": 1.1254193021731154,
        "J": 1.1106743803749375,
        "A": 1.1471607142558229,
        "D": 1.1625553610444472,
        "B": 1.1432837536246687,
        "E": 1.1568904799706756,
        "F": 1.108375038182917
    },
    "Average_excess_waiting_time": {
        "K": 746.4968229872458,
        "G": 741.184094209137,
        "H": 741.6772000343194,
        "L": 748.0673579225258,
        "C": 761.4925427649187,
        "I": 745.448384579878,
        "J": 739.7124601598761,
        "A": 743.5004724690655,
        "D": 772.447353795673,
        "B": 749.1977051088074,
        "E": 776.1148018031927,
        "F": 745.3290347629264
    },
    "Holding_per_stop": {
        "H": 70.95238095238095,
        "L": 71.07692307692308,
        "C": 55.45454545454545,
        "I": 73.59375,
        "K": 69.23076923076923,
        "G": 72.09677419354838,
        "J": 69.84375,
        "A": 61.84615384615385,
        "D": 71.81818181818181,
        "B": 57.23076923076923,
        "E": 66,
        "F": 74.75409836065573
    },
    "Actions_tfl_edges": {
        "BC": [
            12,
            34,
            20
        ],
        "FG": [
            10,
            38,
            14
        ],
        "GH": [
            13,
            34,
            16
        ],
        "HI": [
            11,
            34,
            19
        ],
        "JK": [
            10,
            34,
            21
        ],
        "KL": [
            11,
            34,
            21
        ],
        "LA": [
            9,
            39,
            17
        ],
        "CD": [
            11,
            35,
            20
        ],
        "IJ": [
            10,
            37,
            17
        ],
        "AB": [
            13,
            33,
            19
        ],
        "DE": [
            11,
            41,
            14
        ],
        "EF": [
            13,
            37,
            15
        ]
    },
    "Load_per_bus_per_stop": {
        "bus4": {
            "K": 32.90909090909091,
            "L": 32.45454545454545,
            "A": 32.18181818181818,
            "B": 35.09090909090909,
            "C": 36.36363636363637,
            "D": 37.36363636363637,
            "E": 36.45454545454545,
            "F": 35.5,
            "G": 34.8,
            "H": 35.1,
            "I": 35.3,
            "J": 35.7
        },
        "bus1": {
            "G": 82.36363636363636,
            "H": 82.54545454545455,
            "I": 82.54545454545455,
            "J": 84.18181818181819,
            "K": 85.81818181818181,
            "L": 85,
            "A": 84.36363636363636,
            "B": 83.81818181818181,
            "C": 84.63636363636364,
            "D": 83.9090909090909,
            "E": 84.0909090909091,
            "F": 90.9
        },
        "bus2": {
            "H": 26.545454545454547,
            "I": 26.272727272727273,
            "J": 27.454545454545453,
            "K": 27.272727272727273,
            "L": 28.727272727272727,
            "A": 27.181818181818183,
            "B": 27.181818181818183,
            "C": 25.09090909090909,
            "D": 25,
            "E": 26.09090909090909,
            "F": 29,
            "G": 28.6
        },
        "bus5": {
            "L": 265.1818181818182,
            "A": 266.72727272727275,
            "B": 270.1818181818182,
            "C": 274.90909090909093,
            "D": 279.54545454545456,
            "E": 285.6363636363636,
            "F": 272.6,
            "G": 275.9,
            "H": 276,
            "I": 275.4,
            "J": 281.2,
            "K": 283.1
        },
        "bus0": {
            "C": 208.45454545454547,
            "D": 208.72727272727272,
            "E": 215.72727272727272,
            "F": 216.8181818181818,
            "G": 219.0909090909091,
            "H": 225,
            "I": 226.27272727272728,
            "J": 227,
            "K": 229.9090909090909,
            "L": 230.8181818181818,
            "A": 221.1,
            "B": 228.7
        },
        "bus3": {
            "I": 15.636363636363637,
            "J": 17.636363636363637,
            "K": 18,
            "L": 16.727272727272727,
            "A": 17.272727272727273,
            "B": 17.636363636363637,
            "C": 17.545454545454547,
            "D": 17.727272727272727,
            "E": 17.272727272727273,
            "F": 18.7,
            "G": 16.6,
            "H": 17.4
        }
    },
    "Obs_and_actions_busses": {
        "5": 821.3472303251999,
        "0": -65.6368717411203,
        "1": 242.33187709826652,
        "4": -2007.035186283095
    },
    "Obs_and_actions_tfls": {
        "1": 342.93494715891677,
        "2": 371.8833812939443,
        "0": -1403.8909807666432
    }
}