{
    "Average_holding_time": [
        53.35255252139461,
        [
            53.63095238095238,
            53.68577075098814,
            50.98825831702544,
            55.288270377733596,
            52.648809523809526,
            54.298507462686565,
            55.05461767626614,
            49.02152641878669,
            54.58045409674235,
            54.32835820895522
        ]
    ],
    "Average_holding_actions": [
        [
            559,
            66,
            58,
            49,
            52,
            164
        ],
        [
            575,
            58,
            64,
            42,
            40,
            186
        ],
        [
            589,
            67,
            62,
            50,
            43,
            166
        ],
        [
            560,
            70,
            54,
            49,
            35,
            197
        ],
        [
            570,
            58,
            63,
            58,
            39,
            166
        ],
        [
            567,
            59,
            53,
            62,
            49,
            172
        ],
        [
            583,
            46,
            49,
            43,
            46,
            194
        ],
        [
            602,
            63,
            60,
            38,
            45,
            156
        ],
        [
            577,
            43,
            64,
            55,
            51,
            176
        ],
        [
            559,
            65,
            63,
            45,
            39,
            184
        ]
    ],
    "Average_travel_time_passengers": [
        2285.309767227551,
        [
            2278.6942848472127,
            2292.639959770916,
            2255.2061756060416,
            2300.4763035561136,
            2282.0848847179536,
            2317.6806950141026,
            2291.2645420773924,
            2241.5519966967,
            2297.6203387842274,
            2295.8784912048504
        ]
    ],
    "Average_passenger_waiting_time": [
        366.2555329690108,
        [
            365.9759828401639,
            369.39528852614734,
            364.2203543130835,
            366.8219769888931,
            366.1988974621639,
            370.1936282062712,
            366.9738586554009,
            360.87670092376334,
            362.73569295060787,
            369.162948823613
        ]
    ],
    "Average_passenger_in_vehicle_time": [
        1919.054234258549,
        [
            1912.71830200704,
            1923.2446712447718,
            1890.9858212929907,
            1933.6543265672353,
            1915.8859872558098,
            1947.4870668078304,
            1924.2906834219666,
            1880.6752957729184,
            1934.8846458336604,
            1926.7155423812678
        ]
    ],
    "Average_speed_busses": [
        0.04211666666666667,
        [
            0.042,
            0.042166666666666665,
            0.042583333333333334,
            0.041916666666666665,
            0.042,
            0.041875,
            0.041958333333333334,
            0.042583333333333334,
            0.042208333333333334,
            0.041875
        ]
    ],
    "Average_experienced_crowding": [
        64.66979832260971,
        [
            64.42112748897162,
            64.721945853691,
            64.17082810602726,
            65.47886800523862,
            64.05867853791214,
            65.58672470522203,
            65.19795196835484,
            63.549645874931976,
            64.64319451483256,
            64.86901817091507
        ]
    ],
    "Average_covariation_headway": [
        0.31029878250096693,
        [
            0.30980210768893424,
            0.3150545854571426,
            0.3199309042903536,
            0.3090269501824772,
            0.3089381864551827,
            0.3032736432050159,
            0.32064751874466885,
            0.2976486026831333,
            0.30489827964063615,
            0.3137670466621248
        ]
    ],
    "Average_covariation_headway_stops": [
        {
            "G": 0.24271481787667679,
            "J": 0.2529624250761016,
            "F": 0.24052099332733362,
            "H": 0.21977489726077068,
            "A": 0.22388049657217482,
            "B": 0.24264716712784126,
            "I": 0.23122020106469565,
            "C": 0.20991194544436576,
            "K": 0.23584200382491097,
            "D": 0.2166195472033982,
            "L": 0.21878052520834862,
            "E": 0.21334527875384984
        },
        {
            "G": 0.26221931469936116,
            "B": 0.2380249792481622,
            "J": 0.22925063474599544,
            "L": 0.22285700090301067,
            "F": 0.22495107861130517,
            "I": 0.22003544528894864,
            "K": 0.21436885464742503,
            "H": 0.25782815931497916,
            "A": 0.2031320783858516,
            "C": 0.2269556702593319,
            "D": 0.23192058691643128,
            "E": 0.2473582223180766
        },
        {
            "D": 0.22742215996519669,
            "A": 0.23310669523508196,
            "I": 0.24167480168435596,
            "K": 0.2277323569555356,
            "J": 0.24244951777651985,
            "L": 0.21109575336334865,
            "E": 0.22466418290691859,
            "B": 0.20877060277283827,
            "C": 0.20580735653103385,
            "F": 0.20139015555298365,
            "G": 0.21095855230651636,
            "H": 0.22577516400996653
        },
        {
            "H": 0.24553826344448998,
            "L": 0.24474134326703206,
            "K": 0.24381503969912632,
            "F": 0.2005378378811879,
            "I": 0.2132977150657375,
            "D": 0.2339156216966679,
            "G": 0.21516957907198814,
            "J": 0.21180150768350223,
            "A": 0.24449464488590694,
            "E": 0.1996250669868894,
            "B": 0.23831015155125188,
            "C": 0.22963717826681154
        },
        {
            "A": 0.24420581318429324,
            "G": 0.2545790436140871,
            "D": 0.209480587340072,
            "E": 0.24874897119039707,
            "I": 0.2381079231641413,
            "K": 0.21066403319606708,
            "B": 0.22932019550001673,
            "F": 0.22739211524360933,
            "H": 0.255661836284774,
            "L": 0.20432655566157362,
            "J": 0.19669796514588095,
            "C": 0.2088380297597615
        },
        {
            "H": 0.23045873165269445,
            "C": 0.24689146825769298,
            "D": 0.224085283957515,
            "I": 0.24171206616889354,
            "K": 0.2043339327453561,
            "B": 0.23105868097704957,
            "L": 0.19413931389220362,
            "J": 0.2290364115363528,
            "E": 0.19557968207055845,
            "A": 0.18435316676935934,
            "F": 0.24293063723328076,
            "G": 0.261419689140298
        },
        {
            "E": 0.24638752050396387,
            "J": 0.2414758325597904,
            "D": 0.25672156959844383,
            "L": 0.2645983608979345,
            "K": 0.23962424024454412,
            "A": 0.25995632885124,
            "F": 0.19067022357636917,
            "B": 0.2181568975913194,
            "G": 0.18703578064857224,
            "C": 0.19075975106013274,
            "H": 0.2246952086942778,
            "I": 0.26015905761563207
        },
        {
            "D": 0.2397501232197233,
            "H": 0.2649745988126175,
            "K": 0.20729970527794375,
            "F": 0.20586007620795868,
            "G": 0.24723126176073204,
            "A": 0.19708141128217885,
            "I": 0.22060599067627604,
            "L": 0.19130425750750701,
            "B": 0.19215221963345308,
            "E": 0.19161398865982254,
            "J": 0.20779745290776086,
            "C": 0.20403650176095783
        },
        {
            "K": 0.2266741532540091,
            "F": 0.20877747003646385,
            "I": 0.2240496885261712,
            "L": 0.22102619657934602,
            "B": 0.19659538257708592,
            "D": 0.2370824640482537,
            "G": 0.21078449914027644,
            "A": 0.17597937722203924,
            "C": 0.23236954199195145,
            "E": 0.21958044374420105,
            "J": 0.1989587843632351,
            "H": 0.22377037314430917
        },
        {
            "I": 0.26541718570348777,
            "C": 0.22506741881616305,
            "D": 0.23648766256646697,
            "K": 0.26424249597448135,
            "F": 0.23159738921345396,
            "A": 0.19774637135309622,
            "G": 0.20471894361590856,
            "E": 0.22669948137301482,
            "J": 0.2539099925865609,
            "B": 0.2028910588623502,
            "L": 0.17809830711554586,
            "H": 0.202386387736597
        }
    ],
    "Average_excess_waiting_time": [
        {
            "G": 99.27534487374464,
            "J": 96.94778284961109,
            "F": 101.18881035631159,
            "H": 92.61858372014092,
            "A": 95.53518897218873,
            "B": 97.43691290865428,
            "I": 96.08352981656907,
            "C": 93.7252835323253,
            "K": 98.3020348761737,
            "D": 96.23776799582384,
            "L": 97.11781585262338,
            "E": 99.35131598874926
        },
        {
            "G": 100.55724202545957,
            "B": 94.13347978504635,
            "J": 92.78388985033581,
            "L": 91.48946237246292,
            "F": 97.4856398876255,
            "I": 92.93066942019453,
            "K": 92.24367247143942,
            "H": 102.07197997400971,
            "A": 91.22857895942855,
            "C": 94.32428486027038,
            "D": 98.28881767266353,
            "E": 102.58149171103457
        },
        {
            "D": 88.97038770709537,
            "A": 87.67436404259178,
            "I": 96.79750653247709,
            "K": 90.96884240759175,
            "J": 96.12408253400787,
            "L": 86.82438138628572,
            "E": 89.84558926387035,
            "B": 85.70501961843712,
            "C": 86.97236906852277,
            "F": 88.56680986578567,
            "G": 92.19046716462515,
            "H": 96.40308504843705
        },
        {
            "H": 100.915039066428,
            "L": 96.19209535553824,
            "K": 98.6421020479354,
            "F": 94.93099099331766,
            "I": 94.37718694639835,
            "D": 99.01197987080855,
            "G": 98.69642869202909,
            "J": 95.97912415492345,
            "A": 97.73119981306326,
            "E": 97.74449123540643,
            "B": 100.5323220430111,
            "C": 100.76858986828228
        },
        {
            "A": 99.1311431340676,
            "G": 98.82265872685088,
            "D": 95.92493577579012,
            "E": 97.98628192340345,
            "I": 95.18377863579656,
            "K": 92.32065259164489,
            "B": 98.58115866153531,
            "F": 97.12065651841817,
            "H": 100.69219151365354,
            "L": 93.68694284280929,
            "J": 92.5896203551307,
            "C": 97.9325982117345
        },
        {
            "H": 99.21524983333893,
            "C": 99.22306366371043,
            "D": 93.83416805338118,
            "I": 98.7396060990227,
            "K": 92.73727726069598,
            "B": 99.24140712428357,
            "L": 94.00510748758893,
            "J": 98.96058662093463,
            "E": 91.93713979835229,
            "A": 94.27447947028219,
            "F": 101.35069108777583,
            "G": 107.68928433620528
        },
        {
            "E": 96.24767218252282,
            "J": 103.70273687394138,
            "D": 100.41189050131374,
            "L": 102.45554905820603,
            "K": 100.79962512309919,
            "A": 99.54711488789155,
            "F": 89.97133716929449,
            "B": 95.26486696465327,
            "G": 92.13819420129965,
            "C": 93.27530853846434,
            "H": 99.98537233009745,
            "I": 107.80438287034809
        },
        {
            "D": 92.660797728087,
            "H": 94.5878333051931,
            "K": 86.6458562924089,
            "F": 88.64086985599192,
            "G": 92.60411555234947,
            "A": 86.0221477469841,
            "I": 88.89009042021138,
            "L": 87.64554561870591,
            "B": 87.34693217383222,
            "E": 88.46721902317637,
            "J": 89.2013789695684,
            "C": 90.63094851625681
        },
        {
            "K": 94.22928105173997,
            "F": 91.21029729140031,
            "I": 94.95199114339334,
            "L": 93.27423982676123,
            "B": 88.38512253101317,
            "D": 94.91871249101052,
            "G": 92.2594205664044,
            "A": 88.13918522810519,
            "C": 95.33119966103811,
            "E": 94.50827140899804,
            "J": 92.73565127565945,
            "H": 96.91431235376615
        },
        {
            "I": 103.97816419765815,
            "C": 97.09060931060878,
            "D": 96.68366776430355,
            "K": 102.48637352061002,
            "F": 95.56452289919287,
            "A": 92.55808462338484,
            "G": 93.53923457208214,
            "E": 96.86511507921017,
            "J": 102.43518530190119,
            "B": 94.91945537860045,
            "L": 91.85746429380606,
            "H": 95.97629385902906
        }
    ],
    "Actions_tfl_edges": [
        {
            "AB": [
                85,
                0,
                0
            ],
            "EF": [
                84,
                0,
                0
            ],
            "FG": [
                84,
                0,
                0
            ],
            "GH": [
                85,
                0,
                0
            ],
            "IJ": [
                85,
                0,
                0
            ],
            "LA": [
                85,
                0,
                0
            ],
            "JK": [
                85,
                0,
                0
            ],
            "HI": [
                84,
                0,
                0
            ],
            "BC": [
                84,
                0,
                0
            ],
            "CD": [
                84,
                0,
                0
            ],
            "KL": [
                84,
                0,
                0
            ],
            "DE": [
                84,
                0,
                0
            ]
        },
        {
            "AB": [
                85,
                0,
                0
            ],
            "EF": [
                84,
                0,
                0
            ],
            "FG": [
                85,
                0,
                0
            ],
            "HI": [
                85,
                0,
                0
            ],
            "IJ": [
                85,
                0,
                0
            ],
            "KL": [
                86,
                0,
                0
            ],
            "GH": [
                84,
                0,
                0
            ],
            "JK": [
                85,
                0,
                0
            ],
            "BC": [
                85,
                0,
                0
            ],
            "LA": [
                85,
                0,
                0
            ],
            "CD": [
                85,
                0,
                0
            ],
            "DE": [
                84,
                0,
                0
            ]
        },
        {
            "CD": [
                86,
                0,
                0
            ],
            "HI": [
                85,
                0,
                0
            ],
            "IJ": [
                86,
                0,
                0
            ],
            "JK": [
                86,
                0,
                0
            ],
            "KL": [
                86,
                0,
                0
            ],
            "LA": [
                87,
                0,
                0
            ],
            "DE": [
                86,
                0,
                0
            ],
            "AB": [
                86,
                0,
                0
            ],
            "EF": [
                85,
                0,
                0
            ],
            "BC": [
                86,
                0,
                0
            ],
            "FG": [
                85,
                0,
                0
            ],
            "GH": [
                84,
                0,
                0
            ]
        },
        {
            "CD": [
                84,
                0,
                0
            ],
            "EF": [
                84,
                0,
                0
            ],
            "GH": [
                84,
                0,
                0
            ],
            "HI": [
                84,
                0,
                0
            ],
            "JK": [
                85,
                0,
                0
            ],
            "KL": [
                85,
                0,
                0
            ],
            "LA": [
                85,
                0,
                0
            ],
            "FG": [
                84,
                0,
                0
            ],
            "IJ": [
                84,
                0,
                0
            ],
            "DE": [
                84,
                0,
                0
            ],
            "AB": [
                84,
                0,
                0
            ],
            "BC": [
                84,
                0,
                0
            ]
        },
        {
            "CD": [
                84,
                0,
                0
            ],
            "DE": [
                85,
                0,
                0
            ],
            "FG": [
                85,
                0,
                0
            ],
            "HI": [
                85,
                0,
                0
            ],
            "JK": [
                85,
                0,
                0
            ],
            "LA": [
                85,
                0,
                0
            ],
            "AB": [
                84,
                0,
                0
            ],
            "EF": [
                84,
                0,
                0
            ],
            "IJ": [
                85,
                0,
                0
            ],
            "GH": [
                84,
                0,
                0
            ],
            "KL": [
                84,
                0,
                0
            ],
            "BC": [
                84,
                0,
                0
            ]
        },
        {
            "AB": [
                84,
                0,
                0
            ],
            "BC": [
                84,
                0,
                0
            ],
            "CD": [
                85,
                0,
                0
            ],
            "GH": [
                84,
                0,
                0
            ],
            "HI": [
                84,
                0,
                0
            ],
            "JK": [
                85,
                0,
                0
            ],
            "DE": [
                84,
                0,
                0
            ],
            "IJ": [
                84,
                0,
                0
            ],
            "KL": [
                84,
                0,
                0
            ],
            "LA": [
                84,
                0,
                0
            ],
            "EF": [
                84,
                0,
                0
            ],
            "FG": [
                83,
                0,
                0
            ]
        },
        {
            "CD": [
                85,
                0,
                0
            ],
            "DE": [
                85,
                0,
                0
            ],
            "IJ": [
                84,
                0,
                0
            ],
            "JK": [
                84,
                0,
                0
            ],
            "KL": [
                85,
                0,
                0
            ],
            "LA": [
                85,
                0,
                0
            ],
            "EF": [
                85,
                0,
                0
            ],
            "AB": [
                84,
                0,
                0
            ],
            "FG": [
                84,
                0,
                0
            ],
            "BC": [
                84,
                0,
                0
            ],
            "GH": [
                84,
                0,
                0
            ],
            "HI": [
                83,
                0,
                0
            ]
        },
        {
            "CD": [
                86,
                0,
                0
            ],
            "EF": [
                85,
                0,
                0
            ],
            "FG": [
                86,
                0,
                0
            ],
            "GH": [
                87,
                0,
                0
            ],
            "JK": [
                86,
                0,
                0
            ],
            "LA": [
                86,
                0,
                0
            ],
            "HI": [
                86,
                0,
                0
            ],
            "AB": [
                85,
                0,
                0
            ],
            "KL": [
                85,
                0,
                0
            ],
            "DE": [
                85,
                0,
                0
            ],
            "IJ": [
                86,
                0,
                0
            ],
            "BC": [
                85,
                0,
                0
            ]
        },
        {
            "AB": [
                85,
                0,
                0
            ],
            "CD": [
                85,
                0,
                0
            ],
            "EF": [
                85,
                0,
                0
            ],
            "HI": [
                85,
                0,
                0
            ],
            "JK": [
                85,
                0,
                0
            ],
            "KL": [
                86,
                0,
                0
            ],
            "FG": [
                85,
                0,
                0
            ],
            "LA": [
                85,
                0,
                0
            ],
            "BC": [
                85,
                0,
                0
            ],
            "DE": [
                85,
                0,
                0
            ],
            "IJ": [
                84,
                0,
                0
            ],
            "GH": [
                84,
                0,
                0
            ]
        },
        {
            "BC": [
                85,
                0,
                0
            ],
            "CD": [
                85,
                0,
                0
            ],
            "EF": [
                85,
                0,
                0
            ],
            "HI": [
                84,
                0,
                0
            ],
            "JK": [
                84,
                0,
                0
            ],
            "LA": [
                84,
                0,
                0
            ],
            "DE": [
                84,
                0,
                0
            ],
            "FG": [
                84,
                0,
                0
            ],
            "KL": [
                84,
                0,
                0
            ],
            "IJ": [
                84,
                0,
                0
            ],
            "AB": [
                84,
                0,
                0
            ],
            "GH": [
                84,
                0,
                0
            ]
        }
    ],
    "Holding_per_stop": [
        {
            "J": 61.411764705882355,
            "H": 47.857142857142854,
            "G": 55.714285714285715,
            "B": 57.857142857142854,
            "F": 44.642857142857146,
            "A": 49.642857142857146,
            "I": 51.785714285714285,
            "C": 61.42857142857143,
            "K": 58.57142857142857,
            "D": 58.57142857142857,
            "L": 48.92857142857143,
            "E": 46.98795180722892
        },
        {
            "G": 53.92857142857143,
            "J": 55.76470588235294,
            "B": 53.64705882352941,
            "L": 49.76470588235294,
            "I": 52.5,
            "F": 49.642857142857146,
            "K": 53.294117647058826,
            "H": 52.857142857142854,
            "A": 53.57142857142857,
            "C": 52.94117647058823,
            "D": 53.92857142857143,
            "E": 62.53012048192771
        },
        {
            "D": 53.372093023255815,
            "A": 45.69767441860465,
            "J": 48,
            "K": 49.05882352941177,
            "L": 49.18604651162791,
            "I": 51.1764705882353,
            "E": 55.411764705882355,
            "B": 49.883720930232556,
            "C": 51.88235294117647,
            "F": 53.294117647058826,
            "G": 54.285714285714285,
            "H": 50.714285714285715
        },
        {
            "L": 57.529411764705884,
            "F": 48.57142857142857,
            "I": 58.92857142857143,
            "H": 62.142857142857146,
            "K": 54.642857142857146,
            "D": 56.42857142857143,
            "J": 56.42857142857143,
            "A": 60.357142857142854,
            "G": 47.71084337349398,
            "B": 53.57142857142857,
            "E": 50.963855421686745,
            "C": 56.024096385542165
        },
        {
            "A": 45.714285714285715,
            "E": 51.07142857142857,
            "I": 56.11764705882353,
            "G": 54.642857142857146,
            "K": 51.07142857142857,
            "D": 53.214285714285715,
            "B": 47.5,
            "F": 55,
            "H": 57.857142857142854,
            "L": 51.785714285714285,
            "J": 51.42857142857143,
            "C": 56.3855421686747
        },
        {
            "D": 61.42857142857143,
            "I": 53.92857142857143,
            "C": 50.357142857142854,
            "K": 52.857142857142854,
            "H": 56.74698795180723,
            "B": 50.357142857142854,
            "L": 52.5,
            "J": 52.857142857142854,
            "E": 55.714285714285715,
            "A": 53.13253012048193,
            "F": 58.57142857142857,
            "G": 53.13253012048193
        },
        {
            "E": 57.529411764705884,
            "K": 56.42857142857143,
            "L": 55.357142857142854,
            "A": 50.11764705882353,
            "D": 53.214285714285715,
            "J": 51.325301204819276,
            "F": 52.5,
            "B": 55,
            "G": 59.642857142857146,
            "C": 56.42857142857143,
            "H": 54.93975903614458,
            "I": 58.19277108433735
        },
        {
            "H": 48.13953488372093,
            "A": 48,
            "G": 51.27906976744186,
            "K": 45.88235294117647,
            "D": 48.705882352941174,
            "F": 50.470588235294116,
            "I": 54.76744186046512,
            "B": 43.76470588235294,
            "L": 39.529411764705884,
            "J": 58.94117647058823,
            "E": 52.5,
            "C": 46.23529411764706
        },
        {
            "F": 57.1764705882353,
            "L": 56.11764705882353,
            "B": 55.411764705882355,
            "D": 54.35294117647059,
            "K": 55.411764705882355,
            "I": 55.357142857142854,
            "G": 52.5,
            "A": 49.285714285714285,
            "C": 50,
            "E": 56.07142857142857,
            "J": 59.642857142857146,
            "H": 53.57142857142857
        },
        {
            "D": 52.5,
            "F": 57.142857142857146,
            "K": 60,
            "I": 58.57142857142857,
            "A": 55,
            "C": 44.285714285714285,
            "E": 49.285714285714285,
            "G": 52.142857142857146,
            "B": 55.714285714285715,
            "L": 57.10843373493976,
            "J": 56.024096385542165,
            "H": 54.21686746987952
        }
    ],
    "Load_per_bus_per_stop": [
        {
            "bus2": {
                "G": 55.57142857142857,
                "H": 55.92857142857143,
                "I": 56.642857142857146,
                "J": 59.57142857142857,
                "K": 59.214285714285715,
                "L": 60.785714285714285,
                "A": 60.5,
                "B": 60.57142857142857,
                "C": 61.42857142857143,
                "D": 62.285714285714285,
                "E": 62.642857142857146,
                "F": 62.214285714285715
            },
            "bus4": {
                "J": 59.53333333333333,
                "K": 62.142857142857146,
                "L": 64.64285714285714,
                "A": 66.21428571428571,
                "B": 65.21428571428571,
                "C": 64.85714285714286,
                "D": 64.42857142857143,
                "E": 65,
                "F": 65.57142857142857,
                "G": 65.92857142857143,
                "H": 64.57142857142857,
                "I": 64.85714285714286
            },
            "bus1": {
                "F": 63.357142857142854,
                "G": 64.64285714285714,
                "H": 61.642857142857146,
                "I": 61.07142857142857,
                "J": 59.142857142857146,
                "K": 58.92857142857143,
                "L": 60,
                "A": 62.285714285714285,
                "B": 62.214285714285715,
                "C": 62.357142857142854,
                "D": 66.21428571428571,
                "E": 67.6923076923077
            },
            "bus3": {
                "H": 59.785714285714285,
                "I": 62,
                "J": 60.642857142857146,
                "K": 60.142857142857146,
                "L": 62.857142857142854,
                "A": 65.85714285714286,
                "B": 68.14285714285714,
                "C": 68.42857142857143,
                "D": 68.57142857142857,
                "E": 66.71428571428571,
                "F": 66,
                "G": 67.07142857142857
            },
            "bus5": {
                "A": 60.142857142857146,
                "B": 61.285714285714285,
                "C": 62.857142857142854,
                "D": 62.714285714285715,
                "E": 64.42857142857143,
                "F": 63.642857142857146,
                "G": 65,
                "H": 65.07142857142857,
                "I": 64.92857142857143,
                "J": 66.14285714285714,
                "K": 65.07142857142857,
                "L": 64.28571428571429
            },
            "bus0": {
                "B": 63.86666666666667,
                "C": 65.07142857142857,
                "D": 64.57142857142857,
                "E": 64.21428571428571,
                "F": 62.42857142857143,
                "G": 62.07142857142857,
                "H": 63.214285714285715,
                "I": 64.78571428571429,
                "J": 66.28571428571429,
                "K": 67.28571428571429,
                "L": 69.21428571428571,
                "A": 68
            }
        },
        {
            "bus2": {
                "G": 61.214285714285715,
                "H": 64.85714285714286,
                "I": 64.71428571428571,
                "J": 65.07142857142857,
                "K": 66.21428571428571,
                "L": 65.71428571428571,
                "A": 63.07142857142857,
                "B": 63.5,
                "C": 64.5,
                "D": 64.5,
                "E": 63.857142857142854,
                "F": 64.14285714285714
            },
            "bus0": {
                "B": 63.86666666666667,
                "C": 63.86666666666667,
                "D": 65.85714285714286,
                "E": 67.42857142857143,
                "F": 68.92857142857143,
                "G": 66.71428571428571,
                "H": 65.92857142857143,
                "I": 67,
                "J": 66.28571428571429,
                "K": 66.28571428571429,
                "L": 66.21428571428571,
                "A": 65.71428571428571
            },
            "bus4": {
                "J": 63.46666666666667,
                "K": 63.8,
                "L": 63.357142857142854,
                "A": 62.92857142857143,
                "B": 64.57142857142857,
                "C": 66.21428571428571,
                "D": 63,
                "E": 61.07142857142857,
                "F": 61.357142857142854,
                "G": 60.57142857142857,
                "H": 63,
                "I": 65.78571428571429
            },
            "bus5": {
                "L": 61,
                "A": 62.214285714285715,
                "B": 63.42857142857143,
                "C": 63,
                "D": 63.857142857142854,
                "E": 65,
                "F": 66.64285714285714,
                "G": 67.5,
                "H": 67.92857142857143,
                "I": 66.35714285714286,
                "J": 63.714285714285715,
                "K": 62.5
            },
            "bus1": {
                "F": 60.214285714285715,
                "G": 62.285714285714285,
                "H": 63.42857142857143,
                "I": 64.07142857142857,
                "J": 63.42857142857143,
                "K": 62.785714285714285,
                "L": 63.857142857142854,
                "A": 64.57142857142857,
                "B": 65.85714285714286,
                "C": 66.5,
                "D": 66.64285714285714,
                "E": 65
            },
            "bus3": {
                "I": 58.46666666666667,
                "J": 56.92857142857143,
                "K": 58.285714285714285,
                "L": 60,
                "A": 61.785714285714285,
                "B": 61.57142857142857,
                "C": 60.214285714285715,
                "D": 61.07142857142857,
                "E": 61.785714285714285,
                "F": 62.785714285714285,
                "G": 63,
                "H": 63.07142857142857
            }
        },
        {
            "bus0": {
                "D": 61.53333333333333,
                "E": 61.666666666666664,
                "F": 60.06666666666667,
                "G": 60.357142857142854,
                "H": 64.28571428571429,
                "I": 66.28571428571429,
                "J": 67.71428571428571,
                "K": 67.85714285714286,
                "L": 65.5,
                "A": 63.285714285714285,
                "B": 63.857142857142854,
                "C": 65.07142857142857
            },
            "bus5": {
                "A": 61.46666666666667,
                "B": 62.93333333333333,
                "C": 60.86666666666667,
                "D": 59.266666666666666,
                "E": 60.857142857142854,
                "F": 62.42857142857143,
                "G": 62.214285714285715,
                "H": 62,
                "I": 63.357142857142854,
                "J": 63,
                "K": 65.64285714285714,
                "L": 66.42857142857143
            },
            "bus1": {
                "I": 63.53333333333333,
                "J": 61.714285714285715,
                "K": 61,
                "L": 60.357142857142854,
                "A": 61.357142857142854,
                "B": 61.642857142857146,
                "C": 61.07142857142857,
                "D": 62.07142857142857,
                "E": 62.857142857142854,
                "F": 62.5,
                "G": 66.42857142857143,
                "H": 67
            },
            "bus3": {
                "K": 60.666666666666664,
                "L": 60.6,
                "A": 59.57142857142857,
                "B": 61,
                "C": 63.57142857142857,
                "D": 64.92857142857143,
                "E": 65.28571428571429,
                "F": 66.42857142857143,
                "G": 68,
                "H": 68.64285714285714,
                "I": 67.42857142857143,
                "J": 65.78571428571429
            },
            "bus2": {
                "J": 57.06666666666667,
                "K": 59.785714285714285,
                "L": 61.642857142857146,
                "A": 60.42857142857143,
                "B": 60.142857142857146,
                "C": 59.07142857142857,
                "D": 60.5,
                "E": 61.642857142857146,
                "F": 62.57142857142857,
                "G": 61.357142857142854,
                "H": 61,
                "I": 60.42857142857143
            },
            "bus4": {
                "L": 63,
                "A": 62.6,
                "B": 62.53333333333333,
                "C": 64.06666666666666,
                "D": 63.57142857142857,
                "E": 63.785714285714285,
                "F": 64.42857142857143,
                "G": 64,
                "H": 65.28571428571429,
                "I": 66.14285714285714,
                "J": 65.35714285714286,
                "K": 65.78571428571429
            }
        },
        {
            "bus2": {
                "H": 60.357142857142854,
                "I": 61.785714285714285,
                "J": 62.5,
                "K": 62.07142857142857,
                "L": 62.142857142857146,
                "A": 63.142857142857146,
                "B": 64.35714285714286,
                "C": 66.28571428571429,
                "D": 66.14285714285714,
                "E": 66.64285714285714,
                "F": 66.42857142857143,
                "G": 66.23076923076923
            },
            "bus5": {
                "L": 61.733333333333334,
                "A": 62.733333333333334,
                "B": 60.07142857142857,
                "C": 59.42857142857143,
                "D": 63.857142857142854,
                "E": 67.07142857142857,
                "F": 69.14285714285714,
                "G": 67.57142857142857,
                "H": 67.28571428571429,
                "I": 67.5,
                "J": 68.14285714285714,
                "K": 67.78571428571429
            },
            "bus4": {
                "K": 64.85714285714286,
                "L": 67.28571428571429,
                "A": 67.71428571428571,
                "B": 67.07142857142857,
                "C": 66.42857142857143,
                "D": 66,
                "E": 64.42857142857143,
                "F": 63.642857142857146,
                "G": 66.5,
                "H": 66.07142857142857,
                "I": 66.28571428571429,
                "J": 68.42857142857143
            },
            "bus1": {
                "F": 59.857142857142854,
                "G": 63.5,
                "H": 65.57142857142857,
                "I": 65.07142857142857,
                "J": 65.14285714285714,
                "K": 66.57142857142857,
                "L": 70.5,
                "A": 68.85714285714286,
                "B": 69.07142857142857,
                "C": 67,
                "D": 66.14285714285714,
                "E": 64.07692307692308
            },
            "bus3": {
                "I": 63.92857142857143,
                "J": 66.28571428571429,
                "K": 63.42857142857143,
                "L": 62.42857142857143,
                "A": 63.357142857142854,
                "B": 63.07142857142857,
                "C": 64.64285714285714,
                "D": 66.64285714285714,
                "E": 66.71428571428571,
                "F": 68.07142857142857,
                "G": 67.78571428571429,
                "H": 68.71428571428571
            },
            "bus0": {
                "D": 58.785714285714285,
                "E": 60.714285714285715,
                "F": 60.214285714285715,
                "G": 63.5,
                "H": 64.5,
                "I": 64.92857142857143,
                "J": 63.285714285714285,
                "K": 61.92857142857143,
                "L": 60.357142857142854,
                "A": 61.57142857142857,
                "B": 61.142857142857146,
                "C": 61.84615384615385
            }
        },
        {
            "bus5": {
                "A": 62.857142857142854,
                "B": 62.642857142857146,
                "C": 63.714285714285715,
                "D": 62.142857142857146,
                "E": 63.857142857142854,
                "F": 62.785714285714285,
                "G": 63.5,
                "H": 63.642857142857146,
                "I": 64.64285714285714,
                "J": 63.857142857142854,
                "K": 63.07142857142857,
                "L": 64.21428571428571
            },
            "bus2": {
                "G": 60.785714285714285,
                "H": 63.857142857142854,
                "I": 63.285714285714285,
                "J": 64.21428571428571,
                "K": 64,
                "L": 62.92857142857143,
                "A": 62.42857142857143,
                "B": 63.5,
                "C": 64.78571428571429,
                "D": 64.64285714285714,
                "E": 64.21428571428571,
                "F": 65
            },
            "bus0": {
                "D": 60,
                "E": 61.285714285714285,
                "F": 61.285714285714285,
                "G": 61.5,
                "H": 62.785714285714285,
                "I": 64.85714285714286,
                "J": 64.42857142857143,
                "K": 66.92857142857143,
                "L": 67.21428571428571,
                "A": 67.07142857142857,
                "B": 65.5,
                "C": 64.6923076923077
            },
            "bus1": {
                "E": 59.57142857142857,
                "F": 60.142857142857146,
                "G": 61.5,
                "H": 65.5,
                "I": 65.14285714285714,
                "J": 65.28571428571429,
                "K": 63.714285714285715,
                "L": 64.35714285714286,
                "A": 60.92857142857143,
                "B": 61.714285714285715,
                "C": 60.785714285714285,
                "D": 63.142857142857146
            },
            "bus3": {
                "I": 55.333333333333336,
                "J": 56.07142857142857,
                "K": 55.57142857142857,
                "L": 60.857142857142854,
                "A": 63.142857142857146,
                "B": 63.785714285714285,
                "C": 66.64285714285714,
                "D": 67.28571428571429,
                "E": 65.78571428571429,
                "F": 63.285714285714285,
                "G": 62.42857142857143,
                "H": 61
            },
            "bus4": {
                "K": 61.266666666666666,
                "L": 62.285714285714285,
                "A": 63.07142857142857,
                "B": 61.857142857142854,
                "C": 62.642857142857146,
                "D": 62.214285714285715,
                "E": 63.357142857142854,
                "F": 64.5,
                "G": 64.42857142857143,
                "H": 65,
                "I": 65.07142857142857,
                "J": 63.92857142857143
            }
        },
        {
            "bus3": {
                "H": 65.14285714285714,
                "I": 67.64285714285714,
                "J": 67.28571428571429,
                "K": 67.14285714285714,
                "L": 66,
                "A": 66.5,
                "B": 67.21428571428571,
                "C": 64.64285714285714,
                "D": 63.142857142857146,
                "E": 64.64285714285714,
                "F": 67.57142857142857,
                "G": 68.6923076923077
            },
            "bus1": {
                "C": 59.357142857142854,
                "D": 59.5,
                "E": 58.5,
                "F": 60.714285714285715,
                "G": 62,
                "H": 62.357142857142854,
                "I": 62.214285714285715,
                "J": 62.214285714285715,
                "K": 63.57142857142857,
                "L": 63.357142857142854,
                "A": 64,
                "B": 64.71428571428571
            },
            "bus2": {
                "D": 62.93333333333333,
                "E": 63.214285714285715,
                "F": 65.07142857142857,
                "G": 65.35714285714286,
                "H": 67.92857142857143,
                "I": 67.78571428571429,
                "J": 68.42857142857143,
                "K": 68.92857142857143,
                "L": 68.28571428571429,
                "A": 68.42857142857143,
                "B": 67.5,
                "C": 66.85714285714286
            },
            "bus4": {
                "I": 65.57142857142857,
                "J": 67.14285714285714,
                "K": 67.07142857142857,
                "L": 67.57142857142857,
                "A": 69.57142857142857,
                "B": 68.5,
                "C": 67.35714285714286,
                "D": 68.21428571428571,
                "E": 66.57142857142857,
                "F": 66.85714285714286,
                "G": 66.78571428571429,
                "H": 66.6923076923077
            },
            "bus5": {
                "K": 66.85714285714286,
                "L": 67.42857142857143,
                "A": 66.71428571428571,
                "B": 66.64285714285714,
                "C": 68.14285714285714,
                "D": 67.78571428571429,
                "E": 69.57142857142857,
                "F": 69.14285714285714,
                "G": 67.42857142857143,
                "H": 66.21428571428571,
                "I": 71.57142857142857,
                "J": 72.07142857142857
            },
            "bus0": {
                "B": 53.857142857142854,
                "C": 55.92857142857143,
                "D": 57.92857142857143,
                "E": 60.785714285714285,
                "F": 60,
                "G": 62.142857142857146,
                "H": 59.57142857142857,
                "I": 58.57142857142857,
                "J": 59,
                "K": 57.57142857142857,
                "L": 57.214285714285715,
                "A": 56.38461538461539
            }
        },
        {
            "bus1": {
                "E": 66.6,
                "F": 67.5,
                "G": 68.21428571428571,
                "H": 69.42857142857143,
                "I": 69.21428571428571,
                "J": 70.42857142857143,
                "K": 69.57142857142857,
                "L": 74,
                "A": 73.21428571428571,
                "B": 72.78571428571429,
                "C": 69.92857142857143,
                "D": 69.21428571428571
            },
            "bus2": {
                "J": 61.57142857142857,
                "K": 62.57142857142857,
                "L": 62.642857142857146,
                "A": 62.57142857142857,
                "B": 64,
                "C": 63.857142857142854,
                "D": 62.5,
                "E": 64.42857142857143,
                "F": 64.14285714285714,
                "G": 64.14285714285714,
                "H": 65.46153846153847,
                "I": 64.15384615384616
            },
            "bus0": {
                "D": 56.92857142857143,
                "E": 58.357142857142854,
                "F": 57.42857142857143,
                "G": 60.5,
                "H": 61,
                "I": 62.857142857142854,
                "J": 65.07142857142857,
                "K": 64.42857142857143,
                "L": 65.85714285714286,
                "A": 66.5,
                "B": 65.14285714285714,
                "C": 66.28571428571429
            },
            "bus4": {
                "L": 63.142857142857146,
                "A": 63.285714285714285,
                "B": 62.285714285714285,
                "C": 61.142857142857146,
                "D": 63.785714285714285,
                "E": 63.57142857142857,
                "F": 65.28571428571429,
                "G": 65.21428571428571,
                "H": 66,
                "I": 64.28571428571429,
                "J": 67.71428571428571,
                "K": 69.85714285714286
            },
            "bus3": {
                "K": 61.642857142857146,
                "L": 63.07142857142857,
                "A": 62.857142857142854,
                "B": 62.357142857142854,
                "C": 62.642857142857146,
                "D": 61.857142857142854,
                "E": 61.285714285714285,
                "F": 61.642857142857146,
                "G": 62.857142857142854,
                "H": 63.357142857142854,
                "I": 62.92857142857143,
                "J": 63.23076923076923
            },
            "bus5": {
                "A": 59.6,
                "B": 59,
                "C": 59.57142857142857,
                "D": 58.92857142857143,
                "E": 61.285714285714285,
                "F": 62.642857142857146,
                "G": 62.785714285714285,
                "H": 64.07142857142857,
                "I": 62.642857142857146,
                "J": 63.857142857142854,
                "K": 63.42857142857143,
                "L": 61.785714285714285
            }
        },
        {
            "bus0": {
                "D": 59.46666666666667,
                "E": 58.266666666666666,
                "F": 59.785714285714285,
                "G": 62.57142857142857,
                "H": 62.642857142857146,
                "I": 61.285714285714285,
                "J": 63.142857142857146,
                "K": 64.5,
                "L": 66.28571428571429,
                "A": 66.5,
                "B": 66.78571428571429,
                "C": 66.57142857142857
            },
            "bus3": {
                "H": 60.2,
                "I": 59.86666666666667,
                "J": 60.93333333333333,
                "K": 61.93333333333333,
                "L": 66.42857142857143,
                "A": 64.92857142857143,
                "B": 65.71428571428571,
                "C": 65.57142857142857,
                "D": 66.28571428571429,
                "E": 65,
                "F": 65.57142857142857,
                "G": 64.14285714285714
            },
            "bus4": {
                "K": 61.53333333333333,
                "L": 62.13333333333333,
                "A": 61.333333333333336,
                "B": 60.07142857142857,
                "C": 60.92857142857143,
                "D": 62.5,
                "E": 63.714285714285715,
                "F": 62.642857142857146,
                "G": 62.92857142857143,
                "H": 64.5,
                "I": 64.85714285714286,
                "J": 65.71428571428571
            },
            "bus1": {
                "F": 62.06666666666667,
                "G": 62.46666666666667,
                "H": 60.57142857142857,
                "I": 61.785714285714285,
                "J": 60.714285714285715,
                "K": 60.357142857142854,
                "L": 61,
                "A": 62.714285714285715,
                "B": 63.285714285714285,
                "C": 63.92857142857143,
                "D": 65.28571428571429,
                "E": 67.35714285714286
            },
            "bus2": {
                "G": 58.86666666666667,
                "H": 60.6,
                "I": 61.93333333333333,
                "J": 62.357142857142854,
                "K": 62.07142857142857,
                "L": 64.21428571428571,
                "A": 62.5,
                "B": 62.285714285714285,
                "C": 61.57142857142857,
                "D": 61.642857142857146,
                "E": 61,
                "F": 59.92857142857143
            },
            "bus5": {
                "A": 60.2,
                "B": 62.333333333333336,
                "C": 64.26666666666667,
                "D": 65,
                "E": 64,
                "F": 60.857142857142854,
                "G": 63.57142857142857,
                "H": 65.14285714285714,
                "I": 65,
                "J": 64.78571428571429,
                "K": 66.21428571428571,
                "L": 64.35714285714286
            }
        },
        {
            "bus4": {
                "K": 62.266666666666666,
                "L": 61.57142857142857,
                "A": 61.214285714285715,
                "B": 61.142857142857146,
                "C": 62.42857142857143,
                "D": 62.642857142857146,
                "E": 64.35714285714286,
                "F": 65.71428571428571,
                "G": 65.5,
                "H": 65.71428571428571,
                "I": 66.85714285714286,
                "J": 67.78571428571429
            },
            "bus2": {
                "F": 60.733333333333334,
                "G": 61.42857142857143,
                "H": 63.357142857142854,
                "I": 63.285714285714285,
                "J": 64.07142857142857,
                "K": 68.42857142857143,
                "L": 70.28571428571429,
                "A": 70.64285714285714,
                "B": 69.71428571428571,
                "C": 67.92857142857143,
                "D": 66.57142857142857,
                "E": 66
            },
            "bus3": {
                "I": 64.07142857142857,
                "J": 63.642857142857146,
                "K": 66.14285714285714,
                "L": 66.21428571428571,
                "A": 67.28571428571429,
                "B": 67.71428571428571,
                "C": 66.5,
                "D": 67.78571428571429,
                "E": 67.07142857142857,
                "F": 67.78571428571429,
                "G": 68.42857142857143,
                "H": 69.64285714285714
            },
            "bus5": {
                "L": 61.93333333333333,
                "A": 62.642857142857146,
                "B": 60.785714285714285,
                "C": 60.785714285714285,
                "D": 60.357142857142854,
                "E": 57.92857142857143,
                "F": 60.785714285714285,
                "G": 62.42857142857143,
                "H": 63.714285714285715,
                "I": 65,
                "J": 64.78571428571429,
                "K": 65.07142857142857
            },
            "bus0": {
                "B": 58.666666666666664,
                "C": 58.53333333333333,
                "D": 57.785714285714285,
                "E": 59.5,
                "F": 60.42857142857143,
                "G": 61.642857142857146,
                "H": 61.357142857142854,
                "I": 60.214285714285715,
                "J": 61.57142857142857,
                "K": 62.785714285714285,
                "L": 61.785714285714285,
                "A": 64.64285714285714
            },
            "bus1": {
                "D": 60.666666666666664,
                "E": 62.5,
                "F": 62.285714285714285,
                "G": 63.57142857142857,
                "H": 64.07142857142857,
                "I": 64.71428571428571,
                "J": 63.42857142857143,
                "K": 63.07142857142857,
                "L": 64.28571428571429,
                "A": 63.5,
                "B": 63.714285714285715,
                "C": 64.07142857142857
            }
        },
        {
            "bus3": {
                "I": 61.857142857142854,
                "J": 62.285714285714285,
                "K": 62.92857142857143,
                "L": 61.714285714285715,
                "A": 63.714285714285715,
                "B": 65.07142857142857,
                "C": 66.14285714285714,
                "D": 66.64285714285714,
                "E": 66.85714285714286,
                "F": 68.92857142857143,
                "G": 68,
                "H": 66.6923076923077
            },
            "bus0": {
                "C": 57.5,
                "D": 57.857142857142854,
                "E": 61.57142857142857,
                "F": 63.142857142857146,
                "G": 59.714285714285715,
                "H": 60.214285714285715,
                "I": 65.14285714285714,
                "J": 68.57142857142857,
                "K": 67.78571428571429,
                "L": 67.28571428571429,
                "A": 66.21428571428571,
                "B": 64.57142857142857
            },
            "bus1": {
                "D": 60.714285714285715,
                "E": 59.857142857142854,
                "F": 63,
                "G": 65,
                "H": 66.28571428571429,
                "I": 66.42857142857143,
                "J": 66.21428571428571,
                "K": 66.5,
                "L": 66.5,
                "A": 65.78571428571429,
                "B": 68.64285714285714,
                "C": 65.35714285714286
            },
            "bus4": {
                "K": 63.5,
                "L": 64.71428571428571,
                "A": 65.21428571428571,
                "B": 65.42857142857143,
                "C": 64.78571428571429,
                "D": 63.142857142857146,
                "E": 62.92857142857143,
                "F": 62.07142857142857,
                "G": 62.642857142857146,
                "H": 65.42857142857143,
                "I": 64.14285714285714,
                "J": 64.6923076923077
            },
            "bus2": {
                "F": 63,
                "G": 64.28571428571429,
                "H": 65.5,
                "I": 67.42857142857143,
                "J": 68,
                "K": 71.5,
                "L": 70.42857142857143,
                "A": 68.21428571428571,
                "B": 68.07142857142857,
                "C": 66.14285714285714,
                "D": 66,
                "E": 65.92857142857143
            },
            "bus5": {
                "A": 57.785714285714285,
                "B": 59.857142857142854,
                "C": 58.214285714285715,
                "D": 58.07142857142857,
                "E": 59.57142857142857,
                "F": 60.357142857142854,
                "G": 61.142857142857146,
                "H": 61.285714285714285,
                "I": 61.142857142857146,
                "J": 60.57142857142857,
                "K": 61.642857142857146,
                "L": 59.357142857142854
            }
        }
    ],
    "Obs_and_actions_busses": [
        {
            "3": 89.94751598849949,
            "0": -181.4913089935458,
            "6": 265.57799840360144,
            "2": 60.738509506070685,
            "5": 148.28262016363075,
            "1": 29.88349454359685,
            "4": 121.63309582733136
        },
        {
            "0": -193.74142157558362,
            "6": 272.727163444486,
            "4": 117.38637335329862,
            "5": 152.80726751278664,
            "3": 89.45612173601398,
            "1": 30.312338898645823,
            "2": 60.23599968795722
        },
        {
            "0": -169.31969238593834,
            "6": 270.0024950092587,
            "1": 27.477807566057493,
            "3": 89.32965097408847,
            "4": 118.85408906058206,
            "2": 60.108439318608085,
            "5": 149.36901898755897
        },
        {
            "6": 257.12704031873693,
            "2": 60.52007055432947,
            "0": -187.53610764225618,
            "1": 30.82952919659732,
            "5": 150.02118051596946,
            "4": 120.4501109618892,
            "3": 89.49810715313912
        },
        {
            "0": -177.14481852783214,
            "1": 30.15719617641951,
            "6": 266.05827097117503,
            "4": 120.1783345214577,
            "2": 60.09680096970134,
            "5": 147.9743583382684,
            "3": 88.62876937880247
        },
        {
            "6": 266.92032039660086,
            "0": -187.25214493037154,
            "1": 30.196611261991034,
            "5": 149.36198360682772,
            "4": 120.60020074559905,
            "3": 91.52653873246079,
            "2": 59.726215802211286
        },
        {
            "0": -193.47863670291184,
            "6": 274.2707262472469,
            "3": 90.44032134439708,
            "4": 117.77318152218406,
            "2": 58.00079469283259,
            "1": 30.171329961021613,
            "5": 150.3349230218353
        },
        {
            "6": 259.59967751802424,
            "4": 119.97399458134473,
            "5": 151.3575622452625,
            "3": 88.80584763748028,
            "2": 60.59600526879745,
            "0": -161.95366268196204,
            "1": 29.588329717258645
        },
        {
            "6": 266.37833340546723,
            "3": 88.70509610487343,
            "0": -186.78110944450742,
            "1": 28.239117774483287,
            "5": 150.30215443789038,
            "4": 120.64128492867488,
            "2": 59.55907948704257
        },
        {
            "6": 259.00329453724544,
            "3": 88.96076998307777,
            "0": -183.73468843344455,
            "2": 61.35553054794398,
            "1": 32.46159804147482,
            "4": 118.57238746551377,
            "5": 149.6848567041493
        }
    ],
    "Obs_and_actions_tfls": [
        {
            "0": 115.64295905804856
        },
        {
            "0": 113.4915157917759
        },
        {
            "0": 117.92956320675866
        },
        {
            "0": 115.2696951656873
        },
        {
            "0": 117.47059535084217
        },
        {
            "0": 115.64848143377273
        },
        {
            "0": 115.79044390764527
        },
        {
            "0": 115.48957062907796
        },
        {
            "0": 115.21303219371012
        },
        {
            "0": 119.42701277844684
        }
    ]
}