{
    "Average_holding_time": 55.288270377733596,
    "Average_holding_actions": [
        560,
        70,
        54,
        49,
        35,
        197
    ],
    "Average_travel_time_passengers": 2300.4763035561136,
    "Average_passenger_waiting_time": 366.8219769888931,
    "Average_passenger_in_vehicle_time": 1933.6543265672353,
    "Average_speed_busses": 0.041916666666666665,
    "Average_experienced_crowding": 65.47886800523862,
    "Average_covariation_headway": 0.3090269501824772,
    "Average_covariation_headway_stops": {
        "H": 0.24553826344448998,
        "L": 0.24474134326703206,
        "K": 0.24381503969912632,
        "F": 0.2005378378811879,
        "I": 0.2132977150657375,
        "D": 0.2339156216966679,
        "G": 0.21516957907198814,
        "J": 0.21180150768350223,
        "A": 0.24449464488590694,
        "E": 0.1996250669868894,
        "B": 0.23831015155125188,
        "C": 0.22963717826681154
    },
    "Average_excess_waiting_time": {
        "H": 100.915039066428,
        "L": 96.19209535553824,
        "K": 98.6421020479354,
        "F": 94.93099099331766,
        "I": 94.37718694639835,
        "D": 99.01197987080855,
        "G": 98.69642869202909,
        "J": 95.97912415492345,
        "A": 97.73119981306326,
        "E": 97.74449123540643,
        "B": 100.5323220430111,
        "C": 100.76858986828228
    },
    "Holding_per_stop": {
        "L": 57.529411764705884,
        "F": 48.57142857142857,
        "I": 58.92857142857143,
        "H": 62.142857142857146,
        "K": 54.642857142857146,
        "D": 56.42857142857143,
        "J": 56.42857142857143,
        "A": 60.357142857142854,
        "G": 47.71084337349398,
        "B": 53.57142857142857,
        "E": 50.963855421686745,
        "C": 56.024096385542165
    },
    "Actions_tfl_edges": {
        "CD": [
            84,
            0,
            0
        ],
        "EF": [
            84,
            0,
            0
        ],
        "GH": [
            84,
            0,
            0
        ],
        "HI": [
            84,
            0,
            0
        ],
        "JK": [
            85,
            0,
            0
        ],
        "KL": [
            85,
            0,
            0
        ],
        "LA": [
            85,
            0,
            0
        ],
        "FG": [
            84,
            0,
            0
        ],
        "IJ": [
            84,
            0,
            0
        ],
        "DE": [
            84,
            0,
            0
        ],
        "AB": [
            84,
            0,
            0
        ],
        "BC": [
            84,
            0,
            0
        ]
    },
    "Load_per_bus_per_stop": {
        "bus2": {
            "H": 60.357142857142854,
            "I": 61.785714285714285,
            "J": 62.5,
            "K": 62.07142857142857,
            "L": 62.142857142857146,
            "A": 63.142857142857146,
            "B": 64.35714285714286,
            "C": 66.28571428571429,
            "D": 66.14285714285714,
            "E": 66.64285714285714,
            "F": 66.42857142857143,
            "G": 66.23076923076923
        },
        "bus5": {
            "L": 61.733333333333334,
            "A": 62.733333333333334,
            "B": 60.07142857142857,
            "C": 59.42857142857143,
            "D": 63.857142857142854,
            "E": 67.07142857142857,
            "F": 69.14285714285714,
            "G": 67.57142857142857,
            "H": 67.28571428571429,
            "I": 67.5,
            "J": 68.14285714285714,
            "K": 67.78571428571429
        },
        "bus4": {
            "K": 64.85714285714286,
            "L": 67.28571428571429,
            "A": 67.71428571428571,
            "B": 67.07142857142857,
            "C": 66.42857142857143,
            "D": 66,
            "E": 64.42857142857143,
            "F": 63.642857142857146,
            "G": 66.5,
            "H": 66.07142857142857,
            "I": 66.28571428571429,
            "J": 68.42857142857143
        },
        "bus1": {
            "F": 59.857142857142854,
            "G": 63.5,
            "H": 65.57142857142857,
            "I": 65.07142857142857,
            "J": 65.14285714285714,
            "K": 66.57142857142857,
            "L": 70.5,
            "A": 68.85714285714286,
            "B": 69.07142857142857,
            "C": 67,
            "D": 66.14285714285714,
            "E": 64.07692307692308
        },
        "bus3": {
            "I": 63.92857142857143,
            "J": 66.28571428571429,
            "K": 63.42857142857143,
            "L": 62.42857142857143,
            "A": 63.357142857142854,
            "B": 63.07142857142857,
            "C": 64.64285714285714,
            "D": 66.64285714285714,
            "E": 66.71428571428571,
            "F": 68.07142857142857,
            "G": 67.78571428571429,
            "H": 68.71428571428571
        },
        "bus0": {
            "D": 58.785714285714285,
            "E": 60.714285714285715,
            "F": 60.214285714285715,
            "G": 63.5,
            "H": 64.5,
            "I": 64.92857142857143,
            "J": 63.285714285714285,
            "K": 61.92857142857143,
            "L": 60.357142857142854,
            "A": 61.57142857142857,
            "B": 61.142857142857146,
            "C": 61.84615384615385
        }
    },
    "Obs_and_actions_busses": {
        "6": 257.12704031873693,
        "2": 60.52007055432947,
        "0": -187.53610764225618,
        "1": 30.82952919659732,
        "5": 150.02118051596946,
        "4": 120.4501109618892,
        "3": 89.49810715313912
    },
    "Obs_and_actions_tfls": {
        "0": 115.2696951656873
    }
}