{
    "Average_holding_time": 53.63095238095238,
    "Average_holding_actions": [
        559,
        66,
        58,
        49,
        52,
        164
    ],
    "Average_travel_time_passengers": 2278.6942848472127,
    "Average_passenger_waiting_time": 365.9759828401639,
    "Average_passenger_in_vehicle_time": 1912.71830200704,
    "Average_speed_busses": 0.042,
    "Average_experienced_crowding": 64.42112748897162,
    "Average_covariation_headway": 0.30980210768893424,
    "Average_covariation_headway_stops": {
        "G": 0.24271481787667679,
        "J": 0.2529624250761016,
        "F": 0.24052099332733362,
        "H": 0.21977489726077068,
        "A": 0.22388049657217482,
        "B": 0.24264716712784126,
        "I": 0.23122020106469565,
        "C": 0.20991194544436576,
        "K": 0.23584200382491097,
        "D": 0.2166195472033982,
        "L": 0.21878052520834862,
        "E": 0.21334527875384984
    },
    "Average_excess_waiting_time": {
        "G": 99.27534487374464,
        "J": 96.94778284961109,
        "F": 101.18881035631159,
        "H": 92.61858372014092,
        "A": 95.53518897218873,
        "B": 97.43691290865428,
        "I": 96.08352981656907,
        "C": 93.7252835323253,
        "K": 98.3020348761737,
        "D": 96.23776799582384,
        "L": 97.11781585262338,
        "E": 99.35131598874926
    },
    "Holding_per_stop": {
        "J": 61.411764705882355,
        "H": 47.857142857142854,
        "G": 55.714285714285715,
        "B": 57.857142857142854,
        "F": 44.642857142857146,
        "A": 49.642857142857146,
        "I": 51.785714285714285,
        "C": 61.42857142857143,
        "K": 58.57142857142857,
        "D": 58.57142857142857,
        "L": 48.92857142857143,
        "E": 46.98795180722892
    },
    "Actions_tfl_edges": {
        "AB": [
            85,
            0,
            0
        ],
        "EF": [
            84,
            0,
            0
        ],
        "FG": [
            84,
            0,
            0
        ],
        "GH": [
            85,
            0,
            0
        ],
        "IJ": [
            85,
            0,
            0
        ],
        "LA": [
            85,
            0,
            0
        ],
        "JK": [
            85,
            0,
            0
        ],
        "HI": [
            84,
            0,
            0
        ],
        "BC": [
            84,
            0,
            0
        ],
        "CD": [
            84,
            0,
            0
        ],
        "KL": [
            84,
            0,
            0
        ],
        "DE": [
            84,
            0,
            0
        ]
    },
    "Load_per_bus_per_stop": {
        "bus2": {
            "G": 55.57142857142857,
            "H": 55.92857142857143,
            "I": 56.642857142857146,
            "J": 59.57142857142857,
            "K": 59.214285714285715,
            "L": 60.785714285714285,
            "A": 60.5,
            "B": 60.57142857142857,
            "C": 61.42857142857143,
            "D": 62.285714285714285,
            "E": 62.642857142857146,
            "F": 62.214285714285715
        },
        "bus4": {
            "J": 59.53333333333333,
            "K": 62.142857142857146,
            "L": 64.64285714285714,
            "A": 66.21428571428571,
            "B": 65.21428571428571,
            "C": 64.85714285714286,
            "D": 64.42857142857143,
            "E": 65,
            "F": 65.57142857142857,
            "G": 65.92857142857143,
            "H": 64.57142857142857,
            "I": 64.85714285714286
        },
        "bus1": {
            "F": 63.357142857142854,
            "G": 64.64285714285714,
            "H": 61.642857142857146,
            "I": 61.07142857142857,
            "J": 59.142857142857146,
            "K": 58.92857142857143,
            "L": 60,
            "A": 62.285714285714285,
            "B": 62.214285714285715,
            "C": 62.357142857142854,
            "D": 66.21428571428571,
            "E": 67.6923076923077
        },
        "bus3": {
            "H": 59.785714285714285,
            "I": 62,
            "J": 60.642857142857146,
            "K": 60.142857142857146,
            "L": 62.857142857142854,
            "A": 65.85714285714286,
            "B": 68.14285714285714,
            "C": 68.42857142857143,
            "D": 68.57142857142857,
            "E": 66.71428571428571,
            "F": 66,
            "G": 67.07142857142857
        },
        "bus5": {
            "A": 60.142857142857146,
            "B": 61.285714285714285,
            "C": 62.857142857142854,
            "D": 62.714285714285715,
            "E": 64.42857142857143,
            "F": 63.642857142857146,
            "G": 65,
            "H": 65.07142857142857,
            "I": 64.92857142857143,
            "J": 66.14285714285714,
            "K": 65.07142857142857,
            "L": 64.28571428571429
        },
        "bus0": {
            "B": 63.86666666666667,
            "C": 65.07142857142857,
            "D": 64.57142857142857,
            "E": 64.21428571428571,
            "F": 62.42857142857143,
            "G": 62.07142857142857,
            "H": 63.214285714285715,
            "I": 64.78571428571429,
            "J": 66.28571428571429,
            "K": 67.28571428571429,
            "L": 69.21428571428571,
            "A": 68
        }
    },
    "Obs_and_actions_busses": {
        "3": 89.94751598849949,
        "0": -181.4913089935458,
        "6": 265.57799840360144,
        "2": 60.738509506070685,
        "5": 148.28262016363075,
        "1": 29.88349454359685,
        "4": 121.63309582733136
    },
    "Obs_and_actions_tfls": {
        "0": 115.64295905804856
    }
}