{
    "Average_holding_time": 53.68577075098814,
    "Average_holding_actions": [
        575,
        58,
        64,
        42,
        40,
        186
    ],
    "Average_travel_time_passengers": 2292.639959770916,
    "Average_passenger_waiting_time": 369.39528852614734,
    "Average_passenger_in_vehicle_time": 1923.2446712447718,
    "Average_speed_busses": 0.042166666666666665,
    "Average_experienced_crowding": 64.721945853691,
    "Average_covariation_headway": 0.3150545854571426,
    "Average_covariation_headway_stops": {
        "G": 0.26221931469936116,
        "B": 0.2380249792481622,
        "J": 0.22925063474599544,
        "L": 0.22285700090301067,
        "F": 0.22495107861130517,
        "I": 0.22003544528894864,
        "K": 0.21436885464742503,
        "H": 0.25782815931497916,
        "A": 0.2031320783858516,
        "C": 0.2269556702593319,
        "D": 0.23192058691643128,
        "E": 0.2473582223180766
    },
    "Average_excess_waiting_time": {
        "G": 100.55724202545957,
        "B": 94.13347978504635,
        "J": 92.78388985033581,
        "L": 91.48946237246292,
        "F": 97.4856398876255,
        "I": 92.93066942019453,
        "K": 92.24367247143942,
        "H": 102.07197997400971,
        "A": 91.22857895942855,
        "C": 94.32428486027038,
        "D": 98.28881767266353,
        "E": 102.58149171103457
    },
    "Holding_per_stop": {
        "G": 53.92857142857143,
        "J": 55.76470588235294,
        "B": 53.64705882352941,
        "L": 49.76470588235294,
        "I": 52.5,
        "F": 49.642857142857146,
        "K": 53.294117647058826,
        "H": 52.857142857142854,
        "A": 53.57142857142857,
        "C": 52.94117647058823,
        "D": 53.92857142857143,
        "E": 62.53012048192771
    },
    "Actions_tfl_edges": {
        "AB": [
            85,
            0,
            0
        ],
        "EF": [
            84,
            0,
            0
        ],
        "FG": [
            85,
            0,
            0
        ],
        "HI": [
            85,
            0,
            0
        ],
        "IJ": [
            85,
            0,
            0
        ],
        "KL": [
            86,
            0,
            0
        ],
        "GH": [
            84,
            0,
            0
        ],
        "JK": [
            85,
            0,
            0
        ],
        "BC": [
            85,
            0,
            0
        ],
        "LA": [
            85,
            0,
            0
        ],
        "CD": [
            85,
            0,
            0
        ],
        "DE": [
            84,
            0,
            0
        ]
    },
    "Load_per_bus_per_stop": {
        "bus2": {
            "G": 61.214285714285715,
            "H": 64.85714285714286,
            "I": 64.71428571428571,
            "J": 65.07142857142857,
            "K": 66.21428571428571,
            "L": 65.71428571428571,
            "A": 63.07142857142857,
            "B": 63.5,
            "C": 64.5,
            "D": 64.5,
            "E": 63.857142857142854,
            "F": 64.14285714285714
        },
        "bus0": {
            "B": 63.86666666666667,
            "C": 63.86666666666667,
            "D": 65.85714285714286,
            "E": 67.42857142857143,
            "F": 68.92857142857143,
            "G": 66.71428571428571,
            "H": 65.92857142857143,
            "I": 67,
            "J": 66.28571428571429,
            "K": 66.28571428571429,
            "L": 66.21428571428571,
            "A": 65.71428571428571
        },
        "bus4": {
            "J": 63.46666666666667,
            "K": 63.8,
            "L": 63.357142857142854,
            "A": 62.92857142857143,
            "B": 64.57142857142857,
            "C": 66.21428571428571,
            "D": 63,
            "E": 61.07142857142857,
            "F": 61.357142857142854,
            "G": 60.57142857142857,
            "H": 63,
            "I": 65.78571428571429
        },
        "bus5": {
            "L": 61,
            "A": 62.214285714285715,
            "B": 63.42857142857143,
            "C": 63,
            "D": 63.857142857142854,
            "E": 65,
            "F": 66.64285714285714,
            "G": 67.5,
            "H": 67.92857142857143,
            "I": 66.35714285714286,
            "J": 63.714285714285715,
            "K": 62.5
        },
        "bus1": {
            "F": 60.214285714285715,
            "G": 62.285714285714285,
            "H": 63.42857142857143,
            "I": 64.07142857142857,
            "J": 63.42857142857143,
            "K": 62.785714285714285,
            "L": 63.857142857142854,
            "A": 64.57142857142857,
            "B": 65.85714285714286,
            "C": 66.5,
            "D": 66.64285714285714,
            "E": 65
        },
        "bus3": {
            "I": 58.46666666666667,
            "J": 56.92857142857143,
            "K": 58.285714285714285,
            "L": 60,
            "A": 61.785714285714285,
            "B": 61.57142857142857,
            "C": 60.214285714285715,
            "D": 61.07142857142857,
            "E": 61.785714285714285,
            "F": 62.785714285714285,
            "G": 63,
            "H": 63.07142857142857
        }
    },
    "Obs_and_actions_busses": {
        "0": -193.74142157558362,
        "6": 272.727163444486,
        "4": 117.38637335329862,
        "5": 152.80726751278664,
        "3": 89.45612173601398,
        "1": 30.312338898645823,
        "2": 60.23599968795722
    },
    "Obs_and_actions_tfls": {
        "0": 113.4915157917759
    }
}