{
    "Average_holding_time": 15.834068843777581,
    "Average_travel_time_passengers": 2646.3470967971293,
    "Average_speed_busses": 0.04720833333333333,
    "Average_experienced_crowding": 107.32535816975205,
    "Average_covariation_headway": 0.2348600254696147,
    "Average_covariation_headway_stops": {
        "I": 0.14477550982011442,
        "F": 0.11946429119728752,
        "J": 0.13232553772087938,
        "K": 0.13022256690821932,
        "D": 0.12308857764915233,
        "A": 0.09936819091453278,
        "G": 0.1122115313353713,
        "L": 0.09804798184325744,
        "B": 0.07575451200156703,
        "H": 0.11331241349618688,
        "E": 0.10158523347435003,
        "C": 0.1011097511199119
    },
    "Average_excess_waiting_time": {
        "I": 51.50314739415535,
        "F": 49.17857809564504,
        "J": 48.906461267504426,
        "K": 46.92035736354342,
        "D": 49.523611838075055,
        "A": 44.8701575706566,
        "G": 49.96188398394537,
        "L": 46.3461844888613,
        "B": 45.880871852512996,
        "H": 51.38111871163608,
        "E": 49.608691437722484,
        "C": 49.45482343819924
    },
    "Holding_per_stop": {
        "K": 28.105263157894736,
        "J": 29.05263157894737,
        "I": 22.97872340425532,
        "A": 15.789473684210526,
        "F": 10.53191489361702,
        "D": 2.872340425531915,
        "L": 12.31578947368421,
        "G": 25.21276595744681,
        "B": 2.210526315789474,
        "E": 34.787234042553195,
        "H": 5.74468085106383,
        "C": 0.3191489361702128
    },
    "Actions_tfl_edges": {},
    "Load_per_bus_per_stop": {
        "bus2": {
            "I": 123.125,
            "J": 116.9375,
            "K": 108.9375,
            "L": 99.4375,
            "A": 88.875,
            "B": 79.5,
            "C": 75.4375,
            "D": 71.8,
            "E": 71.06666666666666,
            "F": 94.66666666666667,
            "G": 127.33333333333333,
            "H": 135.06666666666666
        },
        "bus1": {
            "F": 94.5625,
            "G": 124.6875,
            "H": 132.875,
            "I": 132.9375,
            "J": 125.8125,
            "K": 117.75,
            "L": 108.5625,
            "A": 97.875,
            "B": 88.9375,
            "C": 83.93333333333334,
            "D": 80.53333333333333,
            "E": 79.13333333333334
        },
        "bus3": {
            "J": 118.75,
            "K": 111.8125,
            "L": 101.5,
            "A": 92.375,
            "B": 83.375,
            "C": 76.25,
            "D": 73.9375,
            "E": 73.125,
            "F": 96,
            "G": 129.2,
            "H": 135.86666666666667,
            "I": 132.33333333333334
        },
        "bus4": {
            "K": 103.1875,
            "L": 94.25,
            "A": 86.375,
            "B": 77.5,
            "C": 73,
            "D": 69.3125,
            "E": 69.5,
            "F": 93.1875,
            "G": 122.5,
            "H": 130.3125,
            "I": 126.26666666666667,
            "J": 118.13333333333334
        },
        "bus0": {
            "D": 74.5625,
            "E": 74.3125,
            "F": 98.5,
            "G": 135.9375,
            "H": 143.375,
            "I": 140,
            "J": 130.5,
            "K": 119.375,
            "L": 110,
            "A": 98.26666666666667,
            "B": 89.53333333333333,
            "C": 82.6
        },
        "bus5": {
            "A": 92.25,
            "B": 83.6875,
            "C": 80.625,
            "D": 79.25,
            "E": 77.1875,
            "F": 102.125,
            "G": 133.75,
            "H": 141.4375,
            "I": 135.875,
            "J": 129.625,
            "K": 119.46666666666667,
            "L": 108.86666666666666
        }
    }
}