{
    "Average_holding_time": 30.9822263797942,
    "Average_travel_time_passengers": 2830.082951743345,
    "Average_speed_busses": 0.04454166666666667,
    "Average_experienced_crowding": 117.10784503660076,
    "Average_covariation_headway": 0.22583261379620928,
    "Average_covariation_headway_stops": {
        "H": 0.15804540757279048,
        "I": 0.15681270376592774,
        "K": 0.12248395328804543,
        "L": 0.12049776811133736,
        "D": 0.09092074633944638,
        "B": 0.0832760379156557,
        "J": 0.12500339971640892,
        "E": 0.07643735058394757,
        "A": 0.08965767513673585,
        "C": 0.06651153007337632,
        "F": 0.07598089806127344,
        "G": 0.11146733294670326
    },
    "Average_excess_waiting_time": {
        "H": 73.06225967242875,
        "I": 70.34373295524574,
        "K": 67.1304628913852,
        "L": 65.00539628386684,
        "D": 64.20985866360735,
        "B": 63.17868585877346,
        "J": 69.24716388480965,
        "E": 65.08206955831798,
        "A": 64.8682154816558,
        "C": 64.72006472833027,
        "F": 67.16087998603223,
        "G": 70.78915777342854
    },
    "Holding_per_stop": {
        "I": 34.04494382022472,
        "H": 36.741573033707866,
        "L": 32.666666666666664,
        "K": 34.71910112359551,
        "D": 0.3333333333333333,
        "B": 6.666666666666667,
        "J": 56.96629213483146,
        "A": 23.59550561797753,
        "E": 64.38202247191012,
        "C": 12.808988764044944,
        "F": 28.295454545454547,
        "G": 41.25
    },
    "Actions_tfl_edges": {},
    "Load_per_bus_per_stop": {
        "bus2": {
            "H": 141.93333333333334,
            "I": 139.53333333333333,
            "J": 131,
            "K": 122.73333333333333,
            "L": 114.06666666666666,
            "A": 105.4,
            "B": 95.53333333333333,
            "C": 89.4,
            "D": 86.13333333333334,
            "E": 80.71428571428571,
            "F": 106.14285714285714,
            "G": 143.07142857142858
        },
        "bus3": {
            "I": 132,
            "J": 125.4,
            "K": 118.26666666666667,
            "L": 109.4,
            "A": 99.86666666666666,
            "B": 90.2,
            "C": 84,
            "D": 81.8,
            "E": 78.8,
            "F": 100.2,
            "G": 136.71428571428572,
            "H": 144.28571428571428
        },
        "bus4": {
            "K": 120.93333333333334,
            "L": 108.66666666666667,
            "A": 101,
            "B": 91.93333333333334,
            "C": 86.6,
            "D": 84.46666666666667,
            "E": 82.86666666666666,
            "F": 107.4,
            "G": 144.33333333333334,
            "H": 152.26666666666668,
            "I": 144.35714285714286,
            "J": 138.14285714285714
        },
        "bus5": {
            "L": 105.53333333333333,
            "A": 95.66666666666667,
            "B": 87.4,
            "C": 82.6,
            "D": 78.46666666666667,
            "E": 79.4,
            "F": 107.06666666666666,
            "G": 138.2,
            "H": 148.4,
            "I": 142.73333333333332,
            "J": 132.53333333333333,
            "K": 121.28571428571429
        },
        "bus1": {
            "D": 82.53333333333333,
            "E": 80,
            "F": 103.46666666666667,
            "G": 138.53333333333333,
            "H": 149.4,
            "I": 146.86666666666667,
            "J": 138.2,
            "K": 129.13333333333333,
            "L": 120,
            "A": 109.33333333333333,
            "B": 97.73333333333333,
            "C": 92.5
        },
        "bus0": {
            "B": 87.86666666666666,
            "C": 82.86666666666666,
            "D": 78.8,
            "E": 78.06666666666666,
            "F": 106,
            "G": 141.6,
            "H": 152.26666666666668,
            "I": 148.33333333333334,
            "J": 140.13333333333333,
            "K": 130.26666666666668,
            "L": 118.66666666666667,
            "A": 106.28571428571429
        }
    }
} "L": 139.07142857142858,
            "A": 124.35714285714286
        }
    }
}