{
    "Average_holding_time": 12.391304347826088,
    "Average_travel_time_passengers": 2627.3285208324273,
    "Average_speed_busses": 0.04791666666666667,
    "Average_experienced_crowding": 107.0899161176999,
    "Average_covariation_headway": 0.2794400203770973,
    "Average_covariation_headway_stops": {
        "H": 0.22078602108593248,
        "I": 0.2269801243283814,
        "E": 0.2071261113432703,
        "F": 0.19772143635538844,
        "L": 0.17133771728918065,
        "A": 0.15597322521300097,
        "J": 0.19202225387050686,
        "G": 0.19117211930175276,
        "B": 0.1357152092839484,
        "K": 0.17139506440380511,
        "C": 0.15144872558774228,
        "D": 0.1872338504850135
    },
    "Average_excess_waiting_time": {
        "H": 54.62084944153099,
        "I": 53.309790923305286,
        "E": 55.17378916829915,
        "F": 52.11612152254969,
        "L": 48.14039362004149,
        "A": 45.09274690964162,
        "J": 50.69212726901077,
        "G": 52.94834463060141,
        "B": 45.50161322970763,
        "K": 49.904426361857645,
        "C": 48.85795794248946,
        "D": 54.52360344056376
    },
    "Holding_per_stop": {
        "I": 28.762886597938145,
        "H": 9.375,
        "F": 12.5,
        "A": 5.257731958762887,
        "E": 21.789473684210527,
        "L": 17.1875,
        "J": 10,
        "G": 17.05263157894737,
        "B": 3.75,
        "K": 16.25,
        "C": 3.1578947368421053,
        "D": 3.473684210526316
    },
    "Actions_tfl_edges": {},
    "Load_per_bus_per_stop": {
        "bus2": {
            "H": 130.0625,
            "I": 127.375,
            "J": 120.75,
            "K": 112,
            "L": 102.25,
            "A": 92.4375,
            "B": 81.875,
            "C": 77.3125,
            "D": 73.0625,
            "E": 72.875,
            "F": 96.5,
            "G": 129.13333333333333
        },
        "bus3": {
            "I": 115.82352941176471,
            "J": 109.5,
            "K": 102.3125,
            "L": 91.5625,
            "A": 83.25,
            "B": 75.25,
            "C": 71.25,
            "D": 68.75,
            "E": 66.875,
            "F": 86.75,
            "G": 118.8125,
            "H": 128.1875
        },
        "bus0": {
            "E": 73.5,
            "F": 97,
            "G": 130.25,
            "H": 140.25,
            "I": 136.875,
            "J": 129.5625,
            "K": 120.5625,
            "L": 108.75,
            "A": 99.4375,
            "B": 88.6875,
            "C": 81.6,
            "D": 78.4
        },
        "bus1": {
            "F": 95.5,
            "G": 125.3125,
            "H": 132.4375,
            "I": 126.625,
            "J": 119.875,
            "K": 112.8125,
            "L": 104.125,
            "A": 93.9375,
            "B": 83.25,
            "C": 79.3125,
            "D": 77.8125,
            "E": 78.26666666666667
        },
        "bus4": {
            "L": 89.3125,
            "A": 80.125,
            "B": 72.6875,
            "C": 67.1875,
            "D": 65.875,
            "E": 66.0625,
            "F": 85.125,
            "G": 114.25,
            "H": 120.9375,
            "I": 116.4375,
            "J": 109,
            "K": 101.875
        },
        "bus5": {
            "A": 99.05882352941177,
            "B": 91.0625,
            "C": 85.25,
            "D": 82.5625,
            "E": 80.8125,
            "F": 106.4375,
            "G": 142.5,
            "H": 150.3125,
            "I": 144.5,
            "J": 135.6875,
            "K": 127.1875,
            "L": 117.8125
        }
    }
}