{
    "Average_holding_time": 25.31954887218045,
    "Average_travel_time_passengers": 3004.9555165224783,
    "Average_speed_busses": 0.044333333333333336,
    "Average_experienced_crowding": 151.13592058422222,
    "Average_covariation_headway": 0.5357863073943051,
    "Average_covariation_headway_stops": {
        "H": 0.6538666255035268,
        "G": 0.596580808171983,
        "I": 0.6622723594827745,
        "F": 0.5663046896063285,
        "J": 0.6468793596299096,
        "K": 0.6310641219077665,
        "L": 0.6028077443058373,
        "A": 0.5812416250178497,
        "B": 0.5637319656071688,
        "C": 0.5588666435247595,
        "D": 0.561875957926556,
        "E": 0.5725459539530954
    },
    "Average_excess_waiting_time": {
        "H": 206.38070516587624,
        "G": 185.80728864116287,
        "I": 206.3958813120953,
        "F": 177.0984406365498,
        "J": 197.83190572190176,
        "K": 188.55946067351573,
        "L": 179.5104020122377,
        "A": 173.94955481908283,
        "B": 170.32374208089306,
        "C": 171.93166904441756,
        "D": 175.59564552175829,
        "E": 182.35194337807587
    },
    "Holding_per_stop": {
        "H": 23.258426966292134,
        "I": 30.337078651685392,
        "G": 31.704545454545453,
        "J": 28.333333333333332,
        "K": 26,
        "F": 30.344827586206897,
        "L": 25.666666666666668,
        "A": 19.55056179775281,
        "B": 16.179775280898877,
        "C": 18.75,
        "D": 21.136363636363637,
        "E": 32.758620689655174
    },
    "Actions_tfl_edges": {},
    "Load_per_bus_per_stop": {
        "bus2": {
            "H": 112.2,
            "I": 109.06666666666666,
            "J": 104.2,
            "K": 97.2,
            "L": 90.46666666666667,
            "A": 82.6,
            "B": 72.73333333333333,
            "C": 67.86666666666666,
            "D": 65.4,
            "E": 67.35714285714286,
            "F": 84.78571428571429,
            "G": 111.28571428571429
        },
        "bus1": {
            "G": 142,
            "H": 154.26666666666668,
            "I": 150.66666666666666,
            "J": 143.26666666666668,
            "K": 135.73333333333332,
            "L": 124.53333333333333,
            "A": 111.06666666666666,
            "B": 99.86666666666666,
            "C": 92.92857142857143,
            "D": 87.64285714285714,
            "E": 85.42857142857143,
            "F": 109.85714285714286
        },
        "bus3": {
            "I": 94,
            "J": 88,
            "K": 82.06666666666666,
            "L": 74.26666666666667,
            "A": 67.13333333333334,
            "B": 59.8,
            "C": 56.8,
            "D": 54.733333333333334,
            "E": 54.733333333333334,
            "F": 72.06666666666666,
            "G": 95.71428571428571,
            "H": 103.28571428571429
        },
        "bus0": {
            "F": 122.53333333333333,
            "G": 165.8,
            "H": 176.4,
            "I": 170.33333333333334,
            "J": 162.73333333333332,
            "K": 152.26666666666668,
            "L": 138.13333333333333,
            "A": 127.42857142857143,
            "B": 113.14285714285714,
            "C": 107.42857142857143,
            "D": 101.85714285714286,
            "E": 102.35714285714286
        },
        "bus4": {
            "J": 87,
            "K": 81.06666666666666,
            "L": 74.2,
            "A": 66.26666666666667,
            "B": 58.8,
            "C": 54.666666666666664,
            "D": 52.93333333333333,
            "E": 52.4,
            "F": 72.6,
            "G": 100.86666666666666,
            "H": 105.53333333333333,
            "I": 101.53333333333333
        },
        "bus5": {
            "K": 174.53333333333333,
            "L": 160.06666666666666,
            "A": 146.13333333333333,
            "B": 130.66666666666666,
            "C": 121.53333333333333,
            "D": 116.46666666666667,
            "E": 115.46666666666667,
            "F": 151.46666666666667,
            "G": 201.4,
            "H": 214.86666666666667,
            "I": 209.4,
            "J": 200.2
        }
    }
}