{
    "Average_holding_time": 9.483204134366925,
    "Average_travel_time_passengers": 2598.379806451593,
    "Average_speed_busses": 0.048375,
    "Average_experienced_crowding": 105.45396555949,
    "Average_covariation_headway": 0.2417325122191559,
    "Average_covariation_headway_stops": {
        "G": 0.1409073361840831,
        "E": 0.13362856908203583,
        "J": 0.1156708848376575,
        "K": 0.11909113427124896,
        "H": 0.1223702555059553,
        "D": 0.13156999457365998,
        "C": 0.13875120091918589,
        "I": 0.11805671409570183,
        "F": 0.11862025197334518,
        "L": 0.0885048122505737,
        "A": 0.08183199341334178,
        "B": 0.12385407428600649
    },
    "Average_excess_waiting_time": {
        "G": 41.52813653313643,
        "E": 41.18367244403379,
        "J": 40.49173072519818,
        "K": 39.05821493521552,
        "H": 41.1604812655263,
        "D": 42.485794693958155,
        "C": 44.484356305359086,
        "I": 42.02024753927509,
        "F": 41.4913635564497,
        "L": 38.37657313239106,
        "A": 39.83140963061197,
        "B": 44.5589753593261
    },
    "Holding_per_stop": {
        "G": 16.701030927835053,
        "E": 23.195876288659793,
        "K": 12.061855670103093,
        "D": 2.783505154639175,
        "H": 2.1649484536082473,
        "J": 10.824742268041238,
        "L": 8.65979381443299,
        "C": 1.5625,
        "F": 7.422680412371134,
        "I": 24.0625,
        "A": 3.0927835051546393,
        "B": 1.25
    },
    "Actions_tfl_edges": {},
    "Load_per_bus_per_stop": {
        "bus3": {
            "G": 119.52941176470588,
            "H": 125.3529411764706,
            "I": 123.29411764705883,
            "J": 116.0625,
            "K": 105.875,
            "L": 96.5,
            "A": 88.5625,
            "B": 80.75,
            "C": 74.625,
            "D": 71.9375,
            "E": 73.3125,
            "F": 95.5
        },
        "bus2": {
            "E": 70.88235294117646,
            "F": 91.82352941176471,
            "G": 126.375,
            "H": 135.9375,
            "I": 130.6875,
            "J": 127.25,
            "K": 119.625,
            "L": 110.3125,
            "A": 100.0625,
            "B": 88.875,
            "C": 81.875,
            "D": 77.875
        },
        "bus4": {
            "J": 115.05882352941177,
            "K": 107.41176470588235,
            "L": 97.8125,
            "A": 89.4375,
            "B": 82.625,
            "C": 77.9375,
            "D": 73.625,
            "E": 71.25,
            "F": 94.125,
            "G": 124.25,
            "H": 131.1875,
            "I": 128.125
        },
        "bus5": {
            "K": 106.05882352941177,
            "L": 96.47058823529412,
            "A": 87.76470588235294,
            "B": 80.75,
            "C": 75.4375,
            "D": 72.125,
            "E": 73.0625,
            "F": 94.9375,
            "G": 126.5,
            "H": 133.625,
            "I": 127.9375,
            "J": 121.125
        },
        "bus1": {
            "D": 73.41176470588235,
            "E": 71.75,
            "F": 95.875,
            "G": 128.75,
            "H": 136.9375,
            "I": 133.375,
            "J": 128.125,
            "K": 120.125,
            "L": 108.875,
            "A": 97.625,
            "B": 88.625,
            "C": 82
        },
        "bus0": {
            "C": 78.4375,
            "D": 74.5625,
            "E": 74.375,
            "F": 97.3125,
            "G": 128.625,
            "H": 137.4375,
            "I": 130.75,
            "J": 124.9375,
            "K": 116.4375,
            "L": 107.3125,
            "A": 98.25,
            "B": 89.375
        }
    }
}