{
    "Average_holding_time": 11.502183406113538,
    "Average_travel_time_passengers": 2624.1175251188647,
    "Average_speed_busses": 0.04770833333333333,
    "Average_experienced_crowding": 109.26399808365952,
    "Average_covariation_headway": 0.2529047255608084,
    "Average_covariation_headway_stops": {
        "H": 0.20361097104715872,
        "G": 0.1814851551241511,
        "J": 0.1745796317210684,
        "L": 0.1425422224451632,
        "I": 0.1871343546568368,
        "D": 0.14731213794722917,
        "A": 0.13320809154738916,
        "K": 0.1451889008151108,
        "E": 0.14280605827387763,
        "B": 0.1073557146641432,
        "F": 0.14520724570473217,
        "C": 0.13168810375125245
    },
    "Average_excess_waiting_time": {
        "H": 52.64923552000107,
        "G": 52.1675289961471,
        "J": 48.72632905966361,
        "L": 45.51269037596336,
        "I": 52.00848059231845,
        "D": 47.52833678632936,
        "A": 43.25288624907654,
        "K": 47.32056012343577,
        "E": 48.51585683664695,
        "B": 43.56358976378158,
        "F": 50.64852407964207,
        "C": 47.64951808394818
    },
    "Holding_per_stop": {
        "H": 4.6875,
        "J": 12.1875,
        "G": 14.210526315789474,
        "I": 27.789473684210527,
        "A": 9.6875,
        "D": 1.25,
        "L": 13.4375,
        "K": 12.947368421052632,
        "E": 24,
        "B": 1.25,
        "F": 14.042553191489361,
        "C": 2.8421052631578947
    },
    "Actions_tfl_edges": {},
    "Load_per_bus_per_stop": {
        "bus2": {
            "H": 130.75,
            "I": 124.5625,
            "J": 117.75,
            "K": 109.125,
            "L": 100.6875,
            "A": 89.1875,
            "B": 79.875,
            "C": 74.0625,
            "D": 73.4375,
            "E": 74.625,
            "F": 96.625,
            "G": 130.2
        },
        "bus1": {
            "G": 128.5625,
            "H": 137.125,
            "I": 135.75,
            "J": 127.4375,
            "K": 118.25,
            "L": 107.5,
            "A": 97.1875,
            "B": 86.5625,
            "C": 79.625,
            "D": 78.125,
            "E": 77.26666666666667,
            "F": 103.66666666666667
        },
        "bus3": {
            "J": 120.25,
            "K": 112,
            "L": 102.25,
            "A": 92.5625,
            "B": 83.75,
            "C": 79.1875,
            "D": 74.5625,
            "E": 73.125,
            "F": 95.9375,
            "G": 130,
            "H": 139.4375,
            "I": 136.9375
        },
        "bus4": {
            "L": 90.3125,
            "A": 81.6875,
            "B": 73.8125,
            "C": 69.0625,
            "D": 66.8125,
            "E": 65.625,
            "F": 87.3125,
            "G": 116.1875,
            "H": 125.9375,
            "I": 121.75,
            "J": 114.8125,
            "K": 106.375
        },
        "bus0": {
            "D": 78.75,
            "E": 79.8125,
            "F": 105.8125,
            "G": 140.3125,
            "H": 146.8125,
            "I": 142.5,
            "J": 133.5,
            "K": 123.25,
            "L": 111.625,
            "A": 101.375,
            "B": 91.75,
            "C": 85.93333333333334
        },
        "bus5": {
            "A": 94.05882352941177,
            "B": 85.875,
            "C": 79.125,
            "D": 76.9375,
            "E": 77.125,
            "F": 103.3125,
            "G": 137.9375,
            "H": 146.1875,
            "I": 140.5625,
            "J": 133.375,
            "K": 123.75,
            "L": 111.5
        }
    }
}   "L": 105.875,
            "A": 95.875,
            "B": 88.1875
        }
    }
}    }
    }
}