{
    "Average_holding_time": 11.796875,
    "Average_travel_time_passengers": 2606.924313231561,
    "Average_speed_busses": 0.048,
    "Average_experienced_crowding": 104.06787258022082,
    "Average_covariation_headway": 0.22642809538524297,
    "Average_covariation_headway_stops": {
        "I": 0.13441855823446183,
        "E": 0.10081865790432142,
        "K": 0.0925398873319228,
        "D": 0.09491791156344517,
        "B": 0.07947171416220908,
        "C": 0.07553296026410965,
        "L": 0.06792084004700187,
        "F": 0.08621248088544357,
        "J": 0.0856335680431976,
        "G": 0.0842771975088707,
        "A": 0.06709700793218973,
        "H": 0.09488678576748165
    },
    "Average_excess_waiting_time": {
        "I": 43.50644967135162,
        "E": 39.28863491447083,
        "K": 40.71304309816935,
        "D": 40.639335592208056,
        "B": 42.315082253655646,
        "C": 41.22065519996062,
        "L": 40.93715902129691,
        "F": 40.135903177406306,
        "J": 42.00456558593805,
        "G": 41.15213162816457,
        "A": 42.920347872563354,
        "H": 42.9969054331097
    },
    "Holding_per_stop": {
        "K": 11.875,
        "E": 22.2680412371134,
        "I": 23.75,
        "D": 2.1875,
        "C": 2.1875,
        "B": 2.5,
        "L": 12.5,
        "F": 13.75,
        "J": 17.1875,
        "G": 25,
        "A": 6.631578947368421,
        "H": 1.5625
    },
    "Actions_tfl_edges": {},
    "Load_per_bus_per_stop": {
        "bus4": {
            "I": 122.625,
            "J": 116.625,
            "K": 108.9375,
            "L": 99.875,
            "A": 91.1875,
            "B": 82.1875,
            "C": 79,
            "D": 75.0625,
            "E": 73.0625,
            "F": 94.5,
            "G": 128.75,
            "H": 135
        },
        "bus3": {
            "E": 70.88235294117646,
            "F": 92.4375,
            "G": 123.0625,
            "H": 131.125,
            "I": 128.375,
            "J": 123.0625,
            "K": 115.5625,
            "L": 105.25,
            "A": 95.5625,
            "B": 87.4375,
            "C": 81.25,
            "D": 74.375
        },
        "bus5": {
            "K": 110.5625,
            "L": 100.125,
            "A": 89.875,
            "B": 80,
            "C": 75.4375,
            "D": 73.5,
            "E": 73.5,
            "F": 99.125,
            "G": 133.875,
            "H": 140.0625,
            "I": 135.1875,
            "J": 126.6875
        },
        "bus2": {
            "D": 69.5625,
            "E": 69.25,
            "F": 89.0625,
            "G": 118.375,
            "H": 123.875,
            "I": 121.375,
            "J": 118.0625,
            "K": 109.5625,
            "L": 100.5,
            "A": 92.1875,
            "B": 83.1875,
            "C": 76.5
        },
        "bus0": {
            "B": 77.75,
            "C": 72.0625,
            "D": 70.375,
            "E": 69.8125,
            "F": 92.6875,
            "G": 123,
            "H": 130.25,
            "I": 128.75,
            "J": 122.25,
            "K": 114.3125,
            "L": 103.375,
            "A": 91.86666666666666
        },
        "bus1": {
            "C": 74.8125,
            "D": 70.9375,
            "E": 69.625,
            "F": 92.375,
            "G": 123.3125,
            "H": 133.1875,
            "I": 129.9375,
            "J": 123.25,
            "K": 115.125,
            "L": 104.75,
            "A": 93.8125,
            "B": 83.1875
        }
    }
}