{
    "Average_holding_time": 8.96640826873385,
    "Average_travel_time_passengers": 2589.374726632917,
    "Average_speed_busses": 0.048375,
    "Average_experienced_crowding": 104.80548816989469,
    "Average_covariation_headway": 0.23398132800474544,
    "Average_covariation_headway_stops": {
        "F": 0.10982550261610476,
        "J": 0.1146053125206066,
        "D": 0.10767170312665263,
        "A": 0.10249466743993464,
        "B": 0.09122489017695615,
        "C": 0.09342920356296186,
        "G": 0.10106294818848523,
        "K": 0.08666169076768279,
        "E": 0.10101002095343949,
        "H": 0.09102083168022555,
        "I": 0.1046874241447682,
        "L": 0.08641563218084274
    },
    "Average_excess_waiting_time": {
        "F": 37.87355583365735,
        "J": 40.37000811768593,
        "D": 37.86606949293861,
        "A": 40.97593978821078,
        "B": 39.476321961192696,
        "C": 38.41508115397846,
        "G": 38.71528139510684,
        "K": 40.15304107347146,
        "E": 38.99319401110603,
        "H": 39.29867624259458,
        "I": 41.13067874148663,
        "L": 41.57901489068064
    },
    "Holding_per_stop": {
        "F": 11.1340206185567,
        "J": 7.422680412371134,
        "D": 2.4489795918367347,
        "B": 1.2371134020618557,
        "C": 0,
        "A": 8.125,
        "G": 13.29896907216495,
        "E": 20.412371134020617,
        "K": 10,
        "H": 1.8556701030927836,
        "I": 25.625,
        "L": 6.25
    },
    "Actions_tfl_edges": {},
    "Load_per_bus_per_stop": {
        "bus3": {
            "F": 95,
            "G": 125.17647058823529,
            "H": 135.52941176470588,
            "I": 131.0625,
            "J": 125.5625,
            "K": 118.4375,
            "L": 108.125,
            "A": 100.375,
            "B": 90,
            "C": 83.75,
            "D": 78.8125,
            "E": 78.75
        },
        "bus4": {
            "J": 123.94117647058823,
            "K": 116.41176470588235,
            "L": 104.625,
            "A": 95.4375,
            "B": 85.1875,
            "C": 78.3125,
            "D": 78.0625,
            "E": 76.5,
            "F": 98.625,
            "G": 131.125,
            "H": 140.4375,
            "I": 136.8125
        },
        "bus2": {
            "D": 72.58823529411765,
            "E": 71.47058823529412,
            "F": 93.29411764705883,
            "G": 124.5625,
            "H": 133.625,
            "I": 130.375,
            "J": 125.0625,
            "K": 117.4375,
            "L": 106.6875,
            "A": 96.5625,
            "B": 87.25,
            "C": 79
        },
        "bus5": {
            "A": 89.25,
            "B": 81.4375,
            "C": 76.9375,
            "D": 76.625,
            "E": 76.4375,
            "F": 95.9375,
            "G": 128.3125,
            "H": 134.9375,
            "I": 131,
            "J": 121.1875,
            "K": 112.0625,
            "L": 102.625
        },
        "bus0": {
            "B": 78.88235294117646,
            "C": 72.0625,
            "D": 68.1875,
            "E": 66.375,
            "F": 89.625,
            "G": 120.25,
            "H": 127,
            "I": 124.4375,
            "J": 118.8125,
            "K": 110.375,
            "L": 100.75,
            "A": 93.125
        },
        "bus1": {
            "C": 70,
            "D": 68.11764705882354,
            "E": 68.125,
            "F": 90.25,
            "G": 118.25,
            "H": 124.1875,
            "I": 119.0625,
            "J": 113,
            "K": 105.875,
            "L": 97.0625,
            "A": 88.5625,
            "B": 78.0625
        }
    }
}