{
    "Average_holding_time": 15.198237885462555,
    "Average_travel_time_passengers": 2660.560519893477,
    "Average_speed_busses": 0.04729166666666667,
    "Average_experienced_crowding": 109.14309563477121,
    "Average_covariation_headway": 0.2593230960167771,
    "Average_covariation_headway_stops": {
        "H": 0.20631307928299528,
        "I": 0.21292664081326365,
        "J": 0.20053714562099567,
        "L": 0.16172908072885114,
        "D": 0.15214532942537556,
        "A": 0.14771728480982865,
        "K": 0.16829532538291234,
        "E": 0.15442087079513875,
        "B": 0.1300011210403084,
        "F": 0.14524833223284314,
        "C": 0.1392830223837297,
        "G": 0.16997568533538882
    },
    "Average_excess_waiting_time": {
        "H": 59.20530678739232,
        "I": 57.77657957995393,
        "J": 54.56579681906527,
        "L": 50.114416122099954,
        "D": 50.678555742052424,
        "A": 47.27261267822183,
        "K": 52.56631523009128,
        "E": 52.3897415289357,
        "B": 48.08512093464816,
        "F": 53.43575302958328,
        "C": 51.0637863840559,
        "G": 57.12755165060247
    },
    "Holding_per_stop": {
        "I": 27.157894736842106,
        "J": 26.842105263157894,
        "H": 5.425531914893617,
        "D": 3.1578947368421053,
        "A": 7.5,
        "L": 17.36842105263158,
        "K": 15.157894736842104,
        "E": 32.87234042553192,
        "B": 3.473684210526316,
        "F": 13.72340425531915,
        "C": 4.148936170212766,
        "G": 25.806451612903224
    },
    "Actions_tfl_edges": {},
    "Load_per_bus_per_stop": {
        "bus1": {
            "H": 136,
            "I": 133,
            "J": 127.875,
            "K": 119.125,
            "L": 108.25,
            "A": 96.6875,
            "B": 89.25,
            "C": 81,
            "D": 77.86666666666666,
            "E": 77.33333333333333,
            "F": 99.33333333333333,
            "G": 137.2
        },
        "bus2": {
            "I": 127.125,
            "J": 120.5625,
            "K": 111.4375,
            "L": 101.875,
            "A": 91.9375,
            "B": 82.8125,
            "C": 78.5625,
            "D": 76.3125,
            "E": 78.33333333333333,
            "F": 102.06666666666666,
            "G": 131.73333333333332,
            "H": 139.73333333333332
        },
        "bus3": {
            "J": 113.875,
            "K": 105.9375,
            "L": 96.5,
            "A": 86.5625,
            "B": 77.6875,
            "C": 72.4375,
            "D": 71.25,
            "E": 70.8125,
            "F": 91.5,
            "G": 121.86666666666666,
            "H": 131.33333333333334,
            "I": 128.2
        },
        "bus4": {
            "L": 88.4375,
            "A": 79.8125,
            "B": 74,
            "C": 68.8125,
            "D": 67.625,
            "E": 68,
            "F": 85.625,
            "G": 112.125,
            "H": 121.4375,
            "I": 117.75,
            "J": 112.86666666666666,
            "K": 104.13333333333334
        },
        "bus0": {
            "D": 79.4375,
            "E": 76.0625,
            "F": 103.1875,
            "G": 140.4375,
            "H": 147.5,
            "I": 142.1875,
            "J": 135.3125,
            "K": 125.875,
            "L": 117.25,
            "A": 106.1875,
            "B": 96.46666666666667,
            "C": 89.46666666666667
        },
        "bus5": {
            "A": 95.5625,
            "B": 85.875,
            "C": 80.4375,
            "D": 77.5,
            "E": 75.25,
            "F": 101.125,
            "G": 135.4375,
            "H": 145.3125,
            "I": 140.5,
            "J": 133.4375,
            "K": 123.3125,
            "L": 112.53333333333333
        }
    }
}