{
    "Average_holding_time": 17.71758436944938,
    "Average_travel_time_passengers": 2707.5337774655254,
    "Average_speed_busses": 0.04691666666666667,
    "Average_experienced_crowding": 112.33080985397693,
    "Average_covariation_headway": 0.31001856948556417,
    "Average_covariation_headway_stops": {
        "H": 0.3378079092385186,
        "G": 0.3065244205155747,
        "K": 0.28641556042315364,
        "L": 0.2727441664582419,
        "I": 0.32014642570698143,
        "A": 0.26201529903476656,
        "B": 0.25368691731984605,
        "J": 0.304149608128416,
        "C": 0.2316066994571414,
        "D": 0.22793710684585633,
        "E": 0.24324649027766976,
        "F": 0.26366406839916756
    },
    "Average_excess_waiting_time": {
        "H": 81.68522387495568,
        "G": 77.79716045700127,
        "K": 72.86056520368334,
        "L": 68.67130776998044,
        "I": 79.33930473450226,
        "A": 65.25563882297382,
        "B": 62.86945512820904,
        "J": 78.09593994742636,
        "C": 62.019889619384,
        "D": 63.4212415442077,
        "E": 67.41956984135174,
        "F": 72.50582652541692
    },
    "Holding_per_stop": {
        "H": 10.851063829787234,
        "I": 27.127659574468087,
        "L": 16.27659574468085,
        "G": 32.58064516129032,
        "A": 8.842105263157896,
        "B": 6,
        "K": 20.425531914893618,
        "J": 21.29032258064516,
        "C": 10.851063829787234,
        "D": 8.297872340425531,
        "E": 28.06451612903226,
        "F": 22.580645161290324
    },
    "Actions_tfl_edges": {},
    "Load_per_bus_per_stop": {
        "bus2": {
            "H": 131.625,
            "I": 127.875,
            "J": 120.25,
            "K": 111.8125,
            "L": 100.9375,
            "A": 93.1875,
            "B": 84.875,
            "C": 79.2,
            "D": 76.53333333333333,
            "E": 73.6,
            "F": 98.73333333333333,
            "G": 133.8
        },
        "bus1": {
            "G": 135.25,
            "H": 141.9375,
            "I": 139.8125,
            "J": 132.0625,
            "K": 123.625,
            "L": 113.0625,
            "A": 100.1875,
            "B": 91,
            "C": 87.13333333333334,
            "D": 82.2,
            "E": 83.13333333333334,
            "F": 108.4
        },
        "bus3": {
            "K": 106.875,
            "L": 98.5,
            "A": 90.0625,
            "B": 80.625,
            "C": 76.5,
            "D": 74.125,
            "E": 72.4,
            "F": 95,
            "G": 123.93333333333334,
            "H": 132.6,
            "I": 128.86666666666667,
            "J": 123
        },
        "bus4": {
            "L": 90.875,
            "A": 83.4375,
            "B": 76,
            "C": 68.875,
            "D": 67.125,
            "E": 68.3125,
            "F": 87.9375,
            "G": 117.8,
            "H": 126.53333333333333,
            "I": 123.6,
            "J": 115.53333333333333,
            "K": 107
        },
        "bus5": {
            "A": 85.5,
            "B": 78.9375,
            "C": 74.375,
            "D": 71.75,
            "E": 68,
            "F": 88,
            "G": 116.5,
            "H": 124.25,
            "I": 121.75,
            "J": 115.06666666666666,
            "K": 108.06666666666666,
            "L": 99.8
        },
        "bus0": {
            "B": 92.1875,
            "C": 89.4375,
            "D": 86.125,
            "E": 85.25,
            "F": 109.1875,
            "G": 145.375,
            "H": 152.5,
            "I": 149.8125,
            "J": 142.5,
            "K": 133.875,
            "L": 120.8,
            "A": 109.6
        }
    }
}