{
    "Average_holding_time": 11.29228100607112,
    "Average_travel_time_passengers": 2627.5964933889136,
    "Average_speed_busses": 0.04804166666666667,
    "Average_experienced_crowding": 105.72294688866337,
    "Average_covariation_headway": 0.22550068011875588,
    "Average_covariation_headway_stops": {
        "G": 0.12902268218489446,
        "I": 0.12452533375247546,
        "K": 0.0974694464689905,
        "L": 0.10388319553647087,
        "D": 0.08699963410421775,
        "B": 0.0755758229145771,
        "H": 0.10565222405058686,
        "J": 0.08505456680232941,
        "A": 0.0701317149177879,
        "E": 0.06511993296582151,
        "C": 0.06252719378662343,
        "F": 0.07791551996044245
    },
    "Average_excess_waiting_time": {
        "G": 44.36845692975214,
        "I": 43.235363283975005,
        "K": 41.28371304808945,
        "L": 39.92236680452601,
        "D": 40.23331662228486,
        "B": 39.10510257936352,
        "H": 44.07317661628616,
        "J": 42.28888262080352,
        "A": 40.01046937643969,
        "E": 40.958528920915,
        "C": 40.56912258775759,
        "F": 43.262991124678706
    },
    "Holding_per_stop": {
        "I": 24.6875,
        "L": 14.536082474226804,
        "K": 10.3125,
        "G": 19.6875,
        "D": 3.125,
        "B": 0.9278350515463918,
        "J": 21.875,
        "A": 5,
        "H": 2.5,
        "E": 24.375,
        "C": 0.3125,
        "F": 8.210526315789474
    },
    "Actions_tfl_edges": {},
    "Load_per_bus_per_stop": {
        "bus2": {
            "G": 121.625,
            "H": 129.9375,
            "I": 127.1875,
            "J": 124.9375,
            "K": 117.3125,
            "L": 106,
            "A": 98.0625,
            "B": 90.875,
            "C": 84,
            "D": 79.5,
            "E": 77.0625,
            "F": 99
        },
        "bus3": {
            "I": 121.625,
            "J": 116.3125,
            "K": 110.3125,
            "L": 100.75,
            "A": 89.6875,
            "B": 81.4375,
            "C": 76.6875,
            "D": 74.625,
            "E": 71.25,
            "F": 93.6875,
            "G": 125.1875,
            "H": 133.625
        },
        "bus4": {
            "K": 106.375,
            "L": 97.6875,
            "A": 88.375,
            "B": 78.75,
            "C": 73.8125,
            "D": 70.1875,
            "E": 70.4375,
            "F": 94.5,
            "G": 126.9375,
            "H": 134.5,
            "I": 131.1875,
            "J": 122.9375
        },
        "bus5": {
            "L": 95.3529411764706,
            "A": 84.9375,
            "B": 78.125,
            "C": 73.875,
            "D": 70.6875,
            "E": 70.75,
            "F": 92.8125,
            "G": 124.25,
            "H": 129.8125,
            "I": 126.5,
            "J": 119.75,
            "K": 111.4375
        },
        "bus1": {
            "D": 75.17647058823529,
            "E": 76.6875,
            "F": 98.1875,
            "G": 134.6875,
            "H": 145.3125,
            "I": 140.5,
            "J": 130.8125,
            "K": 120.875,
            "L": 109.75,
            "A": 98.5625,
            "B": 90.375,
            "C": 83.5625
        },
        "bus0": {
            "B": 78.76470588235294,
            "C": 74,
            "D": 72.0625,
            "E": 69.5625,
            "F": 93,
            "G": 126.75,
            "H": 131.75,
            "I": 125.125,
            "J": 120.0625,
            "K": 112.6875,
            "L": 102.75,
            "A": 93.5625
        }
    }
}