{
    "Average_holding_time": 14.85513608428446,
    "Average_travel_time_passengers": 2632.2445102084744,
    "Average_speed_busses": 0.04745833333333333,
    "Average_experienced_crowding": 104.44284063649854,
    "Average_covariation_headway": 0.22175280094542493,
    "Average_covariation_headway_stops": {
        "G": 0.11575087605213466,
        "J": 0.10462516703939198,
        "L": 0.08646755240248993,
        "D": 0.08212776791538116,
        "A": 0.07928072021077326,
        "C": 0.06709740915701383,
        "H": 0.09477161823989923,
        "K": 0.07241226485654904,
        "E": 0.07053859315805419,
        "B": 0.053204519016906954,
        "I": 0.08275925540151319,
        "F": 0.06770232980926738
    },
    "Average_excess_waiting_time": {
        "G": 45.86602214207318,
        "J": 46.016384248011946,
        "L": 45.12420181197888,
        "D": 42.67291458311843,
        "A": 43.06459361906428,
        "C": 43.480744513405,
        "H": 45.86806961960389,
        "K": 45.922079080999936,
        "E": 43.807438909281586,
        "B": 44.255571277329864,
        "I": 46.365147258611785,
        "F": 45.19259184894332
    },
    "Holding_per_stop": {
        "G": 23.36842105263158,
        "J": 28.736842105263158,
        "D": 0,
        "A": 12.31578947368421,
        "L": 15.473684210526315,
        "C": 0.3157894736842105,
        "H": 2.8421052631578947,
        "E": 35.36842105263158,
        "B": 1.5789473684210527,
        "K": 25.851063829787233,
        "I": 24.893617021276597,
        "F": 7.894736842105263
    },
    "Actions_tfl_edges": {},
    "Load_per_bus_per_stop": {
        "bus2": {
            "G": 121.5625,
            "H": 128.6875,
            "I": 123.5625,
            "J": 116.75,
            "K": 111.3125,
            "L": 101.25,
            "A": 93.3125,
            "B": 84.0625,
            "C": 78.25,
            "D": 72.9375,
            "E": 73,
            "F": 99.46666666666667
        },
        "bus3": {
            "J": 112.875,
            "K": 104.5625,
            "L": 96.4375,
            "A": 87.1875,
            "B": 78.3125,
            "C": 74.9375,
            "D": 71.4375,
            "E": 69.625,
            "F": 91.1875,
            "G": 121.33333333333333,
            "H": 127.8,
            "I": 125.93333333333334
        },
        "bus4": {
            "L": 99.0625,
            "A": 90.1875,
            "B": 80.8125,
            "C": 73.875,
            "D": 72,
            "E": 71.4375,
            "F": 93.6875,
            "G": 125.625,
            "H": 133.25,
            "I": 131.1875,
            "J": 125.8,
            "K": 115.73333333333333
        },
        "bus1": {
            "D": 74.1875,
            "E": 73.1875,
            "F": 94.8125,
            "G": 125.4375,
            "H": 134.8125,
            "I": 131.9375,
            "J": 125.125,
            "K": 116.375,
            "L": 105.5625,
            "A": 95.5625,
            "B": 86.1875,
            "C": 80.6
        },
        "bus5": {
            "A": 92.9375,
            "B": 81.4375,
            "C": 77.25,
            "D": 74.25,
            "E": 74.1875,
            "F": 99.375,
            "G": 131.875,
            "H": 139.125,
            "I": 134.875,
            "J": 128.3125,
            "K": 117.875,
            "L": 107.06666666666666
        },
        "bus0": {
            "C": 71.6875,
            "D": 70,
            "E": 68.6875,
            "F": 92.75,
            "G": 125.875,
            "H": 132.5625,
            "I": 127.8125,
            "J": 121.0625,
            "K": 111.0625,
            "L": 99.6875,
            "A": 89.66666666666667,
            "B": 80.6
        }
    }
}