{
    "Average_holding_time": 12.349869451697128,
    "Average_travel_time_passengers": 2619.6179239447465,
    "Average_speed_busses": 0.047875,
    "Average_experienced_crowding": 106.21447379299882,
    "Average_covariation_headway": 0.23635566983591388,
    "Average_covariation_headway_stops": {
        "I": 0.14170356202486076,
        "E": 0.12619513582172986,
        "J": 0.12989633891710162,
        "K": 0.11416617766837092,
        "D": 0.1220454077198914,
        "C": 0.13159180538566254,
        "L": 0.07827584962606421,
        "F": 0.11005376606569509,
        "G": 0.09904906558465176,
        "A": 0.07399816163858407,
        "H": 0.10504942229624756,
        "B": 0.11604681288633975
    },
    "Average_excess_waiting_time": {
        "I": 46.71426509298999,
        "E": 43.4589307952005,
        "J": 44.25793387641801,
        "K": 41.26877919557046,
        "D": 44.92412412038226,
        "C": 47.191971385050465,
        "L": 40.76876514855269,
        "F": 43.775922419859455,
        "G": 44.42008588991126,
        "A": 42.47492594883005,
        "H": 46.044014856114586,
        "B": 47.13525808055897
    },
    "Holding_per_stop": {
        "K": 12.061855670103093,
        "E": 24.0625,
        "J": 15.625,
        "I": 25.3125,
        "D": 5.625,
        "L": 11.875,
        "C": 2.210526315789474,
        "F": 16.5625,
        "A": 4.375,
        "G": 26.526315789473685,
        "H": 2.210526315789474,
        "B": 1.5789473684210527
    },
    "Actions_tfl_edges": {},
    "Load_per_bus_per_stop": {
        "bus3": {
            "I": 123.1875,
            "J": 119.9375,
            "K": 111.6875,
            "L": 102.4375,
            "A": 93.1875,
            "B": 82.875,
            "C": 76.3125,
            "D": 72.6875,
            "E": 71.75,
            "F": 97.75,
            "G": 127.46666666666667,
            "H": 133.66666666666666
        },
        "bus2": {
            "E": 71.875,
            "F": 93.9375,
            "G": 125.3125,
            "H": 136.8125,
            "I": 132.625,
            "J": 127.6875,
            "K": 118.5,
            "L": 108.8125,
            "A": 98.0625,
            "B": 89.25,
            "C": 84.125,
            "D": 79.0625
        },
        "bus4": {
            "J": 113.1875,
            "K": 106.875,
            "L": 96.9375,
            "A": 87.875,
            "B": 79.3125,
            "C": 73.375,
            "D": 70.6875,
            "E": 68.875,
            "F": 91.8125,
            "G": 123.75,
            "H": 130.4375,
            "I": 126.25
        },
        "bus5": {
            "K": 114.88235294117646,
            "L": 105.625,
            "A": 96.4375,
            "B": 88.0625,
            "C": 84.0625,
            "D": 81.375,
            "E": 81.25,
            "F": 105.0625,
            "G": 136.75,
            "H": 143.6875,
            "I": 140.875,
            "J": 133.5625
        },
        "bus1": {
            "D": 70.75,
            "E": 68.625,
            "F": 90.625,
            "G": 120.375,
            "H": 129.5,
            "I": 126.625,
            "J": 122.375,
            "K": 114.6875,
            "L": 103.5,
            "A": 94.6875,
            "B": 85.4375,
            "C": 80.4
        },
        "bus0": {
            "C": 73.0625,
            "D": 71.1875,
            "E": 70.375,
            "F": 92.5,
            "G": 126.6875,
            "H": 133.75,
            "I": 129.75,
            "J": 121.375,
            "K": 113,
            "L": 102.1875,
            "A": 91.625,
            "B": 82.46666666666667
        }
    }
}