{
    "Average_holding_time": 16.79362267493357,
    "Average_travel_time_passengers": 2665.9028237467305,
    "Average_speed_busses": 0.04704166666666667,
    "Average_experienced_crowding": 110.63420698265959,
    "Average_covariation_headway": 0.2947971128369576,
    "Average_covariation_headway_stops": {
        "H": 0.29844331197991253,
        "I": 0.3109084472122627,
        "K": 0.2661809843928237,
        "L": 0.2554387292503772,
        "B": 0.21414502809432417,
        "C": 0.19661087916291548,
        "J": 0.2855913227013202,
        "A": 0.2214511930369142,
        "D": 0.18106307960895054,
        "E": 0.18287032987622134,
        "F": 0.19603036184162625,
        "G": 0.23420159675436308
    },
    "Average_excess_waiting_time": {
        "H": 75.34225089036067,
        "I": 75.27106901724875,
        "K": 67.20456252470183,
        "L": 63.47727993574779,
        "B": 58.279856326676054,
        "C": 54.683353075095454,
        "J": 72.5798688254792,
        "A": 60.528862751178394,
        "D": 54.82917675010145,
        "E": 56.6832698371465,
        "F": 59.75682354189371,
        "G": 66.89143956853962
    },
    "Holding_per_stop": {
        "I": 29.04255319148936,
        "H": 8.936170212765957,
        "L": 20.210526315789473,
        "K": 15,
        "C": 6.315789473684211,
        "B": 10.105263157894736,
        "J": 22.659574468085108,
        "A": 7.9787234042553195,
        "D": 5.1063829787234045,
        "E": 29.361702127659573,
        "F": 20.322580645161292,
        "G": 26.774193548387096
    },
    "Actions_tfl_edges": {},
    "Load_per_bus_per_stop": {
        "bus2": {
            "H": 135.625,
            "I": 131.875,
            "J": 125.375,
            "K": 118.3125,
            "L": 109,
            "A": 99.875,
            "B": 88.8125,
            "C": 82.6,
            "D": 76.06666666666666,
            "E": 73.4,
            "F": 96,
            "G": 132.13333333333333
        },
        "bus3": {
            "I": 128.125,
            "J": 123.875,
            "K": 115.125,
            "L": 104.8125,
            "A": 94.3125,
            "B": 86.4375,
            "C": 78.75,
            "D": 73.6,
            "E": 72.4,
            "F": 96.66666666666667,
            "G": 131.53333333333333,
            "H": 140.46666666666667
        },
        "bus4": {
            "K": 102.625,
            "L": 94.375,
            "A": 84.8125,
            "B": 74.9375,
            "C": 71,
            "D": 67.9375,
            "E": 68.625,
            "F": 90.9375,
            "G": 118.73333333333333,
            "H": 125.06666666666666,
            "I": 122.2,
            "J": 117.2
        },
        "bus5": {
            "L": 95.875,
            "A": 86.125,
            "B": 78.375,
            "C": 73.75,
            "D": 70.6875,
            "E": 70.375,
            "F": 95.125,
            "G": 126.5,
            "H": 132.125,
            "I": 127.26666666666667,
            "J": 119.53333333333333,
            "K": 110.46666666666667
        },
        "bus0": {
            "B": 74.8125,
            "C": 70.4375,
            "D": 65.8125,
            "E": 64,
            "F": 86.75,
            "G": 119.0625,
            "H": 124.375,
            "I": 120.6875,
            "J": 115.125,
            "K": 105.66666666666667,
            "L": 95.86666666666666,
            "A": 86.93333333333334
        },
        "bus1": {
            "C": 84.0625,
            "D": 79.8125,
            "E": 80.0625,
            "F": 105.375,
            "G": 142.1875,
            "H": 153.9375,
            "I": 151,
            "J": 142,
            "K": 132.25,
            "L": 120.4375,
            "A": 108.6,
            "B": 96.6
        }
    }
}