{
    "Average_holding_time": 13.452797202797203,
    "Average_travel_time_passengers": 2624.413498553185,
    "Average_speed_busses": 0.04766666666666667,
    "Average_experienced_crowding": 106.01200591110927,
    "Average_covariation_headway": 0.23587049249027645,
    "Average_covariation_headway_stops": {
        "I": 0.14934783051209433,
        "E": 0.1271075224434242,
        "K": 0.11120953560116545,
        "L": 0.11015444760534018,
        "D": 0.12789970307090445,
        "A": 0.10265292397999098,
        "F": 0.1044551381640704,
        "J": 0.10812245574937705,
        "B": 0.07962312731054229,
        "G": 0.11212308749420818,
        "H": 0.11871025433099032,
        "C": 0.1053021244228857
    },
    "Average_excess_waiting_time": {
        "I": 49.00648547427022,
        "E": 44.60928728031348,
        "K": 45.68530812494561,
        "L": 43.94615034932167,
        "D": 46.47261306533568,
        "A": 42.00682242032184,
        "F": 44.82962673279707,
        "J": 47.2484108498208,
        "B": 42.85709475951944,
        "G": 46.462562951105326,
        "H": 48.487707177359596,
        "C": 46.385100966301934
    },
    "Holding_per_stop": {
        "E": 27.5,
        "L": 14.375,
        "A": 7.1875,
        "I": 22.736842105263158,
        "K": 16.105263157894736,
        "D": 6.947368421052632,
        "F": 17.05263157894737,
        "B": 3.4375,
        "J": 17.05263157894737,
        "G": 24.94736842105263,
        "H": 3.473684210526316,
        "C": 0.631578947368421
    },
    "Actions_tfl_edges": {},
    "Load_per_bus_per_stop": {
        "bus2": {
            "I": 124.75,
            "J": 118.75,
            "K": 111.4375,
            "L": 102.125,
            "A": 94.375,
            "B": 85.875,
            "C": 78.75,
            "D": 73.875,
            "E": 72.1875,
            "F": 94.73333333333333,
            "G": 127,
            "H": 137.46666666666667
        },
        "bus1": {
            "E": 73.625,
            "F": 94.5625,
            "G": 126.3125,
            "H": 136.4375,
            "I": 130.75,
            "J": 124.625,
            "K": 115.8125,
            "L": 106.0625,
            "A": 98.6875,
            "B": 89.0625,
            "C": 83,
            "D": 79.46666666666667
        },
        "bus3": {
            "K": 103.4375,
            "L": 94,
            "A": 85.0625,
            "B": 78.3125,
            "C": 74,
            "D": 72.5625,
            "E": 72.25,
            "F": 92.8125,
            "G": 123.5625,
            "H": 128.375,
            "I": 123.6,
            "J": 118
        },
        "bus4": {
            "L": 94.5625,
            "A": 87,
            "B": 79.5,
            "C": 73.8125,
            "D": 70.4375,
            "E": 68.0625,
            "F": 91.3125,
            "G": 124.375,
            "H": 132.6875,
            "I": 127.875,
            "J": 121,
            "K": 110
        },
        "bus0": {
            "D": 76,
            "E": 74.875,
            "F": 96.25,
            "G": 132.625,
            "H": 141.5625,
            "I": 137.0625,
            "J": 130.8125,
            "K": 120.9375,
            "L": 110.3125,
            "A": 99.3125,
            "B": 87.875,
            "C": 82.53333333333333
        },
        "bus5": {
            "A": 90.625,
            "B": 82,
            "C": 76.75,
            "D": 73.4375,
            "E": 73.75,
            "F": 98,
            "G": 131,
            "H": 138.5,
            "I": 134.5,
            "J": 126.5625,
            "K": 117.0625,
            "L": 107.625
        }
    }
}      "H": 154.9375,
            "I": 151,
            "J": 142.75,
            "K": 133.06666666666666,
            "L": 119.53333333333333,
            "A": 107.46666666666667
        }
    }
}