{
    "Average_holding_time": 39.195402298850574,
    "Average_travel_time_passengers": 2874.4928027439173,
    "Average_speed_busses": 0.0435,
    "Average_experienced_crowding": 116.0240064875972,
    "Average_covariation_headway": 0.24232098632851537,
    "Average_covariation_headway_stops": {
        "G": 0.1936293785653761,
        "I": 0.19129161675077905,
        "F": 0.16797523928162486,
        "J": 0.1825567907812147,
        "H": 0.18849552534893457,
        "A": 0.13060063914575976,
        "B": 0.11682960143030044,
        "K": 0.14413019637273528,
        "C": 0.08985323085780335,
        "L": 0.12789029603315857,
        "D": 0.10942803459038739,
        "E": 0.14378040925275595
    },
    "Average_excess_waiting_time": {
        "G": 83.19074157918283,
        "I": 81.70164032845292,
        "F": 81.9466010019932,
        "J": 78.99322179748003,
        "H": 84.0984026305942,
        "A": 75.12714448387487,
        "B": 72.62626142134127,
        "K": 76.35094701471604,
        "C": 73.1287090652537,
        "L": 76.70298535002593,
        "D": 76.87124645302106,
        "E": 81.43196241998749
    },
    "Holding_per_stop": {
        "G": 45.172413793103445,
        "J": 58.29545454545455,
        "I": 43.793103448275865,
        "B": 24.545454545454547,
        "F": 37.674418604651166,
        "H": 44.13793103448276,
        "A": 35.51724137931034,
        "K": 34.827586206896555,
        "C": 41.724137931034484,
        "L": 36.206896551724135,
        "D": 8.275862068965518,
        "E": 60.348837209302324
    },
    "Actions_tfl_edges": {},
    "Load_per_bus_per_stop": {
        "bus2": {
            "G": 134.73333333333332,
            "H": 143,
            "I": 139.93333333333334,
            "J": 131.86666666666667,
            "K": 123.33333333333333,
            "L": 112.46666666666667,
            "A": 103.06666666666666,
            "B": 93.5,
            "C": 87.85714285714286,
            "D": 83.85714285714286,
            "E": 80.42857142857143,
            "F": 106.64285714285714
        },
        "bus3": {
            "I": 129.86666666666667,
            "J": 123.8,
            "K": 114.2,
            "L": 105.06666666666666,
            "A": 96.26666666666667,
            "B": 88.86666666666666,
            "C": 82.71428571428571,
            "D": 79.71428571428571,
            "E": 77.28571428571429,
            "F": 100,
            "G": 136.42857142857142,
            "H": 144.78571428571428
        },
        "bus1": {
            "F": 102.73333333333333,
            "G": 138.26666666666668,
            "H": 148.06666666666666,
            "I": 143.33333333333334,
            "J": 134.86666666666667,
            "K": 124.64285714285714,
            "L": 114.14285714285714,
            "A": 103.78571428571429,
            "B": 93.78571428571429,
            "C": 91.21428571428571,
            "D": 86.21428571428571,
            "E": 85.78571428571429
        },
        "bus4": {
            "J": 121.53333333333333,
            "K": 112.8,
            "L": 104.33333333333333,
            "A": 94.33333333333333,
            "B": 84.66666666666667,
            "C": 78,
            "D": 77.46666666666667,
            "E": 74.78571428571429,
            "F": 99.35714285714286,
            "G": 131.92857142857142,
            "H": 141.57142857142858,
            "I": 137.28571428571428
        },
        "bus5": {
            "A": 96.8,
            "B": 88.46666666666667,
            "C": 82.2,
            "D": 76.93333333333334,
            "E": 76.6,
            "F": 99.8,
            "G": 134.78571428571428,
            "H": 139.78571428571428,
            "I": 136.42857142857142,
            "J": 131.07142857142858,
            "K": 122.14285714285714,
            "L": 111.07142857142857
        },
        "bus0": {
            "B": 91.6,
            "C": 84.13333333333334,
            "D": 81.8,
            "E": 82.2,
            "F": 110.06666666666666,
            "G": 147.46666666666667,
            "H": 156.2,
            "I": 150.64285714285714,
            "J": 143.42857142857142,
            "K": 132.71428571428572,
            "L": 120.85714285714286,
            "A": 109.21428571428571
        }
    }
}