{
    "Average_holding_time": 9.13718723037101,
    "Average_travel_time_passengers": 2577.210879922557,
    "Average_speed_busses": 0.04829166666666666,
    "Average_experienced_crowding": 105.43457085149802,
    "Average_covariation_headway": 0.24026518399124402,
    "Average_covariation_headway_stops": {
        "F": 0.11735535537181642,
        "J": 0.12919549933547722,
        "L": 0.11037860441333551,
        "D": 0.11138048586212704,
        "A": 0.10788494320695141,
        "B": 0.10392250771467619,
        "G": 0.12152863648712454,
        "H": 0.11374602413072112,
        "K": 0.09818321979869463,
        "E": 0.10072486756881811,
        "C": 0.09154731262358318,
        "I": 0.12802163111182854
    },
    "Average_excess_waiting_time": {
        "F": 39.91113578510709,
        "J": 42.95695858134786,
        "L": 41.43159752167088,
        "D": 39.72544840731598,
        "A": 40.00856955258587,
        "B": 38.70577852591799,
        "G": 41.43787982873039,
        "H": 42.26865823408224,
        "K": 42.162533678906584,
        "E": 40.5532430405205,
        "C": 40.076407240207175,
        "I": 44.62811937591289
    },
    "Holding_per_stop": {
        "F": 9.278350515463918,
        "A": 7.731958762886598,
        "B": 2.4742268041237114,
        "J": 10,
        "D": 1.8556701030927836,
        "L": 9.896907216494846,
        "G": 11.75257731958763,
        "E": 22.5,
        "H": 2.5,
        "C": 1.2371134020618557,
        "K": 7.8125,
        "I": 22.8125
    },
    "Actions_tfl_edges": {},
    "Load_per_bus_per_stop": {
        "bus2": {
            "F": 94.88235294117646,
            "G": 125.6470588235294,
            "H": 133.375,
            "I": 130.25,
            "J": 123.1875,
            "K": 115.3125,
            "L": 105.625,
            "A": 95.8125,
            "B": 85.3125,
            "C": 79.6875,
            "D": 76.8125,
            "E": 77.5
        },
        "bus3": {
            "J": 117.76470588235294,
            "K": 108.1875,
            "L": 98.625,
            "A": 89.25,
            "B": 80.5625,
            "C": 76.125,
            "D": 73.9375,
            "E": 71.75,
            "F": 97.0625,
            "G": 128,
            "H": 135.4375,
            "I": 131.6875
        },
        "bus4": {
            "L": 97.29411764705883,
            "A": 89.25,
            "B": 80.375,
            "C": 73.8125,
            "D": 69.625,
            "E": 68.25,
            "F": 88.5,
            "G": 121,
            "H": 128.8125,
            "I": 124.625,
            "J": 118.25,
            "K": 111.125
        },
        "bus1": {
            "D": 73.6470588235294,
            "E": 73.58823529411765,
            "F": 96.8125,
            "G": 131.625,
            "H": 140.4375,
            "I": 135.5,
            "J": 126.375,
            "K": 117.125,
            "L": 105.6875,
            "A": 96.8125,
            "B": 87.375,
            "C": 82.0625
        },
        "bus5": {
            "A": 85.82352941176471,
            "B": 74.4375,
            "C": 69.75,
            "D": 66.1875,
            "E": 66.9375,
            "F": 90.625,
            "G": 121.0625,
            "H": 127.3125,
            "I": 123.125,
            "J": 117.25,
            "K": 110.0625,
            "L": 100.5
        },
        "bus0": {
            "B": 79.94117647058823,
            "C": 74.76470588235294,
            "D": 72.25,
            "E": 71.4375,
            "F": 97,
            "G": 133.125,
            "H": 141.3125,
            "I": 135.375,
            "J": 128.3125,
            "K": 119.6875,
            "L": 108.3125,
            "A": 96.625
        }
    }
}