{
    "Average_holding_time": 13.773087071240106,
    "Average_travel_time_passengers": 2635.0853385403893,
    "Average_speed_busses": 0.047375,
    "Average_experienced_crowding": 108.24107616319924,
    "Average_covariation_headway": 0.24328051385390537,
    "Average_covariation_headway_stops": {
        "G": 0.17414085810521876,
        "I": 0.17628259490003675,
        "K": 0.135114818990358,
        "L": 0.13660038336699284,
        "D": 0.14005278749880107,
        "A": 0.13742655352302133,
        "H": 0.16372513115469234,
        "J": 0.13621638774133454,
        "B": 0.11284995161139397,
        "E": 0.1215041699830289,
        "F": 0.13308930592270857,
        "C": 0.13102284355550792
    },
    "Average_excess_waiting_time": {
        "G": 52.56686873658515,
        "I": 52.5128456672802,
        "K": 48.30825885405886,
        "L": 46.774647445776964,
        "D": 48.23672807426988,
        "A": 45.19985627989638,
        "H": 53.30493570320459,
        "J": 50.27702927834207,
        "B": 45.39415561897738,
        "E": 48.179165183206806,
        "F": 50.82814586248065,
        "C": 48.88525905366237
    },
    "Holding_per_stop": {
        "I": 22.105263157894736,
        "L": 14.526315789473685,
        "G": 28.404255319148938,
        "A": 5.625,
        "K": 15.473684210526315,
        "D": 4.421052631578948,
        "J": 18.51063829787234,
        "H": 4.468085106382978,
        "B": 3.1578947368421053,
        "E": 32.21052631578947,
        "C": 6.315789473684211,
        "F": 10.212765957446809
    },
    "Actions_tfl_edges": {},
    "Load_per_bus_per_stop": {
        "bus1": {
            "G": 122.25,
            "H": 133,
            "I": 128.25,
            "J": 125.125,
            "K": 116.8125,
            "L": 105.5625,
            "A": 96.125,
            "B": 87.625,
            "C": 81.3125,
            "D": 78.26666666666667,
            "E": 75.46666666666667,
            "F": 97.4
        },
        "bus2": {
            "I": 122.4375,
            "J": 115.125,
            "K": 106.75,
            "L": 97.75,
            "A": 87.9375,
            "B": 79.4375,
            "C": 74.125,
            "D": 71.8125,
            "E": 72.125,
            "F": 96.26666666666667,
            "G": 126.73333333333333,
            "H": 133.46666666666667
        },
        "bus3": {
            "K": 107.0625,
            "L": 99.6875,
            "A": 91.1875,
            "B": 83,
            "C": 74.875,
            "D": 70.625,
            "E": 70.4375,
            "F": 94.4375,
            "G": 125.25,
            "H": 133.46666666666667,
            "I": 131,
            "J": 124
        },
        "bus4": {
            "L": 96.9375,
            "A": 87.25,
            "B": 78.4375,
            "C": 74.1875,
            "D": 72.5625,
            "E": 71.3125,
            "F": 94.8125,
            "G": 127.1875,
            "H": 132.8125,
            "I": 132.1875,
            "J": 122,
            "K": 111.53333333333333
        },
        "bus0": {
            "D": 73.9375,
            "E": 72.4375,
            "F": 98.8125,
            "G": 133.5625,
            "H": 142.875,
            "I": 141.4375,
            "J": 135.0625,
            "K": 124.6875,
            "L": 113.9375,
            "A": 103.6875,
            "B": 93.8,
            "C": 85.06666666666666
        },
        "bus5": {
            "A": 96.5625,
            "B": 87.25,
            "C": 82.375,
            "D": 79.375,
            "E": 78.5,
            "F": 101.6875,
            "G": 134.5625,
            "H": 143.875,
            "I": 141.6875,
            "J": 132.75,
            "K": 123.875,
            "L": 113.625
        }
    }
}