{
    "Average_holding_time": 40.9432146294514,
    "Average_travel_time_passengers": 2878.4100341980934,
    "Average_speed_busses": 0.043291666666666666,
    "Average_experienced_crowding": 115.05665382615116,
    "Average_covariation_headway": 0.23651188993396408,
    "Average_covariation_headway_stops": {
        "E": 0.13705310228522857,
        "K": 0.17697589593983534,
        "L": 0.16683285001214568,
        "D": 0.13238390798686175,
        "A": 0.15368895061911686,
        "B": 0.1417198743382613,
        "F": 0.09234304893898677,
        "G": 0.08990706166081687,
        "C": 0.11787193226110758,
        "H": 0.09332734268995813,
        "I": 0.12084784570067786,
        "J": 0.15502936301349304
    },
    "Average_excess_waiting_time": {
        "E": 75.07800584224736,
        "K": 86.19658671768173,
        "L": 82.79103406012894,
        "D": 76.78904472929014,
        "A": 79.55623287211705,
        "B": 77.03328811953992,
        "F": 73.35148201250456,
        "G": 75.39126633552843,
        "C": 77.30269105890983,
        "H": 76.79366044597305,
        "I": 80.48512260860116,
        "J": 85.82111307646494
    },
    "Holding_per_stop": {
        "E": 58.29545454545455,
        "L": 34.53488372093023,
        "A": 37.93103448275862,
        "B": 39.310344827586206,
        "K": 38.72093023255814,
        "D": 4.827586206896552,
        "F": 56.55172413793103,
        "C": 52.41379310344828,
        "G": 34.13793103448276,
        "H": 35.23255813953488,
        "I": 46.04651162790697,
        "J": 53.294117647058826
    },
    "Actions_tfl_edges": {},
    "Load_per_bus_per_stop": {
        "bus2": {
            "E": 81.4,
            "F": 109.6,
            "G": 144.66666666666666,
            "H": 155.13333333333333,
            "I": 149.2,
            "J": 140.06666666666666,
            "K": 131,
            "L": 119.53333333333333,
            "A": 108.14285714285714,
            "B": 99.28571428571429,
            "C": 92.78571428571429,
            "D": 89.07142857142857
        },
        "bus3": {
            "K": 109.93333333333334,
            "L": 100.53333333333333,
            "A": 92.73333333333333,
            "B": 83.14285714285714,
            "C": 80.14285714285714,
            "D": 76,
            "E": 76.21428571428571,
            "F": 101.42857142857143,
            "G": 132.5,
            "H": 138.85714285714286,
            "I": 131.71428571428572,
            "J": 124.21428571428571
        },
        "bus4": {
            "L": 102.8,
            "A": 94.33333333333333,
            "B": 85.26666666666667,
            "C": 80.46666666666667,
            "D": 78.35714285714286,
            "E": 74.28571428571429,
            "F": 94.85714285714286,
            "G": 130.35714285714286,
            "H": 139.92857142857142,
            "I": 135.57142857142858,
            "J": 129.28571428571428,
            "K": 118.85714285714286
        },
        "bus1": {
            "D": 78.06666666666666,
            "E": 76.73333333333333,
            "F": 103.86666666666666,
            "G": 140.06666666666666,
            "H": 149.8,
            "I": 147.93333333333334,
            "J": 140.5,
            "K": 128.14285714285714,
            "L": 114.92857142857143,
            "A": 104.35714285714286,
            "B": 93.92857142857143,
            "C": 87.71428571428571
        },
        "bus5": {
            "A": 96.86666666666666,
            "B": 85.2,
            "C": 80.6,
            "D": 78.73333333333333,
            "E": 78.6,
            "F": 103.28571428571429,
            "G": 137,
            "H": 144.42857142857142,
            "I": 142.28571428571428,
            "J": 133.42857142857142,
            "K": 123.42857142857143,
            "L": 113.85714285714286
        },
        "bus0": {
            "B": 90,
            "C": 84.33333333333333,
            "D": 80.6,
            "E": 78,
            "F": 105.66666666666667,
            "G": 139.86666666666667,
            "H": 150.21428571428572,
            "I": 147.14285714285714,
            "J": 140.14285714285714,
            "K": 128.71428571428572,
            "L": 118.5,
            "A": 107.35714285714286
        }
    }
}