{
    "Average_holding_time": 11.067708333333334,
    "Average_travel_time_passengers": 2612.3059440067163,
    "Average_speed_busses": 0.048,
    "Average_experienced_crowding": 106.19630504552154,
    "Average_covariation_headway": 0.22459538081682906,
    "Average_covariation_headway_stops": {
        "I": 0.12773520931593058,
        "E": 0.0967234897293095,
        "K": 0.0909642694756355,
        "L": 0.08854515972575881,
        "D": 0.08426346363762846,
        "C": 0.08503869196064416,
        "F": 0.08017930241186655,
        "A": 0.044867476175826926,
        "J": 0.08404390954859613,
        "G": 0.08310872026133566,
        "B": 0.06533622059550948,
        "H": 0.08277859329215123
    },
    "Average_excess_waiting_time": {
        "I": 44.06046273539158,
        "E": 39.81239595117688,
        "K": 41.53819070968842,
        "L": 39.635847615602586,
        "D": 40.84721503810971,
        "C": 42.330015488512686,
        "F": 40.53637586249562,
        "A": 39.69381453141648,
        "J": 42.69776239529318,
        "G": 41.878668863457904,
        "B": 42.489238933896445,
        "H": 43.19894279358533
    },
    "Holding_per_stop": {
        "E": 24.123711340206185,
        "L": 13.29896907216495,
        "I": 25.3125,
        "D": 1.875,
        "K": 15.3125,
        "C": 1.5625,
        "A": 5,
        "F": 10.9375,
        "J": 10.9375,
        "G": 23.4375,
        "B": 0,
        "H": 0.631578947368421
    },
    "Actions_tfl_edges": {},
    "Load_per_bus_per_stop": {
        "bus3": {
            "I": 121.9375,
            "J": 115.375,
            "K": 108.9375,
            "L": 101.125,
            "A": 92.625,
            "B": 83.25,
            "C": 77.6875,
            "D": 75.9375,
            "E": 71.8125,
            "F": 94.5,
            "G": 128.75,
            "H": 136.125
        },
        "bus2": {
            "E": 70.3529411764706,
            "F": 94.0625,
            "G": 130.5625,
            "H": 139.25,
            "I": 137.375,
            "J": 128.0625,
            "K": 118.1875,
            "L": 108.125,
            "A": 97.625,
            "B": 88.5,
            "C": 82.25,
            "D": 76.4375
        },
        "bus4": {
            "K": 109.5625,
            "L": 101.875,
            "A": 91.3125,
            "B": 83,
            "C": 79.625,
            "D": 76.875,
            "E": 74.75,
            "F": 97.25,
            "G": 128.125,
            "H": 136.125,
            "I": 131.125,
            "J": 124.625
        },
        "bus5": {
            "L": 101.41176470588235,
            "A": 90.125,
            "B": 82.75,
            "C": 76.8125,
            "D": 73.375,
            "E": 72.875,
            "F": 98.3125,
            "G": 129.4375,
            "H": 138.0625,
            "I": 134.9375,
            "J": 126.8125,
            "K": 115.9375
        },
        "bus1": {
            "D": 72.4375,
            "E": 70.4375,
            "F": 91.3125,
            "G": 121.875,
            "H": 129.9375,
            "I": 126.125,
            "J": 120.4375,
            "K": 111.0625,
            "L": 100.625,
            "A": 91.5,
            "B": 82.5,
            "C": 77.9375
        },
        "bus0": {
            "C": 79.25,
            "D": 75.3125,
            "E": 75.4375,
            "F": 101.5,
            "G": 131.6875,
            "H": 136.0625,
            "I": 133.9375,
            "J": 126.8125,
            "K": 117.4375,
            "L": 107.6875,
            "A": 98.4375,
            "B": 87.875
        }
    }
}
            "A": 107.46666666666667,
            "B": 96.53333333333333
        }
    }
}    }
    }
}