{
    "Average_holding_time": 8.214592274678111,
    "Average_travel_time_passengers": 2589.2488495406124,
    "Average_speed_busses": 0.048541666666666664,
    "Average_experienced_crowding": 104.78085978212141,
    "Average_covariation_headway": 0.23077221786245167,
    "Average_covariation_headway_stops": {
        "I": 0.1408034712792599,
        "E": 0.10020927541280124,
        "J": 0.12144051756685222,
        "D": 0.09052620510541237,
        "A": 0.09041360860087723,
        "B": 0.0822432981217056,
        "K": 0.09001738883996448,
        "F": 0.06991654284044427,
        "C": 0.06838970310774749,
        "G": 0.08202471754785479,
        "L": 0.0771407963588424,
        "H": 0.09731010688831561
    },
    "Average_excess_waiting_time": {
        "I": 42.14468994629573,
        "E": 36.716578113829655,
        "J": 38.89293200253803,
        "D": 37.847470996892184,
        "A": 38.631131749695214,
        "B": 36.78007886684429,
        "K": 38.692514754312924,
        "F": 36.74031030285221,
        "C": 38.152114057126255,
        "G": 38.49712832122782,
        "L": 39.504765770611925,
        "H": 40.65878085056619
    },
    "Holding_per_stop": {
        "J": 7.959183673469388,
        "E": 23.571428571428573,
        "I": 21.649484536082475,
        "B": 1.8556701030927836,
        "A": 6.804123711340206,
        "D": 1.2371134020618557,
        "K": 9.278350515463918,
        "F": 6.185567010309279,
        "C": 0,
        "L": 5.56701030927835,
        "G": 14.22680412371134,
        "H": 0
    },
    "Actions_tfl_edges": {},
    "Load_per_bus_per_stop": {
        "bus3": {
            "I": 123.6470588235294,
            "J": 117.88235294117646,
            "K": 109.9375,
            "L": 101.375,
            "A": 92.75,
            "B": 83.75,
            "C": 79.3125,
            "D": 78.3125,
            "E": 76.6875,
            "F": 96.75,
            "G": 124.3125,
            "H": 133.875
        },
        "bus2": {
            "E": 68.05882352941177,
            "F": 91.76470588235294,
            "G": 124.23529411764706,
            "H": 132.52941176470588,
            "I": 126.5625,
            "J": 120.9375,
            "K": 113.0625,
            "L": 103.3125,
            "A": 90.4375,
            "B": 80.125,
            "C": 75.9375,
            "D": 72.625
        },
        "bus4": {
            "J": 121,
            "K": 114.17647058823529,
            "L": 105.41176470588235,
            "A": 96.125,
            "B": 86.8125,
            "C": 80.9375,
            "D": 77.9375,
            "E": 76.3125,
            "F": 99.875,
            "G": 130.1875,
            "H": 138.5625,
            "I": 133.5625
        },
        "bus1": {
            "D": 70.05882352941177,
            "E": 69.29411764705883,
            "F": 90.8125,
            "G": 121.375,
            "H": 128.875,
            "I": 124.9375,
            "J": 120.75,
            "K": 112.0625,
            "L": 101.6875,
            "A": 92.875,
            "B": 84.4375,
            "C": 78.5
        },
        "bus5": {
            "A": 93.41176470588235,
            "B": 82.875,
            "C": 77.1875,
            "D": 75.625,
            "E": 74.75,
            "F": 95.375,
            "G": 128.75,
            "H": 138.75,
            "I": 135,
            "J": 130.3125,
            "K": 120.5625,
            "L": 109.9375
        },
        "bus0": {
            "B": 77.29411764705883,
            "C": 71.6470588235294,
            "D": 69.0625,
            "E": 69,
            "F": 92.0625,
            "G": 122.125,
            "H": 129.0625,
            "I": 126.875,
            "J": 120.5,
            "K": 111.0625,
            "L": 100.125,
            "A": 91.5
        }
    }
}