{
    "Average_holding_time": 11.759581881533101,
    "Average_travel_time_passengers": 2639.429483846154,
    "Average_speed_busses": 0.04783333333333333,
    "Average_experienced_crowding": 107.36280278361963,
    "Average_covariation_headway": 0.2672530422720955,
    "Average_covariation_headway_stops": {
        "E": 0.16252819419367492,
        "J": 0.18841618572979305,
        "K": 0.17840755321953164,
        "L": 0.17374096442627346,
        "D": 0.1640017244989148,
        "A": 0.15896111192569112,
        "F": 0.14298230285290087,
        "B": 0.13968168453126667,
        "G": 0.14184774889575819,
        "H": 0.16709534406512203,
        "C": 0.1505120903001784,
        "I": 0.18299494095675753
    },
    "Average_excess_waiting_time": {
        "E": 45.78930368232193,
        "J": 52.54815402297976,
        "K": 49.56613584646908,
        "L": 47.38673193202993,
        "D": 47.705513329648454,
        "A": 44.408298791470315,
        "F": 45.48222973351136,
        "B": 44.86640991662324,
        "G": 46.65782428182462,
        "H": 50.57490514108292,
        "C": 47.998428708161896,
        "I": 53.50716958521019
    },
    "Holding_per_stop": {
        "K": 11.25,
        "E": 24.375,
        "L": 16.25,
        "A": 5.56701030927835,
        "J": 12,
        "D": 5,
        "F": 8.75,
        "B": 3.125,
        "G": 18.31578947368421,
        "H": 5.684210526315789,
        "C": 5.052631578947368,
        "I": 25.894736842105264
    },
    "Actions_tfl_edges": {},
    "Load_per_bus_per_stop": {
        "bus1": {
            "E": 73.11764705882354,
            "F": 94.875,
            "G": 127.0625,
            "H": 138.6875,
            "I": 137.625,
            "J": 130.25,
            "K": 121.875,
            "L": 112.375,
            "A": 101.625,
            "B": 92.9375,
            "C": 87.6875,
            "D": 81.4375
        },
        "bus2": {
            "J": 112.875,
            "K": 104.5625,
            "L": 94.5,
            "A": 85.25,
            "B": 78.9375,
            "C": 74.375,
            "D": 73.5625,
            "E": 72.9375,
            "F": 95.375,
            "G": 126.1875,
            "H": 132.8,
            "I": 127.93333333333334
        },
        "bus3": {
            "K": 106.6875,
            "L": 95.875,
            "A": 88.125,
            "B": 80.0625,
            "C": 75.3125,
            "D": 73.3125,
            "E": 72.375,
            "F": 95.125,
            "G": 123.8125,
            "H": 131.9375,
            "I": 128.875,
            "J": 122.66666666666667
        },
        "bus4": {
            "L": 88.875,
            "A": 81,
            "B": 72.8125,
            "C": 66.9375,
            "D": 65,
            "E": 63.375,
            "F": 83.875,
            "G": 111.4375,
            "H": 117.875,
            "I": 114.0625,
            "J": 110.8125,
            "K": 103.125
        },
        "bus0": {
            "D": 70.9375,
            "E": 70.375,
            "F": 96.375,
            "G": 128.5,
            "H": 137.8125,
            "I": 131.5,
            "J": 124.5,
            "K": 114.875,
            "L": 103.5625,
            "A": 94.6875,
            "B": 84.6875,
            "C": 79
        },
        "bus5": {
            "A": 100.47058823529412,
            "B": 91.25,
            "C": 85.9375,
            "D": 82.0625,
            "E": 80.4375,
            "F": 106.1875,
            "G": 141.0625,
            "H": 150.5,
            "I": 147.8125,
            "J": 140.3125,
            "K": 129.125,
            "L": 117.4375
        }
    }
}