{
    "Average_holding_time": 11.171875,
    "Average_travel_time_passengers": 2615.335563826605,
    "Average_speed_busses": 0.048,
    "Average_experienced_crowding": 105.33612125643154,
    "Average_covariation_headway": 0.23035150963686887,
    "Average_covariation_headway_stops": {
        "F": 0.10210679720239024,
        "K": 0.12076286275915377,
        "D": 0.09695727890415462,
        "A": 0.0864441887295328,
        "B": 0.07686643653776265,
        "C": 0.08185809719063454,
        "G": 0.09635498956816958,
        "E": 0.07718195856412254,
        "H": 0.0816738538893993,
        "L": 0.0857405479529803,
        "I": 0.0954877314880243,
        "J": 0.10889561972707984
    },
    "Average_excess_waiting_time": {
        "F": 39.73793994797694,
        "K": 44.64316700633651,
        "D": 39.44121793690897,
        "A": 42.51447093729786,
        "B": 40.979301854397875,
        "C": 40.04831674640235,
        "G": 40.51376809802497,
        "E": 40.10883778653749,
        "H": 41.113851225469205,
        "L": 43.940180108149036,
        "I": 43.04793963541459,
        "J": 45.59139577967767
    },
    "Holding_per_stop": {
        "F": 13.608247422680412,
        "D": 3.0927835051546393,
        "C": 0.9375,
        "B": 1.5625,
        "K": 10.3125,
        "A": 3.4375,
        "G": 25.3125,
        "E": 23.125,
        "H": 2.8125,
        "L": 11.68421052631579,
        "I": 22.8125,
        "J": 15.473684210526315
    },
    "Actions_tfl_edges": {},
    "Load_per_bus_per_stop": {
        "bus3": {
            "F": 93.94117647058823,
            "G": 123.52941176470588,
            "H": 131.5625,
            "I": 127.0625,
            "J": 120.125,
            "K": 111.1875,
            "L": 105,
            "A": 94.8125,
            "B": 87.0625,
            "C": 81.625,
            "D": 80.875,
            "E": 77.625
        },
        "bus4": {
            "K": 107.25,
            "L": 98.0625,
            "A": 89.125,
            "B": 80.875,
            "C": 75.375,
            "D": 74.6875,
            "E": 71.1875,
            "F": 92.3125,
            "G": 125.875,
            "H": 131.5,
            "I": 129.25,
            "J": 124.86666666666666
        },
        "bus2": {
            "D": 72.58823529411765,
            "E": 72,
            "F": 97.625,
            "G": 131.5,
            "H": 136.3125,
            "I": 133.25,
            "J": 127.4375,
            "K": 117.375,
            "L": 107.4375,
            "A": 98.6875,
            "B": 88.6875,
            "C": 81.4375
        },
        "bus5": {
            "A": 91.375,
            "B": 82.25,
            "C": 75.5625,
            "D": 73.4375,
            "E": 73.25,
            "F": 92.6875,
            "G": 125.4375,
            "H": 135.5,
            "I": 131.9375,
            "J": 126.1875,
            "K": 117.3125,
            "L": 107.26666666666667
        },
        "bus0": {
            "B": 81.8125,
            "C": 76.25,
            "D": 70.6875,
            "E": 71.5625,
            "F": 94.75,
            "G": 126.0625,
            "H": 134.4375,
            "I": 133,
            "J": 127.9375,
            "K": 118.5625,
            "L": 107.625,
            "A": 96.625
        },
        "bus1": {
            "C": 68.375,
            "D": 66.0625,
            "E": 67.875,
            "F": 91.125,
            "G": 122.4375,
            "H": 128.5625,
            "I": 124.375,
            "J": 118.9375,
            "K": 109.125,
            "L": 100.625,
            "A": 90,
            "B": 78.8125
        }
    }
}