{
    "Average_holding_time": 10.103359173126615,
    "Average_travel_time_passengers": 2579.1257114149385,
    "Average_speed_busses": 0.048375,
    "Average_experienced_crowding": 102.44526489674458,
    "Average_covariation_headway": 0.2202124548597185,
    "Average_covariation_headway_stops": {
        "F": 0.08259329679011766,
        "J": 0.10207670598348466,
        "L": 0.08990903110604989,
        "D": 0.07290752892958591,
        "A": 0.07577693230855981,
        "C": 0.058637365745380185,
        "G": 0.07481609531279511,
        "E": 0.05760766825977627,
        "H": 0.07095795247416081,
        "K": 0.06268649736354906,
        "B": 0.03553318154587512,
        "I": 0.08857347162215538
    },
    "Average_excess_waiting_time": {
        "F": 37.025887917976036,
        "J": 40.2620552087738,
        "L": 39.49194197611996,
        "D": 36.75591796675093,
        "A": 37.559221037843315,
        "C": 37.86756150382365,
        "G": 37.8521489241694,
        "E": 37.62419801606222,
        "H": 38.98645927375429,
        "K": 39.79096688315434,
        "B": 38.32404319863531,
        "I": 40.970738991500355
    },
    "Holding_per_stop": {
        "F": 8.65979381443299,
        "A": 6.185567010309279,
        "D": 0,
        "L": 13.917525773195877,
        "J": 13.917525773195877,
        "C": 0.6185567010309279,
        "G": 19.175257731958762,
        "E": 23.814432989690722,
        "H": 0.9278350515463918,
        "B": 0,
        "K": 9.6875,
        "I": 24.375
    },
    "Actions_tfl_edges": {},
    "Load_per_bus_per_stop": {
        "bus2": {
            "F": 88,
            "G": 118.29411764705883,
            "H": 125.47058823529412,
            "I": 122.25,
            "J": 116.125,
            "K": 109.5,
            "L": 101.8125,
            "A": 92.1875,
            "B": 82.875,
            "C": 78.0625,
            "D": 74.625,
            "E": 74
        },
        "bus3": {
            "J": 115.29411764705883,
            "K": 108.3125,
            "L": 96.5,
            "A": 86.875,
            "B": 78.9375,
            "C": 74.375,
            "D": 71.4375,
            "E": 71,
            "F": 95.3125,
            "G": 126.1875,
            "H": 135,
            "I": 129.375
        },
        "bus4": {
            "L": 99.47058823529412,
            "A": 89.3125,
            "B": 82,
            "C": 76.375,
            "D": 73.4375,
            "E": 72.3125,
            "F": 95.8125,
            "G": 127.8125,
            "H": 134.875,
            "I": 131.1875,
            "J": 126.8125,
            "K": 115.4375
        },
        "bus1": {
            "D": 69.76470588235294,
            "E": 69.47058823529412,
            "F": 95.875,
            "G": 127.8125,
            "H": 133.9375,
            "I": 128.3125,
            "J": 122.8125,
            "K": 112.375,
            "L": 101.6875,
            "A": 94.4375,
            "B": 86,
            "C": 78.5625
        },
        "bus5": {
            "A": 86.82352941176471,
            "B": 79.41176470588235,
            "C": 73.6875,
            "D": 71.4375,
            "E": 70.125,
            "F": 91.25,
            "G": 122,
            "H": 129.3125,
            "I": 125,
            "J": 118.625,
            "K": 110.375,
            "L": 101.3125
        },
        "bus0": {
            "C": 70.94117647058823,
            "D": 71.125,
            "E": 68.625,
            "F": 91.1875,
            "G": 120.875,
            "H": 127.3125,
            "I": 123.625,
            "J": 117.1875,
            "K": 108.5,
            "L": 99.1875,
            "A": 90.5,
            "B": 81.1875
        }
    }
}