{
    "Average_holding_time": 32.39661654135338,
    "Average_travel_time_passengers": 2840.3890631002246,
    "Average_speed_busses": 0.044333333333333336,
    "Average_experienced_crowding": 118.44463324350892,
    "Average_covariation_headway": 0.26950220083943616,
    "Average_covariation_headway_stops": {
        "H": 0.2513881641103897,
        "I": 0.26133848427146655,
        "J": 0.24966662874258314,
        "L": 0.20906818695635176,
        "A": 0.19624264907242794,
        "C": 0.16123217093581288,
        "K": 0.2148155069309779,
        "B": 0.1681488782246798,
        "D": 0.14327191760242647,
        "E": 0.14122788201062694,
        "F": 0.1547460637069233,
        "G": 0.19117965201398895
    },
    "Average_excess_waiting_time": {
        "H": 88.1379817194562,
        "I": 87.44470485535595,
        "J": 83.4350545070235,
        "L": 77.32299678052004,
        "A": 73.90356901856728,
        "C": 70.52492004091187,
        "K": 80.08412174368533,
        "B": 72.8522141202613,
        "D": 70.6831623355207,
        "E": 72.07157683001026,
        "F": 75.6504606065152,
        "G": 81.48069829935616
    },
    "Holding_per_stop": {
        "I": 37.41573033707865,
        "H": 39.54545454545455,
        "J": 55.61797752808989,
        "A": 26,
        "L": 34.04494382022472,
        "C": 4.719101123595506,
        "K": 34.38202247191011,
        "B": 6.067415730337078,
        "D": 6.741573033707865,
        "E": 73.97727272727273,
        "F": 23.181818181818183,
        "G": 47.93103448275862
    },
    "Actions_tfl_edges": {},
    "Load_per_bus_per_stop": {
        "bus1": {
            "H": 142,
            "I": 139.33333333333334,
            "J": 131,
            "K": 123.06666666666666,
            "L": 113.46666666666667,
            "A": 102.4,
            "B": 92.86666666666666,
            "C": 86.35714285714286,
            "D": 84.85714285714286,
            "E": 84.57142857142857,
            "F": 108.35714285714286,
            "G": 142.64285714285714
        },
        "bus2": {
            "I": 138.13333333333333,
            "J": 129.8,
            "K": 120.26666666666667,
            "L": 110.53333333333333,
            "A": 99.93333333333334,
            "B": 91.46666666666667,
            "C": 85.13333333333334,
            "D": 81.46666666666667,
            "E": 78.6,
            "F": 104.78571428571429,
            "G": 141.14285714285714,
            "H": 150.78571428571428
        },
        "bus3": {
            "J": 122.2,
            "K": 114.2,
            "L": 104.6,
            "A": 94.86666666666666,
            "B": 84.66666666666667,
            "C": 80.26666666666667,
            "D": 76.73333333333333,
            "E": 76.6,
            "F": 100.93333333333334,
            "G": 133.66666666666666,
            "H": 142.64285714285714,
            "I": 138.35714285714286
        },
        "bus4": {
            "L": 104.4,
            "A": 97.26666666666667,
            "B": 87.73333333333333,
            "C": 83.33333333333333,
            "D": 77.86666666666666,
            "E": 78.33333333333333,
            "F": 105.6,
            "G": 138.86666666666667,
            "H": 144.46666666666667,
            "I": 140.73333333333332,
            "J": 132.21428571428572,
            "K": 123.42857142857143
        },
        "bus5": {
            "A": 94.46666666666667,
            "B": 85.4,
            "C": 79.26666666666667,
            "D": 76.46666666666667,
            "E": 75.06666666666666,
            "F": 97.26666666666667,
            "G": 133.66666666666666,
            "H": 141.46666666666667,
            "I": 137,
            "J": 131.6,
            "K": 122.93333333333334,
            "L": 111.35714285714286
        },
        "bus0": {
            "C": 89.86666666666666,
            "D": 87.86666666666666,
            "E": 87.6,
            "F": 115.4,
            "G": 151.2,
            "H": 161.93333333333334,
            "I": 157.66666666666666,
            "J": 149,
            "K": 137.8,
            "L": 126.66666666666667,
            "A": 115.26666666666667,
            "B": 103
        }
    }
}