{
    "Average_holding_time": 8.925193465176267,
    "Average_travel_time_passengers": 2581.522397034974,
    "Average_speed_busses": 0.04845833333333333,
    "Average_experienced_crowding": 104.36853987582636,
    "Average_covariation_headway": 0.22863196460195667,
    "Average_covariation_headway_stops": {
        "G": 0.12944246889068906,
        "J": 0.10671468320258086,
        "K": 0.1005139009092859,
        "L": 0.10031746935947607,
        "D": 0.0970187517586285,
        "C": 0.0986718548382234,
        "H": 0.1019417177311846,
        "A": 0.06804078863325687,
        "E": 0.07795271445546079,
        "I": 0.09219847894659894,
        "F": 0.07633036987887674,
        "B": 0.0805963269398828
    },
    "Average_excess_waiting_time": {
        "G": 41.341585769549056,
        "J": 40.25005245060697,
        "K": 38.27558195446676,
        "L": 36.609764516723374,
        "D": 37.982904462851195,
        "C": 39.23116300741168,
        "H": 40.73275412783181,
        "A": 36.69804700690429,
        "E": 38.46466005689064,
        "I": 41.0088614727361,
        "F": 39.86972995257241,
        "B": 39.375743003636046
    },
    "Holding_per_stop": {
        "L": 11.63265306122449,
        "K": 16.082474226804123,
        "G": 15.77319587628866,
        "D": 1.2371134020618557,
        "J": 16.391752577319586,
        "C": 2.1649484536082473,
        "A": 5.257731958762887,
        "H": 1.8556701030927836,
        "E": 12.371134020618557,
        "I": 12.5,
        "B": 0.30927835051546393,
        "F": 11.5625
    },
    "Actions_tfl_edges": {},
    "Load_per_bus_per_stop": {
        "bus2": {
            "G": 118.23529411764706,
            "H": 126.52941176470588,
            "I": 122.125,
            "J": 114.75,
            "K": 108,
            "L": 99.25,
            "A": 89.5,
            "B": 79.4375,
            "C": 74.25,
            "D": 70.875,
            "E": 69.9375,
            "F": 95.75
        },
        "bus3": {
            "J": 116.3529411764706,
            "K": 109.0625,
            "L": 98.1875,
            "A": 89.3125,
            "B": 80.5,
            "C": 74.75,
            "D": 70.9375,
            "E": 68.625,
            "F": 90.75,
            "G": 125,
            "H": 133.0625,
            "I": 128.625
        },
        "bus4": {
            "K": 106.17647058823529,
            "L": 96.94117647058823,
            "A": 89.0625,
            "B": 81.75,
            "C": 75.5,
            "D": 73.875,
            "E": 71.75,
            "F": 90.5625,
            "G": 121.5625,
            "H": 129.6875,
            "I": 127.5,
            "J": 120.8125
        },
        "bus5": {
            "L": 103.94117647058823,
            "A": 94.29411764705883,
            "B": 83.58823529411765,
            "C": 78.125,
            "D": 75.3125,
            "E": 73.75,
            "F": 95.875,
            "G": 126.5,
            "H": 135.3125,
            "I": 132.75,
            "J": 126.6875,
            "K": 118.75
        },
        "bus1": {
            "D": 74.47058823529412,
            "E": 71.11764705882354,
            "F": 93.5,
            "G": 127.4375,
            "H": 137.75,
            "I": 131.4375,
            "J": 126.75,
            "K": 118.125,
            "L": 108.9375,
            "A": 101,
            "B": 90.5625,
            "C": 84.125
        },
        "bus0": {
            "C": 73,
            "D": 70.875,
            "E": 70.3125,
            "F": 93.0625,
            "G": 125.5625,
            "H": 133.875,
            "I": 127.5625,
            "J": 121.1875,
            "K": 111.9375,
            "L": 101.3125,
            "A": 91.875,
            "B": 82.6875
        }
    }
}