{
    "Average_holding_time": 11.182053494391717,
    "Average_travel_time_passengers": 2591.96475052441,
    "Average_speed_busses": 0.04829166666666666,
    "Average_experienced_crowding": 101.69786942709845,
    "Average_covariation_headway": 0.2214357159668207,
    "Average_covariation_headway_stops": {
        "H": 0.13529735227201872,
        "G": 0.12367485220174981,
        "J": 0.10539728446251026,
        "I": 0.10893198077361217,
        "D": 0.08634058240776712,
        "A": 0.07220576246412932,
        "C": 0.06751243427279291,
        "K": 0.06166198307972457,
        "E": 0.05407271482173704,
        "B": 0.051459007623566456,
        "L": 0.06031415844910477,
        "F": 0.06492145509136002
    },
    "Average_excess_waiting_time": {
        "H": 40.94744273097223,
        "G": 41.959471742024334,
        "J": 38.42427463622545,
        "I": 40.088146558533595,
        "D": 38.60420637974488,
        "A": 38.33121621890115,
        "C": 39.084034683963864,
        "K": 37.71464173336852,
        "E": 38.651533294276874,
        "B": 39.632953841071526,
        "L": 39.110824113317676,
        "F": 40.59494286045168
    },
    "Holding_per_stop": {
        "H": 2.1649484536082473,
        "J": 18.24742268041237,
        "G": 26.25,
        "I": 24.123711340206185,
        "A": 4.948453608247423,
        "D": 1.5463917525773196,
        "C": 1.8556701030927836,
        "K": 9.587628865979381,
        "E": 20,
        "B": 0.625,
        "L": 14.375,
        "F": 10.625
    },
    "Actions_tfl_edges": {},
    "Load_per_bus_per_stop": {
        "bus3": {
            "H": 123.3529411764706,
            "I": 120.3529411764706,
            "J": 114.375,
            "K": 107.5,
            "L": 98.6875,
            "A": 89.5625,
            "B": 79.0625,
            "C": 73.4375,
            "D": 72.4375,
            "E": 72.125,
            "F": 92.1875,
            "G": 124.625
        },
        "bus2": {
            "G": 116.05882352941177,
            "H": 121.875,
            "I": 117.375,
            "J": 111.9375,
            "K": 104.3125,
            "L": 95.9375,
            "A": 88.625,
            "B": 79.5625,
            "C": 75.0625,
            "D": 74.125,
            "E": 74.125,
            "F": 95.0625
        },
        "bus4": {
            "J": 109.76470588235294,
            "K": 101.82352941176471,
            "L": 92.9375,
            "A": 85.8125,
            "B": 77.8125,
            "C": 74.6875,
            "D": 73.8125,
            "E": 74.8125,
            "F": 96.5625,
            "G": 124.25,
            "H": 129.75,
            "I": 124.0625
        },
        "bus1": {
            "D": 71.29411764705883,
            "E": 69.58823529411765,
            "F": 93.3125,
            "G": 124.6875,
            "H": 131.875,
            "I": 128.875,
            "J": 122.1875,
            "K": 114.5,
            "L": 105.25,
            "A": 96.5625,
            "B": 86.1875,
            "C": 78.4375
        },
        "bus5": {
            "A": 88.52941176470588,
            "B": 79.6875,
            "C": 74.125,
            "D": 70.25,
            "E": 69.4375,
            "F": 94.375,
            "G": 122.875,
            "H": 131.125,
            "I": 127.375,
            "J": 121.375,
            "K": 113.3125,
            "L": 105.0625
        },
        "bus0": {
            "C": 71.3529411764706,
            "D": 67.6875,
            "E": 66.75,
            "F": 88.875,
            "G": 118.0625,
            "H": 125.375,
            "I": 122.875,
            "J": 115.25,
            "K": 108.1875,
            "L": 98.625,
            "A": 89.4375,
            "B": 79.6875
        }
    }
}