{
    "Average_holding_time": 40.06711409395973,
    "Average_travel_time_passengers": 2868.90409932241,
    "Average_speed_busses": 0.043458333333333335,
    "Average_experienced_crowding": 113.7760752869526,
    "Average_covariation_headway": 0.21678742203110052,
    "Average_covariation_headway_stops": {
        "I": 0.09847232231566028,
        "F": 0.09077915837219265,
        "D": 0.09426786930022937,
        "A": 0.10049280970639023,
        "B": 0.08624455463691018,
        "C": 0.08585378717480599,
        "J": 0.08187003689015455,
        "G": 0.09986887137795489,
        "E": 0.07766327528635683,
        "H": 0.05212078942670731,
        "K": 0.05885599465935999,
        "L": 0.07572821069895432
    },
    "Average_excess_waiting_time": {
        "I": 72.48172525097732,
        "F": 71.53357049432702,
        "D": 71.84805131832462,
        "A": 76.58731888437472,
        "B": 74.37877464445245,
        "C": 72.90871235165292,
        "J": 73.3483094366494,
        "G": 73.7008969795915,
        "E": 72.69335039696011,
        "H": 72.97886437266396,
        "K": 74.18747414481226,
        "L": 76.94816372719703
    },
    "Holding_per_stop": {
        "I": 42.06896551724138,
        "F": 54.54545454545455,
        "D": 2.3863636363636362,
        "B": 30,
        "C": 51.03448275862069,
        "J": 61.37931034482759,
        "A": 33.48837209302326,
        "G": 45.86206896551724,
        "E": 57.58620689655172,
        "H": 36.89655172413793,
        "K": 31.3953488372093,
        "L": 34.18604651162791
    },
    "Actions_tfl_edges": {},
    "Load_per_bus_per_stop": {
        "bus4": {
            "I": 137.4,
            "J": 128.93333333333334,
            "K": 121.13333333333334,
            "L": 112.2,
            "A": 102.4,
            "B": 93.93333333333334,
            "C": 88.42857142857143,
            "D": 84.57142857142857,
            "E": 82.42857142857143,
            "F": 107.35714285714286,
            "G": 140.57142857142858,
            "H": 148.92857142857142
        },
        "bus3": {
            "F": 97,
            "G": 132,
            "H": 140,
            "I": 136.8,
            "J": 130.6,
            "K": 120.33333333333333,
            "L": 111,
            "A": 98.2,
            "B": 89.28571428571429,
            "C": 82.5,
            "D": 78.42857142857143,
            "E": 76.28571428571429
        },
        "bus2": {
            "D": 79.46666666666667,
            "E": 79.06666666666666,
            "F": 101.8,
            "G": 137.06666666666666,
            "H": 144.8,
            "I": 140.2,
            "J": 133.4,
            "K": 122.21428571428571,
            "L": 113.21428571428571,
            "A": 103.5,
            "B": 91.92857142857143,
            "C": 87.85714285714286
        },
        "bus5": {
            "A": 96.93333333333334,
            "B": 86.4,
            "C": 82.2,
            "D": 79.46666666666667,
            "E": 77.14285714285714,
            "F": 99.78571428571429,
            "G": 133.5,
            "H": 144.07142857142858,
            "I": 138.57142857142858,
            "J": 130.07142857142858,
            "K": 123.78571428571429,
            "L": 113.28571428571429
        },
        "bus0": {
            "B": 85.2,
            "C": 79.2,
            "D": 77.06666666666666,
            "E": 77.13333333333334,
            "F": 103.13333333333334,
            "G": 137.78571428571428,
            "H": 144.92857142857142,
            "I": 142.42857142857142,
            "J": 135.42857142857142,
            "K": 124.42857142857143,
            "L": 114.28571428571429,
            "A": 102.14285714285714
        },
        "bus1": {
            "C": 81.73333333333333,
            "D": 79.06666666666666,
            "E": 77.26666666666667,
            "F": 103.26666666666667,
            "G": 137.93333333333334,
            "H": 145.53333333333333,
            "I": 139.21428571428572,
            "J": 131.92857142857142,
            "K": 123.5,
            "L": 113.21428571428571,
            "A": 104.64285714285714,
            "B": 94.92857142857143
        }
    }
}7142857142,
            "L": 135.07142857142858,
            "A": 121.57142857142857
        }
    }
}