{
    "Average_holding_time": 40.24952015355086,
    "Average_travel_time_passengers": 2888.904810579848,
    "Average_speed_busses": 0.043416666666666666,
    "Average_experienced_crowding": 117.70097572921142,
    "Average_covariation_headway": 0.241092850538639,
    "Average_covariation_headway_stops": {
        "H": 0.17200449764940884,
        "G": 0.1583051152450666,
        "I": 0.17982656000211455,
        "J": 0.17820414778691032,
        "D": 0.1685851990557112,
        "C": 0.17177747321354034,
        "K": 0.14117874749773948,
        "E": 0.14480785641784386,
        "L": 0.12113809245137816,
        "F": 0.11723762284163626,
        "A": 0.1310608400965976,
        "B": 0.16525526580333186
    },
    "Average_excess_waiting_time": {
        "H": 81.33539222155684,
        "G": 82.40075936198997,
        "I": 79.72866413576685,
        "J": 77.61703676556107,
        "D": 81.82726485104598,
        "C": 83.8818948323123,
        "K": 75.6724989733375,
        "E": 80.99322955444256,
        "L": 75.80141377661181,
        "F": 80.54409362044476,
        "A": 78.85123032013189,
        "B": 84.88752182908962
    },
    "Holding_per_stop": {
        "H": 40,
        "I": 42.95454545454545,
        "J": 58.63636363636363,
        "G": 35.23255813953488,
        "D": 5.172413793103448,
        "K": 37.84090909090909,
        "C": 51.97674418604651,
        "E": 55.46511627906977,
        "L": 33.44827586206897,
        "F": 52.674418604651166,
        "A": 37.58620689655172,
        "B": 32.093023255813954
    },
    "Actions_tfl_edges": {},
    "Load_per_bus_per_stop": {
        "bus3": {
            "H": 135.13333333333333,
            "I": 130.6,
            "J": 122.86666666666666,
            "K": 112.6,
            "L": 102.33333333333333,
            "A": 92.86666666666666,
            "B": 82.78571428571429,
            "C": 78.5,
            "D": 75,
            "E": 75.07142857142857,
            "F": 103.35714285714286,
            "G": 138.07142857142858
        },
        "bus2": {
            "G": 129,
            "H": 138.13333333333333,
            "I": 135.13333333333333,
            "J": 127.53333333333333,
            "K": 118.6,
            "L": 106.57142857142857,
            "A": 98.14285714285714,
            "B": 90.5,
            "C": 85.71428571428571,
            "D": 84.21428571428571,
            "E": 81.07142857142857,
            "F": 103.14285714285714
        },
        "bus4": {
            "I": 136.13333333333333,
            "J": 130.66666666666666,
            "K": 120,
            "L": 110.33333333333333,
            "A": 100,
            "B": 89.46666666666667,
            "C": 82.71428571428571,
            "D": 80,
            "E": 78.14285714285714,
            "F": 104.28571428571429,
            "G": 142.14285714285714,
            "H": 150.92857142857142
        },
        "bus5": {
            "J": 133.06666666666666,
            "K": 126.33333333333333,
            "L": 114.53333333333333,
            "A": 103.6,
            "B": 93.53333333333333,
            "C": 87.53333333333333,
            "D": 85.66666666666667,
            "E": 84.92857142857143,
            "F": 109.64285714285714,
            "G": 147.07142857142858,
            "H": 156.78571428571428,
            "I": 151.14285714285714
        },
        "bus1": {
            "D": 83.46666666666667,
            "E": 79.93333333333334,
            "F": 105.86666666666666,
            "G": 142.6,
            "H": 150.6,
            "I": 145.86666666666667,
            "J": 138,
            "K": 129.85714285714286,
            "L": 118.42857142857143,
            "A": 108.71428571428571,
            "B": 98,
            "C": 93.42857142857143
        },
        "bus0": {
            "C": 89,
            "D": 87.93333333333334,
            "E": 83,
            "F": 108.6,
            "G": 144,
            "H": 153.85714285714286,
            "I": 150.21428571428572,
            "J": 140.71428571428572,
            "K": 132.28571428571428,
            "L": 120.35714285714286,
            "A": 110.28571428571429,
            "B": 101.85714285714286
        }
    }
}"B": 90.35714285714286
        }
    }
}