{
    "Average_holding_time": 12.323759791122715,
    "Average_travel_time_passengers": 2639.185291589573,
    "Average_speed_busses": 0.047875,
    "Average_experienced_crowding": 109.10042924288915,
    "Average_covariation_headway": 0.26713330781744704,
    "Average_covariation_headway_stops": {
        "H": 0.19005084309259362,
        "G": 0.1792228179348998,
        "I": 0.2023553858616831,
        "J": 0.1996409052416149,
        "D": 0.18378079242326475,
        "C": 0.19643957825199593,
        "K": 0.1701972433219898,
        "E": 0.16334546737048944,
        "L": 0.15959431865306567,
        "F": 0.145944725050903,
        "A": 0.16196603222671893,
        "B": 0.19348563184511244
    },
    "Average_excess_waiting_time": {
        "H": 50.88134188775922,
        "G": 51.93630966819137,
        "I": 50.287270793751134,
        "J": 48.20679863114583,
        "D": 50.97256851656516,
        "C": 54.00674168992356,
        "K": 46.37348330482399,
        "E": 50.693270735863166,
        "L": 46.89318177328454,
        "F": 50.618793257225775,
        "A": 49.06712446557674,
        "B": 54.85041383508866
    },
    "Holding_per_stop": {
        "H": 6.5625,
        "I": 14.6875,
        "J": 21.030927835051546,
        "G": 21.789473684210527,
        "D": 3.75,
        "K": 16.082474226804123,
        "C": 5.684210526315789,
        "E": 18,
        "L": 15.3125,
        "F": 12,
        "A": 8.125,
        "B": 4.7368421052631575
    },
    "Actions_tfl_edges": {},
    "Load_per_bus_per_stop": {
        "bus3": {
            "H": 126.75,
            "I": 123.3125,
            "J": 116.3125,
            "K": 107.3125,
            "L": 98.1875,
            "A": 89,
            "B": 81.1875,
            "C": 77.875,
            "D": 75.1875,
            "E": 74.8125,
            "F": 95.5625,
            "G": 127
        },
        "bus2": {
            "G": 117.625,
            "H": 126.1875,
            "I": 125.5,
            "J": 118.75,
            "K": 110.875,
            "L": 102.25,
            "A": 93.3125,
            "B": 84.9375,
            "C": 78.625,
            "D": 76.4375,
            "E": 75.2,
            "F": 96.33333333333333
        },
        "bus4": {
            "I": 115.3529411764706,
            "J": 108.375,
            "K": 100.875,
            "L": 93.5,
            "A": 84.5625,
            "B": 75.625,
            "C": 69.875,
            "D": 68.9375,
            "E": 66.4375,
            "F": 89,
            "G": 117.9375,
            "H": 127.3125
        },
        "bus5": {
            "J": 130.52941176470588,
            "K": 123.29411764705883,
            "L": 112.3125,
            "A": 102.1875,
            "B": 93,
            "C": 89.25,
            "D": 86.6875,
            "E": 86.125,
            "F": 110.0625,
            "G": 143.8125,
            "H": 151.5625,
            "I": 146.5625
        },
        "bus1": {
            "D": 74.4375,
            "E": 72.1875,
            "F": 95.75,
            "G": 130.375,
            "H": 139.5625,
            "I": 135.4375,
            "J": 127,
            "K": 116.75,
            "L": 106.5625,
            "A": 99.1875,
            "B": 88.8125,
            "C": 83.33333333333333
        },
        "bus0": {
            "C": 77.75,
            "D": 73.3125,
            "E": 70.9375,
            "F": 96.375,
            "G": 131.125,
            "H": 140,
            "I": 136.3125,
            "J": 130.1875,
            "K": 120.8125,
            "L": 112.0625,
            "A": 100.625,
            "B": 89.33333333333333
        }
    }
}