{
    "Average_holding_time": 51.245019920318725,
    "Average_holding_actions": [
        322,
        108,
        238,
        107,
        8,
        0
    ],
    "Average_travel_time_passengers": 2283.00700752438,
    "Average_passenger_waiting_time": 356.3997178387604,
    "Average_passenger_in_vehicle_time": 1926.607289685496,
    "Average_speed_busses": 0.041833333333333333,
    "Average_experienced_crowding": 89.64938616417284,
    "Average_covariation_headway": 0.22796268103817602,
    "Average_covariation_headway_stops": {
        "I": 0.13219552569555676,
        "E": 0.11374068750699239,
        "J": 0.14037427659080398,
        "K": 0.14103280607939356,
        "D": 0.10832681300791765,
        "A": 0.10103566745201,
        "L": 0.10081457120548094,
        "F": 0.09360808455260862,
        "B": 0.06065553367580876,
        "G": 0.0808358167887717,
        "H": 0.09871728660188303,
        "C": 0.08127242552579896
    },
    "Average_excess_waiting_time": {
        "I": 91.1020973626695,
        "E": 86.5444511650278,
        "J": 90.36975502751062,
        "K": 88.41724092311114,
        "D": 88.7199447493062,
        "A": 85.53767939528257,
        "L": 87.33777285165849,
        "F": 87.12238349044435,
        "B": 85.71987018945936,
        "G": 88.18708497837082,
        "H": 90.77976155595087,
        "C": 88.96998681017033
    },
    "Holding_per_stop": {
        "K": 95.71428571428571,
        "E": 32.142857142857146,
        "A": 12.142857142857142,
        "I": 86.02409638554217,
        "J": 91.07142857142857,
        "D": 18.214285714285715,
        "L": 100.35714285714286,
        "F": 40,
        "B": 18.928571428571427,
        "G": 46.626506024096386,
        "H": 61.80722891566265,
        "C": 11.927710843373495
    },
    "Actions_tfl_edges": {},
    "Load_per_bus_per_stop": {
        "bus2": {
            "I": 105.85714285714286,
            "J": 97.35714285714286,
            "K": 87.92857142857143,
            "L": 75.92857142857143,
            "A": 68.57142857142857,
            "B": 59.214285714285715,
            "C": 54.142857142857146,
            "D": 51.42857142857143,
            "E": 50.642857142857146,
            "F": 75.35714285714286,
            "G": 111.84615384615384,
            "H": 118.38461538461539
        },
        "bus1": {
            "E": 51.42857142857143,
            "F": 74.71428571428571,
            "G": 108.14285714285714,
            "H": 116.71428571428571,
            "I": 117.21428571428571,
            "J": 110.5,
            "K": 101.14285714285714,
            "L": 89.14285714285714,
            "A": 78.42857142857143,
            "B": 65.92857142857143,
            "C": 61.214285714285715,
            "D": 57.42857142857143
        },
        "bus3": {
            "J": 95.35714285714286,
            "K": 88.14285714285714,
            "L": 78.64285714285714,
            "A": 67.42857142857143,
            "B": 58.714285714285715,
            "C": 51.714285714285715,
            "D": 49.214285714285715,
            "E": 47.857142857142854,
            "F": 70,
            "G": 104,
            "H": 116.07142857142857,
            "I": 111.71428571428571
        },
        "bus4": {
            "K": 88.8,
            "L": 77.85714285714286,
            "A": 68.92857142857143,
            "B": 61,
            "C": 55.214285714285715,
            "D": 51.785714285714285,
            "E": 52.07142857142857,
            "F": 80,
            "G": 114.07142857142857,
            "H": 121.28571428571429,
            "I": 117.71428571428571,
            "J": 107.57142857142857
        },
        "bus0": {
            "D": 49.357142857142854,
            "E": 47.857142857142854,
            "F": 70.28571428571429,
            "G": 106.14285714285714,
            "H": 117.35714285714286,
            "I": 113.85714285714286,
            "J": 106.57142857142857,
            "K": 97.28571428571429,
            "L": 86.21428571428571,
            "A": 73.57142857142857,
            "B": 62.57142857142857,
            "C": 57
        },
        "bus5": {
            "A": 69.14285714285714,
            "B": 58.142857142857146,
            "C": 53.57142857142857,
            "D": 52.785714285714285,
            "E": 49.285714285714285,
            "F": 74.92857142857143,
            "G": 112.42857142857143,
            "H": 120.5,
            "I": 116.21428571428571,
            "J": 107.78571428571429,
            "K": 98.28571428571429,
            "L": 88.21428571428571
        }
    },
    "Obs_and_actions_busses": {
        "5": 533.2453122943987,
        "1": 48.074074071666544,
        "2": 16.206068296941588,
        "3": -29.543438507108377,
        "0": -72.38272788819737,
        "4": 87.26350793371009
    },
    "Obs_and_actions_tfls": {}
}