{
    "Average_holding_time": 50.17910447761194,
    "Average_holding_actions": [
        348,
        101,
        245,
        85,
        36,
        0
    ],
    "Average_travel_time_passengers": 2306.1735877496494,
    "Average_passenger_waiting_time": 367.9319610584831,
    "Average_passenger_in_vehicle_time": 1938.2416266911034,
    "Average_speed_busses": 0.041875,
    "Average_experienced_crowding": 94.5017554797599,
    "Average_covariation_headway": 0.28853184767585294,
    "Average_covariation_headway_stops": {
        "H": 0.2716197985599912,
        "G": 0.24339651203522042,
        "E": 0.22925677527946872,
        "F": 0.2190524863691266,
        "K": 0.21774003406240966,
        "L": 0.20623973512670887,
        "I": 0.2593881160975762,
        "J": 0.228958673496258,
        "A": 0.17274376382002968,
        "B": 0.15032558610686067,
        "C": 0.1752316935002908,
        "D": 0.20515474833413
    },
    "Average_excess_waiting_time": {
        "H": 105.63249720191004,
        "G": 103.17673539048178,
        "E": 106.30371876110934,
        "F": 102.13432978512776,
        "K": 98.46781260065916,
        "L": 94.79171977235421,
        "I": 105.46039211651726,
        "J": 102.48948567400618,
        "A": 93.27307199998319,
        "B": 93.28850431929567,
        "C": 98.77740862535637,
        "D": 105.03766701873002
    },
    "Holding_per_stop": {
        "H": 58.588235294117645,
        "G": 49.285714285714285,
        "L": 98.47058823529412,
        "I": 76.42857142857143,
        "F": 43.01204819277108,
        "K": 93.92857142857143,
        "E": 24.93975903614458,
        "J": 84.28571428571429,
        "A": 14.642857142857142,
        "B": 23.571428571428573,
        "C": 16.987951807228917,
        "D": 15.731707317073171
    },
    "Actions_tfl_edges": {},
    "Load_per_bus_per_stop": {
        "bus3": {
            "H": 109.73333333333333,
            "I": 107.21428571428571,
            "J": 100.71428571428571,
            "K": 89.78571428571429,
            "L": 79.92857142857143,
            "A": 71.5,
            "B": 61.285714285714285,
            "C": 55.57142857142857,
            "D": 51.92857142857143,
            "E": 48.857142857142854,
            "F": 72.14285714285714,
            "G": 106.92857142857143
        },
        "bus2": {
            "G": 105.78571428571429,
            "H": 115.64285714285714,
            "I": 111.14285714285714,
            "J": 102.42857142857143,
            "K": 94.07142857142857,
            "L": 83.07142857142857,
            "A": 71.14285714285714,
            "B": 60,
            "C": 54.857142857142854,
            "D": 51.357142857142854,
            "E": 51.285714285714285,
            "F": 75.85714285714286
        },
        "bus0": {
            "E": 48.214285714285715,
            "F": 73.42857142857143,
            "G": 112.28571428571429,
            "H": 121.42857142857143,
            "I": 117.5,
            "J": 108.92857142857143,
            "K": 99.35714285714286,
            "L": 87.28571428571429,
            "A": 74.42857142857143,
            "B": 64.21428571428571,
            "C": 58.53846153846154,
            "D": 54.15384615384615
        },
        "bus1": {
            "F": 69.5,
            "G": 107.85714285714286,
            "H": 115.28571428571429,
            "I": 110.07142857142857,
            "J": 102.85714285714286,
            "K": 94.42857142857143,
            "L": 83.35714285714286,
            "A": 73.64285714285714,
            "B": 65.42857142857143,
            "C": 60.57142857142857,
            "D": 53.714285714285715,
            "E": 49.84615384615385
        },
        "bus4": {
            "K": 86.57142857142857,
            "L": 76.35714285714286,
            "A": 66.07142857142857,
            "B": 58.285714285714285,
            "C": 54.214285714285715,
            "D": 52.285714285714285,
            "E": 49.92857142857143,
            "F": 75.07142857142857,
            "G": 109.28571428571429,
            "H": 117.35714285714286,
            "I": 111.21428571428571,
            "J": 101.92857142857143
        },
        "bus5": {
            "L": 90.53333333333333,
            "A": 78.78571428571429,
            "B": 67.71428571428571,
            "C": 60.214285714285715,
            "D": 58.92857142857143,
            "E": 56.214285714285715,
            "F": 87.5,
            "G": 127.78571428571429,
            "H": 140.5,
            "I": 135.57142857142858,
            "J": 126.14285714285714,
            "K": 110.85714285714286
        }
    },
    "Obs_and_actions_busses": {
        "0": -116.69799448717275,
        "3": -19.86367667284918,
        "1": 47.24752475405894,
        "2": 13.273933118823695,
        "4": 101.35311537483634,
        "5": 517.4022773291339
    },
    "Obs_and_actions_tfls": {}
}