{
    "Average_holding_time": 51.137724550898206,
    "Average_holding_actions": [
        302,
        122,
        282,
        116,
        9,
        0
    ],
    "Average_travel_time_passengers": 2300.7691153147252,
    "Average_passenger_waiting_time": 357.09946829439986,
    "Average_passenger_in_vehicle_time": 1943.6696470202476,
    "Average_speed_busses": 0.04175,
    "Average_experienced_crowding": 92.56341198247709,
    "Average_covariation_headway": 0.22724274718592066,
    "Average_covariation_headway_stops": {
        "H": 0.1595121767449892,
        "G": 0.13916331584609695,
        "E": 0.11752483841650041,
        "F": 0.1205674863327753,
        "K": 0.12450039021774807,
        "I": 0.13472128508959288,
        "B": 0.07509489270545579,
        "L": 0.09248948184871127,
        "J": 0.10653843452380089,
        "C": 0.05625424410826276,
        "A": 0.06717964643591219,
        "D": 0.08156510144884511
    },
    "Average_excess_waiting_time": {
        "H": 89.14141884773034,
        "G": 89.63839977354166,
        "E": 92.51381989667902,
        "F": 90.53844892104303,
        "K": 88.23713744985918,
        "I": 88.67339341384132,
        "B": 87.38449003585833,
        "L": 88.09976348054306,
        "J": 88.41026224034181,
        "C": 89.09482418421874,
        "A": 88.6476909100731,
        "D": 92.47952594616925
    },
    "Holding_per_stop": {
        "H": 60.35294117647059,
        "G": 48.214285714285715,
        "K": 97.5,
        "I": 77.5,
        "F": 41.566265060240966,
        "B": 23.85542168674699,
        "E": 29.27710843373494,
        "L": 100.71428571428571,
        "J": 88.57142857142857,
        "C": 14.457831325301205,
        "A": 10.843373493975903,
        "D": 18.29268292682927
    },
    "Actions_tfl_edges": {},
    "Load_per_bus_per_stop": {
        "bus4": {
            "H": 112.13333333333334,
            "I": 109.28571428571429,
            "J": 102.42857142857143,
            "K": 95,
            "L": 84.07142857142857,
            "A": 72.14285714285714,
            "B": 61.57142857142857,
            "C": 57.07142857142857,
            "D": 53.214285714285715,
            "E": 51.642857142857146,
            "F": 75.42857142857143,
            "G": 112.42857142857143
        },
        "bus3": {
            "G": 109.57142857142857,
            "H": 119.28571428571429,
            "I": 115.21428571428571,
            "J": 109,
            "K": 98.5,
            "L": 86.64285714285714,
            "A": 74.35714285714286,
            "B": 64.42857142857143,
            "C": 57.714285714285715,
            "D": 53.92857142857143,
            "E": 50.57142857142857,
            "F": 79
        },
        "bus1": {
            "E": 48.642857142857146,
            "F": 72.78571428571429,
            "G": 107.07142857142857,
            "H": 114.5,
            "I": 110.21428571428571,
            "J": 105.42857142857143,
            "K": 95.5,
            "L": 83.57142857142857,
            "A": 74.42857142857143,
            "B": 61.642857142857146,
            "C": 55.38461538461539,
            "D": 53.53846153846154
        },
        "bus2": {
            "F": 73.92857142857143,
            "G": 109.71428571428571,
            "H": 120.21428571428571,
            "I": 113.42857142857143,
            "J": 105.07142857142857,
            "K": 95.92857142857143,
            "L": 87.57142857142857,
            "A": 73.71428571428571,
            "B": 62.357142857142854,
            "C": 56.57142857142857,
            "D": 52.357142857142854,
            "E": 50.84615384615385
        },
        "bus5": {
            "K": 88.85714285714286,
            "L": 79.5,
            "A": 70.07142857142857,
            "B": 59.785714285714285,
            "C": 54.42857142857143,
            "D": 51.357142857142854,
            "E": 49.857142857142854,
            "F": 79.21428571428571,
            "G": 114.35714285714286,
            "H": 122.35714285714286,
            "I": 114.07142857142857,
            "J": 105.14285714285714
        },
        "bus0": {
            "B": 65.07142857142857,
            "C": 57.142857142857146,
            "D": 55.42857142857143,
            "E": 54.285714285714285,
            "F": 81.78571428571429,
            "G": 120.35714285714286,
            "H": 130.14285714285714,
            "I": 126.14285714285714,
            "J": 118.28571428571429,
            "K": 108.42857142857143,
            "L": 96.71428571428571,
            "A": 82
        }
    },
    "Obs_and_actions_busses": {
        "0": -66.45929503252286,
        "1": 36.278688524262414,
        "2": 4.741397518536252,
        "4": 75.05172413758622,
        "3": -28.40350877134496,
        "5": 474.0503742548717
    },
    "Obs_and_actions_tfls": {}
}