{
    "Average_holding_time": 48.136769078295345,
    "Average_holding_actions": [
        376,
        111,
        161,
        95,
        4,
        0
    ],
    "Average_travel_time_passengers": 2271.5156885569513,
    "Average_passenger_waiting_time": 352.16819129825313,
    "Average_passenger_in_vehicle_time": 1919.3474972585839,
    "Average_speed_busses": 0.042041666666666665,
    "Average_experienced_crowding": 91.44644596273561,
    "Average_covariation_headway": 0.2304656820250933,
    "Average_covariation_headway_stops": {
        "H": 0.1471980660206376,
        "F": 0.11262812203748002,
        "J": 0.12254379890019124,
        "L": 0.1038861168387669,
        "D": 0.11388999926297251,
        "A": 0.10155269139039586,
        "I": 0.10807583086356845,
        "G": 0.10255320942167809,
        "K": 0.09666722965315726,
        "B": 0.07151555587720605,
        "E": 0.0813574712915019,
        "C": 0.0896887518085199
    },
    "Average_excess_waiting_time": {
        "H": 88.7123176678283,
        "F": 86.48665991613717,
        "J": 85.89445173375947,
        "L": 84.6984643368844,
        "D": 86.72511982406314,
        "A": 82.79644219611487,
        "I": 86.44294042356717,
        "G": 87.37161189364116,
        "K": 86.16133622377095,
        "B": 83.31322908866008,
        "E": 86.21401723347674,
        "C": 87.20012514298514
    },
    "Holding_per_stop": {
        "H": 64.28571428571429,
        "J": 86.78571428571429,
        "A": 10.235294117647058,
        "F": 32.5,
        "L": 101.78571428571429,
        "D": 12.5,
        "I": 77.5,
        "K": 97.14285714285714,
        "G": 41.785714285714285,
        "B": 18.571428571428573,
        "E": 23.571428571428573,
        "C": 11.428571428571429
    },
    "Actions_tfl_edges": {},
    "Load_per_bus_per_stop": {
        "bus2": {
            "H": 116.93333333333334,
            "I": 109.35714285714286,
            "J": 103.35714285714286,
            "K": 96.14285714285714,
            "L": 84.92857142857143,
            "A": 72.78571428571429,
            "B": 62.714285714285715,
            "C": 59.5,
            "D": 54.642857142857146,
            "E": 52.785714285714285,
            "F": 79.07142857142857,
            "G": 115.85714285714286
        },
        "bus1": {
            "F": 69.14285714285714,
            "G": 109.71428571428571,
            "H": 118.92857142857143,
            "I": 114.14285714285714,
            "J": 105.92857142857143,
            "K": 96.78571428571429,
            "L": 87.71428571428571,
            "A": 74.92857142857143,
            "B": 64.71428571428571,
            "C": 56,
            "D": 52.07142857142857,
            "E": 49.857142857142854
        },
        "bus3": {
            "J": 103.33333333333333,
            "K": 92,
            "L": 81.5,
            "A": 68.78571428571429,
            "B": 60.92857142857143,
            "C": 53.214285714285715,
            "D": 47.642857142857146,
            "E": 48.285714285714285,
            "F": 73.28571428571429,
            "G": 112.42857142857143,
            "H": 122.64285714285714,
            "I": 119.42857142857143
        },
        "bus4": {
            "L": 81.93333333333334,
            "A": 70.42857142857143,
            "B": 62.07142857142857,
            "C": 55.285714285714285,
            "D": 51.42857142857143,
            "E": 50.07142857142857,
            "F": 77.35714285714286,
            "G": 109.07142857142857,
            "H": 117.5,
            "I": 117.64285714285714,
            "J": 111.28571428571429,
            "K": 99.92857142857143
        },
        "bus0": {
            "D": 49.642857142857146,
            "E": 48,
            "F": 75.85714285714286,
            "G": 110.78571428571429,
            "H": 121.14285714285714,
            "I": 117.71428571428571,
            "J": 110.92857142857143,
            "K": 98.92857142857143,
            "L": 90.35714285714286,
            "A": 78.71428571428571,
            "B": 65.28571428571429,
            "C": 57.214285714285715
        },
        "bus5": {
            "A": 68.46666666666667,
            "B": 60.266666666666666,
            "C": 56,
            "D": 54.642857142857146,
            "E": 52.785714285714285,
            "F": 76,
            "G": 112.21428571428571,
            "H": 120.35714285714286,
            "I": 112.71428571428571,
            "J": 102.85714285714286,
            "K": 92.64285714285714,
            "L": 83.5
        }
    },
    "Obs_and_actions_busses": {
        "3": -17.194221963964694,
        "4": 91.84388960438643,
        "1": 55.69369369423392,
        "2": 32.9045780403302,
        "0": -62.100295529986624,
        "5": 373.73397180091405
    },
    "Obs_and_actions_tfls": {}
}