{
    "Average_holding_time": 49.53280318091451,
    "Average_holding_actions": [
        351,
        116,
        226,
        102,
        26,
        0
    ],
    "Average_travel_time_passengers": 2308.9030046947296,
    "Average_passenger_waiting_time": 363.14761228835494,
    "Average_passenger_in_vehicle_time": 1945.7553924062845,
    "Average_speed_busses": 0.041916666666666665,
    "Average_experienced_crowding": 93.46757678116387,
    "Average_covariation_headway": 0.27585025530966745,
    "Average_covariation_headway_stops": {
        "J": 0.24447781098340624,
        "K": 0.23046916574954324,
        "D": 0.17559112669709334,
        "A": 0.1816155875426067,
        "B": 0.1741408951106885,
        "C": 0.17292620908705236,
        "L": 0.19526215102768993,
        "E": 0.14708990389911594,
        "F": 0.14438711827923667,
        "G": 0.16970318611986154,
        "H": 0.20795263396754668,
        "I": 0.2315331591402604
    },
    "Average_excess_waiting_time": {
        "J": 106.40593098398654,
        "K": 102.34475405054667,
        "D": 89.69216469398947,
        "A": 95.66387934997664,
        "B": 93.32004128508925,
        "C": 91.36916946941807,
        "L": 98.97918820789226,
        "E": 88.22058058366099,
        "F": 90.0656166442796,
        "G": 94.73913498351942,
        "H": 101.09719556304236,
        "I": 106.58056478399163
    },
    "Holding_per_stop": {
        "K": 96.78571428571429,
        "A": 17.5,
        "D": 20.823529411764707,
        "B": 25.357142857142858,
        "C": 14.470588235294118,
        "J": 86.3855421686747,
        "L": 100.12048192771084,
        "E": 26.11764705882353,
        "F": 36.785714285714285,
        "G": 44.096385542168676,
        "H": 55.30120481927711,
        "I": 73.01204819277109
    },
    "Actions_tfl_edges": {},
    "Load_per_bus_per_stop": {
        "bus3": {
            "J": 112.92857142857143,
            "K": 102.71428571428571,
            "L": 90.71428571428571,
            "A": 79.07142857142857,
            "B": 67.42857142857143,
            "C": 60.357142857142854,
            "D": 56.92857142857143,
            "E": 53.642857142857146,
            "F": 79.42857142857143,
            "G": 120.57142857142857,
            "H": 131.30769230769232,
            "I": 129.07692307692307
        },
        "bus4": {
            "K": 92.35714285714286,
            "L": 84.5,
            "A": 72.78571428571429,
            "B": 62.714285714285715,
            "C": 56.642857142857146,
            "D": 53.642857142857146,
            "E": 50.92857142857143,
            "F": 74.42857142857143,
            "G": 109.5,
            "H": 115.78571428571429,
            "I": 115.71428571428571,
            "J": 110.28571428571429
        },
        "bus2": {
            "D": 52.46666666666667,
            "E": 52.06666666666667,
            "F": 83.57142857142857,
            "G": 119.71428571428571,
            "H": 127.71428571428571,
            "I": 122.64285714285714,
            "J": 113.92857142857143,
            "K": 102.85714285714286,
            "L": 91.71428571428571,
            "A": 80.85714285714286,
            "B": 69.78571428571429,
            "C": 62.214285714285715
        },
        "bus5": {
            "A": 71,
            "B": 60.785714285714285,
            "C": 54.714285714285715,
            "D": 50.785714285714285,
            "E": 50,
            "F": 74.21428571428571,
            "G": 109.85714285714286,
            "H": 117.71428571428571,
            "I": 114,
            "J": 107.07142857142857,
            "K": 96.42857142857143,
            "L": 86.61538461538461
        },
        "bus0": {
            "B": 59.214285714285715,
            "C": 55.357142857142854,
            "D": 52.42857142857143,
            "E": 48.642857142857146,
            "F": 72.28571428571429,
            "G": 104.78571428571429,
            "H": 114,
            "I": 108.42857142857143,
            "J": 101.28571428571429,
            "K": 92.57142857142857,
            "L": 83.57142857142857,
            "A": 72.64285714285714
        },
        "bus1": {
            "C": 55.86666666666667,
            "D": 53.07142857142857,
            "E": 49.785714285714285,
            "F": 69.21428571428571,
            "G": 103.57142857142857,
            "H": 111.42857142857143,
            "I": 107.71428571428571,
            "J": 100.64285714285714,
            "K": 91.64285714285714,
            "L": 82.85714285714286,
            "A": 73,
            "B": 63.857142857142854
        }
    },
    "Obs_and_actions_busses": {
        "0": -119.16916914350747,
        "1": 43.27899022201379,
        "2": 25.079295155946923,
        "5": 450.3001669876887,
        "4": 102.30097087339888,
        "3": -24.389189190378804
    },
    "Obs_and_actions_tfls": {}
}