{
    "Average_holding_time": 50.53731343283582,
    "Average_holding_actions": [
        312,
        111,
        292,
        110,
        9,
        0
    ],
    "Average_travel_time_passengers": 2303.178486280057,
    "Average_passenger_waiting_time": 355.7675282375467,
    "Average_passenger_in_vehicle_time": 1947.4109580424067,
    "Average_speed_busses": 0.041875,
    "Average_experienced_crowding": 91.26487701752353,
    "Average_covariation_headway": 0.23065144775387017,
    "Average_covariation_headway_stops": {
        "G": 0.12667077441648397,
        "H": 0.12424354560278249,
        "E": 0.11561725033068176,
        "K": 0.11631331944031606,
        "L": 0.11199405480979582,
        "D": 0.11242999709350589,
        "A": 0.11198632190842289,
        "I": 0.09260377811627199,
        "F": 0.0873886824510879,
        "B": 0.08165735442161938,
        "J": 0.08190842121921903,
        "C": 0.09319107386359864
    },
    "Average_excess_waiting_time": {
        "G": 86.95731956172602,
        "H": 88.60758911242556,
        "E": 86.71280749031473,
        "K": 89.76101993436828,
        "L": 87.70242364746537,
        "D": 88.86370177482735,
        "A": 85.92410526335078,
        "I": 87.93313154340484,
        "F": 86.78111200044583,
        "B": 86.2910901354532,
        "J": 89.37659197358778,
        "C": 89.72959910364546
    },
    "Holding_per_stop": {
        "G": 45.357142857142854,
        "E": 31.428571428571427,
        "H": 55,
        "A": 11.785714285714286,
        "L": 100.71428571428571,
        "K": 98.92857142857143,
        "D": 21.071428571428573,
        "F": 42.857142857142854,
        "I": 71.92771084337349,
        "B": 22.857142857142858,
        "J": 90.36144578313252,
        "C": 14.457831325301205
    },
    "Actions_tfl_edges": {},
    "Load_per_bus_per_stop": {
        "bus2": {
            "G": 107.93333333333334,
            "H": 116.42857142857143,
            "I": 114.14285714285714,
            "J": 107.21428571428571,
            "K": 96.78571428571429,
            "L": 86.28571428571429,
            "A": 75.35714285714286,
            "B": 63.92857142857143,
            "C": 57.357142857142854,
            "D": 51.857142857142854,
            "E": 50.642857142857146,
            "F": 76
        },
        "bus1": {
            "E": 49.785714285714285,
            "F": 72.92857142857143,
            "G": 108.42857142857143,
            "H": 115.07142857142857,
            "I": 110.71428571428571,
            "J": 103.5,
            "K": 95.42857142857143,
            "L": 85.57142857142857,
            "A": 74.57142857142857,
            "B": 64.78571428571429,
            "C": 58.5,
            "D": 52.642857142857146
        },
        "bus3": {
            "K": 93,
            "L": 83.28571428571429,
            "A": 73.42857142857143,
            "B": 61.857142857142854,
            "C": 54.714285714285715,
            "D": 48.357142857142854,
            "E": 50.07142857142857,
            "F": 75.28571428571429,
            "G": 113.85714285714286,
            "H": 122.42857142857143,
            "I": 117.5,
            "J": 110.15384615384616
        },
        "bus4": {
            "L": 79.28571428571429,
            "A": 69.14285714285714,
            "B": 59.214285714285715,
            "C": 53.5,
            "D": 49.642857142857146,
            "E": 49.07142857142857,
            "F": 74.21428571428571,
            "G": 111.21428571428571,
            "H": 119.57142857142857,
            "I": 113.92857142857143,
            "J": 108.85714285714286,
            "K": 99.85714285714286
        },
        "bus0": {
            "D": 48.92857142857143,
            "E": 47.785714285714285,
            "F": 72,
            "G": 107.42857142857143,
            "H": 117.21428571428571,
            "I": 112.35714285714286,
            "J": 104.42857142857143,
            "K": 93.64285714285714,
            "L": 84.78571428571429,
            "A": 75.35714285714286,
            "B": 65,
            "C": 58.84615384615385
        },
        "bus5": {
            "A": 72.14285714285714,
            "B": 61.57142857142857,
            "C": 55.285714285714285,
            "D": 54.857142857142854,
            "E": 54,
            "F": 79.42857142857143,
            "G": 119.28571428571429,
            "H": 128.14285714285714,
            "I": 123.85714285714286,
            "J": 115.21428571428571,
            "K": 103.35714285714286,
            "L": 90.21428571428571
        }
    },
    "Obs_and_actions_busses": {
        "0": -73.5288187117231,
        "4": 87.2371075104971,
        "3": -28.985388538585337,
        "1": 42.747747747657435,
        "2": 12.547569283324638,
        "5": 365.6442162558446
    },
    "Obs_and_actions_tfls": {}
}nd_actions_tfls": {}
}