{
    "Average_holding_time": 51.08673978065803,
    "Average_holding_actions": [
        314,
        121,
        272,
        131,
        12,
        0
    ],
    "Average_travel_time_passengers": 2289.637769902265,
    "Average_passenger_waiting_time": 355.47098101605286,
    "Average_passenger_in_vehicle_time": 1934.1667888860932,
    "Average_speed_busses": 0.041791666666666664,
    "Average_experienced_crowding": 90.91681543811998,
    "Average_covariation_headway": 0.22835815090536177,
    "Average_covariation_headway_stops": {
        "H": 0.15719642466635525,
        "G": 0.13252493033729665,
        "L": 0.10674316015005457,
        "I": 0.12525873184263167,
        "D": 0.10055878446119092,
        "B": 0.09228439980036705,
        "C": 0.09255602164829811,
        "J": 0.08884866569391696,
        "E": 0.08606111779125415,
        "A": 0.07534052882290258,
        "K": 0.06725177229568663,
        "F": 0.08237527339723312
    },
    "Average_excess_waiting_time": {
        "H": 89.6940666330014,
        "G": 89.80054360121767,
        "L": 89.17803402315201,
        "I": 87.75938954086354,
        "D": 85.7987019496984,
        "B": 88.97152817047709,
        "C": 87.35375368416976,
        "J": 87.26139141002733,
        "E": 86.6882581557237,
        "A": 89.78640745376549,
        "K": 88.73583779204142,
        "F": 88.43342418487049
    },
    "Holding_per_stop": {
        "H": 60.714285714285715,
        "I": 77.5,
        "G": 49.642857142857146,
        "D": 20.714285714285715,
        "C": 16.785714285714285,
        "L": 100.48192771084338,
        "B": 24.93975903614458,
        "J": 88.92857142857143,
        "E": 28.571428571428573,
        "A": 8.313253012048193,
        "K": 95.42168674698796,
        "F": 41.204819277108435
    },
    "Actions_tfl_edges": {},
    "Load_per_bus_per_stop": {
        "bus4": {
            "H": 112.8,
            "I": 105.42857142857143,
            "J": 98.85714285714286,
            "K": 90.42857142857143,
            "L": 80,
            "A": 71.64285714285714,
            "B": 60.214285714285715,
            "C": 54.214285714285715,
            "D": 53.214285714285715,
            "E": 53.57142857142857,
            "F": 76.14285714285714,
            "G": 112.92857142857143
        },
        "bus3": {
            "G": 100,
            "H": 108.5,
            "I": 104.78571428571429,
            "J": 97.92857142857143,
            "K": 90.78571428571429,
            "L": 80.78571428571429,
            "A": 70.57142857142857,
            "B": 59.214285714285715,
            "C": 54.57142857142857,
            "D": 49.285714285714285,
            "E": 47.785714285714285,
            "F": 73.07692307692308
        },
        "bus5": {
            "L": 82.85714285714286,
            "A": 72.92857142857143,
            "B": 62.785714285714285,
            "C": 54.785714285714285,
            "D": 52.07142857142857,
            "E": 48.92857142857143,
            "F": 74.28571428571429,
            "G": 110.71428571428571,
            "H": 123.07142857142857,
            "I": 119.92857142857143,
            "J": 111.14285714285714,
            "K": 99.46153846153847
        },
        "bus2": {
            "D": 51,
            "E": 48.642857142857146,
            "F": 76.85714285714286,
            "G": 111.42857142857143,
            "H": 119.78571428571429,
            "I": 115.85714285714286,
            "J": 110.64285714285714,
            "K": 100.92857142857143,
            "L": 87.78571428571429,
            "A": 76.28571428571429,
            "B": 64.57142857142857,
            "C": 58.642857142857146
        },
        "bus0": {
            "B": 64.21428571428571,
            "C": 58.5,
            "D": 53.42857142857143,
            "E": 51.142857142857146,
            "F": 79.92857142857143,
            "G": 115.78571428571429,
            "H": 126.07142857142857,
            "I": 122.14285714285714,
            "J": 110.28571428571429,
            "K": 100.28571428571429,
            "L": 90.78571428571429,
            "A": 79.07692307692308
        },
        "bus1": {
            "C": 52.642857142857146,
            "D": 49.357142857142854,
            "E": 48.5,
            "F": 76.57142857142857,
            "G": 111.5,
            "H": 119.42857142857143,
            "I": 113.57142857142857,
            "J": 103.64285714285714,
            "K": 94.5,
            "L": 85.35714285714286,
            "A": 75.5,
            "B": 64.3076923076923
        }
    },
    "Obs_and_actions_busses": {
        "0": -77.86253177060735,
        "1": 40.991735535950326,
        "5": 331.09315225859467,
        "2": 11.974264706360664,
        "4": 82.99236641335932,
        "3": -32.62987013103975
    },
    "Obs_and_actions_tfls": {}
}