{
    "Average_holding_time": 56.4344262295082,
    "Average_holding_actions": [
        330,
        88,
        177,
        81,
        85,
        0
    ],
    "Average_travel_time_passengers": 2422.060036247792,
    "Average_passenger_waiting_time": 421.60422620739627,
    "Average_passenger_in_vehicle_time": 2000.4558100403099,
    "Average_speed_busses": 0.04066666666666666,
    "Average_experienced_crowding": 108.25727563392293,
    "Average_covariation_headway": 0.40571187682480475,
    "Average_covariation_headway_stops": {
        "G": 0.4147881924840291,
        "I": 0.44358623664502655,
        "F": 0.38012177534831787,
        "J": 0.42750183673235403,
        "K": 0.4193467426914016,
        "L": 0.40857343815674213,
        "H": 0.4460617300768866,
        "A": 0.38412458655630083,
        "B": 0.36302264771722015,
        "C": 0.3529730583267227,
        "D": 0.3569379404313703,
        "E": 0.3712039750139879
    },
    "Average_excess_waiting_time": {
        "G": 157.50697552870577,
        "I": 165.62841238702975,
        "F": 151.0724518115158,
        "J": 158.22593322215835,
        "K": 153.0242746086975,
        "L": 147.48260001387013,
        "H": 169.42411952079232,
        "A": 143.53968721155047,
        "B": 140.6573929131959,
        "C": 141.49138251096656,
        "D": 144.9107955851896,
        "E": 151.43925235670116
    },
    "Holding_per_stop": {
        "G": 53.333333333333336,
        "L": 95.42168674698796,
        "I": 82.22222222222223,
        "J": 94.7560975609756,
        "K": 96.58536585365853,
        "H": 64.81481481481481,
        "F": 47.25,
        "A": 23.78048780487805,
        "B": 32.19512195121951,
        "C": 23.703703703703702,
        "D": 27.037037037037038,
        "E": 34.5
    },
    "Actions_tfl_edges": {},
    "Load_per_bus_per_stop": {
        "bus1": {
            "G": 107.85714285714286,
            "H": 118.57142857142857,
            "I": 117.14285714285714,
            "J": 110.78571428571429,
            "K": 98.42857142857143,
            "L": 86.92857142857143,
            "A": 78,
            "B": 65.53846153846153,
            "C": 57.30769230769231,
            "D": 53.07692307692308,
            "E": 51.30769230769231,
            "F": 75.84615384615384
        },
        "bus2": {
            "I": 104.14285714285714,
            "J": 99.14285714285714,
            "K": 90.78571428571429,
            "L": 80.92857142857143,
            "A": 71.85714285714286,
            "B": 62.92857142857143,
            "C": 54.30769230769231,
            "D": 52,
            "E": 50.23076923076923,
            "F": 75.38461538461539,
            "G": 110.6923076923077,
            "H": 118.84615384615384
        },
        "bus0": {
            "F": 79.5,
            "G": 116.78571428571429,
            "H": 128.85714285714286,
            "I": 125.57142857142857,
            "J": 117.5,
            "K": 106.3076923076923,
            "L": 94.46153846153847,
            "A": 81.84615384615384,
            "B": 70.92307692307692,
            "C": 65.6923076923077,
            "D": 60.07692307692308,
            "E": 57.23076923076923
        },
        "bus3": {
            "J": 88.21428571428571,
            "K": 80.5,
            "L": 71.78571428571429,
            "A": 62,
            "B": 54.57142857142857,
            "C": 48.857142857142854,
            "D": 47.42857142857143,
            "E": 46.61538461538461,
            "F": 68.38461538461539,
            "G": 100,
            "H": 106.84615384615384,
            "I": 102
        },
        "bus4": {
            "K": 79.92857142857143,
            "L": 71.71428571428571,
            "A": 62.142857142857146,
            "B": 54.785714285714285,
            "C": 50.357142857142854,
            "D": 47,
            "E": 44.57142857142857,
            "F": 65.78571428571429,
            "G": 98.61538461538461,
            "H": 102.3076923076923,
            "I": 100.38461538461539,
            "J": 94.3076923076923
        },
        "bus5": {
            "L": 112.71428571428571,
            "A": 94.42857142857143,
            "B": 79.21428571428571,
            "C": 73.71428571428571,
            "D": 70.14285714285714,
            "E": 69.07142857142857,
            "F": 105.28571428571429,
            "G": 156,
            "H": 168.35714285714286,
            "I": 161.85714285714286,
            "J": 153.6153846153846,
            "K": 137.3846153846154
        }
    },
    "Obs_and_actions_busses": {
        "0": -240.94367016075182,
        "4": 138.29138021956084,
        "3": -14.524404997895122,
        "5": 597.3980567070282,
        "2": 29.44632768305082,
        "1": 51.204545458977066
    },
    "Obs_and_actions_tfls": {}
}