{
    "Average_holding_time": 78.93362350380849,
    "Average_holding_actions": [
        25,
        223,
        215,
        283,
        57,
        0
    ],
    "Average_travel_time_passengers": 2509.5518948001854,
    "Average_passenger_waiting_time": 419.2901278861358,
    "Average_passenger_in_vehicle_time": 2090.261766913842,
    "Average_speed_busses": 0.03829166666666667,
    "Average_experienced_crowding": 104.96994801154146,
    "Average_covariation_headway": 0.38586042599878884,
    "Average_covariation_headway_stops": {
        "H": 0.3615571110116257,
        "G": 0.3064655264877697,
        "F": 0.2826756323717885,
        "K": 0.3412870175233744,
        "L": 0.341931727381089,
        "A": 0.331928011169085,
        "I": 0.362143505108166,
        "J": 0.3479716623132651,
        "B": 0.3073396394420194,
        "C": 0.2792726139483187,
        "D": 0.27168382650104717,
        "E": 0.27556831189913683
    },
    "Average_excess_waiting_time": {
        "H": 164.46782613407595,
        "G": 154.1374002703716,
        "F": 151.76037920030217,
        "K": 161.1328366087518,
        "L": 157.354101464265,
        "A": 152.7599764062836,
        "I": 166.5656843411897,
        "J": 165.4125009548892,
        "B": 150.581165970151,
        "C": 147.57591075604017,
        "D": 149.53646538163474,
        "E": 152.83455147966617
    },
    "Holding_per_stop": {
        "H": 81.42857142857143,
        "G": 80.52631578947368,
        "L": 75.58441558441558,
        "A": 65.38461538461539,
        "I": 86.88311688311688,
        "K": 74.41558441558442,
        "F": 80.92105263157895,
        "J": 82.5,
        "B": 77.14285714285714,
        "C": 79.87012987012987,
        "D": 82.89473684210526,
        "E": 80
    },
    "Actions_tfl_edges": {},
    "Load_per_bus_per_stop": {
        "bus2": {
            "H": 122.07692307692308,
            "I": 117.76923076923077,
            "J": 109.38461538461539,
            "K": 97.6923076923077,
            "L": 87.07692307692308,
            "A": 74.6923076923077,
            "B": 63.15384615384615,
            "C": 55.76923076923077,
            "D": 52.92307692307692,
            "E": 53.84615384615385,
            "F": 82.25,
            "G": 121.83333333333333
        },
        "bus1": {
            "G": 114.61538461538461,
            "H": 128.23076923076923,
            "I": 123.61538461538461,
            "J": 115.46153846153847,
            "K": 106.92307692307692,
            "L": 93.46153846153847,
            "A": 82.07692307692308,
            "B": 69.84615384615384,
            "C": 63.76923076923077,
            "D": 60.583333333333336,
            "E": 59.5,
            "F": 88.83333333333333
        },
        "bus0": {
            "F": 81.61538461538461,
            "G": 118.15384615384616,
            "H": 126.92307692307692,
            "I": 119.46153846153847,
            "J": 113.61538461538461,
            "K": 104.3076923076923,
            "L": 94.61538461538461,
            "A": 81.61538461538461,
            "B": 72.08333333333333,
            "C": 64.25,
            "D": 59.75,
            "E": 60.333333333333336
        },
        "bus3": {
            "K": 91,
            "L": 80.6923076923077,
            "A": 72.23076923076923,
            "B": 63.30769230769231,
            "C": 57.46153846153846,
            "D": 52.15384615384615,
            "E": 48.69230769230769,
            "F": 74.84615384615384,
            "G": 112.53846153846153,
            "H": 118.41666666666667,
            "I": 113.5,
            "J": 107.25
        },
        "bus4": {
            "L": 73.3076923076923,
            "A": 63.76923076923077,
            "B": 51.76923076923077,
            "C": 47.69230769230769,
            "D": 43.69230769230769,
            "E": 39.92307692307692,
            "F": 69,
            "G": 102.92307692307692,
            "H": 111.61538461538461,
            "I": 106.61538461538461,
            "J": 97.33333333333333,
            "K": 89.41666666666667
        },
        "bus5": {
            "A": 101,
            "B": 86.23076923076923,
            "C": 76,
            "D": 69.23076923076923,
            "E": 65.53846153846153,
            "F": 100.76923076923077,
            "G": 154.84615384615384,
            "H": 170.15384615384616,
            "I": 163.15384615384616,
            "J": 151.15384615384616,
            "K": 138.69230769230768,
            "L": 126.83333333333333
        }
    },
    "Obs_and_actions_busses": {
        "1": -207.17468342467026,
        "0": -1144.467354697685,
        "4": 250.66365069650257,
        "3": 28.741379308965097,
        "2": -49.90524563958719,
        "5": 31.754385966666458
    },
    "Obs_and_actions_tfls": {}
}