{
    "Average_holding_time": 76.77139761646804,
    "Average_holding_actions": [
        45,
        238,
        170,
        316,
        29,
        0
    ],
    "Average_travel_time_passengers": 2460.324085882511,
    "Average_passenger_waiting_time": 384.8389490860774,
    "Average_passenger_in_vehicle_time": 2075.485136796303,
    "Average_speed_busses": 0.03845833333333333,
    "Average_experienced_crowding": 98.6879120004841,
    "Average_covariation_headway": 0.241026326875182,
    "Average_covariation_headway_stops": {
        "G": 0.14071790291265462,
        "E": 0.11787955764460852,
        "J": 0.13396400216842633,
        "K": 0.1546992587011793,
        "A": 0.1233561347233002,
        "B": 0.14090688081236044,
        "H": 0.11814676153402139,
        "L": 0.11299311686312594,
        "F": 0.09752989513578732,
        "I": 0.10950101394855402,
        "C": 0.11095152322488482,
        "D": 0.0977672778556778
    },
    "Average_excess_waiting_time": {
        "G": 121.1324049257098,
        "E": 120.13936587767375,
        "J": 122.33746968498644,
        "K": 121.66097727427444,
        "A": 118.8201771612828,
        "B": 118.52111767618516,
        "H": 121.08501833203513,
        "L": 120.4458355166737,
        "F": 120.90695078416303,
        "I": 122.71816084726765,
        "C": 118.67415967744176,
        "D": 120.35446564323655
    },
    "Holding_per_stop": {
        "G": 81.03896103896103,
        "K": 79.48051948051948,
        "E": 80.64935064935065,
        "A": 39.74025974025974,
        "B": 73.84615384615384,
        "J": 76.36363636363636,
        "H": 82.98701298701299,
        "L": 77.53246753246754,
        "I": 82.10526315789474,
        "C": 80.64935064935065,
        "F": 84.07894736842105,
        "D": 82.98701298701299
    },
    "Actions_tfl_edges": {},
    "Load_per_bus_per_stop": {
        "bus2": {
            "G": 119,
            "H": 131.6153846153846,
            "I": 125.38461538461539,
            "J": 115.84615384615384,
            "K": 104.38461538461539,
            "L": 93.46153846153847,
            "A": 84.07692307692308,
            "B": 73.76923076923077,
            "C": 65.53846153846153,
            "D": 58.76923076923077,
            "E": 58.416666666666664,
            "F": 86.5
        },
        "bus1": {
            "E": 53,
            "F": 81.53846153846153,
            "G": 121.6923076923077,
            "H": 128.69230769230768,
            "I": 126.46153846153847,
            "J": 117.76923076923077,
            "K": 108.3076923076923,
            "L": 96.61538461538461,
            "A": 82.76923076923077,
            "B": 70.38461538461539,
            "C": 62.833333333333336,
            "D": 59.583333333333336
        },
        "bus3": {
            "J": 106.53846153846153,
            "K": 96.76923076923077,
            "L": 85.07692307692308,
            "A": 73.76923076923077,
            "B": 63.46153846153846,
            "C": 57.46153846153846,
            "D": 56.76923076923077,
            "E": 57.92307692307692,
            "F": 83.6923076923077,
            "G": 119.58333333333333,
            "H": 127,
            "I": 122.5
        },
        "bus4": {
            "K": 97.92307692307692,
            "L": 87.3076923076923,
            "A": 76.84615384615384,
            "B": 64.53846153846153,
            "C": 57.61538461538461,
            "D": 55.46153846153846,
            "E": 53,
            "F": 78.76923076923077,
            "G": 115.53846153846153,
            "H": 127.46153846153847,
            "I": 126.38461538461539,
            "J": 115.66666666666667
        },
        "bus5": {
            "A": 78.3076923076923,
            "B": 67.3076923076923,
            "C": 59.15384615384615,
            "D": 56.53846153846154,
            "E": 54.69230769230769,
            "F": 85.38461538461539,
            "G": 123.92307692307692,
            "H": 133.6153846153846,
            "I": 127.76923076923077,
            "J": 119.84615384615384,
            "K": 109.07692307692308,
            "L": 96.5
        },
        "bus0": {
            "B": 67.53846153846153,
            "C": 57.23076923076923,
            "D": 54.23076923076923,
            "E": 56.30769230769231,
            "F": 86.61538461538461,
            "G": 126.53846153846153,
            "H": 135.30769230769232,
            "I": 130.84615384615384,
            "J": 123.6923076923077,
            "K": 112.53846153846153,
            "L": 96.46153846153847,
            "A": 84
        }
    },
    "Obs_and_actions_busses": {
        "4": 100.44923718658423,
        "1": -111.88305853081668,
        "2": -52.65075617461536,
        "3": 12.33806637855817,
        "5": -0.655172414826948,
        "0": -148.73678325021345
    },
    "Obs_and_actions_tfls": {}
} "5": -0.8846153788470195
    },
    "Obs_and_actions_tfls": {}
}