{
    "Average_holding_time": 77.37012987012987,
    "Average_holding_actions": [
        35,
        204,
        248,
        270,
        51,
        0
    ],
    "Average_travel_time_passengers": 2478.316574352196,
    "Average_passenger_waiting_time": 386.1539645607467,
    "Average_passenger_in_vehicle_time": 2092.1626097913067,
    "Average_speed_busses": 0.0385,
    "Average_experienced_crowding": 98.71689561769921,
    "Average_covariation_headway": 0.23812112199253788,
    "Average_covariation_headway_stops": {
        "H": 0.13451598052828587,
        "I": 0.14595535824041073,
        "F": 0.10366801382043367,
        "D": 0.10422496375246097,
        "A": 0.14240385216501883,
        "B": 0.13254993200274282,
        "J": 0.11472212774502165,
        "G": 0.09399265776613472,
        "E": 0.05967478732623889,
        "K": 0.10616671301987797,
        "C": 0.09526623190317696,
        "L": 0.13023909153345356
    },
    "Average_excess_waiting_time": {
        "H": 120.68879980732311,
        "I": 118.67500782009552,
        "F": 118.28313311123878,
        "D": 118.56346080341137,
        "A": 123.30741373205484,
        "B": 119.84980398060401,
        "J": 117.83347601626559,
        "G": 119.50086371393832,
        "E": 118.10987936100526,
        "K": 119.2442543869069,
        "C": 119.85510028263116,
        "L": 124.19331509578365
    },
    "Holding_per_stop": {
        "I": 82.3076923076923,
        "H": 78.31168831168831,
        "F": 82.20779220779221,
        "A": 41.298701298701296,
        "B": 74.02597402597402,
        "D": 81.03896103896103,
        "J": 77.92207792207792,
        "G": 81.03896103896103,
        "K": 91.16883116883118,
        "E": 80.25974025974025,
        "C": 77.14285714285714,
        "L": 81.71052631578948
    },
    "Actions_tfl_edges": {},
    "Load_per_bus_per_stop": {
        "bus3": {
            "H": 118.76923076923077,
            "I": 113.23076923076923,
            "J": 106.92307692307692,
            "K": 97.07692307692308,
            "L": 90,
            "A": 79.53846153846153,
            "B": 66.46153846153847,
            "C": 59.53846153846154,
            "D": 54,
            "E": 52.30769230769231,
            "F": 80.75,
            "G": 118.41666666666667
        },
        "bus4": {
            "I": 117.53846153846153,
            "J": 110.3076923076923,
            "K": 101.23076923076923,
            "L": 90.6923076923077,
            "A": 79.07692307692308,
            "B": 69.07692307692308,
            "C": 60.23076923076923,
            "D": 59.69230769230769,
            "E": 58.92307692307692,
            "F": 86.15384615384616,
            "G": 126,
            "H": 130.58333333333334
        },
        "bus2": {
            "F": 75,
            "G": 112.84615384615384,
            "H": 123.76923076923077,
            "I": 121.6923076923077,
            "J": 112.92307692307692,
            "K": 103.15384615384616,
            "L": 91.53846153846153,
            "A": 79.23076923076923,
            "B": 68.92307692307692,
            "C": 61.15384615384615,
            "D": 57.166666666666664,
            "E": 55.083333333333336
        },
        "bus1": {
            "D": 53.15384615384615,
            "E": 51.38461538461539,
            "F": 81,
            "G": 126.23076923076923,
            "H": 133.23076923076923,
            "I": 131.15384615384616,
            "J": 122,
            "K": 109.15384615384616,
            "L": 96.38461538461539,
            "A": 84.07692307692308,
            "B": 71.07692307692308,
            "C": 62.833333333333336
        },
        "bus5": {
            "A": 83.53846153846153,
            "B": 71.3076923076923,
            "C": 64.76923076923077,
            "D": 59.61538461538461,
            "E": 57,
            "F": 85.46153846153847,
            "G": 126.92307692307692,
            "H": 138.15384615384616,
            "I": 135.15384615384616,
            "J": 127.08333333333333,
            "K": 115.66666666666667,
            "L": 102.5
        },
        "bus0": {
            "B": 66.46153846153847,
            "C": 60.76923076923077,
            "D": 56.23076923076923,
            "E": 52.76923076923077,
            "F": 79.76923076923077,
            "G": 119.92307692307692,
            "H": 129.07692307692307,
            "I": 125.46153846153847,
            "J": 117.6923076923077,
            "K": 106.6923076923077,
            "L": 95.3076923076923,
            "A": 82.83333333333333
        }
    },
    "Obs_and_actions_busses": {
        "4": 111.90060033362626,
        "2": -53.09798374577601,
        "3": 10.858518658124177,
        "5": 2.653846152692224,
        "1": -104.47001542325117,
        "0": -159.6857142871425
    },
    "Obs_and_actions_tfls": {}
} -144.93327332433213
    },
    "Obs_and_actions_tfls": {}
}