{
    "Average_holding_time": 76.32829373650108,
    "Average_holding_actions": [
        33,
        234,
        216,
        237,
        62,
        0
    ],
    "Average_travel_time_passengers": 2450.681975611665,
    "Average_passenger_waiting_time": 386.8189536886005,
    "Average_passenger_in_vehicle_time": 2063.863021922951,
    "Average_speed_busses": 0.03858333333333333,
    "Average_experienced_crowding": 98.94407961838469,
    "Average_covariation_headway": 0.25743664814832545,
    "Average_covariation_headway_stops": {
        "H": 0.19006396807645148,
        "G": 0.15349780494248208,
        "E": 0.1406203389351616,
        "J": 0.17371835054063767,
        "K": 0.1790806713935276,
        "I": 0.16014629627905114,
        "C": 0.1536843958882502,
        "L": 0.149874955433163,
        "F": 0.11294832163559086,
        "D": 0.125005004652096,
        "A": 0.15430809910027246,
        "B": 0.14666789139778683
    },
    "Average_excess_waiting_time": {
        "H": 125.09318775925021,
        "G": 123.29842711368082,
        "E": 122.69097432953691,
        "J": 122.3579873390608,
        "K": 120.55227284061965,
        "I": 122.73154373853703,
        "C": 124.51632250769626,
        "L": 119.62984531623715,
        "F": 122.55920789090055,
        "D": 124.15514115742752,
        "A": 122.46290309352963,
        "B": 124.79267480241515
    },
    "Holding_per_stop": {
        "H": 78.07692307692308,
        "G": 79.87012987012987,
        "K": 81.53846153846153,
        "I": 82.20779220779221,
        "E": 81.03896103896103,
        "J": 78.46153846153847,
        "C": 83.76623376623377,
        "L": 70,
        "F": 80.92105263157895,
        "A": 46.753246753246756,
        "D": 80.92105263157895,
        "B": 72.46753246753246
    },
    "Actions_tfl_edges": {},
    "Load_per_bus_per_stop": {
        "bus3": {
            "H": 117.07692307692308,
            "I": 113.6923076923077,
            "J": 106,
            "K": 98.76923076923077,
            "L": 87.23076923076923,
            "A": 78.76923076923077,
            "B": 66.3076923076923,
            "C": 62.15384615384615,
            "D": 57.07692307692308,
            "E": 55.69230769230769,
            "F": 80.3076923076923,
            "G": 116.16666666666667
        },
        "bus2": {
            "G": 107.76923076923077,
            "H": 117.84615384615384,
            "I": 113.92307692307692,
            "J": 107.15384615384616,
            "K": 97,
            "L": 86.92307692307692,
            "A": 75.53846153846153,
            "B": 62.84615384615385,
            "C": 59.76923076923077,
            "D": 57.38461538461539,
            "E": 53.5,
            "F": 81.16666666666667
        },
        "bus1": {
            "E": 51.38461538461539,
            "F": 81.76923076923077,
            "G": 125.84615384615384,
            "H": 137.92307692307693,
            "I": 133.92307692307693,
            "J": 123.15384615384616,
            "K": 114.46153846153847,
            "L": 102.07692307692308,
            "A": 88.84615384615384,
            "B": 75.76923076923077,
            "C": 66.33333333333333,
            "D": 60.416666666666664
        },
        "bus4": {
            "J": 99.07692307692308,
            "K": 90.53846153846153,
            "L": 79.23076923076923,
            "A": 68.92307692307692,
            "B": 59.23076923076923,
            "C": 53.84615384615385,
            "D": 52.30769230769231,
            "E": 52,
            "F": 80.61538461538461,
            "G": 115.38461538461539,
            "H": 122.15384615384616,
            "I": 117.53846153846153
        },
        "bus5": {
            "K": 105.3076923076923,
            "L": 93.15384615384616,
            "A": 83.6923076923077,
            "B": 69.46153846153847,
            "C": 62.46153846153846,
            "D": 61.30769230769231,
            "E": 61.76923076923077,
            "F": 92.61538461538461,
            "G": 137.46153846153845,
            "H": 144.07692307692307,
            "I": 138.6153846153846,
            "J": 127.46153846153847
        },
        "bus0": {
            "C": 59.84615384615385,
            "D": 60.30769230769231,
            "E": 57.84615384615385,
            "F": 86.15384615384616,
            "G": 126.23076923076923,
            "H": 135.07692307692307,
            "I": 129.76923076923077,
            "J": 121.53846153846153,
            "K": 109,
            "L": 94.61538461538461,
            "A": 82.66666666666667,
            "B": 71.33333333333333
        }
    },
    "Obs_and_actions_busses": {
        "1": -107.83086022432572,
        "4": 132.9577465796351,
        "2": -60.046296298286684,
        "3": 23.443712019814676,
        "5": 25.0739829061647,
        "0": -201.9928326053617
    },
    "Obs_and_actions_tfls": {}
}