{
    "Average_holding_time": 77.40259740259741,
    "Average_holding_actions": [
        35,
        240,
        201,
        328,
        35,
        0
    ],
    "Average_travel_time_passengers": 2483.473716762555,
    "Average_passenger_waiting_time": 401.3315683908822,
    "Average_passenger_in_vehicle_time": 2082.1421483715217,
    "Average_speed_busses": 0.0385,
    "Average_experienced_crowding": 100.15351923162737,
    "Average_covariation_headway": 0.3057480651193965,
    "Average_covariation_headway_stops": {
        "G": 0.23125106247606336,
        "F": 0.19390766475241,
        "K": 0.24542440161845028,
        "L": 0.23752516512141825,
        "H": 0.24367135546235935,
        "A": 0.23194995658161874,
        "B": 0.22175210151266964,
        "I": 0.22866151000122242,
        "C": 0.19586943057963244,
        "J": 0.22411930142887312,
        "D": 0.17619289338393693,
        "E": 0.17161077050349127
    },
    "Average_excess_waiting_time": {
        "G": 132.9184378023324,
        "F": 130.1503515333302,
        "K": 140.13207096727984,
        "L": 134.63215015851637,
        "H": 137.86494229719278,
        "A": 131.60323780623844,
        "B": 128.5383990116706,
        "I": 137.47519182902937,
        "C": 127.63626210825964,
        "J": 139.48230532080152,
        "D": 127.43802264931759,
        "E": 129.4756367785173
    },
    "Holding_per_stop": {
        "G": 81.42857142857143,
        "L": 73.63636363636364,
        "A": 49.23076923076923,
        "K": 78.7012987012987,
        "B": 77.3076923076923,
        "F": 82.20779220779221,
        "H": 81.81818181818181,
        "I": 76.75324675324676,
        "C": 86.49350649350649,
        "J": 73.42105263157895,
        "D": 86.88311688311688,
        "E": 81.3157894736842
    },
    "Actions_tfl_edges": {},
    "Load_per_bus_per_stop": {
        "bus2": {
            "G": 108.76923076923077,
            "H": 120.07692307692308,
            "I": 115.46153846153847,
            "J": 106.23076923076923,
            "K": 97.92307692307692,
            "L": 88.53846153846153,
            "A": 76.46153846153847,
            "B": 65.53846153846153,
            "C": 61.23076923076923,
            "D": 57.53846153846154,
            "E": 54,
            "F": 79.66666666666667
        },
        "bus1": {
            "F": 77,
            "G": 118.15384615384616,
            "H": 129.69230769230768,
            "I": 125.92307692307692,
            "J": 117,
            "K": 104.76923076923077,
            "L": 92.15384615384616,
            "A": 82.07692307692308,
            "B": 71.6923076923077,
            "C": 65.76923076923077,
            "D": 60.333333333333336,
            "E": 55.083333333333336
        },
        "bus3": {
            "K": 100.38461538461539,
            "L": 89.07692307692308,
            "A": 80,
            "B": 66.84615384615384,
            "C": 59.69230769230769,
            "D": 56.92307692307692,
            "E": 52.69230769230769,
            "F": 83.76923076923077,
            "G": 127.3076923076923,
            "H": 135.33333333333334,
            "I": 129.08333333333334,
            "J": 118.58333333333333
        },
        "bus4": {
            "L": 86.46153846153847,
            "A": 75.92307692307692,
            "B": 63.69230769230769,
            "C": 57.76923076923077,
            "D": 52.84615384615385,
            "E": 51.53846153846154,
            "F": 75.15384615384616,
            "G": 110.23076923076923,
            "H": 121.61538461538461,
            "I": 118.61538461538461,
            "J": 110.25,
            "K": 103.41666666666667
        },
        "bus5": {
            "A": 71.3076923076923,
            "B": 61.30769230769231,
            "C": 53.15384615384615,
            "D": 51,
            "E": 51.53846153846154,
            "F": 76.61538461538461,
            "G": 112.76923076923077,
            "H": 122.15384615384616,
            "I": 118.07692307692308,
            "J": 108.38461538461539,
            "K": 97.61538461538461,
            "L": 86.25
        },
        "bus0": {
            "B": 75.53846153846153,
            "C": 68.07692307692308,
            "D": 64.92307692307692,
            "E": 61.30769230769231,
            "F": 90.61538461538461,
            "G": 135.30769230769232,
            "H": 147.92307692307693,
            "I": 143.23076923076923,
            "J": 133.69230769230768,
            "K": 122.07692307692308,
            "L": 107.46153846153847,
            "A": 94.76923076923077
        }
    },
    "Obs_and_actions_busses": {
        "1": -147.86573445588905,
        "4": 166.42655006946094,
        "0": -449.8171760807243,
        "2": -83.07961542552253,
        "5": 14.485714284857957,
        "3": 21.376470588234955
    },
    "Obs_and_actions_tfls": {}
}