{
    "Average_holding_time": 79.5,
    "Average_holding_actions": [
        24,
        192,
        239,
        311,
        31,
        0
    ],
    "Average_travel_time_passengers": 2472.9048209656276,
    "Average_passenger_waiting_time": 392.5868523206178,
    "Average_passenger_in_vehicle_time": 2080.3179686448775,
    "Average_speed_busses": 0.03833333333333333,
    "Average_experienced_crowding": 97.23457570907058,
    "Average_covariation_headway": 0.26471565995398805,
    "Average_covariation_headway_stops": {
        "G": 0.18768765858637107,
        "F": 0.15924597869870963,
        "L": 0.17258068681355584,
        "H": 0.18419617369084978,
        "A": 0.16913806326827613,
        "B": 0.16206821875766078,
        "C": 0.16434477230761216,
        "I": 0.16420271192181427,
        "D": 0.13704399671203005,
        "J": 0.16192156513404507,
        "E": 0.13125502186541083,
        "K": 0.15750049756497667
    },
    "Average_excess_waiting_time": {
        "G": 125.47703680093025,
        "F": 124.72814918102358,
        "L": 130.01447610824653,
        "H": 127.17038004225702,
        "A": 126.87494621475906,
        "B": 124.76751256748457,
        "C": 123.06411835843971,
        "I": 126.7394572883673,
        "D": 122.55030602737355,
        "J": 128.7102286277311,
        "E": 124.37455662704997,
        "K": 130.88305266981075
    },
    "Holding_per_stop": {
        "G": 87.66233766233766,
        "H": 82.98701298701299,
        "L": 72.23684210526316,
        "A": 49.09090909090909,
        "F": 86.88311688311688,
        "B": 72.46753246753246,
        "C": 78.7012987012987,
        "I": 91.94805194805195,
        "D": 81.42857142857143,
        "J": 83.6842105263158,
        "K": 80.52631578947368,
        "E": 86.44736842105263
    },
    "Actions_tfl_edges": {},
    "Load_per_bus_per_stop": {
        "bus3": {
            "G": 113.38461538461539,
            "H": 120.76923076923077,
            "I": 116.15384615384616,
            "J": 108.38461538461539,
            "K": 101.92307692307692,
            "L": 89.38461538461539,
            "A": 80.76923076923077,
            "B": 70.38461538461539,
            "C": 64.23076923076923,
            "D": 62.53846153846154,
            "E": 62.15384615384615,
            "F": 86.58333333333333
        },
        "bus2": {
            "F": 80.15384615384616,
            "G": 117.38461538461539,
            "H": 129.15384615384616,
            "I": 123.53846153846153,
            "J": 116.92307692307692,
            "K": 106.38461538461539,
            "L": 94,
            "A": 81.3076923076923,
            "B": 69.46153846153847,
            "C": 64.07692307692308,
            "D": 57.416666666666664,
            "E": 55.416666666666664
        },
        "bus4": {
            "L": 83.92307692307692,
            "A": 72,
            "B": 61.84615384615385,
            "C": 53.46153846153846,
            "D": 49.07692307692308,
            "E": 49.30769230769231,
            "F": 80.3076923076923,
            "G": 115.15384615384616,
            "H": 127.83333333333333,
            "I": 123.83333333333333,
            "J": 114.83333333333333,
            "K": 103.75
        },
        "bus5": {
            "A": 76.15384615384616,
            "B": 63.38461538461539,
            "C": 56.53846153846154,
            "D": 54.53846153846154,
            "E": 52.61538461538461,
            "F": 80.53846153846153,
            "G": 117.76923076923077,
            "H": 128,
            "I": 123.15384615384616,
            "J": 116.08333333333333,
            "K": 105.83333333333333,
            "L": 95
        },
        "bus0": {
            "B": 58.92307692307692,
            "C": 51.76923076923077,
            "D": 49.84615384615385,
            "E": 50.76923076923077,
            "F": 76.23076923076923,
            "G": 108.61538461538461,
            "H": 116.76923076923077,
            "I": 115.92307692307692,
            "J": 105.07692307692308,
            "K": 94.38461538461539,
            "L": 84,
            "A": 74.16666666666667
        },
        "bus1": {
            "C": 59.46153846153846,
            "D": 53.23076923076923,
            "E": 53.92307692307692,
            "F": 86.76923076923077,
            "G": 128.23076923076923,
            "H": 137.07692307692307,
            "I": 132.6153846153846,
            "J": 124.6923076923077,
            "K": 111.92307692307692,
            "L": 98.53846153846153,
            "A": 84.6923076923077,
            "B": 72.66666666666667
        }
    },
    "Obs_and_actions_busses": {
        "1": -141.08782689861346,
        "0": -194.75000000333398,
        "2": -61.45775708243539,
        "4": 118.7034960214433,
        "3": 7.048780490244111,
        "5": -3.1290322670976174
    },
    "Obs_and_actions_tfls": {}
}