{
    "Average_holding_time": 75.32327586206897,
    "Average_holding_actions": [
        47,
        261,
        175,
        318,
        33,
        0
    ],
    "Average_travel_time_passengers": 2456.203877895249,
    "Average_passenger_waiting_time": 384.27898004301875,
    "Average_passenger_in_vehicle_time": 2071.9248978520986,
    "Average_speed_busses": 0.03866666666666667,
    "Average_experienced_crowding": 98.11471567544287,
    "Average_covariation_headway": 0.24471005657357875,
    "Average_covariation_headway_stops": {
        "H": 0.15348898751038034,
        "E": 0.12079716907985352,
        "F": 0.14085008869501062,
        "L": 0.14218604836686893,
        "I": 0.12417648381714808,
        "D": 0.11835209382027298,
        "A": 0.14867588679707622,
        "G": 0.12989087343856162,
        "J": 0.10583814687116211,
        "B": 0.11834991304038422,
        "K": 0.11456823134496981,
        "C": 0.1078161578153198
    },
    "Average_excess_waiting_time": {
        "H": 118.30554903581833,
        "E": 118.29050722355623,
        "F": 117.227526176477,
        "L": 121.50876007359483,
        "I": 117.02296690673427,
        "D": 120.44524168471344,
        "A": 119.67809424567253,
        "G": 118.4574909658341,
        "J": 117.98342232858437,
        "B": 119.5299691877583,
        "K": 121.41148420016145,
        "C": 121.7038859548199
    },
    "Holding_per_stop": {
        "H": 75.76923076923077,
        "A": 36.15384615384615,
        "F": 84.23076923076923,
        "E": 82.59740259740259,
        "I": 76.15384615384616,
        "L": 76.36363636363636,
        "D": 83.37662337662337,
        "G": 79.87012987012987,
        "J": 78.31168831168831,
        "B": 71.68831168831169,
        "K": 78.31168831168831,
        "C": 81.42857142857143
    },
    "Actions_tfl_edges": {},
    "Load_per_bus_per_stop": {
        "bus3": {
            "H": 120.23076923076923,
            "I": 114.15384615384616,
            "J": 108.3076923076923,
            "K": 100.61538461538461,
            "L": 89.84615384615384,
            "A": 76.92307692307692,
            "B": 66.76923076923077,
            "C": 58.92307692307692,
            "D": 55.38461538461539,
            "E": 52.15384615384615,
            "F": 78.3076923076923,
            "G": 118.76923076923077
        },
        "bus1": {
            "E": 54.38461538461539,
            "F": 77.61538461538461,
            "G": 116.23076923076923,
            "H": 124.46153846153847,
            "I": 121.15384615384616,
            "J": 111.3076923076923,
            "K": 101,
            "L": 90.46153846153847,
            "A": 81.15384615384616,
            "B": 70.38461538461539,
            "C": 62.53846153846154,
            "D": 58.666666666666664
        },
        "bus2": {
            "F": 79.23076923076923,
            "G": 117.84615384615384,
            "H": 127.38461538461539,
            "I": 120.84615384615384,
            "J": 115.23076923076923,
            "K": 104.6923076923077,
            "L": 93.61538461538461,
            "A": 83.53846153846153,
            "B": 70.46153846153847,
            "C": 64.23076923076923,
            "D": 59.23076923076923,
            "E": 56.92307692307692
        },
        "bus4": {
            "L": 92.76923076923077,
            "A": 80.07692307692308,
            "B": 68.61538461538461,
            "C": 61.15384615384615,
            "D": 61.46153846153846,
            "E": 59,
            "F": 85.23076923076923,
            "G": 125.61538461538461,
            "H": 136.46153846153845,
            "I": 130.69230769230768,
            "J": 120.83333333333333,
            "K": 110.83333333333333
        },
        "bus0": {
            "D": 52.76923076923077,
            "E": 51.07692307692308,
            "F": 77.92307692307692,
            "G": 116.92307692307692,
            "H": 128.6153846153846,
            "I": 125.15384615384616,
            "J": 117.3076923076923,
            "K": 107.23076923076923,
            "L": 95.92307692307692,
            "A": 83.23076923076923,
            "B": 70.25,
            "C": 62.666666666666664
        },
        "bus5": {
            "A": 78.38461538461539,
            "B": 69.61538461538461,
            "C": 62.61538461538461,
            "D": 58.23076923076923,
            "E": 56.46153846153846,
            "F": 89.6923076923077,
            "G": 128.76923076923077,
            "H": 140.23076923076923,
            "I": 131.76923076923077,
            "J": 122.15384615384616,
            "K": 110.15384615384616,
            "L": 97.83333333333333
        }
    },
    "Obs_and_actions_busses": {
        "1": -116.81704132488618,
        "0": -182.22846357483857,
        "2": -55.98857142662912,
        "3": 17.277934749191562,
        "4": 112.4304064826403,
        "5": -4.787878789092068
    },
    "Obs_and_actions_tfls": {}
}