{
    "Average_holding_time": 76.73513513513514,
    "Average_holding_actions": [
        12,
        254,
        203,
        248,
        45,
        0
    ],
    "Average_travel_time_passengers": 2452.160792426903,
    "Average_passenger_waiting_time": 385.37435937466915,
    "Average_passenger_in_vehicle_time": 2066.7864330521193,
    "Average_speed_busses": 0.03854166666666667,
    "Average_experienced_crowding": 97.97859475287201,
    "Average_covariation_headway": 0.2361371142702699,
    "Average_covariation_headway_stops": {
        "H": 0.13918497117438097,
        "I": 0.15460819780878413,
        "E": 0.10665162124702922,
        "L": 0.14385497672933678,
        "A": 0.15191591486839068,
        "C": 0.10364838574364846,
        "J": 0.13993770443051223,
        "F": 0.08345472071090451,
        "B": 0.10780435782118929,
        "K": 0.11339312129607484,
        "D": 0.07020604610622105,
        "G": 0.07602551727570867
    },
    "Average_excess_waiting_time": {
        "H": 122.44513602103996,
        "I": 120.7382519100446,
        "E": 117.68795920768957,
        "L": 121.35891637899027,
        "A": 120.51146536619206,
        "C": 117.19223303379209,
        "J": 121.6714044519693,
        "F": 118.52429450654193,
        "B": 119.83760033486436,
        "K": 121.74298956575893,
        "D": 117.92904772153588,
        "G": 120.4029442056721
    },
    "Holding_per_stop": {
        "I": 81.53846153846153,
        "H": 79.0909090909091,
        "E": 83.76623376623377,
        "A": 58.46153846153846,
        "L": 67.79220779220779,
        "C": 81.03896103896103,
        "J": 76.36363636363636,
        "F": 79.87012987012987,
        "B": 78.7012987012987,
        "K": 75.58441558441558,
        "D": 82.20779220779221,
        "G": 76.57894736842105
    },
    "Actions_tfl_edges": {},
    "Load_per_bus_per_stop": {
        "bus2": {
            "H": 118.76923076923077,
            "I": 115.38461538461539,
            "J": 108.76923076923077,
            "K": 95.53846153846153,
            "L": 85.38461538461539,
            "A": 74.46153846153847,
            "B": 65.46153846153847,
            "C": 59.38461538461539,
            "D": 54.46153846153846,
            "E": 52.166666666666664,
            "F": 80.75,
            "G": 117.75
        },
        "bus3": {
            "I": 120.3076923076923,
            "J": 113.15384615384616,
            "K": 100,
            "L": 89.53846153846153,
            "A": 78.3076923076923,
            "B": 67.76923076923077,
            "C": 59,
            "D": 56.38461538461539,
            "E": 56.15384615384615,
            "F": 87,
            "G": 126.15384615384616,
            "H": 136.41666666666666
        },
        "bus1": {
            "E": 54.23076923076923,
            "F": 81.46153846153847,
            "G": 120.23076923076923,
            "H": 130.76923076923077,
            "I": 128,
            "J": 118.92307692307692,
            "K": 109.38461538461539,
            "L": 96.38461538461539,
            "A": 83.15384615384616,
            "B": 70.92307692307692,
            "C": 64.33333333333333,
            "D": 58.833333333333336
        },
        "bus4": {
            "L": 86.61538461538461,
            "A": 76.15384615384616,
            "B": 64.46153846153847,
            "C": 57.30769230769231,
            "D": 53.38461538461539,
            "E": 51.92307692307692,
            "F": 82.15384615384616,
            "G": 122.38461538461539,
            "H": 130.3846153846154,
            "I": 124.15384615384616,
            "J": 114.58333333333333,
            "K": 103.25
        },
        "bus5": {
            "A": 78.3076923076923,
            "B": 67.61538461538461,
            "C": 60.38461538461539,
            "D": 57,
            "E": 54.46153846153846,
            "F": 86,
            "G": 128.07692307692307,
            "H": 136.30769230769232,
            "I": 132.30769230769232,
            "J": 121,
            "K": 111.15384615384616,
            "L": 100.16666666666667
        },
        "bus0": {
            "C": 56.76923076923077,
            "D": 53.84615384615385,
            "E": 53.15384615384615,
            "F": 81.23076923076923,
            "G": 118.07692307692308,
            "H": 129.15384615384616,
            "I": 123.6923076923077,
            "J": 115,
            "K": 105.61538461538461,
            "L": 93.6923076923077,
            "A": 83.84615384615384,
            "B": 69.91666666666667
        }
    },
    "Obs_and_actions_busses": {
        "4": 111.06287974651968,
        "3": 12.263803681104141,
        "5": 11.088888887333512,
        "1": -93.63233587177824,
        "2": -65.18205523065036,
        "0": -231.40582808697442
    },
    "Obs_and_actions_tfls": {}
}tfls": {}
}