{
    "Average_holding_time": 76.43394199785178,
    "Average_holding_actions": [
        20,
        234,
        254,
        281,
        40,
        0
    ],
    "Average_travel_time_passengers": 2450.64423942712,
    "Average_passenger_waiting_time": 383.2648468365402,
    "Average_passenger_in_vehicle_time": 2067.3793925904984,
    "Average_speed_busses": 0.03879166666666667,
    "Average_experienced_crowding": 94.97418823653088,
    "Average_covariation_headway": 0.24099098333663385,
    "Average_covariation_headway_stops": {
        "H": 0.15775500226518016,
        "E": 0.1222543194027535,
        "F": 0.13672220917403208,
        "I": 0.1308309027635529,
        "D": 0.10653396664876981,
        "A": 0.14257885184380276,
        "C": 0.10735963063674392,
        "G": 0.11390585071744999,
        "J": 0.11651939984183243,
        "B": 0.10465684540369008,
        "K": 0.0981983925513025,
        "L": 0.11064310321666104
    },
    "Average_excess_waiting_time": {
        "H": 116.5916530471655,
        "E": 115.8033331162394,
        "F": 114.73413950288358,
        "I": 115.51910934281267,
        "D": 117.12599777044045,
        "A": 121.76324071939729,
        "C": 119.51868042198907,
        "G": 115.08683932817127,
        "J": 116.89870946513963,
        "B": 121.27579847427961,
        "K": 117.56803589507945,
        "L": 120.63947515036665
    },
    "Holding_per_stop": {
        "H": 78.60759493670886,
        "F": 85.38461538461539,
        "I": 83.07692307692308,
        "E": 83.07692307692308,
        "A": 50.64935064935065,
        "D": 80.64935064935065,
        "C": 77.14285714285714,
        "G": 77.3076923076923,
        "J": 80.38461538461539,
        "B": 72.07792207792208,
        "K": 79.87012987012987,
        "L": 68.57142857142857
    },
    "Actions_tfl_edges": {},
    "Load_per_bus_per_stop": {
        "bus4": {
            "H": 119.64285714285714,
            "I": 111.46153846153847,
            "J": 103.76923076923077,
            "K": 95.23076923076923,
            "L": 87.15384615384616,
            "A": 77.46153846153847,
            "B": 67.6923076923077,
            "C": 60.92307692307692,
            "D": 58.38461538461539,
            "E": 57.30769230769231,
            "F": 84.07692307692308,
            "G": 122.92307692307692
        },
        "bus2": {
            "E": 47.53846153846154,
            "F": 71.07692307692308,
            "G": 110.53846153846153,
            "H": 121.92307692307692,
            "I": 119.3076923076923,
            "J": 111.07692307692308,
            "K": 102.23076923076923,
            "L": 91,
            "A": 77.07692307692308,
            "B": 66.61538461538461,
            "C": 58,
            "D": 54.69230769230769
        },
        "bus3": {
            "F": 82,
            "G": 119.6923076923077,
            "H": 131.69230769230768,
            "I": 126.61538461538461,
            "J": 116.3076923076923,
            "K": 105.38461538461539,
            "L": 93.76923076923077,
            "A": 80.23076923076923,
            "B": 67.23076923076923,
            "C": 61.07692307692308,
            "D": 59.92307692307692,
            "E": 57.61538461538461
        },
        "bus1": {
            "D": 46.84615384615385,
            "E": 46.38461538461539,
            "F": 74.3076923076923,
            "G": 110.46153846153847,
            "H": 119.38461538461539,
            "I": 115.3076923076923,
            "J": 108.6923076923077,
            "K": 100.23076923076923,
            "L": 86.46153846153847,
            "A": 74.15384615384616,
            "B": 64,
            "C": 54.666666666666664
        },
        "bus5": {
            "A": 75.6923076923077,
            "B": 65.6923076923077,
            "C": 60.61538461538461,
            "D": 57.61538461538461,
            "E": 55.61538461538461,
            "F": 83.3076923076923,
            "G": 117.3076923076923,
            "H": 130.69230769230768,
            "I": 129.69230769230768,
            "J": 120.3076923076923,
            "K": 109.25,
            "L": 94.91666666666667
        },
        "bus0": {
            "C": 58,
            "D": 54.15384615384615,
            "E": 50.92307692307692,
            "F": 78.84615384615384,
            "G": 116.53846153846153,
            "H": 124.07692307692308,
            "I": 122.61538461538461,
            "J": 114.76923076923077,
            "K": 102.76923076923077,
            "L": 91,
            "A": 80.41666666666667,
            "B": 67.91666666666667
        }
    },
    "Obs_and_actions_busses": {
        "1": -108.08748584809491,
        "0": -190.0000000015006,
        "2": -40.235294117215794,
        "5": 4.349999997499868,
        "4": 103.58878497113456,
        "3": 12.24828105185901
    },
    "Obs_and_actions_tfls": {}
}     "5": 3.3555605560551007
    },
    "Obs_and_actions_tfls": {}
}