{
    "Average_holding_time": 74.74193548387096,
    "Average_holding_actions": [
        27,
        268,
        198,
        284,
        29,
        0
    ],
    "Average_travel_time_passengers": 2434.0163157727056,
    "Average_passenger_waiting_time": 388.54756361162896,
    "Average_passenger_in_vehicle_time": 2045.468752160957,
    "Average_speed_busses": 0.03875,
    "Average_experienced_crowding": 97.01985949558987,
    "Average_covariation_headway": 0.279438890173611,
    "Average_covariation_headway_stops": {
        "I": 0.20991630488417296,
        "K": 0.19556608091905683,
        "L": 0.2060269750489731,
        "D": 0.1569374759259465,
        "A": 0.21798488522043416,
        "B": 0.19703485316155125,
        "J": 0.19283615651451205,
        "E": 0.13218415173741146,
        "C": 0.16642398577781797,
        "F": 0.1216851794516377,
        "G": 0.13941555631627295,
        "H": 0.1770693236448936
    },
    "Average_excess_waiting_time": {
        "I": 130.56712164842412,
        "K": 128.02512741929422,
        "L": 127.12819424558285,
        "D": 117.11785688086223,
        "A": 127.16317111396705,
        "B": 121.54461658871742,
        "J": 130.77965217225193,
        "E": 116.50047138674114,
        "C": 120.17702616853762,
        "F": 117.91686786393223,
        "G": 122.60199530106189,
        "H": 129.4373921713397
    },
    "Holding_per_stop": {
        "I": 75.58441558441558,
        "L": 68.46153846153847,
        "A": 53.84615384615385,
        "D": 80.38461538461539,
        "K": 74.8051948051948,
        "B": 75.18987341772151,
        "E": 78.46153846153847,
        "J": 77.53246753246754,
        "C": 83.07692307692308,
        "F": 80.64935064935065,
        "G": 77.14285714285714,
        "H": 71.84210526315789
    },
    "Actions_tfl_edges": {},
    "Load_per_bus_per_stop": {
        "bus2": {
            "I": 115.76923076923077,
            "J": 109.07692307692308,
            "K": 99.76923076923077,
            "L": 89.53846153846153,
            "A": 79.23076923076923,
            "B": 67.6923076923077,
            "C": 59,
            "D": 55.07692307692308,
            "E": 53.76923076923077,
            "F": 81.84615384615384,
            "G": 121.16666666666667,
            "H": 130.66666666666666
        },
        "bus3": {
            "K": 94,
            "L": 82.84615384615384,
            "A": 71.23076923076923,
            "B": 59.69230769230769,
            "C": 54.38461538461539,
            "D": 51.15384615384615,
            "E": 49.30769230769231,
            "F": 78.84615384615384,
            "G": 120.53846153846153,
            "H": 132.23076923076923,
            "I": 122.75,
            "J": 112.66666666666667
        },
        "bus4": {
            "L": 86.3076923076923,
            "A": 74.76923076923077,
            "B": 63.84615384615385,
            "C": 60.46153846153846,
            "D": 57.46153846153846,
            "E": 53.61538461538461,
            "F": 79.61538461538461,
            "G": 114.92307692307692,
            "H": 122,
            "I": 120.23076923076923,
            "J": 115.07692307692308,
            "K": 105.83333333333333
        },
        "bus1": {
            "D": 57.5,
            "E": 54,
            "F": 84.38461538461539,
            "G": 127.61538461538461,
            "H": 138.07692307692307,
            "I": 133.69230769230768,
            "J": 124.15384615384616,
            "K": 112.15384615384616,
            "L": 98.92307692307692,
            "A": 87.92307692307692,
            "B": 75.84615384615384,
            "C": 68.23076923076923
        },
        "bus5": {
            "A": 75.38461538461539,
            "B": 64.76923076923077,
            "C": 55.84615384615385,
            "D": 52.69230769230769,
            "E": 50.53846153846154,
            "F": 80.23076923076923,
            "G": 119.07692307692308,
            "H": 131.6153846153846,
            "I": 123.38461538461539,
            "J": 112.61538461538461,
            "K": 103.38461538461539,
            "L": 92.53846153846153
        },
        "bus0": {
            "B": 62.214285714285715,
            "C": 57.53846153846154,
            "D": 53.92307692307692,
            "E": 53.61538461538461,
            "F": 80.15384615384616,
            "G": 114.76923076923077,
            "H": 122.53846153846153,
            "I": 119.23076923076923,
            "J": 110,
            "K": 100.46153846153847,
            "L": 86.38461538461539,
            "A": 76.15384615384616
        }
    },
    "Obs_and_actions_busses": {
        "4": 154.25001514683336,
        "2": -64.65642116859995,
        "3": 16.99193548524209,
        "1": -137.68127803976964,
        "5": 23.068965514826953,
        "0": -355.3096632521456
    },
    "Obs_and_actions_tfls": {}
}