{
    "Average_holding_time": 43.10249307479224,
    "Average_holding_actions": [
        637,
        105,
        70,
        50,
        47,
        118
    ],
    "Average_travel_time_passengers": 2148.2768078175095,
    "Average_passenger_waiting_time": 339.35444015042106,
    "Average_passenger_in_vehicle_time": 1808.9223676670194,
    "Average_speed_busses": 0.045125,
    "Average_experienced_crowding": 59.769082852866234,
    "Average_covariation_headway": 0.283716104885965,
    "Average_covariation_headway_stops": {
        "B": 0.22504024492173472,
        "D": 0.2001404262339807,
        "F": 0.19765500224543528,
        "G": 0.22191409400139106,
        "L": 0.23944462186119686,
        "A": 0.2203084098647769,
        "H": 0.20781718869501734,
        "E": 0.1763782543549621,
        "C": 0.21853015845090085,
        "I": 0.18400242622380875,
        "J": 0.18954590443361108,
        "K": 0.2288514154503265
    },
    "Average_excess_waiting_time": {
        "B": 81.07027132418415,
        "D": 77.6238799365239,
        "F": 77.79905940858976,
        "G": 78.9336382071171,
        "L": 86.70134850869766,
        "A": 82.51560197310107,
        "H": 78.98542673863727,
        "E": 77.32739736031743,
        "C": 82.16736308478625,
        "I": 77.06731655126862,
        "J": 80.24562344528829,
        "K": 87.25595586085251
    },
    "Holding_per_stop": {
        "A": 46.666666666666664,
        "G": 42.857142857142854,
        "D": 38.9010989010989,
        "B": 44.175824175824175,
        "F": 40.21978021978022,
        "L": 37.333333333333336,
        "H": 41.53846153846154,
        "C": 45.666666666666664,
        "E": 47.333333333333336,
        "I": 49.333333333333336,
        "J": 44.157303370786515,
        "K": 39.10112359550562
    },
    "Actions_tfl_edges": {},
    "Load_per_bus_per_stop": {
        "bus0": {
            "B": 56.3125,
            "C": 55.06666666666667,
            "D": 55.06666666666667,
            "E": 55.333333333333336,
            "F": 57.86666666666667,
            "G": 60.93333333333333,
            "H": 60.333333333333336,
            "I": 62.46666666666667,
            "J": 64.8,
            "K": 63.06666666666667,
            "L": 62.333333333333336,
            "A": 60.86666666666667
        },
        "bus1": {
            "D": 55.1875,
            "E": 56.53333333333333,
            "F": 56.6,
            "G": 57,
            "H": 57.46666666666667,
            "I": 55.8,
            "J": 57.46666666666667,
            "K": 58.86666666666667,
            "L": 59.2,
            "A": 59.733333333333334,
            "B": 60.46666666666667,
            "C": 59.2
        },
        "bus2": {
            "F": 58.875,
            "G": 57.13333333333333,
            "H": 58,
            "I": 57.733333333333334,
            "J": 58,
            "K": 59.4,
            "L": 56.86666666666667,
            "A": 57,
            "B": 57.266666666666666,
            "C": 59.46666666666667,
            "D": 61.53333333333333,
            "E": 61.666666666666664
        },
        "bus3": {
            "G": 58.5,
            "H": 58.75,
            "I": 58.333333333333336,
            "J": 58.733333333333334,
            "K": 60.93333333333333,
            "L": 61.666666666666664,
            "A": 62.266666666666666,
            "B": 59.06666666666667,
            "C": 57,
            "D": 58.333333333333336,
            "E": 58.93333333333333,
            "F": 61.333333333333336
        },
        "bus4": {
            "L": 57.2,
            "A": 59.46666666666667,
            "B": 60.266666666666666,
            "C": 61.4,
            "D": 60.266666666666666,
            "E": 61.86666666666667,
            "F": 61.6,
            "G": 60.93333333333333,
            "H": 62.266666666666666,
            "I": 59.53333333333333,
            "J": 59.266666666666666,
            "K": 60.42857142857143
        },
        "bus5": {
            "A": 53.06666666666667,
            "B": 54.06666666666667,
            "C": 55.46666666666667,
            "D": 56.266666666666666,
            "E": 57.733333333333334,
            "F": 61.4,
            "G": 63.06666666666667,
            "H": 62.333333333333336,
            "I": 60.733333333333334,
            "J": 58.666666666666664,
            "K": 57.06666666666667,
            "L": 56
        }
    },
    "Obs_and_actions_busses": {
        "0": -134.0943953566042,
        "5": 149.0425531912766,
        "3": 90.32142857482208,
        "1": 28.570635421644464,
        "6": 222.94084777630349,
        "4": 117.5800000023996,
        "2": 57.24285713885708
    },
    "Obs_and_actions_tfls": {}
}