{
    "Average_holding_time": 11.079967023907667,
    "Average_travel_time_passengers": 2498.6689368399634,
    "Average_speed_busses": 0.050541666666666665,
    "Average_experienced_crowding": 74.33597384510192,
    "Average_covariation_headway": 0.10915529940926337,
    "Average_covariation_headway_stops": {
        "E": 0.1267419286607318,
        "F": 0.11568405721564382,
        "H": 0.08911170777302116,
        "J": 0.09136368434761213,
        "K": 0.10268567721802617,
        "A": 0.07894597287833258,
        "I": 0.07356797567749429,
        "B": 0.054897445601971545,
        "G": 0.08209827039872428,
        "L": 0.07001611505230482,
        "C": 0.05853469278206861,
        "D": 0.10489191855812544
    },
    "Average_excess_waiting_time": {
        "E": 37.27167069424155,
        "F": 34.77905345542797,
        "H": 33.120347908204394,
        "J": 33.333819665258886,
        "K": 32.569823546035536,
        "A": 31.341270848335114,
        "I": 33.785761078211465,
        "B": 31.845972263441695,
        "G": 34.51408166424926,
        "L": 32.4572289390851,
        "C": 33.39704966993821,
        "D": 37.2668696729325
    },
    "Holding_per_stop": {
        "H": 6.534653465346534,
        "A": 2.0588235294117645,
        "F": 14.851485148514852,
        "K": 23.823529411764707,
        "J": 12.178217821782178,
        "E": 9.504950495049505,
        "B": 7.425742574257426,
        "L": 10.099009900990099,
        "G": 12.475247524752476,
        "I": 10.990099009900991,
        "C": 11.584158415841584,
        "D": 11.4
    },
    "Load_per_bus_per_stop": {
        "bus0": {
            "E": 70.47058823529412,
            "F": 71.3529411764706,
            "G": 72.41176470588235,
            "H": 73.23529411764706,
            "I": 74.23529411764706,
            "J": 73.41176470588235,
            "K": 73.88235294117646,
            "L": 73.6470588235294,
            "A": 74.3529411764706,
            "B": 73.4375,
            "C": 73.375,
            "D": 73.4375
        },
        "bus1": {
            "F": 70.23529411764706,
            "G": 70.88235294117646,
            "H": 71.76470588235294,
            "I": 73.29411764705883,
            "J": 73.23529411764706,
            "K": 74.6470588235294,
            "L": 75,
            "A": 74.47058823529412,
            "B": 74.3529411764706,
            "C": 75.3529411764706,
            "D": 75.1875,
            "E": 74.0625
        },
        "bus2": {
            "H": 72.58823529411765,
            "I": 72.70588235294117,
            "J": 72.52941176470588,
            "K": 73.76470588235294,
            "L": 73.17647058823529,
            "A": 74.76470588235294,
            "B": 73.82352941176471,
            "C": 75.23529411764706,
            "D": 75.23529411764706,
            "E": 75.3529411764706,
            "F": 75.125,
            "G": 74.5625
        },
        "bus3": {
            "J": 71.94117647058823,
            "K": 71.58823529411765,
            "L": 72.05882352941177,
            "A": 71.58823529411765,
            "B": 73.76470588235294,
            "C": 75.88235294117646,
            "D": 77.76470588235294,
            "E": 78.29411764705883,
            "F": 78.70588235294117,
            "G": 76.3529411764706,
            "H": 75.9375,
            "I": 76.3125
        },
        "bus4": {
            "K": 68.41176470588235,
            "L": 70.76470588235294,
            "A": 70.6470588235294,
            "B": 73.52941176470588,
            "C": 74.82352941176471,
            "D": 75.76470588235294,
            "E": 76.47058823529412,
            "F": 75.52941176470588,
            "G": 75.3529411764706,
            "H": 74.41176470588235,
            "I": 74.88235294117646,
            "J": 74.9375
        },
        "bus5": {
            "A": 70.52941176470588,
            "B": 71.58823529411765,
            "C": 70.70588235294117,
            "D": 71.11764705882354,
            "E": 71.76470588235294,
            "F": 73.17647058823529,
            "G": 75.82352941176471,
            "H": 79,
            "I": 78.76470588235294,
            "J": 79.94117647058823,
            "K": 78.29411764705883,
            "L": 76.5625
        }
    }
}