{
    "Average_holding_time": 18.02030456852792,
    "Average_travel_time_passengers": 2553.395990551574,
    "Average_speed_busses": 0.04925,
    "Average_experienced_crowding": 75.42904183890732,
    "Average_covariation_headway": 0.1677320704864552,
    "Average_covariation_headway_stops": {
        "E": 0.14029580493108015,
        "F": 0.13441462894109593,
        "G": 0.12853807970680886,
        "K": 0.14948305760175026,
        "L": 0.1441182298593162,
        "A": 0.13173243571005994,
        "H": 0.10782883645251999,
        "B": 0.11743157997102391,
        "I": 0.09465209483179479,
        "C": 0.1103171439231671,
        "D": 0.11692530664178177,
        "J": 0.11558616858521921
    },
    "Average_excess_waiting_time": {
        "E": 45.564838930852375,
        "F": 43.42277938180217,
        "G": 41.36437602098806,
        "K": 45.90611394839107,
        "L": 44.41126827232654,
        "A": 41.64248162580225,
        "H": 41.33377284341708,
        "B": 42.072315596139276,
        "I": 42.233522466062766,
        "C": 43.332501913726844,
        "D": 45.30418231573066,
        "J": 45.02919403957088
    },
    "Holding_per_stop": {
        "L": 21.21212121212121,
        "G": 16.666666666666668,
        "A": 5.454545454545454,
        "F": 20.90909090909091,
        "E": 20.510204081632654,
        "K": 25.102040816326532,
        "H": 19.696969696969695,
        "B": 9.696969696969697,
        "C": 24.489795918367346,
        "I": 15.306122448979592,
        "D": 15.918367346938776,
        "J": 21.428571428571427
    },
    "Load_per_bus_per_stop": {
        "bus0": {
            "E": 75.52941176470588,
            "F": 76.76470588235294,
            "G": 76.05882352941177,
            "H": 77.41176470588235,
            "I": 78.0625,
            "J": 76.875,
            "K": 77.5,
            "L": 77.5,
            "A": 78.75,
            "B": 78.75,
            "C": 78.25,
            "D": 78.6875
        },
        "bus1": {
            "F": 69.47058823529412,
            "G": 69.70588235294117,
            "H": 70,
            "I": 71.47058823529412,
            "J": 71.58823529411765,
            "K": 73.4375,
            "L": 72.75,
            "A": 72.625,
            "B": 74.3125,
            "C": 73.3125,
            "D": 72.875,
            "E": 74.625
        },
        "bus2": {
            "G": 73.29411764705883,
            "H": 73.94117647058823,
            "I": 75,
            "J": 75.6470588235294,
            "K": 74.70588235294117,
            "L": 74.76470588235294,
            "A": 78.6875,
            "B": 78.8125,
            "C": 80.6875,
            "D": 79.5625,
            "E": 78.5625,
            "F": 78.5625
        },
        "bus3": {
            "K": 70.94117647058823,
            "L": 72.29411764705883,
            "A": 72.3529411764706,
            "B": 74.29411764705883,
            "C": 72.625,
            "D": 72.1875,
            "E": 72.625,
            "F": 72.6875,
            "G": 72.0625,
            "H": 74.3125,
            "I": 74.9375,
            "J": 75.75
        },
        "bus4": {
            "L": 71.6470588235294,
            "A": 72,
            "B": 73.29411764705883,
            "C": 73.23529411764706,
            "D": 73.41176470588235,
            "E": 74.0625,
            "F": 76.9375,
            "G": 76.4375,
            "H": 76,
            "I": 75.6875,
            "J": 74.9375,
            "K": 75.5
        },
        "bus5": {
            "A": 73.76470588235294,
            "B": 74.41176470588235,
            "C": 74.47058823529412,
            "D": 75.76470588235294,
            "E": 76.17647058823529,
            "F": 75.3529411764706,
            "G": 75.25,
            "H": 76.1875,
            "I": 77.1875,
            "J": 78.125,
            "K": 77.5625,
            "L": 77.125
        }
    }
}