{
    "Average_holding_time": 12.850041425020713,
    "Average_travel_time_passengers": 2535.6305136545866,
    "Average_speed_busses": 0.050291666666666665,
    "Average_experienced_crowding": 74.59394272822279,
    "Average_covariation_headway": 0.15753454710107898,
    "Average_covariation_headway_stops": {
        "C": 0.11591964670002486,
        "E": 0.1085730872427193,
        "F": 0.13038681205679256,
        "I": 0.11789331214292274,
        "K": 0.10658912093827902,
        "A": 0.10423430898713652,
        "B": 0.09206493646644608,
        "D": 0.08963061294533663,
        "G": 0.09870732789319475,
        "L": 0.08559573680755977,
        "J": 0.10340414617513037,
        "H": 0.10688339344665644
    },
    "Average_excess_waiting_time": {
        "C": 36.525627657172606,
        "E": 36.051329828967425,
        "F": 36.01658235748283,
        "I": 36.52061999542639,
        "K": 35.74074199956391,
        "A": 35.71513101209905,
        "B": 36.38028003479246,
        "D": 36.51694459740111,
        "G": 35.38081097118578,
        "L": 36.24277709486705,
        "J": 37.165327227951934,
        "H": 37.32051587259957
    },
    "Holding_per_stop": {
        "A": 4.455445544554456,
        "C": 21.980198019801982,
        "F": 16.336633663366335,
        "K": 15.445544554455445,
        "E": 13.96039603960396,
        "I": 15.742574257425742,
        "B": 5.1,
        "D": 11.1,
        "G": 12.475247524752476,
        "L": 7.2,
        "J": 12.3,
        "H": 18
    },
    "Load_per_bus_per_stop": {
        "bus0": {
            "C": 70.76470588235294,
            "D": 70.17647058823529,
            "E": 68.94117647058823,
            "F": 68.70588235294117,
            "G": 71.41176470588235,
            "H": 71.47058823529412,
            "I": 72.05882352941177,
            "J": 73.05882352941177,
            "K": 74.23529411764706,
            "L": 74.0625,
            "A": 74.125,
            "B": 75.25
        },
        "bus1": {
            "E": 68.70588235294117,
            "F": 69.6470588235294,
            "G": 70.3529411764706,
            "H": 70.17647058823529,
            "I": 70.70588235294117,
            "J": 69.94117647058823,
            "K": 70.70588235294117,
            "L": 71.70588235294117,
            "A": 72.11764705882354,
            "B": 73.5,
            "C": 75.5,
            "D": 75.1875
        },
        "bus2": {
            "F": 73.58823529411765,
            "G": 74.47058823529412,
            "H": 75.76470588235294,
            "I": 75.82352941176471,
            "J": 75.17647058823529,
            "K": 75.11764705882354,
            "L": 74.3529411764706,
            "A": 75.3529411764706,
            "B": 73.88235294117646,
            "C": 74.17647058823529,
            "D": 76.1875,
            "E": 75.375
        },
        "bus3": {
            "I": 70.05882352941177,
            "J": 70.11764705882354,
            "K": 71.23529411764706,
            "L": 73.29411764705883,
            "A": 73.23529411764706,
            "B": 73.88235294117646,
            "C": 75.6470588235294,
            "D": 75.58823529411765,
            "E": 75.82352941176471,
            "F": 74.875,
            "G": 75.375,
            "H": 75.0625
        },
        "bus4": {
            "K": 73.23529411764706,
            "L": 73.58823529411765,
            "A": 73.76470588235294,
            "B": 75.29411764705883,
            "C": 76,
            "D": 75.05882352941177,
            "E": 75.47058823529412,
            "F": 75.82352941176471,
            "G": 75.17647058823529,
            "H": 75,
            "I": 75.5,
            "J": 75.8125
        },
        "bus5": {
            "A": 75.17647058823529,
            "B": 75,
            "C": 75.05882352941177,
            "D": 73.17647058823529,
            "E": 75.47058823529412,
            "F": 76.76470588235294,
            "G": 76.52941176470588,
            "H": 79.05882352941177,
            "I": 78.47058823529412,
            "J": 80.3125,
            "K": 79.0625,
            "L": 78.5625
        }
    }
}