{
    "Average_holding_time": 15.213746856663873,
    "Average_travel_time_passengers": 2558.4522904388496,
    "Average_speed_busses": 0.049708333333333334,
    "Average_experienced_crowding": 74.8248377671145,
    "Average_covariation_headway": 0.116395934729763,
    "Average_covariation_headway_stops": {
        "C": 0.0835013403569747,
        "E": 0.08723342403238184,
        "H": 0.09585633551662572,
        "J": 0.08454227360873823,
        "K": 0.09320662775565605,
        "A": 0.08727539707358754,
        "F": 0.0675988217833424,
        "L": 0.0577879533905247,
        "D": 0.060731773983307265,
        "B": 0.0603237998357577,
        "I": 0.06223581594743733,
        "G": 0.06632684978383838
    },
    "Average_excess_waiting_time": {
        "C": 36.41012433161836,
        "E": 36.65375461904415,
        "H": 38.38659502242831,
        "J": 37.73574412443992,
        "K": 36.866273794286826,
        "A": 36.66095629166017,
        "F": 37.232259375892,
        "L": 36.85198826338069,
        "D": 36.90036779807542,
        "B": 36.97603272961811,
        "I": 38.41851436691849,
        "G": 38.46884961486455
    },
    "Holding_per_stop": {
        "E": 9.3,
        "K": 36.3,
        "C": 16.2,
        "A": 1.2,
        "J": 23.939393939393938,
        "H": 13.2,
        "F": 12.727272727272727,
        "L": 21.21212121212121,
        "B": 6.96969696969697,
        "D": 10.909090909090908,
        "I": 17.575757575757574,
        "G": 13.030303030303031
    },
    "Load_per_bus_per_stop": {
        "bus0": {
            "C": 70.52941176470588,
            "D": 71.05882352941177,
            "E": 71.6470588235294,
            "F": 71,
            "G": 70.94117647058823,
            "H": 71.88235294117646,
            "I": 72.23529411764706,
            "J": 74.47058823529412,
            "K": 74.875,
            "L": 72.8125,
            "A": 73.9375,
            "B": 74.8125
        },
        "bus1": {
            "E": 75.88235294117646,
            "F": 76.05882352941177,
            "G": 74.88235294117646,
            "H": 75.82352941176471,
            "I": 74.82352941176471,
            "J": 73.52941176470588,
            "K": 76,
            "L": 76.94117647058823,
            "A": 76.125,
            "B": 76.4375,
            "C": 77.875,
            "D": 78.125
        },
        "bus2": {
            "H": 71.88235294117646,
            "I": 72.05882352941177,
            "J": 72.88235294117646,
            "K": 75.3529411764706,
            "L": 75.3529411764706,
            "A": 76.94117647058823,
            "B": 78.58823529411765,
            "C": 77.75,
            "D": 79.125,
            "E": 78.6875,
            "F": 78.125,
            "G": 78.1875
        },
        "bus3": {
            "J": 72.70588235294117,
            "K": 73.58823529411765,
            "L": 74.82352941176471,
            "A": 75.29411764705883,
            "B": 75.70588235294117,
            "C": 74.6470588235294,
            "D": 75.29411764705883,
            "E": 74.75,
            "F": 76.4375,
            "G": 75.9375,
            "H": 77.5625,
            "I": 76.75
        },
        "bus4": {
            "K": 72.47058823529412,
            "L": 72.3529411764706,
            "A": 72.05882352941177,
            "B": 72.88235294117646,
            "C": 75.58823529411765,
            "D": 75,
            "E": 76.05882352941177,
            "F": 76.70588235294117,
            "G": 76.4375,
            "H": 77.9375,
            "I": 79.0625,
            "J": 78.4375
        },
        "bus5": {
            "A": 69.58823529411765,
            "B": 70.52941176470588,
            "C": 72.11764705882354,
            "D": 68.76470588235294,
            "E": 69.17647058823529,
            "F": 69.6470588235294,
            "G": 69.76470588235294,
            "H": 71.23529411764706,
            "I": 72.9375,
            "J": 76.25,
            "K": 75.75,
            "L": 74.875
        }
    }
}