{
    "Average_holding_time": 15.653266331658292,
    "Average_travel_time_passengers": 2508.2853677227804,
    "Average_speed_busses": 0.04975,
    "Average_experienced_crowding": 74.38143044786555,
    "Average_covariation_headway": 0.14158999373152076,
    "Average_covariation_headway_stops": {
        "B": 0.18179426437087734,
        "D": 0.14881572972629556,
        "F": 0.1312339674235078,
        "G": 0.12839551858664594,
        "H": 0.13610643485924065,
        "I": 0.13841223930015742,
        "E": 0.13164105129667253,
        "J": 0.10719773255624379,
        "C": 0.15180855343585217,
        "K": 0.10568867950789518,
        "L": 0.12274327114242439,
        "A": 0.1581809698551475
    },
    "Average_excess_waiting_time": {
        "B": 46.676426315967774,
        "D": 43.6306860036712,
        "F": 42.05037539179841,
        "G": 40.20589895681388,
        "H": 39.2624269230551,
        "I": 38.06932108844643,
        "E": 43.64394522778554,
        "J": 37.03189682309636,
        "C": 45.26255608255576,
        "K": 38.68130348390815,
        "L": 41.331095080328566,
        "A": 46.05050906312789
    },
    "Holding_per_stop": {
        "G": 8.7,
        "D": 10.303030303030303,
        "I": 16.03960396039604,
        "H": 11.7,
        "F": 16.96969696969697,
        "B": 13.333333333333334,
        "J": 20.7,
        "E": 11.212121212121213,
        "K": 34.5,
        "C": 17.87878787878788,
        "L": 20.606060606060606,
        "A": 5.757575757575758
    },
    "Load_per_bus_per_stop": {
        "bus0": {
            "B": 71.41176470588235,
            "C": 71.29411764705883,
            "D": 74,
            "E": 73.6470588235294,
            "F": 74.88235294117646,
            "G": 75.11764705882354,
            "H": 72.8125,
            "I": 74.0625,
            "J": 74.8125,
            "K": 75.1875,
            "L": 76.25,
            "A": 74.875
        },
        "bus1": {
            "D": 70.11764705882354,
            "E": 70.58823529411765,
            "F": 72.05882352941177,
            "G": 72.05882352941177,
            "H": 71.3529411764706,
            "I": 72.88235294117646,
            "J": 76.9375,
            "K": 77.9375,
            "L": 78.1875,
            "A": 76.75,
            "B": 75.625,
            "C": 74.875
        },
        "bus2": {
            "F": 71.29411764705883,
            "G": 72.11764705882354,
            "H": 70.82352941176471,
            "I": 70.82352941176471,
            "J": 73.3529411764706,
            "K": 73.76470588235294,
            "L": 76.1875,
            "A": 75.5,
            "B": 75.25,
            "C": 75.5625,
            "D": 76.3125,
            "E": 76.0625
        },
        "bus3": {
            "G": 67.41176470588235,
            "H": 68.82352941176471,
            "I": 69.70588235294117,
            "J": 71.52941176470588,
            "K": 71.88235294117646,
            "L": 72.11764705882354,
            "A": 71.11764705882354,
            "B": 69.3125,
            "C": 69.9375,
            "D": 71.3125,
            "E": 71.0625,
            "F": 71.9375
        },
        "bus4": {
            "H": 68.23529411764706,
            "I": 68.82352941176471,
            "J": 70.17647058823529,
            "K": 69.6470588235294,
            "L": 68.6470588235294,
            "A": 69.52941176470588,
            "B": 70.17647058823529,
            "C": 70.47058823529412,
            "D": 71.875,
            "E": 70.9375,
            "F": 70.9375,
            "G": 71.5625
        },
        "bus5": {
            "I": 76.88235294117646,
            "J": 77.23529411764706,
            "K": 77.11764705882354,
            "L": 77.17647058823529,
            "A": 78.82352941176471,
            "B": 79.3529411764706,
            "C": 83.41176470588235,
            "D": 82.52941176470588,
            "E": 82.05882352941177,
            "F": 80.125,
            "G": 80,
            "H": 80.8125
        }
    }
}