{
    "Average_holding_time": 18.59083191850594,
    "Average_travel_time_passengers": 2605.881031899982,
    "Average_speed_busses": 0.04908333333333333,
    "Average_experienced_crowding": 77.54877541474391,
    "Average_covariation_headway": 0.16867150910326514,
    "Average_covariation_headway_stops": {
        "B": 0.11199671198817424,
        "F": 0.13778647937275704,
        "G": 0.13822360219722193,
        "H": 0.1341958665494928,
        "K": 0.11217815640604287,
        "L": 0.10748764197794743,
        "A": 0.08531595500630428,
        "C": 0.10414591087838353,
        "I": 0.11652202747211993,
        "D": 0.09529741589602987,
        "J": 0.10181365811771773,
        "E": 0.1250593945582615
    },
    "Average_excess_waiting_time": {
        "B": 41.43370819957954,
        "F": 46.78972982422397,
        "G": 45.34458171378225,
        "H": 43.6673779568535,
        "K": 43.24001137860108,
        "L": 41.3169280300703,
        "A": 41.497443901442296,
        "C": 42.67167316624506,
        "I": 43.972750877106535,
        "D": 43.63969432477785,
        "J": 44.46030446184983,
        "E": 47.38681435268535
    },
    "Holding_per_stop": {
        "G": 16.53061224489796,
        "L": 22.12121212121212,
        "B": 12.121212121212121,
        "H": 18.484848484848484,
        "F": 18.06122448979592,
        "K": 19.591836734693878,
        "A": 4.591836734693878,
        "C": 30.306122448979593,
        "I": 18.979591836734695,
        "D": 18.979591836734695,
        "J": 15.918367346938776,
        "E": 27.52577319587629
    },
    "Load_per_bus_per_stop": {
        "bus0": {
            "B": 71.88235294117646,
            "C": 72.11764705882354,
            "D": 73.88235294117646,
            "E": 76.29411764705883,
            "F": 77.05882352941177,
            "G": 75.8125,
            "H": 75.375,
            "I": 76.375,
            "J": 76.4375,
            "K": 77.125,
            "L": 77.3125,
            "A": 78.25
        },
        "bus1": {
            "F": 73.23529411764706,
            "G": 74.94117647058823,
            "H": 74.58823529411765,
            "I": 74.625,
            "J": 74.9375,
            "K": 76.9375,
            "L": 78,
            "A": 77,
            "B": 77.4375,
            "C": 76.4375,
            "D": 77.25,
            "E": 77.3125
        },
        "bus2": {
            "G": 75.3529411764706,
            "H": 74.58823529411765,
            "I": 74.82352941176471,
            "J": 76.23529411764706,
            "K": 76.125,
            "L": 74.4375,
            "A": 75,
            "B": 75.0625,
            "C": 77.8125,
            "D": 78.125,
            "E": 78.8125,
            "F": 79.5
        },
        "bus3": {
            "H": 79.76470588235294,
            "I": 79.41176470588235,
            "J": 80.52941176470588,
            "K": 80.29411764705883,
            "L": 80.76470588235294,
            "A": 79.9375,
            "B": 81.125,
            "C": 80.5625,
            "D": 81.1875,
            "E": 82.125,
            "F": 84.125,
            "G": 83.375
        },
        "bus4": {
            "K": 75.29411764705883,
            "L": 75.76470588235294,
            "A": 77,
            "B": 77.52941176470588,
            "C": 78.875,
            "D": 77.6875,
            "E": 78,
            "F": 77.6875,
            "G": 78.6875,
            "H": 76.125,
            "I": 77.5625,
            "J": 80
        },
        "bus5": {
            "L": 73,
            "A": 74.70588235294117,
            "B": 75.17647058823529,
            "C": 77.23529411764706,
            "D": 76.47058823529412,
            "E": 75.4375,
            "F": 75.75,
            "G": 74.875,
            "H": 74.3125,
            "I": 76.375,
            "J": 75.875,
            "K": 76.25
        }
    }
}