{
    "Average_holding_time": 32.5355871886121,
    "Average_travel_time_passengers": 2690.706328516551,
    "Average_speed_busses": 0.04683333333333333,
    "Average_experienced_crowding": 79.32068861559485,
    "Average_covariation_headway": 0.10044785008927754,
    "Average_covariation_headway_stops": {
        "C": 0.09112162968294611,
        "E": 0.08245909589681391,
        "F": 0.09460993592308137,
        "I": 0.08614419074916924,
        "K": 0.08240502362792149,
        "L": 0.08995643939612054,
        "G": 0.05872227063050075,
        "A": 0.053791023920590396,
        "J": 0.051647674517601765,
        "D": 0.04883962932327811,
        "H": 0.05666259115113729,
        "B": 0.05547565826290716
    },
    "Average_excess_waiting_time": {
        "C": 56.74805800904369,
        "E": 56.02843604569358,
        "F": 55.14892879285446,
        "I": 56.62036166513229,
        "K": 56.46473276835229,
        "L": 55.06776368023196,
        "G": 55.13986591064412,
        "A": 55.087959383511134,
        "J": 56.900078397833056,
        "D": 56.36883398493177,
        "H": 57.050486736145956,
        "B": 56.690176145272915
    },
    "Holding_per_stop": {
        "F": 33.191489361702125,
        "L": 32.5531914893617,
        "E": 36.06382978723404,
        "I": 33.829787234042556,
        "K": 32.5531914893617,
        "C": 35.42553191489362,
        "G": 32.87234042553192,
        "A": 26.80851063829787,
        "J": 31.93548387096774,
        "D": 34.193548387096776,
        "H": 30.967741935483872,
        "B": 30
    },
    "Load_per_bus_per_stop": {
        "bus0": {
            "C": 80.875,
            "D": 80.9375,
            "E": 81.375,
            "F": 81.1875,
            "G": 82.6875,
            "H": 82.125,
            "I": 82.5625,
            "J": 84.2,
            "K": 84.86666666666666,
            "L": 84.66666666666667,
            "A": 83.93333333333334,
            "B": 85.53333333333333
        },
        "bus1": {
            "E": 73.125,
            "F": 73.375,
            "G": 75.625,
            "H": 74.1875,
            "I": 74.75,
            "J": 75.625,
            "K": 76.75,
            "L": 77.13333333333334,
            "A": 76.13333333333334,
            "B": 76.66666666666667,
            "C": 76.13333333333334,
            "D": 77.53333333333333
        },
        "bus2": {
            "F": 76.5,
            "G": 75.625,
            "H": 76.3125,
            "I": 75.1875,
            "J": 75.8125,
            "K": 75.9375,
            "L": 75.1875,
            "A": 76.1875,
            "B": 76.66666666666667,
            "C": 78.6,
            "D": 80.86666666666666,
            "E": 81.13333333333334
        },
        "bus3": {
            "I": 77.0625,
            "J": 77.6875,
            "K": 79.375,
            "L": 80.5,
            "A": 80.8125,
            "B": 82.0625,
            "C": 82.0625,
            "D": 78.66666666666667,
            "E": 79.33333333333333,
            "F": 78.73333333333333,
            "G": 79.93333333333334,
            "H": 82.2
        },
        "bus4": {
            "K": 75.5625,
            "L": 76.8125,
            "A": 77,
            "B": 77.625,
            "C": 78.0625,
            "D": 79.125,
            "E": 78.3125,
            "F": 79.8,
            "G": 79.46666666666667,
            "H": 79.4,
            "I": 78.4,
            "J": 78.8
        },
        "bus5": {
            "L": 74.75,
            "A": 73.25,
            "B": 73.6875,
            "C": 75.6875,
            "D": 77.1875,
            "E": 78.4375,
            "F": 80.75,
            "G": 80.9375,
            "H": 82.4,
            "I": 81.46666666666667,
            "J": 80.06666666666666,
            "K": 79.33333333333333
        }
    }
}