{
    "Average_holding_time": 8.403908794788274,
    "Average_travel_time_passengers": 2471.355460101907,
    "Average_speed_busses": 0.051166666666666666,
    "Average_experienced_crowding": 72.88413684368868,
    "Average_covariation_headway": 0.2521154469921325,
    "Average_covariation_headway_stops": {
        "D": 0.1838652736332652,
        "F": 0.18129619868259345,
        "G": 0.17091182766719346,
        "H": 0.17720377118277603,
        "I": 0.18982108535752568,
        "A": 0.18431654901698039,
        "J": 0.17095724197058515,
        "B": 0.17564524969561082,
        "E": 0.17013253190007185,
        "K": 0.16909841621930083,
        "C": 0.16917733677642985,
        "L": 0.18132604578448713
    },
    "Average_excess_waiting_time": {
        "D": 38.08958002832094,
        "F": 37.98506603677282,
        "G": 35.38343685198316,
        "H": 35.083600857822546,
        "I": 34.9558711371036,
        "A": 36.592280579371106,
        "J": 34.403921858246406,
        "B": 37.07253883462715,
        "E": 38.13467356142917,
        "K": 35.84999522442968,
        "C": 37.894221139580054,
        "L": 38.60571003529486
    },
    "Holding_per_stop": {
        "I": 7.864077669902913,
        "G": 7.572815533980583,
        "H": 7.864077669902913,
        "A": 2.6470588235294117,
        "F": 8.529411764705882,
        "D": 6.764705882352941,
        "J": 11.067961165048544,
        "B": 6.764705882352941,
        "E": 9.117647058823529,
        "K": 7.647058823529412,
        "C": 10.294117647058824,
        "L": 14.705882352941176
    },
    "Load_per_bus_per_stop": {
        "bus0": {
            "D": 67.41176470588235,
            "E": 66.58823529411765,
            "F": 68,
            "G": 68.23529411764706,
            "H": 67.17647058823529,
            "I": 67,
            "J": 70.29411764705883,
            "K": 72.47058823529412,
            "L": 74.05882352941177,
            "A": 73.47058823529412,
            "B": 74.82352941176471,
            "C": 72.17647058823529
        },
        "bus1": {
            "F": 68.52941176470588,
            "G": 69.47058823529412,
            "H": 69.11764705882354,
            "I": 71.17647058823529,
            "J": 73.11764705882354,
            "K": 73.52941176470588,
            "L": 75.52941176470588,
            "A": 76.05882352941177,
            "B": 75.29411764705883,
            "C": 75.3529411764706,
            "D": 72.58823529411765,
            "E": 71.82352941176471
        },
        "bus2": {
            "G": 65.11111111111111,
            "H": 66.70588235294117,
            "I": 67.29411764705883,
            "J": 68.82352941176471,
            "K": 68.05882352941177,
            "L": 67.05882352941177,
            "A": 70.23529411764706,
            "B": 70.58823529411765,
            "C": 68.23529411764706,
            "D": 66.11764705882354,
            "E": 67.29411764705883,
            "F": 68
        },
        "bus3": {
            "H": 63.27777777777778,
            "I": 63.588235294117645,
            "J": 64.47058823529412,
            "K": 65.94117647058823,
            "L": 66.70588235294117,
            "A": 66.29411764705883,
            "B": 68.41176470588235,
            "C": 67.47058823529412,
            "D": 67.58823529411765,
            "E": 66.47058823529412,
            "F": 65.05882352941177,
            "G": 65.6470588235294
        },
        "bus4": {
            "I": 75.66666666666667,
            "J": 74,
            "K": 75.52941176470588,
            "L": 75.41176470588235,
            "A": 75.58823529411765,
            "B": 75.3529411764706,
            "C": 76.23529411764706,
            "D": 75.29411764705883,
            "E": 75.47058823529412,
            "F": 75,
            "G": 75,
            "H": 77.3529411764706
        },
        "bus5": {
            "A": 70.6470588235294,
            "B": 70.41176470588235,
            "C": 71.76470588235294,
            "D": 72.94117647058823,
            "E": 74.3529411764706,
            "F": 75.88235294117646,
            "G": 78.11764705882354,
            "H": 77.3529411764706,
            "I": 77.17647058823529,
            "J": 76.41176470588235,
            "K": 76.82352941176471,
            "L": 76.29411764705883
        }
    }
}