{
    "Average_holding_time": 13.876871880199667,
    "Average_travel_time_passengers": 2544.9664486698834,
    "Average_speed_busses": 0.050083333333333334,
    "Average_experienced_crowding": 74.27565807479728,
    "Average_covariation_headway": 0.1642890404967153,
    "Average_covariation_headway_stops": {
        "B": 0.12380936554872768,
        "C": 0.13168594944087805,
        "F": 0.12110707387241729,
        "I": 0.11914865093942166,
        "K": 0.10379702217764109,
        "A": 0.11634410119736033,
        "D": 0.12039803244059182,
        "G": 0.0966660628331305,
        "L": 0.09558565388674986,
        "J": 0.10155132580380564,
        "E": 0.12827595367952938,
        "H": 0.0935868283610615
    },
    "Average_excess_waiting_time": {
        "B": 37.382587529773616,
        "C": 36.07072839508908,
        "F": 36.896741585721884,
        "I": 38.295494357237885,
        "K": 37.30051842823184,
        "A": 38.37418776052499,
        "D": 36.7761532081272,
        "G": 37.0098006390827,
        "L": 38.25518100226088,
        "J": 38.553446435045544,
        "E": 38.956930546212845,
        "H": 38.21365020858326
    },
    "Holding_per_stop": {
        "C": 24.059405940594058,
        "F": 10.693069306930694,
        "K": 18.6,
        "B": 12,
        "I": 10.8,
        "A": 3.6,
        "L": 11.212121212121213,
        "D": 21.980198019801982,
        "G": 9.6,
        "J": 13.2,
        "E": 19.2,
        "H": 11.4
    },
    "Load_per_bus_per_stop": {
        "bus0": {
            "B": 69.29411764705883,
            "C": 70.58823529411765,
            "D": 70.58823529411765,
            "E": 69.82352941176471,
            "F": 69.47058823529412,
            "G": 70.3529411764706,
            "H": 70.17647058823529,
            "I": 72.05882352941177,
            "J": 73.70588235294117,
            "K": 73.8125,
            "L": 72.8125,
            "A": 73.3125
        },
        "bus1": {
            "C": 71.3529411764706,
            "D": 72.58823529411765,
            "E": 73,
            "F": 72.29411764705883,
            "G": 74.41176470588235,
            "H": 75,
            "I": 75.6470588235294,
            "J": 75.47058823529412,
            "K": 75.76470588235294,
            "L": 74.6470588235294,
            "A": 75.3125,
            "B": 75.9375
        },
        "bus2": {
            "F": 73.82352941176471,
            "G": 74.17647058823529,
            "H": 74.05882352941177,
            "I": 74.41176470588235,
            "J": 74.29411764705883,
            "K": 74.3529411764706,
            "L": 74.41176470588235,
            "A": 74.52941176470588,
            "B": 74.05882352941177,
            "C": 74.6875,
            "D": 76.4375,
            "E": 76.875
        },
        "bus3": {
            "I": 70,
            "J": 70.41176470588235,
            "K": 70.70588235294117,
            "L": 72.23529411764706,
            "A": 73.52941176470588,
            "B": 74.3529411764706,
            "C": 74.47058823529412,
            "D": 74.41176470588235,
            "E": 76.0625,
            "F": 75.4375,
            "G": 76.375,
            "H": 75.875
        },
        "bus4": {
            "K": 70.58823529411765,
            "L": 73.17647058823529,
            "A": 73.76470588235294,
            "B": 73.41176470588235,
            "C": 74,
            "D": 75.29411764705883,
            "E": 75.70588235294117,
            "F": 76.58823529411765,
            "G": 76.6875,
            "H": 75.5,
            "I": 75.125,
            "J": 74
        },
        "bus5": {
            "A": 70.52941176470588,
            "B": 72.82352941176471,
            "C": 73.17647058823529,
            "D": 74.11764705882354,
            "E": 73.76470588235294,
            "F": 75.23529411764706,
            "G": 75.47058823529412,
            "H": 74.17647058823529,
            "I": 77.4375,
            "J": 77.9375,
            "K": 74.75,
            "L": 74.5
        }
    }
}