{
    "Average_holding_time": 18.613693998309383,
    "Average_travel_time_passengers": 2574.1445422205966,
    "Average_speed_busses": 0.049291666666666664,
    "Average_experienced_crowding": 75.23624824811336,
    "Average_covariation_headway": 0.19708048598742103,
    "Average_covariation_headway_stops": {
        "B": 0.18517488602702803,
        "E": 0.15818682910275828,
        "F": 0.14432066629225465,
        "G": 0.14587260763880347,
        "H": 0.14724748753313424,
        "A": 0.18616813045387132,
        "C": 0.1621999727460352,
        "I": 0.12351731240014634,
        "D": 0.15257580913358548,
        "J": 0.12792062146386335,
        "K": 0.1446902988437121,
        "L": 0.17574152792176234
    },
    "Average_excess_waiting_time": {
        "B": 48.56024562455059,
        "E": 47.7502554709734,
        "F": 44.743169194460506,
        "G": 43.501147709499605,
        "H": 42.04714485162276,
        "A": 50.356231693963935,
        "C": 47.88091960047217,
        "I": 41.51090693651304,
        "D": 48.582281148803986,
        "J": 43.39586490828236,
        "K": 46.13394425572773,
        "L": 51.03501982230313
    },
    "Holding_per_stop": {
        "B": 14.545454545454545,
        "G": 14.848484848484848,
        "F": 16.96969696969697,
        "H": 14.4,
        "A": 7.040816326530612,
        "E": 21.73469387755102,
        "C": 29.387755102040817,
        "I": 16.666666666666668,
        "D": 18.979591836734695,
        "J": 18.181818181818183,
        "K": 30.612244897959183,
        "L": 20.20408163265306
    },
    "Load_per_bus_per_stop": {
        "bus0": {
            "B": 73.82352941176471,
            "C": 75.6470588235294,
            "D": 76.94117647058823,
            "E": 75.23529411764706,
            "F": 75.23529411764706,
            "G": 76.5625,
            "H": 76.3125,
            "I": 75.4375,
            "J": 76.4375,
            "K": 77.5625,
            "L": 78.75,
            "A": 78.75
        },
        "bus1": {
            "E": 69.29411764705883,
            "F": 69.94117647058823,
            "G": 70.88235294117646,
            "H": 72.11764705882354,
            "I": 73.1875,
            "J": 72.25,
            "K": 72.75,
            "L": 73.625,
            "A": 74.125,
            "B": 73.4375,
            "C": 74.375,
            "D": 75.5625
        },
        "bus2": {
            "F": 73.82352941176471,
            "G": 74.94117647058823,
            "H": 75.05882352941177,
            "I": 75.47058823529412,
            "J": 76.94117647058823,
            "K": 78.75,
            "L": 75.625,
            "A": 76.4375,
            "B": 76.5,
            "C": 76.3125,
            "D": 77.375,
            "E": 78.6875
        },
        "bus3": {
            "G": 72.05882352941177,
            "H": 72.82352941176471,
            "I": 72.47058823529412,
            "J": 73.52941176470588,
            "K": 73.05882352941177,
            "L": 73.82352941176471,
            "A": 72.9375,
            "B": 74.75,
            "C": 74.3125,
            "D": 73.6875,
            "E": 73.75,
            "F": 75.9375
        },
        "bus4": {
            "H": 71.70588235294117,
            "I": 71.47058823529412,
            "J": 72.05882352941177,
            "K": 72.82352941176471,
            "L": 74.52941176470588,
            "A": 76.47058823529412,
            "B": 78.41176470588235,
            "C": 81.375,
            "D": 80.8125,
            "E": 78.375,
            "F": 78.375,
            "G": 77.1875
        },
        "bus5": {
            "A": 68.88235294117646,
            "B": 69.70588235294117,
            "C": 69.76470588235294,
            "D": 70.05882352941177,
            "E": 71.3125,
            "F": 72.875,
            "G": 74.5625,
            "H": 75.3125,
            "I": 75,
            "J": 74.625,
            "K": 73.5625,
            "L": 74.1875
        }
    }
}