{
    "Average_holding_time": 17.13563605728728,
    "Average_travel_time_passengers": 2565.0427181002965,
    "Average_speed_busses": 0.04945833333333333,
    "Average_experienced_crowding": 75.87202962226375,
    "Average_covariation_headway": 0.15289052506073075,
    "Average_covariation_headway_stops": {
        "B": 0.13327920343906954,
        "D": 0.12611656240497895,
        "E": 0.1289792135248111,
        "F": 0.13796407124128074,
        "K": 0.1810982839792045,
        "L": 0.16254800117669121,
        "G": 0.11641834509368801,
        "C": 0.10699948657385383,
        "A": 0.1389867930972045,
        "H": 0.11240784703180771,
        "I": 0.1237010361933665,
        "J": 0.15921016748350714
    },
    "Average_excess_waiting_time": {
        "B": 42.53531064926341,
        "D": 42.15567037828066,
        "E": 40.71291139043524,
        "F": 39.93214555537543,
        "K": 48.5566364276055,
        "L": 45.08108198272612,
        "G": 39.691668649539054,
        "C": 42.13863286026174,
        "A": 44.784760527108574,
        "H": 41.021486083447996,
        "I": 43.29325672791242,
        "J": 48.03634399687917
    },
    "Holding_per_stop": {
        "F": 17.4,
        "E": 9.090909090909092,
        "B": 7.878787878787879,
        "L": 21.818181818181817,
        "D": 10,
        "K": 36.96969696969697,
        "G": 12.9,
        "A": 6.428571428571429,
        "C": 20.816326530612244,
        "H": 13.333333333333334,
        "I": 21.818181818181817,
        "J": 27.244897959183675
    },
    "Load_per_bus_per_stop": {
        "bus0": {
            "B": 66.94117647058823,
            "C": 68.70588235294117,
            "D": 68.52941176470588,
            "E": 68.82352941176471,
            "F": 69.3529411764706,
            "G": 70.6470588235294,
            "H": 72.25,
            "I": 72.9375,
            "J": 72,
            "K": 71.875,
            "L": 72.375,
            "A": 71.0625
        },
        "bus1": {
            "D": 73.29411764705883,
            "E": 73.94117647058823,
            "F": 74.94117647058823,
            "G": 74.17647058823529,
            "H": 75.41176470588235,
            "I": 76.88235294117646,
            "J": 75.25,
            "K": 76.25,
            "L": 76.5,
            "A": 74.5,
            "B": 76,
            "C": 76.3125
        },
        "bus2": {
            "E": 72.05882352941177,
            "F": 73.76470588235294,
            "G": 74.23529411764706,
            "H": 74.3529411764706,
            "I": 76.11764705882354,
            "J": 75,
            "K": 74.6470588235294,
            "L": 72.8125,
            "A": 72.6875,
            "B": 73.125,
            "C": 73.8125,
            "D": 76
        },
        "bus3": {
            "F": 74,
            "G": 74.11764705882354,
            "H": 76,
            "I": 78.17647058823529,
            "J": 77.3529411764706,
            "K": 78.58823529411765,
            "L": 79.94117647058823,
            "A": 80.6470588235294,
            "B": 79.625,
            "C": 80.375,
            "D": 80.6875,
            "E": 79.1875
        },
        "bus4": {
            "K": 73.05882352941177,
            "L": 73.3529411764706,
            "A": 73,
            "B": 74,
            "C": 74.58823529411765,
            "D": 74.9375,
            "E": 74.4375,
            "F": 74.25,
            "G": 74.6875,
            "H": 75,
            "I": 75,
            "J": 75.3125
        },
        "bus5": {
            "L": 74.23529411764706,
            "A": 74.58823529411765,
            "B": 74.41176470588235,
            "C": 75.6470588235294,
            "D": 76.17647058823529,
            "E": 76.05882352941177,
            "F": 77.0625,
            "G": 77.6875,
            "H": 78.875,
            "I": 78.75,
            "J": 78.0625,
            "K": 78.25
        }
    }
}        "L": 79.75
        }
    }
}