{
    "Average_holding_time": 32.21333333333333,
    "Average_travel_time_passengers": 2706.3469450554435,
    "Average_speed_busses": 0.046875,
    "Average_experienced_crowding": 80.79256220767267,
    "Average_covariation_headway": 0.12263130602685508,
    "Average_covariation_headway_stops": {
        "B": 0.12955391212503162,
        "D": 0.11025993408307459,
        "F": 0.10352220113123274,
        "H": 0.09717155193841559,
        "I": 0.1042438040251475,
        "J": 0.11013805254904696,
        "K": 0.08927306823027681,
        "E": 0.08936003617478233,
        "G": 0.07889997619753832,
        "C": 0.10288006849899174,
        "L": 0.08445164484788772,
        "A": 0.10457650837195416
    },
    "Average_excess_waiting_time": {
        "B": 59.65011654544804,
        "D": 58.246497647762965,
        "F": 58.007728989388966,
        "H": 57.51465652800164,
        "I": 56.3883291142962,
        "J": 55.14993257991341,
        "K": 55.41004264624905,
        "E": 58.86018280293416,
        "G": 58.29161761868187,
        "C": 59.56974858274822,
        "L": 56.75441429192222,
        "A": 59.57254795885291
    },
    "Holding_per_stop": {
        "J": 33.1578947368421,
        "D": 32.5531914893617,
        "I": 33.829787234042556,
        "F": 31.27659574468085,
        "H": 32.234042553191486,
        "B": 30.95744680851064,
        "K": 33.191489361702125,
        "E": 32.903225806451616,
        "G": 32.58064516129032,
        "C": 36.12903225806452,
        "L": 31.914893617021278,
        "A": 25.806451612903224
    },
    "Load_per_bus_per_stop": {
        "bus0": {
            "B": 77.75,
            "C": 78.3125,
            "D": 78.625,
            "E": 80.0625,
            "F": 80.875,
            "G": 80.5,
            "H": 82.75,
            "I": 81,
            "J": 81.06666666666666,
            "K": 81.4,
            "L": 82.73333333333333,
            "A": 82.93333333333334
        },
        "bus1": {
            "D": 81.3125,
            "E": 80.8125,
            "F": 80.875,
            "G": 79.875,
            "H": 80.25,
            "I": 80.5,
            "J": 82.625,
            "K": 81.4,
            "L": 82.93333333333334,
            "A": 83.2,
            "B": 85.06666666666666,
            "C": 86
        },
        "bus2": {
            "F": 78.6875,
            "G": 79.375,
            "H": 79.9375,
            "I": 80.25,
            "J": 80.1875,
            "K": 80.5,
            "L": 82.375,
            "A": 81.73333333333333,
            "B": 80.6,
            "C": 79.6,
            "D": 80.53333333333333,
            "E": 81.66666666666667
        },
        "bus3": {
            "H": 75.5,
            "I": 76.5625,
            "J": 77.3125,
            "K": 79.25,
            "L": 79.0625,
            "A": 77,
            "B": 78,
            "C": 78.93333333333334,
            "D": 78.8,
            "E": 80.73333333333333,
            "F": 81.13333333333334,
            "G": 80.6
        },
        "bus4": {
            "I": 76.5625,
            "J": 77,
            "K": 77.3125,
            "L": 78.5,
            "A": 79,
            "B": 77.3125,
            "C": 77.625,
            "D": 78.25,
            "E": 78.6,
            "F": 78.66666666666667,
            "G": 81.06666666666666,
            "H": 81.8
        },
        "bus5": {
            "J": 76.75,
            "K": 76.5,
            "L": 78.6875,
            "A": 79.9375,
            "B": 79,
            "C": 79.8125,
            "D": 80.0625,
            "E": 81.3125,
            "F": 81.1875,
            "G": 80.4,
            "H": 82.66666666666667,
            "I": 83
        }
    }
}   "J": 81.26666666666667,
            "K": 82.13333333333334
        }
    }
}