{
    "Average_holding_time": 33.19892473118279,
    "Average_travel_time_passengers": 2706.6545806252575,
    "Average_speed_busses": 0.0465,
    "Average_experienced_crowding": 81.8591697200432,
    "Average_covariation_headway": 0.13106431283923448,
    "Average_covariation_headway_stops": {
        "C": 0.1535705607362055,
        "D": 0.14657809492479407,
        "E": 0.1473140848848495,
        "G": 0.1211559763976602,
        "H": 0.11756476829351813,
        "J": 0.096996548144396,
        "K": 0.0634104928996648,
        "F": 0.11817228358001826,
        "I": 0.08496804307202897,
        "L": 0.06276777017215311,
        "A": 0.09088397044407581,
        "B": 0.12955480186294968
    },
    "Average_excess_waiting_time": {
        "C": 65.67400759729162,
        "D": 63.275566974689184,
        "E": 61.573897457635894,
        "G": 59.456407390071945,
        "H": 57.358125568456785,
        "J": 56.16178198042661,
        "K": 56.1851803186201,
        "F": 60.98945129412266,
        "I": 57.04984175249331,
        "L": 57.98838479104796,
        "A": 61.18038191548084,
        "B": 65.37568590118337
    },
    "Holding_per_stop": {
        "J": 33.829787234042556,
        "E": 32.87234042553192,
        "H": 34.46808510638298,
        "D": 33.54838709677419,
        "G": 36.774193548387096,
        "C": 38.15217391304348,
        "K": 32.25806451612903,
        "I": 30.967741935483872,
        "F": 34.516129032258064,
        "L": 32.25806451612903,
        "A": 27.717391304347824,
        "B": 30.97826086956522
    },
    "Load_per_bus_per_stop": {
        "bus0": {
            "C": 74.5,
            "D": 75,
            "E": 76,
            "F": 75.875,
            "G": 78.375,
            "H": 79.53333333333333,
            "I": 80.93333333333334,
            "J": 81.53333333333333,
            "K": 81.93333333333334,
            "L": 81.6,
            "A": 81.2,
            "B": 79.53333333333333
        },
        "bus1": {
            "D": 76.4375,
            "E": 77,
            "F": 74.75,
            "G": 74.5625,
            "H": 74.5625,
            "I": 75.5625,
            "J": 76.26666666666667,
            "K": 77.4,
            "L": 79.13333333333334,
            "A": 80,
            "B": 81.13333333333334,
            "C": 81.46666666666667
        },
        "bus2": {
            "E": 78.5625,
            "F": 79.3125,
            "G": 78.6875,
            "H": 79.1875,
            "I": 79.9375,
            "J": 81.8125,
            "K": 81.9375,
            "L": 81.26666666666667,
            "A": 82.4,
            "B": 83.6,
            "C": 82.33333333333333,
            "D": 84.26666666666667
        },
        "bus3": {
            "G": 76.375,
            "H": 78.875,
            "I": 78.9375,
            "J": 78.625,
            "K": 80.25,
            "L": 81.25,
            "A": 80.9375,
            "B": 78.4,
            "C": 77.73333333333333,
            "D": 77.26666666666667,
            "E": 77.2,
            "F": 79.73333333333333
        },
        "bus4": {
            "H": 75.8125,
            "I": 76.625,
            "J": 78.0625,
            "K": 78.5625,
            "L": 80.1875,
            "A": 78.5,
            "B": 78.25,
            "C": 80.6875,
            "D": 82.13333333333334,
            "E": 83.53333333333333,
            "F": 81.4,
            "G": 81.73333333333333
        },
        "bus5": {
            "J": 87.8125,
            "K": 87.5625,
            "L": 87.625,
            "A": 89,
            "B": 89.25,
            "C": 89.5,
            "D": 90.75,
            "E": 90.0625,
            "F": 92.26666666666667,
            "G": 92.73333333333333,
            "H": 92.2,
            "I": 93.33333333333333
        }
    }
}