{
    "Average_holding_time": 33.92825112107624,
    "Average_travel_time_passengers": 2697.9611786483442,
    "Average_speed_busses": 0.04645833333333333,
    "Average_experienced_crowding": 81.32669158941351,
    "Average_covariation_headway": 0.15081729796252688,
    "Average_covariation_headway_stops": {
        "B": 0.17823893157631807,
        "C": 0.1789885618279758,
        "H": 0.19016619490107028,
        "K": 0.17780856633378472,
        "L": 0.17511273647465764,
        "A": 0.17901632721668548,
        "D": 0.15338700337476033,
        "I": 0.16534365634504322,
        "E": 0.1443618767963438,
        "J": 0.16658019929103945,
        "F": 0.15061387533476261,
        "G": 0.1715634860355598
    },
    "Average_excess_waiting_time": {
        "B": 63.443029552375094,
        "C": 61.85338000795599,
        "H": 68.19071165196573,
        "K": 68.43900531878228,
        "L": 66.63994722480169,
        "A": 65.28719589077207,
        "D": 60.89245072217261,
        "I": 67.11358719677094,
        "E": 61.69935267391668,
        "J": 69.07954724013587,
        "F": 63.98013879002883,
        "G": 67.89725316118933
    },
    "Holding_per_stop": {
        "C": 37.340425531914896,
        "B": 31.914893617021278,
        "L": 33.54838709677419,
        "A": 29.032258064516128,
        "K": 35.869565217391305,
        "H": 35.483870967741936,
        "D": 33.191489361702125,
        "I": 35.21739130434783,
        "E": 33.87096774193548,
        "F": 33.54838709677419,
        "J": 34.891304347826086,
        "G": 33.26086956521739
    },
    "Load_per_bus_per_stop": {
        "bus0": {
            "B": 73.3125,
            "C": 73.3125,
            "D": 72.4375,
            "E": 73.8125,
            "F": 74.3125,
            "G": 73.0625,
            "H": 74.0625,
            "I": 73.75,
            "J": 75.33333333333333,
            "K": 75.13333333333334,
            "L": 76.66666666666667,
            "A": 77.33333333333333
        },
        "bus1": {
            "C": 77.25,
            "D": 78.75,
            "E": 79.5,
            "F": 81.375,
            "G": 82.1875,
            "H": 82.625,
            "I": 83.375,
            "J": 82.8125,
            "K": 83.625,
            "L": 83.6,
            "A": 84.13333333333334,
            "B": 83.13333333333334
        },
        "bus2": {
            "H": 82.5625,
            "I": 83.8125,
            "J": 85.6875,
            "K": 85.375,
            "L": 84.25,
            "A": 83.53333333333333,
            "B": 84.6,
            "C": 84.13333333333334,
            "D": 87.93333333333334,
            "E": 87.33333333333333,
            "F": 88.33333333333333,
            "G": 88.73333333333333
        },
        "bus3": {
            "K": 83.375,
            "L": 83.9375,
            "A": 81.8125,
            "B": 82.0625,
            "C": 83.4,
            "D": 84,
            "E": 82.53333333333333,
            "F": 81.93333333333334,
            "G": 83.26666666666667,
            "H": 84,
            "I": 84.8,
            "J": 86.53333333333333
        },
        "bus4": {
            "L": 77.5,
            "A": 79.4375,
            "B": 76.8125,
            "C": 75.875,
            "D": 77.3125,
            "E": 78.2,
            "F": 78.26666666666667,
            "G": 79.93333333333334,
            "H": 81.6,
            "I": 79.8,
            "J": 79.46666666666667,
            "K": 81.53333333333333
        },
        "bus5": {
            "A": 71.875,
            "B": 71.5625,
            "C": 71.375,
            "D": 71.1875,
            "E": 69.875,
            "F": 70.8125,
            "G": 71.33333333333333,
            "H": 71.8,
            "I": 71.33333333333333,
            "J": 72.26666666666667,
            "K": 74.2,
            "L": 75.26666666666667
        }
    }
}