{
    "Average_holding_time": 14.824120603015075,
    "Average_travel_time_passengers": 2536.24312227346,
    "Average_speed_busses": 0.04975,
    "Average_experienced_crowding": 75.35168041286646,
    "Average_covariation_headway": 0.12087635509062787,
    "Average_covariation_headway_stops": {
        "C": 0.09680342167845395,
        "E": 0.0955765695523934,
        "F": 0.0927655159989077,
        "G": 0.10246965657555124,
        "I": 0.10000170656663421,
        "L": 0.10041321481688424,
        "J": 0.08099765173288541,
        "H": 0.08232602518314858,
        "A": 0.06879274851352117,
        "D": 0.06798268046701648,
        "K": 0.0762686618220133,
        "B": 0.07498329250165453
    },
    "Average_excess_waiting_time": {
        "C": 38.99784062138497,
        "E": 38.835965052764266,
        "F": 37.05887806202941,
        "G": 36.20426092283094,
        "I": 36.20370854561878,
        "L": 37.732853515229976,
        "J": 36.590418769736345,
        "H": 36.52872889290006,
        "A": 37.71064992135098,
        "D": 39.047586499705744,
        "K": 38.02796560300288,
        "B": 39.37694634828398
    },
    "Holding_per_stop": {
        "I": 21.3,
        "F": 18.6,
        "G": 9.9,
        "L": 17.1,
        "E": 8.787878787878787,
        "C": 20.90909090909091,
        "H": 9.9,
        "J": 20.1,
        "A": 2.727272727272727,
        "D": 5.757575757575758,
        "K": 36.06060606060606,
        "B": 6.666666666666667
    },
    "Load_per_bus_per_stop": {
        "bus0": {
            "C": 72.47058823529412,
            "D": 71.94117647058823,
            "E": 72.70588235294117,
            "F": 74.76470588235294,
            "G": 75.05882352941177,
            "H": 75.70588235294117,
            "I": 76.875,
            "J": 77.375,
            "K": 77.6875,
            "L": 78.1875,
            "A": 78.0625,
            "B": 78.125
        },
        "bus1": {
            "E": 69,
            "F": 71.52941176470588,
            "G": 70.82352941176471,
            "H": 73.23529411764706,
            "I": 73.52941176470588,
            "J": 73.23529411764706,
            "K": 73.625,
            "L": 74.4375,
            "A": 74.4375,
            "B": 73.0625,
            "C": 72,
            "D": 71.5
        },
        "bus2": {
            "F": 72.6470588235294,
            "G": 72.17647058823529,
            "H": 73.88235294117646,
            "I": 74.29411764705883,
            "J": 75.41176470588235,
            "K": 74.23529411764706,
            "L": 75,
            "A": 74.0625,
            "B": 74.5625,
            "C": 74.5,
            "D": 74.125,
            "E": 76
        },
        "bus3": {
            "G": 71.6470588235294,
            "H": 71.88235294117646,
            "I": 72.82352941176471,
            "J": 73.41176470588235,
            "K": 74.58823529411765,
            "L": 73.47058823529412,
            "A": 73.05882352941177,
            "B": 72.82352941176471,
            "C": 72.0625,
            "D": 72.6875,
            "E": 72,
            "F": 74.8125
        },
        "bus4": {
            "I": 72.58823529411765,
            "J": 73.05882352941177,
            "K": 73.88235294117646,
            "L": 73,
            "A": 70.94117647058823,
            "B": 72.17647058823529,
            "C": 73.52941176470588,
            "D": 73.52941176470588,
            "E": 71.9375,
            "F": 75.1875,
            "G": 75.25,
            "H": 75.9375
        },
        "bus5": {
            "L": 78.41176470588235,
            "A": 79.58823529411765,
            "B": 80.05882352941177,
            "C": 79.6470588235294,
            "D": 79.41176470588235,
            "E": 78.94117647058823,
            "F": 78.6470588235294,
            "G": 79.125,
            "H": 79.5625,
            "I": 83,
            "J": 84.375,
            "K": 84.5625
        }
    }
}