{
    "Average_holding_time": 34.63611859838275,
    "Average_travel_time_passengers": 2743.3200254198696,
    "Average_speed_busses": 0.046375,
    "Average_experienced_crowding": 82.9579043408745,
    "Average_covariation_headway": 0.1866596942041323,
    "Average_covariation_headway_stops": {
        "B": 0.2704144787999002,
        "C": 0.2610685640329071,
        "D": 0.2550686536747338,
        "E": 0.24788394236758707,
        "F": 0.23850485936716126,
        "A": 0.27435132941535934,
        "G": 0.21005648694786072,
        "H": 0.19494622790390456,
        "I": 0.19244662097672308,
        "J": 0.19758782758487395,
        "K": 0.21626433719561883,
        "L": 0.24872530911982693
    },
    "Average_excess_waiting_time": {
        "B": 81.69342696804358,
        "C": 78.3704182339207,
        "D": 75.7511855961522,
        "E": 72.83807056237896,
        "F": 69.53952128423208,
        "A": 84.5279894298904,
        "G": 67.4013477400078,
        "H": 67.28532965632928,
        "I": 68.73506636784276,
        "J": 71.22166911186963,
        "K": 75.48051064449044,
        "L": 82.31071144473327
    },
    "Holding_per_stop": {
        "F": 36.06382978723404,
        "E": 31.595744680851062,
        "B": 25.108695652173914,
        "C": 54.193548387096776,
        "D": 27.741935483870968,
        "A": 8.152173913043478,
        "G": 36.702127659574465,
        "H": 36.12903225806452,
        "I": 40,
        "J": 41.41304347826087,
        "K": 47.28260869565217,
        "L": 30.98901098901099
    },
    "Load_per_bus_per_stop": {
        "bus0": {
            "B": 77.4375,
            "C": 76.5625,
            "D": 75.5625,
            "E": 77,
            "F": 77.33333333333333,
            "G": 77.73333333333333,
            "H": 78.2,
            "I": 79,
            "J": 81.53333333333333,
            "K": 82.13333333333334,
            "L": 83.33333333333333,
            "A": 82.8
        },
        "bus1": {
            "C": 78.625,
            "D": 79,
            "E": 79.75,
            "F": 79.5,
            "G": 80.9375,
            "H": 80.4,
            "I": 79.8,
            "J": 81.46666666666667,
            "K": 82.53333333333333,
            "L": 82.8,
            "A": 84.73333333333333,
            "B": 86.4
        },
        "bus2": {
            "D": 76.125,
            "E": 77.3125,
            "F": 77.8125,
            "G": 77.1875,
            "H": 78.5625,
            "I": 79.8125,
            "J": 80.4,
            "K": 81.73333333333333,
            "L": 82.53333333333333,
            "A": 83.33333333333333,
            "B": 81.2,
            "C": 80.6
        },
        "bus3": {
            "E": 69.375,
            "F": 71,
            "G": 71.75,
            "H": 72.5625,
            "I": 72.375,
            "J": 74.875,
            "K": 74.6875,
            "L": 74.2,
            "A": 74.86666666666666,
            "B": 73.53333333333333,
            "C": 72.73333333333333,
            "D": 74
        },
        "bus4": {
            "F": 86.4375,
            "G": 86.875,
            "H": 89.6875,
            "I": 90.75,
            "J": 90.5625,
            "K": 89.8125,
            "L": 91.75,
            "A": 93.9375,
            "B": 92.25,
            "C": 93.6,
            "D": 93.4,
            "E": 91.8
        },
        "bus5": {
            "A": 77.3125,
            "B": 76.0625,
            "C": 77,
            "D": 77.4,
            "E": 76.06666666666666,
            "F": 75.6,
            "G": 75.06666666666666,
            "H": 76.13333333333334,
            "I": 77.06666666666666,
            "J": 80.2,
            "K": 80.26666666666667,
            "L": 80.73333333333333
        }
    }
}