{
    "Average_holding_time": 13.266832917705736,
    "Average_travel_time_passengers": 2533.232843082652,
    "Average_speed_busses": 0.050125,
    "Average_experienced_crowding": 75.75890106410367,
    "Average_covariation_headway": 0.16955573986418576,
    "Average_covariation_headway_stops": {
        "B": 0.18433361735000306,
        "C": 0.18126106942731027,
        "D": 0.1727579953509207,
        "E": 0.16684385927925507,
        "F": 0.16563650704852684,
        "K": 0.19303003572010918,
        "G": 0.13762255175496574,
        "L": 0.1691438428758053,
        "H": 0.1343293690231542,
        "I": 0.13729330326536252,
        "A": 0.1709186706289217,
        "J": 0.1677142406299873
    },
    "Average_excess_waiting_time": {
        "B": 45.46746662885806,
        "C": 43.79737802524403,
        "D": 41.338851273455134,
        "E": 39.53837328880809,
        "F": 37.8970030169898,
        "K": 45.05078840058877,
        "G": 36.77476585740169,
        "L": 43.94792030950066,
        "H": 37.94905721038009,
        "I": 39.78593599034207,
        "A": 45.68473991581004,
        "J": 44.02098884569739
    },
    "Holding_per_stop": {
        "D": 9.207920792079207,
        "C": 21.9,
        "F": 13.069306930693068,
        "E": 13.069306930693068,
        "K": 19.2,
        "B": 7.2,
        "G": 12.475247524752476,
        "H": 15.742574257425742,
        "L": 16.666666666666668,
        "I": 12.3,
        "A": 3.3333333333333335,
        "J": 15
    },
    "Load_per_bus_per_stop": {
        "bus0": {
            "B": 69.76470588235294,
            "C": 69.52941176470588,
            "D": 70.3529411764706,
            "E": 71.82352941176471,
            "F": 71.11764705882354,
            "G": 72.23529411764706,
            "H": 74.11764705882354,
            "I": 75.4375,
            "J": 74.8125,
            "K": 74.9375,
            "L": 74.1875,
            "A": 74.8125
        },
        "bus1": {
            "C": 71.23529411764706,
            "D": 71.11764705882354,
            "E": 71.11764705882354,
            "F": 71.29411764705883,
            "G": 70.58823529411765,
            "H": 74.58823529411765,
            "I": 76.82352941176471,
            "J": 77.05882352941177,
            "K": 77.9375,
            "L": 78.3125,
            "A": 77.5625,
            "B": 77.0625
        },
        "bus2": {
            "D": 73.23529411764706,
            "E": 71.47058823529412,
            "F": 70.11764705882354,
            "G": 71.58823529411765,
            "H": 71.6470588235294,
            "I": 71.52941176470588,
            "J": 73.52941176470588,
            "K": 74.05882352941177,
            "L": 74.52941176470588,
            "A": 75.625,
            "B": 75.4375,
            "C": 77.125
        },
        "bus3": {
            "E": 68.47058823529412,
            "F": 68.05882352941177,
            "G": 66.94117647058823,
            "H": 68.52941176470588,
            "I": 67.76470588235294,
            "J": 67.52941176470588,
            "K": 69.76470588235294,
            "L": 68.23529411764706,
            "A": 69.29411764705883,
            "B": 70.3529411764706,
            "C": 70.8125,
            "D": 70.75
        },
        "bus4": {
            "F": 81.05882352941177,
            "G": 80.58823529411765,
            "H": 79.11764705882354,
            "I": 80.29411764705883,
            "J": 80.76470588235294,
            "K": 82.29411764705883,
            "L": 83.17647058823529,
            "A": 82.70588235294117,
            "B": 83.88235294117646,
            "C": 83.76470588235294,
            "D": 85.88235294117646,
            "E": 86
        },
        "bus5": {
            "K": 71.82352941176471,
            "L": 70.94117647058823,
            "A": 72.52941176470588,
            "B": 73.29411764705883,
            "C": 74.41176470588235,
            "D": 74.47058823529412,
            "E": 74.41176470588235,
            "F": 75.17647058823529,
            "G": 78.25,
            "H": 77.4375,
            "I": 77.375,
            "J": 76.125
        }
    }
}