{
    "Average_holding_time": 31.251109139307896,
    "Average_travel_time_passengers": 2711.2737493283294,
    "Average_speed_busses": 0.04695833333333333,
    "Average_experienced_crowding": 80.27244524072593,
    "Average_covariation_headway": 0.10389661507075022,
    "Average_covariation_headway_stops": {
        "B": 0.08931151431162707,
        "C": 0.10080320858263875,
        "F": 0.08750597893800433,
        "I": 0.09750747380428687,
        "J": 0.09503984589608067,
        "A": 0.08559509036154364,
        "K": 0.05006691568055304,
        "D": 0.06888191174497295,
        "G": 0.0551749520941882,
        "L": 0.05373686470211331,
        "E": 0.06850217473105859,
        "H": 0.06420721267137852
    },
    "Average_excess_waiting_time": {
        "B": 54.70988796226453,
        "C": 53.72209616115913,
        "F": 54.58856808409479,
        "I": 56.799689125319844,
        "J": 55.0295476472042,
        "A": 56.39242973395096,
        "K": 54.875549309796156,
        "D": 53.67738669570099,
        "G": 54.841998211614964,
        "L": 56.84038907072369,
        "E": 55.264218832378674,
        "H": 56.86955652529889
    },
    "Holding_per_stop": {
        "J": 41.170212765957444,
        "C": 50.8421052631579,
        "B": 21.06382978723404,
        "F": 30.95744680851064,
        "A": 2.5531914893617023,
        "I": 36.06382978723404,
        "K": 51.38297872340426,
        "D": 26.80851063829787,
        "G": 30.638297872340427,
        "E": 30.319148936170212,
        "L": 21.93548387096774,
        "H": 30.967741935483872
    },
    "Load_per_bus_per_stop": {
        "bus0": {
            "B": 76,
            "C": 76.9375,
            "D": 76.3125,
            "E": 77.25,
            "F": 77.8125,
            "G": 76.625,
            "H": 77.75,
            "I": 74.9375,
            "J": 75.33333333333333,
            "K": 76.6,
            "L": 79.26666666666667,
            "A": 80.53333333333333
        },
        "bus1": {
            "C": 78.375,
            "D": 80.875,
            "E": 80.875,
            "F": 83.3125,
            "G": 83.1875,
            "H": 83.875,
            "I": 83.5625,
            "J": 83.9375,
            "K": 84.25,
            "L": 82.4,
            "A": 83.06666666666666,
            "B": 82.86666666666666
        },
        "bus2": {
            "F": 79.8125,
            "G": 80.75,
            "H": 81.3125,
            "I": 83.0625,
            "J": 83.25,
            "K": 83.375,
            "L": 83.125,
            "A": 85.0625,
            "B": 83.8,
            "C": 84.6,
            "D": 83,
            "E": 83.53333333333333
        },
        "bus3": {
            "I": 74.9375,
            "J": 76.25,
            "K": 76.6875,
            "L": 77.75,
            "A": 77.75,
            "B": 80.875,
            "C": 81.1875,
            "D": 82.06666666666666,
            "E": 82.26666666666667,
            "F": 82.6,
            "G": 83.46666666666667,
            "H": 83.2
        },
        "bus4": {
            "J": 78.125,
            "K": 79.375,
            "L": 79.625,
            "A": 80.1875,
            "B": 80.75,
            "C": 81.0625,
            "D": 81.4375,
            "E": 83.75,
            "F": 83.2,
            "G": 84.73333333333333,
            "H": 85.2,
            "I": 82.86666666666666
        },
        "bus5": {
            "A": 70.75,
            "B": 71.75,
            "C": 72.8125,
            "D": 72.1875,
            "E": 74,
            "F": 76.375,
            "G": 76.75,
            "H": 77.53333333333333,
            "I": 78.66666666666667,
            "J": 78.4,
            "K": 77.26666666666667,
            "L": 76.4
        }
    }
}