{
    "Average_holding_time": 13.998330550918197,
    "Average_travel_time_passengers": 2536.0591886195416,
    "Average_speed_busses": 0.049916666666666665,
    "Average_experienced_crowding": 74.64086697268775,
    "Average_covariation_headway": 0.11042724590339774,
    "Average_covariation_headway_stops": {
        "C": 0.08440797677029796,
        "D": 0.08880912396124481,
        "G": 0.08915348440826991,
        "H": 0.08453321784410285,
        "J": 0.0807358603661455,
        "L": 0.0820948129768429,
        "E": 0.05064318486110151,
        "A": 0.05058337287663879,
        "K": 0.05627488677631534,
        "I": 0.05313768666479259,
        "F": 0.057968528841408594,
        "B": 0.055100579835107695
    },
    "Average_excess_waiting_time": {
        "C": 36.60614905139073,
        "D": 35.24498008059794,
        "G": 36.86467647420096,
        "H": 35.0420247053043,
        "J": 35.012865054346264,
        "L": 35.193719164269794,
        "E": 35.31869285499113,
        "A": 35.362017180795135,
        "K": 35.54683297932917,
        "I": 35.465411140848744,
        "F": 36.96855974421834,
        "B": 37.03917805726445
    },
    "Holding_per_stop": {
        "D": 8.7,
        "L": 21.9,
        "J": 21.6,
        "H": 8.7,
        "C": 16.5,
        "G": 10.8,
        "E": 6.9,
        "A": 2.1,
        "I": 15,
        "K": 35.1,
        "B": 5.757575757575758,
        "F": 14.848484848484848
    },
    "Load_per_bus_per_stop": {
        "bus0": {
            "C": 72.17647058823529,
            "D": 73.47058823529412,
            "E": 73.88235294117646,
            "F": 73.94117647058823,
            "G": 74.58823529411765,
            "H": 74.94117647058823,
            "I": 76.17647058823529,
            "J": 77.4375,
            "K": 74.375,
            "L": 74.75,
            "A": 75.0625,
            "B": 75.875
        },
        "bus1": {
            "D": 67.41176470588235,
            "E": 67.47058823529412,
            "F": 70.23529411764706,
            "G": 70.11764705882354,
            "H": 71.41176470588235,
            "I": 73.23529411764706,
            "J": 72.94117647058823,
            "K": 71.6470588235294,
            "L": 69.5625,
            "A": 70.6875,
            "B": 72.1875,
            "C": 72
        },
        "bus2": {
            "G": 77.41176470588235,
            "H": 76.6470588235294,
            "I": 76.6470588235294,
            "J": 77.94117647058823,
            "K": 77.11764705882354,
            "L": 76.94117647058823,
            "A": 76.52941176470588,
            "B": 75.375,
            "C": 78.5,
            "D": 80.625,
            "E": 81.0625,
            "F": 79.4375
        },
        "bus3": {
            "H": 73.58823529411765,
            "I": 74.82352941176471,
            "J": 75.17647058823529,
            "K": 77.41176470588235,
            "L": 77.47058823529412,
            "A": 76.58823529411765,
            "B": 76.70588235294117,
            "C": 78.05882352941177,
            "D": 77.58823529411765,
            "E": 78.5625,
            "F": 79.1875,
            "G": 78
        },
        "bus4": {
            "J": 69.29411764705883,
            "K": 72.17647058823529,
            "L": 72.05882352941177,
            "A": 72.41176470588235,
            "B": 73.76470588235294,
            "C": 73.3529411764706,
            "D": 74.05882352941177,
            "E": 73.88235294117646,
            "F": 73.70588235294117,
            "G": 72.375,
            "H": 73.4375,
            "I": 73.5625
        },
        "bus5": {
            "L": 70.52941176470588,
            "A": 70.6470588235294,
            "B": 70.58823529411765,
            "C": 72.29411764705883,
            "D": 73.47058823529412,
            "E": 73.17647058823529,
            "F": 74.05882352941177,
            "G": 75.76470588235294,
            "H": 75.94117647058823,
            "I": 74,
            "J": 74.125,
            "K": 74.125
        }
    }
}