{
    "Average_holding_time": 16.262626262626263,
    "Average_travel_time_passengers": 2549.1062150131997,
    "Average_speed_busses": 0.0495,
    "Average_experienced_crowding": 75.07856239320603,
    "Average_covariation_headway": 0.12445199855053057,
    "Average_covariation_headway_stops": {
        "C": 0.08305349267184033,
        "D": 0.08861996314485851,
        "H": 0.12666744420147244,
        "I": 0.11999339650098445,
        "K": 0.10033707813920519,
        "A": 0.08958584787217572,
        "E": 0.0669977912634383,
        "J": 0.09016113590786046,
        "B": 0.05959409981848753,
        "L": 0.07915361343253399,
        "F": 0.06972540962389562,
        "G": 0.10260511715431293
    },
    "Average_excess_waiting_time": {
        "C": 37.95371042880919,
        "D": 36.599818150520605,
        "H": 42.28444319798308,
        "I": 40.10470547435375,
        "K": 38.85949559453428,
        "A": 38.30367951587567,
        "E": 37.29361959825508,
        "J": 39.91682282315401,
        "B": 38.55567052161541,
        "L": 39.39614585009434,
        "F": 38.97208566245894,
        "G": 42.0871560404384
    },
    "Holding_per_stop": {
        "D": 9.3,
        "I": 21.515151515151516,
        "A": 4.848484848484849,
        "K": 38.18181818181818,
        "H": 13.030303030303031,
        "C": 18.181818181818183,
        "J": 20.90909090909091,
        "E": 8.484848484848484,
        "L": 24.242424242424242,
        "B": 9.696969696969697,
        "F": 16.363636363636363,
        "G": 10.408163265306122
    },
    "Load_per_bus_per_stop": {
        "bus0": {
            "C": 70.29411764705883,
            "D": 69.82352941176471,
            "E": 70.82352941176471,
            "F": 72.29411764705883,
            "G": 72.47058823529412,
            "H": 74.76470588235294,
            "I": 75.23529411764706,
            "J": 76.6875,
            "K": 77.125,
            "L": 75.75,
            "A": 77,
            "B": 76.375
        },
        "bus1": {
            "D": 71.3529411764706,
            "E": 72.23529411764706,
            "F": 73.52941176470588,
            "G": 74.23529411764706,
            "H": 75.52941176470588,
            "I": 75.88235294117646,
            "J": 78.76470588235294,
            "K": 79.23529411764706,
            "L": 78.5,
            "A": 77.75,
            "B": 77.1875,
            "C": 76.5
        },
        "bus2": {
            "H": 70.58823529411765,
            "I": 69.47058823529412,
            "J": 69.52941176470588,
            "K": 71.17647058823529,
            "L": 71.76470588235294,
            "A": 73.29411764705883,
            "B": 74.1875,
            "C": 74.25,
            "D": 74.625,
            "E": 75.6875,
            "F": 74.375,
            "G": 74.9375
        },
        "bus3": {
            "I": 71.88235294117646,
            "J": 69.88235294117646,
            "K": 73.11764705882354,
            "L": 73.41176470588235,
            "A": 74.82352941176471,
            "B": 75.82352941176471,
            "C": 78.05882352941177,
            "D": 77.6875,
            "E": 77.8125,
            "F": 76.75,
            "G": 77.625,
            "H": 76.3125
        },
        "bus4": {
            "K": 73.6470588235294,
            "L": 73.17647058823529,
            "A": 76.23529411764706,
            "B": 76.76470588235294,
            "C": 76.76470588235294,
            "D": 75.76470588235294,
            "E": 75.17647058823529,
            "F": 76.5,
            "G": 76.25,
            "H": 77.625,
            "I": 78.1875,
            "J": 79.75
        },
        "bus5": {
            "A": 70.6470588235294,
            "B": 71.76470588235294,
            "C": 72.88235294117646,
            "D": 73.29411764705883,
            "E": 74,
            "F": 74.82352941176471,
            "G": 74.3529411764706,
            "H": 74.8125,
            "I": 74.6875,
            "J": 75.5625,
            "K": 72.5625,
            "L": 74.875
        }
    }
}