{
    "Average_holding_time": 15.327181208053691,
    "Average_travel_time_passengers": 2553.7492802992792,
    "Average_speed_busses": 0.049666666666666665,
    "Average_experienced_crowding": 75.12620327077639,
    "Average_covariation_headway": 0.12184590285810776,
    "Average_covariation_headway_stops": {
        "C": 0.09153164788160885,
        "F": 0.11660251347495999,
        "H": 0.0989722786986012,
        "J": 0.08741862377064329,
        "K": 0.09181141545213754,
        "L": 0.09991433702791475,
        "D": 0.08021872676616797,
        "I": 0.07952075864132266,
        "A": 0.0683354773774727,
        "G": 0.07872917383663909,
        "B": 0.06844225037792746,
        "E": 0.08951817084415353
    },
    "Average_excess_waiting_time": {
        "C": 36.6791004503952,
        "F": 39.7196029464198,
        "H": 38.73834952375847,
        "J": 38.01848636787855,
        "K": 36.8102038936845,
        "L": 35.91075142591967,
        "D": 37.87163443302927,
        "I": 39.240743042318456,
        "A": 35.79523945065,
        "G": 39.20845394268662,
        "B": 37.231162624416584,
        "E": 39.67871979394812
    },
    "Holding_per_stop": {
        "C": 15.6,
        "H": 12.727272727272727,
        "L": 13.8,
        "K": 36.6,
        "J": 22.727272727272727,
        "F": 20,
        "A": 3.6,
        "I": 23.636363636363637,
        "D": 8.787878787878787,
        "G": 10.303030303030303,
        "B": 7.2727272727272725,
        "E": 8.787878787878787
    },
    "Load_per_bus_per_stop": {
        "bus0": {
            "C": 75.6470588235294,
            "D": 76.05882352941177,
            "E": 78.41176470588235,
            "F": 78.52941176470588,
            "G": 80.11764705882354,
            "H": 80,
            "I": 80.17647058823529,
            "J": 80.11764705882354,
            "K": 80.5,
            "L": 77.8125,
            "A": 78.4375,
            "B": 80.3125
        },
        "bus1": {
            "F": 70.3529411764706,
            "G": 72.05882352941177,
            "H": 72.70588235294117,
            "I": 74.11764705882354,
            "J": 76.58823529411765,
            "K": 78.70588235294117,
            "L": 77,
            "A": 76.8125,
            "B": 76.375,
            "C": 76.125,
            "D": 75.8125,
            "E": 75.1875
        },
        "bus2": {
            "H": 69.47058823529412,
            "I": 69.41176470588235,
            "J": 73.23529411764706,
            "K": 73.58823529411765,
            "L": 73.05882352941177,
            "A": 73,
            "B": 73.11764705882354,
            "C": 74.9375,
            "D": 75.875,
            "E": 76.4375,
            "F": 76.1875,
            "G": 75.5625
        },
        "bus3": {
            "J": 68.70588235294117,
            "K": 69.94117647058823,
            "L": 71.23529411764706,
            "A": 71.47058823529412,
            "B": 71.41176470588235,
            "C": 72.47058823529412,
            "D": 72.29411764705883,
            "E": 72.375,
            "F": 73.3125,
            "G": 73.4375,
            "H": 74,
            "I": 73.5625
        },
        "bus4": {
            "K": 70.23529411764706,
            "L": 71.17647058823529,
            "A": 70.3529411764706,
            "B": 71.23529411764706,
            "C": 73.3529411764706,
            "D": 74.94117647058823,
            "E": 74.11764705882354,
            "F": 73.41176470588235,
            "G": 74,
            "H": 74.1875,
            "I": 75.0625,
            "J": 73.75
        },
        "bus5": {
            "L": 71.47058823529412,
            "A": 71.29411764705883,
            "B": 73.6470588235294,
            "C": 74.6470588235294,
            "D": 75.58823529411765,
            "E": 76.3529411764706,
            "F": 77.94117647058823,
            "G": 77.6470588235294,
            "H": 78.6470588235294,
            "I": 77,
            "J": 77.25,
            "K": 75.9375
        }
    }
}