{
    "Average_holding_time": 15.766974015088014,
    "Average_travel_time_passengers": 2558.7374003935374,
    "Average_speed_busses": 0.049708333333333334,
    "Average_experienced_crowding": 75.3833750848016,
    "Average_covariation_headway": 0.1497104587099661,
    "Average_covariation_headway_stops": {
        "D": 0.11690003395513787,
        "E": 0.11990030425343384,
        "G": 0.09426093977413158,
        "I": 0.08936447787471062,
        "K": 0.09190579451780621,
        "A": 0.11279610154551943,
        "L": 0.10051883212628387,
        "J": 0.0687245488114041,
        "H": 0.0680163665327276,
        "F": 0.08354637241195667,
        "B": 0.09319306895233226,
        "C": 0.09960359033229403
    },
    "Average_excess_waiting_time": {
        "D": 40.878228679322774,
        "E": 39.41346940739669,
        "G": 37.852738502158786,
        "I": 37.40999875672247,
        "K": 37.28421344017596,
        "A": 39.11118062475521,
        "L": 39.241228993208324,
        "J": 37.43385942604391,
        "H": 37.69936802941152,
        "F": 38.59240014898478,
        "B": 39.11489594021754,
        "C": 40.92082560210508
    },
    "Holding_per_stop": {
        "K": 34.8,
        "I": 14.1,
        "G": 8.7,
        "E": 17.1,
        "A": 7.5,
        "D": 13.636363636363637,
        "B": 9.090909090909092,
        "F": 18.181818181818183,
        "L": 14.242424242424242,
        "J": 14.545454545454545,
        "H": 11.515151515151516,
        "C": 25.757575757575758
    },
    "Load_per_bus_per_stop": {
        "bus0": {
            "D": 73.47058823529412,
            "E": 72.17647058823529,
            "F": 72.58823529411765,
            "G": 73.94117647058823,
            "H": 74.17647058823529,
            "I": 75.11764705882354,
            "J": 75.4375,
            "K": 75.875,
            "L": 76.1875,
            "A": 75.75,
            "B": 76.125,
            "C": 78.8125
        },
        "bus1": {
            "E": 73.6470588235294,
            "F": 76.17647058823529,
            "G": 76.11764705882354,
            "H": 74.47058823529412,
            "I": 75.11764705882354,
            "J": 75.82352941176471,
            "K": 76.88235294117646,
            "L": 75.75,
            "A": 74.75,
            "B": 76.625,
            "C": 77.375,
            "D": 77.1875
        },
        "bus2": {
            "G": 73.52941176470588,
            "H": 75.70588235294117,
            "I": 76.05882352941177,
            "J": 75.6470588235294,
            "K": 75.6470588235294,
            "L": 76.41176470588235,
            "A": 76.47058823529412,
            "B": 76.3125,
            "C": 77.1875,
            "D": 77.875,
            "E": 78.375,
            "F": 78.9375
        },
        "bus3": {
            "I": 71.29411764705883,
            "J": 71.88235294117646,
            "K": 72.52941176470588,
            "L": 74.76470588235294,
            "A": 75.58823529411765,
            "B": 74.94117647058823,
            "C": 75.11764705882354,
            "D": 74.6875,
            "E": 74.0625,
            "F": 74.5625,
            "G": 73.25,
            "H": 73.375
        },
        "bus4": {
            "K": 71.52941176470588,
            "L": 73.05882352941177,
            "A": 72.76470588235294,
            "B": 71.47058823529412,
            "C": 71.94117647058823,
            "D": 72.05882352941177,
            "E": 72.6470588235294,
            "F": 72.0625,
            "G": 71.6875,
            "H": 73.0625,
            "I": 74.6875,
            "J": 74.4375
        },
        "bus5": {
            "A": 72,
            "B": 73.47058823529412,
            "C": 73.3529411764706,
            "D": 74.47058823529412,
            "E": 74.41176470588235,
            "F": 73.41176470588235,
            "G": 74.41176470588235,
            "H": 75.625,
            "I": 78,
            "J": 79.0625,
            "K": 77.625,
            "L": 77.8125
        }
    }
}