{
    "Average_holding_time": 9.058919803600654,
    "Average_travel_time_passengers": 2474.8094103754247,
    "Average_speed_busses": 0.050916666666666666,
    "Average_experienced_crowding": 74.10585174410205,
    "Average_covariation_headway": 0.14617373174350484,
    "Average_covariation_headway_stops": {
        "E": 0.17412869126377314,
        "F": 0.16735787291509344,
        "H": 0.12734701458302672,
        "I": 0.12220125927458034,
        "J": 0.12025781819864827,
        "L": 0.1120210085300278,
        "K": 0.10016738885435572,
        "G": 0.131512850844109,
        "A": 0.09040790312924916,
        "B": 0.10041934659798858,
        "C": 0.12615825541737236,
        "D": 0.1516420653860202
    },
    "Average_excess_waiting_time": {
        "E": 39.872255841991546,
        "F": 37.63057098191325,
        "H": 34.233552396598384,
        "I": 32.576909413843225,
        "J": 30.95127293382535,
        "L": 30.316753776088945,
        "K": 31.05991910222491,
        "G": 36.00706787286032,
        "A": 30.551481684717544,
        "B": 32.455843769647856,
        "C": 35.79520285062944,
        "D": 39.2412539429198
    },
    "Holding_per_stop": {
        "J": 9.902912621359222,
        "I": 12.647058823529411,
        "F": 11.470588235294118,
        "L": 10.194174757281553,
        "E": 8.910891089108912,
        "H": 10.588235294117647,
        "G": 8.01980198019802,
        "A": 0,
        "K": 10.882352941176471,
        "B": 6.176470588235294,
        "C": 13.96039603960396,
        "D": 5.9405940594059405
    },
    "Load_per_bus_per_stop": {
        "bus0": {
            "E": 69.70588235294117,
            "F": 70.23529411764706,
            "G": 70.3529411764706,
            "H": 69.6470588235294,
            "I": 72.52941176470588,
            "J": 73.3529411764706,
            "K": 75.88235294117646,
            "L": 77.88235294117646,
            "A": 76.29411764705883,
            "B": 76.52941176470588,
            "C": 74.625,
            "D": 74.5
        },
        "bus1": {
            "F": 73.11764705882354,
            "G": 72.58823529411765,
            "H": 73.58823529411765,
            "I": 75.17647058823529,
            "J": 73.76470588235294,
            "K": 74.6470588235294,
            "L": 73.76470588235294,
            "A": 74,
            "B": 74.17647058823529,
            "C": 73.29411764705883,
            "D": 74.23529411764706,
            "E": 76.6875
        },
        "bus2": {
            "H": 71.88235294117646,
            "I": 73,
            "J": 73.88235294117646,
            "K": 73.82352941176471,
            "L": 73.6470588235294,
            "A": 74.88235294117646,
            "B": 75.47058823529412,
            "C": 76.76470588235294,
            "D": 77.58823529411765,
            "E": 78.41176470588235,
            "F": 76.88235294117646,
            "G": 76.6875
        },
        "bus3": {
            "I": 65.94117647058823,
            "J": 67.11764705882354,
            "K": 68.41176470588235,
            "L": 68.41176470588235,
            "A": 68.6470588235294,
            "B": 68.52941176470588,
            "C": 69.05882352941177,
            "D": 68.11764705882354,
            "E": 68.3529411764706,
            "F": 69.47058823529412,
            "G": 69.6470588235294,
            "H": 70.23529411764706
        },
        "bus4": {
            "J": 71.66666666666667,
            "K": 70.29411764705883,
            "L": 72.17647058823529,
            "A": 73.52941176470588,
            "B": 73.47058823529412,
            "C": 72.82352941176471,
            "D": 73.82352941176471,
            "E": 72.47058823529412,
            "F": 74.47058823529412,
            "G": 74,
            "H": 75.52941176470588,
            "I": 75
        },
        "bus5": {
            "L": 73.33333333333333,
            "A": 73.41176470588235,
            "B": 74.3529411764706,
            "C": 75.05882352941177,
            "D": 76.47058823529412,
            "E": 77,
            "F": 77.47058823529412,
            "G": 78.94117647058823,
            "H": 76.94117647058823,
            "I": 77.11764705882354,
            "J": 77.88235294117646,
            "K": 77.52941176470588
        }
    }
}