{
    "Average_holding_time": 12.583056478405316,
    "Average_travel_time_passengers": 2524.4819235029486,
    "Average_speed_busses": 0.050166666666666665,
    "Average_experienced_crowding": 75.0249635971597,
    "Average_covariation_headway": 0.16244152523057717,
    "Average_covariation_headway_stops": {
        "B": 0.1110397020360829,
        "D": 0.11000335755293646,
        "F": 0.11838636493726,
        "H": 0.11149976531244676,
        "K": 0.11462064030095566,
        "A": 0.10123314252873013,
        "G": 0.10033700962424788,
        "E": 0.09349954343428238,
        "I": 0.09698755144957828,
        "C": 0.09268146729269036,
        "L": 0.0817660621617016,
        "J": 0.09589786506379822
    },
    "Average_excess_waiting_time": {
        "B": 35.34852958793675,
        "D": 35.301489589096036,
        "F": 35.731667310064665,
        "H": 35.228166651122535,
        "K": 37.27398247535575,
        "A": 36.27158821937195,
        "G": 36.06693319898869,
        "E": 35.762818481810484,
        "I": 35.86747476293749,
        "C": 35.470920320597884,
        "L": 36.88408686672108,
        "J": 37.56149197142889
    },
    "Holding_per_stop": {
        "F": 13.96039603960396,
        "D": 13.663366336633663,
        "H": 13.366336633663366,
        "B": 8.910891089108912,
        "A": 4.8,
        "K": 12.9,
        "E": 10.2,
        "G": 13.2,
        "I": 14.4,
        "C": 22.2,
        "L": 11.7,
        "J": 11.7
    },
    "Load_per_bus_per_stop": {
        "bus0": {
            "B": 74.76470588235294,
            "C": 75.76470588235294,
            "D": 77.17647058823529,
            "E": 76.6470588235294,
            "F": 75.47058823529412,
            "G": 76.82352941176471,
            "H": 75.94117647058823,
            "I": 77.41176470588235,
            "J": 77.70588235294117,
            "K": 77.4375,
            "L": 77.6875,
            "A": 78
        },
        "bus1": {
            "D": 66.70588235294117,
            "E": 66.82352941176471,
            "F": 67,
            "G": 67.70588235294117,
            "H": 69.94117647058823,
            "I": 69.58823529411765,
            "J": 70.05882352941177,
            "K": 69.76470588235294,
            "L": 70.3529411764706,
            "A": 69.4375,
            "B": 70.3125,
            "C": 70
        },
        "bus2": {
            "F": 67.29411764705883,
            "G": 67.6470588235294,
            "H": 68.6470588235294,
            "I": 69.88235294117646,
            "J": 72.05882352941177,
            "K": 74.17647058823529,
            "L": 75.47058823529412,
            "A": 75.05882352941177,
            "B": 75.17647058823529,
            "C": 72.5,
            "D": 73.1875,
            "E": 72.5625
        },
        "bus3": {
            "H": 76,
            "I": 76.17647058823529,
            "J": 75.76470588235294,
            "K": 76.58823529411765,
            "L": 78.23529411764706,
            "A": 77.58823529411765,
            "B": 77.05882352941177,
            "C": 76.05882352941177,
            "D": 77.52941176470588,
            "E": 79.0625,
            "F": 80.875,
            "G": 79.75
        },
        "bus4": {
            "K": 76.6470588235294,
            "L": 76.70588235294117,
            "A": 77.58823529411765,
            "B": 77.70588235294117,
            "C": 78.17647058823529,
            "D": 78.6470588235294,
            "E": 78,
            "F": 79.05882352941177,
            "G": 77.875,
            "H": 77.1875,
            "I": 77.875,
            "J": 81.8125
        },
        "bus5": {
            "A": 71.05882352941177,
            "B": 74.05882352941177,
            "C": 72.94117647058823,
            "D": 73.58823529411765,
            "E": 73.23529411764706,
            "F": 74.3529411764706,
            "G": 74,
            "H": 75.05882352941177,
            "I": 73.8125,
            "J": 72.8125,
            "K": 72.375,
            "L": 75
        }
    }
}