{
    "Average_holding_time": 19.218351741716226,
    "Average_travel_time_passengers": 2554.121543114684,
    "Average_speed_busses": 0.049041666666666664,
    "Average_experienced_crowding": 74.67059980914362,
    "Average_covariation_headway": 0.1562846157722159,
    "Average_covariation_headway_stops": {
        "C": 0.11945208159117716,
        "E": 0.10026682741815693,
        "F": 0.11119847514279654,
        "J": 0.1312933403919321,
        "K": 0.1399064377733327,
        "L": 0.13813599800953344,
        "G": 0.08212061435063055,
        "A": 0.11628838188640728,
        "D": 0.08736959764050949,
        "B": 0.10776599681203522,
        "H": 0.08902333879612247,
        "I": 0.12146622627292407
    },
    "Average_excess_waiting_time": {
        "C": 43.15268023987255,
        "E": 41.88879042427817,
        "F": 41.29358961410401,
        "J": 45.914487097434574,
        "K": 45.459234425918794,
        "L": 43.669422898259825,
        "G": 40.95160779254252,
        "A": 43.160157644430285,
        "D": 42.81195482164287,
        "B": 44.02710008717128,
        "H": 42.863886533909465,
        "I": 46.34395136732422
    },
    "Holding_per_stop": {
        "F": 21.818181818181817,
        "L": 22.12121212121212,
        "K": 31.53061224489796,
        "C": 32.755102040816325,
        "E": 12.857142857142858,
        "J": 23.26530612244898,
        "A": 6.122448979591836,
        "G": 14.387755102040817,
        "D": 16.224489795918366,
        "B": 6.73469387755102,
        "H": 19.897959183673468,
        "I": 22.88659793814433
    },
    "Load_per_bus_per_stop": {
        "bus0": {
            "C": 68.94117647058823,
            "D": 72.05882352941177,
            "E": 71.52941176470588,
            "F": 74.41176470588235,
            "G": 71.5625,
            "H": 71,
            "I": 70.875,
            "J": 72.125,
            "K": 70.25,
            "L": 70.75,
            "A": 70.375,
            "B": 71.6875
        },
        "bus1": {
            "E": 76.58823529411765,
            "F": 77.41176470588235,
            "G": 78.6470588235294,
            "H": 77.29411764705883,
            "I": 77.9375,
            "J": 79.1875,
            "K": 79.6875,
            "L": 80.75,
            "A": 80.25,
            "B": 79.1875,
            "C": 78.4375,
            "D": 80.875
        },
        "bus2": {
            "F": 72.29411764705883,
            "G": 73.41176470588235,
            "H": 75.41176470588235,
            "I": 73.76470588235294,
            "J": 75.23529411764706,
            "K": 75.0625,
            "L": 73.5625,
            "A": 73.5625,
            "B": 74.625,
            "C": 76.125,
            "D": 76.1875,
            "E": 76.25
        },
        "bus3": {
            "J": 69.76470588235294,
            "K": 68.82352941176471,
            "L": 69.3529411764706,
            "A": 69.875,
            "B": 71.5625,
            "C": 73.625,
            "D": 75.5625,
            "E": 75.9375,
            "F": 75.25,
            "G": 74.8125,
            "H": 75,
            "I": 74.25
        },
        "bus4": {
            "K": 72.11764705882354,
            "L": 71.70588235294117,
            "A": 70.6470588235294,
            "B": 70.29411764705883,
            "C": 71.23529411764706,
            "D": 71.625,
            "E": 73,
            "F": 74,
            "G": 75.125,
            "H": 74.75,
            "I": 77.375,
            "J": 76.625
        },
        "bus5": {
            "L": 75.11764705882354,
            "A": 74.70588235294117,
            "B": 73.82352941176471,
            "C": 72.82352941176471,
            "D": 72.88235294117646,
            "E": 73.3529411764706,
            "F": 73.5625,
            "G": 74.375,
            "H": 75.5625,
            "I": 76.3125,
            "J": 76.5,
            "K": 78.5
        }
    }
}