{
    "Average_holding_time": 14.824120603015075,
    "Average_travel_time_passengers": 2532.059136594085,
    "Average_speed_busses": 0.04975,
    "Average_experienced_crowding": 75.46568893713575,
    "Average_covariation_headway": 0.1438702363370909,
    "Average_covariation_headway_stops": {
        "F": 0.16716101847153167,
        "G": 0.15988045772610446,
        "H": 0.15876737257941256,
        "I": 0.15763231707851294,
        "K": 0.1293927210511143,
        "A": 0.1101056461001236,
        "B": 0.08615540815787749,
        "J": 0.12771368789319398,
        "L": 0.10374820115230951,
        "C": 0.07110107807023994,
        "D": 0.09920181236194221,
        "E": 0.14403905675958126
    },
    "Average_excess_waiting_time": {
        "F": 45.72662919645825,
        "G": 43.602545447620685,
        "H": 41.883407676621516,
        "I": 40.21120165498775,
        "K": 37.93887314211713,
        "A": 36.788006239151855,
        "B": 36.93095798043379,
        "J": 39.13292243728284,
        "L": 37.69673690356018,
        "C": 37.552860434468414,
        "D": 40.565468391758316,
        "E": 45.23388926784946
    },
    "Holding_per_stop": {
        "G": 14.242424242424242,
        "H": 13.2,
        "A": 3.9,
        "I": 21.3,
        "K": 31.8,
        "F": 14.848484848484848,
        "B": 7.8,
        "J": 22.8,
        "L": 14.4,
        "C": 15.454545454545455,
        "D": 7.878787878787879,
        "E": 10.10204081632653
    },
    "Load_per_bus_per_stop": {
        "bus0": {
            "F": 70.47058823529412,
            "G": 70.52941176470588,
            "H": 71.47058823529412,
            "I": 74.11764705882354,
            "J": 74.41176470588235,
            "K": 75.5,
            "L": 76.125,
            "A": 76.5,
            "B": 76.1875,
            "C": 75.625,
            "D": 75.5,
            "E": 75.1875
        },
        "bus1": {
            "G": 71.23529411764706,
            "H": 70.76470588235294,
            "I": 70.88235294117646,
            "J": 73.47058823529412,
            "K": 74,
            "L": 75,
            "A": 75.75,
            "B": 76.375,
            "C": 75.8125,
            "D": 76.1875,
            "E": 76.875,
            "F": 75.8125
        },
        "bus2": {
            "H": 68.94117647058823,
            "I": 69.88235294117646,
            "J": 72.05882352941177,
            "K": 73.05882352941177,
            "L": 73.29411764705883,
            "A": 73.88235294117646,
            "B": 74,
            "C": 73.375,
            "D": 72.0625,
            "E": 71.5,
            "F": 71.25,
            "G": 71.6875
        },
        "bus3": {
            "I": 68.29411764705883,
            "J": 70.47058823529412,
            "K": 71.76470588235294,
            "L": 74.05882352941177,
            "A": 74.58823529411765,
            "B": 75.29411764705883,
            "C": 76.6470588235294,
            "D": 74.41176470588235,
            "E": 73.625,
            "F": 72.4375,
            "G": 71.375,
            "H": 72.25
        },
        "bus4": {
            "K": 71.47058823529412,
            "L": 73.52941176470588,
            "A": 73.17647058823529,
            "B": 73.70588235294117,
            "C": 73.82352941176471,
            "D": 77.41176470588235,
            "E": 76.47058823529412,
            "F": 75,
            "G": 76.6875,
            "H": 76.3125,
            "I": 74,
            "J": 75.5
        },
        "bus5": {
            "A": 77.11764705882354,
            "B": 77.05882352941177,
            "C": 77.23529411764706,
            "D": 76.58823529411765,
            "E": 77.23529411764706,
            "F": 77,
            "G": 78.76470588235294,
            "H": 79.05882352941177,
            "I": 79.70588235294117,
            "J": 80.875,
            "K": 81.625,
            "L": 82.625
        }
    }
}