{
    "Average_holding_time": 17.60372565622354,
    "Average_travel_time_passengers": 2556.2978457316267,
    "Average_speed_busses": 0.04920833333333333,
    "Average_experienced_crowding": 76.65213900073643,
    "Average_covariation_headway": 0.16068143054445627,
    "Average_covariation_headway_stops": {
        "B": 0.1911087913333642,
        "E": 0.18693876835277515,
        "F": 0.17025237377883576,
        "G": 0.1707082535812962,
        "H": 0.16466235643527427,
        "I": 0.1674242387563366,
        "J": 0.1409073150672839,
        "C": 0.16488716984225302,
        "K": 0.1358453962987965,
        "L": 0.14448659670357752,
        "D": 0.16618139283492123,
        "A": 0.1778558908831409
    },
    "Average_excess_waiting_time": {
        "B": 49.955842442124606,
        "E": 51.13421885319451,
        "F": 47.68478552914246,
        "G": 46.34921967637774,
        "H": 43.98566978502595,
        "I": 42.93356992564321,
        "J": 41.701638825624116,
        "C": 48.88412212419138,
        "K": 42.99840009539366,
        "L": 45.24137389954063,
        "D": 50.71443152314066,
        "A": 50.20888510339785
    },
    "Holding_per_stop": {
        "F": 18.367346938775512,
        "G": 16.96969696969697,
        "I": 22.5,
        "H": 9.393939393939394,
        "B": 9.183673469387756,
        "E": 12.551020408163266,
        "J": 20.606060606060606,
        "K": 36.96969696969697,
        "C": 22.653061224489797,
        "L": 23.26530612244898,
        "D": 11.75257731958763,
        "A": 6.73469387755102
    },
    "Load_per_bus_per_stop": {
        "bus0": {
            "B": 75.94117647058823,
            "C": 77,
            "D": 77.82352941176471,
            "E": 79.88235294117646,
            "F": 80.94117647058823,
            "G": 81.75,
            "H": 82.5,
            "I": 81.4375,
            "J": 83.3125,
            "K": 83.625,
            "L": 82.9375,
            "A": 81
        },
        "bus1": {
            "E": 72.29411764705883,
            "F": 72.3529411764706,
            "G": 73.70588235294117,
            "H": 73.3125,
            "I": 74.8125,
            "J": 75,
            "K": 75.0625,
            "L": 74.4375,
            "A": 75.9375,
            "B": 75.875,
            "C": 77,
            "D": 76.8125
        },
        "bus2": {
            "F": 73.82352941176471,
            "G": 72.94117647058823,
            "H": 73.88235294117646,
            "I": 72.58823529411765,
            "J": 72.5,
            "K": 73.6875,
            "L": 73.6875,
            "A": 74.375,
            "B": 75.3125,
            "C": 75.6875,
            "D": 76.375,
            "E": 77.125
        },
        "bus3": {
            "G": 68.29411764705883,
            "H": 68.3529411764706,
            "I": 68.70588235294117,
            "J": 70.3529411764706,
            "K": 70.05882352941177,
            "L": 71.3125,
            "A": 71.9375,
            "B": 71.4375,
            "C": 71.125,
            "D": 72.375,
            "E": 71.8125,
            "F": 71.625
        },
        "bus4": {
            "H": 68.82352941176471,
            "I": 68.82352941176471,
            "J": 68.88235294117646,
            "K": 70.11764705882354,
            "L": 69.6470588235294,
            "A": 69.3529411764706,
            "B": 69.52941176470588,
            "C": 69.1875,
            "D": 70.3125,
            "E": 70.75,
            "F": 71.9375,
            "G": 72.3125
        },
        "bus5": {
            "I": 81.11764705882354,
            "J": 80.58823529411765,
            "K": 79.52941176470588,
            "L": 81,
            "A": 82.70588235294117,
            "B": 83.23529411764706,
            "C": 83.6470588235294,
            "D": 82.0625,
            "E": 82.25,
            "F": 82.3125,
            "G": 83.4375,
            "H": 86.625
        }
    }
}