{
    "Average_holding_time": 18.346055979643765,
    "Average_travel_time_passengers": 2598.721981000931,
    "Average_speed_busses": 0.049125,
    "Average_experienced_crowding": 78.3335646115708,
    "Average_covariation_headway": 0.16777684043979454,
    "Average_covariation_headway_stops": {
        "C": 0.13540186272095228,
        "D": 0.12450469066741754,
        "E": 0.1322750811976122,
        "I": 0.14335424926884913,
        "K": 0.13595627028371665,
        "A": 0.13652221597341416,
        "F": 0.1096562110605283,
        "L": 0.12962652159633514,
        "B": 0.11901067804055407,
        "J": 0.11303557669908566,
        "G": 0.10739166348187353,
        "H": 0.1267828974910265
    },
    "Average_excess_waiting_time": {
        "C": 45.16969177834375,
        "D": 42.988942981877926,
        "E": 41.91116753767102,
        "I": 46.01820250453312,
        "K": 45.64093273165008,
        "A": 45.72372077651403,
        "F": 41.76939219052281,
        "L": 46.644335365975394,
        "B": 45.88221330838786,
        "J": 45.121812490097625,
        "G": 43.20297872553681,
        "H": 46.02987902380198
    },
    "Holding_per_stop": {
        "D": 13.030303030303031,
        "E": 13.333333333333334,
        "K": 27.244897959183675,
        "A": 4.591836734693878,
        "C": 28.163265306122447,
        "I": 21.73469387755102,
        "F": 23.636363636363637,
        "L": 19.897959183673468,
        "B": 11.63265306122449,
        "J": 23.571428571428573,
        "G": 17.448979591836736,
        "H": 15.918367346938776
    },
    "Load_per_bus_per_stop": {
        "bus0": {
            "C": 76.29411764705883,
            "D": 76.29411764705883,
            "E": 77.29411764705883,
            "F": 76.58823529411765,
            "G": 76.5625,
            "H": 75.875,
            "I": 76.3125,
            "J": 78.6875,
            "K": 79.5625,
            "L": 76.3125,
            "A": 77.0625,
            "B": 80.1875
        },
        "bus1": {
            "D": 69.52941176470588,
            "E": 68.6470588235294,
            "F": 69.94117647058823,
            "G": 70.3529411764706,
            "H": 72.58823529411765,
            "I": 73.6875,
            "J": 73.1875,
            "K": 74.25,
            "L": 74.3125,
            "A": 75.25,
            "B": 75.1875,
            "C": 75.6875
        },
        "bus2": {
            "E": 73.6470588235294,
            "F": 75.29411764705883,
            "G": 76.3529411764706,
            "H": 77.76470588235294,
            "I": 78.94117647058823,
            "J": 81,
            "K": 82.1875,
            "L": 79.75,
            "A": 80.75,
            "B": 81.875,
            "C": 81.125,
            "D": 79.5
        },
        "bus3": {
            "I": 75.23529411764706,
            "J": 76.47058823529412,
            "K": 77.6470588235294,
            "L": 79.29411764705883,
            "A": 77.875,
            "B": 79.0625,
            "C": 78.5625,
            "D": 77.75,
            "E": 77.5,
            "F": 79.625,
            "G": 79.9375,
            "H": 79.3125
        },
        "bus4": {
            "K": 81.17647058823529,
            "L": 81.6470588235294,
            "A": 83.88235294117646,
            "B": 84.3529411764706,
            "C": 85.5,
            "D": 85.4375,
            "E": 85.9375,
            "F": 84.75,
            "G": 85.5625,
            "H": 85.3125,
            "I": 85.0625,
            "J": 84.5
        },
        "bus5": {
            "A": 73.76470588235294,
            "B": 73.29411764705883,
            "C": 73.94117647058823,
            "D": 73.82352941176471,
            "E": 74.375,
            "F": 76.25,
            "G": 76.9375,
            "H": 75.5,
            "I": 75.25,
            "J": 75.1875,
            "K": 74.9375,
            "L": 76.25
        }
    }
}5,
            "G": 77.4375,
            "H": 78.1875,
            "I": 79.1875
        }
    }
}