{
    "Average_holding_time": 26.861377506538798,
    "Average_travel_time_passengers": 2613.205852417683,
    "Average_speed_busses": 0.04779166666666667,
    "Average_experienced_crowding": 76.60400105780059,
    "Average_covariation_headway": 0.10223222810862122,
    "Average_covariation_headway_stops": {
        "B": 0.09555236698303736,
        "C": 0.10116756278611067,
        "F": 0.08589085183483537,
        "G": 0.08667093468106446,
        "J": 0.08386901343086306,
        "A": 0.1038397956820966,
        "H": 0.05200326792241351,
        "D": 0.07323341809005317,
        "K": 0.05717400585810482,
        "I": 0.048874656709814134,
        "E": 0.05739977310631632,
        "L": 0.07050040000441588
    },
    "Average_excess_waiting_time": {
        "B": 50.47871750970984,
        "C": 49.33052926482583,
        "F": 50.14788812392658,
        "G": 48.29524941165511,
        "J": 49.93181937036218,
        "A": 52.7399518212535,
        "H": 48.44976923988446,
        "D": 49.468665884813504,
        "K": 50.383424132318,
        "I": 50.126333924399944,
        "E": 50.6132183890515,
        "L": 52.60879821077992
    },
    "Holding_per_stop": {
        "G": 27.1875,
        "C": 25.9375,
        "B": 29.0625,
        "J": 26.875,
        "F": 28.4375,
        "A": 16.105263157894736,
        "H": 26.25,
        "D": 26.5625,
        "K": 29.05263157894737,
        "I": 27.157894736842106,
        "E": 29.36842105263158,
        "L": 30.31578947368421
    },
    "Load_per_bus_per_stop": {
        "bus0": {
            "B": 73.8125,
            "C": 73.0625,
            "D": 72.25,
            "E": 72.6875,
            "F": 74.5625,
            "G": 74.125,
            "H": 75.4375,
            "I": 74.125,
            "J": 77.5,
            "K": 77.375,
            "L": 75.875,
            "A": 77.66666666666667
        },
        "bus1": {
            "C": 75.375,
            "D": 76.625,
            "E": 75.5625,
            "F": 77.1875,
            "G": 78.5625,
            "H": 79.1875,
            "I": 80.3125,
            "J": 76.9375,
            "K": 78.4375,
            "L": 78.5625,
            "A": 79.625,
            "B": 79.125
        },
        "bus2": {
            "F": 75.6875,
            "G": 74.5,
            "H": 74.5,
            "I": 77.25,
            "J": 76.5625,
            "K": 78.4375,
            "L": 79.875,
            "A": 80.8125,
            "B": 80.875,
            "C": 80.0625,
            "D": 79.9375,
            "E": 81.46666666666667
        },
        "bus3": {
            "G": 72.125,
            "H": 72.125,
            "I": 73.8125,
            "J": 75.0625,
            "K": 75.9375,
            "L": 77.125,
            "A": 79.0625,
            "B": 79.6875,
            "C": 77.875,
            "D": 77.8125,
            "E": 78.6875,
            "F": 78
        },
        "bus4": {
            "J": 71,
            "K": 71,
            "L": 72,
            "A": 72.8125,
            "B": 74.8125,
            "C": 76.3125,
            "D": 77.9375,
            "E": 78.375,
            "F": 79.5,
            "G": 79.5,
            "H": 78.4375,
            "I": 77.86666666666666
        },
        "bus5": {
            "A": 70.6875,
            "B": 69.9375,
            "C": 70.1875,
            "D": 71.1875,
            "E": 72.625,
            "F": 73.6875,
            "G": 76.5625,
            "H": 78.5625,
            "I": 76.5,
            "J": 76.875,
            "K": 74.2,
            "L": 74.2
        }
    }
}