{
    "Average_holding_time": 32.13523131672598,
    "Average_travel_time_passengers": 2675.1412115906182,
    "Average_speed_busses": 0.04683333333333333,
    "Average_experienced_crowding": 78.33171428681264,
    "Average_covariation_headway": 0.11114867583903537,
    "Average_covariation_headway_stops": {
        "C": 0.11403791771578543,
        "D": 0.10826216179699844,
        "E": 0.10866675862302774,
        "F": 0.11358191395613455,
        "J": 0.13042330194446708,
        "L": 0.09999583058708467,
        "G": 0.08939628557140095,
        "A": 0.08118358786452502,
        "K": 0.09041288477814081,
        "B": 0.09436320570241008,
        "H": 0.07592439027753371,
        "I": 0.09730174715129354
    },
    "Average_excess_waiting_time": {
        "C": 59.32906297774542,
        "D": 57.31798118820336,
        "E": 55.58050056443284,
        "F": 54.265659618793904,
        "J": 59.066862590369,
        "L": 57.21744178293642,
        "G": 54.53770784793011,
        "A": 57.5254045088048,
        "K": 58.09635083994931,
        "B": 59.78604957442889,
        "H": 55.44613350396594,
        "I": 58.35315343610853
    },
    "Holding_per_stop": {
        "F": 36,
        "L": 25.21276595744681,
        "E": 33.191489361702125,
        "D": 26.170212765957448,
        "J": 42.12765957446808,
        "C": 50.645161290322584,
        "A": 1.935483870967742,
        "G": 33.51063829787234,
        "K": 49.67741935483871,
        "H": 34.148936170212764,
        "B": 15.806451612903226,
        "I": 37.096774193548384
    },
    "Load_per_bus_per_stop": {
        "bus0": {
            "C": 77.0625,
            "D": 78.125,
            "E": 78.5625,
            "F": 79.0625,
            "G": 79.125,
            "H": 78.0625,
            "I": 78.53333333333333,
            "J": 78.86666666666666,
            "K": 78.86666666666666,
            "L": 80.8,
            "A": 81.26666666666667,
            "B": 81.66666666666667
        },
        "bus1": {
            "D": 76.6875,
            "E": 79.125,
            "F": 78.1875,
            "G": 79.25,
            "H": 79.0625,
            "I": 80.1875,
            "J": 79,
            "K": 79.33333333333333,
            "L": 79.4,
            "A": 78.66666666666667,
            "B": 78.93333333333334,
            "C": 80.93333333333334
        },
        "bus2": {
            "E": 74,
            "F": 74.6875,
            "G": 74.625,
            "H": 74.125,
            "I": 74,
            "J": 75.75,
            "K": 75.6875,
            "L": 75.9375,
            "A": 74.6,
            "B": 74.8,
            "C": 77.13333333333334,
            "D": 78.06666666666666
        },
        "bus3": {
            "F": 71.875,
            "G": 72.5625,
            "H": 72.6875,
            "I": 74.6875,
            "J": 77.8125,
            "K": 78.6875,
            "L": 78.4375,
            "A": 75.5,
            "B": 74.75,
            "C": 74.46666666666667,
            "D": 75.26666666666667,
            "E": 74.93333333333334
        },
        "bus4": {
            "J": 76.8125,
            "K": 77.125,
            "L": 78.1875,
            "A": 79.0625,
            "B": 80.625,
            "C": 81.1875,
            "D": 80.5,
            "E": 80.13333333333334,
            "F": 80.4,
            "G": 81.06666666666666,
            "H": 81.6,
            "I": 81.4
        },
        "bus5": {
            "L": 76.0625,
            "A": 78.4375,
            "B": 79.0625,
            "C": 78.8125,
            "D": 79.625,
            "E": 78.875,
            "F": 78.125,
            "G": 78.26666666666667,
            "H": 79.93333333333334,
            "I": 77.06666666666666,
            "J": 79.4,
            "K": 81
        }
    }
}