{
    "Average_holding_time": 32.43967828418231,
    "Average_travel_time_passengers": 2720.131389098685,
    "Average_speed_busses": 0.046625,
    "Average_experienced_crowding": 81.11122115782254,
    "Average_covariation_headway": 0.09998182060496577,
    "Average_covariation_headway_stops": {
        "B": 0.08812917727833788,
        "C": 0.09444913298394114,
        "F": 0.08474964660862985,
        "G": 0.09223609507049213,
        "I": 0.08042913168397023,
        "L": 0.09205409761446609,
        "H": 0.05419153038240604,
        "D": 0.05870066585170388,
        "J": 0.048276750139213946,
        "A": 0.0576149668614583,
        "E": 0.051810451038622994,
        "K": 0.05513820727208001
    },
    "Average_excess_waiting_time": {
        "B": 57.238501254193295,
        "C": 55.88530043237478,
        "F": 57.13457642129066,
        "G": 55.728866924176316,
        "I": 55.06792629948586,
        "L": 57.574200579790556,
        "H": 55.80574172038774,
        "D": 55.848926159496955,
        "J": 55.49723251689721,
        "A": 57.478706631723355,
        "E": 57.487597634210374,
        "K": 57.60048977208709
    },
    "Holding_per_stop": {
        "G": 33.51063829787234,
        "C": 36.06382978723404,
        "I": 31.595744680851062,
        "L": 33.225806451612904,
        "F": 34.193548387096776,
        "B": 32.58064516129032,
        "D": 32.58064516129032,
        "H": 33.225806451612904,
        "J": 33.225806451612904,
        "A": 25.483870967741936,
        "E": 30.64516129032258,
        "K": 32.903225806451616
    },
    "Load_per_bus_per_stop": {
        "bus0": {
            "B": 79.25,
            "C": 80.375,
            "D": 81.3125,
            "E": 80.5,
            "F": 78.6875,
            "G": 78.25,
            "H": 75.3125,
            "I": 76.26666666666667,
            "J": 78.53333333333333,
            "K": 80.8,
            "L": 82.66666666666667,
            "A": 82.33333333333333
        },
        "bus1": {
            "C": 76.0625,
            "D": 76.375,
            "E": 76.0625,
            "F": 79.125,
            "G": 81.6875,
            "H": 82.0625,
            "I": 82.3125,
            "J": 82.0625,
            "K": 82.4,
            "L": 81.73333333333333,
            "A": 80.73333333333333,
            "B": 78.6
        },
        "bus2": {
            "F": 77.75,
            "G": 78.9375,
            "H": 79.8125,
            "I": 82.6875,
            "J": 81,
            "K": 80.5,
            "L": 81.625,
            "A": 83.73333333333333,
            "B": 84,
            "C": 83.6,
            "D": 83.6,
            "E": 83.33333333333333
        },
        "bus3": {
            "G": 74.5625,
            "H": 75.5,
            "I": 76.8125,
            "J": 77.75,
            "K": 77.0625,
            "L": 78.5625,
            "A": 78.6875,
            "B": 79.75,
            "C": 78.33333333333333,
            "D": 77.8,
            "E": 79.33333333333333,
            "F": 78.8
        },
        "bus4": {
            "I": 81.0625,
            "J": 80.5,
            "K": 80.4375,
            "L": 82,
            "A": 81.6875,
            "B": 81.75,
            "C": 81,
            "D": 80.6875,
            "E": 81.26666666666667,
            "F": 81.13333333333334,
            "G": 82.4,
            "H": 84
        },
        "bus5": {
            "L": 81,
            "A": 82.125,
            "B": 82.75,
            "C": 82,
            "D": 79.875,
            "E": 79.6875,
            "F": 82.25,
            "G": 83.33333333333333,
            "H": 85.46666666666667,
            "I": 84.8,
            "J": 85.46666666666667,
            "K": 86.86666666666666
        }
    }
}  "K": 79.2
        }
    }
}