{
    "Average_holding_time": 19.514066496163682,
    "Average_travel_time_passengers": 2638.4983899914464,
    "Average_speed_busses": 0.048875,
    "Average_experienced_crowding": 85.36651206203003,
    "Average_covariation_headway": 0.28524972967752726,
    "Average_covariation_headway_stops": {
        "F": 0.3552305985893835,
        "G": 0.3447447505443433,
        "H": 0.33605733843811375,
        "I": 0.3274156836095294,
        "J": 0.32168736059031283,
        "K": 0.31593327922583414,
        "L": 0.29650826339901054,
        "A": 0.28402232306810976,
        "B": 0.28165148176003,
        "C": 0.30681615032617904,
        "D": 0.31734570774517895,
        "E": 0.33746750124437236
    },
    "Average_excess_waiting_time": {
        "F": 83.16424947944353,
        "G": 79.17095263729482,
        "H": 75.57830624818058,
        "I": 72.32680776457056,
        "J": 69.4116760378318,
        "K": 66.58178851073552,
        "L": 64.60326606807445,
        "A": 64.26964561061203,
        "B": 65.38482050335489,
        "C": 71.58181274032802,
        "D": 75.24513848622416,
        "E": 81.27548506081087
    },
    "Holding_per_stop": {
        "I": 20.20408163265306,
        "J": 20,
        "G": 23.195876288659793,
        "H": 24.183673469387756,
        "K": 25.757575757575758,
        "F": 19.484536082474225,
        "L": 23.333333333333332,
        "A": 7.959183673469388,
        "B": 12.857142857142858,
        "C": 25.97938144329897,
        "D": 14.845360824742269,
        "E": 16.25
    },
    "Load_per_bus_per_stop": {
        "bus0": {
            "F": 84,
            "G": 83.1875,
            "H": 84.75,
            "I": 85.6875,
            "J": 85.75,
            "K": 84.5625,
            "L": 84.125,
            "A": 86.125,
            "B": 87.4375,
            "C": 87,
            "D": 88.625,
            "E": 88.125
        },
        "bus1": {
            "G": 81.82352941176471,
            "H": 81.76470588235294,
            "I": 81.875,
            "J": 83.0625,
            "K": 85.5,
            "L": 83.9375,
            "A": 85,
            "B": 85.4375,
            "C": 86.3125,
            "D": 86.5625,
            "E": 86.9375,
            "F": 87.4375
        },
        "bus2": {
            "H": 69.17647058823529,
            "I": 70.23529411764706,
            "J": 70.70588235294117,
            "K": 71.0625,
            "L": 71.25,
            "A": 72.9375,
            "B": 71.125,
            "C": 70.5,
            "D": 73.1875,
            "E": 75.5,
            "F": 75.0625,
            "G": 74.4375
        },
        "bus3": {
            "I": 70.23529411764706,
            "J": 71.82352941176471,
            "K": 70.82352941176471,
            "L": 69.88235294117646,
            "A": 69.8125,
            "B": 69.9375,
            "C": 69.625,
            "D": 69.8125,
            "E": 70.75,
            "F": 72.75,
            "G": 75.25,
            "H": 75
        },
        "bus4": {
            "J": 62.470588235294116,
            "K": 62.11764705882353,
            "L": 61,
            "A": 61.94117647058823,
            "B": 61.11764705882353,
            "C": 61.75,
            "D": 61.3125,
            "E": 62.125,
            "F": 62.0625,
            "G": 62.8125,
            "H": 64.9375,
            "I": 65.5
        },
        "bus5": {
            "K": 89.6470588235294,
            "L": 89.94117647058823,
            "A": 90.05882352941177,
            "B": 95.3529411764706,
            "C": 95.52941176470588,
            "D": 94.94117647058823,
            "E": 96.375,
            "F": 97.75,
            "G": 96.4375,
            "H": 96.8125,
            "I": 97.25,
            "J": 96.9375
        }
    }
}11764705883,
            "G": 73.17647058823529,
            "H": 75.75,
            "I": 74.875,
            "J": 73.25,
            "K": 73
        }
    }
}