{
    "Average_holding_time": 17.139240506329113,
    "Average_travel_time_passengers": 2589.3891789596387,
    "Average_speed_busses": 0.049375,
    "Average_experienced_crowding": 77.40755729040087,
    "Average_covariation_headway": 0.16046136581638565,
    "Average_covariation_headway_stops": {
        "B": 0.15553572017599104,
        "G": 0.17915238283009122,
        "I": 0.15315973547248993,
        "K": 0.14343529749397035,
        "L": 0.14329565532819447,
        "A": 0.14955077029089034,
        "C": 0.13263169259599303,
        "J": 0.13954739636612626,
        "H": 0.15623952127851942,
        "D": 0.12022482929579922,
        "E": 0.14076955323015347,
        "F": 0.16516614239482416
    },
    "Average_excess_waiting_time": {
        "B": 41.15835892735174,
        "G": 48.36739786333362,
        "I": 45.75281058015793,
        "K": 44.857549023163756,
        "L": 43.160466905320504,
        "A": 42.147345590020336,
        "C": 40.67601885370959,
        "J": 46.20914143441922,
        "H": 47.68083798076435,
        "D": 41.34352412708756,
        "E": 44.67172599310567,
        "F": 48.52414579132244
    },
    "Holding_per_stop": {
        "B": 8.4,
        "A": 4.242424242424242,
        "I": 19.393939393939394,
        "L": 21.515151515151516,
        "K": 20.20408163265306,
        "G": 13.636363636363637,
        "C": 29.393939393939394,
        "J": 18.06122448979592,
        "D": 13.030303030303031,
        "H": 20.510204081632654,
        "E": 17.575757575757574,
        "F": 19.897959183673468
    },
    "Load_per_bus_per_stop": {
        "bus0": {
            "B": 77.11764705882354,
            "C": 76.6470588235294,
            "D": 75.94117647058823,
            "E": 76.76470588235294,
            "F": 77.29411764705883,
            "G": 77.23529411764706,
            "H": 79.05882352941177,
            "I": 78.41176470588235,
            "J": 79.1875,
            "K": 78.3125,
            "L": 82.3125,
            "A": 82.375
        },
        "bus1": {
            "G": 79.47058823529412,
            "H": 79.41176470588235,
            "I": 79.82352941176471,
            "J": 82.29411764705883,
            "K": 82.76470588235294,
            "L": 84.0625,
            "A": 85,
            "B": 83.1875,
            "C": 83.125,
            "D": 83.5625,
            "E": 84.8125,
            "F": 84.5
        },
        "bus2": {
            "I": 67.88235294117646,
            "J": 69.76470588235294,
            "K": 69.70588235294117,
            "L": 70.6470588235294,
            "A": 72.4375,
            "B": 74.0625,
            "C": 75.3125,
            "D": 74.25,
            "E": 73.9375,
            "F": 72.5,
            "G": 73.0625,
            "H": 71.9375
        },
        "bus3": {
            "K": 76.41176470588235,
            "L": 75.76470588235294,
            "A": 78.17647058823529,
            "B": 78,
            "C": 78.3529411764706,
            "D": 76.375,
            "E": 76.4375,
            "F": 75.6875,
            "G": 77.0625,
            "H": 78.625,
            "I": 77.4375,
            "J": 78.9375
        },
        "bus4": {
            "L": 71.52941176470588,
            "A": 72.94117647058823,
            "B": 72.88235294117646,
            "C": 73.23529411764706,
            "D": 70.47058823529412,
            "E": 71.88235294117646,
            "F": 72.25,
            "G": 73.0625,
            "H": 73.25,
            "I": 74.125,
            "J": 75.125,
            "K": 74.9375
        },
        "bus5": {
            "A": 73.17647058823529,
            "B": 70.23529411764706,
            "C": 71.82352941176471,
            "D": 71.29411764705883,
            "E": 72.52941176470588,
            "F": 74.52941176470588,
            "G": 75,
            "H": 75.75,
            "I": 75.75,
            "J": 76.875,
            "K": 76.75,
            "L": 78.8125
        }
    }
}