{
    "Average_holding_time": 30.611160318866254,
    "Average_travel_time_passengers": 2687.386777688713,
    "Average_speed_busses": 0.04704166666666667,
    "Average_experienced_crowding": 78.8498750570436,
    "Average_covariation_headway": 0.09942790550247714,
    "Average_covariation_headway_stops": {
        "D": 0.09088473783040428,
        "E": 0.0894110587541452,
        "G": 0.08039445644877166,
        "H": 0.08709366512260096,
        "J": 0.07688733314111858,
        "A": 0.0822381378788538,
        "I": 0.055093063252738356,
        "K": 0.041880251856553995,
        "B": 0.05514116103306963,
        "F": 0.05064420316391063,
        "L": 0.04633823434178962,
        "C": 0.0561661053734606
    },
    "Average_excess_waiting_time": {
        "D": 56.069522065295246,
        "E": 54.340168711441095,
        "G": 53.73323962122407,
        "H": 52.42184030860858,
        "J": 51.89112914112218,
        "A": 54.019672104050244,
        "I": 52.71818947227632,
        "K": 52.228208382275284,
        "B": 54.37666773634834,
        "F": 54.339251486158446,
        "L": 54.18140092037788,
        "C": 56.061243654839416
    },
    "Holding_per_stop": {
        "H": 30,
        "J": 39.78947368421053,
        "A": 0.6382978723404256,
        "E": 31.914893617021278,
        "G": 32.87234042553192,
        "D": 25.21276595744681,
        "I": 37.02127659574468,
        "K": 47.234042553191486,
        "B": 16.914893617021278,
        "F": 34.148936170212764,
        "L": 23.93617021276596,
        "C": 47.74193548387097
    },
    "Load_per_bus_per_stop": {
        "bus0": {
            "D": 75.875,
            "E": 76.5625,
            "F": 76.25,
            "G": 76.75,
            "H": 79.0625,
            "I": 80,
            "J": 80.875,
            "K": 81.4375,
            "L": 82.46666666666667,
            "A": 80.93333333333334,
            "B": 80.73333333333333,
            "C": 81.4
        },
        "bus1": {
            "E": 73.5,
            "F": 73.25,
            "G": 74.375,
            "H": 76,
            "I": 76.5,
            "J": 77.875,
            "K": 79.625,
            "L": 79.4375,
            "A": 78.53333333333333,
            "B": 78.93333333333334,
            "C": 79.13333333333334,
            "D": 78.46666666666667
        },
        "bus2": {
            "G": 71.5,
            "H": 71.9375,
            "I": 69.5,
            "J": 71.25,
            "K": 72.125,
            "L": 72.9375,
            "A": 73.375,
            "B": 76.5625,
            "C": 74.1875,
            "D": 73.6,
            "E": 75.8,
            "F": 75.86666666666666
        },
        "bus3": {
            "H": 76.25,
            "I": 75.4375,
            "J": 76.125,
            "K": 78,
            "L": 79.1875,
            "A": 80.375,
            "B": 80.375,
            "C": 80.6875,
            "D": 81.1875,
            "E": 79.06666666666666,
            "F": 81.73333333333333,
            "G": 82.06666666666666
        },
        "bus4": {
            "J": 76.625,
            "K": 76.875,
            "L": 77.6875,
            "A": 78,
            "B": 78.875,
            "C": 80.5625,
            "D": 82.6875,
            "E": 81.625,
            "F": 82.5,
            "G": 81.33333333333333,
            "H": 79.86666666666666,
            "I": 80.4
        },
        "bus5": {
            "A": 79.75,
            "B": 80.0625,
            "C": 81,
            "D": 80.1875,
            "E": 81.375,
            "F": 82.25,
            "G": 81.5,
            "H": 83.375,
            "I": 84.875,
            "J": 85.4,
            "K": 84.4,
            "L": 84
        }
    }
}