{
    "Average_holding_time": 11.24690338563171,
    "Average_travel_time_passengers": 2507.0148254747946,
    "Average_speed_busses": 0.050458333333333334,
    "Average_experienced_crowding": 74.0907717180545,
    "Average_covariation_headway": 0.11235409424487464,
    "Average_covariation_headway_stops": {
        "B": 0.1253081450386159,
        "C": 0.1156706629854184,
        "E": 0.0977596508685977,
        "F": 0.09248089758543232,
        "G": 0.10280139381902045,
        "J": 0.10321319488068006,
        "H": 0.07574843758961254,
        "K": 0.07331107147512823,
        "D": 0.08585696876426394,
        "I": 0.07978292040665859,
        "L": 0.07432795283093688,
        "A": 0.10018183646103153
    },
    "Average_excess_waiting_time": {
        "B": 37.58283513724945,
        "C": 35.349981299535614,
        "E": 34.191750863022946,
        "F": 32.416110577234406,
        "G": 31.397859237358375,
        "J": 33.00263891529471,
        "H": 31.434126417508367,
        "K": 33.182450757291406,
        "D": 34.998635309494944,
        "I": 33.27816900285717,
        "L": 34.57033870459003,
        "A": 37.50703892909485
    },
    "Holding_per_stop": {
        "G": 11.764705882352942,
        "J": 13.529411764705882,
        "F": 8.910891089108912,
        "C": 10.099009900990099,
        "E": 12.178217821782178,
        "B": 7.5,
        "H": 10.882352941176471,
        "K": 26.138613861386137,
        "D": 9.9,
        "I": 11.881188118811881,
        "L": 10.2,
        "A": 1.8
    },
    "Load_per_bus_per_stop": {
        "bus0": {
            "B": 72.23529411764706,
            "C": 74.11764705882354,
            "D": 74.88235294117646,
            "E": 76.29411764705883,
            "F": 75.3529411764706,
            "G": 74.41176470588235,
            "H": 73.82352941176471,
            "I": 75.11764705882354,
            "J": 76.94117647058823,
            "K": 76.375,
            "L": 76,
            "A": 75.1875
        },
        "bus1": {
            "C": 69.47058823529412,
            "D": 69.82352941176471,
            "E": 71.58823529411765,
            "F": 71.29411764705883,
            "G": 71.94117647058823,
            "H": 71.70588235294117,
            "I": 74.05882352941177,
            "J": 74.70588235294117,
            "K": 77.29411764705883,
            "L": 76.41176470588235,
            "A": 75.875,
            "B": 74.8125
        },
        "bus2": {
            "E": 74.58823529411765,
            "F": 73.94117647058823,
            "G": 73.47058823529412,
            "H": 74.94117647058823,
            "I": 77.3529411764706,
            "J": 76.94117647058823,
            "K": 78.05882352941177,
            "L": 80.11764705882354,
            "A": 79.29411764705883,
            "B": 78.29411764705883,
            "C": 78.625,
            "D": 78.3125
        },
        "bus3": {
            "F": 70.94117647058823,
            "G": 69.82352941176471,
            "H": 70.47058823529412,
            "I": 70.88235294117646,
            "J": 70.94117647058823,
            "K": 71.82352941176471,
            "L": 73,
            "A": 73.58823529411765,
            "B": 73.29411764705883,
            "C": 72.41176470588235,
            "D": 75.6470588235294,
            "E": 75.0625
        },
        "bus4": {
            "G": 66,
            "H": 66.29411764705883,
            "I": 67.70588235294117,
            "J": 70.47058823529412,
            "K": 71.11764705882354,
            "L": 72.11764705882354,
            "A": 71.17647058823529,
            "B": 70.58823529411765,
            "C": 70.6470588235294,
            "D": 71.47058823529412,
            "E": 71.3529411764706,
            "F": 71.29411764705883
        },
        "bus5": {
            "J": 68.6470588235294,
            "K": 68.76470588235294,
            "L": 70,
            "A": 73.11764705882354,
            "B": 74.76470588235294,
            "C": 76.70588235294117,
            "D": 78.47058823529412,
            "E": 78.52941176470588,
            "F": 78.76470588235294,
            "G": 78.23529411764706,
            "H": 76.6470588235294,
            "I": 75.4375
        }
    }
}