{
    "Average_holding_time": 33.78016085790885,
    "Average_travel_time_passengers": 2739.1143689239493,
    "Average_speed_busses": 0.046625,
    "Average_experienced_crowding": 81.60313085482784,
    "Average_covariation_headway": 0.1330513191436685,
    "Average_covariation_headway_stops": {
        "B": 0.1601516196263419,
        "E": 0.12501224476698125,
        "F": 0.11646264142694876,
        "G": 0.1154605499936606,
        "L": 0.16373338803024326,
        "A": 0.16103214689246825,
        "C": 0.13550990178463276,
        "H": 0.0893470576535983,
        "D": 0.1213469635573571,
        "I": 0.08245025706559878,
        "J": 0.10642891724256671,
        "K": 0.1386718264258523
    },
    "Average_excess_waiting_time": {
        "B": 62.55683284016908,
        "E": 61.0528994245916,
        "F": 58.678760010577435,
        "G": 56.940248590572196,
        "L": 66.31542152999674,
        "A": 64.40393409657997,
        "C": 61.831384070316574,
        "H": 57.01717324446179,
        "D": 62.463347779652,
        "I": 58.33241882806402,
        "J": 61.46321972390939,
        "K": 65.55575985510796
    },
    "Holding_per_stop": {
        "B": 31.27659574468085,
        "G": 34.46808510638298,
        "A": 29.677419354838708,
        "F": 34.148936170212764,
        "E": 33.225806451612904,
        "L": 33.87096774193548,
        "C": 35.806451612903224,
        "H": 34.787234042553195,
        "D": 34.193548387096776,
        "I": 33.225806451612904,
        "J": 37.41935483870968,
        "K": 33.26086956521739
    },
    "Load_per_bus_per_stop": {
        "bus0": {
            "B": 79.375,
            "C": 78.8125,
            "D": 80.25,
            "E": 80.75,
            "F": 80.125,
            "G": 80.9375,
            "H": 82.0625,
            "I": 81.53333333333333,
            "J": 83.93333333333334,
            "K": 84.93333333333334,
            "L": 85.6,
            "A": 84.8
        },
        "bus1": {
            "E": 75.125,
            "F": 75.375,
            "G": 74.9375,
            "H": 78.3125,
            "I": 77.5625,
            "J": 78.125,
            "K": 79.53333333333333,
            "L": 78.53333333333333,
            "A": 79.4,
            "B": 79.4,
            "C": 79.73333333333333,
            "D": 80.13333333333334
        },
        "bus2": {
            "F": 76.9375,
            "G": 78,
            "H": 78.9375,
            "I": 80.5625,
            "J": 81.0625,
            "K": 80.875,
            "L": 80.8125,
            "A": 80.26666666666667,
            "B": 80.86666666666666,
            "C": 80.4,
            "D": 80.6,
            "E": 81.93333333333334
        },
        "bus3": {
            "G": 80.125,
            "H": 79.9375,
            "I": 79.6875,
            "J": 79.875,
            "K": 81.0625,
            "L": 83.125,
            "A": 82.5625,
            "B": 84.125,
            "C": 85,
            "D": 86.26666666666667,
            "E": 88.33333333333333,
            "F": 85.86666666666666
        },
        "bus4": {
            "L": 77.3125,
            "A": 79.875,
            "B": 79.125,
            "C": 78.75,
            "D": 79.0625,
            "E": 79.06666666666666,
            "F": 81.4,
            "G": 79.93333333333334,
            "H": 80.66666666666667,
            "I": 81,
            "J": 81.33333333333333,
            "K": 83.06666666666666
        },
        "bus5": {
            "A": 76.4375,
            "B": 76.0625,
            "C": 77.125,
            "D": 77.0625,
            "E": 77.1875,
            "F": 78.75,
            "G": 81.33333333333333,
            "H": 82,
            "I": 82.46666666666667,
            "J": 82.86666666666666,
            "K": 81.33333333333333,
            "L": 81.93333333333334
        }
    }
}