{
    "Average_holding_time": 16.26050420168067,
    "Average_travel_time_passengers": 2560.3795464743275,
    "Average_speed_busses": 0.04958333333333333,
    "Average_experienced_crowding": 75.10628120374005,
    "Average_covariation_headway": 0.14561840130545514,
    "Average_covariation_headway_stops": {
        "C": 0.12265024263862485,
        "F": 0.11701889184865995,
        "H": 0.10987101362478487,
        "J": 0.10614523196271096,
        "L": 0.10456116452986593,
        "A": 0.12546703546853993,
        "K": 0.0898901477003954,
        "B": 0.10971955119513166,
        "D": 0.08892774814668954,
        "I": 0.07874254863744848,
        "G": 0.09297137413114043,
        "E": 0.09107322170087744
    },
    "Average_excess_waiting_time": {
        "C": 39.068052486430645,
        "F": 40.405325291945815,
        "H": 40.03558475518594,
        "J": 39.84727699558118,
        "L": 39.54888652723986,
        "A": 39.645368204180045,
        "K": 40.426623370786444,
        "B": 39.80593278962152,
        "D": 38.7412681778311,
        "I": 39.75280318035112,
        "G": 40.294547465059,
        "E": 40.307320724747626
    },
    "Holding_per_stop": {
        "J": 21.21212121212121,
        "A": 4.8,
        "L": 21.21212121212121,
        "C": 21,
        "H": 10.606060606060606,
        "F": 21.515151515151516,
        "K": 17.272727272727273,
        "B": 6.363636363636363,
        "I": 20,
        "D": 14.848484848484848,
        "G": 15.757575757575758,
        "E": 20.606060606060606
    },
    "Load_per_bus_per_stop": {
        "bus0": {
            "C": 72.11764705882354,
            "D": 72.52941176470588,
            "E": 73.82352941176471,
            "F": 75.76470588235294,
            "G": 74.58823529411765,
            "H": 74.58823529411765,
            "I": 75.05882352941177,
            "J": 75,
            "K": 74.75,
            "L": 77.3125,
            "A": 77.5625,
            "B": 77.0625
        },
        "bus1": {
            "F": 73.47058823529412,
            "G": 72.94117647058823,
            "H": 73.47058823529412,
            "I": 74.23529411764706,
            "J": 74.3529411764706,
            "K": 76.52941176470588,
            "L": 77.1875,
            "A": 78.4375,
            "B": 76.5,
            "C": 76.0625,
            "D": 76.6875,
            "E": 76.9375
        },
        "bus2": {
            "H": 72.76470588235294,
            "I": 73.3529411764706,
            "J": 72.94117647058823,
            "K": 72.88235294117646,
            "L": 72.05882352941177,
            "A": 73,
            "B": 73,
            "C": 73.375,
            "D": 74.0625,
            "E": 75.125,
            "F": 73.875,
            "G": 76.75
        },
        "bus3": {
            "J": 74.3529411764706,
            "K": 74.47058823529412,
            "L": 73.88235294117646,
            "A": 77,
            "B": 76.82352941176471,
            "C": 77.17647058823529,
            "D": 79.0625,
            "E": 80.25,
            "F": 81.6875,
            "G": 80.6875,
            "H": 81.4375,
            "I": 80.3125
        },
        "bus4": {
            "L": 69.70588235294117,
            "A": 68.76470588235294,
            "B": 68.82352941176471,
            "C": 71.05882352941177,
            "D": 71.6470588235294,
            "E": 72.47058823529412,
            "F": 72.9375,
            "G": 71.9375,
            "H": 73.5,
            "I": 74.5,
            "J": 75.9375,
            "K": 74.875
        },
        "bus5": {
            "A": 72.05882352941177,
            "B": 72.88235294117646,
            "C": 73.70588235294117,
            "D": 73.58823529411765,
            "E": 71.23529411764706,
            "F": 72.17647058823529,
            "G": 71.05882352941177,
            "H": 72.75,
            "I": 73.375,
            "J": 74.9375,
            "K": 77.5625,
            "L": 78.375
        }
    }
}