{
    "Average_holding_time": 18.16793893129771,
    "Average_travel_time_passengers": 2576.9356303931622,
    "Average_speed_busses": 0.049125,
    "Average_experienced_crowding": 76.43938510071663,
    "Average_covariation_headway": 0.17725107248810504,
    "Average_covariation_headway_stops": {
        "B": 0.1561497272432513,
        "C": 0.15149834907124995,
        "D": 0.13837554916355024,
        "H": 0.1420377587162678,
        "I": 0.136265190307543,
        "A": 0.15878087398619062,
        "J": 0.10411193474609479,
        "E": 0.1179267514228561,
        "K": 0.11089986965417385,
        "F": 0.11326629789280487,
        "G": 0.13590836853131724,
        "L": 0.12850666183988504
    },
    "Average_excess_waiting_time": {
        "B": 46.20933961688917,
        "C": 44.154855817822465,
        "D": 41.63172174700736,
        "H": 44.92860161943531,
        "I": 43.01191990049699,
        "A": 48.31420294844594,
        "J": 42.14483262777662,
        "E": 41.630988972734485,
        "K": 44.26981260860788,
        "F": 42.721062151461695,
        "G": 46.03705261076618,
        "L": 46.971737697572394
    },
    "Holding_per_stop": {
        "C": 30.303030303030305,
        "I": 14.545454545454545,
        "B": 15.918367346938776,
        "D": 15.151515151515152,
        "H": 13.775510204081632,
        "A": 12.244897959183673,
        "J": 19.285714285714285,
        "E": 20.303030303030305,
        "F": 17.142857142857142,
        "K": 20.510204081632654,
        "G": 18.06122448979592,
        "L": 20.721649484536083
    },
    "Load_per_bus_per_stop": {
        "bus0": {
            "B": 73.3529411764706,
            "C": 72.58823529411765,
            "D": 73.88235294117646,
            "E": 73.70588235294117,
            "F": 73.70588235294117,
            "G": 72.4375,
            "H": 73.875,
            "I": 74.0625,
            "J": 72.625,
            "K": 74.375,
            "L": 73.9375,
            "A": 76.8125
        },
        "bus1": {
            "C": 73.94117647058823,
            "D": 74.29411764705883,
            "E": 75.05882352941177,
            "F": 75.11764705882354,
            "G": 76.05882352941177,
            "H": 76.3529411764706,
            "I": 75.1875,
            "J": 75.5,
            "K": 76.25,
            "L": 77.0625,
            "A": 75.6875,
            "B": 77.125
        },
        "bus2": {
            "D": 74.47058823529412,
            "E": 76.23529411764706,
            "F": 76,
            "G": 78.52941176470588,
            "H": 80.58823529411765,
            "I": 80,
            "J": 77.47058823529412,
            "K": 77.5625,
            "L": 77.4375,
            "A": 77.8125,
            "B": 79.6875,
            "C": 79.9375
        },
        "bus3": {
            "H": 71.41176470588235,
            "I": 72.05882352941177,
            "J": 73.41176470588235,
            "K": 75.47058823529412,
            "L": 75.52941176470588,
            "A": 75.75,
            "B": 73.875,
            "C": 74.8125,
            "D": 73.625,
            "E": 72.9375,
            "F": 73,
            "G": 75.3125
        },
        "bus4": {
            "I": 75.05882352941177,
            "J": 74.52941176470588,
            "K": 74.29411764705883,
            "L": 75.05882352941177,
            "A": 76.52941176470588,
            "B": 77.1875,
            "C": 77,
            "D": 79.3125,
            "E": 78.9375,
            "F": 78.375,
            "G": 78.3125,
            "H": 77.1875
        },
        "bus5": {
            "A": 74.70588235294117,
            "B": 74.70588235294117,
            "C": 75.58823529411765,
            "D": 77.52941176470588,
            "E": 75.25,
            "F": 76.5,
            "G": 77.3125,
            "H": 78.6875,
            "I": 79.9375,
            "J": 81.0625,
            "K": 79.375,
            "L": 79.375
        }
    }
}