{
    "Average_holding_time": 10.583881578947368,
    "Average_travel_time_passengers": 2462.8901658363825,
    "Average_speed_busses": 0.050666666666666665,
    "Average_experienced_crowding": 72.17272471661248,
    "Average_covariation_headway": 0.12296270118222441,
    "Average_covariation_headway_stops": {
        "B": 0.10196154863771192,
        "F": 0.13340031479479075,
        "I": 0.1436389418435111,
        "J": 0.13542495432881202,
        "K": 0.12922603793995055,
        "L": 0.12931511663279935,
        "C": 0.08176741338523354,
        "A": 0.09433287542462523,
        "G": 0.1034425269611488,
        "D": 0.0720406986892899,
        "H": 0.12036619699968151,
        "E": 0.10615704695434419
    },
    "Average_excess_waiting_time": {
        "B": 30.798357521860623,
        "F": 35.82564507258894,
        "I": 38.113060181013566,
        "J": 36.13563849334798,
        "K": 34.13947803150245,
        "L": 32.75587356476524,
        "C": 31.117793717852294,
        "A": 31.859104340104068,
        "G": 35.211584592471695,
        "D": 32.083458079058175,
        "H": 37.823674112653805,
        "E": 35.223202484476644
    },
    "Holding_per_stop": {
        "J": 10.990099009900991,
        "K": 23.529411764705884,
        "B": 3.823529411764706,
        "L": 14.117647058823529,
        "I": 12.772277227722773,
        "F": 16.336633663366335,
        "C": 11.764705882352942,
        "A": 5,
        "G": 7.7227722772277225,
        "D": 3.267326732673267,
        "E": 5.643564356435643,
        "H": 12
    },
    "Load_per_bus_per_stop": {
        "bus0": {
            "B": 72,
            "C": 71.52941176470588,
            "D": 72.29411764705883,
            "E": 74.6470588235294,
            "F": 76.17647058823529,
            "G": 74.41176470588235,
            "H": 75.05882352941177,
            "I": 76.29411764705883,
            "J": 75.6470588235294,
            "K": 76.94117647058823,
            "L": 76.94117647058823,
            "A": 75.47058823529412
        },
        "bus1": {
            "F": 69.94117647058823,
            "G": 72.05882352941177,
            "H": 71.11764705882354,
            "I": 72.29411764705883,
            "J": 74.58823529411765,
            "K": 73.94117647058823,
            "L": 76.47058823529412,
            "A": 74.6470588235294,
            "B": 74.47058823529412,
            "C": 76.29411764705883,
            "D": 75.5,
            "E": 74.375
        },
        "bus2": {
            "I": 71.17647058823529,
            "J": 70.05882352941177,
            "K": 71.17647058823529,
            "L": 71.94117647058823,
            "A": 72.88235294117646,
            "B": 72.05882352941177,
            "C": 72.3529411764706,
            "D": 75,
            "E": 74.05882352941177,
            "F": 73.5,
            "G": 75,
            "H": 74.9375
        },
        "bus3": {
            "J": 68.6470588235294,
            "K": 70.29411764705883,
            "L": 69.3529411764706,
            "A": 70.05882352941177,
            "B": 70.76470588235294,
            "C": 71.70588235294117,
            "D": 71.70588235294117,
            "E": 74.88235294117646,
            "F": 76.3529411764706,
            "G": 75.52941176470588,
            "H": 73.8125,
            "I": 73.375
        },
        "bus4": {
            "K": 65.76470588235294,
            "L": 65.17647058823529,
            "A": 65.94117647058823,
            "B": 66.94117647058823,
            "C": 66.94117647058823,
            "D": 67.70588235294117,
            "E": 67.58823529411765,
            "F": 67.3529411764706,
            "G": 69.29411764705883,
            "H": 69.94117647058823,
            "I": 70.3529411764706,
            "J": 69.5625
        },
        "bus5": {
            "L": 65.70588235294117,
            "A": 64.70588235294117,
            "B": 66.29411764705883,
            "C": 67.23529411764706,
            "D": 68.82352941176471,
            "E": 69.70588235294117,
            "F": 69.47058823529412,
            "G": 68.52941176470588,
            "H": 68.88235294117646,
            "I": 70.29411764705883,
            "J": 70.23529411764706,
            "K": 69.82352941176471
        }
    }
}76.8125
        }
    }
}