{
    "Average_holding_time": 10.830592105263158,
    "Average_travel_time_passengers": 2515.4678029185598,
    "Average_speed_busses": 0.050666666666666665,
    "Average_experienced_crowding": 74.82280209742926,
    "Average_covariation_headway": 0.12258021457141349,
    "Average_covariation_headway_stops": {
        "C": 0.10174876775474616,
        "D": 0.10253908862850145,
        "I": 0.16815121052460416,
        "J": 0.15714929665509386,
        "K": 0.1496658046367432,
        "A": 0.10544326559722045,
        "L": 0.1169201522340193,
        "E": 0.0861817878466779,
        "B": 0.0797201055230775,
        "F": 0.07712268470030957,
        "G": 0.1054769809922609,
        "H": 0.1465074012492106
    },
    "Average_excess_waiting_time": {
        "C": 32.70233905042585,
        "D": 31.3971259270549,
        "I": 40.79624591811387,
        "J": 38.36103425575004,
        "K": 36.145808619283514,
        "A": 33.02407665278025,
        "L": 35.26941740903186,
        "E": 31.8959652364818,
        "B": 33.046082652498626,
        "F": 32.976808076541545,
        "G": 36.021875985302756,
        "H": 40.38439961269404
    },
    "Holding_per_stop": {
        "K": 24.41176470588235,
        "J": 12.475247524752476,
        "D": 11.470588235294118,
        "A": 3.823529411764706,
        "C": 12.058823529411764,
        "I": 11.287128712871286,
        "E": 9.705882352941176,
        "L": 11.287128712871286,
        "B": 5.9405940594059405,
        "F": 10.396039603960396,
        "G": 7.425742574257426,
        "H": 9.6
    },
    "Load_per_bus_per_stop": {
        "bus0": {
            "C": 72.29411764705883,
            "D": 72.94117647058823,
            "E": 73,
            "F": 73.41176470588235,
            "G": 73.88235294117646,
            "H": 75.05882352941177,
            "I": 75.41176470588235,
            "J": 75.41176470588235,
            "K": 76.05882352941177,
            "L": 76.82352941176471,
            "A": 76.88235294117646,
            "B": 77.6875
        },
        "bus1": {
            "D": 74.41176470588235,
            "E": 74.94117647058823,
            "F": 78.29411764705883,
            "G": 78.88235294117646,
            "H": 76.41176470588235,
            "I": 78.6470588235294,
            "J": 79.41176470588235,
            "K": 79.3529411764706,
            "L": 80.29411764705883,
            "A": 80.58823529411765,
            "B": 80.82352941176471,
            "C": 80.05882352941177
        },
        "bus2": {
            "I": 72.88235294117646,
            "J": 72.94117647058823,
            "K": 73.17647058823529,
            "L": 73.05882352941177,
            "A": 73.41176470588235,
            "B": 74.3529411764706,
            "C": 73.52941176470588,
            "D": 75.47058823529412,
            "E": 75.76470588235294,
            "F": 75.3125,
            "G": 75.25,
            "H": 75.0625
        },
        "bus3": {
            "J": 72.41176470588235,
            "K": 72.29411764705883,
            "L": 73.76470588235294,
            "A": 74.41176470588235,
            "B": 75.70588235294117,
            "C": 75,
            "D": 74.29411764705883,
            "E": 77.05882352941177,
            "F": 75.6470588235294,
            "G": 75.58823529411765,
            "H": 75.6875,
            "I": 78.3125
        },
        "bus4": {
            "K": 70.6470588235294,
            "L": 71.58823529411765,
            "A": 71.88235294117646,
            "B": 71.76470588235294,
            "C": 74.76470588235294,
            "D": 74.94117647058823,
            "E": 73.82352941176471,
            "F": 73.17647058823529,
            "G": 73.47058823529412,
            "H": 74.23529411764706,
            "I": 76.17647058823529,
            "J": 75.3125
        },
        "bus5": {
            "A": 67.47058823529412,
            "B": 68.70588235294117,
            "C": 68.94117647058823,
            "D": 69.6470588235294,
            "E": 69.58823529411765,
            "F": 70.3529411764706,
            "G": 70,
            "H": 69.58823529411765,
            "I": 69.52941176470588,
            "J": 69.41176470588235,
            "K": 69.58823529411765,
            "L": 69.1875
        }
    }
}