{
    "Average_holding_time": 11.776859504132231,
    "Average_travel_time_passengers": 2521.0960839452027,
    "Average_speed_busses": 0.050416666666666665,
    "Average_experienced_crowding": 73.88783132663194,
    "Average_covariation_headway": 0.11314125854310332,
    "Average_covariation_headway_stops": {
        "B": 0.1197235724542117,
        "E": 0.10003438374949225,
        "G": 0.09238562013277574,
        "H": 0.093425026856406,
        "I": 0.09880254809714556,
        "A": 0.12343569895175255,
        "C": 0.07601139470689629,
        "J": 0.07851008711870137,
        "F": 0.07309809810583576,
        "D": 0.07096698557736165,
        "K": 0.08590291032776055,
        "L": 0.10349488577221375
    },
    "Average_excess_waiting_time": {
        "B": 34.424079227950585,
        "E": 34.763308525261436,
        "G": 34.057621906882105,
        "H": 32.726010984205516,
        "I": 31.46638993715419,
        "A": 36.269992182387114,
        "C": 33.41000556270444,
        "J": 32.05873006756747,
        "F": 34.722558321246595,
        "D": 34.697559487835235,
        "K": 33.90887496334636,
        "L": 36.448284462031324
    },
    "Holding_per_stop": {
        "B": 8.910891089108912,
        "I": 12.352941176470589,
        "H": 8.910891089108912,
        "A": 3.267326732673267,
        "E": 9.207920792079207,
        "G": 9.801980198019802,
        "C": 12.475247524752476,
        "J": 11.287128712871286,
        "F": 16.8,
        "D": 8.4,
        "K": 27.623762376237625,
        "L": 12.3
    },
    "Load_per_bus_per_stop": {
        "bus0": {
            "B": 69.41176470588235,
            "C": 69.88235294117646,
            "D": 69.29411764705883,
            "E": 70.94117647058823,
            "F": 71.29411764705883,
            "G": 73,
            "H": 73.11764705882354,
            "I": 72.70588235294117,
            "J": 72.94117647058823,
            "K": 72.29411764705883,
            "L": 71.5,
            "A": 73.1875
        },
        "bus1": {
            "E": 69.47058823529412,
            "F": 69.94117647058823,
            "G": 71.76470588235294,
            "H": 72.3529411764706,
            "I": 74.05882352941177,
            "J": 73.76470588235294,
            "K": 73.70588235294117,
            "L": 74.82352941176471,
            "A": 75.29411764705883,
            "B": 76.9375,
            "C": 76.875,
            "D": 74.5625
        },
        "bus2": {
            "G": 71.05882352941177,
            "H": 70.6470588235294,
            "I": 71.82352941176471,
            "J": 71,
            "K": 71.41176470588235,
            "L": 72.3529411764706,
            "A": 72.47058823529412,
            "B": 72.94117647058823,
            "C": 72.58823529411765,
            "D": 73.6875,
            "E": 73.9375,
            "F": 74.25
        },
        "bus3": {
            "H": 71.70588235294117,
            "I": 72.3529411764706,
            "J": 72.58823529411765,
            "K": 73,
            "L": 73.6470588235294,
            "A": 73.76470588235294,
            "B": 73.29411764705883,
            "C": 73.17647058823529,
            "D": 76.76470588235294,
            "E": 75.23529411764706,
            "F": 76.5625,
            "G": 75.875
        },
        "bus4": {
            "I": 75.11764705882354,
            "J": 76.23529411764706,
            "K": 76.58823529411765,
            "L": 76.70588235294117,
            "A": 77.41176470588235,
            "B": 76.88235294117646,
            "C": 75.3529411764706,
            "D": 75.82352941176471,
            "E": 77.6470588235294,
            "F": 76.29411764705883,
            "G": 77.6470588235294,
            "H": 78.125
        },
        "bus5": {
            "A": 72.6470588235294,
            "B": 71.41176470588235,
            "C": 73.05882352941177,
            "D": 73,
            "E": 72.23529411764706,
            "F": 72.70588235294117,
            "G": 72.6470588235294,
            "H": 73.23529411764706,
            "I": 73.41176470588235,
            "J": 74.5625,
            "K": 75.5,
            "L": 76.5
        }
    }
}