{
    "Average_holding_time": 17.736486486486488,
    "Average_travel_time_passengers": 2582.8580927977937,
    "Average_speed_busses": 0.04933333333333333,
    "Average_experienced_crowding": 76.98284407655227,
    "Average_covariation_headway": 0.14111616848933375,
    "Average_covariation_headway_stops": {
        "B": 0.17208784174020206,
        "D": 0.15436219090775266,
        "E": 0.1454162426141554,
        "F": 0.13973388383297144,
        "G": 0.14136175012162716,
        "I": 0.11595977495672875,
        "J": 0.08588306421360468,
        "H": 0.11263598121983179,
        "C": 0.14559616371755182,
        "K": 0.08699132245084737,
        "L": 0.11120169911965744,
        "A": 0.14871980206119678
    },
    "Average_excess_waiting_time": {
        "B": 48.943709872258694,
        "D": 47.29629167334849,
        "E": 44.76088450683426,
        "F": 42.91152363535775,
        "G": 41.38519324226945,
        "I": 39.53338904050156,
        "J": 39.519073125766965,
        "H": 40.868037204047994,
        "C": 48.19248473657541,
        "K": 41.041663791448855,
        "L": 43.98531731033739,
        "A": 48.70535885350506
    },
    "Holding_per_stop": {
        "I": 22.5,
        "E": 12.121212121212121,
        "F": 22.12121212121212,
        "G": 12.9,
        "B": 11.63265306122449,
        "D": 8.26530612244898,
        "J": 22.424242424242426,
        "H": 13.93939393939394,
        "K": 37.57575757575758,
        "C": 24.183673469387756,
        "L": 22.346938775510203,
        "A": 2.4742268041237114
    },
    "Load_per_bus_per_stop": {
        "bus0": {
            "B": 74.3529411764706,
            "C": 74.94117647058823,
            "D": 76.23529411764706,
            "E": 75.76470588235294,
            "F": 78.1875,
            "G": 79.25,
            "H": 80.5625,
            "I": 81.0625,
            "J": 78.8125,
            "K": 78.8125,
            "L": 79.8125,
            "A": 78.4375
        },
        "bus1": {
            "D": 73.11764705882354,
            "E": 72.82352941176471,
            "F": 71.29411764705883,
            "G": 73.23529411764706,
            "H": 74.8125,
            "I": 76,
            "J": 77.6875,
            "K": 78,
            "L": 78.6875,
            "A": 78.0625,
            "B": 77,
            "C": 77.9375
        },
        "bus2": {
            "E": 74,
            "F": 75.41176470588235,
            "G": 76.47058823529412,
            "H": 77,
            "I": 77.58823529411765,
            "J": 78,
            "K": 79.375,
            "L": 79.375,
            "A": 78.625,
            "B": 79.0625,
            "C": 79.0625,
            "D": 78.875
        },
        "bus3": {
            "F": 71.6470588235294,
            "G": 73.41176470588235,
            "H": 74.23529411764706,
            "I": 75.88235294117646,
            "J": 75.58823529411765,
            "K": 77.3529411764706,
            "L": 76.625,
            "A": 74.75,
            "B": 73.6875,
            "C": 72.6875,
            "D": 75.9375,
            "E": 77.125
        },
        "bus4": {
            "G": 70.88235294117646,
            "H": 71.88235294117646,
            "I": 73.6470588235294,
            "J": 74.41176470588235,
            "K": 73.88235294117646,
            "L": 76.3529411764706,
            "A": 75.3529411764706,
            "B": 75.75,
            "C": 76.75,
            "D": 76.25,
            "E": 74.3125,
            "F": 74.25
        },
        "bus5": {
            "I": 75,
            "J": 76.52941176470588,
            "K": 77.52941176470588,
            "L": 78.94117647058823,
            "A": 78.23529411764706,
            "B": 78.58823529411765,
            "C": 78.6470588235294,
            "D": 79.8125,
            "E": 77.1875,
            "F": 74.5,
            "G": 75.125,
            "H": 77.1875
        }
    }
},
            "J": 75.5625,
            "K": 74.75
        }
    }
}