{
    "Average_holding_time": 9.442622950819672,
    "Average_travel_time_passengers": 2500.2864511897455,
    "Average_speed_busses": 0.050833333333333335,
    "Average_experienced_crowding": 73.49915075650419,
    "Average_covariation_headway": 0.15227781731211285,
    "Average_covariation_headway_stops": {
        "E": 0.1393308389526715,
        "G": 0.1232997948296785,
        "H": 0.1197717907317757,
        "I": 0.11545281197644527,
        "J": 0.12657726668314268,
        "A": 0.11613156021352074,
        "B": 0.11037189777828894,
        "K": 0.10307600055057875,
        "F": 0.11572661534184125,
        "C": 0.11134735829612348,
        "L": 0.10313308824597914,
        "D": 0.12881166808014008
    },
    "Average_excess_waiting_time": {
        "E": 36.3429132399221,
        "G": 35.390843807040426,
        "H": 33.66956274895438,
        "I": 31.417431669514258,
        "J": 30.739672025592597,
        "A": 31.373401958098896,
        "B": 32.3561893886594,
        "K": 30.492868537047457,
        "F": 36.00085060161854,
        "C": 34.20093957550881,
        "L": 31.922899378130182,
        "D": 36.87348130940842
    },
    "Holding_per_stop": {
        "A": 1.7647058823529411,
        "J": 9.029126213592233,
        "H": 9.117647058823529,
        "I": 6.764705882352941,
        "E": 11.881188118811881,
        "G": 5.9405940594059405,
        "B": 11.470588235294118,
        "K": 17.058823529411764,
        "C": 16.633663366336634,
        "F": 3.8613861386138613,
        "L": 9.117647058823529,
        "D": 10.693069306930694
    },
    "Load_per_bus_per_stop": {
        "bus0": {
            "E": 70.17647058823529,
            "F": 70.94117647058823,
            "G": 72.41176470588235,
            "H": 72.6470588235294,
            "I": 71.88235294117646,
            "J": 71.94117647058823,
            "K": 71.23529411764706,
            "L": 74.11764705882354,
            "A": 73.29411764705883,
            "B": 73.11764705882354,
            "C": 73.5625,
            "D": 74
        },
        "bus1": {
            "G": 68.17647058823529,
            "H": 69.58823529411765,
            "I": 70.58823529411765,
            "J": 70.29411764705883,
            "K": 68.47058823529412,
            "L": 69.94117647058823,
            "A": 71.23529411764706,
            "B": 72.23529411764706,
            "C": 72.76470588235294,
            "D": 72.47058823529412,
            "E": 71.875,
            "F": 71.3125
        },
        "bus2": {
            "H": 69.05882352941177,
            "I": 71.23529411764706,
            "J": 70.70588235294117,
            "K": 70.47058823529412,
            "L": 72.11764705882354,
            "A": 72.17647058823529,
            "B": 72.47058823529412,
            "C": 73.23529411764706,
            "D": 72.52941176470588,
            "E": 71.70588235294117,
            "F": 72.17647058823529,
            "G": 72.6875
        },
        "bus3": {
            "I": 71.23529411764706,
            "J": 69.58823529411765,
            "K": 69.3529411764706,
            "L": 69.41176470588235,
            "A": 69.88235294117646,
            "B": 70.11764705882354,
            "C": 73.23529411764706,
            "D": 72.70588235294117,
            "E": 72.17647058823529,
            "F": 74.70588235294117,
            "G": 75.47058823529412,
            "H": 76.29411764705883
        },
        "bus4": {
            "J": 72.72222222222223,
            "K": 73.29411764705883,
            "L": 73.82352941176471,
            "A": 73.82352941176471,
            "B": 72.70588235294117,
            "C": 73.47058823529412,
            "D": 74.05882352941177,
            "E": 75.29411764705883,
            "F": 76,
            "G": 75.23529411764706,
            "H": 75.76470588235294,
            "I": 76.88235294117646
        },
        "bus5": {
            "A": 72.94117647058823,
            "B": 74.88235294117646,
            "C": 76.05882352941177,
            "D": 76.94117647058823,
            "E": 78.23529411764706,
            "F": 79.29411764705883,
            "G": 79.17647058823529,
            "H": 77.70588235294117,
            "I": 78.11764705882354,
            "J": 78.11764705882354,
            "K": 78.17647058823529,
            "L": 77.23529411764706
        }
    }
}
    }
}