{
    "Average_holding_time": 16.90033783783784,
    "Average_travel_time_passengers": 2526.6077821167532,
    "Average_speed_busses": 0.04933333333333333,
    "Average_experienced_crowding": 75.92808249897895,
    "Average_covariation_headway": 0.1619250873890049,
    "Average_covariation_headway_stops": {
        "B": 0.10421625707514003,
        "E": 0.10994104620451561,
        "G": 0.10383793392050962,
        "H": 0.10796754658186794,
        "K": 0.11708371236929974,
        "A": 0.10057930936029265,
        "I": 0.09517147764174065,
        "C": 0.09241927957382073,
        "F": 0.08074534200602537,
        "L": 0.09134128729862911,
        "D": 0.09833946887056996,
        "J": 0.09628290601008459
    },
    "Average_excess_waiting_time": {
        "B": 39.98691216732084,
        "E": 41.440559242253016,
        "G": 40.86695812806619,
        "H": 39.53420804352652,
        "K": 41.63328774612222,
        "A": 41.22916419822991,
        "I": 40.18887051773885,
        "C": 40.74783136313414,
        "F": 41.16686840604842,
        "L": 42.357154009101066,
        "D": 42.34432090481323,
        "J": 41.68969036557979
    },
    "Holding_per_stop": {
        "H": 24.242424242424242,
        "B": 10,
        "E": 12.121212121212121,
        "G": 18.484848484848484,
        "K": 19.09090909090909,
        "A": 5.151515151515151,
        "C": 30.303030303030305,
        "I": 20.303030303030305,
        "F": 16.53061224489796,
        "L": 15,
        "D": 15.306122448979592,
        "J": 16.224489795918366
    },
    "Load_per_bus_per_stop": {
        "bus0": {
            "B": 75.88235294117646,
            "C": 75.76470588235294,
            "D": 75.76470588235294,
            "E": 77.58823529411765,
            "F": 77.6470588235294,
            "G": 78.05882352941177,
            "H": 76.3125,
            "I": 78.0625,
            "J": 78.5,
            "K": 80,
            "L": 80.875,
            "A": 78.1875
        },
        "bus1": {
            "E": 73,
            "F": 75.3529411764706,
            "G": 75.52941176470588,
            "H": 76.23529411764706,
            "I": 75.6470588235294,
            "J": 74.11764705882354,
            "K": 73.25,
            "L": 74.5625,
            "A": 72.4375,
            "B": 75.125,
            "C": 77.25,
            "D": 78.0625
        },
        "bus2": {
            "G": 68.6470588235294,
            "H": 69.82352941176471,
            "I": 70.29411764705883,
            "J": 70.70588235294117,
            "K": 69.70588235294117,
            "L": 70.6875,
            "A": 72.3125,
            "B": 73,
            "C": 71.4375,
            "D": 72.125,
            "E": 72.25,
            "F": 72.6875
        },
        "bus3": {
            "H": 71.41176470588235,
            "I": 72,
            "J": 72.88235294117646,
            "K": 74.29411764705883,
            "L": 77.82352941176471,
            "A": 77.70588235294117,
            "B": 76.875,
            "C": 76.375,
            "D": 76,
            "E": 77.1875,
            "F": 76.125,
            "G": 77.125
        },
        "bus4": {
            "K": 76,
            "L": 76.17647058823529,
            "A": 76.17647058823529,
            "B": 77.29411764705883,
            "C": 78.3529411764706,
            "D": 79.5625,
            "E": 80.8125,
            "F": 79.1875,
            "G": 79,
            "H": 80.1875,
            "I": 80.375,
            "J": 78.9375
        },
        "bus5": {
            "A": 71.3529411764706,
            "B": 71.88235294117646,
            "C": 72.41176470588235,
            "D": 73.23529411764706,
            "E": 75.23529411764706,
            "F": 76.8125,
            "G": 76.5,
            "H": 76.8125,
            "I": 76.9375,
            "J": 77.125,
            "K": 76.6875,
            "L": 76.75
        }
    }
}