{
    "Average_holding_time": 26.730601569311247,
    "Average_travel_time_passengers": 2663.972308129398,
    "Average_speed_busses": 0.04779166666666667,
    "Average_experienced_crowding": 79.14239200038384,
    "Average_covariation_headway": 0.15131872138402092,
    "Average_covariation_headway_stops": {
        "B": 0.19924215904906903,
        "D": 0.16644568663308282,
        "E": 0.1570380263321139,
        "K": 0.2251036637197247,
        "L": 0.21146505324854767,
        "A": 0.20343043821681725,
        "F": 0.13903248093766596,
        "C": 0.17332829375446937,
        "G": 0.12229698171356089,
        "H": 0.13237136831358315,
        "I": 0.15402983932961703,
        "J": 0.19845451886268325
    },
    "Average_excess_waiting_time": {
        "B": 58.14736290340227,
        "D": 54.51117148421429,
        "E": 51.98337146886405,
        "K": 66.72939836657605,
        "L": 63.203055404857025,
        "A": 60.44842354687722,
        "F": 51.899551353223444,
        "C": 56.74640354664183,
        "G": 52.138303931689734,
        "H": 54.72820683896913,
        "I": 58.21875176083398,
        "J": 64.95071007925617
    },
    "Holding_per_stop": {
        "E": 30.309278350515463,
        "B": 18.75,
        "L": 32.21052631578947,
        "A": 11.875,
        "K": 29.36842105263158,
        "D": 29.375,
        "F": 29.6875,
        "C": 27.5,
        "G": 30.625,
        "H": 27.789473684210527,
        "I": 28.105263157894736,
        "J": 25.21276595744681
    },
    "Load_per_bus_per_stop": {
        "bus0": {
            "B": 74.5,
            "C": 76.375,
            "D": 76.75,
            "E": 76.1875,
            "F": 74.3125,
            "G": 74.8125,
            "H": 74.4375,
            "I": 75.125,
            "J": 77.1875,
            "K": 76.625,
            "L": 77.9375,
            "A": 77.625
        },
        "bus1": {
            "D": 70.9375,
            "E": 73.1875,
            "F": 71.875,
            "G": 72,
            "H": 73.375,
            "I": 74.5625,
            "J": 74.0625,
            "K": 71.6875,
            "L": 72.875,
            "A": 72.8125,
            "B": 74.3125,
            "C": 75.3125
        },
        "bus2": {
            "E": 82.94117647058823,
            "F": 83.625,
            "G": 83.8125,
            "H": 86.8125,
            "I": 86.5625,
            "J": 87,
            "K": 87.25,
            "L": 87.875,
            "A": 88.5,
            "B": 88.125,
            "C": 88.8125,
            "D": 87.6875
        },
        "bus3": {
            "K": 75.6875,
            "L": 76.0625,
            "A": 76.9375,
            "B": 78.1875,
            "C": 78,
            "D": 79.75,
            "E": 79.1875,
            "F": 79.1875,
            "G": 80.25,
            "H": 80.86666666666666,
            "I": 82.6,
            "J": 83
        },
        "bus4": {
            "L": 73.625,
            "A": 73.3125,
            "B": 73.9375,
            "C": 75,
            "D": 75.8125,
            "E": 74.8125,
            "F": 73.25,
            "G": 74.4375,
            "H": 76.625,
            "I": 77.6875,
            "J": 78.46666666666667,
            "K": 78.4
        },
        "bus5": {
            "A": 72.8125,
            "B": 73.4375,
            "C": 73.8125,
            "D": 75.5,
            "E": 76.5,
            "F": 75.8125,
            "G": 76.4375,
            "H": 75.625,
            "I": 75.875,
            "J": 74.5625,
            "K": 75.75,
            "L": 78.26666666666667
        }
    }
}