{
    "Average_holding_time": 20.281329923273656,
    "Average_travel_time_passengers": 2586.3615087631115,
    "Average_speed_busses": 0.048875,
    "Average_experienced_crowding": 75.15166256305174,
    "Average_covariation_headway": 0.1886436761037269,
    "Average_covariation_headway_stops": {
        "B": 0.11387967765467238,
        "C": 0.11531977245603516,
        "H": 0.18752949489272952,
        "I": 0.18207048974895867,
        "K": 0.1445605603362678,
        "L": 0.13967398536931533,
        "A": 0.10683896919270977,
        "J": 0.15158286451404054,
        "D": 0.11064397406543364,
        "E": 0.11049875120036218,
        "F": 0.12359479612235803,
        "G": 0.1699110811139611
    },
    "Average_excess_waiting_time": {
        "B": 42.9266442171006,
        "C": 41.321586332980075,
        "H": 52.66251294838844,
        "I": 50.99306301288988,
        "K": 47.23187123330871,
        "L": 45.30969158233097,
        "A": 44.34894815486001,
        "J": 49.587340630346944,
        "D": 42.39166146890494,
        "E": 44.00550982137298,
        "F": 46.35846426467913,
        "G": 52.27152139315666
    },
    "Holding_per_stop": {
        "L": 24.489795918367346,
        "I": 27.551020408163264,
        "C": 29.696969696969695,
        "B": 10.714285714285714,
        "H": 16.391752577319586,
        "K": 25.408163265306122,
        "A": 5.510204081632653,
        "J": 22.88659793814433,
        "D": 15.306122448979592,
        "E": 20.816326530612244,
        "F": 23.195876288659793,
        "G": 21.34020618556701
    },
    "Load_per_bus_per_stop": {
        "bus0": {
            "B": 73.3529411764706,
            "C": 74.88235294117646,
            "D": 75.17647058823529,
            "E": 75.41176470588235,
            "F": 75.52941176470588,
            "G": 76.3125,
            "H": 76.8125,
            "I": 77.125,
            "J": 78.8125,
            "K": 79.125,
            "L": 79.0625,
            "A": 77.4375
        },
        "bus1": {
            "C": 77,
            "D": 75.17647058823529,
            "E": 77.05882352941177,
            "F": 77.41176470588235,
            "G": 78.88235294117646,
            "H": 81.6875,
            "I": 80.375,
            "J": 80.25,
            "K": 78.75,
            "L": 77.3125,
            "A": 77.75,
            "B": 78.9375
        },
        "bus2": {
            "H": 72.29411764705883,
            "I": 71.88235294117646,
            "J": 74,
            "K": 74,
            "L": 76.25,
            "A": 77.4375,
            "B": 77.3125,
            "C": 74.625,
            "D": 73.5,
            "E": 75.4375,
            "F": 75.1875,
            "G": 75.8125
        },
        "bus3": {
            "I": 69.41176470588235,
            "J": 70.58823529411765,
            "K": 71.47058823529412,
            "L": 72.6875,
            "A": 74.75,
            "B": 74.25,
            "C": 73.875,
            "D": 73,
            "E": 73.5625,
            "F": 74.0625,
            "G": 73.375,
            "H": 73.625
        },
        "bus4": {
            "K": 70.58823529411765,
            "L": 69.41176470588235,
            "A": 69.6470588235294,
            "B": 67.75,
            "C": 68.6875,
            "D": 69.25,
            "E": 70.125,
            "F": 69.1875,
            "G": 71.3125,
            "H": 72.8125,
            "I": 74,
            "J": 74.625
        },
        "bus5": {
            "L": 73.82352941176471,
            "A": 75,
            "B": 73.82352941176471,
            "C": 73.29411764705883,
            "D": 72.52941176470588,
            "E": 73.3125,
            "F": 75.125,
            "G": 76.125,
            "H": 77.375,
            "I": 77.0625,
            "J": 78.5,
            "K": 79.125
        }
    }
}       "J": 74.1875,
            "K": 74.8125,
            "L": 75.625
        }
    }
}
}