{
    "Average_holding_time": 11.985111662531017,
    "Average_travel_time_passengers": 2519.4456625725506,
    "Average_speed_busses": 0.050375,
    "Average_experienced_crowding": 75.14269067575101,
    "Average_covariation_headway": 0.137149530708379,
    "Average_covariation_headway_stops": {
        "D": 0.10402905520351204,
        "F": 0.10029487449638651,
        "H": 0.1109763042304829,
        "I": 0.1149767840899165,
        "K": 0.0941394657862055,
        "A": 0.09739732369682523,
        "G": 0.08448687156016636,
        "J": 0.08259316438874278,
        "B": 0.07911689025520728,
        "L": 0.07241938184161929,
        "E": 0.08610540925681935,
        "C": 0.09698815533558072
    },
    "Average_excess_waiting_time": {
        "D": 35.727598081746976,
        "F": 35.273574235746594,
        "H": 35.90562435648724,
        "I": 34.88188071102087,
        "K": 33.52412201706443,
        "A": 33.66137582889638,
        "G": 35.92024630806594,
        "J": 34.373542836168156,
        "B": 34.123899464372016,
        "L": 33.915727066243676,
        "E": 36.0167679219432,
        "C": 36.457957110339464
    },
    "Holding_per_stop": {
        "F": 10.099009900990099,
        "I": 11.881188118811881,
        "A": 2.6732673267326734,
        "H": 14.554455445544555,
        "K": 12.475247524752476,
        "D": 14.554455445544555,
        "J": 9.504950495049505,
        "B": 11.287128712871286,
        "L": 7.425742574257426,
        "G": 17.4,
        "E": 12.6,
        "C": 19.5
    },
    "Load_per_bus_per_stop": {
        "bus0": {
            "D": 70.29411764705883,
            "E": 73,
            "F": 73.94117647058823,
            "G": 76.3529411764706,
            "H": 76.82352941176471,
            "I": 75.17647058823529,
            "J": 76.6470588235294,
            "K": 78.29411764705883,
            "L": 78.23529411764706,
            "A": 78.75,
            "B": 76.75,
            "C": 75.0625
        },
        "bus1": {
            "F": 70.88235294117646,
            "G": 71.52941176470588,
            "H": 71.47058823529412,
            "I": 72.41176470588235,
            "J": 73.82352941176471,
            "K": 73.41176470588235,
            "L": 71.76470588235294,
            "A": 70.94117647058823,
            "B": 70.88235294117646,
            "C": 71.375,
            "D": 72.375,
            "E": 73.25
        },
        "bus2": {
            "H": 73.23529411764706,
            "I": 72.70588235294117,
            "J": 72.41176470588235,
            "K": 72.23529411764706,
            "L": 73.3529411764706,
            "A": 75,
            "B": 75.29411764705883,
            "C": 74.52941176470588,
            "D": 76.88235294117646,
            "E": 78.125,
            "F": 78.6875,
            "G": 78.1875
        },
        "bus3": {
            "I": 76.6470588235294,
            "J": 74.82352941176471,
            "K": 73.29411764705883,
            "L": 75.70588235294117,
            "A": 75.29411764705883,
            "B": 75.52941176470588,
            "C": 77.47058823529412,
            "D": 77.05882352941177,
            "E": 76.76470588235294,
            "F": 77.70588235294117,
            "G": 80.0625,
            "H": 81.25
        },
        "bus4": {
            "K": 72.70588235294117,
            "L": 72.6470588235294,
            "A": 71.94117647058823,
            "B": 72.58823529411765,
            "C": 72.82352941176471,
            "D": 74.52941176470588,
            "E": 75.11764705882354,
            "F": 77.17647058823529,
            "G": 74.23529411764706,
            "H": 75.47058823529412,
            "I": 75.8125,
            "J": 76
        },
        "bus5": {
            "A": 69.52941176470588,
            "B": 70.70588235294117,
            "C": 71.82352941176471,
            "D": 74.05882352941177,
            "E": 73.17647058823529,
            "F": 74.3529411764706,
            "G": 75.88235294117646,
            "H": 76.41176470588235,
            "I": 75.58823529411765,
            "J": 75.41176470588235,
            "K": 75.4375,
            "L": 75.6875
        }
    }
}