{
    "Average_holding_time": 25.28236316246742,
    "Average_travel_time_passengers": 2604.441474017587,
    "Average_speed_busses": 0.04795833333333333,
    "Average_experienced_crowding": 76.73376502180679,
    "Average_covariation_headway": 0.12451956628000149,
    "Average_covariation_headway_stops": {
        "C": 0.1081684292382377,
        "D": 0.10032124420630383,
        "I": 0.16005488095509496,
        "J": 0.15385259259503978,
        "K": 0.14913475918616995,
        "L": 0.14976953804359572,
        "E": 0.06957437109263814,
        "A": 0.12018814164761334,
        "B": 0.09734263313083977,
        "F": 0.05986243518673995,
        "G": 0.08802059147292918,
        "H": 0.13187816002072225
    },
    "Average_excess_waiting_time": {
        "C": 48.92688734497909,
        "D": 46.78273802445119,
        "I": 56.45537543827527,
        "J": 54.185180208507404,
        "K": 52.223003538935586,
        "L": 50.696625643977484,
        "E": 46.66984621157388,
        "A": 49.97847722885524,
        "B": 49.97013980239916,
        "F": 47.87414955456103,
        "G": 50.99260627046516,
        "H": 55.60329078832143
    },
    "Holding_per_stop": {
        "D": 25.97938144329897,
        "L": 29.072164948453608,
        "K": 29.0625,
        "J": 28.4375,
        "I": 27.789473684210527,
        "C": 25.3125,
        "A": 13.75,
        "E": 28.125,
        "F": 25.625,
        "B": 20.625,
        "G": 24.31578947368421,
        "H": 25.263157894736842
    },
    "Load_per_bus_per_stop": {
        "bus0": {
            "C": 66.75,
            "D": 67.5625,
            "E": 68.25,
            "F": 70.375,
            "G": 70.25,
            "H": 72.125,
            "I": 73.8125,
            "J": 72.25,
            "K": 73.25,
            "L": 73.75,
            "A": 73.9375,
            "B": 71.1875
        },
        "bus1": {
            "D": 78.47058823529412,
            "E": 78.0625,
            "F": 76.5625,
            "G": 75.375,
            "H": 77.1875,
            "I": 79.5625,
            "J": 81.5625,
            "K": 82.875,
            "L": 84.1875,
            "A": 83.625,
            "B": 83.5625,
            "C": 83.8125
        },
        "bus2": {
            "I": 72.5625,
            "J": 73.0625,
            "K": 73.8125,
            "L": 74.0625,
            "A": 74.625,
            "B": 73.4375,
            "C": 73.25,
            "D": 73.125,
            "E": 72.5625,
            "F": 71.4375,
            "G": 73.73333333333333,
            "H": 75.13333333333334
        },
        "bus3": {
            "J": 71.5,
            "K": 71.9375,
            "L": 74.375,
            "A": 75.875,
            "B": 77.75,
            "C": 78.75,
            "D": 78.8125,
            "E": 79.125,
            "F": 78.1875,
            "G": 77.9375,
            "H": 76.4375,
            "I": 75.6
        },
        "bus4": {
            "K": 73.875,
            "L": 74.6875,
            "A": 76.0625,
            "B": 77,
            "C": 76.4375,
            "D": 76.8125,
            "E": 76.0625,
            "F": 76.375,
            "G": 77.875,
            "H": 76.8125,
            "I": 75.9375,
            "J": 76.75
        },
        "bus5": {
            "L": 75.76470588235294,
            "A": 76.25,
            "B": 75.9375,
            "C": 76.5625,
            "D": 78.25,
            "E": 76.875,
            "F": 77.6875,
            "G": 78.875,
            "H": 80.4375,
            "I": 80.75,
            "J": 79.8125,
            "K": 79.25
        }
    }
}