{
    "Average_holding_time": 12.541390728476822,
    "Average_travel_time_passengers": 2535.1441311411663,
    "Average_speed_busses": 0.050333333333333334,
    "Average_experienced_crowding": 75.46786032966025,
    "Average_covariation_headway": 0.1227839495878449,
    "Average_covariation_headway_stops": {
        "C": 0.12049180705803367,
        "D": 0.11597687127742769,
        "E": 0.12108939904752898,
        "F": 0.1271690335855868,
        "I": 0.11355330087493141,
        "A": 0.13703349405590298,
        "J": 0.09501893704160988,
        "G": 0.09551132576290634,
        "B": 0.11260988759740616,
        "K": 0.09322377142093427,
        "H": 0.09420077269842636,
        "L": 0.11622190139155107
    },
    "Average_excess_waiting_time": {
        "C": 38.54264798894246,
        "D": 36.66496796785333,
        "E": 35.50931207878858,
        "F": 34.38474105182485,
        "I": 34.83197689848481,
        "A": 39.693591230282095,
        "J": 35.11108653058278,
        "G": 33.670033694286985,
        "B": 39.321503145627275,
        "K": 36.660453932777216,
        "H": 35.27539036774317,
        "L": 39.55650509559854
    },
    "Holding_per_stop": {
        "I": 15.445544554455445,
        "D": 13.96039603960396,
        "E": 5.346534653465347,
        "F": 15.882352941176471,
        "A": 4.5,
        "C": 14.7,
        "J": 12.178217821782178,
        "G": 11.584158415841584,
        "B": 8.4,
        "H": 11.584158415841584,
        "K": 23.7,
        "L": 13.2
    },
    "Load_per_bus_per_stop": {
        "bus0": {
            "C": 70.23529411764706,
            "D": 70.29411764705883,
            "E": 71.47058823529412,
            "F": 72.11764705882354,
            "G": 72.41176470588235,
            "H": 73.70588235294117,
            "I": 74.47058823529412,
            "J": 76.11764705882354,
            "K": 76.9375,
            "L": 76.75,
            "A": 74.9375,
            "B": 74.1875
        },
        "bus1": {
            "D": 70.05882352941177,
            "E": 69.88235294117646,
            "F": 70.70588235294117,
            "G": 70.52941176470588,
            "H": 70.58823529411765,
            "I": 70.82352941176471,
            "J": 72.47058823529412,
            "K": 73.47058823529412,
            "L": 73.29411764705883,
            "A": 74.375,
            "B": 74.875,
            "C": 74.5625
        },
        "bus2": {
            "E": 72.6470588235294,
            "F": 72.11764705882354,
            "G": 70.6470588235294,
            "H": 71.82352941176471,
            "I": 71.76470588235294,
            "J": 71.88235294117646,
            "K": 72.11764705882354,
            "L": 74.82352941176471,
            "A": 76,
            "B": 77.41176470588235,
            "C": 79.3125,
            "D": 76.875
        },
        "bus3": {
            "F": 74.41176470588235,
            "G": 74.41176470588235,
            "H": 75.23529411764706,
            "I": 75.6470588235294,
            "J": 76.58823529411765,
            "K": 76.47058823529412,
            "L": 76.11764705882354,
            "A": 77.29411764705883,
            "B": 80.17647058823529,
            "C": 81.11764705882354,
            "D": 79.76470588235294,
            "E": 79.5625
        },
        "bus4": {
            "I": 75.52941176470588,
            "J": 75.29411764705883,
            "K": 74.94117647058823,
            "L": 75.52941176470588,
            "A": 75.41176470588235,
            "B": 77.41176470588235,
            "C": 78.29411764705883,
            "D": 79.17647058823529,
            "E": 79,
            "F": 80.41176470588235,
            "G": 80.5,
            "H": 80.875
        },
        "bus5": {
            "A": 69.52941176470588,
            "B": 71.6470588235294,
            "C": 73.82352941176471,
            "D": 75.94117647058823,
            "E": 76.17647058823529,
            "F": 75.3529411764706,
            "G": 75.88235294117646,
            "H": 76.52941176470588,
            "I": 78.375,
            "J": 75.6875,
            "K": 74.125,
            "L": 73.9375
        }
    }
}