{
    "Average_holding_time": 20.04255319148936,
    "Average_travel_time_passengers": 2603.2278945438243,
    "Average_speed_busses": 0.04895833333333333,
    "Average_experienced_crowding": 77.04494309718945,
    "Average_covariation_headway": 0.21636979540071266,
    "Average_covariation_headway_stops": {
        "B": 0.2129401585321153,
        "C": 0.2071770280294075,
        "E": 0.1780832237681819,
        "F": 0.17213141760076525,
        "L": 0.23355965787054667,
        "A": 0.22038336540973685,
        "D": 0.17765400771554418,
        "G": 0.15015369144330298,
        "H": 0.15114752719506536,
        "I": 0.14758015591002416,
        "J": 0.1815368078094984,
        "K": 0.22125156867970033
    },
    "Average_excess_waiting_time": {
        "B": 53.938554979789956,
        "C": 51.459533324312076,
        "E": 48.206046739081444,
        "F": 46.468925626569956,
        "L": 59.86949904026358,
        "A": 56.53022651661547,
        "D": 49.903123809822205,
        "G": 45.36659377233241,
        "H": 47.28760014329566,
        "I": 48.48320055322728,
        "J": 53.21156633336432,
        "K": 59.955892205145744
    },
    "Holding_per_stop": {
        "C": 23.939393939393938,
        "E": 21.21212121212121,
        "F": 19.393939393939394,
        "B": 14.081632653061224,
        "A": 8.26530612244898,
        "L": 20.103092783505154,
        "D": 15,
        "G": 21.122448979591837,
        "H": 18.979591836734695,
        "I": 21.649484536082475,
        "J": 30.61855670103093,
        "K": 26.288659793814432
    },
    "Load_per_bus_per_stop": {
        "bus0": {
            "B": 74.05882352941177,
            "C": 74.17647058823529,
            "D": 72.94117647058823,
            "E": 73.23529411764706,
            "F": 72.875,
            "G": 74.8125,
            "H": 75.6875,
            "I": 76.75,
            "J": 78.625,
            "K": 76.625,
            "L": 76.375,
            "A": 77.25
        },
        "bus1": {
            "C": 72.6470588235294,
            "D": 71.6470588235294,
            "E": 74.11764705882354,
            "F": 74.82352941176471,
            "G": 74.3125,
            "H": 73.1875,
            "I": 75.5,
            "J": 76.0625,
            "K": 76.625,
            "L": 77,
            "A": 76.4375,
            "B": 76.25
        },
        "bus2": {
            "E": 67.47058823529412,
            "F": 68.6470588235294,
            "G": 67.94117647058823,
            "H": 68.17647058823529,
            "I": 67.82352941176471,
            "J": 68.25,
            "K": 69.75,
            "L": 70.125,
            "A": 71.3125,
            "B": 71.125,
            "C": 69.4375,
            "D": 71.5
        },
        "bus3": {
            "F": 80.52941176470588,
            "G": 82.17647058823529,
            "H": 81.76470588235294,
            "I": 83.82352941176471,
            "J": 83.05882352941177,
            "K": 84.17647058823529,
            "L": 82.1875,
            "A": 85.0625,
            "B": 84.625,
            "C": 85.125,
            "D": 85.1875,
            "E": 84.6875
        },
        "bus4": {
            "L": 76.76470588235294,
            "A": 77,
            "B": 77.3125,
            "C": 76.625,
            "D": 77.125,
            "E": 77.1875,
            "F": 77.5,
            "G": 77.0625,
            "H": 78.625,
            "I": 79.5625,
            "J": 80.9375,
            "K": 79.0625
        },
        "bus5": {
            "A": 71.05882352941177,
            "B": 71.41176470588235,
            "C": 73.3529411764706,
            "D": 73.4375,
            "E": 74.0625,
            "F": 76.3125,
            "G": 74.8125,
            "H": 74.625,
            "I": 75.0625,
            "J": 75.5,
            "K": 75.5625,
            "L": 75.0625
        }
    }
}