{
    "Average_holding_time": 15.85427135678392,
    "Average_travel_time_passengers": 2561.2238318593513,
    "Average_speed_busses": 0.04975,
    "Average_experienced_crowding": 74.8273426461666,
    "Average_covariation_headway": 0.12273877583154993,
    "Average_covariation_headway_stops": {
        "B": 0.09994890650369805,
        "D": 0.08196132359261678,
        "E": 0.09176039711213854,
        "H": 0.09432681115299574,
        "J": 0.08948699089310816,
        "A": 0.10381788039839676,
        "K": 0.0767688630949829,
        "F": 0.07219097358764366,
        "C": 0.0601607161378577,
        "I": 0.06868444739647087,
        "G": 0.06965171237385342,
        "L": 0.07227627727276344
    },
    "Average_excess_waiting_time": {
        "B": 38.301172440717664,
        "D": 37.32640737608472,
        "E": 36.30326988376055,
        "H": 37.96738752980457,
        "J": 37.65838880305006,
        "A": 39.99796827505838,
        "K": 38.43171993222654,
        "F": 37.06098705773104,
        "C": 38.06399426708447,
        "I": 38.0055950037941,
        "G": 38.36004853857372,
        "L": 39.95338571597341
    },
    "Holding_per_stop": {
        "J": 21.6,
        "E": 9,
        "B": 8.4,
        "H": 14.1,
        "D": 9.6,
        "A": 6.666666666666667,
        "F": 18.6,
        "C": 19.09090909090909,
        "K": 37.878787878787875,
        "I": 16.060606060606062,
        "G": 10.606060606060606,
        "L": 18.78787878787879
    },
    "Load_per_bus_per_stop": {
        "bus0": {
            "B": 71.70588235294117,
            "C": 71.3529411764706,
            "D": 72.76470588235294,
            "E": 71.88235294117646,
            "F": 71.6470588235294,
            "G": 72.47058823529412,
            "H": 72.3529411764706,
            "I": 74.1875,
            "J": 74.875,
            "K": 73.75,
            "L": 73.75,
            "A": 75.0625
        },
        "bus1": {
            "D": 70.6470588235294,
            "E": 70.23529411764706,
            "F": 71.76470588235294,
            "G": 71.70588235294117,
            "H": 73.29411764705883,
            "I": 73.94117647058823,
            "J": 74.23529411764706,
            "K": 73.75,
            "L": 74.75,
            "A": 73.8125,
            "B": 74.875,
            "C": 74.3125
        },
        "bus2": {
            "E": 71.76470588235294,
            "F": 70.05882352941177,
            "G": 70.23529411764706,
            "H": 70.47058823529412,
            "I": 71.47058823529412,
            "J": 69.76470588235294,
            "K": 71.6470588235294,
            "L": 72.05882352941177,
            "A": 73.125,
            "B": 72.6875,
            "C": 74.3125,
            "D": 75.3125
        },
        "bus3": {
            "H": 75.05882352941177,
            "I": 76.52941176470588,
            "J": 76.70588235294117,
            "K": 77.6470588235294,
            "L": 78.29411764705883,
            "A": 78.52941176470588,
            "B": 77.70588235294117,
            "C": 77.5625,
            "D": 77.875,
            "E": 77.5,
            "F": 77,
            "G": 78.5625
        },
        "bus4": {
            "J": 73.6470588235294,
            "K": 74.17647058823529,
            "L": 77.47058823529412,
            "A": 78.29411764705883,
            "B": 78,
            "C": 77.70588235294117,
            "D": 76.82352941176471,
            "E": 78,
            "F": 77.4375,
            "G": 77.9375,
            "H": 78.4375,
            "I": 77.875
        },
        "bus5": {
            "A": 72.11764705882354,
            "B": 71.6470588235294,
            "C": 71.76470588235294,
            "D": 71,
            "E": 73.17647058823529,
            "F": 71.52941176470588,
            "G": 72.9375,
            "H": 75.0625,
            "I": 76.6875,
            "J": 77.5625,
            "K": 74.9375,
            "L": 75.875
        }
    }
}