{
    "Average_holding_time": 10.78318219291014,
    "Average_travel_time_passengers": 2517.057698319235,
    "Average_speed_busses": 0.050541666666666665,
    "Average_experienced_crowding": 75.19957230828652,
    "Average_covariation_headway": 0.1541766653316556,
    "Average_covariation_headway_stops": {
        "B": 0.12438520846045378,
        "F": 0.13565653980493622,
        "G": 0.12564453964051828,
        "H": 0.12203226567999714,
        "I": 0.12831506312747246,
        "A": 0.1379883603558412,
        "C": 0.09388583889910317,
        "J": 0.10116924441810728,
        "K": 0.10462117542508832,
        "D": 0.08752606410575607,
        "L": 0.12791115553605742,
        "E": 0.11413067965115856
    },
    "Average_excess_waiting_time": {
        "B": 34.27565116879913,
        "F": 38.06942647430162,
        "G": 35.66689893047982,
        "H": 33.88811360587363,
        "I": 32.81092421017348,
        "A": 36.83954549361533,
        "C": 33.615063288934266,
        "J": 32.42055703172491,
        "K": 34.18256495451561,
        "D": 35.10364219338561,
        "L": 37.28363875795344,
        "E": 37.97533051842544
    },
    "Holding_per_stop": {
        "B": 7.0588235294117645,
        "I": 12.058823529411764,
        "H": 9.705882352941176,
        "G": 7.7227722772277225,
        "A": 5.643564356435643,
        "F": 10.2,
        "J": 12.352941176470589,
        "C": 14.554455445544555,
        "K": 18.415841584158414,
        "D": 8.4,
        "L": 16.336633663366335,
        "E": 6.9
    },
    "Load_per_bus_per_stop": {
        "bus0": {
            "B": 72.52941176470588,
            "C": 72.11764705882354,
            "D": 73.52941176470588,
            "E": 74.82352941176471,
            "F": 77.3529411764706,
            "G": 79.3529411764706,
            "H": 77.94117647058823,
            "I": 78.11764705882354,
            "J": 77.76470588235294,
            "K": 77.23529411764706,
            "L": 77.17647058823529,
            "A": 78
        },
        "bus1": {
            "F": 72.11764705882354,
            "G": 72.23529411764706,
            "H": 72.23529411764706,
            "I": 74.11764705882354,
            "J": 74.88235294117646,
            "K": 76.29411764705883,
            "L": 74.76470588235294,
            "A": 74,
            "B": 75.76470588235294,
            "C": 75.375,
            "D": 75.6875,
            "E": 74.1875
        },
        "bus2": {
            "G": 70.41176470588235,
            "H": 70.88235294117646,
            "I": 71.52941176470588,
            "J": 71.47058823529412,
            "K": 70.82352941176471,
            "L": 72.3529411764706,
            "A": 73.58823529411765,
            "B": 74.17647058823529,
            "C": 74.29411764705883,
            "D": 74.52941176470588,
            "E": 74.5,
            "F": 73.1875
        },
        "bus3": {
            "H": 73.23529411764706,
            "I": 73.76470588235294,
            "J": 75.70588235294117,
            "K": 74.52941176470588,
            "L": 75.70588235294117,
            "A": 74.41176470588235,
            "B": 75.70588235294117,
            "C": 76.76470588235294,
            "D": 76.41176470588235,
            "E": 77,
            "F": 77.11764705882354,
            "G": 77.125
        },
        "bus4": {
            "I": 73.05882352941177,
            "J": 74.41176470588235,
            "K": 75.47058823529412,
            "L": 74.41176470588235,
            "A": 75.58823529411765,
            "B": 78.11764705882354,
            "C": 79.70588235294117,
            "D": 77.29411764705883,
            "E": 77.82352941176471,
            "F": 78.76470588235294,
            "G": 79.76470588235294,
            "H": 76.23529411764706
        },
        "bus5": {
            "A": 71.82352941176471,
            "B": 71.58823529411765,
            "C": 72.6470588235294,
            "D": 70.76470588235294,
            "E": 72.11764705882354,
            "F": 71.52941176470588,
            "G": 72.47058823529412,
            "H": 73.11764705882354,
            "I": 73.94117647058823,
            "J": 76.41176470588235,
            "K": 75.375,
            "L": 76.4375
        }
    }
}