{
    "Average_holding_time": 17.806943268416596,
    "Average_travel_time_passengers": 2568.8111189183437,
    "Average_speed_busses": 0.04920833333333333,
    "Average_experienced_crowding": 76.11611242083426,
    "Average_covariation_headway": 0.1547448741698304,
    "Average_covariation_headway_stops": {
        "C": 0.12697616537595116,
        "F": 0.12499867947407024,
        "H": 0.10618899626703607,
        "I": 0.11421075761981851,
        "K": 0.11389926913012675,
        "L": 0.13398140484262083,
        "D": 0.10172550836822643,
        "J": 0.09402964544325004,
        "A": 0.10713945082138895,
        "G": 0.09626970262021234,
        "B": 0.1129069619303747,
        "E": 0.10743539968571886
    },
    "Average_excess_waiting_time": {
        "C": 42.5541078645586,
        "F": 43.67716822755739,
        "H": 42.656284068052514,
        "I": 41.54235868736481,
        "K": 41.38302621726342,
        "L": 41.266149022774925,
        "D": 41.98597300972756,
        "J": 41.75561976430453,
        "A": 40.73783573381314,
        "G": 43.1758742214958,
        "B": 42.46265948168303,
        "E": 43.81472243704974
    },
    "Holding_per_stop": {
        "C": 21.818181818181817,
        "I": 21.515151515151516,
        "K": 30.606060606060606,
        "L": 21.515151515151516,
        "F": 15.612244897959183,
        "H": 17.142857142857142,
        "A": 5.757575757575758,
        "J": 22.653061224489797,
        "D": 15.306122448979592,
        "G": 15.612244897959183,
        "B": 11.63265306122449,
        "E": 14.387755102040817
    },
    "Load_per_bus_per_stop": {
        "bus0": {
            "C": 74.6470588235294,
            "D": 75.76470588235294,
            "E": 78.58823529411765,
            "F": 78.94117647058823,
            "G": 79.23529411764706,
            "H": 78.4375,
            "I": 75.75,
            "J": 74.875,
            "K": 76.8125,
            "L": 77.5625,
            "A": 76.625,
            "B": 77
        },
        "bus1": {
            "F": 77,
            "G": 76.17647058823529,
            "H": 76.47058823529412,
            "I": 76.88235294117646,
            "J": 77.375,
            "K": 78.1875,
            "L": 78.5,
            "A": 79.125,
            "B": 79.8125,
            "C": 80.1875,
            "D": 81.375,
            "E": 82.375
        },
        "bus2": {
            "H": 70.41176470588235,
            "I": 71.41176470588235,
            "J": 72.29411764705883,
            "K": 73,
            "L": 72.88235294117646,
            "A": 73.0625,
            "B": 74.5,
            "C": 76,
            "D": 76.3125,
            "E": 75.75,
            "F": 75,
            "G": 75.875
        },
        "bus3": {
            "I": 74.29411764705883,
            "J": 74.88235294117646,
            "K": 75.52941176470588,
            "L": 75.17647058823529,
            "A": 76.3529411764706,
            "B": 77.9375,
            "C": 78.6875,
            "D": 78.125,
            "E": 77.75,
            "F": 79.6875,
            "G": 78.5,
            "H": 79.125
        },
        "bus4": {
            "K": 67.17647058823529,
            "L": 67.11764705882354,
            "A": 66.11764705882354,
            "B": 66.29411764705883,
            "C": 67.52941176470588,
            "D": 64.25,
            "E": 67.125,
            "F": 66.75,
            "G": 69,
            "H": 70.6875,
            "I": 70.5625,
            "J": 70.5625
        },
        "bus5": {
            "L": 76.23529411764706,
            "A": 75.82352941176471,
            "B": 76.82352941176471,
            "C": 77.3529411764706,
            "D": 78.41176470588235,
            "E": 77.82352941176471,
            "F": 79.47058823529412,
            "G": 78.375,
            "H": 80.3125,
            "I": 79.75,
            "J": 80.1875,
            "K": 79.75
        }
    }
}