{
    "Average_holding_time": 32.855871886120994,
    "Average_travel_time_passengers": 2693.708072755426,
    "Average_speed_busses": 0.04683333333333333,
    "Average_experienced_crowding": 79.18172132481051,
    "Average_covariation_headway": 0.13379062367771669,
    "Average_covariation_headway_stops": {
        "B": 0.1521225429726262,
        "C": 0.1500235548441625,
        "D": 0.14604924083337545,
        "F": 0.13045555020302002,
        "G": 0.13252646207943447,
        "L": 0.1725284218413137,
        "E": 0.11980106006090827,
        "H": 0.10426638290267681,
        "A": 0.14431683040318596,
        "I": 0.0938447691516223,
        "J": 0.11361732584325648,
        "K": 0.1451631810434296
    },
    "Average_excess_waiting_time": {
        "B": 63.28916782612896,
        "C": 61.37119722708866,
        "D": 59.03447762308383,
        "F": 57.809277634476416,
        "G": 56.22952861228828,
        "L": 65.53559987156245,
        "E": 58.662901943024906,
        "H": 56.14786939071928,
        "A": 64.56500846107849,
        "I": 57.19097271671575,
        "J": 60.11557484462577,
        "K": 64.41252409867906
    },
    "Holding_per_stop": {
        "D": 32.87234042553192,
        "G": 33.473684210526315,
        "C": 37.02127659574468,
        "F": 34.787234042553195,
        "L": 32.58064516129032,
        "B": 32.25806451612903,
        "H": 33.51063829787234,
        "E": 32.5531914893617,
        "A": 28.387096774193548,
        "I": 30.638297872340427,
        "J": 32.58064516129032,
        "K": 33.54838709677419
    },
    "Load_per_bus_per_stop": {
        "bus0": {
            "B": 76.25,
            "C": 74.9375,
            "D": 76.5,
            "E": 76.125,
            "F": 77.75,
            "G": 77.875,
            "H": 77.66666666666667,
            "I": 78.8,
            "J": 78.6,
            "K": 79.86666666666666,
            "L": 79.6,
            "A": 81.26666666666667
        },
        "bus1": {
            "C": 74.1875,
            "D": 75.0625,
            "E": 76.625,
            "F": 77.8125,
            "G": 77.6875,
            "H": 76.625,
            "I": 77.375,
            "J": 77.46666666666667,
            "K": 77.26666666666667,
            "L": 76.13333333333334,
            "A": 78.4,
            "B": 78.86666666666666
        },
        "bus2": {
            "D": 75.75,
            "E": 76.125,
            "F": 76.6875,
            "G": 75.8125,
            "H": 75.375,
            "I": 77.9375,
            "J": 79.3125,
            "K": 77.5,
            "L": 78.33333333333333,
            "A": 79.26666666666667,
            "B": 78.73333333333333,
            "C": 79.2
        },
        "bus3": {
            "F": 70.6875,
            "G": 69.75,
            "H": 70.3125,
            "I": 71.4375,
            "J": 71.8125,
            "K": 71.8125,
            "L": 72.625,
            "A": 72.25,
            "B": 72.73333333333333,
            "C": 74.2,
            "D": 75.13333333333334,
            "E": 74.53333333333333
        },
        "bus4": {
            "G": 79.5,
            "H": 81.5625,
            "I": 83.0625,
            "J": 85.5,
            "K": 86.8125,
            "L": 87.5,
            "A": 89.8125,
            "B": 89.625,
            "C": 88.5,
            "D": 88.4,
            "E": 87.6,
            "F": 85.26666666666667
        },
        "bus5": {
            "L": 74.25,
            "A": 75.1875,
            "B": 75.625,
            "C": 76.8125,
            "D": 77.25,
            "E": 76.625,
            "F": 78.8,
            "G": 80.06666666666666,
            "H": 78.86666666666666,
            "I": 78.06666666666666,
            "J": 79.4,
            "K": 78.8
        }
    }
},
            "I": 87.26666666666667
        }
    }
}