{
    "Average_holding_time": 29.076517150395777,
    "Average_travel_time_passengers": 2682.0150972793485,
    "Average_speed_busses": 0.047375,
    "Average_experienced_crowding": 79.63041693662075,
    "Average_covariation_headway": 0.09861455411772557,
    "Average_covariation_headway_stops": {
        "C": 0.08996670451985567,
        "E": 0.08016960813547787,
        "H": 0.08290200329794602,
        "J": 0.08262461709141938,
        "L": 0.0774177714568371,
        "A": 0.08650479180801798,
        "F": 0.04841831164562094,
        "B": 0.061406951379301265,
        "D": 0.05905634307820086,
        "K": 0.054534369611846205,
        "I": 0.04957757458679116,
        "G": 0.051770946825646987
    },
    "Average_excess_waiting_time": {
        "C": 51.93268313878127,
        "E": 51.44221610690556,
        "H": 53.238988745644235,
        "J": 53.12929601947093,
        "L": 52.85896281569211,
        "A": 51.642470736807695,
        "F": 51.9009149767798,
        "B": 52.31408974556683,
        "D": 52.15185136007233,
        "K": 53.58222107505782,
        "I": 53.46319766118194,
        "G": 53.56485071379461
    },
    "Holding_per_stop": {
        "E": 25.57894736842105,
        "A": 41.05263157894737,
        "C": 21.789473684210527,
        "J": 28.105263157894736,
        "H": 29.68421052631579,
        "L": 31.57894736842105,
        "F": 27.789473684210527,
        "B": 31.894736842105264,
        "D": 24.63157894736842,
        "I": 28.085106382978722,
        "K": 32.5531914893617,
        "G": 26.170212765957448
    },
    "Load_per_bus_per_stop": {
        "bus0": {
            "C": 78.5625,
            "D": 80.375,
            "E": 80.875,
            "F": 82.5,
            "G": 82.4375,
            "H": 81.625,
            "I": 81.125,
            "J": 81.125,
            "K": 82.4375,
            "L": 82.625,
            "A": 82.26666666666667,
            "B": 83.06666666666666
        },
        "bus1": {
            "E": 73.1875,
            "F": 75.125,
            "G": 75.9375,
            "H": 78,
            "I": 80.4375,
            "J": 81,
            "K": 79,
            "L": 78.875,
            "A": 79.3125,
            "B": 78.5625,
            "C": 79,
            "D": 78.93333333333334
        },
        "bus2": {
            "H": 73.6875,
            "I": 76.5,
            "J": 79.5625,
            "K": 79.625,
            "L": 79.875,
            "A": 78.25,
            "B": 78.5,
            "C": 80.4375,
            "D": 79.1875,
            "E": 77.53333333333333,
            "F": 77.6,
            "G": 75.8
        },
        "bus3": {
            "J": 74.5,
            "K": 75.5625,
            "L": 78.125,
            "A": 77.75,
            "B": 79.4375,
            "C": 80.8125,
            "D": 78.9375,
            "E": 79.9375,
            "F": 78.4375,
            "G": 80.06666666666666,
            "H": 80.46666666666667,
            "I": 79.53333333333333
        },
        "bus4": {
            "L": 74.875,
            "A": 77.0625,
            "B": 77.3125,
            "C": 77.5,
            "D": 77,
            "E": 77,
            "F": 79,
            "G": 80.8125,
            "H": 80.5625,
            "I": 78.86666666666666,
            "J": 78.93333333333334,
            "K": 78.6
        },
        "bus5": {
            "A": 77.9375,
            "B": 77.25,
            "C": 79,
            "D": 79,
            "E": 80.125,
            "F": 81.125,
            "G": 81.625,
            "H": 80.375,
            "I": 81.4375,
            "J": 81.125,
            "K": 82.13333333333334,
            "L": 81.6
        }
    }
}