{
    "Average_holding_time": 24.757785467128027,
    "Average_travel_time_passengers": 2636.112844865936,
    "Average_speed_busses": 0.04816666666666667,
    "Average_experienced_crowding": 77.44204768024197,
    "Average_covariation_headway": 0.09365078677419672,
    "Average_covariation_headway_stops": {
        "B": 0.08446131338831656,
        "D": 0.07416774205516508,
        "F": 0.07291369691094535,
        "I": 0.08273200459855388,
        "J": 0.08755216291808762,
        "A": 0.08797280380970961,
        "K": 0.046054644533085685,
        "G": 0.03955969155763495,
        "C": 0.04760019420960329,
        "E": 0.04261012040144403,
        "L": 0.05234525086963486,
        "H": 0.045683804235362106
    },
    "Average_excess_waiting_time": {
        "B": 46.76227765148167,
        "D": 46.28430619948472,
        "F": 46.22796934749215,
        "I": 48.221638395120124,
        "J": 46.919464026136495,
        "A": 48.58017610637927,
        "K": 46.86068423055377,
        "G": 46.606515281293184,
        "C": 46.93644090620427,
        "E": 46.8295385959168,
        "L": 48.74278665749398,
        "H": 48.33246179649507
    },
    "Holding_per_stop": {
        "J": 27.216494845360824,
        "F": 25.97938144329897,
        "B": 25.051546391752577,
        "D": 25.670103092783506,
        "I": 29.0625,
        "A": 13.125,
        "K": 27.1875,
        "G": 26.25,
        "C": 22.1875,
        "E": 25,
        "L": 25.3125,
        "H": 25
    },
    "Load_per_bus_per_stop": {
        "bus0": {
            "B": 75.41176470588235,
            "C": 75.4375,
            "D": 74.625,
            "E": 75.9375,
            "F": 76.3125,
            "G": 78.5,
            "H": 79.875,
            "I": 81.3125,
            "J": 80.5625,
            "K": 80.75,
            "L": 80.625,
            "A": 79.25
        },
        "bus1": {
            "D": 75.52941176470588,
            "E": 76.375,
            "F": 77.25,
            "G": 77.25,
            "H": 80.1875,
            "I": 81,
            "J": 81.125,
            "K": 82.25,
            "L": 81.125,
            "A": 80.625,
            "B": 81.125,
            "C": 80.25
        },
        "bus2": {
            "F": 76.3529411764706,
            "G": 77.6875,
            "H": 75.875,
            "I": 77.0625,
            "J": 77.3125,
            "K": 77.125,
            "L": 81.375,
            "A": 79.3125,
            "B": 79.9375,
            "C": 80.625,
            "D": 81.6875,
            "E": 81.875
        },
        "bus3": {
            "I": 73.1875,
            "J": 74.125,
            "K": 74.25,
            "L": 75,
            "A": 75.5,
            "B": 75.8125,
            "C": 76.3125,
            "D": 76.9375,
            "E": 78.375,
            "F": 76.25,
            "G": 76.125,
            "H": 78.3125
        },
        "bus4": {
            "J": 72.52941176470588,
            "K": 71.25,
            "L": 72.1875,
            "A": 73.5625,
            "B": 75.9375,
            "C": 75.4375,
            "D": 76.0625,
            "E": 75.125,
            "F": 75.125,
            "G": 74.625,
            "H": 75.125,
            "I": 76.375
        },
        "bus5": {
            "A": 71.4375,
            "B": 73.1875,
            "C": 72.625,
            "D": 73.625,
            "E": 73.125,
            "F": 74.1875,
            "G": 75.4375,
            "H": 76.0625,
            "I": 76.125,
            "J": 77.0625,
            "K": 76.0625,
            "L": 75.0625
        }
    }
}.125,
            "L": 75.8
        }
    }
}