{
    "Average_holding_time": 9.25531914893617,
    "Average_travel_time_passengers": 2506.2345809912363,
    "Average_speed_busses": 0.050916666666666666,
    "Average_experienced_crowding": 74.54674190148666,
    "Average_covariation_headway": 0.27783766496983175,
    "Average_covariation_headway_stops": {
        "C": 0.1977779184958028,
        "D": 0.19676855580850053,
        "E": 0.1990334305479378,
        "F": 0.18608146880004955,
        "I": 0.18697060540342175,
        "A": 0.21173833521281635,
        "J": 0.17129306417621126,
        "G": 0.17014335389645835,
        "B": 0.19279059658416423,
        "H": 0.1724035434782125,
        "K": 0.17700991712396047,
        "L": 0.19274053326232674
    },
    "Average_excess_waiting_time": {
        "C": 41.29472442946377,
        "D": 39.714801488382534,
        "E": 38.52250405441845,
        "F": 34.709664120289176,
        "I": 36.15556518230619,
        "A": 43.108972826523484,
        "J": 36.534829481689314,
        "G": 34.55389018963285,
        "B": 43.078622649616364,
        "H": 36.14058467061318,
        "K": 38.49549287121272,
        "L": 42.44165513364942
    },
    "Holding_per_stop": {
        "D": 8.823529411764707,
        "E": 12.941176470588236,
        "I": 4.077669902912621,
        "F": 9.320388349514563,
        "C": 13.663366336633663,
        "A": 5.643564356435643,
        "G": 13.398058252427184,
        "J": 6.470588235294118,
        "H": 5.588235294117647,
        "K": 11.881188118811881,
        "B": 8.316831683168317,
        "L": 10.990099009900991
    },
    "Load_per_bus_per_stop": {
        "bus0": {
            "C": 67.3529411764706,
            "D": 68.6470588235294,
            "E": 67.70588235294117,
            "F": 69,
            "G": 67.23529411764706,
            "H": 69.11764705882354,
            "I": 69.17647058823529,
            "J": 71.05882352941177,
            "K": 69.88235294117646,
            "L": 70,
            "A": 70.17647058823529,
            "B": 70.25
        },
        "bus1": {
            "D": 78,
            "E": 77.3529411764706,
            "F": 79.05882352941177,
            "G": 80.47058823529412,
            "H": 83,
            "I": 83.17647058823529,
            "J": 85.23529411764706,
            "K": 85.47058823529412,
            "L": 85.52941176470588,
            "A": 85.70588235294117,
            "B": 84.58823529411765,
            "C": 82
        },
        "bus2": {
            "E": 70,
            "F": 68,
            "G": 67.58823529411765,
            "H": 68.6470588235294,
            "I": 68.29411764705883,
            "J": 69.11764705882354,
            "K": 68.94117647058823,
            "L": 71,
            "A": 70.3529411764706,
            "B": 70.47058823529412,
            "C": 71.58823529411765,
            "D": 72.05882352941177
        },
        "bus3": {
            "F": 74.61111111111111,
            "G": 75.33333333333333,
            "H": 76.17647058823529,
            "I": 78.29411764705883,
            "J": 77,
            "K": 76.94117647058823,
            "L": 74.6470588235294,
            "A": 74.52941176470588,
            "B": 75.94117647058823,
            "C": 76,
            "D": 76.82352941176471,
            "E": 78.52941176470588
        },
        "bus4": {
            "I": 68.22222222222223,
            "J": 69.6470588235294,
            "K": 70.6470588235294,
            "L": 70.76470588235294,
            "A": 71.17647058823529,
            "B": 71,
            "C": 72.23529411764706,
            "D": 71.3529411764706,
            "E": 71,
            "F": 72.05882352941177,
            "G": 71.82352941176471,
            "H": 70.58823529411765
        },
        "bus5": {
            "A": 64.94117647058823,
            "B": 65.88235294117646,
            "C": 68.52941176470588,
            "D": 68.05882352941177,
            "E": 69,
            "F": 69,
            "G": 69.58823529411765,
            "H": 68.58823529411765,
            "I": 70.3529411764706,
            "J": 68.11764705882354,
            "K": 67,
            "L": 67.1875
        }
    }
}     "H": 66.11764705882354,
            "I": 67.52941176470588,
            "J": 67.94117647058823,
            "K": 66.3529411764706
        }
    }
}