{
    "Average_holding_time": 9.655172413793103,
    "Average_travel_time_passengers": 2511.9931216749465,
    "Average_speed_busses": 0.05075,
    "Average_experienced_crowding": 76.33089901229049,
    "Average_covariation_headway": 0.2883695969864345,
    "Average_covariation_headway_stops": {
        "C": 0.19977487241739836,
        "D": 0.19451650458400985,
        "E": 0.19409713242981388,
        "H": 0.1913236822658698,
        "I": 0.191102471044544,
        "A": 0.20218532876280038,
        "J": 0.17191174367321363,
        "F": 0.17869069420884787,
        "B": 0.18692837027445727,
        "G": 0.17535748108868726,
        "K": 0.18475912982792553,
        "L": 0.18928752344201846
    },
    "Average_excess_waiting_time": {
        "C": 42.40574547796746,
        "D": 40.25292250621487,
        "E": 39.02591480727892,
        "H": 39.87992919246227,
        "I": 38.46365518216527,
        "A": 42.379473028136374,
        "J": 37.88786177953523,
        "F": 38.866408382889176,
        "B": 42.0519365450013,
        "G": 39.6865262191385,
        "K": 40.32137411377482,
        "L": 42.21450640161402
    },
    "Holding_per_stop": {
        "I": 8.235294117647058,
        "D": 8.823529411764707,
        "E": 7.647058823529412,
        "A": 4.455445544554456,
        "C": 20.792079207920793,
        "H": 12.352941176470589,
        "F": 11.470588235294118,
        "J": 7.352941176470588,
        "G": 6.534653465346534,
        "K": 10.396039603960396,
        "B": 3.8613861386138613,
        "L": 13.96039603960396
    },
    "Load_per_bus_per_stop": {
        "bus0": {
            "C": 69.41176470588235,
            "D": 68.47058823529412,
            "E": 69.94117647058823,
            "F": 69.76470588235294,
            "G": 69.76470588235294,
            "H": 69.76470588235294,
            "I": 70.94117647058823,
            "J": 70.29411764705883,
            "K": 71.29411764705883,
            "L": 72.70588235294117,
            "A": 74.1875,
            "B": 73.9375
        },
        "bus1": {
            "D": 63.94117647058823,
            "E": 64.23529411764706,
            "F": 64.52941176470588,
            "G": 63.11764705882353,
            "H": 64.41176470588235,
            "I": 64.41176470588235,
            "J": 65.23529411764706,
            "K": 65.94117647058823,
            "L": 66.52941176470588,
            "A": 65.88235294117646,
            "B": 65.23529411764706,
            "C": 67.125
        },
        "bus2": {
            "E": 84.82352941176471,
            "F": 86.52941176470588,
            "G": 86.11764705882354,
            "H": 84.88235294117646,
            "I": 85.05882352941177,
            "J": 84.47058823529412,
            "K": 84.94117647058823,
            "L": 85.76470588235294,
            "A": 84,
            "B": 85.05882352941177,
            "C": 86.70588235294117,
            "D": 88.29411764705883
        },
        "bus3": {
            "H": 67.41176470588235,
            "I": 67.41176470588235,
            "J": 67.82352941176471,
            "K": 68.23529411764706,
            "L": 66.41176470588235,
            "A": 68.70588235294117,
            "B": 71.94117647058823,
            "C": 72.23529411764706,
            "D": 72.47058823529412,
            "E": 73.6470588235294,
            "F": 71.94117647058823,
            "G": 71.75
        },
        "bus4": {
            "I": 75.17647058823529,
            "J": 75.29411764705883,
            "K": 77.41176470588235,
            "L": 79.52941176470588,
            "A": 81.88235294117646,
            "B": 82.29411764705883,
            "C": 82.88235294117646,
            "D": 84,
            "E": 84.17647058823529,
            "F": 84.58823529411765,
            "G": 83.41176470588235,
            "H": 82.58823529411765
        },
        "bus5": {
            "A": 70.05882352941177,
            "B": 68.58823529411765,
            "C": 68.52941176470588,
            "D": 69.94117647058823,
            "E": 70.3529411764706,
            "F": 70.76470588235294,
            "G": 70.88235294117646,
            "H": 73.88235294117646,
            "I": 73.82352941176471,
            "J": 73.94117647058823,
            "K": 73.6875,
            "L": 75.125
        }
    }
}