{
    "Average_holding_time": 9.589153656532456,
    "Average_travel_time_passengers": 2484.1050372623904,
    "Average_speed_busses": 0.050708333333333334,
    "Average_experienced_crowding": 74.17842726236164,
    "Average_covariation_headway": 0.09612624592405108,
    "Average_covariation_headway_stops": {
        "B": 0.08194177440215797,
        "D": 0.07983020967888833,
        "G": 0.09307798218785528,
        "I": 0.09153743308196655,
        "J": 0.08887890466419966,
        "K": 0.09967244776318444,
        "E": 0.06065497524136678,
        "L": 0.07112011194053751,
        "H": 0.06936222771806723,
        "C": 0.04632850887639627,
        "A": 0.05799927194928786,
        "F": 0.06461721175953034
    },
    "Average_excess_waiting_time": {
        "B": 30.77079291410024,
        "D": 30.730937137741478,
        "G": 32.91686186942991,
        "I": 32.76407725341511,
        "J": 31.065002629264427,
        "K": 30.125420667917524,
        "E": 31.344684609715898,
        "L": 30.25601015851504,
        "H": 33.16676927325085,
        "C": 30.759189553917736,
        "A": 31.337308515626717,
        "F": 32.83644046101517
    },
    "Holding_per_stop": {
        "J": 10.882352941176471,
        "D": 6.470588235294118,
        "K": 25,
        "G": 9.207920792079207,
        "I": 10.396039603960396,
        "B": 3.5294117647058822,
        "L": 11.176470588235293,
        "E": 5.0495049504950495,
        "C": 10.693069306930694,
        "H": 8.316831683168317,
        "A": 4.158415841584159,
        "F": 10.099009900990099
    },
    "Load_per_bus_per_stop": {
        "bus0": {
            "B": 71.52941176470588,
            "C": 73.17647058823529,
            "D": 73.23529411764706,
            "E": 73.17647058823529,
            "F": 73.52941176470588,
            "G": 74.58823529411765,
            "H": 73.88235294117646,
            "I": 74.47058823529412,
            "J": 74.52941176470588,
            "K": 74.6470588235294,
            "L": 73.3529411764706,
            "A": 73.5
        },
        "bus1": {
            "D": 72,
            "E": 73.29411764705883,
            "F": 76.05882352941177,
            "G": 77.6470588235294,
            "H": 78.3529411764706,
            "I": 80.52941176470588,
            "J": 79.29411764705883,
            "K": 79.17647058823529,
            "L": 77.3529411764706,
            "A": 76.52941176470588,
            "B": 76.6470588235294,
            "C": 76.25
        },
        "bus2": {
            "G": 69.47058823529412,
            "H": 72.82352941176471,
            "I": 71.6470588235294,
            "J": 75.3529411764706,
            "K": 77.3529411764706,
            "L": 76.47058823529412,
            "A": 75.3529411764706,
            "B": 74.3529411764706,
            "C": 74.82352941176471,
            "D": 74.6470588235294,
            "E": 73.8125,
            "F": 73.25
        },
        "bus3": {
            "I": 70.05882352941177,
            "J": 70.3529411764706,
            "K": 69.94117647058823,
            "L": 71.58823529411765,
            "A": 70.70588235294117,
            "B": 71.6470588235294,
            "C": 73.41176470588235,
            "D": 73.11764705882354,
            "E": 72.82352941176471,
            "F": 71.17647058823529,
            "G": 71.1875,
            "H": 73.125
        },
        "bus4": {
            "J": 66.11764705882354,
            "K": 68.52941176470588,
            "L": 68.41176470588235,
            "A": 68.47058823529412,
            "B": 69.41176470588235,
            "C": 71.05882352941177,
            "D": 69.41176470588235,
            "E": 69.11764705882354,
            "F": 70.94117647058823,
            "G": 72.47058823529412,
            "H": 72.52941176470588,
            "I": 71.8125
        },
        "bus5": {
            "K": 74.17647058823529,
            "L": 73.58823529411765,
            "A": 73.6470588235294,
            "B": 74.47058823529412,
            "C": 74.23529411764706,
            "D": 75.11764705882354,
            "E": 76.47058823529412,
            "F": 76.70588235294117,
            "G": 79.3529411764706,
            "H": 78.58823529411765,
            "I": 79.58823529411765,
            "J": 78.6470588235294
        }
    }
}7.25
        }
    }
}