{
    "Average_holding_time": 18.575063613231553,
    "Average_travel_time_passengers": 2573.6044034220035,
    "Average_speed_busses": 0.049125,
    "Average_experienced_crowding": 75.63096341737365,
    "Average_covariation_headway": 0.17963384781791847,
    "Average_covariation_headway_stops": {
        "B": 0.1644395637617285,
        "C": 0.1610791553150254,
        "D": 0.15845590017733557,
        "F": 0.14415116041602402,
        "G": 0.14066186301304007,
        "K": 0.15234861429989496,
        "H": 0.12010586677365338,
        "E": 0.14307233870037722,
        "L": 0.14399534717673274,
        "I": 0.12162966765871043,
        "A": 0.14813626282976297,
        "J": 0.12948515972748414
    },
    "Average_excess_waiting_time": {
        "B": 48.965391437235155,
        "C": 46.50026446379684,
        "D": 44.886094987519414,
        "F": 43.38838409989614,
        "G": 41.54209238709285,
        "K": 45.79512585087991,
        "H": 41.70383291454789,
        "E": 44.822700040149925,
        "L": 46.95875428565978,
        "I": 43.2742122944947,
        "A": 49.152723143375624,
        "J": 45.414379722133845
    },
    "Holding_per_stop": {
        "G": 20.303030303030305,
        "C": 26.3265306122449,
        "D": 16.363636363636363,
        "K": 25.714285714285715,
        "F": 23.333333333333332,
        "B": 10.714285714285714,
        "E": 16.53061224489796,
        "H": 17.272727272727273,
        "L": 21.428571428571427,
        "I": 19.897959183673468,
        "A": 3.402061855670103,
        "J": 21.428571428571427
    },
    "Load_per_bus_per_stop": {
        "bus0": {
            "B": 76.76470588235294,
            "C": 75.76470588235294,
            "D": 76.23529411764706,
            "E": 73.5625,
            "F": 74.0625,
            "G": 75.25,
            "H": 77.6875,
            "I": 76.1875,
            "J": 75.75,
            "K": 77.9375,
            "L": 79.0625,
            "A": 80
        },
        "bus1": {
            "C": 70,
            "D": 71.29411764705883,
            "E": 72.6470588235294,
            "F": 75.05882352941177,
            "G": 74.125,
            "H": 72.8125,
            "I": 73.5625,
            "J": 72.75,
            "K": 73.8125,
            "L": 73.5,
            "A": 74.125,
            "B": 73.6875
        },
        "bus2": {
            "D": 69.94117647058823,
            "E": 72,
            "F": 73.17647058823529,
            "G": 74.88235294117646,
            "H": 74.23529411764706,
            "I": 73.23529411764706,
            "J": 74.3125,
            "K": 75.1875,
            "L": 75,
            "A": 75.4375,
            "B": 74.1875,
            "C": 75.25
        },
        "bus3": {
            "F": 72.17647058823529,
            "G": 72.11764705882354,
            "H": 73.05882352941177,
            "I": 72.29411764705883,
            "J": 71.58823529411765,
            "K": 70.5625,
            "L": 69.8125,
            "A": 70.8125,
            "B": 71.5,
            "C": 72.3125,
            "D": 71.9375,
            "E": 74.5
        },
        "bus4": {
            "G": 74.70588235294117,
            "H": 75.88235294117646,
            "I": 76.3529411764706,
            "J": 76.58823529411765,
            "K": 75.94117647058823,
            "L": 76.94117647058823,
            "A": 78.125,
            "B": 79.625,
            "C": 80.5625,
            "D": 81.3125,
            "E": 81.1875,
            "F": 80.8125
        },
        "bus5": {
            "K": 70.76470588235294,
            "L": 72.58823529411765,
            "A": 73.23529411764706,
            "B": 75.6470588235294,
            "C": 75.8125,
            "D": 76.75,
            "E": 76.3125,
            "F": 73.875,
            "G": 74,
            "H": 74.4375,
            "I": 75.9375,
            "J": 76.8125
        }
    }
}    }
    }
}
            "J": 79.75,
            "K": 79.125
        }
    }
}