{
    "Average_holding_time": 32.35084594835263,
    "Average_travel_time_passengers": 2718.494410255327,
    "Average_speed_busses": 0.04679166666666667,
    "Average_experienced_crowding": 81.26701906368046,
    "Average_covariation_headway": 0.10734734901236116,
    "Average_covariation_headway_stops": {
        "B": 0.08344292507180952,
        "F": 0.11692578322161452,
        "G": 0.11495225122313382,
        "I": 0.09644994042109997,
        "K": 0.08376844349252488,
        "L": 0.09438379184988072,
        "C": 0.05372358862620213,
        "A": 0.06281722466379153,
        "H": 0.0839938367049945,
        "J": 0.05939514576909343,
        "D": 0.05376482285078269,
        "E": 0.09060385771326677
    },
    "Average_excess_waiting_time": {
        "B": 54.65513181399723,
        "F": 60.04646400711607,
        "G": 58.15371860350484,
        "I": 57.035805469682145,
        "K": 56.27364225199625,
        "L": 55.183845661070336,
        "C": 55.13902032721609,
        "A": 55.28046468037047,
        "H": 58.067310869713594,
        "J": 56.85955785280004,
        "D": 56.6202798848762,
        "E": 59.977179352425594
    },
    "Holding_per_stop": {
        "B": 30.638297872340427,
        "L": 30.95744680851064,
        "G": 31.595744680851062,
        "I": 33.51063829787234,
        "F": 33.54838709677419,
        "K": 33.51063829787234,
        "C": 32.87234042553192,
        "A": 28.404255319148938,
        "H": 33.54838709677419,
        "J": 36.45161290322581,
        "D": 31.612903225806452,
        "E": 31.612903225806452
    },
    "Load_per_bus_per_stop": {
        "bus0": {
            "B": 75.5,
            "C": 75.125,
            "D": 78.875,
            "E": 80.5,
            "F": 80.75,
            "G": 81,
            "H": 83.0625,
            "I": 82.5,
            "J": 83.06666666666666,
            "K": 83.93333333333334,
            "L": 81.6,
            "A": 82
        },
        "bus1": {
            "F": 74,
            "G": 75.125,
            "H": 74.5,
            "I": 77.3125,
            "J": 78.375,
            "K": 78.8125,
            "L": 79.6,
            "A": 80.2,
            "B": 81.06666666666666,
            "C": 79.86666666666666,
            "D": 78.53333333333333,
            "E": 78.4
        },
        "bus2": {
            "G": 83.4375,
            "H": 82.9375,
            "I": 83.1875,
            "J": 83.125,
            "K": 84.3125,
            "L": 84.875,
            "A": 83.3125,
            "B": 84.4,
            "C": 86.73333333333333,
            "D": 86.6,
            "E": 85.93333333333334,
            "F": 86.13333333333334
        },
        "bus3": {
            "I": 81.5,
            "J": 82.1875,
            "K": 82.5,
            "L": 83.5,
            "A": 81.9375,
            "B": 81.75,
            "C": 82.1875,
            "D": 81.53333333333333,
            "E": 84.26666666666667,
            "F": 84.06666666666666,
            "G": 83.46666666666667,
            "H": 85.2
        },
        "bus4": {
            "K": 76.5,
            "L": 77,
            "A": 76.9375,
            "B": 78.0625,
            "C": 78,
            "D": 78.875,
            "E": 80.6875,
            "F": 80.13333333333334,
            "G": 80.2,
            "H": 79.46666666666667,
            "I": 82.06666666666666,
            "J": 83.2
        },
        "bus5": {
            "L": 75.9375,
            "A": 76.6875,
            "B": 77.375,
            "C": 78.375,
            "D": 77.875,
            "E": 78.9375,
            "F": 79.3125,
            "G": 79,
            "H": 78.13333333333334,
            "I": 80.13333333333334,
            "J": 80.73333333333333,
            "K": 80.6
        }
    }
}