{
    "Average_holding_time": 9.344262295081966,
    "Average_travel_time_passengers": 2523.5890326910157,
    "Average_speed_busses": 0.050833333333333335,
    "Average_experienced_crowding": 76.68102994789437,
    "Average_covariation_headway": 0.28084659273930845,
    "Average_covariation_headway_stops": {
        "D": 0.19709644482415906,
        "E": 0.19710365020176748,
        "G": 0.1866428721891835,
        "H": 0.18488632786957307,
        "L": 0.20185482605026864,
        "A": 0.19676209752051232,
        "I": 0.1683635376891324,
        "B": 0.1820894823578692,
        "F": 0.18291738855291648,
        "C": 0.17792948259570146,
        "J": 0.17145576724880007,
        "K": 0.18937834870816006
    },
    "Average_excess_waiting_time": {
        "D": 41.13173867200675,
        "E": 39.61558593103399,
        "G": 38.44831507840257,
        "H": 36.75595102203249,
        "L": 42.4744446111539,
        "A": 40.44191834967205,
        "I": 36.79133707407129,
        "B": 39.50416650629171,
        "F": 39.528514003790804,
        "C": 40.569466513157295,
        "J": 38.49819252948157,
        "K": 42.3681127429262
    },
    "Holding_per_stop": {
        "H": 10.485436893203884,
        "A": 2.9411764705882355,
        "E": 11.470588235294118,
        "D": 10,
        "L": 12.475247524752476,
        "G": 8.235294117647058,
        "B": 5.346534653465347,
        "I": 9.705882352941176,
        "F": 13.235294117647058,
        "C": 11.584158415841584,
        "J": 8.910891089108912,
        "K": 7.7227722772277225
    },
    "Load_per_bus_per_stop": {
        "bus0": {
            "D": 67.05882352941177,
            "E": 68.6470588235294,
            "F": 69.6470588235294,
            "G": 71.29411764705883,
            "H": 72.23529411764706,
            "I": 73.17647058823529,
            "J": 73.47058823529412,
            "K": 72.17647058823529,
            "L": 72.52941176470588,
            "A": 72.11764705882354,
            "B": 70,
            "C": 69.875
        },
        "bus1": {
            "E": 66.3529411764706,
            "F": 67.47058823529412,
            "G": 68.6470588235294,
            "H": 67.82352941176471,
            "I": 68.29411764705883,
            "J": 68.88235294117646,
            "K": 69.05882352941177,
            "L": 67.82352941176471,
            "A": 69.3529411764706,
            "B": 69.6470588235294,
            "C": 71,
            "D": 70.23529411764706
        },
        "bus2": {
            "G": 65.82352941176471,
            "H": 66.88235294117646,
            "I": 65.70588235294117,
            "J": 66.11764705882354,
            "K": 67.23529411764706,
            "L": 67.17647058823529,
            "A": 65.88235294117646,
            "B": 67.11764705882354,
            "C": 68.82352941176471,
            "D": 69.41176470588235,
            "E": 70.41176470588235,
            "F": 69.70588235294117
        },
        "bus3": {
            "H": 84.16666666666667,
            "I": 85.23529411764706,
            "J": 86.05882352941177,
            "K": 87,
            "L": 87.70588235294117,
            "A": 89.3529411764706,
            "B": 89.23529411764706,
            "C": 88.52941176470588,
            "D": 89.88235294117646,
            "E": 91.05882352941177,
            "F": 90,
            "G": 88.6470588235294
        },
        "bus4": {
            "L": 76.47058823529412,
            "A": 77.23529411764706,
            "B": 77.3529411764706,
            "C": 78.47058823529412,
            "D": 79.17647058823529,
            "E": 79.41176470588235,
            "F": 81.29411764705883,
            "G": 81.76470588235294,
            "H": 82,
            "I": 82.05882352941177,
            "J": 81.47058823529412,
            "K": 80.9375
        },
        "bus5": {
            "A": 71.94117647058823,
            "B": 72.23529411764706,
            "C": 73.52941176470588,
            "D": 73.05882352941177,
            "E": 72.94117647058823,
            "F": 72.47058823529412,
            "G": 73.41176470588235,
            "H": 72.05882352941177,
            "I": 72.70588235294117,
            "J": 71.52941176470588,
            "K": 74.52941176470588,
            "L": 76.3125
        }
    }
}