{
    "Average_holding_time": 17.580101180438447,
    "Average_travel_time_passengers": 2591.4781934784055,
    "Average_speed_busses": 0.049416666666666664,
    "Average_experienced_crowding": 76.77482631395709,
    "Average_covariation_headway": 0.1522005804747584,
    "Average_covariation_headway_stops": {
        "D": 0.17711191209588603,
        "E": 0.16623798840114828,
        "F": 0.1591009962085295,
        "H": 0.12663545641632812,
        "J": 0.10862640435084445,
        "K": 0.11837704471911939,
        "I": 0.09942461576718543,
        "L": 0.09445258799493715,
        "G": 0.13133585180763444,
        "A": 0.10215783081142121,
        "B": 0.11552891087854822,
        "C": 0.15364807040643652
    },
    "Average_excess_waiting_time": {
        "D": 49.6821043020185,
        "E": 46.91122473875754,
        "F": 44.48645822522167,
        "H": 41.64582059355365,
        "J": 40.399228215240555,
        "K": 39.39721762118444,
        "I": 41.190673739884744,
        "L": 39.76605253722664,
        "G": 43.671281517085106,
        "A": 41.71781071074116,
        "B": 44.18774929916361,
        "C": 48.70247237719627
    },
    "Holding_per_stop": {
        "E": 13.93939393939394,
        "H": 15.757575757575758,
        "K": 33.6,
        "F": 16.060606060606062,
        "J": 23.939393939393938,
        "D": 13.16326530612245,
        "L": 23.636363636363637,
        "G": 13.636363636363637,
        "I": 22.727272727272727,
        "A": 6.666666666666667,
        "B": 11.326530612244898,
        "C": 16.224489795918366
    },
    "Load_per_bus_per_stop": {
        "bus0": {
            "D": 72.52941176470588,
            "E": 72.76470588235294,
            "F": 73.05882352941177,
            "G": 74.82352941176471,
            "H": 74.6875,
            "I": 75.3125,
            "J": 76,
            "K": 76.625,
            "L": 76.6875,
            "A": 77,
            "B": 76.25,
            "C": 77.3125
        },
        "bus1": {
            "E": 74.52941176470588,
            "F": 75.82352941176471,
            "G": 76.88235294117646,
            "H": 77.76470588235294,
            "I": 77.82352941176471,
            "J": 75.3125,
            "K": 76.375,
            "L": 76.6875,
            "A": 77.3125,
            "B": 80,
            "C": 78.75,
            "D": 78.8125
        },
        "bus2": {
            "F": 72.17647058823529,
            "G": 72.41176470588235,
            "H": 71.94117647058823,
            "I": 71.17647058823529,
            "J": 71.17647058823529,
            "K": 72.3529411764706,
            "L": 74.5,
            "A": 76.5,
            "B": 75.8125,
            "C": 76.625,
            "D": 77.875,
            "E": 78.5625
        },
        "bus3": {
            "H": 72.52941176470588,
            "I": 73.52941176470588,
            "J": 74.41176470588235,
            "K": 74.17647058823529,
            "L": 75,
            "A": 75.23529411764706,
            "B": 77.6875,
            "C": 78.75,
            "D": 79.5,
            "E": 76.75,
            "F": 76.4375,
            "G": 76.0625
        },
        "bus4": {
            "J": 69.82352941176471,
            "K": 70,
            "L": 71.11764705882354,
            "A": 71.41176470588235,
            "B": 71.11764705882354,
            "C": 71.88235294117646,
            "D": 73.375,
            "E": 72.25,
            "F": 71,
            "G": 71.625,
            "H": 72.25,
            "I": 73.0625
        },
        "bus5": {
            "K": 77.6470588235294,
            "L": 79.29411764705883,
            "A": 79.94117647058823,
            "B": 79,
            "C": 79.70588235294117,
            "D": 80.82352941176471,
            "E": 83.3529411764706,
            "F": 82.6875,
            "G": 83.5625,
            "H": 82.8125,
            "I": 83.4375,
            "J": 82.875
        }
    }
}