{
    "Average_holding_time": 6.232821341956346,
    "Average_travel_time_passengers": 2459.1109074403053,
    "Average_speed_busses": 0.051541666666666666,
    "Average_experienced_crowding": 72.88992445109051,
    "Average_covariation_headway": 0.23622129063321048,
    "Average_covariation_headway_stops": {
        "D": 0.1603651260640561,
        "E": 0.15872199383411395,
        "F": 0.15870649982055363,
        "H": 0.15986032697501787,
        "J": 0.1482640101365675,
        "A": 0.1531512746063128,
        "K": 0.13906144140262164,
        "I": 0.13761346863408322,
        "B": 0.14764866167441507,
        "G": 0.1561630163130224,
        "C": 0.14438030348938077,
        "L": 0.13904715969223064
    },
    "Average_excess_waiting_time": {
        "D": 34.043130480743685,
        "E": 32.49410994365974,
        "F": 31.046717210904376,
        "H": 31.131798539080023,
        "J": 30.530682326665783,
        "A": 32.080828084409745,
        "K": 31.143396524094328,
        "I": 30.42021448168049,
        "B": 32.975241113405275,
        "G": 32.24338052750693,
        "C": 34.092896282976824,
        "L": 32.61160924584357
    },
    "Holding_per_stop": {
        "J": 3.7864077669902914,
        "E": 4.368932038834951,
        "H": 15,
        "A": 3.7864077669902914,
        "F": 6.346153846153846,
        "D": 7.572815533980583,
        "I": 5.533980582524272,
        "B": 4.077669902912621,
        "K": 2.621359223300971,
        "G": 10.194174757281553,
        "L": 4.951456310679611,
        "C": 6.470588235294118
    },
    "Load_per_bus_per_stop": {
        "bus0": {
            "D": 74.11111111111111,
            "E": 75.29411764705883,
            "F": 75.23529411764706,
            "G": 75.47058823529412,
            "H": 77.17647058823529,
            "I": 79.29411764705883,
            "J": 78.88235294117646,
            "K": 79.11764705882354,
            "L": 78.11764705882354,
            "A": 78.76470588235294,
            "B": 78.70588235294117,
            "C": 79.17647058823529
        },
        "bus1": {
            "E": 66.16666666666667,
            "F": 67.5,
            "G": 66.41176470588235,
            "H": 66.88235294117646,
            "I": 67.41176470588235,
            "J": 67.47058823529412,
            "K": 68.3529411764706,
            "L": 67.76470588235294,
            "A": 68.11764705882354,
            "B": 69.76470588235294,
            "C": 71.47058823529412,
            "D": 69.88235294117646
        },
        "bus2": {
            "F": 64,
            "G": 63.94444444444444,
            "H": 65.27777777777777,
            "I": 63.411764705882355,
            "J": 64.3529411764706,
            "K": 66.76470588235294,
            "L": 64.58823529411765,
            "A": 65.88235294117646,
            "B": 67.6470588235294,
            "C": 68.76470588235294,
            "D": 69.05882352941177,
            "E": 68.6470588235294
        },
        "bus3": {
            "H": 69.16666666666667,
            "I": 69.72222222222223,
            "J": 70.33333333333333,
            "K": 70.76470588235294,
            "L": 72,
            "A": 71.47058823529412,
            "B": 69.94117647058823,
            "C": 71.05882352941177,
            "D": 72.3529411764706,
            "E": 72.41176470588235,
            "F": 72.3529411764706,
            "G": 73.11764705882354
        },
        "bus4": {
            "J": 74.16666666666667,
            "K": 77.55555555555556,
            "L": 77.72222222222223,
            "A": 77.47058823529412,
            "B": 78.6470588235294,
            "C": 76.47058823529412,
            "D": 77.52941176470588,
            "E": 77.17647058823529,
            "F": 77.70588235294117,
            "G": 79.11764705882354,
            "H": 77,
            "I": 77.23529411764706
        },
        "bus5": {
            "A": 67.5,
            "B": 68.44444444444444,
            "C": 69.70588235294117,
            "D": 71.70588235294117,
            "E": 71.88235294117646,
            "F": 72.52941176470588,
            "G": 70.6470588235294,
            "H": 70.29411764705883,
            "I": 70.05882352941177,
            "J": 70.47058823529412,
            "K": 71.52941176470588,
            "L": 71.70588235294117
        }
    }
}