{
    "Average_holding_time": 14.449081803005008,
    "Average_travel_time_passengers": 2537.135950085693,
    "Average_speed_busses": 0.049916666666666665,
    "Average_experienced_crowding": 75.7081216822029,
    "Average_covariation_headway": 0.12264856881053,
    "Average_covariation_headway_stops": {
        "D": 0.1015286641188014,
        "E": 0.10445806287448892,
        "F": 0.10234264408660032,
        "J": 0.13191006342352354,
        "L": 0.11324424564381985,
        "A": 0.10951996442975663,
        "B": 0.08733199402839131,
        "G": 0.07317131286480943,
        "K": 0.10673024274254832,
        "C": 0.08077937631323961,
        "H": 0.07534005972800173,
        "I": 0.10411067254603085
    },
    "Average_excess_waiting_time": {
        "D": 38.289428536290814,
        "E": 37.18953042504836,
        "F": 35.520368930388486,
        "J": 40.33459710981913,
        "L": 39.12601119863524,
        "A": 37.43317043679565,
        "B": 37.565633704691436,
        "G": 35.42941921155057,
        "K": 40.303134225237045,
        "C": 38.777369775002796,
        "H": 36.98757343465604,
        "I": 39.99057266607639
    },
    "Holding_per_stop": {
        "A": 3.6,
        "E": 11.1,
        "F": 9.801980198019802,
        "D": 10.5,
        "J": 20.4,
        "L": 14.1,
        "B": 8.1,
        "G": 15.3,
        "C": 16.363636363636363,
        "H": 12.9,
        "K": 37.878787878787875,
        "I": 13.636363636363637
    },
    "Load_per_bus_per_stop": {
        "bus0": {
            "D": 63.35294117647059,
            "E": 64.52941176470588,
            "F": 65.17647058823529,
            "G": 67.88235294117646,
            "H": 69.94117647058823,
            "I": 70.88235294117646,
            "J": 70.29411764705883,
            "K": 70.75,
            "L": 71.5625,
            "A": 70.4375,
            "B": 68.6875,
            "C": 67.9375
        },
        "bus1": {
            "E": 73,
            "F": 72.52941176470588,
            "G": 71.41176470588235,
            "H": 70.52941176470588,
            "I": 70.52941176470588,
            "J": 70.70588235294117,
            "K": 70.41176470588235,
            "L": 70.70588235294117,
            "A": 72.3125,
            "B": 72.25,
            "C": 74.125,
            "D": 75.875
        },
        "bus2": {
            "F": 77.47058823529412,
            "G": 78.29411764705883,
            "H": 79.23529411764706,
            "I": 79,
            "J": 77.76470588235294,
            "K": 80.23529411764706,
            "L": 79.3529411764706,
            "A": 79.11764705882354,
            "B": 79.3529411764706,
            "C": 80.5,
            "D": 81.4375,
            "E": 82.8125
        },
        "bus3": {
            "J": 73.52941176470588,
            "K": 74.3529411764706,
            "L": 74.58823529411765,
            "A": 77,
            "B": 78.3529411764706,
            "C": 77.52941176470588,
            "D": 76.94117647058823,
            "E": 76.4375,
            "F": 75.375,
            "G": 75.25,
            "H": 77.3125,
            "I": 77.125
        },
        "bus4": {
            "L": 70.76470588235294,
            "A": 72.23529411764706,
            "B": 74.76470588235294,
            "C": 75.11764705882354,
            "D": 77.17647058823529,
            "E": 76.05882352941177,
            "F": 77.3529411764706,
            "G": 78.125,
            "H": 78.375,
            "I": 77.625,
            "J": 76.6875,
            "K": 74.75
        },
        "bus5": {
            "A": 77.3529411764706,
            "B": 75.29411764705883,
            "C": 76.47058823529412,
            "D": 76.23529411764706,
            "E": 78.76470588235294,
            "F": 79.23529411764706,
            "G": 82.23529411764706,
            "H": 79.94117647058823,
            "I": 80.25,
            "J": 80.625,
            "K": 81,
            "L": 82.3125
        }
    }
}
            "J": 72.5
        }
    }
}