{
    "Average_holding_time": 36.3570784490532,
    "Average_travel_time_passengers": 2740.0630042244206,
    "Average_speed_busses": 0.04620833333333333,
    "Average_experienced_crowding": 80.54567198510512,
    "Average_covariation_headway": 0.1538607360979647,
    "Average_covariation_headway_stops": {
        "G": 0.2092189803867747,
        "H": 0.20503425650550047,
        "J": 0.1794501527697322,
        "K": 0.17151190910688446,
        "L": 0.16233747744132251,
        "A": 0.15841161281100213,
        "I": 0.17471846039901467,
        "B": 0.12851621578608732,
        "C": 0.11810228168497647,
        "D": 0.12299637606135447,
        "E": 0.14148976105404715,
        "F": 0.18379978758176846
    },
    "Average_excess_waiting_time": {
        "G": 74.94931152923044,
        "H": 72.46755090610117,
        "J": 69.50381235419991,
        "K": 66.66419586586653,
        "L": 64.12390242553795,
        "A": 61.940623642274886,
        "I": 70.53572533811143,
        "B": 60.918942471785044,
        "C": 61.69277471150474,
        "D": 64.11120549981547,
        "E": 67.38790020927416,
        "F": 73.58737344265126
    },
    "Holding_per_stop": {
        "H": 40.108695652173914,
        "A": 7.9787234042553195,
        "L": 34.516129032258064,
        "K": 53.54838709677419,
        "G": 36.19565217391305,
        "J": 46.95652173913044,
        "B": 23.225806451612904,
        "I": 45,
        "C": 51.29032258064516,
        "D": 30,
        "E": 31.304347826086957,
        "F": 36.59340659340659
    },
    "Load_per_bus_per_stop": {
        "bus0": {
            "G": 77.1875,
            "H": 77.6875,
            "I": 76.9375,
            "J": 78.8,
            "K": 81.46666666666667,
            "L": 82.26666666666667,
            "A": 83.33333333333333,
            "B": 81.33333333333333,
            "C": 80.86666666666666,
            "D": 81.06666666666666,
            "E": 81.13333333333334,
            "F": 81.46666666666667
        },
        "bus1": {
            "H": 76.0625,
            "I": 79.0625,
            "J": 78.5,
            "K": 78.9375,
            "L": 78.86666666666666,
            "A": 80.66666666666667,
            "B": 80.86666666666666,
            "C": 83.13333333333334,
            "D": 82.93333333333334,
            "E": 82.73333333333333,
            "F": 81.6,
            "G": 80.13333333333334
        },
        "bus2": {
            "J": 74.75,
            "K": 73.4375,
            "L": 76.75,
            "A": 77.125,
            "B": 75.6,
            "C": 78.06666666666666,
            "D": 77.46666666666667,
            "E": 77.46666666666667,
            "F": 77.73333333333333,
            "G": 78.13333333333334,
            "H": 79.06666666666666,
            "I": 78.26666666666667
        },
        "bus3": {
            "K": 75.5625,
            "L": 75.4375,
            "A": 75.75,
            "B": 78.0625,
            "C": 77.9375,
            "D": 77.26666666666667,
            "E": 78.46666666666667,
            "F": 78.6,
            "G": 78.2,
            "H": 76.93333333333334,
            "I": 76.06666666666666,
            "J": 77.46666666666667
        },
        "bus4": {
            "L": 75.5,
            "A": 76,
            "B": 75.375,
            "C": 76.125,
            "D": 77.75,
            "E": 77.0625,
            "F": 76.46666666666667,
            "G": 76.06666666666666,
            "H": 76.2,
            "I": 75.73333333333333,
            "J": 78.46666666666667,
            "K": 79.33333333333333
        },
        "bus5": {
            "A": 83.625,
            "B": 83.0625,
            "C": 82.5625,
            "D": 82.125,
            "E": 82.125,
            "F": 85.125,
            "G": 87.625,
            "H": 88.93333333333334,
            "I": 88.06666666666666,
            "J": 89.66666666666667,
            "K": 90.73333333333333,
            "L": 88.4
        }
    }
}