{
    "Average_holding_time": 12.882059800664452,
    "Average_travel_time_passengers": 2534.0402304171025,
    "Average_speed_busses": 0.050166666666666665,
    "Average_experienced_crowding": 75.99578278577751,
    "Average_covariation_headway": 0.15206462342398486,
    "Average_covariation_headway_stops": {
        "B": 0.12020733693153804,
        "F": 0.1319848278229195,
        "G": 0.12010340677683747,
        "J": 0.10938715298103134,
        "L": 0.11448546296466813,
        "A": 0.11496744220171755,
        "C": 0.11593369224042795,
        "H": 0.08196033622999498,
        "K": 0.08111065808013813,
        "D": 0.11339454899880061,
        "I": 0.0833081006651477,
        "E": 0.11943003880760787
    },
    "Average_excess_waiting_time": {
        "B": 35.45211756273562,
        "F": 38.794227570988255,
        "G": 36.45909873870659,
        "J": 37.576372685314766,
        "L": 37.862519255476855,
        "A": 36.31060813981503,
        "C": 36.58678044217237,
        "H": 35.82645043139581,
        "K": 37.406078466178826,
        "D": 37.57650231806355,
        "I": 37.326924119047646,
        "E": 39.60324149575723
    },
    "Holding_per_stop": {
        "A": 5.0495049504950495,
        "B": 13.96039603960396,
        "G": 7.425742574257426,
        "L": 21,
        "J": 6.6,
        "F": 7.8,
        "C": 30.297029702970296,
        "H": 5.1,
        "K": 16.8,
        "I": 8.7,
        "D": 16.8,
        "E": 15
    },
    "Load_per_bus_per_stop": {
        "bus0": {
            "B": 71.3529411764706,
            "C": 71.52941176470588,
            "D": 73.52941176470588,
            "E": 73.41176470588235,
            "F": 74.23529411764706,
            "G": 75.70588235294117,
            "H": 74.41176470588235,
            "I": 76.6470588235294,
            "J": 75.17647058823529,
            "K": 73.94117647058823,
            "L": 73.5,
            "A": 74.875
        },
        "bus1": {
            "F": 70.58823529411765,
            "G": 73.11764705882354,
            "H": 73.88235294117646,
            "I": 74.82352941176471,
            "J": 75.41176470588235,
            "K": 77.76470588235294,
            "L": 77.58823529411765,
            "A": 76.88235294117646,
            "B": 77.5,
            "C": 77.875,
            "D": 77.0625,
            "E": 75.0625
        },
        "bus2": {
            "G": 75.3529411764706,
            "H": 75.70588235294117,
            "I": 75.58823529411765,
            "J": 76.29411764705883,
            "K": 76.3529411764706,
            "L": 78.05882352941177,
            "A": 77.88235294117646,
            "B": 78.88235294117646,
            "C": 81,
            "D": 79.1875,
            "E": 78.1875,
            "F": 79.875
        },
        "bus3": {
            "J": 72.41176470588235,
            "K": 72,
            "L": 73.17647058823529,
            "A": 74.47058823529412,
            "B": 75.58823529411765,
            "C": 77.05882352941177,
            "D": 77.52941176470588,
            "E": 77.82352941176471,
            "F": 79.1875,
            "G": 77.6875,
            "H": 77.25,
            "I": 77.6875
        },
        "bus4": {
            "L": 75.88235294117646,
            "A": 77.29411764705883,
            "B": 78.58823529411765,
            "C": 79.70588235294117,
            "D": 78.52941176470588,
            "E": 75.47058823529412,
            "F": 76.29411764705883,
            "G": 77.41176470588235,
            "H": 78.1875,
            "I": 77.8125,
            "J": 77.6875,
            "K": 78.25
        },
        "bus5": {
            "A": 71.3529411764706,
            "B": 70.94117647058823,
            "C": 71.94117647058823,
            "D": 73.94117647058823,
            "E": 75.17647058823529,
            "F": 72.94117647058823,
            "G": 72.70588235294117,
            "H": 73.05882352941177,
            "I": 73.94117647058823,
            "J": 75,
            "K": 75.9375,
            "L": 76.3125
        }
    }
}