{
    "Average_holding_time": 18.289585097375106,
    "Average_travel_time_passengers": 2560.9998263100047,
    "Average_speed_busses": 0.04920833333333333,
    "Average_experienced_crowding": 75.45840268490218,
    "Average_covariation_headway": 0.1740602722035918,
    "Average_covariation_headway_stops": {
        "E": 0.14964450681119237,
        "G": 0.12792031250712155,
        "I": 0.12458591521630275,
        "J": 0.1245767785846692,
        "K": 0.1379539510454839,
        "A": 0.11059237485316818,
        "L": 0.11068279692376062,
        "H": 0.11970481353932406,
        "B": 0.08454417547360113,
        "F": 0.11412434417995705,
        "C": 0.0942841345435768,
        "D": 0.12776210683901698
    },
    "Average_excess_waiting_time": {
        "E": 45.842381017731384,
        "G": 43.85774956446386,
        "I": 44.70782273339546,
        "J": 43.06611062800505,
        "K": 42.52750055683407,
        "A": 40.18000670122518,
        "L": 41.903508263611286,
        "H": 45.02681623588148,
        "B": 40.16308208399852,
        "F": 44.55056742425273,
        "C": 41.733969542729994,
        "D": 45.565986848163334
    },
    "Holding_per_stop": {
        "K": 24.848484848484848,
        "G": 19.897959183673468,
        "J": 23.333333333333332,
        "A": 3.9393939393939394,
        "I": 21.73469387755102,
        "E": 19.591836734693878,
        "L": 16.666666666666668,
        "B": 6.0606060606060606,
        "H": 22.040816326530614,
        "C": 26.632653061224488,
        "F": 17.448979591836736,
        "D": 17.448979591836736
    },
    "Load_per_bus_per_stop": {
        "bus0": {
            "E": 71.52941176470588,
            "F": 72.41176470588235,
            "G": 73.3529411764706,
            "H": 73.82352941176471,
            "I": 76.375,
            "J": 75.5625,
            "K": 75.4375,
            "L": 74.4375,
            "A": 75.3125,
            "B": 76.4375,
            "C": 74.25,
            "D": 73.75
        },
        "bus1": {
            "G": 73.76470588235294,
            "H": 73.70588235294117,
            "I": 73.94117647058823,
            "J": 75.52941176470588,
            "K": 75.1875,
            "L": 75.75,
            "A": 78,
            "B": 77.5625,
            "C": 79.375,
            "D": 78.5625,
            "E": 77.5,
            "F": 78.25
        },
        "bus2": {
            "I": 67.17647058823529,
            "J": 68.23529411764706,
            "K": 68.47058823529412,
            "L": 70.05882352941177,
            "A": 70.6875,
            "B": 71.3125,
            "C": 73.9375,
            "D": 73.3125,
            "E": 73.75,
            "F": 72.5625,
            "G": 71.6875,
            "H": 70.6875
        },
        "bus3": {
            "J": 72.94117647058823,
            "K": 74.47058823529412,
            "L": 74.94117647058823,
            "A": 75.11764705882354,
            "B": 76.3529411764706,
            "C": 75.25,
            "D": 73.9375,
            "E": 73.625,
            "F": 76.6875,
            "G": 76.875,
            "H": 77.125,
            "I": 77.9375
        },
        "bus4": {
            "K": 76.82352941176471,
            "L": 75.88235294117646,
            "A": 77.3529411764706,
            "B": 77.70588235294117,
            "C": 78.6470588235294,
            "D": 78.52941176470588,
            "E": 78.9375,
            "F": 77.75,
            "G": 78.3125,
            "H": 78.25,
            "I": 79.125,
            "J": 80.625
        },
        "bus5": {
            "A": 70.88235294117646,
            "B": 69.88235294117646,
            "C": 71.05882352941177,
            "D": 71.23529411764706,
            "E": 74.17647058823529,
            "F": 74.88235294117646,
            "G": 77.23529411764706,
            "H": 74.9375,
            "I": 75.3125,
            "J": 77,
            "K": 77.5625,
            "L": 76.0625
        }
    }
}