{
    "Average_holding_time": 9.721082854799016,
    "Average_travel_time_passengers": 2498.0531091739304,
    "Average_speed_busses": 0.050791666666666666,
    "Average_experienced_crowding": 76.76793095633268,
    "Average_covariation_headway": 0.36233568442906766,
    "Average_covariation_headway_stops": {
        "C": 0.23812089042201687,
        "D": 0.23479957406616844,
        "E": 0.2481196105681729,
        "I": 0.2709516569229028,
        "J": 0.27079823790212804,
        "A": 0.24238170213174312,
        "K": 0.24592537060680975,
        "B": 0.2302077688407893,
        "F": 0.24705914949757027,
        "L": 0.2405608890511564,
        "G": 0.24719108395973208,
        "H": 0.2562895308068212
    },
    "Average_excess_waiting_time": {
        "C": 46.026463263122025,
        "D": 44.23096939818356,
        "E": 44.5205737436026,
        "I": 51.26327998186554,
        "J": 49.3935662019727,
        "A": 46.9535589067728,
        "K": 47.14016323094728,
        "B": 46.553077668764956,
        "F": 46.84000031114846,
        "L": 48.29633842788496,
        "G": 47.74062921138017,
        "H": 50.59240644361472
    },
    "Holding_per_stop": {
        "J": 10.882352941176471,
        "D": 5.882352941176471,
        "A": 11.470588235294118,
        "E": 7.9411764705882355,
        "I": 14.851485148514852,
        "C": 12.058823529411764,
        "K": 11.176470588235293,
        "F": 9.411764705882353,
        "B": 10.099009900990099,
        "L": 6.8316831683168315,
        "G": 11.584158415841584,
        "H": 4.455445544554456
    },
    "Load_per_bus_per_stop": {
        "bus0": {
            "C": 62.8235294117647,
            "D": 62.76470588235294,
            "E": 62.529411764705884,
            "F": 63,
            "G": 64.05882352941177,
            "H": 64.29411764705883,
            "I": 63.94117647058823,
            "J": 64.41176470588235,
            "K": 65.29411764705883,
            "L": 65.76470588235294,
            "A": 64.6470588235294,
            "B": 65.625
        },
        "bus1": {
            "D": 52.11764705882353,
            "E": 52.411764705882355,
            "F": 50.11764705882353,
            "G": 50.294117647058826,
            "H": 51.529411764705884,
            "I": 52,
            "J": 52.76470588235294,
            "K": 54.411764705882355,
            "L": 56,
            "A": 55.411764705882355,
            "B": 54.23529411764706,
            "C": 55.11764705882353
        },
        "bus2": {
            "E": 77.27777777777777,
            "F": 77.17647058823529,
            "G": 80,
            "H": 80.6470588235294,
            "I": 82.76470588235294,
            "J": 82.82352941176471,
            "K": 83.6470588235294,
            "L": 83.52941176470588,
            "A": 82.05882352941177,
            "B": 83.05882352941177,
            "C": 82.94117647058823,
            "D": 82.70588235294117
        },
        "bus3": {
            "I": 92.70588235294117,
            "J": 92.6470588235294,
            "K": 90.70588235294117,
            "L": 90.23529411764706,
            "A": 90.82352941176471,
            "B": 92.23529411764706,
            "C": 92.82352941176471,
            "D": 93.88235294117646,
            "E": 96.3529411764706,
            "F": 97,
            "G": 98.3125,
            "H": 99.375
        },
        "bus4": {
            "J": 73.05882352941177,
            "K": 75.52941176470588,
            "L": 75.52941176470588,
            "A": 75.70588235294117,
            "B": 76.05882352941177,
            "C": 76.58823529411765,
            "D": 76.94117647058823,
            "E": 76.70588235294117,
            "F": 77.6470588235294,
            "G": 77.58823529411765,
            "H": 77.3529411764706,
            "I": 77.3529411764706
        },
        "bus5": {
            "A": 65.76470588235294,
            "B": 66.29411764705883,
            "C": 68.70588235294117,
            "D": 68.11764705882354,
            "E": 66.52941176470588,
            "F": 66.82352941176471,
            "G": 68.41176470588235,
            "H": 68.05882352941177,
            "I": 69.05882352941177,
            "J": 67.3529411764706,
            "K": 68.47058823529412,
            "L": 68.375
        }
    }
}