{
    "Average_holding_time": 31.486725663716815,
    "Average_travel_time_passengers": 2669.6476392774143,
    "Average_speed_busses": 0.04708333333333333,
    "Average_experienced_crowding": 78.2351175395593,
    "Average_covariation_headway": 0.09915267842000274,
    "Average_covariation_headway_stops": {
        "B": 0.09266849679507307,
        "F": 0.11436232115192141,
        "G": 0.11704295946694614,
        "H": 0.11668412676423064,
        "J": 0.09378821889972358,
        "A": 0.08978354025631242,
        "I": 0.08510408974390782,
        "C": 0.05764903793613813,
        "K": 0.05862666771715456,
        "D": 0.05503976752309403,
        "L": 0.05702738543240329,
        "E": 0.08241337080409332
    },
    "Average_excess_waiting_time": {
        "B": 53.76300796776542,
        "F": 58.725385261807276,
        "G": 57.362856569104224,
        "H": 55.6026082925091,
        "J": 54.0032978589403,
        "A": 55.2564091329084,
        "I": 55.23566949944126,
        "C": 53.69702779664232,
        "K": 53.876747597401845,
        "D": 55.33347560187451,
        "L": 55.54772135568925,
        "E": 58.40626714677461
    },
    "Holding_per_stop": {
        "H": 30.63157894736842,
        "B": 30.94736842105263,
        "G": 32.5531914893617,
        "J": 31.263157894736842,
        "A": 27.127659574468087,
        "F": 32.234042553191486,
        "I": 30.95744680851064,
        "C": 33.191489361702125,
        "K": 32.5531914893617,
        "D": 33.51063829787234,
        "L": 31.27659574468085,
        "E": 31.612903225806452
    },
    "Load_per_bus_per_stop": {
        "bus0": {
            "B": 75.125,
            "C": 75.75,
            "D": 76.4375,
            "E": 76.375,
            "F": 77.625,
            "G": 77.5,
            "H": 77.3125,
            "I": 77.9375,
            "J": 78.25,
            "K": 78.06666666666666,
            "L": 80.93333333333334,
            "A": 80.53333333333333
        },
        "bus1": {
            "F": 78.625,
            "G": 80.3125,
            "H": 81.25,
            "I": 78.0625,
            "J": 79.125,
            "K": 79,
            "L": 78.8125,
            "A": 78.8,
            "B": 78.8,
            "C": 80.06666666666666,
            "D": 81.4,
            "E": 82.8
        },
        "bus2": {
            "G": 72.9375,
            "H": 75.375,
            "I": 76.3125,
            "J": 77.1875,
            "K": 77.625,
            "L": 77.625,
            "A": 77.5625,
            "B": 80.125,
            "C": 78.06666666666666,
            "D": 77,
            "E": 77.8,
            "F": 78.6
        },
        "bus3": {
            "H": 69,
            "I": 68.9375,
            "J": 69.4375,
            "K": 71,
            "L": 73.125,
            "A": 74.5625,
            "B": 74.5,
            "C": 75.0625,
            "D": 76.375,
            "E": 74.53333333333333,
            "F": 74.46666666666667,
            "G": 73.73333333333333
        },
        "bus4": {
            "J": 73.6875,
            "K": 74.6875,
            "L": 75.8125,
            "A": 76.3125,
            "B": 76.625,
            "C": 76.4375,
            "D": 73.3125,
            "E": 74.5625,
            "F": 75.6875,
            "G": 76.2,
            "H": 78.06666666666666,
            "I": 78.86666666666666
        },
        "bus5": {
            "A": 80.4375,
            "B": 81.9375,
            "C": 80.9375,
            "D": 81.375,
            "E": 82.125,
            "F": 81.1875,
            "G": 80.5625,
            "H": 82.0625,
            "I": 82.2,
            "J": 83.73333333333333,
            "K": 83.13333333333334,
            "L": 85.26666666666667
        }
    }
}   "K": 80.33333333333333
        }
    }
}