{
    "Average_holding_time": 15.376254180602007,
    "Average_travel_time_passengers": 2540.95933625669,
    "Average_speed_busses": 0.049833333333333334,
    "Average_experienced_crowding": 74.08252690543257,
    "Average_covariation_headway": 0.11859377288823292,
    "Average_covariation_headway_stops": {
        "D": 0.08702555214842764,
        "E": 0.08682499718746414,
        "G": 0.08038204052010628,
        "K": 0.12062052677586027,
        "L": 0.11147309483264704,
        "A": 0.11047527535458701,
        "H": 0.05805730236710131,
        "B": 0.08024133436273322,
        "F": 0.05641670352230846,
        "I": 0.06180205770075808,
        "C": 0.059991682607266845,
        "J": 0.09299273317934795
    },
    "Average_excess_waiting_time": {
        "D": 37.42890110354216,
        "E": 35.81670686161806,
        "G": 35.37349591050594,
        "K": 40.71102650762674,
        "L": 38.73980276527715,
        "A": 37.04477743326066,
        "H": 35.92313159145107,
        "B": 37.0223254745008,
        "F": 35.9026606017124,
        "I": 37.48994051300258,
        "C": 37.763969874934844,
        "J": 40.39251486373979
    },
    "Holding_per_stop": {
        "G": 9,
        "A": 5.4,
        "E": 8.7,
        "L": 23.7,
        "K": 39.09090909090909,
        "D": 10.5,
        "H": 10.8,
        "B": 7.8,
        "F": 16.2,
        "I": 16.96969696969697,
        "C": 13.636363636363637,
        "J": 23.03030303030303
    },
    "Load_per_bus_per_stop": {
        "bus0": {
            "D": 72.88235294117646,
            "E": 74.05882352941177,
            "F": 73.29411764705883,
            "G": 73.58823529411765,
            "H": 72.6470588235294,
            "I": 73.88235294117646,
            "J": 74.6470588235294,
            "K": 74.125,
            "L": 73.0625,
            "A": 76.4375,
            "B": 77.8125,
            "C": 77.25
        },
        "bus1": {
            "E": 68.94117647058823,
            "F": 72.17647058823529,
            "G": 72.58823529411765,
            "H": 73.6470588235294,
            "I": 74.58823529411765,
            "J": 74.88235294117646,
            "K": 74.29411764705883,
            "L": 72.47058823529412,
            "A": 71.875,
            "B": 71.8125,
            "C": 73.0625,
            "D": 72.5625
        },
        "bus2": {
            "G": 74.05882352941177,
            "H": 73.11764705882354,
            "I": 71.94117647058823,
            "J": 73.52941176470588,
            "K": 74.82352941176471,
            "L": 76.17647058823529,
            "A": 77.11764705882354,
            "B": 77.3529411764706,
            "C": 77.25,
            "D": 76.1875,
            "E": 79.125,
            "F": 79.1875
        },
        "bus3": {
            "K": 71.76470588235294,
            "L": 71.82352941176471,
            "A": 73.76470588235294,
            "B": 74.70588235294117,
            "C": 75.52941176470588,
            "D": 75.11764705882354,
            "E": 76.9375,
            "F": 76.125,
            "G": 74.25,
            "H": 76.5,
            "I": 76.9375,
            "J": 76.75
        },
        "bus4": {
            "L": 67.23529411764706,
            "A": 67.82352941176471,
            "B": 68.58823529411765,
            "C": 69.76470588235294,
            "D": 70.70588235294117,
            "E": 71.29411764705883,
            "F": 70.05882352941177,
            "G": 69.125,
            "H": 70.4375,
            "I": 69.0625,
            "J": 71.375,
            "K": 71.375
        },
        "bus5": {
            "A": 71.3529411764706,
            "B": 71.23529411764706,
            "C": 72.52941176470588,
            "D": 73.29411764705883,
            "E": 73.17647058823529,
            "F": 74.47058823529412,
            "G": 74.70588235294117,
            "H": 75.47058823529412,
            "I": 74.875,
            "J": 74.625,
            "K": 75.9375,
            "L": 75.0625
        }
    }
}