{
    "Average_holding_time": 27.215411558669,
    "Average_travel_time_passengers": 2680.138846266905,
    "Average_speed_busses": 0.04758333333333333,
    "Average_experienced_crowding": 79.06384046483079,
    "Average_covariation_headway": 0.10022054514340067,
    "Average_covariation_headway_stops": {
        "B": 0.08762270764606474,
        "D": 0.0801915852328522,
        "F": 0.0761963451374648,
        "H": 0.07534460468731498,
        "I": 0.08301929882495707,
        "K": 0.07960546365869148,
        "J": 0.04935640943219098,
        "L": 0.05826189985079864,
        "E": 0.04765953437568226,
        "G": 0.04032539818572811,
        "C": 0.05126558970794203,
        "A": 0.0612957031242383
    },
    "Average_excess_waiting_time": {
        "B": 50.9338672638857,
        "D": 50.369413538178435,
        "F": 50.13261071904361,
        "H": 50.0001801181013,
        "I": 48.81832106671254,
        "K": 48.71050976048264,
        "J": 49.13972607337041,
        "L": 49.49872046120976,
        "E": 50.74405718929438,
        "G": 50.44337339462476,
        "C": 50.81269497835666,
        "A": 51.084241018240164
    },
    "Holding_per_stop": {
        "I": 28.75,
        "K": 34.0625,
        "D": 27.157894736842106,
        "F": 25.57894736842105,
        "H": 30,
        "B": 31.263157894736842,
        "J": 27.789473684210527,
        "L": 28.42105263157895,
        "E": 25.894736842105264,
        "G": 29.36842105263158,
        "C": 23.05263157894737,
        "A": 15.157894736842104
    },
    "Load_per_bus_per_stop": {
        "bus0": {
            "B": 78.1875,
            "C": 78.375,
            "D": 77.625,
            "E": 78.5625,
            "F": 79.25,
            "G": 76.5,
            "H": 78.1875,
            "I": 76.625,
            "J": 78.75,
            "K": 78.75,
            "L": 80.25,
            "A": 81.73333333333333
        },
        "bus1": {
            "D": 75.5,
            "E": 76.8125,
            "F": 77.375,
            "G": 78.25,
            "H": 79.1875,
            "I": 78.1875,
            "J": 77.0625,
            "K": 77.4375,
            "L": 79.375,
            "A": 79.375,
            "B": 78.4,
            "C": 79.73333333333333
        },
        "bus2": {
            "F": 72.875,
            "G": 75.0625,
            "H": 75.875,
            "I": 77.75,
            "J": 77.75,
            "K": 77.75,
            "L": 78.75,
            "A": 80.0625,
            "B": 79.125,
            "C": 77.4375,
            "D": 76.9375,
            "E": 76.73333333333333
        },
        "bus3": {
            "H": 77.4375,
            "I": 78.75,
            "J": 79.375,
            "K": 80,
            "L": 81.125,
            "A": 82.1875,
            "B": 82.125,
            "C": 83.625,
            "D": 83.375,
            "E": 83.25,
            "F": 81.86666666666666,
            "G": 81.73333333333333
        },
        "bus4": {
            "I": 75.75,
            "J": 76.5625,
            "K": 74.875,
            "L": 75,
            "A": 77.4375,
            "B": 78.9375,
            "C": 79.5625,
            "D": 78.3125,
            "E": 79.625,
            "F": 81.3125,
            "G": 82.5625,
            "H": 80.4375
        },
        "bus5": {
            "K": 75.3125,
            "L": 75.5625,
            "A": 75.6875,
            "B": 77.875,
            "C": 77.5,
            "D": 78.1875,
            "E": 79.125,
            "F": 79.375,
            "G": 77.9375,
            "H": 79.0625,
            "I": 78.3125,
            "J": 79.3125
        }
    }
}