{
    "Average_holding_time": 33.19320214669052,
    "Average_travel_time_passengers": 2723.4929180669014,
    "Average_speed_busses": 0.04658333333333333,
    "Average_experienced_crowding": 80.04634861101133,
    "Average_covariation_headway": 0.1072577759250508,
    "Average_covariation_headway_stops": {
        "C": 0.09099546004350874,
        "D": 0.09534059910384082,
        "F": 0.08652375419769885,
        "I": 0.09455101839096797,
        "K": 0.09113641260933619,
        "A": 0.08763259672896918,
        "E": 0.06414362078926314,
        "G": 0.06056983097121711,
        "B": 0.060021548600139425,
        "L": 0.06284406751019501,
        "J": 0.05864305343896687,
        "H": 0.06603364102776338
    },
    "Average_excess_waiting_time": {
        "C": 57.4326168429244,
        "D": 56.00278418004842,
        "F": 55.542498482223436,
        "I": 57.64072147918023,
        "K": 57.43535202869299,
        "A": 57.216331724816996,
        "E": 56.09184894305508,
        "G": 56.042021470243924,
        "B": 57.6493811572015,
        "L": 57.79712121882693,
        "J": 57.640671549466504,
        "H": 57.93827402001085
    },
    "Holding_per_stop": {
        "D": 33.51063829787234,
        "F": 32.5531914893617,
        "A": 26.774193548387096,
        "K": 32.903225806451616,
        "C": 36.12903225806452,
        "I": 35.483870967741936,
        "E": 33.87096774193548,
        "G": 35.806451612903224,
        "B": 31.612903225806452,
        "L": 32.903225806451616,
        "J": 32.58064516129032,
        "H": 34.193548387096776
    },
    "Load_per_bus_per_stop": {
        "bus0": {
            "C": 76.125,
            "D": 76.1875,
            "E": 77.75,
            "F": 79.1875,
            "G": 79.5625,
            "H": 80.375,
            "I": 82.1875,
            "J": 80.8,
            "K": 80.53333333333333,
            "L": 81.53333333333333,
            "A": 79.86666666666666,
            "B": 78.4
        },
        "bus1": {
            "D": 76.125,
            "E": 78.375,
            "F": 79.8125,
            "G": 80.8125,
            "H": 82.0625,
            "I": 82.75,
            "J": 82.375,
            "K": 81.625,
            "L": 80.6,
            "A": 80,
            "B": 78.53333333333333,
            "C": 78.66666666666667
        },
        "bus2": {
            "F": 75.8125,
            "G": 76.875,
            "H": 77.25,
            "I": 79.3125,
            "J": 79.6875,
            "K": 80.25,
            "L": 80,
            "A": 80.0625,
            "B": 79.66666666666667,
            "C": 80.33333333333333,
            "D": 80.86666666666666,
            "E": 80.66666666666667
        },
        "bus3": {
            "I": 73.25,
            "J": 72.8125,
            "K": 73.875,
            "L": 74.4375,
            "A": 76.625,
            "B": 77.1875,
            "C": 78.0625,
            "D": 77.4,
            "E": 79.53333333333333,
            "F": 79.6,
            "G": 78.6,
            "H": 77.4
        },
        "bus4": {
            "K": 78.5,
            "L": 76.625,
            "A": 76.5,
            "B": 78.625,
            "C": 79.6875,
            "D": 80,
            "E": 79.625,
            "F": 82.2,
            "G": 82.4,
            "H": 82.46666666666667,
            "I": 81.2,
            "J": 83.53333333333333
        },
        "bus5": {
            "A": 79.625,
            "B": 80.1875,
            "C": 80.125,
            "D": 80.625,
            "E": 81.3125,
            "F": 80.75,
            "G": 81.1875,
            "H": 83.13333333333334,
            "I": 84.66666666666667,
            "J": 84.66666666666667,
            "K": 82.4,
            "L": 82.86666666666666
        }
    }
}