{
    "Average_holding_time": 25.82608695652174,
    "Average_travel_time_passengers": 2654.879327873359,
    "Average_speed_busses": 0.04791666666666667,
    "Average_experienced_crowding": 78.55519089751417,
    "Average_covariation_headway": 0.11696601749661736,
    "Average_covariation_headway_stops": {
        "D": 0.10351075396187907,
        "H": 0.1294101293816528,
        "I": 0.12271783593602277,
        "J": 0.11316284152973388,
        "L": 0.08514094367342269,
        "A": 0.10042644480418551,
        "E": 0.07686096346703028,
        "K": 0.07840602308534218,
        "B": 0.07800164614428153,
        "C": 0.08109303005255401,
        "F": 0.08062567370294584,
        "G": 0.1028512888186621
    },
    "Average_excess_waiting_time": {
        "D": 49.29352861011188,
        "H": 54.338075469988155,
        "I": 52.15423622366808,
        "J": 49.782181948445896,
        "L": 48.235589795645126,
        "A": 47.45554949217359,
        "E": 49.40617329005664,
        "K": 49.43822606111053,
        "B": 47.84157874050612,
        "C": 49.517938585980914,
        "F": 51.1259526914352,
        "G": 54.0167896091333
    },
    "Holding_per_stop": {
        "D": 23.75,
        "J": 28.4375,
        "A": 16.082474226804123,
        "I": 30,
        "H": 28.736842105263158,
        "L": 28.4375,
        "K": 29.375,
        "B": 24.6875,
        "E": 28.125,
        "F": 24.31578947368421,
        "C": 20.9375,
        "G": 27.157894736842106
    },
    "Load_per_bus_per_stop": {
        "bus0": {
            "D": 80.0625,
            "E": 78.625,
            "F": 80.3125,
            "G": 81,
            "H": 82.9375,
            "I": 82.375,
            "J": 82.0625,
            "K": 83.25,
            "L": 84.0625,
            "A": 85.6875,
            "B": 85.6875,
            "C": 84.75
        },
        "bus1": {
            "H": 69.6875,
            "I": 70.9375,
            "J": 71.8125,
            "K": 73.375,
            "L": 77.9375,
            "A": 77.75,
            "B": 76.625,
            "C": 76.4375,
            "D": 75.1875,
            "E": 75.75,
            "F": 74.8,
            "G": 73.73333333333333
        },
        "bus2": {
            "I": 72.9375,
            "J": 73,
            "K": 74.3125,
            "L": 74.5,
            "A": 75.0625,
            "B": 76.375,
            "C": 75.25,
            "D": 75.25,
            "E": 78.75,
            "F": 77.8125,
            "G": 80.875,
            "H": 79.33333333333333
        },
        "bus3": {
            "J": 76.1875,
            "K": 76.8125,
            "L": 77.125,
            "A": 75.375,
            "B": 76.9375,
            "C": 77.8125,
            "D": 80.125,
            "E": 79.25,
            "F": 77.75,
            "G": 78.6875,
            "H": 80,
            "I": 78.875
        },
        "bus4": {
            "L": 73.25,
            "A": 75,
            "B": 75.3125,
            "C": 74.4375,
            "D": 76.3125,
            "E": 77.3125,
            "F": 79.1875,
            "G": 80,
            "H": 77.8125,
            "I": 78.3125,
            "J": 79.75,
            "K": 77.6875
        },
        "bus5": {
            "A": 74.23529411764706,
            "B": 74.8125,
            "C": 75.125,
            "D": 74.375,
            "E": 75.8125,
            "F": 79,
            "G": 79,
            "H": 81.0625,
            "I": 81.75,
            "J": 82.0625,
            "K": 80.25,
            "L": 80.25
        }
    }
} "I": 81.1875,
            "J": 83.5
        }
    }
}