{
    "Average_holding_time": 10.270935960591133,
    "Average_travel_time_passengers": 2507.9663283619175,
    "Average_speed_busses": 0.05075,
    "Average_experienced_crowding": 74.21961208516358,
    "Average_covariation_headway": 0.13009678056111007,
    "Average_covariation_headway_stops": {
        "C": 0.10009919942959913,
        "E": 0.10618538979950011,
        "F": 0.10107264343420233,
        "J": 0.1260085441740107,
        "K": 0.11725021925532939,
        "A": 0.09230144439355967,
        "G": 0.07678680065615051,
        "L": 0.08707351208336428,
        "D": 0.0824157435672567,
        "B": 0.07446233900297247,
        "H": 0.07993152900951056,
        "I": 0.10523648788137352
    },
    "Average_excess_waiting_time": {
        "C": 32.348073902314184,
        "E": 32.54931510036948,
        "F": 30.691741716327044,
        "J": 35.47744268340011,
        "K": 33.40145314890327,
        "A": 31.966504175852208,
        "G": 30.878670248277047,
        "L": 33.215033685080186,
        "D": 32.75020454571069,
        "B": 32.59510429050465,
        "H": 32.35351297835342,
        "I": 35.81680461110284
    },
    "Holding_per_stop": {
        "F": 8.529411764705882,
        "K": 15,
        "C": 13.529411764705882,
        "A": 0.8823529411764706,
        "J": 6.534653465346534,
        "E": 14.705882352941176,
        "G": 13.235294117647058,
        "B": 1.188118811881188,
        "L": 13.366336633663366,
        "D": 16.03960396039604,
        "H": 11.287128712871286,
        "I": 8.910891089108912
    },
    "Load_per_bus_per_stop": {
        "bus0": {
            "C": 69.6470588235294,
            "D": 70.11764705882354,
            "E": 71.6470588235294,
            "F": 70.41176470588235,
            "G": 70.94117647058823,
            "H": 72.11764705882354,
            "I": 73.47058823529412,
            "J": 72.88235294117646,
            "K": 73.47058823529412,
            "L": 72.58823529411765,
            "A": 73.23529411764706,
            "B": 74.4375
        },
        "bus1": {
            "E": 73.88235294117646,
            "F": 73.29411764705883,
            "G": 72.88235294117646,
            "H": 71.41176470588235,
            "I": 72.05882352941177,
            "J": 72.11764705882354,
            "K": 72.41176470588235,
            "L": 71.88235294117646,
            "A": 71.11764705882354,
            "B": 74.58823529411765,
            "C": 76.11764705882354,
            "D": 77.125
        },
        "bus2": {
            "F": 71.58823529411765,
            "G": 71,
            "H": 72.6470588235294,
            "I": 76.3529411764706,
            "J": 77.41176470588235,
            "K": 77.58823529411765,
            "L": 77.88235294117646,
            "A": 78.3529411764706,
            "B": 77.47058823529412,
            "C": 77.17647058823529,
            "D": 77.47058823529412,
            "E": 76.6470588235294
        },
        "bus3": {
            "J": 70.70588235294117,
            "K": 71.17647058823529,
            "L": 73.58823529411765,
            "A": 74.29411764705883,
            "B": 73.76470588235294,
            "C": 73.3529411764706,
            "D": 73.11764705882354,
            "E": 73.88235294117646,
            "F": 74.76470588235294,
            "G": 74.94117647058823,
            "H": 75.3125,
            "I": 75.0625
        },
        "bus4": {
            "K": 71.3529411764706,
            "L": 71.52941176470588,
            "A": 74,
            "B": 73.52941176470588,
            "C": 75.17647058823529,
            "D": 73.52941176470588,
            "E": 73.17647058823529,
            "F": 75.58823529411765,
            "G": 76.47058823529412,
            "H": 74.82352941176471,
            "I": 75.47058823529412,
            "J": 74.5625
        },
        "bus5": {
            "A": 72.82352941176471,
            "B": 73.94117647058823,
            "C": 74.05882352941177,
            "D": 73.17647058823529,
            "E": 72.17647058823529,
            "F": 72.52941176470588,
            "G": 73,
            "H": 73.29411764705883,
            "I": 73.23529411764706,
            "J": 74.88235294117646,
            "K": 76.58823529411765,
            "L": 77.1875
        }
    }
}       "K": 72.41176470588235,
            "L": 70.58823529411765
        }
    }
}