{
    "Average_holding_time": 34.820466786355475,
    "Average_travel_time_passengers": 2728.852234915488,
    "Average_speed_busses": 0.04641666666666667,
    "Average_experienced_crowding": 81.58064830825583,
    "Average_covariation_headway": 0.16196787590185924,
    "Average_covariation_headway_stops": {
        "E": 0.21969497095427007,
        "G": 0.20092803581437513,
        "H": 0.19679179021473106,
        "I": 0.19653770370697776,
        "J": 0.1945083918111522,
        "K": 0.18855732480305423,
        "L": 0.15939696461550407,
        "F": 0.20000284176286168,
        "A": 0.14759554849048814,
        "B": 0.1514219639642305,
        "C": 0.16998583302382503,
        "D": 0.1997306819498584
    },
    "Average_excess_waiting_time": {
        "E": 74.55975435105375,
        "G": 72.0253201939172,
        "H": 69.60147669904137,
        "I": 67.71097681227747,
        "J": 65.77276997398297,
        "K": 63.59664815240109,
        "L": 62.170033680652125,
        "F": 73.69775142061445,
        "A": 62.62900961287028,
        "B": 64.73938209011243,
        "C": 68.16697159102165,
        "D": 73.59500295133785
    },
    "Holding_per_stop": {
        "K": 36.702127659574465,
        "I": 34.83870967741935,
        "H": 34.193548387096776,
        "J": 35.1063829787234,
        "G": 36.19565217391305,
        "E": 33.26086956521739,
        "L": 33.829787234042556,
        "F": 35.54347826086956,
        "A": 30.64516129032258,
        "B": 33.87096774193548,
        "C": 39.130434782608695,
        "D": 34.56521739130435
    },
    "Load_per_bus_per_stop": {
        "bus0": {
            "E": 80.0625,
            "F": 80.625,
            "G": 83,
            "H": 82.5625,
            "I": 81.8,
            "J": 82.93333333333334,
            "K": 81.13333333333334,
            "L": 80.73333333333333,
            "A": 82.86666666666666,
            "B": 83.86666666666666,
            "C": 84.93333333333334,
            "D": 84.53333333333333
        },
        "bus1": {
            "G": 79.9375,
            "H": 79.5,
            "I": 82,
            "J": 81.625,
            "K": 82.73333333333333,
            "L": 82.26666666666667,
            "A": 83.26666666666667,
            "B": 85.06666666666666,
            "C": 85.73333333333333,
            "D": 85.73333333333333,
            "E": 86.06666666666666,
            "F": 84.8
        },
        "bus2": {
            "H": 75.75,
            "I": 76.25,
            "J": 77,
            "K": 76.5625,
            "L": 77.875,
            "A": 76.73333333333333,
            "B": 76.8,
            "C": 77.13333333333334,
            "D": 79.06666666666666,
            "E": 80.2,
            "F": 80.4,
            "G": 80
        },
        "bus3": {
            "I": 73.6875,
            "J": 76.1875,
            "K": 75.375,
            "L": 77.5625,
            "A": 77.1875,
            "B": 78.5,
            "C": 80.66666666666667,
            "D": 79.8,
            "E": 79.53333333333333,
            "F": 80.2,
            "G": 79.2,
            "H": 79.26666666666667
        },
        "bus4": {
            "J": 69.9375,
            "K": 68.9375,
            "L": 69.1875,
            "A": 69.6875,
            "B": 71.5,
            "C": 72.4375,
            "D": 71.5625,
            "E": 72.6,
            "F": 72.86666666666666,
            "G": 73.73333333333333,
            "H": 73.66666666666667,
            "I": 73.33333333333333
        },
        "bus5": {
            "K": 82.375,
            "L": 81.5,
            "A": 84.25,
            "B": 84.25,
            "C": 85.0625,
            "D": 86.0625,
            "E": 85.5625,
            "F": 86.8125,
            "G": 86.4,
            "H": 88.46666666666667,
            "I": 88.93333333333334,
            "J": 87.53333333333333
        }
    }
}