{
    "Average_holding_time": 9.378068739770868,
    "Average_travel_time_passengers": 2484.827184143983,
    "Average_speed_busses": 0.050916666666666666,
    "Average_experienced_crowding": 74.2010810100332,
    "Average_covariation_headway": 0.27416491017936184,
    "Average_covariation_headway_stops": {
        "B": 0.22955452199936185,
        "E": 0.23180867336458813,
        "F": 0.21889381320557488,
        "G": 0.21265166147318174,
        "H": 0.21083429938331,
        "I": 0.20822394449650913,
        "J": 0.19062498669073083,
        "C": 0.21191895109120332,
        "K": 0.1944322400170018,
        "D": 0.21393949278959495,
        "L": 0.208502582949623,
        "A": 0.21906760985259371
    },
    "Average_excess_waiting_time": {
        "B": 45.15590573328467,
        "E": 46.33120829635976,
        "F": 43.66221226689339,
        "G": 41.18349806741469,
        "H": 39.47598353849298,
        "I": 37.6219927191147,
        "J": 36.974457776223176,
        "C": 44.257876773311864,
        "K": 39.312765959588205,
        "D": 46.015204530549,
        "L": 42.35511163026706,
        "A": 45.35527616522825
    },
    "Holding_per_stop": {
        "F": 9.705882352941176,
        "I": 7.572815533980583,
        "G": 10.882352941176471,
        "H": 6.407766990291262,
        "B": 4.117647058823529,
        "E": 10.396039603960396,
        "J": 8.823529411764707,
        "C": 9.504950495049505,
        "K": 12.058823529411764,
        "L": 14.705882352941176,
        "D": 13.069306930693068,
        "A": 5.346534653465347
    },
    "Load_per_bus_per_stop": {
        "bus0": {
            "B": 69.17647058823529,
            "C": 71.23529411764706,
            "D": 71.88235294117646,
            "E": 72.3529411764706,
            "F": 72.11764705882354,
            "G": 75.3529411764706,
            "H": 75.29411764705883,
            "I": 76.11764705882354,
            "J": 74.88235294117646,
            "K": 73.94117647058823,
            "L": 71.70588235294117,
            "A": 75
        },
        "bus1": {
            "E": 69.29411764705883,
            "F": 70,
            "G": 71.29411764705883,
            "H": 71.29411764705883,
            "I": 71.29411764705883,
            "J": 71.47058823529412,
            "K": 72.05882352941177,
            "L": 70.76470588235294,
            "A": 72.94117647058823,
            "B": 73,
            "C": 72.875,
            "D": 71.4375
        },
        "bus2": {
            "F": 69.05882352941177,
            "G": 68.88235294117646,
            "H": 69.88235294117646,
            "I": 69.6470588235294,
            "J": 69.05882352941177,
            "K": 69,
            "L": 69.82352941176471,
            "A": 71.58823529411765,
            "B": 72.58823529411765,
            "C": 73.3529411764706,
            "D": 73.11764705882354,
            "E": 72.25
        },
        "bus3": {
            "G": 64.41176470588235,
            "H": 66.3529411764706,
            "I": 66.94117647058823,
            "J": 67.82352941176471,
            "K": 68.88235294117646,
            "L": 68.47058823529412,
            "A": 66.88235294117646,
            "B": 67.82352941176471,
            "C": 65.88235294117646,
            "D": 67.58823529411765,
            "E": 67.41176470588235,
            "F": 66.82352941176471
        },
        "bus4": {
            "H": 66.27777777777777,
            "I": 67.88235294117646,
            "J": 69.70588235294117,
            "K": 72.3529411764706,
            "L": 72.41176470588235,
            "A": 73.6470588235294,
            "B": 73.82352941176471,
            "C": 76.29411764705883,
            "D": 74.6470588235294,
            "E": 73.05882352941177,
            "F": 73.05882352941177,
            "G": 70.76470588235294
        },
        "bus5": {
            "I": 74.44444444444444,
            "J": 73.27777777777777,
            "K": 76.23529411764706,
            "L": 75.82352941176471,
            "A": 77.58823529411765,
            "B": 77.6470588235294,
            "C": 77.29411764705883,
            "D": 78.76470588235294,
            "E": 79.58823529411765,
            "F": 79.41176470588235,
            "G": 80.23529411764706,
            "H": 80.11764705882354
        }
    }
}294
        }
    }
}