{
    "Average_holding_time": 10.204918032786885,
    "Average_travel_time_passengers": 2505.122074170212,
    "Average_speed_busses": 0.050833333333333335,
    "Average_experienced_crowding": 75.3421150687345,
    "Average_covariation_headway": 0.3322985539202259,
    "Average_covariation_headway_stops": {
        "B": 0.21564643914692197,
        "C": 0.21854663705360336,
        "D": 0.21547593755376748,
        "H": 0.22476218640085785,
        "J": 0.22370767068350408,
        "L": 0.22575645951918516,
        "E": 0.20617061664135855,
        "K": 0.20828422975928304,
        "A": 0.2135717402250824,
        "I": 0.21444079142508307,
        "F": 0.1988550688571749,
        "G": 0.21329490689924216
    },
    "Average_excess_waiting_time": {
        "B": 43.32869013731755,
        "C": 42.20111194259192,
        "D": 40.29441894038882,
        "H": 44.35771258439166,
        "J": 43.983522620860754,
        "L": 44.343792432524424,
        "E": 41.24121255174282,
        "K": 43.63600683580859,
        "A": 44.63412799949123,
        "I": 44.396101488879935,
        "F": 41.32645831098421,
        "G": 44.45989210650083
    },
    "Holding_per_stop": {
        "C": 12.352941176470589,
        "D": 9.611650485436893,
        "J": 10.882352941176471,
        "L": 6.764705882352941,
        "B": 9.411764705882353,
        "H": 11.764705882352942,
        "E": 9.705882352941176,
        "K": 9.801980198019802,
        "A": 11.584158415841584,
        "F": 9.207920792079207,
        "I": 8.316831683168317,
        "G": 13.069306930693068
    },
    "Load_per_bus_per_stop": {
        "bus0": {
            "B": 61.411764705882355,
            "C": 60.8235294117647,
            "D": 61,
            "E": 62.588235294117645,
            "F": 64.05882352941177,
            "G": 66.11764705882354,
            "H": 68.17647058823529,
            "I": 68.29411764705883,
            "J": 68.11764705882354,
            "K": 69.6470588235294,
            "L": 67.3529411764706,
            "A": 65.5
        },
        "bus1": {
            "C": 52.11764705882353,
            "D": 53.11764705882353,
            "E": 53.705882352941174,
            "F": 56.64705882352941,
            "G": 58,
            "H": 59.294117647058826,
            "I": 59.35294117647059,
            "J": 58.11764705882353,
            "K": 58.05882352941177,
            "L": 57.94117647058823,
            "A": 58.23529411764706,
            "B": 56.76470588235294
        },
        "bus2": {
            "D": 78.22222222222223,
            "E": 80,
            "F": 79.82352941176471,
            "G": 80.82352941176471,
            "H": 82.17647058823529,
            "I": 84.41176470588235,
            "J": 85.52941176470588,
            "K": 85.11764705882354,
            "L": 85.3529411764706,
            "A": 83.82352941176471,
            "B": 81.6470588235294,
            "C": 82.76470588235294
        },
        "bus3": {
            "H": 86,
            "I": 86.47058823529412,
            "J": 88.70588235294117,
            "K": 89.41176470588235,
            "L": 88.23529411764706,
            "A": 86.70588235294117,
            "B": 88.70588235294117,
            "C": 88.41176470588235,
            "D": 89.17647058823529,
            "E": 88.11764705882354,
            "F": 88.1875,
            "G": 89.125
        },
        "bus4": {
            "J": 72.70588235294117,
            "K": 71.70588235294117,
            "L": 73.05882352941177,
            "A": 74.23529411764706,
            "B": 73.94117647058823,
            "C": 73.6470588235294,
            "D": 74.76470588235294,
            "E": 74.47058823529412,
            "F": 76.58823529411765,
            "G": 75.6470588235294,
            "H": 75.3529411764706,
            "I": 75.625
        },
        "bus5": {
            "L": 66.76470588235294,
            "A": 67.05882352941177,
            "B": 66.52941176470588,
            "C": 67.70588235294117,
            "D": 67.76470588235294,
            "E": 69,
            "F": 68.52941176470588,
            "G": 68.23529411764706,
            "H": 69.58823529411765,
            "I": 70.76470588235294,
            "J": 69.88235294117646,
            "K": 70.375
        }
    }
}