{
    "Average_holding_time": 17.84263959390863,
    "Average_travel_time_passengers": 2564.709723477325,
    "Average_speed_busses": 0.04925,
    "Average_experienced_crowding": 75.8141986842369,
    "Average_covariation_headway": 0.1785974516739908,
    "Average_covariation_headway_stops": {
        "C": 0.11385123303170103,
        "F": 0.12140468808650086,
        "G": 0.11738036289876819,
        "I": 0.11197438062178626,
        "J": 0.1271403653059743,
        "A": 0.1381379425423008,
        "D": 0.09168656889207485,
        "K": 0.10416394979016173,
        "H": 0.08419484429002735,
        "B": 0.10946961652924146,
        "E": 0.09811510552094055,
        "L": 0.11585961760995273
    },
    "Average_excess_waiting_time": {
        "C": 41.226301509252835,
        "F": 43.675138085532694,
        "G": 41.679647190286516,
        "I": 41.29927151586685,
        "J": 40.75093321921025,
        "A": 43.237327405568976,
        "D": 41.83084471650119,
        "K": 40.61155124258181,
        "H": 41.198909389830476,
        "B": 42.59015923381071,
        "E": 43.60329371955379,
        "L": 43.19233214132612
    },
    "Holding_per_stop": {
        "C": 20.90909090909091,
        "J": 24.242424242424242,
        "G": 10.303030303030303,
        "A": 13.93939393939394,
        "I": 24.545454545454547,
        "F": 10.714285714285714,
        "D": 11.326530612244898,
        "K": 35.75757575757576,
        "H": 14.693877551020408,
        "B": 9.795918367346939,
        "L": 23.571428571428573,
        "E": 14.081632653061224
    },
    "Load_per_bus_per_stop": {
        "bus0": {
            "C": 71.6470588235294,
            "D": 72,
            "E": 72.23529411764706,
            "F": 75.3529411764706,
            "G": 76.52941176470588,
            "H": 78.4375,
            "I": 76.875,
            "J": 77.375,
            "K": 77.5,
            "L": 76.375,
            "A": 76.125,
            "B": 75.375
        },
        "bus1": {
            "F": 75.11764705882354,
            "G": 74.3529411764706,
            "H": 74,
            "I": 76.3529411764706,
            "J": 76.47058823529412,
            "K": 76.625,
            "L": 76.125,
            "A": 75.375,
            "B": 74.875,
            "C": 75.25,
            "D": 75.25,
            "E": 77.5625
        },
        "bus2": {
            "G": 73.82352941176471,
            "H": 73.94117647058823,
            "I": 75.3529411764706,
            "J": 74.23529411764706,
            "K": 75.6470588235294,
            "L": 76.875,
            "A": 77.375,
            "B": 78,
            "C": 77.125,
            "D": 77.125,
            "E": 77.1875,
            "F": 77.75
        },
        "bus3": {
            "I": 69.88235294117646,
            "J": 70.6470588235294,
            "K": 72.6470588235294,
            "L": 74.6470588235294,
            "A": 74.58823529411765,
            "B": 75.76470588235294,
            "C": 71.9375,
            "D": 72,
            "E": 71.5,
            "F": 73.3125,
            "G": 73.125,
            "H": 72.5625
        },
        "bus4": {
            "J": 73.82352941176471,
            "K": 73.58823529411765,
            "L": 75.6470588235294,
            "A": 77.82352941176471,
            "B": 78.94117647058823,
            "C": 78.82352941176471,
            "D": 77.5625,
            "E": 77.75,
            "F": 79,
            "G": 77.875,
            "H": 77.875,
            "I": 78.25
        },
        "bus5": {
            "A": 72.94117647058823,
            "B": 72.47058823529412,
            "C": 73,
            "D": 73.05882352941177,
            "E": 72.76470588235294,
            "F": 73.375,
            "G": 73.5,
            "H": 75.6875,
            "I": 75.8125,
            "J": 79.5625,
            "K": 80.0625,
            "L": 78.625
        }
    }
}