{
    "Average_holding_time": 11.475680131904369,
    "Average_travel_time_passengers": 2519.441332034927,
    "Average_speed_busses": 0.050541666666666665,
    "Average_experienced_crowding": 76.87330899242797,
    "Average_covariation_headway": 0.3583793844894669,
    "Average_covariation_headway_stops": {
        "D": 0.254712418051763,
        "E": 0.2525545611188674,
        "F": 0.25504434708856444,
        "G": 0.25113255918694277,
        "L": 0.2833206619013718,
        "A": 0.26937308288052786,
        "B": 0.2551923559537701,
        "H": 0.2376438889230181,
        "C": 0.2483431936769197,
        "I": 0.24100953792166266,
        "J": 0.2510777716913276,
        "K": 0.2736763356449546
    },
    "Average_excess_waiting_time": {
        "D": 51.8213432521394,
        "E": 49.46814158748583,
        "F": 48.20205339164562,
        "G": 46.17389466688496,
        "L": 55.799006709913215,
        "A": 52.14755860863136,
        "B": 51.445327005129286,
        "H": 45.774157023726616,
        "C": 52.45131961515136,
        "I": 48.09776648007505,
        "J": 50.99715603640993,
        "K": 55.872751694042336
    },
    "Holding_per_stop": {
        "E": 15.148514851485148,
        "F": 10.882352941176471,
        "A": 9.504950495049505,
        "G": 10.882352941176471,
        "L": 19.00990099009901,
        "D": 13.663366336633663,
        "B": 9.504950495049505,
        "H": 6.470588235294118,
        "C": 9,
        "I": 9.504950495049505,
        "J": 10.099009900990099,
        "K": 14.1
    },
    "Load_per_bus_per_stop": {
        "bus0": {
            "D": 71.05882352941177,
            "E": 73.41176470588235,
            "F": 74,
            "G": 75.6470588235294,
            "H": 74.29411764705883,
            "I": 73.52941176470588,
            "J": 71.23529411764706,
            "K": 72.88235294117646,
            "L": 73.41176470588235,
            "A": 73,
            "B": 72.3125,
            "C": 73.4375
        },
        "bus1": {
            "E": 61.470588235294116,
            "F": 62.470588235294116,
            "G": 62.64705882352941,
            "H": 62.35294117647059,
            "I": 66.11764705882354,
            "J": 65.3529411764706,
            "K": 66.88235294117646,
            "L": 67,
            "A": 68.17647058823529,
            "B": 68.17647058823529,
            "C": 66.8125,
            "D": 66.25
        },
        "bus2": {
            "F": 50,
            "G": 51.05882352941177,
            "H": 51.411764705882355,
            "I": 52.470588235294116,
            "J": 52.64705882352941,
            "K": 52.411764705882355,
            "L": 52.64705882352941,
            "A": 52.76470588235294,
            "B": 52.8235294117647,
            "C": 53.05882352941177,
            "D": 53.294117647058826,
            "E": 52.625
        },
        "bus3": {
            "G": 78.11764705882354,
            "H": 76.82352941176471,
            "I": 77.52941176470588,
            "J": 77.05882352941177,
            "K": 78.94117647058823,
            "L": 80.11764705882354,
            "A": 80.23529411764706,
            "B": 80.70588235294117,
            "C": 80.6470588235294,
            "D": 80.88235294117646,
            "E": 81.17647058823529,
            "F": 82.05882352941177
        },
        "bus4": {
            "L": 91.94117647058823,
            "A": 90.11764705882354,
            "B": 89.52941176470588,
            "C": 90.47058823529412,
            "D": 89.88235294117646,
            "E": 91.23529411764706,
            "F": 93.58823529411765,
            "G": 93.82352941176471,
            "H": 93.29411764705883,
            "I": 94.375,
            "J": 93.375,
            "K": 94.75
        },
        "bus5": {
            "A": 73.11764705882354,
            "B": 74.05882352941177,
            "C": 73.41176470588235,
            "D": 75,
            "E": 75.29411764705883,
            "F": 76,
            "G": 76.17647058823529,
            "H": 77.76470588235294,
            "I": 77.47058823529412,
            "J": 78.76470588235294,
            "K": 78.6875,
            "L": 77.0625
        }
    }
}