{
    "Average_holding_time": 23.823529411764707,
    "Average_travel_time_passengers": 2622.6977993488354,
    "Average_speed_busses": 0.04816666666666667,
    "Average_experienced_crowding": 77.31620821556803,
    "Average_covariation_headway": 0.11304106535861938,
    "Average_covariation_headway_stops": {
        "D": 0.10019263102727873,
        "G": 0.10305190029894545,
        "H": 0.10245070856525555,
        "I": 0.1070504020931704,
        "J": 0.11792444285768246,
        "A": 0.10661324103102524,
        "K": 0.09528123787826982,
        "B": 0.08302093576683654,
        "E": 0.07881709495350746,
        "L": 0.09119387159861249,
        "C": 0.08636130384637652,
        "F": 0.08221800042953119
    },
    "Average_excess_waiting_time": {
        "D": 48.0346997393554,
        "G": 49.7486525575506,
        "H": 48.07046260242572,
        "I": 46.85324054603552,
        "J": 46.01642425365219,
        "A": 46.93950318707641,
        "K": 46.14963080320558,
        "B": 47.11935317246423,
        "E": 48.499167995436494,
        "L": 47.46127511560786,
        "C": 48.9136731848879,
        "F": 50.208996241328634
    },
    "Holding_per_stop": {
        "J": 28.45360824742268,
        "A": 5.257731958762887,
        "D": 23.75,
        "H": 26.90721649484536,
        "I": 25.051546391752577,
        "G": 26.5625,
        "K": 28.144329896907216,
        "B": 8.4375,
        "E": 27.1875,
        "C": 28.4375,
        "L": 31.25,
        "F": 26.526315789473685
    },
    "Load_per_bus_per_stop": {
        "bus0": {
            "D": 74.76470588235294,
            "E": 74.125,
            "F": 74.3125,
            "G": 75,
            "H": 76.875,
            "I": 77.1875,
            "J": 77.875,
            "K": 78.125,
            "L": 77.5,
            "A": 77.9375,
            "B": 79.375,
            "C": 79.0625
        },
        "bus1": {
            "G": 71.1875,
            "H": 71.5625,
            "I": 71.625,
            "J": 73.125,
            "K": 72.6875,
            "L": 75.5625,
            "A": 75.625,
            "B": 75.6875,
            "C": 77.375,
            "D": 76.5,
            "E": 76.75,
            "F": 78.375
        },
        "bus2": {
            "H": 75.70588235294117,
            "I": 78.5,
            "J": 79.25,
            "K": 79.125,
            "L": 78.625,
            "A": 78.3125,
            "B": 76.5,
            "C": 77.75,
            "D": 78.625,
            "E": 80.25,
            "F": 79.1875,
            "G": 80.375
        },
        "bus3": {
            "I": 72.17647058823529,
            "J": 72.6470588235294,
            "K": 74.6875,
            "L": 73.4375,
            "A": 74.6875,
            "B": 72.3125,
            "C": 73.3125,
            "D": 75.25,
            "E": 75.875,
            "F": 75.75,
            "G": 77,
            "H": 77.125
        },
        "bus4": {
            "J": 76.23529411764706,
            "K": 76.3529411764706,
            "L": 76.6470588235294,
            "A": 78.25,
            "B": 80.25,
            "C": 82.375,
            "D": 82.8125,
            "E": 81.0625,
            "F": 80.4375,
            "G": 79.4375,
            "H": 79.9375,
            "I": 79.5
        },
        "bus5": {
            "A": 75.76470588235294,
            "B": 74.76470588235294,
            "C": 72.5625,
            "D": 73,
            "E": 74.625,
            "F": 76.0625,
            "G": 75.75,
            "H": 76.625,
            "I": 77.125,
            "J": 77.1875,
            "K": 77.75,
            "L": 77
        }
    }
}