{
    "Average_holding_time": 13.763530391340549,
    "Average_travel_time_passengers": 2541.4728209857776,
    "Average_speed_busses": 0.050041666666666665,
    "Average_experienced_crowding": 76.47813096222932,
    "Average_covariation_headway": 0.19504373505908382,
    "Average_covariation_headway_stops": {
        "B": 0.21924537837230423,
        "D": 0.18848623960529665,
        "E": 0.17827902818903096,
        "K": 0.23816616384381323,
        "L": 0.23255359459134364,
        "A": 0.22118457727060703,
        "F": 0.1491098526646793,
        "C": 0.19274132193193533,
        "G": 0.13479382249285388,
        "H": 0.1453602692434381,
        "I": 0.18079605854143124,
        "J": 0.21842627324895744
    },
    "Average_excess_waiting_time": {
        "B": 46.40490863826864,
        "D": 42.84844464739189,
        "E": 40.30460333179252,
        "K": 53.92412263177329,
        "L": 51.43664096993848,
        "A": 48.29292412208838,
        "F": 38.9417889392617,
        "C": 44.934979870959125,
        "G": 39.391723930551336,
        "H": 41.64852814739908,
        "I": 46.76155237722304,
        "J": 52.72977882660297
    },
    "Holding_per_stop": {
        "L": 18.9,
        "E": 12.178217821782178,
        "B": 12.178217821782178,
        "A": 6.9,
        "D": 16.93069306930693,
        "K": 15.757575757575758,
        "F": 13.96039603960396,
        "C": 20.4,
        "G": 13.8,
        "H": 9.3,
        "I": 12.424242424242424,
        "J": 12.424242424242424
    },
    "Load_per_bus_per_stop": {
        "bus0": {
            "B": 68.52941176470588,
            "C": 70.76470588235294,
            "D": 71.70588235294117,
            "E": 72.94117647058823,
            "F": 72.70588235294117,
            "G": 74.41176470588235,
            "H": 72.23529411764706,
            "I": 72,
            "J": 71.3529411764706,
            "K": 71.875,
            "L": 71.9375,
            "A": 72.75
        },
        "bus1": {
            "D": 62.11764705882353,
            "E": 64.94117647058823,
            "F": 65.76470588235294,
            "G": 68.11764705882354,
            "H": 68.3529411764706,
            "I": 69.3529411764706,
            "J": 69.6470588235294,
            "K": 70.47058823529412,
            "L": 69.41176470588235,
            "A": 67.3125,
            "B": 67.0625,
            "C": 66.875
        },
        "bus2": {
            "E": 80.17647058823529,
            "F": 80.88235294117646,
            "G": 82,
            "H": 82.29411764705883,
            "I": 80.70588235294117,
            "J": 82.82352941176471,
            "K": 83.88235294117646,
            "L": 85.23529411764706,
            "A": 84.88235294117646,
            "B": 85.6470588235294,
            "C": 87.0625,
            "D": 86.625
        },
        "bus3": {
            "K": 74.47058823529412,
            "L": 74.11764705882354,
            "A": 74.70588235294117,
            "B": 75.52941176470588,
            "C": 77.29411764705883,
            "D": 79.47058823529412,
            "E": 79.25,
            "F": 79.8125,
            "G": 78.5625,
            "H": 76.75,
            "I": 77.6875,
            "J": 77.375
        },
        "bus4": {
            "L": 75.6470588235294,
            "A": 73.70588235294117,
            "B": 73.52941176470588,
            "C": 74.82352941176471,
            "D": 76.47058823529412,
            "E": 77.6470588235294,
            "F": 78.94117647058823,
            "G": 80.5625,
            "H": 83.8125,
            "I": 85.625,
            "J": 82.625,
            "K": 80.125
        },
        "bus5": {
            "A": 69.76470588235294,
            "B": 70.11764705882354,
            "C": 70.6470588235294,
            "D": 70.23529411764706,
            "E": 71.41176470588235,
            "F": 71.23529411764706,
            "G": 70.76470588235294,
            "H": 70.29411764705883,
            "I": 70.1875,
            "J": 70.8125,
            "K": 71.1875,
            "L": 72
        }
    }
}