{
    "Average_holding_time": 15.125628140703517,
    "Average_travel_time_passengers": 2560.650340911684,
    "Average_speed_busses": 0.04975,
    "Average_experienced_crowding": 75.56956733355993,
    "Average_covariation_headway": 0.12059757649813782,
    "Average_covariation_headway_stops": {
        "B": 0.1008135894360399,
        "E": 0.0935671861245792,
        "G": 0.08678948312462215,
        "J": 0.10055069368148097,
        "K": 0.09929754667047984,
        "A": 0.0892825290980488,
        "C": 0.06713671052919956,
        "L": 0.06922377207424588,
        "H": 0.07041938006450682,
        "F": 0.06202694007039887,
        "D": 0.06958793653081405,
        "I": 0.07119588602703326
    },
    "Average_excess_waiting_time": {
        "B": 36.473904726759486,
        "E": 37.350149230477314,
        "G": 36.95331673302809,
        "J": 39.3553562439422,
        "K": 37.67199989431066,
        "A": 37.53669024459475,
        "C": 36.269579574233205,
        "L": 38.03280263761411,
        "H": 37.77796909447039,
        "F": 37.462732200358175,
        "D": 37.85500645788477,
        "I": 39.211593730987204
    },
    "Holding_per_stop": {
        "B": 11.1,
        "K": 39,
        "G": 9.6,
        "A": 4.8,
        "E": 9.6,
        "J": 22.424242424242426,
        "C": 15.3,
        "L": 16.666666666666668,
        "H": 10.909090909090908,
        "F": 16.060606060606062,
        "D": 9.090909090909092,
        "I": 16.96969696969697
    },
    "Load_per_bus_per_stop": {
        "bus0": {
            "B": 70.11764705882354,
            "C": 71.82352941176471,
            "D": 75.29411764705883,
            "E": 75.05882352941177,
            "F": 75.88235294117646,
            "G": 75.76470588235294,
            "H": 76.3529411764706,
            "I": 74.11764705882354,
            "J": 74.75,
            "K": 74.875,
            "L": 74.1875,
            "A": 75.125
        },
        "bus1": {
            "E": 73.88235294117646,
            "F": 76.17647058823529,
            "G": 75.47058823529412,
            "H": 74.6470588235294,
            "I": 74.82352941176471,
            "J": 75.3529411764706,
            "K": 76.29411764705883,
            "L": 78.5625,
            "A": 77.375,
            "B": 76.375,
            "C": 77.4375,
            "D": 77.1875
        },
        "bus2": {
            "G": 70.94117647058823,
            "H": 71.29411764705883,
            "I": 70.88235294117646,
            "J": 73.11764705882354,
            "K": 73.29411764705883,
            "L": 74.47058823529412,
            "A": 75.52941176470588,
            "B": 75.9375,
            "C": 76.125,
            "D": 75.9375,
            "E": 76.125,
            "F": 75.5625
        },
        "bus3": {
            "J": 73.05882352941177,
            "K": 74.05882352941177,
            "L": 74.88235294117646,
            "A": 75.58823529411765,
            "B": 76.05882352941177,
            "C": 75.88235294117646,
            "D": 74.8125,
            "E": 72.25,
            "F": 72,
            "G": 74.3125,
            "H": 76.25,
            "I": 77.125
        },
        "bus4": {
            "K": 74.05882352941177,
            "L": 75.47058823529412,
            "A": 75.58823529411765,
            "B": 75.58823529411765,
            "C": 75.41176470588235,
            "D": 76.58823529411765,
            "E": 78,
            "F": 76.0625,
            "G": 76.3125,
            "H": 77.25,
            "I": 77.875,
            "J": 76.875
        },
        "bus5": {
            "A": 74.17647058823529,
            "B": 75.52941176470588,
            "C": 75.94117647058823,
            "D": 75.29411764705883,
            "E": 75.29411764705883,
            "F": 73.94117647058823,
            "G": 73.88235294117646,
            "H": 74.1875,
            "I": 76.5,
            "J": 77.8125,
            "K": 78.375,
            "L": 78.6875
        }
    }
}