{
    "Average_holding_time": 33.032200357781754,
    "Average_travel_time_passengers": 2742.6817089187934,
    "Average_speed_busses": 0.04658333333333333,
    "Average_experienced_crowding": 81.441292631964,
    "Average_covariation_headway": 0.11008320956054987,
    "Average_covariation_headway_stops": {
        "E": 0.11588079294167253,
        "F": 0.10892161111462549,
        "H": 0.08513431988384826,
        "J": 0.08841171513466156,
        "K": 0.09088205899861684,
        "A": 0.08774104819870386,
        "B": 0.059124324798199075,
        "L": 0.06623215732348336,
        "G": 0.07160705453060968,
        "I": 0.05669594761227658,
        "C": 0.06759377253541989,
        "D": 0.08796848948226423
    },
    "Average_excess_waiting_time": {
        "E": 60.862947883054915,
        "F": 58.62766355680378,
        "H": 57.08554889052664,
        "J": 57.46864520356439,
        "K": 55.89776542656813,
        "A": 55.63587063912456,
        "B": 55.85399435265725,
        "L": 56.380740162418135,
        "G": 58.01403596905209,
        "I": 57.240454308097924,
        "C": 57.97198277768206,
        "D": 60.667274843396115
    },
    "Holding_per_stop": {
        "A": 2.5531914893617023,
        "K": 48.51063829787234,
        "F": 36.12903225806452,
        "H": 34.193548387096776,
        "J": 42.903225806451616,
        "E": 30.322580645161292,
        "B": 24.574468085106382,
        "L": 27.419354838709676,
        "G": 33.87096774193548,
        "I": 42.25806451612903,
        "C": 46.45161290322581,
        "D": 27.391304347826086
    },
    "Load_per_bus_per_stop": {
        "bus0": {
            "E": 78.4375,
            "F": 78,
            "G": 79.25,
            "H": 78.25,
            "I": 78.5625,
            "J": 79.8125,
            "K": 78.93333333333334,
            "L": 81.6,
            "A": 80.6,
            "B": 82.8,
            "C": 84.66666666666667,
            "D": 84.8
        },
        "bus1": {
            "F": 81.25,
            "G": 80.5,
            "H": 78.1875,
            "I": 79.6875,
            "J": 80.125,
            "K": 80.375,
            "L": 82.375,
            "A": 82.06666666666666,
            "B": 82.46666666666667,
            "C": 81.93333333333334,
            "D": 80.86666666666666,
            "E": 83.13333333333334
        },
        "bus2": {
            "H": 76.0625,
            "I": 77.625,
            "J": 76,
            "K": 74.8125,
            "L": 75.1875,
            "A": 74.1875,
            "B": 75.3125,
            "C": 75.46666666666667,
            "D": 76.93333333333334,
            "E": 78.4,
            "F": 79.33333333333333,
            "G": 79.8
        },
        "bus3": {
            "J": 80.5625,
            "K": 81.4375,
            "L": 81.6875,
            "A": 81.6875,
            "B": 80.75,
            "C": 80.125,
            "D": 81.875,
            "E": 84.46666666666667,
            "F": 84.26666666666667,
            "G": 85,
            "H": 85.4,
            "I": 87.13333333333334
        },
        "bus4": {
            "K": 78.375,
            "L": 77.3125,
            "A": 77.9375,
            "B": 79.125,
            "C": 79.5625,
            "D": 80.375,
            "E": 82.1875,
            "F": 83.625,
            "G": 84.26666666666667,
            "H": 84.73333333333333,
            "I": 84.8,
            "J": 84.53333333333333
        },
        "bus5": {
            "A": 78.5625,
            "B": 77.875,
            "C": 78.875,
            "D": 79.75,
            "E": 82.6875,
            "F": 83.5,
            "G": 83.5625,
            "H": 86.4375,
            "I": 87.86666666666666,
            "J": 86.46666666666667,
            "K": 86.6,
            "L": 84.6
        }
    }
}