{
    "Average_holding_time": 14.623745819397993,
    "Average_travel_time_passengers": 2535.5079885279147,
    "Average_speed_busses": 0.049833333333333334,
    "Average_experienced_crowding": 75.02302915554283,
    "Average_covariation_headway": 0.14204936109885188,
    "Average_covariation_headway_stops": {
        "C": 0.11963131766305223,
        "F": 0.11289147298923927,
        "G": 0.11061259827553674,
        "H": 0.11539527981106067,
        "J": 0.11016893397374466,
        "L": 0.11622381125452748,
        "D": 0.08586540859903347,
        "A": 0.09484359863767607,
        "K": 0.09784037928532074,
        "I": 0.1012313419182426,
        "B": 0.10321516288301183,
        "E": 0.09259734201940907
    },
    "Average_excess_waiting_time": {
        "C": 38.780814440268216,
        "F": 40.05159350076224,
        "G": 38.258132514291844,
        "H": 37.518951409905355,
        "J": 37.23233535190752,
        "L": 37.42855367570877,
        "D": 38.31755032605872,
        "A": 37.61297508917886,
        "K": 37.93025478062623,
        "I": 38.00893085798765,
        "B": 39.307530371856046,
        "E": 40.171949079748345
    },
    "Holding_per_stop": {
        "C": 24,
        "L": 21.9,
        "J": 19.5,
        "G": 6.9,
        "H": 14.7,
        "F": 14.848484848484848,
        "K": 24,
        "A": 5.1,
        "I": 16.8,
        "D": 10,
        "B": 9.393939393939394,
        "E": 8.181818181818182
    },
    "Load_per_bus_per_stop": {
        "bus0": {
            "C": 74.41176470588235,
            "D": 75.88235294117646,
            "E": 76.41176470588235,
            "F": 76.6470588235294,
            "G": 77.47058823529412,
            "H": 75.29411764705883,
            "I": 74,
            "J": 75.375,
            "K": 75.8125,
            "L": 76,
            "A": 75.4375,
            "B": 77.8125
        },
        "bus1": {
            "F": 71.94117647058823,
            "G": 71.94117647058823,
            "H": 71.29411764705883,
            "I": 71.70588235294117,
            "J": 73.88235294117646,
            "K": 75.17647058823529,
            "L": 75.875,
            "A": 74.3125,
            "B": 75.5,
            "C": 76.75,
            "D": 75.6875,
            "E": 76.3125
        },
        "bus2": {
            "G": 70.41176470588235,
            "H": 71.6470588235294,
            "I": 71.05882352941177,
            "J": 71.41176470588235,
            "K": 71.23529411764706,
            "L": 72.58823529411765,
            "A": 72.52941176470588,
            "B": 73.0625,
            "C": 72.5625,
            "D": 74.1875,
            "E": 72.625,
            "F": 73.5
        },
        "bus3": {
            "H": 72.11764705882354,
            "I": 74.11764705882354,
            "J": 76.17647058823529,
            "K": 74.76470588235294,
            "L": 75.41176470588235,
            "A": 76.47058823529412,
            "B": 78,
            "C": 75.6470588235294,
            "D": 76.375,
            "E": 75.125,
            "F": 76.25,
            "G": 76.1875
        },
        "bus4": {
            "J": 71.88235294117646,
            "K": 71.23529411764706,
            "L": 72.82352941176471,
            "A": 73.41176470588235,
            "B": 72.3529411764706,
            "C": 73.05882352941177,
            "D": 72.94117647058823,
            "E": 76.05882352941177,
            "F": 77.625,
            "G": 78.875,
            "H": 77.6875,
            "I": 76.125
        },
        "bus5": {
            "L": 71.11764705882354,
            "A": 71.58823529411765,
            "B": 75.23529411764706,
            "C": 75,
            "D": 76.11764705882354,
            "E": 77.05882352941177,
            "F": 77.29411764705883,
            "G": 78.41176470588235,
            "H": 77.125,
            "I": 76.125,
            "J": 75.9375,
            "K": 75.75
        }
    }
}