{
    "Average_holding_time": 26.069868995633186,
    "Average_travel_time_passengers": 2633.2633348803324,
    "Average_speed_busses": 0.04770833333333333,
    "Average_experienced_crowding": 79.72017855911183,
    "Average_covariation_headway": 0.1462185302306108,
    "Average_covariation_headway_stops": {
        "C": 0.21898554121792407,
        "D": 0.2091493125261957,
        "F": 0.17441517698179812,
        "G": 0.15590511864034315,
        "H": 0.15403859942602496,
        "I": 0.14199018551218553,
        "J": 0.12074785494742257,
        "E": 0.17888025208454067,
        "K": 0.10527841289418675,
        "L": 0.11716682589118776,
        "A": 0.1474609357487306,
        "B": 0.1906203885493148
    },
    "Average_excess_waiting_time": {
        "C": 65.27626380343554,
        "D": 62.22566369216895,
        "F": 58.1793158242055,
        "G": 54.631477164844455,
        "H": 52.88080494729161,
        "I": 50.23637191716438,
        "J": 50.06734046544153,
        "E": 60.280177475487335,
        "K": 50.617811053068465,
        "L": 52.99184569246171,
        "A": 57.21468113030238,
        "B": 63.42279740293844
    },
    "Holding_per_stop": {
        "I": 28.762886597938145,
        "D": 24.94736842105263,
        "H": 31.875,
        "G": 29.375,
        "F": 32.526315789473685,
        "C": 30,
        "J": 30.625,
        "E": 31.894736842105264,
        "K": 30.9375,
        "L": 30.63157894736842,
        "A": 3.473684210526316,
        "B": 7.340425531914893
    },
    "Load_per_bus_per_stop": {
        "bus0": {
            "C": 79.5,
            "D": 78.25,
            "E": 81.3125,
            "F": 81.5,
            "G": 82.9375,
            "H": 82.6875,
            "I": 82.3125,
            "J": 83.0625,
            "K": 86.4375,
            "L": 87.26666666666667,
            "A": 87.66666666666667,
            "B": 85.33333333333333
        },
        "bus1": {
            "D": 74.25,
            "E": 73.875,
            "F": 73.125,
            "G": 73.625,
            "H": 74.5,
            "I": 73.375,
            "J": 75.8125,
            "K": 76.125,
            "L": 78.25,
            "A": 78.0625,
            "B": 78.46666666666667,
            "C": 77.93333333333334
        },
        "bus2": {
            "F": 74.4375,
            "G": 72.6875,
            "H": 70.8125,
            "I": 71.75,
            "J": 73.4375,
            "K": 74.3125,
            "L": 76.9375,
            "A": 79.5625,
            "B": 80.1875,
            "C": 81.1875,
            "D": 79.13333333333334,
            "E": 79.66666666666667
        },
        "bus3": {
            "G": 75.875,
            "H": 77.3125,
            "I": 76.6875,
            "J": 77.1875,
            "K": 77.0625,
            "L": 76.9375,
            "A": 76.25,
            "B": 79.5625,
            "C": 81.1875,
            "D": 81,
            "E": 80.9375,
            "F": 79.53333333333333
        },
        "bus4": {
            "H": 75,
            "I": 76.6875,
            "J": 77.875,
            "K": 77.125,
            "L": 76.5625,
            "A": 78.875,
            "B": 78.5,
            "C": 78.6875,
            "D": 79.8125,
            "E": 79,
            "F": 78.5,
            "G": 78
        },
        "bus5": {
            "I": 76.52941176470588,
            "J": 77.875,
            "K": 78.5,
            "L": 80.5625,
            "A": 79,
            "B": 80.0625,
            "C": 80.5,
            "D": 81.5625,
            "E": 81.125,
            "F": 82.125,
            "G": 81.625,
            "H": 79.9375
        }
    }
}