{
    "Average_holding_time": 20.656996587030715,
    "Average_travel_time_passengers": 2607.4295729333567,
    "Average_speed_busses": 0.04883333333333333,
    "Average_experienced_crowding": 76.68836104610973,
    "Average_covariation_headway": 0.20160781603749958,
    "Average_covariation_headway_stops": {
        "B": 0.13954866550337588,
        "F": 0.15372541837883932,
        "H": 0.14627982187006716,
        "J": 0.13501885323219578,
        "K": 0.13054069815583716,
        "A": 0.12237367614536944,
        "L": 0.10690249336100831,
        "C": 0.11930954657770251,
        "I": 0.12230102852741893,
        "G": 0.13071621056020932,
        "D": 0.11895997713072003,
        "E": 0.12449638835066312
    },
    "Average_excess_waiting_time": {
        "B": 44.48164747080176,
        "F": 49.15348049056968,
        "H": 48.07052716480467,
        "J": 47.08115443390005,
        "K": 45.1598426391663,
        "A": 44.82299841732578,
        "L": 45.21988446759457,
        "C": 44.765495112952294,
        "I": 47.5406729024063,
        "G": 48.49164081369577,
        "D": 46.1993209613496,
        "E": 48.29147445475297
    },
    "Holding_per_stop": {
        "K": 29.387755102040817,
        "B": 13.636363636363637,
        "H": 19.897959183673468,
        "A": 7.040816326530612,
        "J": 21.73469387755102,
        "F": 21.649484536082475,
        "C": 32.755102040816325,
        "L": 17.448979591836736,
        "I": 21.34020618556701,
        "D": 21.649484536082475,
        "G": 21.649484536082475,
        "E": 19.79381443298969
    },
    "Load_per_bus_per_stop": {
        "bus0": {
            "B": 78.41176470588235,
            "C": 78.76470588235294,
            "D": 78.82352941176471,
            "E": 79.76470588235294,
            "F": 80.58823529411765,
            "G": 80.125,
            "H": 81.5,
            "I": 81.375,
            "J": 82.25,
            "K": 83.6875,
            "L": 84.6875,
            "A": 84.375
        },
        "bus1": {
            "F": 75,
            "G": 74.76470588235294,
            "H": 75.88235294117646,
            "I": 77.8125,
            "J": 77.1875,
            "K": 78.375,
            "L": 75.3125,
            "A": 73.8125,
            "B": 75.625,
            "C": 76.125,
            "D": 76.8125,
            "E": 78.4375
        },
        "bus2": {
            "H": 75.3529411764706,
            "I": 77.58823529411765,
            "J": 78.70588235294117,
            "K": 77.9375,
            "L": 78,
            "A": 78.375,
            "B": 79.4375,
            "C": 80.6875,
            "D": 80.8125,
            "E": 80.125,
            "F": 79.1875,
            "G": 80.125
        },
        "bus3": {
            "J": 73.76470588235294,
            "K": 73.05882352941177,
            "L": 74.29411764705883,
            "A": 74.75,
            "B": 74.8125,
            "C": 76.25,
            "D": 76.5,
            "E": 77.125,
            "F": 78.5,
            "G": 77.8125,
            "H": 78.8125,
            "I": 79.5625
        },
        "bus4": {
            "K": 69.6470588235294,
            "L": 68.82352941176471,
            "A": 68.29411764705883,
            "B": 71.17647058823529,
            "C": 69.1875,
            "D": 70.1875,
            "E": 71.8125,
            "F": 72,
            "G": 73.125,
            "H": 75.75,
            "I": 74.6875,
            "J": 74.75
        },
        "bus5": {
            "A": 72.11764705882354,
            "B": 71.58823529411765,
            "C": 71.6470588235294,
            "D": 71.94117647058823,
            "E": 70.25,
            "F": 70.0625,
            "G": 70.625,
            "H": 72.125,
            "I": 72.25,
            "J": 72.375,
            "K": 73.9375,
            "L": 74.625
        }
    }
}