{
    "Average_holding_time": 32.35294117647059,
    "Average_travel_time_passengers": 2736.102556240278,
    "Average_speed_busses": 0.04675,
    "Average_experienced_crowding": 81.84102150193789,
    "Average_covariation_headway": 0.09824110128774306,
    "Average_covariation_headway_stops": {
        "C": 0.08836449782432039,
        "E": 0.081001994302182,
        "F": 0.08483469414950737,
        "H": 0.0750625422709681,
        "K": 0.08161182752857736,
        "L": 0.08703012820763321,
        "I": 0.04621372619184277,
        "A": 0.050297700315959766,
        "G": 0.03886544173689251,
        "D": 0.0502779197745764,
        "J": 0.04723563409228253,
        "B": 0.056876983938201196
    },
    "Average_excess_waiting_time": {
        "C": 57.165837268746316,
        "E": 56.89041701314363,
        "F": 55.17845616493605,
        "H": 54.66175505119463,
        "K": 56.62186346141618,
        "L": 55.430744883596276,
        "I": 55.24385854433007,
        "A": 55.68804081121601,
        "G": 55.26521352581733,
        "D": 57.42180076035311,
        "J": 56.99902198868193,
        "B": 57.252361386726534
    },
    "Holding_per_stop": {
        "H": 32.87234042553192,
        "L": 32.87234042553192,
        "F": 34.46808510638298,
        "K": 53.61702127659574,
        "C": 54.516129032258064,
        "E": 31.612903225806452,
        "I": 35.1063829787234,
        "A": 0,
        "G": 29.677419354838708,
        "D": 24.516129032258064,
        "J": 40,
        "B": 19.032258064516128
    },
    "Load_per_bus_per_stop": {
        "bus0": {
            "C": 78.5,
            "D": 80.1875,
            "E": 79.75,
            "F": 80.5625,
            "G": 80.5,
            "H": 80.875,
            "I": 82.25,
            "J": 83.26666666666667,
            "K": 84.46666666666667,
            "L": 85.73333333333333,
            "A": 84.33333333333333,
            "B": 84.06666666666666
        },
        "bus1": {
            "E": 74.4375,
            "F": 76.8125,
            "G": 77.0625,
            "H": 79.375,
            "I": 78.4375,
            "J": 77.875,
            "K": 78.1875,
            "L": 81.13333333333334,
            "A": 81.86666666666666,
            "B": 81.06666666666666,
            "C": 81.2,
            "D": 80.26666666666667
        },
        "bus2": {
            "F": 81.625,
            "G": 83.375,
            "H": 83.625,
            "I": 82.5625,
            "J": 84.375,
            "K": 83.5,
            "L": 83.3125,
            "A": 83.9375,
            "B": 83.46666666666667,
            "C": 86.86666666666666,
            "D": 88.53333333333333,
            "E": 86.53333333333333
        },
        "bus3": {
            "H": 78.875,
            "I": 79.4375,
            "J": 79.8125,
            "K": 78.6875,
            "L": 78.875,
            "A": 80,
            "B": 79.625,
            "C": 79.5625,
            "D": 80,
            "E": 82,
            "F": 83.33333333333333,
            "G": 83.4
        },
        "bus4": {
            "K": 77.25,
            "L": 76.875,
            "A": 77.6875,
            "B": 79.25,
            "C": 79.5625,
            "D": 83.125,
            "E": 80.9375,
            "F": 81.66666666666667,
            "G": 80.8,
            "H": 79.73333333333333,
            "I": 79.8,
            "J": 80.73333333333333
        },
        "bus5": {
            "L": 81.6875,
            "A": 80.3125,
            "B": 81.9375,
            "C": 81.75,
            "D": 81.8125,
            "E": 83.6875,
            "F": 84.6875,
            "G": 85.9375,
            "H": 85.8,
            "I": 86.53333333333333,
            "J": 84.93333333333334,
            "K": 86.26666666666667
        }
    }
}
    }
}