{
    "Average_holding_time": 32.729705619982155,
    "Average_travel_time_passengers": 2721.6553039868318,
    "Average_speed_busses": 0.04670833333333333,
    "Average_experienced_crowding": 82.24322507969643,
    "Average_covariation_headway": 0.1386672243091722,
    "Average_covariation_headway_stops": {
        "B": 0.14422427956217945,
        "H": 0.2111837464139905,
        "I": 0.1979090455798277,
        "J": 0.19272497674230102,
        "K": 0.17964634522337883,
        "A": 0.1469069296289269,
        "C": 0.1256153501789051,
        "L": 0.15534793220501292,
        "D": 0.11828283880601508,
        "E": 0.11841390097020313,
        "F": 0.14339599774458273,
        "G": 0.18900092504086233
    },
    "Average_excess_waiting_time": {
        "B": 57.801849449290614,
        "H": 72.26488615531679,
        "I": 68.8257590889304,
        "J": 66.38827945726592,
        "K": 63.063319367793326,
        "A": 59.87370663306916,
        "C": 57.83174266965386,
        "L": 62.43872362927141,
        "D": 59.13154200541783,
        "E": 60.79499353012096,
        "F": 64.59583049164542,
        "G": 71.23656325652894
    },
    "Holding_per_stop": {
        "B": 19.263157894736842,
        "K": 51.06382978723404,
        "I": 37.096774193548384,
        "J": 41.29032258064516,
        "A": 4.787234042553192,
        "H": 36.45161290322581,
        "C": 51.38297872340426,
        "L": 29.677419354838708,
        "D": 23.93617021276596,
        "E": 32.58064516129032,
        "F": 30.967741935483872,
        "G": 34.56521739130435
    },
    "Load_per_bus_per_stop": {
        "bus0": {
            "B": 84.625,
            "C": 85.8125,
            "D": 85.5,
            "E": 84.25,
            "F": 87.75,
            "G": 87.125,
            "H": 87.6875,
            "I": 88.8125,
            "J": 89.3125,
            "K": 89.33333333333333,
            "L": 91,
            "A": 89.8
        },
        "bus1": {
            "H": 79.4375,
            "I": 80.3125,
            "J": 80.25,
            "K": 80.25,
            "L": 80.9375,
            "A": 80.66666666666667,
            "B": 81.86666666666666,
            "C": 81.8,
            "D": 84.26666666666667,
            "E": 84.4,
            "F": 85.93333333333334,
            "G": 84.4
        },
        "bus2": {
            "I": 75.25,
            "J": 76.75,
            "K": 77.6875,
            "L": 76.375,
            "A": 77,
            "B": 79,
            "C": 78.6,
            "D": 79.4,
            "E": 78.66666666666667,
            "F": 79.73333333333333,
            "G": 80.46666666666667,
            "H": 81
        },
        "bus3": {
            "J": 73.25,
            "K": 75.125,
            "L": 75.875,
            "A": 78.1875,
            "B": 79.75,
            "C": 77.875,
            "D": 78.3125,
            "E": 76.26666666666667,
            "F": 77.73333333333333,
            "G": 79.93333333333334,
            "H": 77.86666666666666,
            "I": 78.2
        },
        "bus4": {
            "K": 79.25,
            "L": 79.5625,
            "A": 78.25,
            "B": 78.3125,
            "C": 76.75,
            "D": 76.1875,
            "E": 77.4375,
            "F": 78.4375,
            "G": 79.6,
            "H": 78.2,
            "I": 79.8,
            "J": 82.26666666666667
        },
        "bus5": {
            "A": 79.1875,
            "B": 79.1875,
            "C": 79.125,
            "D": 78.9375,
            "E": 80.125,
            "F": 80.125,
            "G": 80.6875,
            "H": 80.4375,
            "I": 79.93333333333334,
            "J": 81.26666666666667,
            "K": 83.4,
            "L": 84.73333333333333
        }
    }
}6
        }
    }
}