{
    "Average_holding_time": 10.971993410214168,
    "Average_travel_time_passengers": 2527.8664986888284,
    "Average_speed_busses": 0.050583333333333334,
    "Average_experienced_crowding": 76.14491823421783,
    "Average_covariation_headway": 0.2992192601981844,
    "Average_covariation_headway_stops": {
        "B": 0.21259923212926926,
        "D": 0.19657451884694976,
        "E": 0.19928391597458223,
        "J": 0.23299334520221587,
        "L": 0.2153079879332502,
        "A": 0.20779316394217998,
        "C": 0.19935572052379108,
        "F": 0.1883736519125689,
        "K": 0.20995929193210147,
        "G": 0.18848462339224722,
        "H": 0.18924685717983572,
        "I": 0.21514584105148
    },
    "Average_excess_waiting_time": {
        "B": 42.38056612232663,
        "D": 40.379780351542195,
        "E": 39.5550158205744,
        "J": 47.70210304180358,
        "L": 45.83561818066295,
        "A": 43.36468543582765,
        "C": 42.26430413811505,
        "F": 39.838813609978615,
        "K": 46.818723070991894,
        "G": 40.434566389063434,
        "H": 41.96394916756691,
        "I": 46.53480035980033
    },
    "Holding_per_stop": {
        "B": 7.0588235294117645,
        "E": 15.294117647058824,
        "A": 5.0495049504950495,
        "L": 13.069306930693068,
        "D": 7.9411764705882355,
        "J": 12.772277227722773,
        "C": 14.851485148514852,
        "F": 12.058823529411764,
        "G": 15.742574257425742,
        "K": 5.7,
        "H": 12.178217821782178,
        "I": 9.9
    },
    "Load_per_bus_per_stop": {
        "bus0": {
            "B": 65.52941176470588,
            "C": 65.70588235294117,
            "D": 66.41176470588235,
            "E": 67.17647058823529,
            "F": 67.11764705882354,
            "G": 69,
            "H": 68.88235294117646,
            "I": 67.29411764705883,
            "J": 67.3529411764706,
            "K": 68.23529411764706,
            "L": 69.05882352941177,
            "A": 69.4375
        },
        "bus1": {
            "D": 65.05882352941177,
            "E": 65.6470588235294,
            "F": 67.6470588235294,
            "G": 68,
            "H": 68.3529411764706,
            "I": 69.94117647058823,
            "J": 69.88235294117646,
            "K": 70.94117647058823,
            "L": 69.17647058823529,
            "A": 68.23529411764706,
            "B": 69,
            "C": 68.0625
        },
        "bus2": {
            "E": 67.17647058823529,
            "F": 68.17647058823529,
            "G": 68.47058823529412,
            "H": 69,
            "I": 70.23529411764706,
            "J": 71.3529411764706,
            "K": 72.58823529411765,
            "L": 74.47058823529412,
            "A": 74.70588235294117,
            "B": 75.70588235294117,
            "C": 73.29411764705883,
            "D": 71.88235294117646
        },
        "bus3": {
            "J": 84.70588235294117,
            "K": 87,
            "L": 87.47058823529412,
            "A": 88.6470588235294,
            "B": 87.88235294117646,
            "C": 88.94117647058823,
            "D": 90.11764705882354,
            "E": 91.41176470588235,
            "F": 90.58823529411765,
            "G": 89.0625,
            "H": 90.875,
            "I": 90.75
        },
        "bus4": {
            "L": 71.52941176470588,
            "A": 71.3529411764706,
            "B": 70.23529411764706,
            "C": 71.82352941176471,
            "D": 74.41176470588235,
            "E": 73.3529411764706,
            "F": 74.11764705882354,
            "G": 75,
            "H": 76,
            "I": 76.58823529411765,
            "J": 76.75,
            "K": 75.8125
        },
        "bus5": {
            "A": 72.41176470588235,
            "B": 72.3529411764706,
            "C": 70.41176470588235,
            "D": 70.11764705882354,
            "E": 71.23529411764706,
            "F": 70.94117647058823,
            "G": 70.41176470588235,
            "H": 70.88235294117646,
            "I": 71.41176470588235,
            "J": 73.3529411764706,
            "K": 74.5,
            "L": 74
        }
    }
}  "I": 74.11764705882354,
            "J": 75.6470588235294,
            "K": 75.52941176470588,
            "L": 76.52941176470588
        }
    }
}