{
    "Average_holding_time": 8.536385936222404,
    "Average_travel_time_passengers": 2471.4095472460444,
    "Average_speed_busses": 0.050958333333333335,
    "Average_experienced_crowding": 72.76551773407418,
    "Average_covariation_headway": 0.13585180575567302,
    "Average_covariation_headway_stops": {
        "C": 0.1090048192810203,
        "F": 0.10616170258280806,
        "G": 0.1029048033786993,
        "H": 0.10798802131276655,
        "L": 0.14148661875618707,
        "A": 0.13000773268216048,
        "D": 0.08630366442593,
        "I": 0.0869685875857577,
        "B": 0.10015922144125809,
        "E": 0.09402647005222572,
        "J": 0.08014930744941823,
        "K": 0.1093643727455275
    },
    "Average_excess_waiting_time": {
        "C": 30.512833915506803,
        "F": 31.68539450321572,
        "G": 30.096046251357052,
        "H": 29.13323463499131,
        "L": 34.33857063278242,
        "A": 32.08511429457889,
        "D": 30.63298453634286,
        "I": 29.321708840691088,
        "B": 31.529757929782136,
        "E": 32.4901218017514,
        "J": 30.627347277856302,
        "K": 33.58238585142328
    },
    "Holding_per_stop": {
        "C": 13.235294117647058,
        "H": 8.155339805825243,
        "A": 3.823529411764706,
        "G": 7.647058823529412,
        "F": 7.647058823529412,
        "L": 12.058823529411764,
        "D": 8.235294117647058,
        "I": 5.882352941176471,
        "B": 8.529411764705882,
        "E": 6.8316831683168315,
        "J": 9.411764705882353,
        "K": 10.990099009900991
    },
    "Load_per_bus_per_stop": {
        "bus0": {
            "C": 68.38888888888889,
            "D": 70.6470588235294,
            "E": 70.76470588235294,
            "F": 70.3529411764706,
            "G": 71.70588235294117,
            "H": 71.52941176470588,
            "I": 72.6470588235294,
            "J": 72.41176470588235,
            "K": 72.76470588235294,
            "L": 73.70588235294117,
            "A": 73.23529411764706,
            "B": 73.23529411764706
        },
        "bus1": {
            "F": 62.94117647058823,
            "G": 64.76470588235294,
            "H": 65.76470588235294,
            "I": 65.17647058823529,
            "J": 66.3529411764706,
            "K": 66.88235294117646,
            "L": 68.11764705882354,
            "A": 67.11764705882354,
            "B": 67.3529411764706,
            "C": 67.05882352941177,
            "D": 68.52941176470588,
            "E": 68.11764705882354
        },
        "bus2": {
            "G": 69.83333333333333,
            "H": 70.23529411764706,
            "I": 70.58823529411765,
            "J": 69.58823529411765,
            "K": 70.52941176470588,
            "L": 70.94117647058823,
            "A": 72.88235294117646,
            "B": 72.17647058823529,
            "C": 72.6470588235294,
            "D": 71.6470588235294,
            "E": 71.82352941176471,
            "F": 72.11764705882354
        },
        "bus3": {
            "H": 71.44444444444444,
            "I": 72.66666666666667,
            "J": 73.41176470588235,
            "K": 76.70588235294117,
            "L": 77.3529411764706,
            "A": 77.82352941176471,
            "B": 77.05882352941177,
            "C": 76.82352941176471,
            "D": 75.29411764705883,
            "E": 74.41176470588235,
            "F": 73.47058823529412,
            "G": 74.47058823529412
        },
        "bus4": {
            "L": 72.23529411764706,
            "A": 71.29411764705883,
            "B": 74.52941176470588,
            "C": 72.70588235294117,
            "D": 72.76470588235294,
            "E": 72.70588235294117,
            "F": 74.23529411764706,
            "G": 75.58823529411765,
            "H": 75.94117647058823,
            "I": 75.52941176470588,
            "J": 75.58823529411765,
            "K": 76.5625
        },
        "bus5": {
            "A": 73.47058823529412,
            "B": 73.29411764705883,
            "C": 73.6470588235294,
            "D": 74.23529411764706,
            "E": 74.3529411764706,
            "F": 73.88235294117646,
            "G": 73.94117647058823,
            "H": 72.70588235294117,
            "I": 73.70588235294117,
            "J": 75.6470588235294,
            "K": 76.47058823529412,
            "L": 75.58823529411765
        }
    }
}