{
    "Average_holding_time": 25.330434782608695,
    "Average_travel_time_passengers": 2643.981474486228,
    "Average_speed_busses": 0.04791666666666667,
    "Average_experienced_crowding": 78.8453023430184,
    "Average_covariation_headway": 0.10375927585651883,
    "Average_covariation_headway_stops": {
        "C": 0.11689543700991671,
        "D": 0.10683906404449685,
        "F": 0.08233960075776516,
        "H": 0.08117792537319275,
        "I": 0.08901397915485476,
        "K": 0.08178106799484193,
        "E": 0.06022543033163018,
        "J": 0.052136205933222844,
        "G": 0.055767206651494754,
        "L": 0.04951040056381442,
        "A": 0.05867884798918776,
        "B": 0.09195816295555577
    },
    "Average_excess_waiting_time": {
        "C": 52.09893807712962,
        "D": 49.95075805575328,
        "F": 48.54257172232036,
        "H": 48.557602367103414,
        "I": 47.35155706464957,
        "K": 46.98940621021717,
        "E": 49.14204267363368,
        "J": 47.357346493187265,
        "G": 49.07640139421915,
        "L": 47.290989278434324,
        "A": 49.36746669271935,
        "B": 52.32101886453336
    },
    "Holding_per_stop": {
        "D": 24.375,
        "I": 28.75,
        "F": 27.1875,
        "K": 33.4375,
        "H": 28.4375,
        "C": 24.6875,
        "E": 29.375,
        "L": 26.5625,
        "G": 28.4375,
        "J": 28.75,
        "A": 4.7368421052631575,
        "B": 18.94736842105263
    },
    "Load_per_bus_per_stop": {
        "bus0": {
            "C": 75.0625,
            "D": 76.1875,
            "E": 75.125,
            "F": 75.5,
            "G": 77.5,
            "H": 78.6875,
            "I": 80.25,
            "J": 80.875,
            "K": 78.1875,
            "L": 78.875,
            "A": 78.6875,
            "B": 79.26666666666667
        },
        "bus1": {
            "D": 74.6875,
            "E": 76.9375,
            "F": 77.4375,
            "G": 77.375,
            "H": 79.4375,
            "I": 78.6875,
            "J": 79.5,
            "K": 79.4375,
            "L": 79.6875,
            "A": 78.875,
            "B": 79.375,
            "C": 79.3125
        },
        "bus2": {
            "F": 75.5,
            "G": 75.25,
            "H": 75.875,
            "I": 75.1875,
            "J": 74.25,
            "K": 75.5625,
            "L": 76.0625,
            "A": 73.9375,
            "B": 76.0625,
            "C": 78.25,
            "D": 79.5,
            "E": 78.75
        },
        "bus3": {
            "H": 73.5,
            "I": 76.375,
            "J": 78.5625,
            "K": 78.25,
            "L": 78.5625,
            "A": 77.875,
            "B": 79.375,
            "C": 79.1875,
            "D": 77.875,
            "E": 76.0625,
            "F": 77.125,
            "G": 77.4375
        },
        "bus4": {
            "I": 77.17647058823529,
            "J": 78.9375,
            "K": 81.4375,
            "L": 80.875,
            "A": 79.0625,
            "B": 79.5,
            "C": 80.1875,
            "D": 81.25,
            "E": 83.25,
            "F": 83.625,
            "G": 83.375,
            "H": 81.3125
        },
        "bus5": {
            "K": 78.41176470588235,
            "L": 78.0625,
            "A": 78.75,
            "B": 78.3125,
            "C": 78.8125,
            "D": 78.5625,
            "E": 78.625,
            "F": 78.4375,
            "G": 81.1875,
            "H": 80.875,
            "I": 81.5625,
            "J": 82.0625
        }
    }
}