{
    "Average_holding_time": 13.886572143452877,
    "Average_travel_time_passengers": 2554.0786302294587,
    "Average_speed_busses": 0.049958333333333334,
    "Average_experienced_crowding": 76.02152876848128,
    "Average_covariation_headway": 0.13265739878428737,
    "Average_covariation_headway_stops": {
        "B": 0.1254617092710681,
        "C": 0.12100626532932066,
        "D": 0.12237332415163762,
        "F": 0.10408665943869559,
        "I": 0.10098275683330149,
        "A": 0.13487710698165467,
        "E": 0.09919926643548989,
        "G": 0.08115894089560595,
        "J": 0.08128914736802889,
        "H": 0.084829720025958,
        "K": 0.09256419483590925,
        "L": 0.11529580140100494
    },
    "Average_excess_waiting_time": {
        "B": 39.65512842047889,
        "C": 37.61556339745454,
        "D": 36.48991561322492,
        "F": 35.13068645513357,
        "I": 36.23143497912139,
        "A": 41.98955925044015,
        "E": 36.31317528043979,
        "G": 35.02294675336964,
        "J": 36.54904629685376,
        "H": 36.89413034414616,
        "K": 38.8865945077215,
        "L": 41.7651130230513
    },
    "Holding_per_stop": {
        "D": 9.801980198019802,
        "F": 13.366336633663366,
        "B": 7.5,
        "I": 16.2,
        "C": 18.6,
        "A": 3.6363636363636362,
        "E": 9.9,
        "G": 7.2,
        "J": 17.7,
        "H": 11.1,
        "K": 33.93939393939394,
        "L": 17.87878787878788
    },
    "Load_per_bus_per_stop": {
        "bus0": {
            "B": 72.52941176470588,
            "C": 73.11764705882354,
            "D": 73.88235294117646,
            "E": 74.88235294117646,
            "F": 74.6470588235294,
            "G": 75.05882352941177,
            "H": 75.94117647058823,
            "I": 76.25,
            "J": 75.0625,
            "K": 75.3125,
            "L": 75.25,
            "A": 76.875
        },
        "bus1": {
            "C": 66.76470588235294,
            "D": 67.41176470588235,
            "E": 67.94117647058823,
            "F": 68.3529411764706,
            "G": 69.41176470588235,
            "H": 71.70588235294117,
            "I": 70.05882352941177,
            "J": 70.3529411764706,
            "K": 68.5625,
            "L": 70.3125,
            "A": 68.5625,
            "B": 69.4375
        },
        "bus2": {
            "D": 71.88235294117646,
            "E": 72.88235294117646,
            "F": 74.52941176470588,
            "G": 74.47058823529412,
            "H": 74.47058823529412,
            "I": 76.11764705882354,
            "J": 78.6470588235294,
            "K": 80.41176470588235,
            "L": 78.29411764705883,
            "A": 77.5,
            "B": 78.6875,
            "C": 78.0625
        },
        "bus3": {
            "F": 74.82352941176471,
            "G": 76.17647058823529,
            "H": 75.94117647058823,
            "I": 76.52941176470588,
            "J": 79.11764705882354,
            "K": 80.58823529411765,
            "L": 80.88235294117646,
            "A": 82.41176470588235,
            "B": 82.52941176470588,
            "C": 83.375,
            "D": 82.125,
            "E": 81.5625
        },
        "bus4": {
            "I": 74.58823529411765,
            "J": 73.82352941176471,
            "K": 74.29411764705883,
            "L": 76.29411764705883,
            "A": 77.17647058823529,
            "B": 77.47058823529412,
            "C": 78.3529411764706,
            "D": 80.3529411764706,
            "E": 80.625,
            "F": 81.625,
            "G": 80.5,
            "H": 81.0625
        },
        "bus5": {
            "A": 73.17647058823529,
            "B": 72.29411764705883,
            "C": 70.88235294117646,
            "D": 71.11764705882354,
            "E": 72.17647058823529,
            "F": 72.17647058823529,
            "G": 71.6875,
            "H": 74.5,
            "I": 76.0625,
            "J": 76.75,
            "K": 77.3125,
            "L": 76.8125
        }
    }
}