{
    "Average_holding_time": 16.274179983179142,
    "Average_travel_time_passengers": 2549.7363614889478,
    "Average_speed_busses": 0.049541666666666664,
    "Average_experienced_crowding": 75.6879611956166,
    "Average_covariation_headway": 0.16279745951676297,
    "Average_covariation_headway_stops": {
        "B": 0.10907878937785609,
        "C": 0.11692703513921154,
        "G": 0.14004743588753743,
        "H": 0.12895577190404614,
        "I": 0.12830667677850074,
        "L": 0.11535889690894147,
        "J": 0.11188999054803275,
        "D": 0.08194898395005751,
        "A": 0.08592816963843683,
        "K": 0.0948519091705669,
        "E": 0.08554537745821797,
        "F": 0.11338521447639593
    },
    "Average_excess_waiting_time": {
        "B": 39.81536459917879,
        "C": 38.75895954537975,
        "G": 44.02916668243529,
        "H": 41.33476178937673,
        "I": 39.80278441148795,
        "L": 40.305988474125854,
        "J": 39.88753054469555,
        "D": 38.162952847608665,
        "A": 39.93855315808935,
        "K": 40.55290808755586,
        "E": 39.73072451915198,
        "F": 42.83610001781733
    },
    "Holding_per_stop": {
        "H": 16.666666666666668,
        "I": 12.3,
        "C": 24.3,
        "L": 15.757575757575758,
        "G": 16.363636363636363,
        "B": 16.363636363636363,
        "J": 24.848484848484848,
        "D": 16.060606060606062,
        "A": 5.151515151515151,
        "K": 20.606060606060606,
        "E": 13.93939393939394,
        "F": 12.857142857142858
    },
    "Load_per_bus_per_stop": {
        "bus0": {
            "B": 70.94117647058823,
            "C": 71.70588235294117,
            "D": 72.70588235294117,
            "E": 73,
            "F": 75.29411764705883,
            "G": 74.76470588235294,
            "H": 72.4375,
            "I": 72.9375,
            "J": 70.6875,
            "K": 68.4375,
            "L": 71.3125,
            "A": 73.4375
        },
        "bus1": {
            "C": 72.70588235294117,
            "D": 74.05882352941177,
            "E": 74.47058823529412,
            "F": 75.47058823529412,
            "G": 77.17647058823529,
            "H": 78.41176470588235,
            "I": 81.58823529411765,
            "J": 82.375,
            "K": 81.5625,
            "L": 81.4375,
            "A": 80.125,
            "B": 78.125
        },
        "bus2": {
            "G": 70.94117647058823,
            "H": 70.76470588235294,
            "I": 72.05882352941177,
            "J": 73.47058823529412,
            "K": 74.47058823529412,
            "L": 75.625,
            "A": 76.75,
            "B": 75.1875,
            "C": 74.6875,
            "D": 74.3125,
            "E": 74.6875,
            "F": 76
        },
        "bus3": {
            "H": 74.76470588235294,
            "I": 73.88235294117646,
            "J": 74,
            "K": 75.05882352941177,
            "L": 74.05882352941177,
            "A": 74.58823529411765,
            "B": 76.6875,
            "C": 77.8125,
            "D": 77.9375,
            "E": 78.3125,
            "F": 77.375,
            "G": 78.625
        },
        "bus4": {
            "I": 71.58823529411765,
            "J": 71.6470588235294,
            "K": 72.41176470588235,
            "L": 74.6470588235294,
            "A": 74.05882352941177,
            "B": 74.47058823529412,
            "C": 76.58823529411765,
            "D": 76.8125,
            "E": 76.3125,
            "F": 76.9375,
            "G": 77.375,
            "H": 75.625
        },
        "bus5": {
            "L": 73.17647058823529,
            "A": 74.70588235294117,
            "B": 76.11764705882354,
            "C": 76.6470588235294,
            "D": 77.3529411764706,
            "E": 77,
            "F": 77.0625,
            "G": 76.5,
            "H": 74,
            "I": 74.125,
            "J": 73.9375,
            "K": 75
        }
    }
}