{
    "Average_holding_time": 21.93991416309013,
    "Average_travel_time_passengers": 2621.3289906461505,
    "Average_speed_busses": 0.048541666666666664,
    "Average_experienced_crowding": 78.16589518499643,
    "Average_covariation_headway": 0.19899364407416692,
    "Average_covariation_headway_stops": {
        "C": 0.18503334549445286,
        "D": 0.1770283106346542,
        "G": 0.15216737566327726,
        "H": 0.15252396310739275,
        "I": 0.152465021402415,
        "J": 0.15393872967216132,
        "E": 0.1544792260382768,
        "K": 0.1232620612698335,
        "F": 0.14385753957310773,
        "L": 0.1276771393736539,
        "A": 0.13775888173200818,
        "B": 0.16489694549913483
    },
    "Average_excess_waiting_time": {
        "C": 55.36525987683501,
        "D": 52.59251143583731,
        "G": 51.24941292735957,
        "H": 49.6952847045535,
        "I": 47.97704523584258,
        "J": 46.52072936535467,
        "E": 51.79806262300531,
        "K": 45.53607661981687,
        "F": 52.30763045805986,
        "L": 47.6661724272675,
        "A": 50.0067154179211,
        "B": 55.006248830708046
    },
    "Holding_per_stop": {
        "D": 15.77319587628866,
        "H": 24.123711340206185,
        "I": 26.020408163265305,
        "J": 22.040816326530614,
        "G": 25.051546391752577,
        "C": 26.90721649484536,
        "E": 21.030927835051546,
        "K": 22.653061224489797,
        "F": 26.875,
        "L": 33.09278350515464,
        "A": 9.587628865979381,
        "B": 10
    },
    "Load_per_bus_per_stop": {
        "bus0": {
            "C": 77.58823529411765,
            "D": 78.5625,
            "E": 77.6875,
            "F": 78.4375,
            "G": 79.125,
            "H": 80.0625,
            "I": 81.0625,
            "J": 82,
            "K": 80.375,
            "L": 78.9375,
            "A": 81.1875,
            "B": 81.125
        },
        "bus1": {
            "D": 76.29411764705883,
            "E": 75.88235294117646,
            "F": 78.625,
            "G": 79.375,
            "H": 79.3125,
            "I": 78.3125,
            "J": 79.375,
            "K": 79.5,
            "L": 79.3125,
            "A": 80.5625,
            "B": 80.75,
            "C": 80.0625
        },
        "bus2": {
            "G": 72.3529411764706,
            "H": 73.125,
            "I": 71.5,
            "J": 72.0625,
            "K": 73.625,
            "L": 74.3125,
            "A": 74.5,
            "B": 75.4375,
            "C": 74.3125,
            "D": 73.5,
            "E": 74.0625,
            "F": 76.125
        },
        "bus3": {
            "H": 75.70588235294117,
            "I": 74.05882352941177,
            "J": 73.5625,
            "K": 76.25,
            "L": 76.625,
            "A": 75.25,
            "B": 76.5,
            "C": 77.875,
            "D": 79.5625,
            "E": 79.1875,
            "F": 79.5,
            "G": 80
        },
        "bus4": {
            "I": 69.88235294117646,
            "J": 71.05882352941177,
            "K": 70.23529411764706,
            "L": 73.375,
            "A": 73.75,
            "B": 74.9375,
            "C": 75.6875,
            "D": 76.75,
            "E": 75.5,
            "F": 73.6875,
            "G": 73.0625,
            "H": 73.625
        },
        "bus5": {
            "J": 77.23529411764706,
            "K": 79,
            "L": 81.29411764705883,
            "A": 81.58823529411765,
            "B": 80.625,
            "C": 81.75,
            "D": 82.6875,
            "E": 81.8125,
            "F": 82.4375,
            "G": 81.625,
            "H": 81.25,
            "I": 80.4375
        }
    }
}      "H": 74.9375,
            "I": 76.0625,
            "J": 78.3125,
            "K": 77.1875,
            "L": 77.0625
        }
    }
}