{
    "Average_holding_time": 12.183622828784118,
    "Average_travel_time_passengers": 2515.342001210084,
    "Average_speed_busses": 0.050375,
    "Average_experienced_crowding": 73.17807790055697,
    "Average_covariation_headway": 0.1319510190607184,
    "Average_covariation_headway_stops": {
        "C": 0.16860625328659282,
        "D": 0.15923860009568108,
        "F": 0.13365628589482625,
        "G": 0.12355209697051124,
        "I": 0.10543601730740057,
        "J": 0.1113331446736293,
        "E": 0.13282111002592367,
        "K": 0.08398768749494058,
        "H": 0.10111951660469776,
        "L": 0.07615508757483008,
        "A": 0.10291663258617732,
        "B": 0.14546826266498938
    },
    "Average_excess_waiting_time": {
        "C": 41.549919377836375,
        "D": 39.16825971677059,
        "F": 36.772589598909065,
        "G": 34.474316111639894,
        "I": 33.441770815626285,
        "J": 32.30881851085337,
        "E": 38.26427218907338,
        "K": 32.248281203797944,
        "H": 34.58221608872685,
        "L": 33.481133787230874,
        "A": 36.47378211844733,
        "B": 41.04016314892431
    },
    "Holding_per_stop": {
        "D": 8.01980198019802,
        "J": 15,
        "G": 10.693069306930694,
        "F": 14.851485148514852,
        "I": 15.148514851485148,
        "C": 15.3,
        "E": 5.1,
        "K": 25.84158415841584,
        "H": 15.148514851485148,
        "L": 13.663366336633663,
        "A": 3,
        "B": 4.2
    },
    "Load_per_bus_per_stop": {
        "bus0": {
            "C": 71.29411764705883,
            "D": 72.29411764705883,
            "E": 73.6470588235294,
            "F": 73.41176470588235,
            "G": 75.29411764705883,
            "H": 76.29411764705883,
            "I": 76.94117647058823,
            "J": 78.23529411764706,
            "K": 76.9375,
            "L": 77.0625,
            "A": 75.375,
            "B": 76.125
        },
        "bus1": {
            "D": 69.52941176470588,
            "E": 68.88235294117646,
            "F": 68.11764705882354,
            "G": 68.88235294117646,
            "H": 69,
            "I": 71.94117647058823,
            "J": 71.29411764705883,
            "K": 71.3529411764706,
            "L": 71.88235294117646,
            "A": 72.625,
            "B": 73.5,
            "C": 72.6875
        },
        "bus2": {
            "F": 69.82352941176471,
            "G": 70.05882352941177,
            "H": 70.94117647058823,
            "I": 71.70588235294117,
            "J": 71.11764705882354,
            "K": 71,
            "L": 72,
            "A": 72.41176470588235,
            "B": 71.23529411764706,
            "C": 72.5625,
            "D": 73.4375,
            "E": 73.9375
        },
        "bus3": {
            "G": 69.6470588235294,
            "H": 70.58823529411765,
            "I": 70.6470588235294,
            "J": 70,
            "K": 72.05882352941177,
            "L": 71.82352941176471,
            "A": 72.6470588235294,
            "B": 72.11764705882354,
            "C": 72.47058823529412,
            "D": 71.94117647058823,
            "E": 70.8125,
            "F": 72
        },
        "bus4": {
            "I": 69.11764705882354,
            "J": 70.11764705882354,
            "K": 71.82352941176471,
            "L": 70.94117647058823,
            "A": 68.94117647058823,
            "B": 68.17647058823529,
            "C": 67.6470588235294,
            "D": 69.82352941176471,
            "E": 71.41176470588235,
            "F": 71.76470588235294,
            "G": 72.58823529411765,
            "H": 72.375
        },
        "bus5": {
            "J": 74.23529411764706,
            "K": 73.17647058823529,
            "L": 73,
            "A": 72.29411764705883,
            "B": 73.41176470588235,
            "C": 73.11764705882354,
            "D": 73.82352941176471,
            "E": 75.11764705882354,
            "F": 75.6470588235294,
            "G": 76.05882352941177,
            "H": 78.70588235294117,
            "I": 80
        }
    }
}