{
    "Average_holding_time": 26.475195822454307,
    "Average_travel_time_passengers": 2643.860124771095,
    "Average_speed_busses": 0.047875,
    "Average_experienced_crowding": 76.98478067697422,
    "Average_covariation_headway": 0.1099340264815032,
    "Average_covariation_headway_stops": {
        "B": 0.11887294677804555,
        "C": 0.11532790714907579,
        "D": 0.11604070616090771,
        "F": 0.10189790826334785,
        "I": 0.08797533048229497,
        "A": 0.12553655920937784,
        "J": 0.05928789616535253,
        "E": 0.09577302478146946,
        "G": 0.07563508571930545,
        "K": 0.06522739634169218,
        "H": 0.07319458286195803,
        "L": 0.09855689534722532
    },
    "Average_excess_waiting_time": {
        "B": 52.681176504096186,
        "C": 50.429904178014624,
        "D": 48.85279318191459,
        "F": 47.905740194379064,
        "I": 48.7849933234765,
        "A": 54.98351619109184,
        "J": 49.133576115471556,
        "E": 49.10951348968456,
        "G": 48.107166397668664,
        "K": 51.08548830942658,
        "H": 49.61351761437493,
        "L": 54.40633521173112
    },
    "Holding_per_stop": {
        "I": 27.5,
        "D": 27.835051546391753,
        "F": 30,
        "C": 24.6875,
        "B": 24.31578947368421,
        "A": 12.31578947368421,
        "J": 27.5,
        "G": 27.8125,
        "E": 28.75,
        "H": 28.125,
        "K": 27.157894736842106,
        "L": 31.595744680851062
    },
    "Load_per_bus_per_stop": {
        "bus0": {
            "B": 69.8125,
            "C": 69.8125,
            "D": 70.125,
            "E": 69.75,
            "F": 71.8125,
            "G": 72.9375,
            "H": 71.9375,
            "I": 74.125,
            "J": 74,
            "K": 73.3125,
            "L": 73.9375,
            "A": 73.6
        },
        "bus1": {
            "C": 73.5,
            "D": 73.125,
            "E": 74.4375,
            "F": 76.375,
            "G": 74.5625,
            "H": 74.6875,
            "I": 76.5,
            "J": 78.3125,
            "K": 78.5,
            "L": 78.25,
            "A": 77.4375,
            "B": 78.625
        },
        "bus2": {
            "D": 76.41176470588235,
            "E": 75.75,
            "F": 76.5625,
            "G": 76,
            "H": 75.1875,
            "I": 76.1875,
            "J": 75.8125,
            "K": 78.6875,
            "L": 80.4375,
            "A": 80.9375,
            "B": 80.8125,
            "C": 80.4375
        },
        "bus3": {
            "F": 74.94117647058823,
            "G": 73.625,
            "H": 75.1875,
            "I": 76.625,
            "J": 77.375,
            "K": 77.3125,
            "L": 76.9375,
            "A": 75.1875,
            "B": 77.1875,
            "C": 78.625,
            "D": 80.25,
            "E": 79.1875
        },
        "bus4": {
            "I": 74.75,
            "J": 75.0625,
            "K": 75.5625,
            "L": 75.5,
            "A": 77.6875,
            "B": 78.6875,
            "C": 78.875,
            "D": 78.4375,
            "E": 80.375,
            "F": 80.75,
            "G": 81.5,
            "H": 78.4375
        },
        "bus5": {
            "A": 74.125,
            "B": 76.625,
            "C": 76.3125,
            "D": 78.3125,
            "E": 78.8125,
            "F": 78.5,
            "G": 78.5,
            "H": 79.625,
            "I": 77.0625,
            "J": 76.875,
            "K": 76.26666666666667,
            "L": 77
        }
    }
} "J": 72.9375,
            "K": 74.1875,
            "L": 73.26666666666667
        }
    }
}