{
    "Average_holding_time": 17.43243243243243,
    "Average_travel_time_passengers": 2585.892162983051,
    "Average_speed_busses": 0.04933333333333333,
    "Average_experienced_crowding": 76.67211726540066,
    "Average_covariation_headway": 0.1703160463007314,
    "Average_covariation_headway_stops": {
        "B": 0.1084263490566461,
        "C": 0.12676232415363495,
        "G": 0.1412104494617419,
        "H": 0.13854238043429315,
        "J": 0.12182803554988661,
        "L": 0.11728472153218035,
        "K": 0.09775522826237093,
        "D": 0.10692718103601295,
        "I": 0.11134066824992998,
        "A": 0.0845135600152753,
        "E": 0.10314982118368522,
        "F": 0.11763085053635892
    },
    "Average_excess_waiting_time": {
        "B": 40.483370718830486,
        "C": 40.509088122576884,
        "G": 45.56418667475532,
        "H": 43.68244784225686,
        "J": 41.84864772264535,
        "L": 41.283881955114396,
        "K": 41.75496450334458,
        "D": 41.0000957013786,
        "I": 42.82225725567969,
        "A": 40.77696648822433,
        "E": 42.3157799908156,
        "F": 44.981794483287956
    },
    "Holding_per_stop": {
        "J": 18.78787878787879,
        "C": 33,
        "H": 15.454545454545455,
        "L": 19.393939393939394,
        "B": 13.030303030303031,
        "G": 18.367346938775512,
        "I": 18.6734693877551,
        "D": 17.575757575757574,
        "K": 19.897959183673468,
        "A": 7.575757575757576,
        "E": 15.306122448979592,
        "F": 11.938775510204081
    },
    "Load_per_bus_per_stop": {
        "bus0": {
            "B": 72.58823529411765,
            "C": 75.17647058823529,
            "D": 75.82352941176471,
            "E": 77.11764705882354,
            "F": 78.70588235294117,
            "G": 79.125,
            "H": 79,
            "I": 80.8125,
            "J": 80.8125,
            "K": 78.4375,
            "L": 77.25,
            "A": 76.125
        },
        "bus1": {
            "C": 76.70588235294117,
            "D": 76.17647058823529,
            "E": 75.41176470588235,
            "F": 76.94117647058823,
            "G": 79.94117647058823,
            "H": 81.11764705882354,
            "I": 83.875,
            "J": 83.375,
            "K": 82.75,
            "L": 82.375,
            "A": 82.1875,
            "B": 81.0625
        },
        "bus2": {
            "G": 72.76470588235294,
            "H": 73.17647058823529,
            "I": 73.70588235294117,
            "J": 75,
            "K": 74.17647058823529,
            "L": 74.1875,
            "A": 76,
            "B": 76.75,
            "C": 76.375,
            "D": 77.25,
            "E": 76.625,
            "F": 75.75
        },
        "bus3": {
            "H": 69.29411764705883,
            "I": 69.76470588235294,
            "J": 71.58823529411765,
            "K": 71.41176470588235,
            "L": 72.47058823529412,
            "A": 71.76470588235294,
            "B": 70.875,
            "C": 70.5625,
            "D": 72.6875,
            "E": 72.125,
            "F": 72.125,
            "G": 73.1875
        },
        "bus4": {
            "J": 75.23529411764706,
            "K": 75.52941176470588,
            "L": 75.23529411764706,
            "A": 76.41176470588235,
            "B": 75.05882352941177,
            "C": 75.94117647058823,
            "D": 76.8125,
            "E": 75.3125,
            "F": 74.4375,
            "G": 74.6875,
            "H": 74.9375,
            "I": 77.3125
        },
        "bus5": {
            "L": 74.94117647058823,
            "A": 75.23529411764706,
            "B": 75.3529411764706,
            "C": 76.05882352941177,
            "D": 76.41176470588235,
            "E": 77.5625,
            "F": 78.9375,
            "G": 79.875,
            "H": 78.8125,
            "I": 80.625,
            "J": 77.9375,
            "K": 78.3125
        }
    }
}