{
    "Average_holding_time": 32.48884924174844,
    "Average_travel_time_passengers": 2691.71536003396,
    "Average_speed_busses": 0.04670833333333333,
    "Average_experienced_crowding": 79.79660974731613,
    "Average_covariation_headway": 0.11292702876366065,
    "Average_covariation_headway_stops": {
        "D": 0.10170014500070118,
        "H": 0.12315327279145276,
        "I": 0.12143487353897595,
        "J": 0.12348953569040112,
        "K": 0.1289898109233728,
        "A": 0.11591419628865242,
        "E": 0.07368860110475767,
        "B": 0.08698830167273232,
        "L": 0.10933638812472021,
        "C": 0.0758232498289995,
        "F": 0.0687832912761332,
        "G": 0.09920931032501348
    },
    "Average_excess_waiting_time": {
        "D": 56.616308931341166,
        "H": 61.561647410757246,
        "I": 59.868214940981375,
        "J": 58.32984020214144,
        "K": 57.122497172160934,
        "A": 56.02991945095653,
        "E": 56.828858616927164,
        "B": 55.99651249829731,
        "L": 57.35376733764588,
        "C": 56.772814438097214,
        "F": 58.42313375793236,
        "G": 61.647236310230255
    },
    "Holding_per_stop": {
        "D": 32.234042553191486,
        "A": 26.80851063829787,
        "K": 33.191489361702125,
        "I": 33.225806451612904,
        "J": 32.234042553191486,
        "H": 31.612903225806452,
        "B": 31.27659574468085,
        "E": 31.93548387096774,
        "L": 34.787234042553195,
        "C": 33.225806451612904,
        "F": 34.516129032258064,
        "G": 34.891304347826086
    },
    "Load_per_bus_per_stop": {
        "bus0": {
            "D": 76.625,
            "E": 79.4375,
            "F": 81.0625,
            "G": 81,
            "H": 80.9375,
            "I": 82.6875,
            "J": 82,
            "K": 81.53333333333333,
            "L": 81.6,
            "A": 82.53333333333333,
            "B": 82.93333333333334,
            "C": 81.4
        },
        "bus1": {
            "H": 78.0625,
            "I": 78.0625,
            "J": 78.25,
            "K": 76.125,
            "L": 80.0625,
            "A": 80.8,
            "B": 82.53333333333333,
            "C": 84.8,
            "D": 84.66666666666667,
            "E": 85.86666666666666,
            "F": 84.13333333333334,
            "G": 83.86666666666666
        },
        "bus2": {
            "I": 73.1875,
            "J": 73.5,
            "K": 73.9375,
            "L": 74.625,
            "A": 76.6875,
            "B": 78.1875,
            "C": 77.66666666666667,
            "D": 79.6,
            "E": 79.06666666666666,
            "F": 77.2,
            "G": 77.2,
            "H": 76.93333333333334
        },
        "bus3": {
            "J": 70.125,
            "K": 71.1875,
            "L": 71.0625,
            "A": 73.625,
            "B": 75.375,
            "C": 74.3125,
            "D": 73.375,
            "E": 72.53333333333333,
            "F": 74.33333333333333,
            "G": 73.2,
            "H": 73.46666666666667,
            "I": 74.26666666666667
        },
        "bus4": {
            "K": 75.1875,
            "L": 73.6875,
            "A": 75.5,
            "B": 75.75,
            "C": 76.3125,
            "D": 76.875,
            "E": 79.3125,
            "F": 81.5,
            "G": 80.13333333333334,
            "H": 82.33333333333333,
            "I": 81.6,
            "J": 81.4
        },
        "bus5": {
            "A": 81.5,
            "B": 81.75,
            "C": 80.875,
            "D": 80.875,
            "E": 81.5625,
            "F": 81.75,
            "G": 82,
            "H": 82.875,
            "I": 83.66666666666667,
            "J": 85.8,
            "K": 87.53333333333333,
            "L": 85.2
        }
    }
}