{
    "Average_holding_time": 29.654867256637168,
    "Average_travel_time_passengers": 2691.09033909894,
    "Average_speed_busses": 0.04708333333333333,
    "Average_experienced_crowding": 80.45040786256536,
    "Average_covariation_headway": 0.11052413877334179,
    "Average_covariation_headway_stops": {
        "B": 0.0926943346602609,
        "E": 0.09547876616094858,
        "F": 0.09925158928219455,
        "H": 0.08474959891711097,
        "I": 0.0894144508793538,
        "K": 0.09253915344325932,
        "L": 0.05237775201856635,
        "C": 0.07089762611968196,
        "G": 0.0622024015432304,
        "J": 0.06445702141367617,
        "A": 0.05935347789704072,
        "D": 0.06642900445996713
    },
    "Average_excess_waiting_time": {
        "B": 54.051128041754225,
        "E": 56.02715862941528,
        "F": 54.48641988840956,
        "H": 53.61119679662073,
        "I": 52.294514436475254,
        "K": 52.49229351589901,
        "L": 52.41063312871887,
        "C": 54.88276274452909,
        "G": 54.27914718657911,
        "J": 52.74560428149016,
        "A": 54.17050951898426,
        "D": 56.212683908906115
    },
    "Holding_per_stop": {
        "K": 31.57894736842105,
        "B": 32.5531914893617,
        "F": 28.72340425531915,
        "I": 26.526315789473685,
        "E": 28.72340425531915,
        "H": 30,
        "L": 30.319148936170212,
        "G": 27.127659574468087,
        "J": 28.72340425531915,
        "C": 22.340425531914892,
        "A": 42.765957446808514,
        "D": 26.451612903225808
    },
    "Load_per_bus_per_stop": {
        "bus0": {
            "B": 77.5625,
            "C": 79.625,
            "D": 82,
            "E": 80.875,
            "F": 82.5625,
            "G": 82,
            "H": 83.4375,
            "I": 83.9375,
            "J": 81.8125,
            "K": 82.8,
            "L": 82.93333333333334,
            "A": 82
        },
        "bus1": {
            "E": 75.1875,
            "F": 76.1875,
            "G": 75.75,
            "H": 76.375,
            "I": 74.875,
            "J": 75.6875,
            "K": 75.25,
            "L": 75.6875,
            "A": 76.33333333333333,
            "B": 77.86666666666666,
            "C": 78.46666666666667,
            "D": 78.86666666666666
        },
        "bus2": {
            "F": 78.3125,
            "G": 79.0625,
            "H": 80.375,
            "I": 80.75,
            "J": 82.3125,
            "K": 80.4375,
            "L": 81.5625,
            "A": 81.9375,
            "B": 82.8125,
            "C": 80.4,
            "D": 80.4,
            "E": 83.86666666666666
        },
        "bus3": {
            "H": 76.875,
            "I": 77.4375,
            "J": 78.3125,
            "K": 79.5,
            "L": 80.0625,
            "A": 79.8125,
            "B": 80.8125,
            "C": 80.9375,
            "D": 80.125,
            "E": 82.4,
            "F": 79.8,
            "G": 80.13333333333334
        },
        "bus4": {
            "I": 78.0625,
            "J": 79.5625,
            "K": 78.625,
            "L": 79.5625,
            "A": 80.3125,
            "B": 78,
            "C": 80.3125,
            "D": 79,
            "E": 80.1875,
            "F": 81.375,
            "G": 80.46666666666667,
            "H": 82.13333333333334
        },
        "bus5": {
            "K": 77.4375,
            "L": 78.9375,
            "A": 79.1875,
            "B": 80.5625,
            "C": 81,
            "D": 81.75,
            "E": 83.1875,
            "F": 82.5625,
            "G": 82.9375,
            "H": 81.125,
            "I": 84.13333333333334,
            "J": 82.73333333333333
        }
    }
}