{
    "Average_holding_time": 34.725472547254725,
    "Average_travel_time_passengers": 2728.0498923042182,
    "Average_speed_busses": 0.04629166666666667,
    "Average_experienced_crowding": 81.19806379312683,
    "Average_covariation_headway": 0.127074015084962,
    "Average_covariation_headway_stops": {
        "C": 0.16735836971908732,
        "D": 0.16034730442275266,
        "G": 0.12685011245920177,
        "H": 0.12285089595868141,
        "I": 0.12331776451894572,
        "J": 0.1287151685919436,
        "E": 0.1356339746721876,
        "K": 0.1030512617343832,
        "F": 0.11972690526724786,
        "L": 0.09134469477755633,
        "A": 0.10444108742911953,
        "B": 0.13945702851961303
    },
    "Average_excess_waiting_time": {
        "C": 67.40472800530591,
        "D": 64.82488178850758,
        "G": 63.400641063227056,
        "H": 61.24338656198182,
        "I": 59.569130279497244,
        "J": 58.34923796765855,
        "E": 64.1795125053257,
        "K": 58.17593626778125,
        "F": 64.65665720399988,
        "L": 59.41291317445308,
        "A": 61.95470184515369,
        "B": 66.50083690723864
    },
    "Holding_per_stop": {
        "D": 31.612903225806452,
        "J": 33.829787234042556,
        "H": 40.645161290322584,
        "I": 34.516129032258064,
        "G": 37.5,
        "C": 36.52173913043478,
        "E": 34.56521739130435,
        "K": 38.38709677419355,
        "F": 33.26086956521739,
        "L": 36.12903225806452,
        "A": 30,
        "B": 29.67391304347826
    },
    "Load_per_bus_per_stop": {
        "bus0": {
            "C": 78.875,
            "D": 77.5625,
            "E": 78.75,
            "F": 81.0625,
            "G": 82.3125,
            "H": 82.53333333333333,
            "I": 83.86666666666666,
            "J": 83.26666666666667,
            "K": 83.33333333333333,
            "L": 82.73333333333333,
            "A": 83.46666666666667,
            "B": 83.86666666666666
        },
        "bus1": {
            "D": 81.1875,
            "E": 82.5625,
            "F": 81.5625,
            "G": 81.6875,
            "H": 81.625,
            "I": 81.875,
            "J": 80.53333333333333,
            "K": 80.66666666666667,
            "L": 81.33333333333333,
            "A": 80.6,
            "B": 81.4,
            "C": 83.4
        },
        "bus2": {
            "G": 79,
            "H": 78.5625,
            "I": 78.9375,
            "J": 78.8125,
            "K": 81.125,
            "L": 81.06666666666666,
            "A": 80.2,
            "B": 80.86666666666666,
            "C": 80.6,
            "D": 83.06666666666666,
            "E": 84.33333333333333,
            "F": 84.86666666666666
        },
        "bus3": {
            "H": 77.125,
            "I": 77.3125,
            "J": 77.6875,
            "K": 78.6875,
            "L": 79,
            "A": 78.8125,
            "B": 78.2,
            "C": 78.2,
            "D": 80.53333333333333,
            "E": 80.73333333333333,
            "F": 79.8,
            "G": 80.33333333333333
        },
        "bus4": {
            "I": 73.875,
            "J": 74.75,
            "K": 75.25,
            "L": 74.625,
            "A": 74.0625,
            "B": 76.6875,
            "C": 77.3125,
            "D": 77.46666666666667,
            "E": 76.8,
            "F": 76.2,
            "G": 76.46666666666667,
            "H": 77.93333333333334
        },
        "bus5": {
            "J": 82,
            "K": 80.5,
            "L": 80.875,
            "A": 81,
            "B": 81.9375,
            "C": 82.5,
            "D": 84.5,
            "E": 84.5625,
            "F": 85.73333333333333,
            "G": 83.73333333333333,
            "H": 85.2,
            "I": 86.8
        }
    }
}93333333333334
        }
    }
}