{
    "Average_holding_time": 10.567901234567902,
    "Average_travel_time_passengers": 2503.399217416882,
    "Average_speed_busses": 0.050625,
    "Average_experienced_crowding": 75.85673931560578,
    "Average_covariation_headway": 0.2979296247328738,
    "Average_covariation_headway_stops": {
        "B": 0.1975317458403245,
        "C": 0.20770791800555977,
        "F": 0.1921738771127663,
        "H": 0.18650084427398325,
        "L": 0.21355508887158944,
        "A": 0.19396494392087274,
        "D": 0.17824903829704994,
        "G": 0.17979717549176477,
        "I": 0.18355148058528922,
        "E": 0.17754410185799585,
        "J": 0.18363267401474906,
        "K": 0.19205763237583656
    },
    "Average_excess_waiting_time": {
        "B": 40.46893119118306,
        "C": 39.9076844855004,
        "F": 40.22358977078375,
        "H": 39.38121001051229,
        "L": 46.22564997067491,
        "A": 41.655942402464746,
        "D": 38.78012856043074,
        "G": 40.19262576731029,
        "I": 40.70329368388667,
        "E": 40.14653455564337,
        "J": 42.15464721818694,
        "K": 45.261609457727786
    },
    "Holding_per_stop": {
        "C": 16.176470588235293,
        "B": 9.117647058823529,
        "F": 9.117647058823529,
        "A": 5.346534653465347,
        "H": 9.117647058823529,
        "L": 13.8,
        "D": 8.823529411764707,
        "I": 10.990099009900991,
        "G": 12.475247524752476,
        "J": 14.554455445544555,
        "E": 6.8316831683168315,
        "K": 10.5
    },
    "Load_per_bus_per_stop": {
        "bus0": {
            "B": 81.70588235294117,
            "C": 81,
            "D": 83.17647058823529,
            "E": 83.17647058823529,
            "F": 83.29411764705883,
            "G": 83.70588235294117,
            "H": 83.52941176470588,
            "I": 83.6470588235294,
            "J": 85.70588235294117,
            "K": 86.29411764705883,
            "L": 87.52941176470588,
            "A": 85.3125
        },
        "bus1": {
            "C": 73.70588235294117,
            "D": 74.23529411764706,
            "E": 74.58823529411765,
            "F": 74.17647058823529,
            "G": 74.76470588235294,
            "H": 74.70588235294117,
            "I": 75.23529411764706,
            "J": 75.94117647058823,
            "K": 74.58823529411765,
            "L": 75.94117647058823,
            "A": 75.23529411764706,
            "B": 75.23529411764706
        },
        "bus2": {
            "F": 65.6470588235294,
            "G": 64.6470588235294,
            "H": 64.70588235294117,
            "I": 67.17647058823529,
            "J": 68.05882352941177,
            "K": 69.11764705882354,
            "L": 69.70588235294117,
            "A": 70,
            "B": 69.41176470588235,
            "C": 68.17647058823529,
            "D": 68.3529411764706,
            "E": 69
        },
        "bus3": {
            "H": 75.82352941176471,
            "I": 77.23529411764706,
            "J": 78.58823529411765,
            "K": 78.3529411764706,
            "L": 76.29411764705883,
            "A": 77.6470588235294,
            "B": 78.58823529411765,
            "C": 80.3529411764706,
            "D": 81,
            "E": 81.29411764705883,
            "F": 80.82352941176471,
            "G": 79.75
        },
        "bus4": {
            "L": 63.11764705882353,
            "A": 63.1764705882353,
            "B": 64.23529411764706,
            "C": 65.23529411764706,
            "D": 66.58823529411765,
            "E": 68,
            "F": 68.05882352941177,
            "G": 70.70588235294117,
            "H": 70.52941176470588,
            "I": 68.625,
            "J": 68.4375,
            "K": 66.9375
        },
        "bus5": {
            "A": 66.3529411764706,
            "B": 66.29411764705883,
            "C": 66.88235294117646,
            "D": 67.3529411764706,
            "E": 68.76470588235294,
            "F": 70,
            "G": 68.23529411764706,
            "H": 67.58823529411765,
            "I": 68.29411764705883,
            "J": 69.88235294117646,
            "K": 69.8125,
            "L": 70.375
        }
    }
}