{
    "Average_holding_time": 15.251677852348994,
    "Average_travel_time_passengers": 2548.1958462132457,
    "Average_speed_busses": 0.049666666666666665,
    "Average_experienced_crowding": 75.83561644202645,
    "Average_covariation_headway": 0.11860800418545168,
    "Average_covariation_headway_stops": {
        "C": 0.09840443571384484,
        "D": 0.09655896613092169,
        "E": 0.1039440376482501,
        "G": 0.08998829640892884,
        "I": 0.08438149340812708,
        "L": 0.09035587537944312,
        "J": 0.058037721754633786,
        "F": 0.07843856464503358,
        "H": 0.06111395705628037,
        "A": 0.07864141757316162,
        "K": 0.06448787843312569,
        "B": 0.08005188306722832
    },
    "Average_excess_waiting_time": {
        "C": 40.013627054084395,
        "D": 38.578089556307134,
        "E": 37.37017453904235,
        "G": 36.46030757079183,
        "I": 36.136550198722716,
        "L": 38.274257164423375,
        "J": 36.745193281608806,
        "F": 37.44568705229233,
        "H": 36.648210155220454,
        "A": 39.250066753662566,
        "K": 38.6050533614968,
        "B": 40.7043866763737
    },
    "Holding_per_stop": {
        "D": 8.787878787878787,
        "I": 16.5,
        "E": 8.7,
        "G": 12,
        "L": 19.696969696969695,
        "C": 21.818181818181817,
        "J": 21.21212121212121,
        "H": 8.7,
        "F": 14.7,
        "A": 3.6363636363636362,
        "K": 40,
        "B": 7.346938775510204
    },
    "Load_per_bus_per_stop": {
        "bus0": {
            "C": 70.70588235294117,
            "D": 70.70588235294117,
            "E": 72.88235294117646,
            "F": 73.29411764705883,
            "G": 76.94117647058823,
            "H": 78.94117647058823,
            "I": 78.0625,
            "J": 76.1875,
            "K": 76.125,
            "L": 76.125,
            "A": 76.5,
            "B": 74.25
        },
        "bus1": {
            "D": 78.76470588235294,
            "E": 78.47058823529412,
            "F": 79.17647058823529,
            "G": 77.82352941176471,
            "H": 79.17647058823529,
            "I": 79.88235294117646,
            "J": 78.17647058823529,
            "K": 78.375,
            "L": 78.75,
            "A": 78.8125,
            "B": 79.875,
            "C": 83.0625
        },
        "bus2": {
            "E": 72.47058823529412,
            "F": 73.88235294117646,
            "G": 74.23529411764706,
            "H": 74.88235294117646,
            "I": 76.82352941176471,
            "J": 75.70588235294117,
            "K": 77,
            "L": 75.3529411764706,
            "A": 74.3125,
            "B": 73,
            "C": 74.25,
            "D": 77.4375
        },
        "bus3": {
            "G": 72,
            "H": 72.58823529411765,
            "I": 72.58823529411765,
            "J": 73.82352941176471,
            "K": 74.29411764705883,
            "L": 74.29411764705883,
            "A": 74.17647058823529,
            "B": 75.76470588235294,
            "C": 76.625,
            "D": 77.8125,
            "E": 78.375,
            "F": 76.625
        },
        "bus4": {
            "I": 75.82352941176471,
            "J": 73.88235294117646,
            "K": 75.05882352941177,
            "L": 75.29411764705883,
            "A": 75.76470588235294,
            "B": 76.41176470588235,
            "C": 76.58823529411765,
            "D": 77.29411764705883,
            "E": 75.8125,
            "F": 76.25,
            "G": 78.3125,
            "H": 79.375
        },
        "bus5": {
            "L": 70.05882352941177,
            "A": 70,
            "B": 71.23529411764706,
            "C": 70.52941176470588,
            "D": 72.17647058823529,
            "E": 72.23529411764706,
            "F": 72.76470588235294,
            "G": 73.8125,
            "H": 74.5625,
            "I": 75.125,
            "J": 73,
            "K": 72.4375
        }
    }
}"L": 78.25
        }
    }
}