{
    "Average_holding_time": 15.100334448160535,
    "Average_travel_time_passengers": 2547.4409452148716,
    "Average_speed_busses": 0.049833333333333334,
    "Average_experienced_crowding": 74.53646841038787,
    "Average_covariation_headway": 0.11407171239263951,
    "Average_covariation_headway_stops": {
        "B": 0.08747538222919728,
        "E": 0.10760392966396183,
        "G": 0.09248257835890035,
        "H": 0.1023940577893514,
        "K": 0.09695782961504615,
        "A": 0.08506371286261233,
        "C": 0.059672201291762365,
        "I": 0.07299692399444664,
        "F": 0.08405722556234105,
        "L": 0.06566920842314887,
        "J": 0.0717769016126624,
        "D": 0.08706689508229933
    },
    "Average_excess_waiting_time": {
        "B": 36.00628144635033,
        "E": 38.49894300234439,
        "G": 37.381224094516085,
        "H": 36.55333804949396,
        "K": 37.82383441267592,
        "A": 37.3037187951723,
        "C": 36.245332257556754,
        "I": 36.40204590877647,
        "F": 38.592442738437455,
        "L": 37.935763651022626,
        "J": 37.850584082064074,
        "D": 38.694763608629955
    },
    "Holding_per_stop": {
        "B": 9,
        "H": 16.5,
        "E": 12.6,
        "K": 26.1,
        "A": 3.6,
        "G": 16.2,
        "I": 17.1,
        "C": 18.9,
        "F": 15.151515151515152,
        "L": 16.363636363636363,
        "J": 13.636363636363637,
        "D": 16.060606060606062
    },
    "Load_per_bus_per_stop": {
        "bus0": {
            "B": 76.41176470588235,
            "C": 75.88235294117646,
            "D": 76.29411764705883,
            "E": 75.52941176470588,
            "F": 77.23529411764706,
            "G": 77.3529411764706,
            "H": 77.6470588235294,
            "I": 79.47058823529412,
            "J": 78.6875,
            "K": 77.375,
            "L": 78.375,
            "A": 79.4375
        },
        "bus1": {
            "E": 72.88235294117646,
            "F": 73.17647058823529,
            "G": 73.94117647058823,
            "H": 74.82352941176471,
            "I": 72.82352941176471,
            "J": 74.11764705882354,
            "K": 73.41176470588235,
            "L": 76.125,
            "A": 75.1875,
            "B": 75,
            "C": 73.6875,
            "D": 75.875
        },
        "bus2": {
            "G": 69.23529411764706,
            "H": 68.70588235294117,
            "I": 71.29411764705883,
            "J": 71.88235294117646,
            "K": 72.70588235294117,
            "L": 73.6470588235294,
            "A": 73,
            "B": 72.9375,
            "C": 72.625,
            "D": 69.4375,
            "E": 71.25,
            "F": 72.4375
        },
        "bus3": {
            "H": 70.3529411764706,
            "I": 71.47058823529412,
            "J": 71.41176470588235,
            "K": 73.11764705882354,
            "L": 74.17647058823529,
            "A": 75.47058823529412,
            "B": 77.3529411764706,
            "C": 77.6470588235294,
            "D": 74.875,
            "E": 75.375,
            "F": 77,
            "G": 76.9375
        },
        "bus4": {
            "K": 73.23529411764706,
            "L": 75.3529411764706,
            "A": 75.94117647058823,
            "B": 75.70588235294117,
            "C": 75.6470588235294,
            "D": 77.88235294117646,
            "E": 78,
            "F": 77.875,
            "G": 77.875,
            "H": 77.5,
            "I": 75.875,
            "J": 77.4375
        },
        "bus5": {
            "A": 68.94117647058823,
            "B": 69.6470588235294,
            "C": 70.23529411764706,
            "D": 70.88235294117646,
            "E": 71.52941176470588,
            "F": 71.3529411764706,
            "G": 72.29411764705883,
            "H": 71.875,
            "I": 70.75,
            "J": 71.3125,
            "K": 73.1875,
            "L": 73.5625
        }
    }
}