{
    "Average_holding_time": 9.639344262295081,
    "Average_travel_time_passengers": 2495.6175326517396,
    "Average_speed_busses": 0.050833333333333335,
    "Average_experienced_crowding": 75.85859025218693,
    "Average_covariation_headway": 0.31728038103888717,
    "Average_covariation_headway_stops": {
        "B": 0.22358070201579994,
        "C": 0.2210228251046522,
        "D": 0.2206839303599789,
        "E": 0.2215517551535528,
        "I": 0.23243340121833475,
        "J": 0.22567042462081202,
        "K": 0.2190261731961484,
        "F": 0.20972427521294099,
        "G": 0.21681295030006692,
        "L": 0.2122264401651167,
        "H": 0.23132721396500408,
        "A": 0.21492735302875374
    },
    "Average_excess_waiting_time": {
        "B": 45.539377912671796,
        "C": 43.58003208269929,
        "D": 42.53456395644105,
        "E": 41.151056822099235,
        "I": 45.30016419888858,
        "J": 42.0462780705808,
        "K": 42.63156928612756,
        "F": 41.5778201496139,
        "G": 43.254588091439814,
        "L": 43.164109992144915,
        "H": 46.59977157612309,
        "A": 45.3682535120883
    },
    "Holding_per_stop": {
        "C": 7.9411764705882355,
        "J": 9.411764705882353,
        "D": 11.764705882352942,
        "E": 7.281553398058253,
        "B": 5.9405940594059405,
        "I": 10,
        "F": 9.411764705882353,
        "K": 12.058823529411764,
        "G": 8.01980198019802,
        "L": 17.524752475247524,
        "H": 12.475247524752476,
        "A": 3.8613861386138613
    },
    "Load_per_bus_per_stop": {
        "bus0": {
            "B": 71.41176470588235,
            "C": 70.76470588235294,
            "D": 73,
            "E": 72.82352941176471,
            "F": 73.82352941176471,
            "G": 75.52941176470588,
            "H": 74.94117647058823,
            "I": 75.17647058823529,
            "J": 75.82352941176471,
            "K": 75.58823529411765,
            "L": 75.11764705882354,
            "A": 76.375
        },
        "bus1": {
            "C": 60.88235294117647,
            "D": 62.64705882352941,
            "E": 60.705882352941174,
            "F": 61.64705882352941,
            "G": 63,
            "H": 62.411764705882355,
            "I": 63.588235294117645,
            "J": 64.94117647058823,
            "K": 65.05882352941177,
            "L": 65.94117647058823,
            "A": 66.17647058823529,
            "B": 64.6875
        },
        "bus2": {
            "D": 49.94117647058823,
            "E": 50.529411764705884,
            "F": 51.76470588235294,
            "G": 52.294117647058826,
            "H": 53.1764705882353,
            "I": 53.94117647058823,
            "J": 53.294117647058826,
            "K": 53.411764705882355,
            "L": 53.64705882352941,
            "A": 52.705882352941174,
            "B": 53.8235294117647,
            "C": 53.705882352941174
        },
        "bus3": {
            "E": 79.22222222222223,
            "F": 80.52941176470588,
            "G": 81.17647058823529,
            "H": 80.47058823529412,
            "I": 82.05882352941177,
            "J": 81.82352941176471,
            "K": 82.58823529411765,
            "L": 83.52941176470588,
            "A": 83.70588235294117,
            "B": 82.6470588235294,
            "C": 82.58823529411765,
            "D": 82.41176470588235
        },
        "bus4": {
            "I": 81.58823529411765,
            "J": 82.82352941176471,
            "K": 82.05882352941177,
            "L": 84.11764705882354,
            "A": 81.88235294117646,
            "B": 83.17647058823529,
            "C": 81.88235294117646,
            "D": 82.3529411764706,
            "E": 83.70588235294117,
            "F": 83.29411764705883,
            "G": 84.25,
            "H": 85.1875
        },
        "bus5": {
            "J": 77.29411764705883,
            "K": 78.76470588235294,
            "L": 79.70588235294117,
            "A": 81.6470588235294,
            "B": 82.11764705882354,
            "C": 81.6470588235294,
            "D": 81.82352941176471,
            "E": 81.29411764705883,
            "F": 81.3529411764706,
            "G": 80.94117647058823,
            "H": 82.82352941176471,
            "I": 83.94117647058823
        }
    }
}