{
    "Average_holding_time": 31.727192205491587,
    "Average_travel_time_passengers": 2692.0620797264714,
    "Average_speed_busses": 0.04704166666666667,
    "Average_experienced_crowding": 78.14414440141167,
    "Average_covariation_headway": 0.11608734823405462,
    "Average_covariation_headway_stops": {
        "C": 0.08875310011941408,
        "D": 0.09300876527639154,
        "G": 0.08221029939517431,
        "J": 0.09490577270602185,
        "K": 0.09615892895401332,
        "L": 0.10076212884803597,
        "E": 0.041909022091682784,
        "A": 0.06687369371917272,
        "H": 0.056662221817449045,
        "F": 0.04328994996408382,
        "B": 0.0678971305203061,
        "I": 0.06667508104438605
    },
    "Average_excess_waiting_time": {
        "C": 55.10226626080595,
        "D": 53.6075355921526,
        "G": 54.71435430687961,
        "J": 57.13063422370294,
        "K": 55.681579416842055,
        "L": 54.128853316168545,
        "E": 53.30198135046436,
        "A": 54.046225251596184,
        "H": 55.27317166418902,
        "F": 54.969530932794385,
        "B": 55.596278744389394,
        "I": 57.479270088997794
    },
    "Holding_per_stop": {
        "D": 27.473684210526315,
        "L": 15.473684210526315,
        "G": 32.5531914893617,
        "K": 49.787234042553195,
        "J": 48.51063829787234,
        "C": 46.91489361702128,
        "E": 27.76595744680851,
        "A": 2.234042553191489,
        "H": 38.61702127659574,
        "F": 31.27659574468085,
        "B": 20.106382978723403,
        "I": 40.32258064516129
    },
    "Load_per_bus_per_stop": {
        "bus0": {
            "C": 75.0625,
            "D": 76.1875,
            "E": 75.75,
            "F": 76.5625,
            "G": 75.625,
            "H": 75.0625,
            "I": 73.875,
            "J": 74.125,
            "K": 77,
            "L": 78.86666666666666,
            "A": 77.73333333333333,
            "B": 79.26666666666667
        },
        "bus1": {
            "D": 73.9375,
            "E": 74.8125,
            "F": 76.4375,
            "G": 77.6875,
            "H": 78.625,
            "I": 79.125,
            "J": 80.625,
            "K": 82.3125,
            "L": 83.3125,
            "A": 83.6,
            "B": 80.93333333333334,
            "C": 79.33333333333333
        },
        "bus2": {
            "G": 75.0625,
            "H": 75.25,
            "I": 74.9375,
            "J": 77.375,
            "K": 78.0625,
            "L": 79.8125,
            "A": 81.5625,
            "B": 80.875,
            "C": 79.93333333333334,
            "D": 78.13333333333334,
            "E": 76.93333333333334,
            "F": 77.53333333333333
        },
        "bus3": {
            "J": 77.0625,
            "K": 76.9375,
            "L": 78.6875,
            "A": 77.4375,
            "B": 77.6875,
            "C": 78.375,
            "D": 78.9375,
            "E": 80.4,
            "F": 81.2,
            "G": 81.26666666666667,
            "H": 82.46666666666667,
            "I": 82.8
        },
        "bus4": {
            "K": 74.5625,
            "L": 75.3125,
            "A": 73.1875,
            "B": 74.875,
            "C": 75.0625,
            "D": 74.625,
            "E": 74.25,
            "F": 75.75,
            "G": 77.06666666666666,
            "H": 78.13333333333334,
            "I": 79.8,
            "J": 78.86666666666666
        },
        "bus5": {
            "L": 74.625,
            "A": 75.375,
            "B": 74.5625,
            "C": 73.875,
            "D": 76.4375,
            "E": 77.3125,
            "F": 77.0625,
            "G": 77.6875,
            "H": 78.25,
            "I": 78.6,
            "J": 78.8,
            "K": 79.46666666666667
        }
    }
}   "K": 82,
            "L": 81.66666666666667
        }
    }
}