{
    "Average_holding_time": 16.97301854974705,
    "Average_travel_time_passengers": 2575.302045709918,
    "Average_speed_busses": 0.049416666666666664,
    "Average_experienced_crowding": 76.77699786330359,
    "Average_covariation_headway": 0.1230725355408835,
    "Average_covariation_headway_stops": {
        "B": 0.10731649676737225,
        "E": 0.10229155782402864,
        "H": 0.1095790885554092,
        "J": 0.09666724733083748,
        "L": 0.09641419225547236,
        "A": 0.10109721455054986,
        "K": 0.08684601283479398,
        "C": 0.07604726016756437,
        "F": 0.08203554200657258,
        "I": 0.07401632792650933,
        "D": 0.07166838709746817,
        "G": 0.08357254107569266
    },
    "Average_excess_waiting_time": {
        "B": 38.394682585413875,
        "E": 39.6185368753695,
        "H": 41.67234476973317,
        "J": 40.952441687842,
        "L": 40.90214778731644,
        "A": 39.576882710228006,
        "K": 41.756434688555885,
        "C": 38.15000531035713,
        "F": 39.92628680997774,
        "I": 41.11079994611134,
        "D": 39.40434490153439,
        "G": 41.77892945685545
    },
    "Holding_per_stop": {
        "J": 27.272727272727273,
        "A": 6.0606060606060606,
        "B": 11.4,
        "E": 6.363636363636363,
        "L": 26.96969696969697,
        "H": 12.424242424242424,
        "C": 22.12121212121212,
        "K": 37.6530612244898,
        "F": 17.272727272727273,
        "I": 16.224489795918366,
        "D": 10.303030303030303,
        "G": 9.795918367346939
    },
    "Load_per_bus_per_stop": {
        "bus0": {
            "B": 73.52941176470588,
            "C": 73.58823529411765,
            "D": 74.17647058823529,
            "E": 75.41176470588235,
            "F": 74.29411764705883,
            "G": 73.47058823529412,
            "H": 75.3529411764706,
            "I": 76.625,
            "J": 76.5625,
            "K": 77.375,
            "L": 77.25,
            "A": 77.0625
        },
        "bus1": {
            "E": 75.3529411764706,
            "F": 75.29411764705883,
            "G": 77,
            "H": 76.29411764705883,
            "I": 75.70588235294117,
            "J": 76.88235294117646,
            "K": 77.375,
            "L": 80.8125,
            "A": 82.25,
            "B": 79.75,
            "C": 78.125,
            "D": 79.4375
        },
        "bus2": {
            "H": 76.70588235294117,
            "I": 76.41176470588235,
            "J": 77.23529411764706,
            "K": 77.94117647058823,
            "L": 78.23529411764706,
            "A": 78.625,
            "B": 78.6875,
            "C": 78.1875,
            "D": 78.875,
            "E": 81,
            "F": 80,
            "G": 80.0625
        },
        "bus3": {
            "J": 71.17647058823529,
            "K": 71.47058823529412,
            "L": 71.47058823529412,
            "A": 72.6470588235294,
            "B": 74.6470588235294,
            "C": 75.625,
            "D": 76.8125,
            "E": 77.875,
            "F": 77.3125,
            "G": 78.25,
            "H": 76,
            "I": 76.625
        },
        "bus4": {
            "L": 74.70588235294117,
            "A": 74.76470588235294,
            "B": 74.6470588235294,
            "C": 77,
            "D": 76.47058823529412,
            "E": 75.125,
            "F": 76,
            "G": 78.6875,
            "H": 78.9375,
            "I": 78.875,
            "J": 77.8125,
            "K": 77.1875
        },
        "bus5": {
            "A": 75.3529411764706,
            "B": 76.11764705882354,
            "C": 74.58823529411765,
            "D": 73.82352941176471,
            "E": 72.82352941176471,
            "F": 72.6470588235294,
            "G": 73.9375,
            "H": 73.6875,
            "I": 76.4375,
            "J": 77.9375,
            "K": 77.875,
            "L": 78.875
        }
    }
}   }
    }
}