{
    "Average_holding_time": 32.29946524064171,
    "Average_travel_time_passengers": 2718.033383687648,
    "Average_speed_busses": 0.04675,
    "Average_experienced_crowding": 80.43398227234512,
    "Average_covariation_headway": 0.0956878583457096,
    "Average_covariation_headway_stops": {
        "C": 0.09174118095720538,
        "D": 0.09686748266051944,
        "E": 0.10300556388766788,
        "H": 0.09793859812219584,
        "J": 0.08066243130855545,
        "L": 0.07865232537925944,
        "F": 0.07154331478268985,
        "K": 0.04895560924424972,
        "A": 0.046038677631929315,
        "I": 0.053135927442545264,
        "G": 0.06838823686167482,
        "B": 0.05230523896603787
    },
    "Average_excess_waiting_time": {
        "C": 57.733047630414774,
        "D": 56.37403882043009,
        "E": 55.275848713660025,
        "H": 56.622138774972484,
        "J": 55.577580436375854,
        "L": 55.4020470181099,
        "F": 55.21101766954416,
        "K": 55.96823851933959,
        "A": 55.789145291674004,
        "I": 56.16231619315454,
        "G": 56.79096483619867,
        "B": 57.6494925473981
    },
    "Holding_per_stop": {
        "E": 30.95744680851064,
        "J": 31.914893617021278,
        "D": 32.234042553191486,
        "L": 31.595744680851062,
        "C": 35.483870967741936,
        "H": 33.191489361702125,
        "F": 33.829787234042556,
        "A": 28.06451612903226,
        "K": 31.612903225806452,
        "I": 35.16129032258065,
        "G": 33.54838709677419,
        "B": 30
    },
    "Load_per_bus_per_stop": {
        "bus0": {
            "C": 76.625,
            "D": 76,
            "E": 77.6875,
            "F": 78.4375,
            "G": 82.25,
            "H": 84.25,
            "I": 84.73333333333333,
            "J": 85,
            "K": 85.26666666666667,
            "L": 84.2,
            "A": 81.73333333333333,
            "B": 80.93333333333334
        },
        "bus1": {
            "D": 72.875,
            "E": 73.25,
            "F": 73.4375,
            "G": 73.75,
            "H": 74.6875,
            "I": 73.4375,
            "J": 74.375,
            "K": 74.93333333333334,
            "L": 75.46666666666667,
            "A": 76.73333333333333,
            "B": 77.06666666666666,
            "C": 77.33333333333333
        },
        "bus2": {
            "E": 82.875,
            "F": 82.5625,
            "G": 84,
            "H": 82,
            "I": 82.0625,
            "J": 82.625,
            "K": 83.3125,
            "L": 84.6875,
            "A": 84.66666666666667,
            "B": 85.06666666666666,
            "C": 85.66666666666667,
            "D": 87.46666666666667
        },
        "bus3": {
            "H": 77.375,
            "I": 78.375,
            "J": 78.5,
            "K": 77.625,
            "L": 78.1875,
            "A": 80.625,
            "B": 80.5625,
            "C": 81.25,
            "D": 81.86666666666666,
            "E": 83.06666666666666,
            "F": 83.6,
            "G": 81.66666666666667
        },
        "bus4": {
            "J": 79.125,
            "K": 78.6875,
            "L": 79.5,
            "A": 79.625,
            "B": 79.625,
            "C": 81.625,
            "D": 82.3125,
            "E": 84.26666666666667,
            "F": 84.53333333333333,
            "G": 83.33333333333333,
            "H": 83.8,
            "I": 85.26666666666667
        },
        "bus5": {
            "L": 75.3125,
            "A": 74.3125,
            "B": 75.8125,
            "C": 77.625,
            "D": 76.4375,
            "E": 76.3125,
            "F": 78.75,
            "G": 78.33333333333333,
            "H": 78.86666666666666,
            "I": 79.73333333333333,
            "J": 80,
            "K": 79.93333333333334
        }
    }
}