{
    "Average_holding_time": 16.947723440134908,
    "Average_travel_time_passengers": 2584.4305687813476,
    "Average_speed_busses": 0.049416666666666664,
    "Average_experienced_crowding": 75.55286417861548,
    "Average_covariation_headway": 0.16445570585124258,
    "Average_covariation_headway_stops": {
        "D": 0.12109462406773973,
        "G": 0.11718996260782388,
        "I": 0.11520205888108874,
        "K": 0.12017409409546269,
        "L": 0.12552170430235274,
        "A": 0.13025131475171928,
        "E": 0.11098350405067656,
        "J": 0.10363678849321865,
        "B": 0.10508576825808565,
        "H": 0.09860521929000306,
        "F": 0.09978801177154492,
        "C": 0.11099628510073396
    },
    "Average_excess_waiting_time": {
        "D": 40.42230297803047,
        "G": 41.55881148869395,
        "I": 41.200920303699036,
        "K": 41.29890774324457,
        "L": 40.44667437575282,
        "A": 39.407605634929155,
        "E": 41.22820827174985,
        "J": 42.22242243743926,
        "B": 39.08339428065818,
        "H": 41.78461345918066,
        "F": 41.97737657811024,
        "C": 40.75362994517576
    },
    "Holding_per_stop": {
        "D": 15.151515151515152,
        "I": 16.666666666666668,
        "A": 10.2,
        "G": 13.93939393939394,
        "K": 24.242424242424242,
        "L": 22.424242424242426,
        "E": 16.96969696969697,
        "B": 14.242424242424242,
        "J": 16.836734693877553,
        "H": 14.081632653061224,
        "C": 22.12121212121212,
        "F": 16.53061224489796
    },
    "Load_per_bus_per_stop": {
        "bus0": {
            "D": 73.52941176470588,
            "E": 74.3529411764706,
            "F": 73.29411764705883,
            "G": 74.58823529411765,
            "H": 74.23529411764706,
            "I": 75.23529411764706,
            "J": 76.23529411764706,
            "K": 75.6875,
            "L": 76.25,
            "A": 77.4375,
            "B": 76.5625,
            "C": 77.25
        },
        "bus1": {
            "G": 79.17647058823529,
            "H": 78.52941176470588,
            "I": 79.82352941176471,
            "J": 79.41176470588235,
            "K": 80.47058823529412,
            "L": 79.3529411764706,
            "A": 77.875,
            "B": 77.8125,
            "C": 79.875,
            "D": 78.4375,
            "E": 79.875,
            "F": 82
        },
        "bus2": {
            "I": 76.41176470588235,
            "J": 75.52941176470588,
            "K": 73.58823529411765,
            "L": 71.11764705882354,
            "A": 71.88235294117646,
            "B": 73.23529411764706,
            "C": 73.0625,
            "D": 73.875,
            "E": 73.875,
            "F": 75.75,
            "G": 78.0625,
            "H": 80.625
        },
        "bus3": {
            "K": 73,
            "L": 73.3529411764706,
            "A": 74.52941176470588,
            "B": 75.23529411764706,
            "C": 76.41176470588235,
            "D": 76.0625,
            "E": 77.125,
            "F": 78.6875,
            "G": 76.1875,
            "H": 74.625,
            "I": 74.9375,
            "J": 74.875
        },
        "bus4": {
            "L": 70.58823529411765,
            "A": 71.05882352941177,
            "B": 71.3529411764706,
            "C": 70.41176470588235,
            "D": 70.29411764705883,
            "E": 72.52941176470588,
            "F": 72.23529411764706,
            "G": 72.375,
            "H": 73.5625,
            "I": 75.5625,
            "J": 75.1875,
            "K": 75.1875
        },
        "bus5": {
            "A": 73.29411764705883,
            "B": 72.76470588235294,
            "C": 73.17647058823529,
            "D": 72.05882352941177,
            "E": 70.3529411764706,
            "F": 70.88235294117646,
            "G": 70.3529411764706,
            "H": 72.52941176470588,
            "I": 74.9375,
            "J": 75.5,
            "K": 76.1875,
            "L": 76.5625
        }
    }
}