{
    "Average_holding_time": 13.222866611433306,
    "Average_travel_time_passengers": 2521.025596934375,
    "Average_speed_busses": 0.050291666666666665,
    "Average_experienced_crowding": 73.44327212273643,
    "Average_covariation_headway": 0.13222960910435333,
    "Average_covariation_headway_stops": {
        "B": 0.12285078798667738,
        "G": 0.18214784221086047,
        "H": 0.16629340857025038,
        "K": 0.1289242970079007,
        "L": 0.12169369224758836,
        "A": 0.1171366764336062,
        "I": 0.13556779357837948,
        "C": 0.09861038714313186,
        "J": 0.12445978760234185,
        "D": 0.09522752999157659,
        "E": 0.12307038957335335,
        "F": 0.1601349744334468
    },
    "Average_excess_waiting_time": {
        "B": 34.13046427914668,
        "G": 43.72723282448868,
        "H": 40.48668798439172,
        "K": 39.09254401310983,
        "L": 37.06916917914015,
        "A": 35.294269585406084,
        "I": 39.44837582534967,
        "C": 33.95072020927904,
        "J": 39.98713865016242,
        "D": 35.167689874584255,
        "E": 38.43375325786957,
        "F": 42.976133042175604
    },
    "Holding_per_stop": {
        "A": 3.8613861386138613,
        "H": 13.663366336633663,
        "B": 5.294117647058823,
        "L": 16.03960396039604,
        "K": 30.6,
        "G": 14.4,
        "I": 16.5,
        "C": 11.287128712871286,
        "J": 17.1,
        "D": 6.534653465346534,
        "E": 9.3,
        "F": 14.4
    },
    "Load_per_bus_per_stop": {
        "bus0": {
            "B": 72.58823529411765,
            "C": 75.6470588235294,
            "D": 74.6470588235294,
            "E": 72.3529411764706,
            "F": 74.3529411764706,
            "G": 75.76470588235294,
            "H": 76.58823529411765,
            "I": 75.88235294117646,
            "J": 75.82352941176471,
            "K": 76.23529411764706,
            "L": 76.88235294117646,
            "A": 76.1875
        },
        "bus1": {
            "G": 72.58823529411765,
            "H": 71.11764705882354,
            "I": 72.41176470588235,
            "J": 73.76470588235294,
            "K": 74.70588235294117,
            "L": 72.17647058823529,
            "A": 74.29411764705883,
            "B": 74.47058823529412,
            "C": 76.4375,
            "D": 77.125,
            "E": 77.5625,
            "F": 76.25
        },
        "bus2": {
            "H": 67.47058823529412,
            "I": 69,
            "J": 70.88235294117646,
            "K": 72.23529411764706,
            "L": 72.23529411764706,
            "A": 71.70588235294117,
            "B": 70.70588235294117,
            "C": 72.58823529411765,
            "D": 73.29411764705883,
            "E": 75.6875,
            "F": 74.875,
            "G": 72.8125
        },
        "bus3": {
            "K": 72.17647058823529,
            "L": 71.94117647058823,
            "A": 71.29411764705883,
            "B": 72.3529411764706,
            "C": 73.11764705882354,
            "D": 71.58823529411765,
            "E": 72.29411764705883,
            "F": 71.76470588235294,
            "G": 72.375,
            "H": 73.8125,
            "I": 74.875,
            "J": 76.3125
        },
        "bus4": {
            "L": 67.47058823529412,
            "A": 68.52941176470588,
            "B": 69.58823529411765,
            "C": 71,
            "D": 71.05882352941177,
            "E": 72.47058823529412,
            "F": 72.05882352941177,
            "G": 72.41176470588235,
            "H": 72.70588235294117,
            "I": 71.75,
            "J": 72.6875,
            "K": 71.625
        },
        "bus5": {
            "A": 69.41176470588235,
            "B": 67.58823529411765,
            "C": 69.88235294117646,
            "D": 70.70588235294117,
            "E": 71.88235294117646,
            "F": 73.05882352941177,
            "G": 72.17647058823529,
            "H": 73.05882352941177,
            "I": 73.58823529411765,
            "J": 73.58823529411765,
            "K": 74.625,
            "L": 74.375
        }
    }
}