{
    "Average_holding_time": 35.08976660682226,
    "Average_travel_time_passengers": 2705.748514593235,
    "Average_speed_busses": 0.04641666666666667,
    "Average_experienced_crowding": 78.43548443734323,
    "Average_covariation_headway": 0.12120791405440517,
    "Average_covariation_headway_stops": {
        "C": 0.1275998315227647,
        "E": 0.1029882343240852,
        "F": 0.10283540590866624,
        "G": 0.10565507659177614,
        "H": 0.1207789070379393,
        "L": 0.12168481454143185,
        "I": 0.10115937632931389,
        "D": 0.0915989091093356,
        "A": 0.09205222653558963,
        "J": 0.08994256906751631,
        "B": 0.09622580940595415,
        "K": 0.09830242999458726
    },
    "Average_excess_waiting_time": {
        "C": 63.35220219993204,
        "E": 61.369612109716115,
        "F": 59.39299518056748,
        "G": 57.863350749598396,
        "H": 57.285451243331124,
        "L": 61.16935201460433,
        "I": 57.62959775658862,
        "D": 62.384079627273536,
        "A": 61.17809847428282,
        "J": 58.77947609799236,
        "B": 62.591043194399276,
        "K": 61.069159635886194
    },
    "Holding_per_stop": {
        "H": 33.51063829787234,
        "G": 35.744680851063826,
        "F": 35.483870967741936,
        "C": 52.82608695652174,
        "E": 34.83870967741935,
        "L": 38.38709677419355,
        "I": 40.212765957446805,
        "A": 2.282608695652174,
        "J": 46.774193548387096,
        "D": 23.152173913043477,
        "K": 49.23913043478261,
        "B": 28.369565217391305
    },
    "Load_per_bus_per_stop": {
        "bus0": {
            "C": 77.125,
            "D": 79.8125,
            "E": 81.8125,
            "F": 82.8125,
            "G": 82.8125,
            "H": 83.4,
            "I": 83.2,
            "J": 84.26666666666667,
            "K": 82.66666666666667,
            "L": 81.8,
            "A": 79.73333333333333,
            "B": 81.6
        },
        "bus1": {
            "E": 77.625,
            "F": 76.9375,
            "G": 77.8125,
            "H": 79.25,
            "I": 80.875,
            "J": 81.86666666666666,
            "K": 82.86666666666666,
            "L": 83.13333333333334,
            "A": 82.73333333333333,
            "B": 81.93333333333334,
            "C": 80,
            "D": 81.6
        },
        "bus2": {
            "F": 70.125,
            "G": 70.6875,
            "H": 72.125,
            "I": 71.375,
            "J": 71.875,
            "K": 74.4375,
            "L": 74.93333333333334,
            "A": 75.8,
            "B": 78.2,
            "C": 76.86666666666666,
            "D": 75.06666666666666,
            "E": 73.93333333333334
        },
        "bus3": {
            "G": 72.0625,
            "H": 74.4375,
            "I": 73.75,
            "J": 75.4375,
            "K": 77.625,
            "L": 79.0625,
            "A": 78.5625,
            "B": 77.86666666666666,
            "C": 78.53333333333333,
            "D": 77.6,
            "E": 76.66666666666667,
            "F": 77.33333333333333
        },
        "bus4": {
            "H": 77.625,
            "I": 78.4375,
            "J": 79.9375,
            "K": 80.625,
            "L": 78.875,
            "A": 78.3125,
            "B": 78.4375,
            "C": 76.9375,
            "D": 76.86666666666666,
            "E": 77,
            "F": 78.8,
            "G": 80.26666666666667
        },
        "bus5": {
            "L": 74.8125,
            "A": 72.75,
            "B": 74.125,
            "C": 73.625,
            "D": 77.0625,
            "E": 78.5625,
            "F": 76.2,
            "G": 77.13333333333334,
            "H": 79.06666666666666,
            "I": 80.26666666666667,
            "J": 80.86666666666666,
            "K": 81.93333333333334
        }
    }
}