{
    "Average_holding_time": 32.836752899197144,
    "Average_travel_time_passengers": 2695.847558191903,
    "Average_speed_busses": 0.04670833333333333,
    "Average_experienced_crowding": 80.00764137721585,
    "Average_covariation_headway": 0.1208947926094774,
    "Average_covariation_headway_stops": {
        "E": 0.1635642250754677,
        "F": 0.16157097834838682,
        "G": 0.15552690617303197,
        "H": 0.15507085491334743,
        "K": 0.1169617852588136,
        "L": 0.11257256482992505,
        "I": 0.12977376580873576,
        "A": 0.07438473023772582,
        "J": 0.11071389399918752,
        "B": 0.07602190648888213,
        "C": 0.09583786978350663,
        "D": 0.13839221923904962
    },
    "Average_excess_waiting_time": {
        "E": 65.60244870882212,
        "F": 63.87438664555111,
        "G": 61.60118315384847,
        "H": 59.694188795404216,
        "K": 57.998443456026564,
        "L": 55.92597681508755,
        "I": 59.17596776551636,
        "A": 55.378751924484845,
        "J": 59.3597673648581,
        "B": 57.27437724822818,
        "C": 60.02701438241684,
        "D": 64.98274095688521
    },
    "Holding_per_stop": {
        "H": 32.5531914893617,
        "L": 33.51063829787234,
        "F": 31.93548387096774,
        "G": 32.5531914893617,
        "K": 34.787234042553195,
        "E": 33.87096774193548,
        "I": 32.5531914893617,
        "A": 28.72340425531915,
        "J": 31.612903225806452,
        "B": 34.193548387096776,
        "C": 34.516129032258064,
        "D": 33.26086956521739
    },
    "Load_per_bus_per_stop": {
        "bus0": {
            "E": 76.0625,
            "F": 77.375,
            "G": 78.6875,
            "H": 78.125,
            "I": 78.875,
            "J": 79.4,
            "K": 80.66666666666667,
            "L": 80.46666666666667,
            "A": 80.86666666666666,
            "B": 81.93333333333334,
            "C": 81.8,
            "D": 80.06666666666666
        },
        "bus1": {
            "F": 73.625,
            "G": 73.5,
            "H": 73.6875,
            "I": 74,
            "J": 72.375,
            "K": 73.8125,
            "L": 76.33333333333333,
            "A": 76.86666666666666,
            "B": 76.13333333333334,
            "C": 77.06666666666666,
            "D": 78.53333333333333,
            "E": 79.8
        },
        "bus2": {
            "G": 79.5625,
            "H": 78.375,
            "I": 79.5,
            "J": 80.8125,
            "K": 81.4375,
            "L": 81.1875,
            "A": 81.4375,
            "B": 81.86666666666666,
            "C": 82.13333333333334,
            "D": 82.6,
            "E": 81.4,
            "F": 83.13333333333334
        },
        "bus3": {
            "H": 73.1875,
            "I": 73.875,
            "J": 73.8125,
            "K": 74.9375,
            "L": 76.5,
            "A": 76.625,
            "B": 78.1875,
            "C": 77.6875,
            "D": 77.2,
            "E": 78.33333333333333,
            "F": 80.33333333333333,
            "G": 81.46666666666667
        },
        "bus4": {
            "K": 73.3125,
            "L": 71.6875,
            "A": 71.5,
            "B": 72.9375,
            "C": 72.8125,
            "D": 75.9375,
            "E": 76.5,
            "F": 77.86666666666666,
            "G": 77.26666666666667,
            "H": 78.8,
            "I": 78.53333333333333,
            "J": 77.8
        },
        "bus5": {
            "L": 81.3125,
            "A": 78.0625,
            "B": 80,
            "C": 83.0625,
            "D": 84.6875,
            "E": 84.625,
            "F": 86.6875,
            "G": 86.6875,
            "H": 88,
            "I": 87.26666666666667,
            "J": 88.73333333333333,
            "K": 85.93333333333334
        }
    }
}