{
    "Average_holding_time": 16.225779275484413,
    "Average_travel_time_passengers": 2568.1736388560435,
    "Average_speed_busses": 0.04945833333333333,
    "Average_experienced_crowding": 76.9956776897907,
    "Average_covariation_headway": 0.15051100138547815,
    "Average_covariation_headway_stops": {
        "B": 0.11656937609520558,
        "E": 0.1144040664226179,
        "G": 0.09697316056467777,
        "I": 0.09494364116286003,
        "K": 0.12623566782060827,
        "L": 0.13099214086093222,
        "C": 0.0994751223302686,
        "A": 0.10268410080109489,
        "H": 0.0772336720206043,
        "J": 0.08616821402181905,
        "F": 0.07744883499976402,
        "D": 0.0875906327418648
    },
    "Average_excess_waiting_time": {
        "B": 39.39807286102695,
        "E": 40.81374416167171,
        "G": 39.97104690959998,
        "I": 39.8549218801827,
        "K": 41.979952359425056,
        "L": 40.70042080606498,
        "C": 39.73508609075611,
        "A": 40.081349914328825,
        "H": 40.393711565605656,
        "J": 40.83105197516363,
        "F": 40.43924510897574,
        "D": 41.21551223770223
    },
    "Holding_per_stop": {
        "B": 7.575757575757576,
        "L": 18,
        "G": 12.121212121212121,
        "I": 23.636363636363637,
        "E": 16.96969696969697,
        "K": 30.303030303030305,
        "A": 3.6363636363636362,
        "C": 23.636363636363637,
        "H": 11.818181818181818,
        "F": 5.510204081632653,
        "J": 25.151515151515152,
        "D": 16.224489795918366
    },
    "Load_per_bus_per_stop": {
        "bus0": {
            "B": 73.05882352941177,
            "C": 73.41176470588235,
            "D": 75.41176470588235,
            "E": 75.17647058823529,
            "F": 75.17647058823529,
            "G": 75.6470588235294,
            "H": 77.76470588235294,
            "I": 77.625,
            "J": 76.75,
            "K": 77.875,
            "L": 78.1875,
            "A": 78.0625
        },
        "bus1": {
            "E": 74.11764705882354,
            "F": 74.52941176470588,
            "G": 73.94117647058823,
            "H": 74.76470588235294,
            "I": 76.41176470588235,
            "J": 77.17647058823529,
            "K": 75.3125,
            "L": 76.4375,
            "A": 78.3125,
            "B": 77.875,
            "C": 76.1875,
            "D": 77
        },
        "bus2": {
            "G": 73.82352941176471,
            "H": 74.05882352941177,
            "I": 76.05882352941177,
            "J": 77.52941176470588,
            "K": 76.3529411764706,
            "L": 77.29411764705883,
            "A": 80.1875,
            "B": 79.1875,
            "C": 78.5,
            "D": 77.25,
            "E": 77.5,
            "F": 78.5625
        },
        "bus3": {
            "I": 71.05882352941177,
            "J": 72.23529411764706,
            "K": 74.11764705882354,
            "L": 76,
            "A": 72.82352941176471,
            "B": 74.05882352941177,
            "C": 73.625,
            "D": 72.75,
            "E": 74.375,
            "F": 74.25,
            "G": 74.9375,
            "H": 73
        },
        "bus4": {
            "K": 75.6470588235294,
            "L": 75.94117647058823,
            "A": 75.94117647058823,
            "B": 74.41176470588235,
            "C": 75.6470588235294,
            "D": 76.52941176470588,
            "E": 77.375,
            "F": 78.9375,
            "G": 79,
            "H": 81.875,
            "I": 81.875,
            "J": 81.0625
        },
        "bus5": {
            "L": 74.94117647058823,
            "A": 77.70588235294117,
            "B": 78.70588235294117,
            "C": 79.3529411764706,
            "D": 78.47058823529412,
            "E": 79.17647058823529,
            "F": 79.3529411764706,
            "G": 80.5625,
            "H": 82.1875,
            "I": 78.875,
            "J": 78.1875,
            "K": 78.0625
        }
    }
}