{
    "Average_holding_time": 25.152041702867074,
    "Average_travel_time_passengers": 2613.0105053632383,
    "Average_speed_busses": 0.04795833333333333,
    "Average_experienced_crowding": 77.7146846077371,
    "Average_covariation_headway": 0.11666577319810671,
    "Average_covariation_headway_stops": {
        "B": 0.1291700009608913,
        "C": 0.1223524504485093,
        "D": 0.1279886794983469,
        "F": 0.103549816925447,
        "I": 0.09790975899790114,
        "A": 0.13368447667625072,
        "E": 0.10487092486762417,
        "G": 0.07234664551184433,
        "J": 0.07733106055228305,
        "K": 0.07183688174131254,
        "H": 0.07392752968910064,
        "L": 0.10631761479818035
    },
    "Average_excess_waiting_time": {
        "B": 52.45937106140178,
        "C": 50.03357691138575,
        "D": 48.937045156410136,
        "F": 47.28534462368975,
        "I": 48.52680085695698,
        "A": 54.68118223445441,
        "E": 48.95401753880577,
        "G": 47.33470533460235,
        "J": 49.166566574781484,
        "K": 50.45687045911575,
        "H": 49.055083471379305,
        "L": 54.06695993266271
    },
    "Holding_per_stop": {
        "D": 24.432989690721648,
        "F": 25.051546391752577,
        "I": 27.5,
        "C": 28.125,
        "B": 18.4375,
        "A": 12.631578947368421,
        "J": 26.5625,
        "E": 30,
        "G": 27.5,
        "H": 26.5625,
        "K": 27.157894736842106,
        "L": 27.789473684210527
    },
    "Load_per_bus_per_stop": {
        "bus0": {
            "B": 73.6875,
            "C": 75.375,
            "D": 75,
            "E": 74.625,
            "F": 76,
            "G": 76.0625,
            "H": 76.25,
            "I": 76.4375,
            "J": 76.9375,
            "K": 75.4375,
            "L": 75.5625,
            "A": 77.73333333333333
        },
        "bus1": {
            "C": 73.75,
            "D": 74.4375,
            "E": 74.375,
            "F": 74.5625,
            "G": 75.75,
            "H": 77.875,
            "I": 79.1875,
            "J": 77.9375,
            "K": 77.6875,
            "L": 78.25,
            "A": 78.3125,
            "B": 78.125
        },
        "bus2": {
            "D": 77.58823529411765,
            "E": 78.25,
            "F": 77.5,
            "G": 79.125,
            "H": 79,
            "I": 81.3125,
            "J": 79.25,
            "K": 78.875,
            "L": 78.625,
            "A": 79.5,
            "B": 79.5625,
            "C": 82.1875
        },
        "bus3": {
            "F": 73.88235294117646,
            "G": 75.4375,
            "H": 75.375,
            "I": 75.5625,
            "J": 76.25,
            "K": 78.5,
            "L": 79.8125,
            "A": 79.8125,
            "B": 80.4375,
            "C": 80.9375,
            "D": 81.25,
            "E": 78.4375
        },
        "bus4": {
            "I": 72.625,
            "J": 74.375,
            "K": 74.6875,
            "L": 73.8125,
            "A": 75.6875,
            "B": 74.625,
            "C": 75.3125,
            "D": 76.125,
            "E": 75.5625,
            "F": 76.9375,
            "G": 75.9375,
            "H": 78.0625
        },
        "bus5": {
            "A": 74.6875,
            "B": 76,
            "C": 77.1875,
            "D": 75.8125,
            "E": 75.4375,
            "F": 75.75,
            "G": 73.75,
            "H": 73.6875,
            "I": 76.1875,
            "J": 78.9375,
            "K": 78.46666666666667,
            "L": 79.86666666666666
        }
    }
}