{
    "Average_holding_time": 9.737704918032787,
    "Average_travel_time_passengers": 2534.091085452699,
    "Average_speed_busses": 0.050833333333333335,
    "Average_experienced_crowding": 76.2208103232703,
    "Average_covariation_headway": 0.2716755280580891,
    "Average_covariation_headway_stops": {
        "E": 0.26745358892981747,
        "F": 0.26288450712188693,
        "G": 0.25095855294332814,
        "H": 0.24059309132659065,
        "I": 0.23108560210991178,
        "K": 0.21673761733467384,
        "J": 0.21331041088047584,
        "L": 0.20417052555989404,
        "A": 0.18829503287408106,
        "B": 0.2038795740315662,
        "C": 0.23040537405578604,
        "D": 0.2509434684933171
    },
    "Average_excess_waiting_time": {
        "E": 53.21960628346113,
        "F": 50.78455899853401,
        "G": 47.38285297150759,
        "H": 44.37504963836125,
        "I": 41.55650520906596,
        "K": 40.10607537244914,
        "J": 41.15196128807901,
        "L": 39.95167348604434,
        "A": 39.65768825512839,
        "B": 42.75530231943327,
        "C": 47.55407072756509,
        "D": 52.37254751902378
    },
    "Holding_per_stop": {
        "G": 10.588235294117647,
        "I": 8.737864077669903,
        "K": 15.145631067961165,
        "H": 10.294117647058824,
        "F": 14.554455445544555,
        "E": 12.772277227722773,
        "L": 6.764705882352941,
        "J": 9.117647058823529,
        "A": 1.4705882352941178,
        "B": 7.7227722772277225,
        "C": 15.742574257425742,
        "D": 3.9
    },
    "Load_per_bus_per_stop": {
        "bus0": {
            "E": 76.17647058823529,
            "F": 74.94117647058823,
            "G": 73.58823529411765,
            "H": 74.76470588235294,
            "I": 74.88235294117646,
            "J": 74.23529411764706,
            "K": 75.29411764705883,
            "L": 77.58823529411765,
            "A": 80.88235294117646,
            "B": 80.9375,
            "C": 82.4375,
            "D": 80.6875
        },
        "bus1": {
            "F": 68.82352941176471,
            "G": 70.3529411764706,
            "H": 69.3529411764706,
            "I": 69.94117647058823,
            "J": 72.17647058823529,
            "K": 73.82352941176471,
            "L": 74.52941176470588,
            "A": 76.11764705882354,
            "B": 75.41176470588235,
            "C": 73.52941176470588,
            "D": 71.0625,
            "E": 71.4375
        },
        "bus2": {
            "G": 73.11764705882354,
            "H": 74.17647058823529,
            "I": 75.58823529411765,
            "J": 75.47058823529412,
            "K": 74.11764705882354,
            "L": 75.52941176470588,
            "A": 74.88235294117646,
            "B": 75.41176470588235,
            "C": 75.29411764705883,
            "D": 74.6470588235294,
            "E": 77.11764705882354,
            "F": 77.25
        },
        "bus3": {
            "H": 66.47058823529412,
            "I": 66.70588235294117,
            "J": 67.41176470588235,
            "K": 67.23529411764706,
            "L": 67.47058823529412,
            "A": 68.47058823529412,
            "B": 69.52941176470588,
            "C": 70.29411764705883,
            "D": 71.41176470588235,
            "E": 70.58823529411765,
            "F": 69.88235294117646,
            "G": 70.17647058823529
        },
        "bus4": {
            "I": 64.33333333333333,
            "J": 64.88235294117646,
            "K": 67.52941176470588,
            "L": 68.11764705882354,
            "A": 68,
            "B": 66.94117647058823,
            "C": 67.47058823529412,
            "D": 66.70588235294117,
            "E": 66.29411764705883,
            "F": 66.23529411764706,
            "G": 66.6470588235294,
            "H": 67.52941176470588
        },
        "bus5": {
            "K": 78.22222222222223,
            "L": 77.47058823529412,
            "A": 79.17647058823529,
            "B": 80.47058823529412,
            "C": 81.41176470588235,
            "D": 82.88235294117646,
            "E": 83.11764705882354,
            "F": 83.23529411764706,
            "G": 84.29411764705883,
            "H": 83.41176470588235,
            "I": 83.76470588235294,
            "J": 84.23529411764706
        }
    }
}