{
    "Average_holding_time": 10.823723228995057,
    "Average_travel_time_passengers": 2499.9042798359287,
    "Average_speed_busses": 0.050583333333333334,
    "Average_experienced_crowding": 72.71148532132094,
    "Average_covariation_headway": 0.10637301362417628,
    "Average_covariation_headway_stops": {
        "B": 0.0737076417732798,
        "F": 0.1199250523727013,
        "G": 0.1091808996455175,
        "H": 0.10854042590877334,
        "K": 0.09092156681335713,
        "L": 0.0826837786164151,
        "C": 0.04418024469842423,
        "I": 0.07779753605821083,
        "A": 0.04564522522427788,
        "J": 0.07080947539181841,
        "D": 0.059615226629950044,
        "E": 0.09690026013327728
    },
    "Average_excess_waiting_time": {
        "B": 30.280879910143994,
        "F": 35.80887661618749,
        "G": 33.56992033459562,
        "H": 31.882873878907162,
        "K": 32.47125035102766,
        "L": 30.722315778860377,
        "C": 30.80176379791925,
        "I": 31.644004409562456,
        "A": 30.785533430633564,
        "J": 32.94757252807341,
        "D": 32.71416802610008,
        "E": 35.726241531949825
    },
    "Holding_per_stop": {
        "B": 3.235294117647059,
        "H": 9.411764705882353,
        "L": 11.470588235294118,
        "G": 10.693069306930694,
        "F": 13.366336633663366,
        "K": 25.247524752475247,
        "I": 18.11881188118812,
        "C": 9.801980198019802,
        "A": 0.8910891089108911,
        "J": 10.693069306930694,
        "D": 7.128712871287129,
        "E": 9.9
    },
    "Load_per_bus_per_stop": {
        "bus0": {
            "B": 67.76470588235294,
            "C": 70.6470588235294,
            "D": 71.05882352941177,
            "E": 72,
            "F": 73.23529411764706,
            "G": 72.94117647058823,
            "H": 73.52941176470588,
            "I": 73.6470588235294,
            "J": 73.23529411764706,
            "K": 71.70588235294117,
            "L": 70.17647058823529,
            "A": 69.1875
        },
        "bus1": {
            "F": 73.23529411764706,
            "G": 73.88235294117646,
            "H": 72.94117647058823,
            "I": 72.52941176470588,
            "J": 73,
            "K": 74,
            "L": 73.58823529411765,
            "A": 74.76470588235294,
            "B": 76.82352941176471,
            "C": 77,
            "D": 76.75,
            "E": 76.625
        },
        "bus2": {
            "G": 68.3529411764706,
            "H": 70.6470588235294,
            "I": 70.58823529411765,
            "J": 70.3529411764706,
            "K": 71.23529411764706,
            "L": 72.6470588235294,
            "A": 72.23529411764706,
            "B": 72.88235294117646,
            "C": 74,
            "D": 73.94117647058823,
            "E": 73.6875,
            "F": 73.4375
        },
        "bus3": {
            "H": 71.88235294117646,
            "I": 72.11764705882354,
            "J": 73.41176470588235,
            "K": 75.29411764705883,
            "L": 75.70588235294117,
            "A": 76.58823529411765,
            "B": 76.11764705882354,
            "C": 78.23529411764706,
            "D": 77.17647058823529,
            "E": 77.70588235294117,
            "F": 75.70588235294117,
            "G": 75.88235294117646
        },
        "bus4": {
            "K": 70.3529411764706,
            "L": 68.70588235294117,
            "A": 69.70588235294117,
            "B": 70.29411764705883,
            "C": 70.52941176470588,
            "D": 73.05882352941177,
            "E": 72.29411764705883,
            "F": 72.58823529411765,
            "G": 71.29411764705883,
            "H": 71.11764705882354,
            "I": 72.29411764705883,
            "J": 73.25
        },
        "bus5": {
            "L": 67.17647058823529,
            "A": 68.76470588235294,
            "B": 69.17647058823529,
            "C": 69.29411764705883,
            "D": 69,
            "E": 68.23529411764706,
            "F": 69.6470588235294,
            "G": 69.23529411764706,
            "H": 69.6470588235294,
            "I": 69.41176470588235,
            "J": 69.29411764705883,
            "K": 69.88235294117646
        }
    }
}