{
    "Average_holding_time": 34.61746174617462,
    "Average_travel_time_passengers": 2726.7935543586127,
    "Average_speed_busses": 0.04629166666666667,
    "Average_experienced_crowding": 82.56564555596017,
    "Average_covariation_headway": 0.16573193508779885,
    "Average_covariation_headway_stops": {
        "B": 0.18643320699952393,
        "H": 0.21128056247197805,
        "I": 0.21093109918957767,
        "J": 0.20628061641801324,
        "K": 0.20658505327245333,
        "A": 0.18773787026646066,
        "C": 0.157498938586072,
        "L": 0.19072789255707998,
        "D": 0.13789452708541092,
        "E": 0.13568760787937703,
        "F": 0.15396531625227908,
        "G": 0.19093506146053016
    },
    "Average_excess_waiting_time": {
        "B": 63.86994281892538,
        "H": 74.20644598434501,
        "I": 72.32632856184063,
        "J": 70.17845555167713,
        "K": 68.41049053869756,
        "A": 66.02672341120541,
        "C": 62.4493615742885,
        "L": 68.18061594351832,
        "D": 62.497898965996,
        "E": 64.19510106572233,
        "F": 67.71055583345117,
        "G": 73.55530920362094
    },
    "Holding_per_stop": {
        "B": 33.829787234042556,
        "J": 33.54838709677419,
        "K": 36.45161290322581,
        "I": 34.56521739130435,
        "A": 31.612903225806452,
        "H": 34.56521739130435,
        "C": 36.45161290322581,
        "L": 36.12903225806452,
        "D": 32.903225806451616,
        "E": 34.23913043478261,
        "F": 36.19565217391305,
        "G": 34.94505494505494
    },
    "Load_per_bus_per_stop": {
        "bus0": {
            "B": 81.125,
            "C": 80.3125,
            "D": 82.1875,
            "E": 84.0625,
            "F": 84.375,
            "G": 87.1875,
            "H": 88.3125,
            "I": 89.1875,
            "J": 89.73333333333333,
            "K": 90.13333333333334,
            "L": 89.26666666666667,
            "A": 87.33333333333333
        },
        "bus1": {
            "H": 82.5,
            "I": 83.8125,
            "J": 82.25,
            "K": 78.75,
            "L": 80.33333333333333,
            "A": 79.13333333333334,
            "B": 80.6,
            "C": 82.53333333333333,
            "D": 83.33333333333333,
            "E": 84.66666666666667,
            "F": 84.53333333333333,
            "G": 86.93333333333334
        },
        "bus2": {
            "I": 76.625,
            "J": 78.4375,
            "K": 79.9375,
            "L": 79.5625,
            "A": 79.3125,
            "B": 79.13333333333334,
            "C": 77.2,
            "D": 79.46666666666667,
            "E": 80.46666666666667,
            "F": 80.73333333333333,
            "G": 79.46666666666667,
            "H": 80.2
        },
        "bus3": {
            "J": 72.9375,
            "K": 72.8125,
            "L": 74.875,
            "A": 75.6875,
            "B": 75.3125,
            "C": 75,
            "D": 76.53333333333333,
            "E": 78.4,
            "F": 79,
            "G": 80.33333333333333,
            "H": 78.4,
            "I": 78.2
        },
        "bus4": {
            "K": 77.3125,
            "L": 78.0625,
            "A": 78.8125,
            "B": 79,
            "C": 80.625,
            "D": 80.5625,
            "E": 80.0625,
            "F": 80.13333333333334,
            "G": 81.66666666666667,
            "H": 81.8,
            "I": 81.46666666666667,
            "J": 81.53333333333333
        },
        "bus5": {
            "A": 74.625,
            "B": 76.6875,
            "C": 77.3125,
            "D": 78.1875,
            "E": 76.375,
            "F": 75.6875,
            "G": 77.4375,
            "H": 78.53333333333333,
            "I": 77.73333333333333,
            "J": 78.46666666666667,
            "K": 79.6,
            "L": 79.06666666666666
        }
    }
}