{
    "Average_holding_time": 24.878682842287695,
    "Average_travel_time_passengers": 2614.175109271516,
    "Average_speed_busses": 0.04808333333333333,
    "Average_experienced_crowding": 76.34485440822235,
    "Average_covariation_headway": 0.11282086833429941,
    "Average_covariation_headway_stops": {
        "C": 0.0974742103052252,
        "F": 0.10650772758925395,
        "G": 0.09918409210521024,
        "H": 0.10162242829186417,
        "I": 0.11488091893759066,
        "A": 0.12509124403636743,
        "D": 0.07490892124753763,
        "J": 0.08557912398816744,
        "B": 0.08662388319149567,
        "E": 0.07753526941651032,
        "K": 0.07535949108418194,
        "L": 0.09973146425647351
    },
    "Average_excess_waiting_time": {
        "C": 48.41661137457794,
        "F": 50.66112579015697,
        "G": 48.74574600999591,
        "H": 47.24810776251314,
        "I": 46.541175715274164,
        "A": 50.494986083336926,
        "D": 48.848704548233286,
        "J": 46.45688898371179,
        "B": 49.43134876137776,
        "E": 50.646256614593995,
        "K": 47.28255707696195,
        "L": 50.32544169859426
    },
    "Holding_per_stop": {
        "C": 25.3125,
        "I": 30,
        "H": 28.762886597938145,
        "G": 27.1875,
        "A": 6.5625,
        "F": 26.5625,
        "D": 21.875,
        "J": 29.38144329896907,
        "K": 27.8125,
        "B": 13.4375,
        "E": 29.05263157894737,
        "L": 32.5
    },
    "Load_per_bus_per_stop": {
        "bus0": {
            "C": 72.75,
            "D": 74.9375,
            "E": 74.625,
            "F": 73.25,
            "G": 74.9375,
            "H": 76.0625,
            "I": 76.5,
            "J": 78.1875,
            "K": 79.3125,
            "L": 78.1875,
            "A": 77.625,
            "B": 79.6875
        },
        "bus1": {
            "F": 69.75,
            "G": 70.875,
            "H": 71.875,
            "I": 71.875,
            "J": 73.1875,
            "K": 74.3125,
            "L": 73.1875,
            "A": 75.6875,
            "B": 75.25,
            "C": 74.125,
            "D": 73.625,
            "E": 73.53333333333333
        },
        "bus2": {
            "G": 77.625,
            "H": 79,
            "I": 76.125,
            "J": 75.125,
            "K": 74.9375,
            "L": 75.375,
            "A": 78.1875,
            "B": 79,
            "C": 79.1875,
            "D": 79.6875,
            "E": 79.8125,
            "F": 81
        },
        "bus3": {
            "H": 70.6470588235294,
            "I": 71.625,
            "J": 71.625,
            "K": 71.75,
            "L": 72.3125,
            "A": 71.5,
            "B": 72.5,
            "C": 73.8125,
            "D": 75.375,
            "E": 74.6875,
            "F": 73.9375,
            "G": 74.0625
        },
        "bus4": {
            "I": 78.17647058823529,
            "J": 77.58823529411765,
            "K": 76.625,
            "L": 76.3125,
            "A": 78.375,
            "B": 78.5,
            "C": 78.8125,
            "D": 79.25,
            "E": 78.25,
            "F": 80.375,
            "G": 81.0625,
            "H": 82.125
        },
        "bus5": {
            "A": 74.75,
            "B": 74.875,
            "C": 74.75,
            "D": 76.0625,
            "E": 75.875,
            "F": 76.4375,
            "G": 76.3125,
            "H": 76.0625,
            "I": 76.9375,
            "J": 76.875,
            "K": 76.0625,
            "L": 77.4375
        }
    }
}