{
    "Average_holding_time": 12.956810631229235,
    "Average_travel_time_passengers": 2545.7472354394467,
    "Average_speed_busses": 0.050166666666666665,
    "Average_experienced_crowding": 74.60302741708807,
    "Average_covariation_headway": 0.152361534922493,
    "Average_covariation_headway_stops": {
        "B": 0.12800162685161975,
        "F": 0.1353100517982027,
        "H": 0.11187192716762998,
        "I": 0.11165089408690576,
        "L": 0.12134730492760941,
        "A": 0.11798773917473124,
        "C": 0.12016251217131556,
        "J": 0.08191127380305985,
        "G": 0.10057225753006649,
        "D": 0.1025561768178113,
        "K": 0.0866837727196843,
        "E": 0.126217034270909
    },
    "Average_excess_waiting_time": {
        "B": 34.83508219493501,
        "F": 38.72017840864703,
        "H": 36.923627008006974,
        "I": 35.403419724006824,
        "L": 37.49785088917167,
        "A": 35.69404870543309,
        "C": 35.88079698079986,
        "J": 35.25029345655037,
        "G": 37.71705777878282,
        "D": 36.48229037002892,
        "K": 36.87737251776042,
        "E": 39.614903294473095
    },
    "Holding_per_stop": {
        "A": 2.376237623762376,
        "B": 15.445544554455445,
        "I": 10.099009900990099,
        "H": 7.2,
        "L": 13.5,
        "F": 13.8,
        "C": 22.277227722772277,
        "J": 10.2,
        "K": 22.8,
        "D": 15.6,
        "G": 9.9,
        "E": 12.3
    },
    "Load_per_bus_per_stop": {
        "bus0": {
            "B": 71.76470588235294,
            "C": 71.47058823529412,
            "D": 71.29411764705883,
            "E": 72.23529411764706,
            "F": 72.41176470588235,
            "G": 73.11764705882354,
            "H": 74.82352941176471,
            "I": 75.3529411764706,
            "J": 73.88235294117646,
            "K": 75.41176470588235,
            "L": 74.75,
            "A": 75.625
        },
        "bus1": {
            "F": 75.11764705882354,
            "G": 75.76470588235294,
            "H": 78.17647058823529,
            "I": 78.41176470588235,
            "J": 77.05882352941177,
            "K": 79,
            "L": 79.3529411764706,
            "A": 78.88235294117646,
            "B": 79.88235294117646,
            "C": 81.9375,
            "D": 80.75,
            "E": 80.25
        },
        "bus2": {
            "H": 68.82352941176471,
            "I": 68.3529411764706,
            "J": 68.17647058823529,
            "K": 69.17647058823529,
            "L": 69.94117647058823,
            "A": 70.52941176470588,
            "B": 73.29411764705883,
            "C": 72.11764705882354,
            "D": 72.5,
            "E": 72.6875,
            "F": 74.5625,
            "G": 74.625
        },
        "bus3": {
            "I": 75.6470588235294,
            "J": 75.29411764705883,
            "K": 74.3529411764706,
            "L": 75.05882352941177,
            "A": 73.82352941176471,
            "B": 73.11764705882354,
            "C": 74.17647058823529,
            "D": 74.6470588235294,
            "E": 75.58823529411765,
            "F": 75.875,
            "G": 76.8125,
            "H": 79
        },
        "bus4": {
            "L": 69.88235294117646,
            "A": 69.88235294117646,
            "B": 71.58823529411765,
            "C": 72.23529411764706,
            "D": 69.88235294117646,
            "E": 70.6470588235294,
            "F": 71,
            "G": 70.94117647058823,
            "H": 73.0625,
            "I": 73.6875,
            "J": 73.9375,
            "K": 73.5
        },
        "bus5": {
            "A": 72.23529411764706,
            "B": 72.52941176470588,
            "C": 70.52941176470588,
            "D": 69.3529411764706,
            "E": 72,
            "F": 72.88235294117646,
            "G": 75.05882352941177,
            "H": 75.82352941176471,
            "I": 76.05882352941177,
            "J": 77.125,
            "K": 78.3125,
            "L": 77.8125
        }
    }
}