{
    "Average_holding_time": 16.52649285113541,
    "Average_travel_time_passengers": 2523.1298836642627,
    "Average_speed_busses": 0.049541666666666664,
    "Average_experienced_crowding": 73.9697621785364,
    "Average_covariation_headway": 0.11843607531542315,
    "Average_covariation_headway_stops": {
        "B": 0.09117521291943168,
        "E": 0.09559066184849024,
        "H": 0.10419410022126888,
        "I": 0.1006513871847393,
        "K": 0.0912732869869417,
        "L": 0.09402277968698676,
        "A": 0.07615192271868872,
        "C": 0.05593125351186279,
        "F": 0.07666692722932718,
        "J": 0.063677912384363,
        "D": 0.06654313041344,
        "G": 0.0779154889854277
    },
    "Average_excess_waiting_time": {
        "B": 37.62777424442368,
        "E": 39.17821006195396,
        "H": 41.164741877544486,
        "I": 39.44809967385868,
        "K": 38.84658835285438,
        "L": 37.708316743349826,
        "A": 38.36808181583416,
        "C": 37.248962987546406,
        "F": 39.656398088277,
        "J": 39.05580711878713,
        "D": 39.38542007415947,
        "G": 41.35547382150418
    },
    "Holding_per_stop": {
        "L": 19.8,
        "B": 12.3,
        "E": 12.424242424242424,
        "I": 20.303030303030305,
        "H": 13.636363636363637,
        "K": 42.72727272727273,
        "C": 20.90909090909091,
        "J": 20.90909090909091,
        "A": 3.0303030303030303,
        "F": 16.363636363636363,
        "D": 7.2727272727272725,
        "G": 8.571428571428571
    },
    "Load_per_bus_per_stop": {
        "bus0": {
            "B": 69.6470588235294,
            "C": 70.76470588235294,
            "D": 73.41176470588235,
            "E": 74.88235294117646,
            "F": 74.82352941176471,
            "G": 76.58823529411765,
            "H": 76.82352941176471,
            "I": 76.5,
            "J": 76.9375,
            "K": 77.0625,
            "L": 75.3125,
            "A": 74.6875
        },
        "bus1": {
            "E": 71.3529411764706,
            "F": 71.88235294117646,
            "G": 71,
            "H": 73.11764705882354,
            "I": 72.47058823529412,
            "J": 73.3529411764706,
            "K": 75.4375,
            "L": 76.8125,
            "A": 76.5,
            "B": 74.8125,
            "C": 73.875,
            "D": 74.5
        },
        "bus2": {
            "H": 67.82352941176471,
            "I": 70,
            "J": 71.52941176470588,
            "K": 74.70588235294117,
            "L": 77,
            "A": 77.125,
            "B": 76.25,
            "C": 75.875,
            "D": 77.375,
            "E": 76.4375,
            "F": 75,
            "G": 71.1875
        },
        "bus3": {
            "I": 73.41176470588235,
            "J": 73.94117647058823,
            "K": 74.58823529411765,
            "L": 74.70588235294117,
            "A": 77.3529411764706,
            "B": 77.52941176470588,
            "C": 77.3125,
            "D": 76.3125,
            "E": 76.3125,
            "F": 77.9375,
            "G": 77.3125,
            "H": 75.9375
        },
        "bus4": {
            "K": 68.6470588235294,
            "L": 70.23529411764706,
            "A": 69.11764705882354,
            "B": 69.41176470588235,
            "C": 71.05882352941177,
            "D": 72.76470588235294,
            "E": 72.4375,
            "F": 72.375,
            "G": 72.4375,
            "H": 72.0625,
            "I": 72.75,
            "J": 72.625
        },
        "bus5": {
            "L": 70,
            "A": 69.94117647058823,
            "B": 71.17647058823529,
            "C": 71.58823529411765,
            "D": 71.05882352941177,
            "E": 71.17647058823529,
            "F": 72.11764705882354,
            "G": 71.625,
            "H": 72.375,
            "I": 73.0625,
            "J": 72.625,
            "K": 74.3125
        }
    }
}