{
    "Average_holding_time": 18.33050847457627,
    "Average_travel_time_passengers": 2577.6721823687512,
    "Average_speed_busses": 0.049166666666666664,
    "Average_experienced_crowding": 77.8874388367355,
    "Average_covariation_headway": 0.2064201140312576,
    "Average_covariation_headway_stops": {
        "F": 0.25149471970182846,
        "H": 0.22915034472983895,
        "I": 0.22446273845802378,
        "J": 0.21714630772509566,
        "K": 0.2130130101457425,
        "L": 0.2166512146398765,
        "A": 0.19345650763492397,
        "G": 0.23097562252158588,
        "B": 0.18735741431035638,
        "C": 0.19573648921181458,
        "D": 0.21047633954282738,
        "E": 0.23695426108950907
    },
    "Average_excess_waiting_time": {
        "F": 60.04733485184204,
        "H": 56.73033124535442,
        "I": 54.40669046447846,
        "J": 51.73820149074999,
        "K": 49.78236836113547,
        "L": 48.62847621041999,
        "A": 47.487384701411656,
        "G": 58.69584019530072,
        "B": 48.317544099994166,
        "C": 50.73537949530106,
        "D": 54.401906596666436,
        "E": 59.685999096957914
    },
    "Holding_per_stop": {
        "I": 20.20408163265306,
        "J": 20.606060606060606,
        "K": 23.03030303030303,
        "L": 13.5,
        "H": 22.959183673469386,
        "F": 23.571428571428573,
        "A": 6.363636363636363,
        "B": 9.090909090909092,
        "G": 15.77319587628866,
        "C": 26.3265306122449,
        "D": 18.367346938775512,
        "E": 20.412371134020617
    },
    "Load_per_bus_per_stop": {
        "bus0": {
            "F": 79.58823529411765,
            "G": 78.47058823529412,
            "H": 79.41176470588235,
            "I": 80.3125,
            "J": 80.3125,
            "K": 80.8125,
            "L": 81.5,
            "A": 82.625,
            "B": 82.875,
            "C": 82.375,
            "D": 83.125,
            "E": 84.8125
        },
        "bus1": {
            "H": 73.3529411764706,
            "I": 73.41176470588235,
            "J": 72.52941176470588,
            "K": 72.875,
            "L": 74.3125,
            "A": 74.75,
            "B": 74.5625,
            "C": 76.6875,
            "D": 77.75,
            "E": 77.3125,
            "F": 77.3125,
            "G": 79.375
        },
        "bus2": {
            "I": 67.82352941176471,
            "J": 69.88235294117646,
            "K": 69.58823529411765,
            "L": 70,
            "A": 70.0625,
            "B": 70.125,
            "C": 69.875,
            "D": 72.5,
            "E": 73,
            "F": 71.9375,
            "G": 70.625,
            "H": 71
        },
        "bus3": {
            "J": 67.41176470588235,
            "K": 69.41176470588235,
            "L": 72.23529411764706,
            "A": 73.52941176470588,
            "B": 71.58823529411765,
            "C": 70.0625,
            "D": 69,
            "E": 69.3125,
            "F": 70.8125,
            "G": 71.8125,
            "H": 70.5625,
            "I": 71.3125
        },
        "bus4": {
            "K": 68.52941176470588,
            "L": 69.3529411764706,
            "A": 70.76470588235294,
            "B": 70.11764705882354,
            "C": 71.52941176470588,
            "D": 71.3529411764706,
            "E": 70.6875,
            "F": 71.6875,
            "G": 69.25,
            "H": 69.5625,
            "I": 69.375,
            "J": 70.75
        },
        "bus5": {
            "L": 81.17647058823529,
            "A": 82.23529411764706,
            "B": 80.41176470588235,
            "C": 80.58823529411765,
            "D": 81.23529411764706,
            "E": 82.3529411764706,
            "F": 83.6470588235294,
            "G": 84.3125,
            "H": 87.125,
            "I": 87.75,
            "J": 86.125,
            "K": 87.6875
        }
    }
}0.25,
            "H": 80.5625,
            "I": 78.6875
        }
    }
}