{
    "Average_holding_time": 10.328677074774035,
    "Average_travel_time_passengers": 2520.8938094126065,
    "Average_speed_busses": 0.050708333333333334,
    "Average_experienced_crowding": 76.98668630163857,
    "Average_covariation_headway": 0.3175306073772942,
    "Average_covariation_headway_stops": {
        "C": 0.23473168837118472,
        "D": 0.229399203763087,
        "E": 0.22404921280104054,
        "F": 0.22787557651836007,
        "I": 0.21519832975115885,
        "J": 0.2055551920274244,
        "G": 0.2193595185255899,
        "K": 0.202326534098005,
        "H": 0.20473607649523187,
        "L": 0.19613924613807296,
        "A": 0.20136197038694925,
        "B": 0.2270375548202537
    },
    "Average_excess_waiting_time": {
        "C": 48.91648546641102,
        "D": 46.15803992219361,
        "E": 44.0073777483496,
        "F": 42.52037332220834,
        "I": 42.636804374398594,
        "J": 40.483371685413545,
        "G": 42.83826588615375,
        "K": 41.647752268381055,
        "H": 42.91411622819203,
        "L": 42.42761142226556,
        "A": 44.48647022730643,
        "B": 49.518521133451145
    },
    "Holding_per_stop": {
        "F": 5.588235294117647,
        "J": 7.9411764705882355,
        "E": 8.235294117647058,
        "D": 10.396039603960396,
        "I": 12.352941176470589,
        "C": 14.851485148514852,
        "G": 15.588235294117647,
        "K": 12.352941176470589,
        "L": 13.069306930693068,
        "H": 6.8316831683168315,
        "A": 2.9702970297029703,
        "B": 13.8
    },
    "Load_per_bus_per_stop": {
        "bus0": {
            "C": 68.52941176470588,
            "D": 69.47058823529412,
            "E": 70.52941176470588,
            "F": 71.05882352941177,
            "G": 73.76470588235294,
            "H": 74.41176470588235,
            "I": 74.94117647058823,
            "J": 74.88235294117646,
            "K": 73.47058823529412,
            "L": 73.9375,
            "A": 73.4375,
            "B": 72.5625
        },
        "bus1": {
            "D": 70,
            "E": 70.41176470588235,
            "F": 70.70588235294117,
            "G": 72.23529411764706,
            "H": 72.88235294117646,
            "I": 72.70588235294117,
            "J": 73.3529411764706,
            "K": 73.23529411764706,
            "L": 73.29411764705883,
            "A": 73.6470588235294,
            "B": 73.5625,
            "C": 73.875
        },
        "bus2": {
            "E": 70.41176470588235,
            "F": 71.3529411764706,
            "G": 72.29411764705883,
            "H": 72.11764705882354,
            "I": 72.47058823529412,
            "J": 73.47058823529412,
            "K": 72.29411764705883,
            "L": 74,
            "A": 73.82352941176471,
            "B": 73.58823529411765,
            "C": 73.70588235294117,
            "D": 73.4375
        },
        "bus3": {
            "F": 71,
            "G": 71.17647058823529,
            "H": 70.82352941176471,
            "I": 72.05882352941177,
            "J": 71.94117647058823,
            "K": 74.23529411764706,
            "L": 75.82352941176471,
            "A": 74.82352941176471,
            "B": 76,
            "C": 76.82352941176471,
            "D": 75.88235294117646,
            "E": 76.17647058823529
        },
        "bus4": {
            "I": 62.35294117647059,
            "J": 60.8235294117647,
            "K": 61.11764705882353,
            "L": 62.23529411764706,
            "A": 63.05882352941177,
            "B": 63.705882352941174,
            "C": 63.94117647058823,
            "D": 64.6470588235294,
            "E": 65.47058823529412,
            "F": 64.70588235294117,
            "G": 65,
            "H": 65.375
        },
        "bus5": {
            "J": 87.52941176470588,
            "K": 88.88235294117646,
            "L": 88.94117647058823,
            "A": 88.82352941176471,
            "B": 88.82352941176471,
            "C": 89.23529411764706,
            "D": 92.11764705882354,
            "E": 92.94117647058823,
            "F": 94.23529411764706,
            "G": 94.41176470588235,
            "H": 93.11764705882354,
            "I": 92.88235294117646
        }
    }
}
            "H": 85.6470588235294
        }
    }
}