{
    "Average_holding_time": 11.29644921552436,
    "Average_travel_time_passengers": 2538.7007123785243,
    "Average_speed_busses": 0.050458333333333334,
    "Average_experienced_crowding": 74.31376265680453,
    "Average_covariation_headway": 0.11083440871959878,
    "Average_covariation_headway_stops": {
        "E": 0.12040595195562555,
        "F": 0.10880721080071448,
        "H": 0.09058022636201757,
        "K": 0.09289714349725414,
        "L": 0.08891720017843076,
        "A": 0.0929475600137909,
        "G": 0.0763848092601584,
        "B": 0.07122232874045746,
        "I": 0.06536440616402125,
        "J": 0.07208246204215785,
        "C": 0.07608255004838797,
        "D": 0.1020292922108098
    },
    "Average_excess_waiting_time": {
        "E": 35.88287637625052,
        "F": 33.54123745070069,
        "H": 32.52861896873412,
        "K": 33.91560302433601,
        "L": 32.38180994626856,
        "A": 31.08172558789181,
        "G": 33.44658455769621,
        "B": 31.42290216439102,
        "I": 32.904639592991145,
        "J": 34.46307338821356,
        "C": 33.2488717526233,
        "D": 35.99672189859325
    },
    "Holding_per_stop": {
        "F": 17.524752475247524,
        "A": 2.3529411764705883,
        "H": 6.8316831683168315,
        "L": 15.148514851485148,
        "K": 22.871287128712872,
        "E": 15.445544554455445,
        "I": 10.990099009900991,
        "G": 7.128712871287129,
        "B": 5.643564356435643,
        "C": 16.336633663366335,
        "J": 8.1,
        "D": 7.2
    },
    "Load_per_bus_per_stop": {
        "bus0": {
            "E": 73.05882352941177,
            "F": 75.29411764705883,
            "G": 75.70588235294117,
            "H": 74.41176470588235,
            "I": 75.52941176470588,
            "J": 75.94117647058823,
            "K": 77.29411764705883,
            "L": 76.88235294117646,
            "A": 77.05882352941177,
            "B": 75.82352941176471,
            "C": 76.4375,
            "D": 76.8125
        },
        "bus1": {
            "F": 72.3529411764706,
            "G": 74,
            "H": 73.3529411764706,
            "I": 74.70588235294117,
            "J": 76.3529411764706,
            "K": 77,
            "L": 78.47058823529412,
            "A": 78.23529411764706,
            "B": 77.70588235294117,
            "C": 79.11764705882354,
            "D": 78.23529411764706,
            "E": 76.625
        },
        "bus2": {
            "H": 70.52941176470588,
            "I": 71.11764705882354,
            "J": 72.23529411764706,
            "K": 72.11764705882354,
            "L": 72.41176470588235,
            "A": 73.47058823529412,
            "B": 75.47058823529412,
            "C": 75.76470588235294,
            "D": 74.94117647058823,
            "E": 75.76470588235294,
            "F": 75.17647058823529,
            "G": 77.25
        },
        "bus3": {
            "K": 70.6470588235294,
            "L": 69.41176470588235,
            "A": 70.47058823529412,
            "B": 70.6470588235294,
            "C": 70.94117647058823,
            "D": 70.23529411764706,
            "E": 70.88235294117646,
            "F": 70.6470588235294,
            "G": 70.52941176470588,
            "H": 72.875,
            "I": 70.5,
            "J": 73.625
        },
        "bus4": {
            "L": 70.29411764705883,
            "A": 70.47058823529412,
            "B": 71.94117647058823,
            "C": 72.41176470588235,
            "D": 71.52941176470588,
            "E": 70.70588235294117,
            "F": 68.58823529411765,
            "G": 71.70588235294117,
            "H": 72.05882352941177,
            "I": 73.41176470588235,
            "J": 73.9375,
            "K": 73.875
        },
        "bus5": {
            "A": 71.3529411764706,
            "B": 71.3529411764706,
            "C": 72.70588235294117,
            "D": 72.6470588235294,
            "E": 72.58823529411765,
            "F": 73.76470588235294,
            "G": 74.82352941176471,
            "H": 74.11764705882354,
            "I": 74.94117647058823,
            "J": 76.6470588235294,
            "K": 76.17647058823529,
            "L": 75.1875
        }
    }
}