{
    "Average_holding_time": 16.551724137931036,
    "Average_travel_time_passengers": 2579.1163750759733,
    "Average_speed_busses": 0.049541666666666664,
    "Average_experienced_crowding": 76.4020410890802,
    "Average_covariation_headway": 0.12440163128047095,
    "Average_covariation_headway_stops": {
        "D": 0.0906827738935441,
        "G": 0.10473139474696842,
        "H": 0.10639210910349513,
        "I": 0.1101351773889684,
        "L": 0.10055697603603034,
        "A": 0.10130997953787348,
        "E": 0.07925401681755402,
        "B": 0.06713659913703784,
        "J": 0.07877156158413114,
        "C": 0.0644038017565285,
        "F": 0.08217966913320773,
        "K": 0.087109330785531
    },
    "Average_excess_waiting_time": {
        "D": 39.24742639745779,
        "G": 41.616931123182326,
        "H": 40.12334755170451,
        "I": 38.77851674542677,
        "L": 39.534268943679876,
        "A": 38.331846098852054,
        "E": 40.08186895585544,
        "B": 38.14595630157004,
        "J": 38.26528165845906,
        "C": 39.43857533447647,
        "F": 41.950929470994936,
        "K": 40.38632445418449
    },
    "Holding_per_stop": {
        "H": 12.424242424242424,
        "D": 7.575757575757576,
        "A": 7.5,
        "I": 21.9,
        "G": 11.818181818181818,
        "L": 22.727272727272727,
        "B": 10,
        "E": 9.090909090909092,
        "J": 23.636363636363637,
        "C": 16.96969696969697,
        "K": 36.666666666666664,
        "F": 18.367346938775512
    },
    "Load_per_bus_per_stop": {
        "bus0": {
            "D": 74.82352941176471,
            "E": 73.94117647058823,
            "F": 74.82352941176471,
            "G": 76.70588235294117,
            "H": 76,
            "I": 77.6470588235294,
            "J": 78.1875,
            "K": 80.4375,
            "L": 79.6875,
            "A": 80.0625,
            "B": 80.125,
            "C": 79.6875
        },
        "bus1": {
            "G": 75.23529411764706,
            "H": 75.3529411764706,
            "I": 75.88235294117646,
            "J": 75.29411764705883,
            "K": 75.58823529411765,
            "L": 77.4375,
            "A": 76.5,
            "B": 77.3125,
            "C": 79,
            "D": 79.9375,
            "E": 80.0625,
            "F": 78.4375
        },
        "bus2": {
            "H": 70.47058823529412,
            "I": 70.94117647058823,
            "J": 69.52941176470588,
            "K": 69.52941176470588,
            "L": 70.70588235294117,
            "A": 68.47058823529412,
            "B": 68.9375,
            "C": 69.625,
            "D": 70,
            "E": 69.6875,
            "F": 71.625,
            "G": 72.8125
        },
        "bus3": {
            "I": 74.05882352941177,
            "J": 74.70588235294117,
            "K": 74.11764705882354,
            "L": 75.47058823529412,
            "A": 76.05882352941177,
            "B": 78,
            "C": 77.82352941176471,
            "D": 78.125,
            "E": 78.3125,
            "F": 76,
            "G": 78.25,
            "H": 77.9375
        },
        "bus4": {
            "L": 72.05882352941177,
            "A": 73.94117647058823,
            "B": 74.6470588235294,
            "C": 73.88235294117646,
            "D": 75.11764705882354,
            "E": 76.41176470588235,
            "F": 75.375,
            "G": 75.5,
            "H": 76.125,
            "I": 75.0625,
            "J": 74.875,
            "K": 74.25
        },
        "bus5": {
            "A": 76.47058823529412,
            "B": 76.17647058823529,
            "C": 76.47058823529412,
            "D": 76.94117647058823,
            "E": 80.11764705882354,
            "F": 82.41176470588235,
            "G": 82.05882352941177,
            "H": 81.625,
            "I": 80.8125,
            "J": 81.5625,
            "K": 81.125,
            "L": 79.875
        }
    }
}