{
    "Average_holding_time": 16.944444444444443,
    "Average_travel_time_passengers": 2574.9073503595405,
    "Average_speed_busses": 0.0495,
    "Average_experienced_crowding": 76.59595670984808,
    "Average_covariation_headway": 0.188728576456065,
    "Average_covariation_headway_stops": {
        "F": 0.20485891499385012,
        "H": 0.1753602217175227,
        "J": 0.16424570396301874,
        "K": 0.17015464705095326,
        "L": 0.17384685993071047,
        "A": 0.17368162493700498,
        "B": 0.16093274670506774,
        "I": 0.15902064490207055,
        "G": 0.18314621828168315,
        "C": 0.1574741427146218,
        "D": 0.16133474138821383,
        "E": 0.18592154341137787
    },
    "Average_excess_waiting_time": {
        "F": 50.778886399647206,
        "H": 47.350383603729085,
        "J": 46.38729121383807,
        "K": 45.68502530581901,
        "L": 44.3849811339806,
        "A": 42.895253056324066,
        "B": 43.0366670151908,
        "I": 47.59979219147726,
        "G": 49.89923798901765,
        "C": 43.97598394248712,
        "D": 46.26943345757803,
        "E": 50.24947961504847
    },
    "Holding_per_stop": {
        "A": 7.2,
        "K": 25.151515151515152,
        "L": 20.7,
        "H": 13.636363636363637,
        "J": 23.939393939393938,
        "F": 21.515151515151516,
        "B": 9.9,
        "I": 20.510204081632654,
        "C": 26.060606060606062,
        "G": 15.612244897959183,
        "D": 12.121212121212121,
        "E": 7.040816326530612
    },
    "Load_per_bus_per_stop": {
        "bus0": {
            "F": 80.6470588235294,
            "G": 82.23529411764706,
            "H": 81.29411764705883,
            "I": 80.58823529411765,
            "J": 80.05882352941177,
            "K": 80.9375,
            "L": 81.9375,
            "A": 82.4375,
            "B": 83.0625,
            "C": 84.625,
            "D": 85.3125,
            "E": 84.1875
        },
        "bus1": {
            "H": 70.05882352941177,
            "I": 70.23529411764706,
            "J": 73.05882352941177,
            "K": 73.52941176470588,
            "L": 75.58823529411765,
            "A": 75.25,
            "B": 75.6875,
            "C": 74.8125,
            "D": 77.375,
            "E": 77.4375,
            "F": 75,
            "G": 75.0625
        },
        "bus2": {
            "J": 71.76470588235294,
            "K": 72.88235294117646,
            "L": 72.3529411764706,
            "A": 73.47058823529412,
            "B": 73.41176470588235,
            "C": 74.1875,
            "D": 74.8125,
            "E": 75.9375,
            "F": 77.9375,
            "G": 76.5,
            "H": 77.8125,
            "I": 76.375
        },
        "bus3": {
            "K": 74,
            "L": 74,
            "A": 74.3529411764706,
            "B": 74.17647058823529,
            "C": 71.76470588235294,
            "D": 72.94117647058823,
            "E": 73.625,
            "F": 74.375,
            "G": 76.375,
            "H": 76.75,
            "I": 78.125,
            "J": 79.5625
        },
        "bus4": {
            "L": 69.47058823529412,
            "A": 70.17647058823529,
            "B": 68.52941176470588,
            "C": 69.70588235294117,
            "D": 69.76470588235294,
            "E": 68.52941176470588,
            "F": 67.76470588235294,
            "G": 68.3125,
            "H": 67.5625,
            "I": 69.1875,
            "J": 70.8125,
            "K": 73.25
        },
        "bus5": {
            "A": 76.76470588235294,
            "B": 76.58823529411765,
            "C": 76.05882352941177,
            "D": 74.6470588235294,
            "E": 73.23529411764706,
            "F": 74.6470588235294,
            "G": 75.6470588235294,
            "H": 76.47058823529412,
            "I": 76.625,
            "J": 77.4375,
            "K": 78.5,
            "L": 80.375
        }
    }
}