{
    "Average_holding_time": 13.438800999167361,
    "Average_travel_time_passengers": 2546.9898101590557,
    "Average_speed_busses": 0.050041666666666665,
    "Average_experienced_crowding": 75.87739049207785,
    "Average_covariation_headway": 0.14313420421473108,
    "Average_covariation_headway_stops": {
        "B": 0.11877657328107306,
        "D": 0.10705371264814581,
        "F": 0.099644481968054,
        "H": 0.08776048030502286,
        "J": 0.09276899511356757,
        "K": 0.10980695476717937,
        "E": 0.0877072347903459,
        "G": 0.06623275143585326,
        "L": 0.09140009781897314,
        "I": 0.07075417329244714,
        "C": 0.10015821690126399,
        "A": 0.09652029601765258
    },
    "Average_excess_waiting_time": {
        "B": 37.80801181289473,
        "D": 36.871102048826856,
        "F": 36.46547166717056,
        "H": 35.75902637806399,
        "J": 36.16148601212802,
        "K": 35.6094612014972,
        "E": 37.25762191726619,
        "G": 36.279093848231696,
        "L": 36.12248825772957,
        "I": 36.45740739553537,
        "C": 38.06110255444992,
        "A": 37.874463340891964
    },
    "Holding_per_stop": {
        "D": 12.3,
        "F": 12.6,
        "K": 18.712871287128714,
        "H": 11.4,
        "J": 17.1,
        "B": 10.5,
        "L": 17.1,
        "G": 6.6,
        "E": 9.3,
        "I": 16.2,
        "C": 23.4,
        "A": 6
    },
    "Load_per_bus_per_stop": {
        "bus0": {
            "B": 72.6470588235294,
            "C": 72.58823529411765,
            "D": 72.70588235294117,
            "E": 73.47058823529412,
            "F": 74.17647058823529,
            "G": 74.6470588235294,
            "H": 76.23529411764706,
            "I": 77.29411764705883,
            "J": 77.4375,
            "K": 78.9375,
            "L": 78.75,
            "A": 77.9375
        },
        "bus1": {
            "D": 74.17647058823529,
            "E": 72.82352941176471,
            "F": 73,
            "G": 73.58823529411765,
            "H": 73.82352941176471,
            "I": 73.70588235294117,
            "J": 75,
            "K": 75.23529411764706,
            "L": 75.4375,
            "A": 76.125,
            "B": 76.1875,
            "C": 78.125
        },
        "bus2": {
            "F": 72.3529411764706,
            "G": 72.82352941176471,
            "H": 73.82352941176471,
            "I": 72.6470588235294,
            "J": 74.76470588235294,
            "K": 76.52941176470588,
            "L": 76.6470588235294,
            "A": 78.23529411764706,
            "B": 77.0625,
            "C": 76.6875,
            "D": 76.9375,
            "E": 76.75
        },
        "bus3": {
            "H": 75.05882352941177,
            "I": 75.94117647058823,
            "J": 76,
            "K": 76.05882352941177,
            "L": 77.3529411764706,
            "A": 76.82352941176471,
            "B": 75.82352941176471,
            "C": 75.82352941176471,
            "D": 75.25,
            "E": 76.1875,
            "F": 76.625,
            "G": 77.6875
        },
        "bus4": {
            "J": 73.88235294117646,
            "K": 72.70588235294117,
            "L": 75.47058823529412,
            "A": 75.58823529411765,
            "B": 76.52941176470588,
            "C": 76.52941176470588,
            "D": 76.41176470588235,
            "E": 75.88235294117646,
            "F": 74.3125,
            "G": 75.625,
            "H": 76.1875,
            "I": 76.6875
        },
        "bus5": {
            "K": 71.47058823529412,
            "L": 70.6470588235294,
            "A": 73.23529411764706,
            "B": 73.94117647058823,
            "C": 74.76470588235294,
            "D": 75.88235294117646,
            "E": 77.17647058823529,
            "F": 77.82352941176471,
            "G": 78.88235294117646,
            "H": 77.5,
            "I": 77.75,
            "J": 78.4375
        }
    }
}