{
    "Average_holding_time": 8.71125611745514,
    "Average_travel_time_passengers": 2475.4653007234456,
    "Average_speed_busses": 0.051083333333333335,
    "Average_experienced_crowding": 72.43691450414249,
    "Average_covariation_headway": 0.14701982971196959,
    "Average_covariation_headway_stops": {
        "C": 0.10496928745864353,
        "D": 0.09713218911752843,
        "F": 0.08497335349678213,
        "I": 0.1019148769677857,
        "K": 0.1149804559875682,
        "A": 0.1068233904385162,
        "E": 0.07259334572100654,
        "L": 0.09913239976243202,
        "G": 0.06827662352022296,
        "B": 0.08534772427227236,
        "J": 0.07861226292402061,
        "H": 0.0805043956371215
    },
    "Average_excess_waiting_time": {
        "C": 31.17641471804751,
        "D": 29.29774001480189,
        "F": 28.841445361854255,
        "I": 31.14227446618571,
        "K": 31.89255043569051,
        "A": 31.24534046451555,
        "E": 29.740873694146273,
        "L": 32.26735608949406,
        "G": 29.3925510201193,
        "B": 31.42480482069908,
        "J": 31.390103426374083,
        "H": 31.33949753505169
    },
    "Holding_per_stop": {
        "D": 7.572815533980583,
        "K": 19.705882352941178,
        "F": 5.242718446601942,
        "A": 2.9411764705882355,
        "I": 7.352941176470588,
        "C": 12.058823529411764,
        "E": 5.294117647058823,
        "G": 7.0588235294117645,
        "L": 12.352941176470589,
        "J": 11.470588235294118,
        "B": 4.117647058823529,
        "H": 9.411764705882353
    },
    "Load_per_bus_per_stop": {
        "bus0": {
            "C": 66,
            "D": 66.6470588235294,
            "E": 68.47058823529412,
            "F": 67.82352941176471,
            "G": 68.41176470588235,
            "H": 70.6470588235294,
            "I": 71.17647058823529,
            "J": 71.88235294117646,
            "K": 70.70588235294117,
            "L": 70.23529411764706,
            "A": 68.6470588235294,
            "B": 67.58823529411765
        },
        "bus1": {
            "D": 67.72222222222223,
            "E": 67.23529411764706,
            "F": 67.76470588235294,
            "G": 67.88235294117646,
            "H": 67.47058823529412,
            "I": 67.05882352941177,
            "J": 67.6470588235294,
            "K": 68.41176470588235,
            "L": 68,
            "A": 68.52941176470588,
            "B": 69.3529411764706,
            "C": 70.52941176470588
        },
        "bus2": {
            "F": 67.22222222222223,
            "G": 68.05882352941177,
            "H": 68.47058823529412,
            "I": 68.47058823529412,
            "J": 68.17647058823529,
            "K": 67.70588235294117,
            "L": 69.88235294117646,
            "A": 71,
            "B": 71.17647058823529,
            "C": 71.41176470588235,
            "D": 71.29411764705883,
            "E": 71.41176470588235
        },
        "bus3": {
            "I": 74.47058823529412,
            "J": 74.82352941176471,
            "K": 74.3529411764706,
            "L": 75.11764705882354,
            "A": 76.23529411764706,
            "B": 75.47058823529412,
            "C": 75.58823529411765,
            "D": 76.82352941176471,
            "E": 76.29411764705883,
            "F": 78.70588235294117,
            "G": 78.41176470588235,
            "H": 77.94117647058823
        },
        "bus4": {
            "K": 75.6470588235294,
            "L": 77.05882352941177,
            "A": 76.47058823529412,
            "B": 78.11764705882354,
            "C": 77.76470588235294,
            "D": 77.3529411764706,
            "E": 77.70588235294117,
            "F": 78.58823529411765,
            "G": 78.88235294117646,
            "H": 77.47058823529412,
            "I": 76.47058823529412,
            "J": 78.82352941176471
        },
        "bus5": {
            "A": 68,
            "B": 70.11764705882354,
            "C": 71.11764705882354,
            "D": 72.52941176470588,
            "E": 70.82352941176471,
            "F": 70.94117647058823,
            "G": 70.58823529411765,
            "H": 71.05882352941177,
            "I": 72.17647058823529,
            "J": 71.6470588235294,
            "K": 71.82352941176471,
            "L": 71.47058823529412
        }
    }
}