{
    "Average_holding_time": 17.236731255265376,
    "Average_travel_time_passengers": 2567.547790013502,
    "Average_speed_busses": 0.04945833333333333,
    "Average_experienced_crowding": 75.76840780702048,
    "Average_covariation_headway": 0.12402949325180218,
    "Average_covariation_headway_stops": {
        "C": 0.09902417073001496,
        "F": 0.11103774207040479,
        "H": 0.09848345274928243,
        "I": 0.10044522623655867,
        "K": 0.08834264859751129,
        "L": 0.09316212147288469,
        "A": 0.07309072529073557,
        "D": 0.0751055735003123,
        "J": 0.06442592380849398,
        "G": 0.07734070140306319,
        "B": 0.07729227873708389,
        "E": 0.08494157230216132
    },
    "Average_excess_waiting_time": {
        "C": 39.87161704318282,
        "F": 41.98328845415233,
        "H": 41.33890445667049,
        "I": 39.76222992905991,
        "K": 39.17357136046343,
        "L": 38.15482239846267,
        "A": 38.48597163097145,
        "D": 40.06297440185847,
        "J": 39.69806201025506,
        "G": 41.82135777590895,
        "B": 40.12208438434919,
        "E": 42.125754785618085
    },
    "Holding_per_stop": {
        "L": 22.5,
        "C": 27.575757575757574,
        "I": 23.03030303030303,
        "H": 11.818181818181818,
        "F": 17.575757575757574,
        "K": 40.90909090909091,
        "A": 3.0303030303030303,
        "J": 20.303030303030305,
        "D": 8.484848484848484,
        "G": 12.551020408163266,
        "B": 9.090909090909092,
        "E": 9.795918367346939
    },
    "Load_per_bus_per_stop": {
        "bus0": {
            "C": 73.70588235294117,
            "D": 76.23529411764706,
            "E": 78.05882352941177,
            "F": 79.23529411764706,
            "G": 80.05882352941177,
            "H": 80.29411764705883,
            "I": 79,
            "J": 79.625,
            "K": 78.9375,
            "L": 78.125,
            "A": 77.1875,
            "B": 77.5625
        },
        "bus1": {
            "F": 72.17647058823529,
            "G": 73,
            "H": 72.82352941176471,
            "I": 71.23529411764706,
            "J": 72.29411764705883,
            "K": 74,
            "L": 76.3125,
            "A": 76.375,
            "B": 77.4375,
            "C": 77.5,
            "D": 77.0625,
            "E": 77.1875
        },
        "bus2": {
            "H": 73.17647058823529,
            "I": 73.29411764705883,
            "J": 74.76470588235294,
            "K": 76,
            "L": 75.88235294117646,
            "A": 76.375,
            "B": 78.125,
            "C": 79.25,
            "D": 78.0625,
            "E": 78.9375,
            "F": 78.6875,
            "G": 77.75
        },
        "bus3": {
            "I": 71.47058823529412,
            "J": 72.58823529411765,
            "K": 73.41176470588235,
            "L": 73.94117647058823,
            "A": 72.23529411764706,
            "B": 71.05882352941177,
            "C": 71.125,
            "D": 71.6875,
            "E": 72.625,
            "F": 73.0625,
            "G": 73.0625,
            "H": 73.3125
        },
        "bus4": {
            "K": 78.3529411764706,
            "L": 77.11764705882354,
            "A": 77.3529411764706,
            "B": 76,
            "C": 76.6470588235294,
            "D": 76.58823529411765,
            "E": 76.5625,
            "F": 76.0625,
            "G": 76.75,
            "H": 76.5,
            "I": 79.8125,
            "J": 81.25
        },
        "bus5": {
            "L": 72,
            "A": 72.88235294117646,
            "B": 72.82352941176471,
            "C": 72.94117647058823,
            "D": 73.41176470588235,
            "E": 74.11764705882354,
            "F": 75.17647058823529,
            "G": 72.6875,
            "H": 74.6875,
            "I": 75.5,
            "J": 76.125,
            "K": 75.125
        }
    }
}