{
    "Average_holding_time": 17.280405405405407,
    "Average_travel_time_passengers": 2551.200440973651,
    "Average_speed_busses": 0.04933333333333333,
    "Average_experienced_crowding": 74.4725036970698,
    "Average_covariation_headway": 0.1695411293714329,
    "Average_covariation_headway_stops": {
        "B": 0.16223569820154365,
        "C": 0.15345020923755714,
        "E": 0.12335616287102379,
        "F": 0.11474194426705461,
        "H": 0.11108947261398189,
        "J": 0.10495337292419926,
        "K": 0.09261654850944451,
        "G": 0.09672409146103368,
        "D": 0.10969468799647986,
        "I": 0.08536792717209231,
        "L": 0.11557452645637772,
        "A": 0.1448815044679035
    },
    "Average_excess_waiting_time": {
        "B": 46.64692273211324,
        "C": 44.96292066836429,
        "E": 42.129623306595136,
        "F": 39.639587280327646,
        "H": 39.610335561985096,
        "J": 38.93361349184471,
        "K": 39.70951274744692,
        "G": 40.35934842762725,
        "D": 42.5582182556484,
        "I": 39.47241093898862,
        "L": 42.592869125519144,
        "A": 46.7391050698767
    },
    "Holding_per_stop": {
        "J": 21.818181818181817,
        "F": 17.272727272727273,
        "C": 26.96969696969697,
        "H": 13.93939393939394,
        "E": 19.393939393939394,
        "B": 8.571428571428571,
        "K": 27.575757575757574,
        "G": 14.242424242424242,
        "I": 16.666666666666668,
        "D": 14.387755102040817,
        "L": 22.040816326530614,
        "A": 4.285714285714286
    },
    "Load_per_bus_per_stop": {
        "bus0": {
            "B": 72.82352941176471,
            "C": 74.52941176470588,
            "D": 76.94117647058823,
            "E": 77.23529411764706,
            "F": 76.5625,
            "G": 75.9375,
            "H": 75.6875,
            "I": 73.9375,
            "J": 75,
            "K": 75.5625,
            "L": 76.25,
            "A": 79.125
        },
        "bus1": {
            "C": 77.05882352941177,
            "D": 77.6470588235294,
            "E": 76.6470588235294,
            "F": 76.3529411764706,
            "G": 76.76470588235294,
            "H": 78,
            "I": 77.625,
            "J": 79.1875,
            "K": 77.4375,
            "L": 78.1875,
            "A": 79.6875,
            "B": 81.3125
        },
        "bus2": {
            "E": 68.6470588235294,
            "F": 68.41176470588235,
            "G": 68.52941176470588,
            "H": 70.41176470588235,
            "I": 72.52941176470588,
            "J": 73.6470588235294,
            "K": 72.0625,
            "L": 72.3125,
            "A": 72.875,
            "B": 73.5,
            "C": 73.8125,
            "D": 73.1875
        },
        "bus3": {
            "F": 70.05882352941177,
            "G": 70.70588235294117,
            "H": 72.11764705882354,
            "I": 72.29411764705883,
            "J": 70.76470588235294,
            "K": 72.76470588235294,
            "L": 72.23529411764706,
            "A": 75,
            "B": 75.8125,
            "C": 74.875,
            "D": 74.3125,
            "E": 74.6875
        },
        "bus4": {
            "H": 71.41176470588235,
            "I": 71.76470588235294,
            "J": 72.94117647058823,
            "K": 73.3529411764706,
            "L": 73.11764705882354,
            "A": 72.76470588235294,
            "B": 71.47058823529412,
            "C": 71,
            "D": 71.875,
            "E": 71.4375,
            "F": 73,
            "G": 74.6875
        },
        "bus5": {
            "J": 70.17647058823529,
            "K": 72,
            "L": 72.47058823529412,
            "A": 73.6470588235294,
            "B": 73.82352941176471,
            "C": 72.58823529411765,
            "D": 73.0625,
            "E": 73.75,
            "F": 74.4375,
            "G": 73.6875,
            "H": 74.625,
            "I": 73.875
        }
    }
}