{
    "Average_holding_time": 12.817955112219451,
    "Average_travel_time_passengers": 2521.2026590951937,
    "Average_speed_busses": 0.050125,
    "Average_experienced_crowding": 76.35343739135628,
    "Average_covariation_headway": 0.16554454411973152,
    "Average_covariation_headway_stops": {
        "C": 0.1337888578932454,
        "E": 0.1334845315987771,
        "G": 0.12300481675081655,
        "H": 0.12456674701219154,
        "I": 0.12971369454143292,
        "A": 0.14654512925658283,
        "F": 0.12707387830555486,
        "D": 0.11362580936994046,
        "J": 0.09940644591230015,
        "B": 0.1195773683050324,
        "K": 0.09706855169281518,
        "L": 0.13116548263342095
    },
    "Average_excess_waiting_time": {
        "C": 39.08309415780866,
        "E": 39.18122901378871,
        "G": 38.33764508064269,
        "H": 36.874910687477495,
        "I": 35.85974221994309,
        "A": 40.24979195288654,
        "F": 40.15156194687455,
        "D": 39.10102546995978,
        "J": 35.2565111470318,
        "B": 39.59339532935968,
        "K": 36.735073798914186,
        "L": 40.55626045434036
    },
    "Holding_per_stop": {
        "H": 20.198019801980198,
        "E": 13.8,
        "C": 13.2,
        "I": 14.554455445544555,
        "G": 13.2,
        "A": 5.1,
        "J": 11.881188118811881,
        "D": 8.1,
        "F": 14.1,
        "B": 9.3,
        "K": 19.8,
        "L": 10.5
    },
    "Load_per_bus_per_stop": {
        "bus0": {
            "C": 75.05882352941177,
            "D": 73.76470588235294,
            "E": 74.23529411764706,
            "F": 73.58823529411765,
            "G": 74.52941176470588,
            "H": 77,
            "I": 78.94117647058823,
            "J": 80,
            "K": 80.625,
            "L": 78.625,
            "A": 78.25,
            "B": 79.8125
        },
        "bus1": {
            "E": 75.70588235294117,
            "F": 76.11764705882354,
            "G": 75.6470588235294,
            "H": 75.88235294117646,
            "I": 76.47058823529412,
            "J": 77,
            "K": 78.11764705882354,
            "L": 77.82352941176471,
            "A": 78.5,
            "B": 79.25,
            "C": 80.25,
            "D": 80.0625
        },
        "bus2": {
            "G": 71.05882352941177,
            "H": 72.23529411764706,
            "I": 73,
            "J": 73,
            "K": 71,
            "L": 71.82352941176471,
            "A": 73.58823529411765,
            "B": 72.82352941176471,
            "C": 72.4375,
            "D": 72.3125,
            "E": 73.75,
            "F": 73.5
        },
        "bus3": {
            "H": 73.05882352941177,
            "I": 71.82352941176471,
            "J": 73.17647058823529,
            "K": 72.52941176470588,
            "L": 74,
            "A": 72.70588235294117,
            "B": 72.05882352941177,
            "C": 73.29411764705883,
            "D": 73.41176470588235,
            "E": 75.375,
            "F": 75.5,
            "G": 76.875
        },
        "bus4": {
            "I": 73.11764705882354,
            "J": 75.11764705882354,
            "K": 74.76470588235294,
            "L": 76.88235294117646,
            "A": 78.52941176470588,
            "B": 80,
            "C": 81,
            "D": 80.23529411764706,
            "E": 78,
            "F": 79,
            "G": 78.1875,
            "H": 77.9375
        },
        "bus5": {
            "A": 71.29411764705883,
            "B": 72.88235294117646,
            "C": 74.6470588235294,
            "D": 77.17647058823529,
            "E": 76.6470588235294,
            "F": 78.47058823529412,
            "G": 78.47058823529412,
            "H": 76.52941176470588,
            "I": 75.6875,
            "J": 77.0625,
            "K": 77.0625,
            "L": 75.4375
        }
    }
}