{
    "Average_holding_time": 24.978317432784042,
    "Average_travel_time_passengers": 2635.7163424621485,
    "Average_speed_busses": 0.04804166666666667,
    "Average_experienced_crowding": 76.9755415337333,
    "Average_covariation_headway": 0.09826015114453382,
    "Average_covariation_headway_stops": {
        "C": 0.08007607712457829,
        "E": 0.0734484362201207,
        "F": 0.08083815788857156,
        "I": 0.08515651691360165,
        "K": 0.0781630202656806,
        "A": 0.08280772357811625,
        "G": 0.054821040459324615,
        "B": 0.05607765394743095,
        "L": 0.050209327257423664,
        "D": 0.04979146239291596,
        "J": 0.045744029923690574,
        "H": 0.06613657199386544
    },
    "Average_excess_waiting_time": {
        "C": 47.208378549216434,
        "E": 47.00694117401309,
        "F": 45.723345842157755,
        "I": 47.69084972785464,
        "K": 47.299128086344126,
        "A": 47.67489936892639,
        "G": 46.33291769452819,
        "B": 47.99519711600453,
        "L": 47.81365565351348,
        "D": 47.63371761094959,
        "J": 47.73918076073198,
        "H": 48.33697474030481
    },
    "Holding_per_stop": {
        "F": 27.835051546391753,
        "A": 5,
        "K": 30.625,
        "C": 27.5,
        "I": 27.5,
        "E": 29.6875,
        "B": 15.9375,
        "G": 30.625,
        "D": 22.1875,
        "L": 28.75,
        "J": 26.875,
        "H": 27.1875
    },
    "Load_per_bus_per_stop": {
        "bus0": {
            "C": 74.625,
            "D": 75.625,
            "E": 76.5625,
            "F": 76.375,
            "G": 75.625,
            "H": 76.4375,
            "I": 78.5625,
            "J": 79.5625,
            "K": 77.5,
            "L": 76.6875,
            "A": 76.9375,
            "B": 78.9375
        },
        "bus1": {
            "E": 71.0625,
            "F": 69.3125,
            "G": 69.4375,
            "H": 70,
            "I": 69.6875,
            "J": 70.1875,
            "K": 69.3125,
            "L": 70.8125,
            "A": 71.6875,
            "B": 73.25,
            "C": 74.375,
            "D": 76.75
        },
        "bus2": {
            "F": 77.41176470588235,
            "G": 75.25,
            "H": 75.6875,
            "I": 77.3125,
            "J": 80.0625,
            "K": 80.8125,
            "L": 82.75,
            "A": 83.4375,
            "B": 84.6875,
            "C": 86.3125,
            "D": 84.1875,
            "E": 82
        },
        "bus3": {
            "I": 75.375,
            "J": 75.3125,
            "K": 75.4375,
            "L": 74.375,
            "A": 75.3125,
            "B": 75.125,
            "C": 76.3125,
            "D": 79.125,
            "E": 78.125,
            "F": 78.75,
            "G": 77.6875,
            "H": 79.625
        },
        "bus4": {
            "K": 73.25,
            "L": 73.4375,
            "A": 75.125,
            "B": 74.5,
            "C": 74.1875,
            "D": 74.4375,
            "E": 76.125,
            "F": 75.5,
            "G": 77.1875,
            "H": 77.9375,
            "I": 78.9375,
            "J": 78.25
        },
        "bus5": {
            "A": 75.9375,
            "B": 75.0625,
            "C": 75.4375,
            "D": 74.375,
            "E": 75.1875,
            "F": 77.75,
            "G": 77.5,
            "H": 77.0625,
            "I": 76.1875,
            "J": 79,
            "K": 79.8125,
            "L": 79.625
        }
    }
}.4375,
            "K": 79.4375,
            "L": 80.375
        }
    }
}