{
    "Average_holding_time": 11.02394715111478,
    "Average_travel_time_passengers": 2511.954892745711,
    "Average_speed_busses": 0.050458333333333334,
    "Average_experienced_crowding": 75.8059018122931,
    "Average_covariation_headway": 0.16960669221570326,
    "Average_covariation_headway_stops": {
        "C": 0.18977052142119516,
        "D": 0.17248750721204445,
        "E": 0.1708140658675905,
        "F": 0.16320443662267123,
        "G": 0.1715861173326752,
        "L": 0.2015140899384453,
        "H": 0.140623523821691,
        "A": 0.1742005144568076,
        "I": 0.1299863097478763,
        "J": 0.1517180791337922,
        "B": 0.17749968548473824,
        "K": 0.17962224263270996
    },
    "Average_excess_waiting_time": {
        "C": 44.314935813294824,
        "D": 40.949589606419295,
        "E": 39.21228720153516,
        "F": 36.98501728095209,
        "G": 36.165344259086,
        "L": 43.96891558491416,
        "H": 34.88278310736683,
        "A": 42.64464711429201,
        "I": 35.43245329414003,
        "J": 38.62523525826782,
        "B": 44.45608435887192,
        "K": 43.02946204920056
    },
    "Holding_per_stop": {
        "F": 7.0588235294117645,
        "D": 10.693069306930694,
        "E": 7.128712871287129,
        "G": 6.470588235294118,
        "C": 16.5,
        "L": 18.11881188118812,
        "H": 6.176470588235294,
        "I": 10.693069306930694,
        "A": 5.7,
        "J": 16.336633663366335,
        "B": 9.9,
        "K": 17.7
    },
    "Load_per_bus_per_stop": {
        "bus0": {
            "C": 73.88235294117646,
            "D": 73.52941176470588,
            "E": 74.58823529411765,
            "F": 75,
            "G": 74.17647058823529,
            "H": 76.41176470588235,
            "I": 77.47058823529412,
            "J": 77.05882352941177,
            "K": 78.5,
            "L": 81.375,
            "A": 79,
            "B": 76.6875
        },
        "bus1": {
            "D": 67.3529411764706,
            "E": 67,
            "F": 67.23529411764706,
            "G": 69.17647058823529,
            "H": 70.94117647058823,
            "I": 69.41176470588235,
            "J": 71.88235294117646,
            "K": 72.88235294117646,
            "L": 72.47058823529412,
            "A": 72.9375,
            "B": 72.75,
            "C": 72.6875
        },
        "bus2": {
            "E": 70.52941176470588,
            "F": 70.41176470588235,
            "G": 70.52941176470588,
            "H": 74.41176470588235,
            "I": 73.94117647058823,
            "J": 72.05882352941177,
            "K": 72.76470588235294,
            "L": 73.88235294117646,
            "A": 74.47058823529412,
            "B": 77.05882352941177,
            "C": 76.1875,
            "D": 75.6875
        },
        "bus3": {
            "F": 67.88235294117646,
            "G": 68.6470588235294,
            "H": 69.17647058823529,
            "I": 69.47058823529412,
            "J": 70.6470588235294,
            "K": 71.41176470588235,
            "L": 69.94117647058823,
            "A": 71.58823529411765,
            "B": 71.88235294117646,
            "C": 73.76470588235294,
            "D": 74,
            "E": 73.25
        },
        "bus4": {
            "G": 73.70588235294117,
            "H": 74.58823529411765,
            "I": 74.82352941176471,
            "J": 76.41176470588235,
            "K": 76.58823529411765,
            "L": 77.3529411764706,
            "A": 77.6470588235294,
            "B": 77.82352941176471,
            "C": 78.17647058823529,
            "D": 78.47058823529412,
            "E": 77.41176470588235,
            "F": 78
        },
        "bus5": {
            "L": 76.29411764705883,
            "A": 77.11764705882354,
            "B": 77.6470588235294,
            "C": 78.88235294117646,
            "D": 80.3529411764706,
            "E": 82.70588235294117,
            "F": 82,
            "G": 81.41176470588235,
            "H": 81.11764705882354,
            "I": 81.1875,
            "J": 80.875,
            "K": 79.875
        }
    }
}     "I": 67.41176470588235,
            "J": 69.82352941176471,
            "K": 70.58823529411765,
            "L": 72
        }
    }
}