{
    "Average_holding_time": 32.785714285714285,
    "Average_travel_time_passengers": 2699.318777110151,
    "Average_speed_busses": 0.04666666666666667,
    "Average_experienced_crowding": 80.05474046516912,
    "Average_covariation_headway": 0.09873271855136345,
    "Average_covariation_headway_stops": {
        "B": 0.0798024726216037,
        "D": 0.07888667428006345,
        "F": 0.08024548498924186,
        "I": 0.08892094595178156,
        "K": 0.08604116747991393,
        "L": 0.0941285076476276,
        "G": 0.052770441315463615,
        "E": 0.047133571573508004,
        "C": 0.04828004366818461,
        "A": 0.05641786635880367,
        "J": 0.06547576407068212,
        "H": 0.053030628800808936
    },
    "Average_excess_waiting_time": {
        "B": 55.507463841237666,
        "D": 55.77222035250571,
        "F": 55.77597729290335,
        "I": 57.69209360432188,
        "K": 57.6575500376652,
        "L": 56.44583541557927,
        "G": 56.37112776420503,
        "E": 56.20929880917231,
        "C": 56.211542684251526,
        "A": 56.216554337081334,
        "J": 58.346939563376054,
        "H": 58.09426232706488
    },
    "Holding_per_stop": {
        "F": 34.46808510638298,
        "D": 29.680851063829788,
        "B": 29.680851063829788,
        "L": 37.02127659574468,
        "I": 33.87096774193548,
        "K": 33.87096774193548,
        "G": 32.58064516129032,
        "A": 27.419354838709676,
        "E": 31.93548387096774,
        "C": 37.41935483870968,
        "J": 33.225806451612904,
        "H": 32.25806451612903
    },
    "Load_per_bus_per_stop": {
        "bus0": {
            "B": 77.4375,
            "C": 77.9375,
            "D": 77.4375,
            "E": 78.5,
            "F": 78,
            "G": 77.4375,
            "H": 78.5625,
            "I": 77.53333333333333,
            "J": 77.46666666666667,
            "K": 78.86666666666666,
            "L": 80.66666666666667,
            "A": 81.4
        },
        "bus1": {
            "D": 74.3125,
            "E": 75.6875,
            "F": 77.0625,
            "G": 77.9375,
            "H": 77.0625,
            "I": 78.875,
            "J": 79.9375,
            "K": 80.06666666666666,
            "L": 81.06666666666666,
            "A": 81.33333333333333,
            "B": 80.93333333333334,
            "C": 79.33333333333333
        },
        "bus2": {
            "F": 80.9375,
            "G": 81.5625,
            "H": 81.125,
            "I": 83.8125,
            "J": 85.3125,
            "K": 86.25,
            "L": 83.9375,
            "A": 81.73333333333333,
            "B": 83.26666666666667,
            "C": 84.2,
            "D": 84.93333333333334,
            "E": 85.46666666666667
        },
        "bus3": {
            "I": 76.25,
            "J": 75.5,
            "K": 77.9375,
            "L": 78.25,
            "A": 78.875,
            "B": 79.9375,
            "C": 81.13333333333334,
            "D": 81.93333333333334,
            "E": 83.6,
            "F": 82.53333333333333,
            "G": 82.53333333333333,
            "H": 81.26666666666667
        },
        "bus4": {
            "K": 78.6875,
            "L": 77.5,
            "A": 77.4375,
            "B": 78.875,
            "C": 79.875,
            "D": 80.8125,
            "E": 80.86666666666666,
            "F": 81.53333333333333,
            "G": 81,
            "H": 79.66666666666667,
            "I": 80.6,
            "J": 81.6
        },
        "bus5": {
            "L": 74.5,
            "A": 75.3125,
            "B": 74.25,
            "C": 75.8125,
            "D": 79.125,
            "E": 77.25,
            "F": 76.75,
            "G": 76.73333333333333,
            "H": 76.33333333333333,
            "I": 78.13333333333334,
            "J": 77.86666666666666,
            "K": 79
        }
    }
}