{
    "Average_holding_time": 18.575063613231553,
    "Average_travel_time_passengers": 2583.0387330952003,
    "Average_speed_busses": 0.049125,
    "Average_experienced_crowding": 76.73994703150109,
    "Average_covariation_headway": 0.17066801923934657,
    "Average_covariation_headway_stops": {
        "D": 0.14486088071389092,
        "E": 0.13598804183260363,
        "F": 0.12829293526889932,
        "G": 0.1356039727221012,
        "K": 0.15641233608544025,
        "L": 0.1555260856798275,
        "H": 0.11635831271157888,
        "A": 0.13028664763385248,
        "I": 0.11511116474582558,
        "B": 0.1255020480839071,
        "J": 0.12565578637251293,
        "C": 0.1370400701254666
    },
    "Average_excess_waiting_time": {
        "D": 47.39872214580174,
        "E": 45.248680713759995,
        "F": 42.998408680469424,
        "G": 42.109768766849356,
        "K": 46.98643412121669,
        "L": 45.51662779858992,
        "H": 42.18668545174171,
        "A": 44.667814764401214,
        "I": 43.812420515539884,
        "B": 45.776819475833804,
        "J": 46.09938411498905,
        "C": 48.39232665873908
    },
    "Holding_per_stop": {
        "F": 14.848484848484848,
        "G": 13.333333333333334,
        "E": 12.551020408163266,
        "L": 31.515151515151516,
        "D": 14.081632653061224,
        "K": 37.04081632653061,
        "H": 16.96969696969697,
        "A": 7.959183673469388,
        "I": 21.428571428571427,
        "B": 12.857142857142858,
        "J": 20.510204081632654,
        "C": 19.79381443298969
    },
    "Load_per_bus_per_stop": {
        "bus0": {
            "D": 73.47058823529412,
            "E": 73.58823529411765,
            "F": 73.94117647058823,
            "G": 75.625,
            "H": 77.125,
            "I": 79.5625,
            "J": 77.625,
            "K": 77.375,
            "L": 78.5625,
            "A": 79.1875,
            "B": 78.5,
            "C": 78.4375
        },
        "bus1": {
            "E": 73.76470588235294,
            "F": 72.6470588235294,
            "G": 70.11764705882354,
            "H": 70.94117647058823,
            "I": 71.375,
            "J": 73.5,
            "K": 75.8125,
            "L": 77.0625,
            "A": 76,
            "B": 78.0625,
            "C": 79,
            "D": 78.0625
        },
        "bus2": {
            "F": 69.23529411764706,
            "G": 70.47058823529412,
            "H": 71.23529411764706,
            "I": 72.82352941176471,
            "J": 73.41176470588235,
            "K": 74.125,
            "L": 75.625,
            "A": 75.0625,
            "B": 75.6875,
            "C": 75.1875,
            "D": 74.375,
            "E": 73.75
        },
        "bus3": {
            "G": 75.94117647058823,
            "H": 74.58823529411765,
            "I": 76.11764705882354,
            "J": 79.70588235294117,
            "K": 78.88235294117646,
            "L": 79.76470588235294,
            "A": 79.5625,
            "B": 78.9375,
            "C": 78.1875,
            "D": 78.375,
            "E": 79.6875,
            "F": 79.75
        },
        "bus4": {
            "K": 73.47058823529412,
            "L": 73.82352941176471,
            "A": 73.76470588235294,
            "B": 73.88235294117646,
            "C": 71.625,
            "D": 74.25,
            "E": 74.375,
            "F": 75.875,
            "G": 78.1875,
            "H": 80.375,
            "I": 81.25,
            "J": 79.75
        },
        "bus5": {
            "L": 76.41176470588235,
            "A": 75.05882352941177,
            "B": 75.58823529411765,
            "C": 75.3529411764706,
            "D": 76.94117647058823,
            "E": 76.5625,
            "F": 77.5625,
            "G": 79.25,
            "H": 79.5,
            "I": 80.75,
            "J": 80.75,
            "K": 80.4375
        }
    }
}