{
    "Average_holding_time": 17.66949152542373,
    "Average_travel_time_passengers": 2573.466667675411,
    "Average_speed_busses": 0.049166666666666664,
    "Average_experienced_crowding": 77.46519505423349,
    "Average_covariation_headway": 0.18462034687425413,
    "Average_covariation_headway_stops": {
        "E": 0.18626255441747586,
        "G": 0.16662326363309204,
        "H": 0.15512782844803208,
        "J": 0.1329520422707486,
        "K": 0.14562422392151694,
        "L": 0.15756531950180447,
        "I": 0.13440680505648303,
        "A": 0.12754085273781976,
        "F": 0.16199270965701795,
        "B": 0.11291251486970617,
        "C": 0.13961978500756297,
        "D": 0.16701879920163157
    },
    "Average_excess_waiting_time": {
        "E": 50.68344584148656,
        "G": 48.33426726687884,
        "H": 45.64507195326172,
        "J": 43.80433350868418,
        "K": 42.979379162232306,
        "L": 42.95956843977967,
        "I": 45.44213725047814,
        "A": 41.565540588252134,
        "F": 49.60904588912524,
        "B": 41.945276360115315,
        "C": 45.51836449329352,
        "D": 50.34006706619107
    },
    "Holding_per_stop": {
        "H": 23.333333333333332,
        "K": 23.939393939393938,
        "L": 21.9,
        "J": 16.666666666666668,
        "E": 18.6734693877551,
        "G": 20.816326530612244,
        "I": 17.448979591836736,
        "A": 6.96969696969697,
        "B": 6.73469387755102,
        "F": 15.463917525773196,
        "C": 25.408163265306122,
        "D": 14.536082474226804
    },
    "Load_per_bus_per_stop": {
        "bus0": {
            "E": 73.94117647058823,
            "F": 73.88235294117646,
            "G": 74.47058823529412,
            "H": 76.05882352941177,
            "I": 77.9375,
            "J": 79,
            "K": 79.625,
            "L": 80.625,
            "A": 79.75,
            "B": 79,
            "C": 78.125,
            "D": 79.4375
        },
        "bus1": {
            "G": 76.88235294117646,
            "H": 76.58823529411765,
            "I": 77.11764705882354,
            "J": 78,
            "K": 79.375,
            "L": 80.125,
            "A": 79.9375,
            "B": 82.25,
            "C": 81.9375,
            "D": 83,
            "E": 83,
            "F": 80.3125
        },
        "bus2": {
            "H": 69.23529411764706,
            "I": 69.41176470588235,
            "J": 68.82352941176471,
            "K": 71.88235294117646,
            "L": 73.11764705882354,
            "A": 74.625,
            "B": 73.125,
            "C": 72.625,
            "D": 72.5,
            "E": 71.9375,
            "F": 71.4375,
            "G": 73.0625
        },
        "bus3": {
            "J": 73.11764705882354,
            "K": 72.6470588235294,
            "L": 74.23529411764706,
            "A": 76.41176470588235,
            "B": 77.76470588235294,
            "C": 78.0625,
            "D": 79.5625,
            "E": 80.4375,
            "F": 78.9375,
            "G": 78.375,
            "H": 76.875,
            "I": 78.125
        },
        "bus4": {
            "K": 75.3529411764706,
            "L": 74.41176470588235,
            "A": 75.70588235294117,
            "B": 77.47058823529412,
            "C": 80.05882352941177,
            "D": 81.05882352941177,
            "E": 79.0625,
            "F": 80,
            "G": 79.75,
            "H": 80.1875,
            "I": 79.6875,
            "J": 80
        },
        "bus5": {
            "L": 73.52941176470588,
            "A": 72.17647058823529,
            "B": 72.41176470588235,
            "C": 72.58823529411765,
            "D": 77,
            "E": 77.23529411764706,
            "F": 78.94117647058823,
            "G": 80.125,
            "H": 80.5625,
            "I": 78.875,
            "J": 78.875,
            "K": 79.25
        }
    }
}