{
    "Average_holding_time": 7.7379983726607,
    "Average_travel_time_passengers": 2490.7651167300273,
    "Average_speed_busses": 0.051208333333333335,
    "Average_experienced_crowding": 74.59423648570952,
    "Average_covariation_headway": 0.13113534421487666,
    "Average_covariation_headway_stops": {
        "B": 0.10332920027157025,
        "C": 0.10349848951637361,
        "E": 0.08760708828317365,
        "G": 0.08478371650233503,
        "I": 0.08609436033876135,
        "K": 0.08631209012357444,
        "D": 0.07201205520034627,
        "F": 0.06497648021509975,
        "J": 0.06793566726383567,
        "L": 0.07145988002716348,
        "H": 0.0606433351989872,
        "A": 0.07716475317931484
    },
    "Average_excess_waiting_time": {
        "B": 31.379816687254333,
        "C": 29.861543393920442,
        "E": 29.158197294248055,
        "G": 29.086399579996566,
        "I": 29.082485725638833,
        "K": 29.005278519383012,
        "D": 29.859437114411776,
        "F": 29.737931597288593,
        "J": 29.66473311881856,
        "L": 29.72811352130475,
        "H": 29.481864259842894,
        "A": 31.37878672382766
    },
    "Holding_per_stop": {
        "C": 12.233009708737864,
        "E": 7.572815533980583,
        "I": 5.242718446601942,
        "K": 15.145631067961165,
        "G": 5.533980582524272,
        "B": 5.294117647058823,
        "J": 8.529411764705882,
        "D": 8.235294117647058,
        "F": 6.470588235294118,
        "H": 6.764705882352941,
        "L": 9.411764705882353,
        "A": 2.3529411764705883
    },
    "Load_per_bus_per_stop": {
        "bus0": {
            "B": 71.58823529411765,
            "C": 72.47058823529412,
            "D": 74.05882352941177,
            "E": 74.41176470588235,
            "F": 74.05882352941177,
            "G": 73.23529411764706,
            "H": 75.11764705882354,
            "I": 77.05882352941177,
            "J": 74.41176470588235,
            "K": 75.23529411764706,
            "L": 75.11764705882354,
            "A": 75.70588235294117
        },
        "bus1": {
            "C": 74.05555555555556,
            "D": 74.11764705882354,
            "E": 76.47058823529412,
            "F": 75.41176470588235,
            "G": 75.6470588235294,
            "H": 75.94117647058823,
            "I": 76.88235294117646,
            "J": 75.52941176470588,
            "K": 75.3529411764706,
            "L": 75.88235294117646,
            "A": 76.70588235294117,
            "B": 78
        },
        "bus2": {
            "E": 68.05555555555556,
            "F": 68.94117647058823,
            "G": 68.58823529411765,
            "H": 69.52941176470588,
            "I": 70.70588235294117,
            "J": 71.94117647058823,
            "K": 73.23529411764706,
            "L": 74.70588235294117,
            "A": 73.29411764705883,
            "B": 73.05882352941177,
            "C": 72.70588235294117,
            "D": 71.70588235294117
        },
        "bus3": {
            "G": 76.22222222222223,
            "H": 76.29411764705883,
            "I": 77.76470588235294,
            "J": 78.6470588235294,
            "K": 78.76470588235294,
            "L": 78.94117647058823,
            "A": 79.23529411764706,
            "B": 79.94117647058823,
            "C": 81.47058823529412,
            "D": 80.70588235294117,
            "E": 80.70588235294117,
            "F": 79.6470588235294
        },
        "bus4": {
            "I": 70.05555555555556,
            "J": 68.3529411764706,
            "K": 69.94117647058823,
            "L": 69.58823529411765,
            "A": 70.6470588235294,
            "B": 70.6470588235294,
            "C": 71.3529411764706,
            "D": 72.70588235294117,
            "E": 74.82352941176471,
            "F": 74.76470588235294,
            "G": 76.70588235294117,
            "H": 75.52941176470588
        },
        "bus5": {
            "K": 67.83333333333333,
            "L": 69.29411764705883,
            "A": 69.17647058823529,
            "B": 69.47058823529412,
            "C": 68.88235294117646,
            "D": 69.82352941176471,
            "E": 70.58823529411765,
            "F": 72.58823529411765,
            "G": 73,
            "H": 72.82352941176471,
            "I": 72.52941176470588,
            "J": 72.17647058823529
        }
    }
}