{
    "Average_holding_time": 35.11669658886894,
    "Average_travel_time_passengers": 2749.833044580129,
    "Average_speed_busses": 0.04641666666666667,
    "Average_experienced_crowding": 83.13807339946294,
    "Average_covariation_headway": 0.18132691262457884,
    "Average_covariation_headway_stops": {
        "D": 0.23646551109682953,
        "F": 0.21537387061573995,
        "G": 0.20628279759528673,
        "H": 0.1999985828211366,
        "I": 0.20108816977038052,
        "J": 0.20055381227204272,
        "K": 0.17470375907980437,
        "E": 0.2141586598879578,
        "L": 0.1608381823610868,
        "A": 0.15983744540813283,
        "B": 0.18426861028866282,
        "C": 0.2210927732723662
    },
    "Average_excess_waiting_time": {
        "D": 77.58998276888587,
        "F": 74.49315868214222,
        "G": 71.37210793060387,
        "H": 68.75396430556299,
        "I": 67.09481806147227,
        "J": 65.41221666932199,
        "K": 64.09775721418237,
        "E": 76.28043341830204,
        "L": 64.56611789085014,
        "A": 66.2503690389176,
        "B": 70.80560908380784,
        "C": 77.4174515639458
    },
    "Holding_per_stop": {
        "J": 36.702127659574465,
        "I": 34.148936170212764,
        "G": 36.774193548387096,
        "H": 39.03225806451613,
        "D": 36.19565217391305,
        "F": 33.91304347826087,
        "K": 35.42553191489362,
        "E": 34.891304347826086,
        "L": 36.774193548387096,
        "A": 27.419354838709676,
        "B": 31.956521739130434,
        "C": 38.15217391304348
    },
    "Load_per_bus_per_stop": {
        "bus0": {
            "D": 84.625,
            "E": 85.0625,
            "F": 83.75,
            "G": 84.75,
            "H": 86.73333333333333,
            "I": 87,
            "J": 85.53333333333333,
            "K": 86.06666666666666,
            "L": 87.93333333333334,
            "A": 88.73333333333333,
            "B": 90.06666666666666,
            "C": 90.4
        },
        "bus1": {
            "F": 74.9375,
            "G": 73.875,
            "H": 74.6875,
            "I": 77.4375,
            "J": 78.2,
            "K": 78.8,
            "L": 79.6,
            "A": 79.86666666666666,
            "B": 78.6,
            "C": 78.53333333333333,
            "D": 80.06666666666666,
            "E": 80.93333333333334
        },
        "bus2": {
            "G": 76.8125,
            "H": 77.3125,
            "I": 78.5625,
            "J": 79.0625,
            "K": 79.8125,
            "L": 80.53333333333333,
            "A": 82.4,
            "B": 82.86666666666666,
            "C": 84.06666666666666,
            "D": 82.26666666666667,
            "E": 81.46666666666667,
            "F": 80.53333333333333
        },
        "bus3": {
            "H": 76.625,
            "I": 77,
            "J": 76.9375,
            "K": 78.375,
            "L": 78.25,
            "A": 79.9375,
            "B": 79.86666666666666,
            "C": 79.13333333333334,
            "D": 79.13333333333334,
            "E": 80.86666666666666,
            "F": 82,
            "G": 81.4
        },
        "bus4": {
            "I": 71.75,
            "J": 71.75,
            "K": 72.375,
            "L": 73,
            "A": 74.375,
            "B": 75.125,
            "C": 74.4375,
            "D": 72.13333333333334,
            "E": 72.86666666666666,
            "F": 73.93333333333334,
            "G": 75.4,
            "H": 75.86666666666666
        },
        "bus5": {
            "J": 83.5625,
            "K": 82.3125,
            "L": 83.625,
            "A": 84.4375,
            "B": 84.8125,
            "C": 86.1875,
            "D": 87.375,
            "E": 89,
            "F": 89.86666666666666,
            "G": 89.26666666666667,
            "H": 88.33333333333333,
            "I": 87.06666666666666
        }
    }
}