{
    "Average_holding_time": 10.758450123660346,
    "Average_travel_time_passengers": 2506.0928563617827,
    "Average_speed_busses": 0.050541666666666665,
    "Average_experienced_crowding": 75.69562785454136,
    "Average_covariation_headway": 0.15029584624144798,
    "Average_covariation_headway_stops": {
        "B": 0.13545480825564327,
        "C": 0.14505245960835525,
        "F": 0.09706754636481253,
        "H": 0.09369922716376569,
        "I": 0.09775549584009476,
        "A": 0.13472284267598733,
        "J": 0.06982635321896002,
        "D": 0.10919808803846984,
        "G": 0.07187749672558119,
        "K": 0.08137464938330462,
        "E": 0.08802085741802537,
        "L": 0.11127107575169973
    },
    "Average_excess_waiting_time": {
        "B": 36.53115220129092,
        "C": 35.82052668194024,
        "F": 33.99241814373613,
        "H": 33.61482405661525,
        "I": 32.31724627833432,
        "A": 37.687863941363844,
        "J": 32.34004040937282,
        "D": 34.76393058041822,
        "G": 34.15152354923305,
        "K": 34.28501430048658,
        "E": 34.90967984981705,
        "L": 37.577567202604655
    },
    "Holding_per_stop": {
        "B": 13.069306930693068,
        "I": 7.647058823529412,
        "C": 25,
        "F": 6.534653465346534,
        "H": 10.099009900990099,
        "A": 5.0495049504950495,
        "J": 7.7227722772277225,
        "D": 13.663366336633663,
        "G": 6.534653465346534,
        "K": 13.96039603960396,
        "E": 8.01980198019802,
        "L": 11.7
    },
    "Load_per_bus_per_stop": {
        "bus0": {
            "B": 74.52941176470588,
            "C": 76.11764705882354,
            "D": 75.3529411764706,
            "E": 75.6470588235294,
            "F": 75.6470588235294,
            "G": 75.82352941176471,
            "H": 76.29411764705883,
            "I": 76,
            "J": 78.23529411764706,
            "K": 77.17647058823529,
            "L": 77.875,
            "A": 78.0625
        },
        "bus1": {
            "C": 75.05882352941177,
            "D": 74.11764705882354,
            "E": 74.23529411764706,
            "F": 73.76470588235294,
            "G": 73.94117647058823,
            "H": 74.94117647058823,
            "I": 76.88235294117646,
            "J": 77.58823529411765,
            "K": 79.11764705882354,
            "L": 78.41176470588235,
            "A": 78.76470588235294,
            "B": 80.375
        },
        "bus2": {
            "F": 73.70588235294117,
            "G": 74.52941176470588,
            "H": 74.23529411764706,
            "I": 74.52941176470588,
            "J": 76.05882352941177,
            "K": 77.6470588235294,
            "L": 78.05882352941177,
            "A": 77.6470588235294,
            "B": 79.82352941176471,
            "C": 78.29411764705883,
            "D": 78.375,
            "E": 78.625
        },
        "bus3": {
            "H": 67.70588235294117,
            "I": 69.11764705882354,
            "J": 68.94117647058823,
            "K": 71.3529411764706,
            "L": 72.58823529411765,
            "A": 73.41176470588235,
            "B": 72.17647058823529,
            "C": 74.05882352941177,
            "D": 72.76470588235294,
            "E": 72.58823529411765,
            "F": 72.6875,
            "G": 71.75
        },
        "bus4": {
            "I": 70.82352941176471,
            "J": 72.41176470588235,
            "K": 73.11764705882354,
            "L": 74.52941176470588,
            "A": 75.70588235294117,
            "B": 74.29411764705883,
            "C": 75.3529411764706,
            "D": 75.94117647058823,
            "E": 75.58823529411765,
            "F": 74.41176470588235,
            "G": 73.88235294117646,
            "H": 74.625
        },
        "bus5": {
            "A": 74.17647058823529,
            "B": 73.6470588235294,
            "C": 73.47058823529412,
            "D": 74.70588235294117,
            "E": 74,
            "F": 72.70588235294117,
            "G": 72.58823529411765,
            "H": 74.82352941176471,
            "I": 75.23529411764706,
            "J": 77.625,
            "K": 77.3125,
            "L": 79.5625
        }
    }
}2941176470588,
            "I": 73.88235294117646
        }
    }
}