{
    "Average_holding_time": 10.354200988467875,
    "Average_travel_time_passengers": 2529.3217446349936,
    "Average_speed_busses": 0.050583333333333334,
    "Average_experienced_crowding": 78.4919224288793,
    "Average_covariation_headway": 0.3527600074532666,
    "Average_covariation_headway_stops": {
        "B": 0.23560098884011244,
        "F": 0.2398370572013145,
        "G": 0.23786627555733217,
        "J": 0.23934604564814335,
        "L": 0.236315426121093,
        "A": 0.23492604410964488,
        "C": 0.23178877888807695,
        "H": 0.21953169006300124,
        "K": 0.22538783162518086,
        "D": 0.22930183083389036,
        "I": 0.2239538685341519,
        "E": 0.24026149343850117
    },
    "Average_excess_waiting_time": {
        "B": 44.15390799256909,
        "F": 48.320220052009915,
        "G": 46.40018577849179,
        "J": 47.7439461958906,
        "L": 47.333312829627516,
        "A": 45.53545532573531,
        "C": 45.109909197053355,
        "H": 46.21354988319439,
        "K": 47.346564503785885,
        "D": 46.426245931092126,
        "I": 47.228924998871435,
        "E": 49.36372520761785
    },
    "Holding_per_stop": {
        "A": 12.058823529411764,
        "B": 11.764705882352942,
        "G": 7.7227722772277225,
        "L": 13.663366336633663,
        "J": 11.287128712871286,
        "F": 8.613861386138614,
        "C": 12.647058823529411,
        "H": 9.504950495049505,
        "K": 4.158415841584159,
        "I": 7.2,
        "D": 8.316831683168317,
        "E": 17.22772277227723
    },
    "Load_per_bus_per_stop": {
        "bus0": {
            "B": 74.94117647058823,
            "C": 74.05882352941177,
            "D": 76.47058823529412,
            "E": 76.88235294117646,
            "F": 78.94117647058823,
            "G": 79.41176470588235,
            "H": 78.88235294117646,
            "I": 77.47058823529412,
            "J": 76.11764705882354,
            "K": 75.6470588235294,
            "L": 76.6470588235294,
            "A": 76.6470588235294
        },
        "bus1": {
            "F": 75.47058823529412,
            "G": 76,
            "H": 75.3529411764706,
            "I": 76,
            "J": 75.70588235294117,
            "K": 75.52941176470588,
            "L": 77.3529411764706,
            "A": 76.6470588235294,
            "B": 78.17647058823529,
            "C": 80.3529411764706,
            "D": 79.6875,
            "E": 80.1875
        },
        "bus2": {
            "G": 68.29411764705883,
            "H": 68.70588235294117,
            "I": 71.11764705882354,
            "J": 70.41176470588235,
            "K": 72.58823529411765,
            "L": 73.52941176470588,
            "A": 73.70588235294117,
            "B": 72.05882352941177,
            "C": 73.11764705882354,
            "D": 73,
            "E": 74,
            "F": 72.5625
        },
        "bus3": {
            "J": 69.82352941176471,
            "K": 70.94117647058823,
            "L": 70.52941176470588,
            "A": 71.11764705882354,
            "B": 71,
            "C": 72.6470588235294,
            "D": 72.58823529411765,
            "E": 71,
            "F": 70.76470588235294,
            "G": 70.88235294117646,
            "H": 73.625,
            "I": 73.8125
        },
        "bus4": {
            "L": 82.17647058823529,
            "A": 82.47058823529412,
            "B": 84.88235294117646,
            "C": 86.76470588235294,
            "D": 85.11764705882354,
            "E": 85.82352941176471,
            "F": 85.41176470588235,
            "G": 86.41176470588235,
            "H": 88.88235294117646,
            "I": 87.625,
            "J": 88.125,
            "K": 86.875
        },
        "bus5": {
            "A": 66,
            "B": 65.88235294117646,
            "C": 65.6470588235294,
            "D": 67.05882352941177,
            "E": 67,
            "F": 68.58823529411765,
            "G": 68.94117647058823,
            "H": 69.41176470588235,
            "I": 69.11764705882354,
            "J": 70,
            "K": 69.82352941176471,
            "L": 69.5
        }
    }
}3,
            "J": 61,
            "K": 60.411764705882355
        }
    }
}