{
    "Average_holding_time": 6.818181818181818,
    "Average_travel_time_passengers": 2482.9425049465085,
    "Average_speed_busses": 0.051333333333333335,
    "Average_experienced_crowding": 73.90744021438316,
    "Average_covariation_headway": 0.1394358244708052,
    "Average_covariation_headway_stops": {
        "B": 0.0993068546715393,
        "C": 0.09989922103981642,
        "E": 0.08668256578447886,
        "I": 0.12683012109196254,
        "J": 0.11640107805840293,
        "K": 0.11646982683715522,
        "F": 0.05568631318238828,
        "D": 0.07396896272146276,
        "L": 0.0998259766054612,
        "G": 0.06471091214039594,
        "A": 0.0884259087537776,
        "H": 0.10060393588502672
    },
    "Average_excess_waiting_time": {
        "B": 29.430478270724564,
        "C": 27.827054746156193,
        "E": 27.018638863918,
        "I": 32.51709170885164,
        "J": 30.285027281963096,
        "K": 28.951505563436342,
        "F": 27.260807515048555,
        "D": 27.986387895421842,
        "L": 29.342573279448345,
        "G": 29.147125606978648,
        "A": 30.364948597228818,
        "H": 32.3032433676662
    },
    "Holding_per_stop": {
        "E": 3.7864077669902914,
        "J": 6.116504854368932,
        "C": 11.359223300970873,
        "K": 13.980582524271844,
        "I": 6.764705882352941,
        "B": 4.368932038834951,
        "F": 2.3300970873786406,
        "L": 11.650485436893204,
        "D": 7.281553398058253,
        "A": 4.117647058823529,
        "G": 5,
        "H": 5
    },
    "Load_per_bus_per_stop": {
        "bus0": {
            "B": 73.77777777777777,
            "C": 72.41176470588235,
            "D": 73.3529411764706,
            "E": 72.82352941176471,
            "F": 72.29411764705883,
            "G": 73.41176470588235,
            "H": 73.6470588235294,
            "I": 74.6470588235294,
            "J": 74.6470588235294,
            "K": 76.11764705882354,
            "L": 76.70588235294117,
            "A": 76.70588235294117
        },
        "bus1": {
            "C": 68.11111111111111,
            "D": 69.38888888888889,
            "E": 70.41176470588235,
            "F": 71.76470588235294,
            "G": 72.3529411764706,
            "H": 73.88235294117646,
            "I": 74.3529411764706,
            "J": 74.94117647058823,
            "K": 74.76470588235294,
            "L": 76.88235294117646,
            "A": 75.47058823529412,
            "B": 72.76470588235294
        },
        "bus2": {
            "E": 71.33333333333333,
            "F": 72.77777777777777,
            "G": 73.94117647058823,
            "H": 74.76470588235294,
            "I": 75.17647058823529,
            "J": 75.17647058823529,
            "K": 76.6470588235294,
            "L": 78.52941176470588,
            "A": 79,
            "B": 77.47058823529412,
            "C": 74.6470588235294,
            "D": 75
        },
        "bus3": {
            "I": 70.52941176470588,
            "J": 68.41176470588235,
            "K": 69.70588235294117,
            "L": 70,
            "A": 71.94117647058823,
            "B": 70.94117647058823,
            "C": 70.11764705882354,
            "D": 70.52941176470588,
            "E": 71.17647058823529,
            "F": 71.88235294117646,
            "G": 72,
            "H": 73.23529411764706
        },
        "bus4": {
            "J": 69.55555555555556,
            "K": 69.82352941176471,
            "L": 70.58823529411765,
            "A": 71.3529411764706,
            "B": 73.23529411764706,
            "C": 73.11764705882354,
            "D": 73.52941176470588,
            "E": 73.41176470588235,
            "F": 71.6470588235294,
            "G": 72.11764705882354,
            "H": 72.47058823529412,
            "I": 73.41176470588235
        },
        "bus5": {
            "K": 71.83333333333333,
            "L": 71.61111111111111,
            "A": 71.3529411764706,
            "B": 74.52941176470588,
            "C": 74.52941176470588,
            "D": 74.76470588235294,
            "E": 75.6470588235294,
            "F": 77.05882352941177,
            "G": 76.82352941176471,
            "H": 77.52941176470588,
            "I": 77.17647058823529,
            "J": 78.6470588235294
        }
    }
}