{
    "Average_holding_time": 16.450798990748527,
    "Average_travel_time_passengers": 2533.691088561964,
    "Average_speed_busses": 0.049541666666666664,
    "Average_experienced_crowding": 74.27038918786413,
    "Average_covariation_headway": 0.12185699372922001,
    "Average_covariation_headway_stops": {
        "B": 0.10174783308513596,
        "C": 0.1034523731725999,
        "F": 0.09564844021553777,
        "G": 0.09270643998055224,
        "J": 0.09133034980403908,
        "A": 0.11258484338593679,
        "H": 0.061792560684579466,
        "D": 0.07761091492978293,
        "K": 0.0669565790776225,
        "I": 0.06555363269662927,
        "E": 0.08136706077353538,
        "L": 0.07532875598704178
    },
    "Average_excess_waiting_time": {
        "B": 39.702885598899115,
        "C": 38.23950170634117,
        "F": 38.9878393631102,
        "G": 37.48929846689646,
        "J": 38.773303595658035,
        "A": 41.739077040549546,
        "H": 37.32229488222191,
        "D": 38.26210838693004,
        "K": 39.056966343138754,
        "I": 38.86449577034085,
        "E": 39.91905775498827,
        "L": 41.29794380558707
    },
    "Holding_per_stop": {
        "G": 11.1,
        "B": 14.242424242424242,
        "C": 17.7,
        "J": 24.545454545454547,
        "F": 15.757575757575758,
        "A": 6.0606060606060606,
        "H": 15.757575757575758,
        "D": 7.878787878787879,
        "K": 38.18181818181818,
        "I": 13.93939393939394,
        "E": 13.030303030303031,
        "L": 19.285714285714285
    },
    "Load_per_bus_per_stop": {
        "bus0": {
            "B": 70.11764705882354,
            "C": 69.05882352941177,
            "D": 68.76470588235294,
            "E": 69.11764705882354,
            "F": 70.29411764705883,
            "G": 69.47058823529412,
            "H": 67.125,
            "I": 68.5625,
            "J": 71.5,
            "K": 72.4375,
            "L": 73.3125,
            "A": 74.875
        },
        "bus1": {
            "C": 71.11764705882354,
            "D": 72.23529411764706,
            "E": 73.41176470588235,
            "F": 75.05882352941177,
            "G": 75.29411764705883,
            "H": 75.47058823529412,
            "I": 75.88235294117646,
            "J": 75.75,
            "K": 75,
            "L": 74.4375,
            "A": 75.6875,
            "B": 77.6875
        },
        "bus2": {
            "F": 72.17647058823529,
            "G": 73.3529411764706,
            "H": 75.3529411764706,
            "I": 74.3529411764706,
            "J": 74.70588235294117,
            "K": 73.82352941176471,
            "L": 72.5625,
            "A": 73,
            "B": 73.5625,
            "C": 75.875,
            "D": 75.1875,
            "E": 74.8125
        },
        "bus3": {
            "G": 73.3529411764706,
            "H": 73.76470588235294,
            "I": 75,
            "J": 73.47058823529412,
            "K": 74.76470588235294,
            "L": 77,
            "A": 76.41176470588235,
            "B": 75.4375,
            "C": 77.75,
            "D": 78.25,
            "E": 78.875,
            "F": 77.1875
        },
        "bus4": {
            "J": 70.82352941176471,
            "K": 71.70588235294117,
            "L": 72.82352941176471,
            "A": 73.11764705882354,
            "B": 74.3529411764706,
            "C": 74.76470588235294,
            "D": 74.125,
            "E": 75.9375,
            "F": 75.875,
            "G": 76.375,
            "H": 75.5625,
            "I": 76.125
        },
        "bus5": {
            "A": 75.3529411764706,
            "B": 74.47058823529412,
            "C": 72.94117647058823,
            "D": 73.05882352941177,
            "E": 72.76470588235294,
            "F": 73.1875,
            "G": 72.125,
            "H": 75.625,
            "I": 75.125,
            "J": 74.75,
            "K": 75.5625,
            "L": 76.25
        }
    }
}