{
    "Average_holding_time": 11.716417910447761,
    "Average_travel_time_passengers": 2520.728296424173,
    "Average_speed_busses": 0.05025,
    "Average_experienced_crowding": 75.8893308696648,
    "Average_covariation_headway": 0.13635870057863547,
    "Average_covariation_headway_stops": {
        "B": 0.1572716345150126,
        "F": 0.15331758843484944,
        "J": 0.1807142335272813,
        "K": 0.17087322005475578,
        "L": 0.1637212574834006,
        "A": 0.160481040846595,
        "C": 0.12727157623580254,
        "G": 0.1470864981116252,
        "D": 0.12207054443932899,
        "H": 0.14856241588782046,
        "E": 0.13529894758283373,
        "I": 0.1677396854212
    },
    "Average_excess_waiting_time": {
        "B": 35.88047138839272,
        "F": 38.38318170936509,
        "J": 44.13640636638138,
        "K": 41.54596333179279,
        "L": 39.56170257519892,
        "A": 37.7006417112068,
        "C": 34.75093084279888,
        "G": 39.33728248865441,
        "D": 35.83022773465041,
        "H": 41.02316327188947,
        "E": 38.444400709662546,
        "I": 44.41917139063065
    },
    "Holding_per_stop": {
        "B": 9.117647058823529,
        "K": 24.9,
        "A": 4.158415841584159,
        "F": 11.584158415841584,
        "L": 14.554455445544555,
        "J": 13.5,
        "C": 10.990099009900991,
        "G": 9,
        "D": 13.069306930693068,
        "H": 9.6,
        "E": 8.7,
        "I": 11.515151515151516
    },
    "Load_per_bus_per_stop": {
        "bus0": {
            "B": 70.88235294117646,
            "C": 71.47058823529412,
            "D": 70.11764705882354,
            "E": 71.17647058823529,
            "F": 72.3529411764706,
            "G": 73.82352941176471,
            "H": 75.88235294117646,
            "I": 76.23529411764706,
            "J": 76.76470588235294,
            "K": 77.05882352941177,
            "L": 76.6470588235294,
            "A": 76.3125
        },
        "bus1": {
            "F": 78.52941176470588,
            "G": 76.70588235294117,
            "H": 76.76470588235294,
            "I": 79.11764705882354,
            "J": 77.82352941176471,
            "K": 79.41176470588235,
            "L": 80.11764705882354,
            "A": 81.94117647058823,
            "B": 80.29411764705883,
            "C": 80.23529411764706,
            "D": 79.8125,
            "E": 81.75
        },
        "bus2": {
            "J": 75.88235294117646,
            "K": 75.94117647058823,
            "L": 76.3529411764706,
            "A": 76.41176470588235,
            "B": 75.29411764705883,
            "C": 75.58823529411765,
            "D": 75.17647058823529,
            "E": 75,
            "F": 76.5625,
            "G": 76.875,
            "H": 78.5,
            "I": 79.5
        },
        "bus3": {
            "K": 72.05882352941177,
            "L": 73.3529411764706,
            "A": 72.76470588235294,
            "B": 72.82352941176471,
            "C": 73.76470588235294,
            "D": 75.23529411764706,
            "E": 74.58823529411765,
            "F": 76.11764705882354,
            "G": 76.17647058823529,
            "H": 76.5625,
            "I": 77.6875,
            "J": 77.9375
        },
        "bus4": {
            "L": 72.23529411764706,
            "A": 71.23529411764706,
            "B": 71,
            "C": 71.3529411764706,
            "D": 72.82352941176471,
            "E": 74.70588235294117,
            "F": 75.23529411764706,
            "G": 74.70588235294117,
            "H": 75.76470588235294,
            "I": 75.625,
            "J": 76.25,
            "K": 76.4375
        },
        "bus5": {
            "A": 69.88235294117646,
            "B": 70.3529411764706,
            "C": 69.76470588235294,
            "D": 66.11764705882354,
            "E": 68.3529411764706,
            "F": 69.6470588235294,
            "G": 71.52941176470588,
            "H": 73.11764705882354,
            "I": 72.82352941176471,
            "J": 72.52941176470588,
            "K": 73.41176470588235,
            "L": 74.5
        }
    }
}