{
    "Average_holding_time": 11.870860927152318,
    "Average_travel_time_passengers": 2521.68230361291,
    "Average_speed_busses": 0.050333333333333334,
    "Average_experienced_crowding": 74.1505771789571,
    "Average_covariation_headway": 0.11607496361330104,
    "Average_covariation_headway_stops": {
        "B": 0.09283508239178416,
        "D": 0.085562462244151,
        "H": 0.1292022117024396,
        "J": 0.10972472103909951,
        "K": 0.10939922229219327,
        "L": 0.10729697797765066,
        "C": 0.07017665099503988,
        "E": 0.057018059839636606,
        "A": 0.07571338095136798,
        "I": 0.10078549213211312,
        "F": 0.06421302039218207,
        "G": 0.10152466869709904
    },
    "Average_excess_waiting_time": {
        "B": 32.40060802840895,
        "D": 31.939089099046612,
        "H": 37.64276563041972,
        "J": 36.41069940076551,
        "K": 35.0322522623365,
        "L": 33.441233378059906,
        "C": 32.807053073338864,
        "E": 32.36723179078115,
        "A": 33.13290066640752,
        "I": 37.37118641345012,
        "F": 34.083758045411,
        "G": 37.263830938956175
    },
    "Holding_per_stop": {
        "B": 8.613861386138614,
        "K": 21.386138613861387,
        "D": 13.96039603960396,
        "L": 15.742574257425742,
        "J": 16.5,
        "H": 10.396039603960396,
        "C": 12.178217821782178,
        "E": 7.7227722772277225,
        "A": 2.9702970297029703,
        "I": 10.2,
        "F": 9.9,
        "G": 12.9
    },
    "Load_per_bus_per_stop": {
        "bus0": {
            "B": 70.29411764705883,
            "C": 71.70588235294117,
            "D": 70.70588235294117,
            "E": 71.05882352941177,
            "F": 71.23529411764706,
            "G": 73.70588235294117,
            "H": 75.47058823529412,
            "I": 74.6470588235294,
            "J": 76.17647058823529,
            "K": 75.70588235294117,
            "L": 76.23529411764706,
            "A": 75.375
        },
        "bus1": {
            "D": 75.58823529411765,
            "E": 75.76470588235294,
            "F": 75.58823529411765,
            "G": 75.05882352941177,
            "H": 75.3529411764706,
            "I": 77.88235294117646,
            "J": 78.29411764705883,
            "K": 76.94117647058823,
            "L": 77.17647058823529,
            "A": 77.23529411764706,
            "B": 80.17647058823529,
            "C": 80.5
        },
        "bus2": {
            "H": 69.82352941176471,
            "I": 72.3529411764706,
            "J": 72.76470588235294,
            "K": 73.94117647058823,
            "L": 74.76470588235294,
            "A": 73.41176470588235,
            "B": 72.70588235294117,
            "C": 73.05882352941177,
            "D": 74.82352941176471,
            "E": 76.25,
            "F": 74.3125,
            "G": 73.75
        },
        "bus3": {
            "J": 71.29411764705883,
            "K": 71.76470588235294,
            "L": 72.70588235294117,
            "A": 71.94117647058823,
            "B": 72.11764705882354,
            "C": 72.52941176470588,
            "D": 72.88235294117646,
            "E": 73.94117647058823,
            "F": 73.58823529411765,
            "G": 73.3125,
            "H": 72.9375,
            "I": 74.3125
        },
        "bus4": {
            "K": 70.70588235294117,
            "L": 69.58823529411765,
            "A": 70.6470588235294,
            "B": 71.70588235294117,
            "C": 72.70588235294117,
            "D": 71.52941176470588,
            "E": 70.6470588235294,
            "F": 71,
            "G": 71.70588235294117,
            "H": 74.17647058823529,
            "I": 75,
            "J": 75.375
        },
        "bus5": {
            "L": 70.17647058823529,
            "A": 72,
            "B": 71.58823529411765,
            "C": 71,
            "D": 72.3529411764706,
            "E": 71.6470588235294,
            "F": 72.05882352941177,
            "G": 73,
            "H": 73.11764705882354,
            "I": 75.05882352941177,
            "J": 76,
            "K": 75.4375
        }
    }
}