{
    "Average_holding_time": 20.13663535439795,
    "Average_travel_time_passengers": 2615.576914138145,
    "Average_speed_busses": 0.048791666666666664,
    "Average_experienced_crowding": 78.29930437795772,
    "Average_covariation_headway": 0.18032525773315405,
    "Average_covariation_headway_stops": {
        "B": 0.14543730879690775,
        "C": 0.14550629713072627,
        "G": 0.14987902142437493,
        "J": 0.1566324500671308,
        "K": 0.15736783667919935,
        "L": 0.1641953158109244,
        "A": 0.14946850672556614,
        "D": 0.11240813843256454,
        "H": 0.12815040715837028,
        "E": 0.11753261632707378,
        "I": 0.12899072006964454,
        "F": 0.12738048092021262
    },
    "Average_excess_waiting_time": {
        "B": 46.05327756732896,
        "C": 44.44387783399844,
        "G": 47.949649793689446,
        "J": 50.740739499988194,
        "K": 49.13602209091408,
        "L": 48.49592753333138,
        "A": 48.60610671382352,
        "D": 43.40016994403328,
        "H": 48.22153056676683,
        "E": 45.18169666011613,
        "I": 49.754300632862225,
        "F": 47.78461302575499
    },
    "Holding_per_stop": {
        "K": 38.57142857142857,
        "L": 20.816326530612244,
        "C": 25.757575757575758,
        "B": 10.408163265306122,
        "G": 17.628865979381445,
        "J": 22.577319587628867,
        "D": 17.142857142857142,
        "A": 7.11340206185567,
        "H": 22.2680412371134,
        "E": 19.285714285714285,
        "I": 22.2680412371134,
        "F": 17.628865979381445
    },
    "Load_per_bus_per_stop": {
        "bus0": {
            "B": 72.3529411764706,
            "C": 73.76470588235294,
            "D": 73,
            "E": 73.6470588235294,
            "F": 74.5625,
            "G": 75.5625,
            "H": 75.8125,
            "I": 76.875,
            "J": 78.1875,
            "K": 77.9375,
            "L": 77.5,
            "A": 76.5625
        },
        "bus1": {
            "C": 78.11764705882354,
            "D": 77.58823529411765,
            "E": 78.17647058823529,
            "F": 78.52941176470588,
            "G": 80.76470588235294,
            "H": 83.75,
            "I": 84.6875,
            "J": 85.8125,
            "K": 84.375,
            "L": 84.625,
            "A": 84.4375,
            "B": 83.1875
        },
        "bus2": {
            "G": 74.70588235294117,
            "H": 74.94117647058823,
            "I": 74.70588235294117,
            "J": 76.1875,
            "K": 76.9375,
            "L": 78,
            "A": 76.75,
            "B": 77.75,
            "C": 78.1875,
            "D": 78.1875,
            "E": 78.125,
            "F": 78.8125
        },
        "bus3": {
            "J": 78.11764705882354,
            "K": 77.11764705882354,
            "L": 76.9375,
            "A": 78.25,
            "B": 79.9375,
            "C": 79.9375,
            "D": 80.625,
            "E": 82.3125,
            "F": 80.9375,
            "G": 81.625,
            "H": 80.9375,
            "I": 80.25
        },
        "bus4": {
            "K": 72.3529411764706,
            "L": 72.3529411764706,
            "A": 72.47058823529412,
            "B": 74.375,
            "C": 75,
            "D": 73.75,
            "E": 75.0625,
            "F": 74.5625,
            "G": 76.125,
            "H": 77.625,
            "I": 77.75,
            "J": 76.5625
        },
        "bus5": {
            "L": 71.11764705882354,
            "A": 72.23529411764706,
            "B": 74.88235294117646,
            "C": 75.94117647058823,
            "D": 77.5,
            "E": 78.4375,
            "F": 78.875,
            "G": 77.8125,
            "H": 77.4375,
            "I": 75.9375,
            "J": 74.8125,
            "K": 74.1875
        }
    }
}