{
    "Average_holding_time": 24.228769497400346,
    "Average_travel_time_passengers": 2599.9404261509944,
    "Average_speed_busses": 0.04808333333333333,
    "Average_experienced_crowding": 76.58667584048672,
    "Average_covariation_headway": 0.1034120724290444,
    "Average_covariation_headway_stops": {
        "C": 0.11563693642775297,
        "D": 0.11001536082350655,
        "F": 0.08478991594774264,
        "G": 0.08898908263777357,
        "I": 0.08265250066358144,
        "K": 0.07695222024540062,
        "H": 0.06185670565696079,
        "E": 0.0667999327668202,
        "L": 0.06250389336365618,
        "J": 0.048676908830674416,
        "A": 0.05572509518794289,
        "B": 0.09090180342851624
    },
    "Average_excess_waiting_time": {
        "C": 50.73679697011039,
        "D": 48.74957038505869,
        "F": 47.31396931439127,
        "G": 45.92676157323751,
        "I": 45.52826934021056,
        "K": 45.272164419354965,
        "H": 46.24884355034925,
        "E": 48.081623075328935,
        "L": 46.30451172520753,
        "J": 45.82902970828354,
        "A": 47.7740909574149,
        "B": 50.85713566646706
    },
    "Holding_per_stop": {
        "G": 27.52577319587629,
        "D": 24.375,
        "K": 30.61855670103093,
        "I": 28.762886597938145,
        "C": 30.9375,
        "F": 27.8125,
        "E": 27.8125,
        "H": 27.5,
        "L": 26.25,
        "J": 27.1875,
        "A": 2.1875,
        "B": 9.473684210526315
    },
    "Load_per_bus_per_stop": {
        "bus0": {
            "C": 72.9375,
            "D": 72.1875,
            "E": 74,
            "F": 72.875,
            "G": 72.375,
            "H": 73.125,
            "I": 75,
            "J": 76.3125,
            "K": 78.1875,
            "L": 77.25,
            "A": 78.4375,
            "B": 77.8125
        },
        "bus1": {
            "D": 71.47058823529412,
            "E": 72.25,
            "F": 72.375,
            "G": 72.5625,
            "H": 72.375,
            "I": 73.375,
            "J": 73.125,
            "K": 73.625,
            "L": 73.75,
            "A": 76.0625,
            "B": 75.1875,
            "C": 75
        },
        "bus2": {
            "F": 77.29411764705883,
            "G": 76.75,
            "H": 77.6875,
            "I": 79.125,
            "J": 80.4375,
            "K": 80.5625,
            "L": 79.75,
            "A": 79.5,
            "B": 79.75,
            "C": 80.5625,
            "D": 81.375,
            "E": 80.6875
        },
        "bus3": {
            "G": 69.70588235294117,
            "H": 71.23529411764706,
            "I": 72.6875,
            "J": 74.75,
            "K": 77.4375,
            "L": 76.0625,
            "A": 73.3125,
            "B": 72.5625,
            "C": 73.3125,
            "D": 74.125,
            "E": 74.6875,
            "F": 74.75
        },
        "bus4": {
            "I": 72.82352941176471,
            "J": 72.11764705882354,
            "K": 73.5625,
            "L": 75.1875,
            "A": 75.5,
            "B": 78.375,
            "C": 78.9375,
            "D": 79.75,
            "E": 82,
            "F": 82.8125,
            "G": 82.0625,
            "H": 79.625
        },
        "bus5": {
            "K": 72.29411764705883,
            "L": 73.58823529411765,
            "A": 74.6875,
            "B": 76.75,
            "C": 77.4375,
            "D": 76.5625,
            "E": 76.1875,
            "F": 78,
            "G": 78.4375,
            "H": 77.9375,
            "I": 76.8125,
            "J": 77.375
        }
    }
} }
    }
}