{
    "Average_holding_time": 19.778534923339013,
    "Average_travel_time_passengers": 2587.193639107014,
    "Average_speed_busses": 0.048916666666666664,
    "Average_experienced_crowding": 76.73799592663381,
    "Average_covariation_headway": 0.15727307711751026,
    "Average_covariation_headway_stops": {
        "B": 0.11847267448456834,
        "D": 0.11397811823053217,
        "F": 0.10913030757623675,
        "I": 0.10948027588427917,
        "J": 0.11338829028351434,
        "A": 0.11284627153584877,
        "E": 0.09351928434327074,
        "K": 0.07731622574439506,
        "G": 0.09595524494537618,
        "C": 0.10192784458130656,
        "L": 0.09853743670948116,
        "H": 0.09041748301605786
    },
    "Average_excess_waiting_time": {
        "B": 43.71749401548033,
        "D": 43.222760554285,
        "F": 43.03223993317965,
        "I": 44.939558358620616,
        "J": 43.54418380799791,
        "A": 44.91257067817253,
        "E": 43.36854223366862,
        "K": 42.98523453053576,
        "G": 43.687961568157164,
        "C": 44.06528410118352,
        "L": 45.70672683942564,
        "H": 45.479927435627246
    },
    "Holding_per_stop": {
        "D": 22.040816326530614,
        "J": 19.591836734693878,
        "F": 26.3265306122449,
        "B": 18.979591836734695,
        "I": 16.836734693877553,
        "A": 8.877551020408163,
        "K": 23.26530612244898,
        "G": 18.06122448979592,
        "C": 26.93877551020408,
        "E": 17.755102040816325,
        "L": 23.50515463917526,
        "H": 15.154639175257731
    },
    "Load_per_bus_per_stop": {
        "bus0": {
            "B": 72.11764705882354,
            "C": 72.05882352941177,
            "D": 72.23529411764706,
            "E": 72.82352941176471,
            "F": 73.3125,
            "G": 72.6875,
            "H": 73.6875,
            "I": 74.25,
            "J": 74.4375,
            "K": 75.8125,
            "L": 76.125,
            "A": 74.6875
        },
        "bus1": {
            "D": 77,
            "E": 78.11764705882354,
            "F": 77.70588235294117,
            "G": 80.17647058823529,
            "H": 79.4375,
            "I": 83.5,
            "J": 83.1875,
            "K": 83.375,
            "L": 84.0625,
            "A": 83.6875,
            "B": 82.3125,
            "C": 81.875
        },
        "bus2": {
            "F": 69,
            "G": 72.11764705882354,
            "H": 74.82352941176471,
            "I": 76.58823529411765,
            "J": 77.625,
            "K": 77.375,
            "L": 77.75,
            "A": 77.125,
            "B": 76.8125,
            "C": 74.875,
            "D": 74.25,
            "E": 72.8125
        },
        "bus3": {
            "I": 75.05882352941177,
            "J": 76.17647058823529,
            "K": 78.29411764705883,
            "L": 79.3125,
            "A": 78.875,
            "B": 79.25,
            "C": 80.4375,
            "D": 80.875,
            "E": 80.375,
            "F": 78.9375,
            "G": 79.0625,
            "H": 78.8125
        },
        "bus4": {
            "J": 71.58823529411765,
            "K": 74.88235294117646,
            "L": 74.94117647058823,
            "A": 74.05882352941177,
            "B": 72.625,
            "C": 74.0625,
            "D": 74,
            "E": 75,
            "F": 76.125,
            "G": 77.75,
            "H": 77.125,
            "I": 75.875
        },
        "bus5": {
            "A": 72.17647058823529,
            "B": 73.23529411764706,
            "C": 72.3529411764706,
            "D": 72,
            "E": 74.1875,
            "F": 73.0625,
            "G": 72.625,
            "H": 72.0625,
            "I": 72.5625,
            "J": 73.125,
            "K": 74.125,
            "L": 75.5
        }
    }
}         "L": 79.125
        }
    }
}