{
    "Average_holding_time": 13.106312292358805,
    "Average_travel_time_passengers": 2533.5193747808817,
    "Average_speed_busses": 0.050166666666666665,
    "Average_experienced_crowding": 74.75710697158961,
    "Average_covariation_headway": 0.15900122597237282,
    "Average_covariation_headway_stops": {
        "B": 0.10620172079664765,
        "C": 0.11893390691482761,
        "E": 0.12033871598253731,
        "G": 0.0972843380512024,
        "I": 0.09865256379460204,
        "L": 0.12418026309172799,
        "D": 0.09613928658409712,
        "F": 0.0782003294627653,
        "H": 0.07081570920073686,
        "J": 0.08239698787065618,
        "A": 0.09003442276181048,
        "K": 0.09881861451167193
    },
    "Average_excess_waiting_time": {
        "B": 36.47379099982601,
        "C": 35.79480284115249,
        "E": 36.18946957779417,
        "G": 34.77425521667101,
        "I": 34.682888184104854,
        "L": 37.758332748464454,
        "D": 36.17248993710115,
        "F": 35.35208535186371,
        "H": 34.88721625864707,
        "J": 35.38955493014049,
        "A": 37.41534180718452,
        "K": 37.6439348272736
    },
    "Holding_per_stop": {
        "C": 21.386138613861387,
        "E": 12.178217821782178,
        "G": 10.099009900990099,
        "I": 11.584158415841584,
        "B": 10.8,
        "L": 17.7,
        "H": 6.3,
        "F": 10.2,
        "D": 14.7,
        "J": 16.2,
        "A": 4.2,
        "K": 21.9
    },
    "Load_per_bus_per_stop": {
        "bus0": {
            "B": 73.11764705882354,
            "C": 75.47058823529412,
            "D": 76.41176470588235,
            "E": 77.23529411764706,
            "F": 77,
            "G": 76.82352941176471,
            "H": 73.17647058823529,
            "I": 73.58823529411765,
            "J": 73.5625,
            "K": 74.375,
            "L": 74.75,
            "A": 75.875
        },
        "bus1": {
            "C": 71.58823529411765,
            "D": 71.58823529411765,
            "E": 71,
            "F": 72.3529411764706,
            "G": 75.23529411764706,
            "H": 74.3529411764706,
            "I": 75.29411764705883,
            "J": 75.88235294117646,
            "K": 76.05882352941177,
            "L": 76.0625,
            "A": 75.875,
            "B": 75.625
        },
        "bus2": {
            "E": 68.11764705882354,
            "F": 68.3529411764706,
            "G": 69.29411764705883,
            "H": 71.29411764705883,
            "I": 72.70588235294117,
            "J": 74,
            "K": 73.88235294117646,
            "L": 74.41176470588235,
            "A": 73.29411764705883,
            "B": 73.375,
            "C": 73.3125,
            "D": 71.75
        },
        "bus3": {
            "G": 75,
            "H": 74.88235294117646,
            "I": 75,
            "J": 74.29411764705883,
            "K": 75.6470588235294,
            "L": 75.82352941176471,
            "A": 77.17647058823529,
            "B": 77.94117647058823,
            "C": 79.47058823529412,
            "D": 79.9375,
            "E": 80.25,
            "F": 79.0625
        },
        "bus4": {
            "I": 71.58823529411765,
            "J": 72.94117647058823,
            "K": 72.58823529411765,
            "L": 73,
            "A": 72.76470588235294,
            "B": 73.58823529411765,
            "C": 71.76470588235294,
            "D": 72.29411764705883,
            "E": 74.94117647058823,
            "F": 75.375,
            "G": 76.25,
            "H": 76.625
        },
        "bus5": {
            "L": 71.70588235294117,
            "A": 71.23529411764706,
            "B": 72,
            "C": 73.76470588235294,
            "D": 73.70588235294117,
            "E": 72.3529411764706,
            "F": 73.23529411764706,
            "G": 73.88235294117646,
            "H": 74.75,
            "I": 76.0625,
            "J": 75.6875,
            "K": 73.875
        }
    }
}