{
    "Average_holding_time": 28.839050131926122,
    "Average_travel_time_passengers": 2681.1848401073316,
    "Average_speed_busses": 0.047375,
    "Average_experienced_crowding": 78.8855817945594,
    "Average_covariation_headway": 0.11503471378545857,
    "Average_covariation_headway_stops": {
        "B": 0.10259807430592238,
        "G": 0.15529926444018566,
        "H": 0.1485486149257338,
        "J": 0.11394391146758076,
        "K": 0.10536690676850813,
        "A": 0.09740965476740789,
        "I": 0.11289282892366896,
        "C": 0.06990640151441037,
        "L": 0.0788282699508801,
        "D": 0.06139627312977995,
        "E": 0.08568752370322777,
        "F": 0.12701635588871132
    },
    "Average_excess_waiting_time": {
        "B": 50.08835676452304,
        "G": 59.591105622858095,
        "H": 57.29334871859129,
        "J": 54.40321768574921,
        "K": 51.955744903298694,
        "A": 51.52582467267763,
        "I": 56.050888593029015,
        "C": 50.19763514690982,
        "L": 52.12803115674353,
        "D": 51.42088956469428,
        "E": 54.19536132291557,
        "F": 58.75872382234911
    },
    "Holding_per_stop": {
        "H": 27.789473684210527,
        "B": 37.8125,
        "K": 30.94736842105263,
        "G": 27.76595744680851,
        "J": 32.21052631578947,
        "A": 19.57894736842105,
        "C": 20.842105263157894,
        "L": 30.94736842105263,
        "I": 30,
        "D": 30.63157894736842,
        "E": 29.04255319148936,
        "F": 28.404255319148938
    },
    "Load_per_bus_per_stop": {
        "bus0": {
            "B": 80.375,
            "C": 79.6875,
            "D": 78.375,
            "E": 76.6875,
            "F": 80.0625,
            "G": 83.5625,
            "H": 83.8125,
            "I": 84.0625,
            "J": 83.75,
            "K": 86.1875,
            "L": 85.9375,
            "A": 86.53333333333333
        },
        "bus1": {
            "G": 76.25,
            "H": 77.8125,
            "I": 78.5625,
            "J": 77.25,
            "K": 77.8125,
            "L": 81.4375,
            "A": 81.1875,
            "B": 80.1875,
            "C": 80,
            "D": 81.6,
            "E": 81.2,
            "F": 79.8
        },
        "bus2": {
            "H": 75.4375,
            "I": 77.875,
            "J": 79.25,
            "K": 81.5625,
            "L": 80.875,
            "A": 80.3125,
            "B": 80.375,
            "C": 80.0625,
            "D": 79.6875,
            "E": 77,
            "F": 77.73333333333333,
            "G": 79.46666666666667
        },
        "bus3": {
            "J": 73.5625,
            "K": 72.9375,
            "L": 72.0625,
            "A": 71.75,
            "B": 72.4375,
            "C": 72.25,
            "D": 73.0625,
            "E": 75.9375,
            "F": 76.75,
            "G": 79.2,
            "H": 78,
            "I": 77.33333333333333
        },
        "bus4": {
            "K": 75.375,
            "L": 74.625,
            "A": 74.625,
            "B": 76.375,
            "C": 78.4375,
            "D": 77.3125,
            "E": 78.5,
            "F": 80.9375,
            "G": 80.1875,
            "H": 79.1875,
            "I": 78.6,
            "J": 79.06666666666666
        },
        "bus5": {
            "A": 75.125,
            "B": 75.9375,
            "C": 75.625,
            "D": 75.0625,
            "E": 75.125,
            "F": 75.8125,
            "G": 77.4375,
            "H": 76.875,
            "I": 78.4375,
            "J": 77.6875,
            "K": 77.86666666666666,
            "L": 78.4
        }
    }
}