{
    "Average_holding_time": 14.148580968280468,
    "Average_travel_time_passengers": 2532.13095860121,
    "Average_speed_busses": 0.049916666666666665,
    "Average_experienced_crowding": 74.41403619177721,
    "Average_covariation_headway": 0.12037348794960011,
    "Average_covariation_headway_stops": {
        "C": 0.10030006971288141,
        "D": 0.09796125382051485,
        "E": 0.10856068087247332,
        "I": 0.12606120702317591,
        "K": 0.11108725915445719,
        "L": 0.1029450370301547,
        "F": 0.08332296172726635,
        "A": 0.06947609604279834,
        "J": 0.1000068114881349,
        "G": 0.08566414213859633,
        "B": 0.07522037333259475,
        "H": 0.11192760044697342
    },
    "Average_excess_waiting_time": {
        "C": 37.60494135246273,
        "D": 36.150447369951905,
        "E": 35.22918392180151,
        "I": 39.25792085480117,
        "K": 38.25887986103845,
        "L": 36.24309047544375,
        "F": 35.28370505526789,
        "A": 36.11297093203797,
        "J": 38.940841691577305,
        "G": 36.82037541036698,
        "B": 37.858865315570995,
        "H": 39.85935305298989
    },
    "Holding_per_stop": {
        "D": 11.4,
        "E": 12.772277227722773,
        "L": 18.3,
        "C": 12.6,
        "I": 15.6,
        "K": 28.2,
        "F": 15.9,
        "A": 2.4,
        "G": 14.1,
        "B": 6.666666666666667,
        "J": 19.393939393939394,
        "H": 12.424242424242424
    },
    "Load_per_bus_per_stop": {
        "bus0": {
            "C": 70.41176470588235,
            "D": 69.17647058823529,
            "E": 69.47058823529412,
            "F": 70.41176470588235,
            "G": 71.47058823529412,
            "H": 71.76470588235294,
            "I": 72.47058823529412,
            "J": 71.58823529411765,
            "K": 72.8125,
            "L": 71.5,
            "A": 73.375,
            "B": 73.5
        },
        "bus1": {
            "D": 71.47058823529412,
            "E": 72.58823529411765,
            "F": 74.47058823529412,
            "G": 74.88235294117646,
            "H": 74.6470588235294,
            "I": 74.82352941176471,
            "J": 75.17647058823529,
            "K": 75.70588235294117,
            "L": 74.5,
            "A": 74.375,
            "B": 74.375,
            "C": 75
        },
        "bus2": {
            "E": 73.17647058823529,
            "F": 73.29411764705883,
            "G": 72.47058823529412,
            "H": 71.6470588235294,
            "I": 70.88235294117646,
            "J": 72.23529411764706,
            "K": 72.23529411764706,
            "L": 73.6470588235294,
            "A": 76.52941176470588,
            "B": 76.8125,
            "C": 77.5625,
            "D": 77.9375
        },
        "bus3": {
            "I": 72.11764705882354,
            "J": 74.41176470588235,
            "K": 73.41176470588235,
            "L": 72.6470588235294,
            "A": 73.29411764705883,
            "B": 72.88235294117646,
            "C": 73.88235294117646,
            "D": 74.9375,
            "E": 75.8125,
            "F": 75.9375,
            "G": 75.375,
            "H": 75.375
        },
        "bus4": {
            "K": 71.47058823529412,
            "L": 72.41176470588235,
            "A": 71.52941176470588,
            "B": 72.6470588235294,
            "C": 74.3529411764706,
            "D": 74.70588235294117,
            "E": 75.29411764705883,
            "F": 77.875,
            "G": 76.625,
            "H": 77.3125,
            "I": 77.5,
            "J": 76.5
        },
        "bus5": {
            "L": 74.3529411764706,
            "A": 74.23529411764706,
            "B": 76.29411764705883,
            "C": 76.23529411764706,
            "D": 77.3529411764706,
            "E": 76.82352941176471,
            "F": 77.17647058823529,
            "G": 78.41176470588235,
            "H": 78.25,
            "I": 78,
            "J": 78.0625,
            "K": 77.1875
        }
    }
}