{
    "Average_holding_time": 31.682991985752448,
    "Average_travel_time_passengers": 2709.2432722826616,
    "Average_speed_busses": 0.04679166666666667,
    "Average_experienced_crowding": 80.41882381773017,
    "Average_covariation_headway": 0.11996128354223824,
    "Average_covariation_headway_stops": {
        "B": 0.15584860387606034,
        "D": 0.12792147322376618,
        "E": 0.12102023758549316,
        "G": 0.10730155804297858,
        "H": 0.10713261042909149,
        "I": 0.11386214114298238,
        "J": 0.09393563084551165,
        "F": 0.083724101302757,
        "C": 0.12484963449716266,
        "K": 0.07873311464839758,
        "L": 0.09668339597658747,
        "A": 0.1333747745634671
    },
    "Average_excess_waiting_time": {
        "B": 62.43885007450518,
        "D": 60.058248426447335,
        "E": 57.8325668007397,
        "G": 56.88170288165202,
        "H": 55.20166029955868,
        "I": 54.056259993798506,
        "J": 54.457895801044685,
        "F": 57.12291505977339,
        "C": 61.57503898286831,
        "K": 55.015361479506964,
        "L": 57.81605834993752,
        "A": 62.382736115258865
    },
    "Holding_per_stop": {
        "I": 36.31578947368421,
        "E": 32.87234042553192,
        "H": 33.191489361702125,
        "D": 26.774193548387096,
        "B": 19.35483870967742,
        "G": 31.914893617021278,
        "J": 39.57446808510638,
        "F": 32.903225806451616,
        "K": 50.42553191489362,
        "C": 45.16129032258065,
        "L": 27.419354838709676,
        "A": 3.870967741935484
    },
    "Load_per_bus_per_stop": {
        "bus0": {
            "B": 75.6875,
            "C": 75.8125,
            "D": 75.625,
            "E": 77.125,
            "F": 79.4375,
            "G": 80,
            "H": 82.25,
            "I": 85.06666666666666,
            "J": 85.8,
            "K": 84.53333333333333,
            "L": 83.46666666666667,
            "A": 82.26666666666667
        },
        "bus1": {
            "D": 78.1875,
            "E": 79.75,
            "F": 81.0625,
            "G": 79.625,
            "H": 80.25,
            "I": 80.625,
            "J": 81.75,
            "K": 79.33333333333333,
            "L": 77.33333333333333,
            "A": 78.6,
            "B": 81,
            "C": 83.66666666666667
        },
        "bus2": {
            "E": 76.9375,
            "F": 76.625,
            "G": 80.375,
            "H": 81.25,
            "I": 80.875,
            "J": 81.625,
            "K": 81.5625,
            "L": 82.93333333333334,
            "A": 81.6,
            "B": 80.93333333333334,
            "C": 82.33333333333333,
            "D": 82.4
        },
        "bus3": {
            "G": 74.6875,
            "H": 74.375,
            "I": 74.375,
            "J": 74.8125,
            "K": 77.0625,
            "L": 77.8125,
            "A": 80.4375,
            "B": 79.6875,
            "C": 79.33333333333333,
            "D": 80.13333333333334,
            "E": 79.6,
            "F": 79.86666666666666
        },
        "bus4": {
            "H": 80.5,
            "I": 80,
            "J": 79.625,
            "K": 79.5,
            "L": 79.125,
            "A": 78.9375,
            "B": 79.625,
            "C": 80.9375,
            "D": 81.9375,
            "E": 81.86666666666666,
            "F": 81.8,
            "G": 83.6
        },
        "bus5": {
            "I": 75.6875,
            "J": 75.3125,
            "K": 75.375,
            "L": 75.9375,
            "A": 77.625,
            "B": 81.4375,
            "C": 83.5,
            "D": 84.875,
            "E": 84.1875,
            "F": 84.25,
            "G": 82.73333333333333,
            "H": 82.33333333333333
        }
    }
}