{
    "Average_holding_time": 32.026666666666664,
    "Average_travel_time_passengers": 2705.6298347405573,
    "Average_speed_busses": 0.046875,
    "Average_experienced_crowding": 80.03658332995853,
    "Average_covariation_headway": 0.12507693328530667,
    "Average_covariation_headway_stops": {
        "D": 0.12221205531550261,
        "E": 0.11809007191950817,
        "G": 0.09290270161223878,
        "H": 0.09333293772478325,
        "I": 0.1051910762089832,
        "L": 0.10387444060850272,
        "A": 0.06964388007277927,
        "J": 0.08007440664215236,
        "F": 0.07882746639924254,
        "K": 0.08100896361639982,
        "B": 0.06571765744573103,
        "C": 0.09091217198984544
    },
    "Average_excess_waiting_time": {
        "D": 60.63180860238384,
        "E": 58.63184512254031,
        "G": 56.83513165071895,
        "H": 54.843114241281285,
        "I": 53.98747630259277,
        "L": 55.77286810374221,
        "A": 55.93379233419762,
        "J": 54.28460347211211,
        "F": 57.60100061545114,
        "K": 56.018122649140196,
        "B": 57.27175482505709,
        "C": 60.211783833686525
    },
    "Holding_per_stop": {
        "L": 18.19148936170213,
        "I": 42.31578947368421,
        "E": 32.87234042553192,
        "H": 33.51063829787234,
        "D": 25.483870967741936,
        "G": 34.46808510638298,
        "J": 45.95744680851064,
        "F": 35.16129032258065,
        "A": 2.872340425531915,
        "B": 17.741935483870968,
        "K": 45.95744680851064,
        "C": 49.67741935483871
    },
    "Load_per_bus_per_stop": {
        "bus0": {
            "D": 74.6875,
            "E": 76.125,
            "F": 77,
            "G": 77.6875,
            "H": 79.9375,
            "I": 80.125,
            "J": 79.66666666666667,
            "K": 81.4,
            "L": 81.53333333333333,
            "A": 82.8,
            "B": 82.06666666666666,
            "C": 81.33333333333333
        },
        "bus1": {
            "E": 78.375,
            "F": 77.4375,
            "G": 79.9375,
            "H": 82,
            "I": 83.125,
            "J": 82.25,
            "K": 83.3125,
            "L": 83.2,
            "A": 83.93333333333334,
            "B": 84.73333333333333,
            "C": 83.26666666666667,
            "D": 84.46666666666667
        },
        "bus2": {
            "G": 79,
            "H": 79.0625,
            "I": 78.3125,
            "J": 79.25,
            "K": 81.3125,
            "L": 82.375,
            "A": 83.625,
            "B": 81.13333333333334,
            "C": 83.06666666666666,
            "D": 82.2,
            "E": 81.86666666666666,
            "F": 83.26666666666667
        },
        "bus3": {
            "H": 74.125,
            "I": 73.75,
            "J": 73.75,
            "K": 74.8125,
            "L": 76.8125,
            "A": 76.375,
            "B": 78.1875,
            "C": 77.4375,
            "D": 78.46666666666667,
            "E": 81.4,
            "F": 80.6,
            "G": 79.2
        },
        "bus4": {
            "I": 72.5,
            "J": 72,
            "K": 72.5625,
            "L": 73.9375,
            "A": 76.3125,
            "B": 76.25,
            "C": 77.4375,
            "D": 77.6875,
            "E": 78.625,
            "F": 77.8,
            "G": 78.86666666666666,
            "H": 78.66666666666667
        },
        "bus5": {
            "L": 78,
            "A": 80.9375,
            "B": 78.8125,
            "C": 80.8125,
            "D": 81.6875,
            "E": 82.1875,
            "F": 81.5625,
            "G": 82.5625,
            "H": 84.26666666666667,
            "I": 84.13333333333334,
            "J": 83.26666666666667,
            "K": 84
        }
    }
}