{
    "Average_holding_time": 17.82755705832629,
    "Average_travel_time_passengers": 2573.5176532219834,
    "Average_speed_busses": 0.049291666666666664,
    "Average_experienced_crowding": 76.14714526180565,
    "Average_covariation_headway": 0.14068059972211697,
    "Average_covariation_headway_stops": {
        "C": 0.1629671588333946,
        "D": 0.15341603513269142,
        "E": 0.14918203497813462,
        "G": 0.1291076055670462,
        "H": 0.11979946279268135,
        "J": 0.1079750817522242,
        "F": 0.11890585162712596,
        "K": 0.0853993710893685,
        "I": 0.09926766840463232,
        "L": 0.08132924437208609,
        "A": 0.10416526017205702,
        "B": 0.14456594967848582
    },
    "Average_excess_waiting_time": {
        "C": 48.134007107708044,
        "D": 45.83320790010225,
        "E": 43.72515687331776,
        "G": 41.99841127047512,
        "H": 39.933698645718664,
        "J": 39.17196715457675,
        "F": 42.71931128228283,
        "K": 39.32649049390102,
        "I": 40.140990434560365,
        "L": 40.85259631728513,
        "A": 43.74034857753463,
        "B": 48.20615935936553
    },
    "Holding_per_stop": {
        "E": 13.93939393939394,
        "J": 21.515151515151516,
        "H": 13.93939393939394,
        "D": 15.454545454545455,
        "G": 19.393939393939394,
        "C": 16.53061224489796,
        "K": 38.78787878787879,
        "I": 24.242424242424242,
        "F": 18.78787878787879,
        "L": 16.53061224489796,
        "A": 1.836734693877551,
        "B": 12.68041237113402
    },
    "Load_per_bus_per_stop": {
        "bus0": {
            "C": 73,
            "D": 74.17647058823529,
            "E": 74.58823529411765,
            "F": 75.47058823529412,
            "G": 74.875,
            "H": 75.625,
            "I": 77.3125,
            "J": 77.5,
            "K": 76.9375,
            "L": 77.375,
            "A": 77.6875,
            "B": 78.25
        },
        "bus1": {
            "D": 72.88235294117646,
            "E": 72.41176470588235,
            "F": 73.41176470588235,
            "G": 74.41176470588235,
            "H": 74.23529411764706,
            "I": 75,
            "J": 74.9375,
            "K": 75.4375,
            "L": 76.0625,
            "A": 76.125,
            "B": 75.875,
            "C": 76.5
        },
        "bus2": {
            "E": 75.94117647058823,
            "F": 75.88235294117646,
            "G": 76.05882352941177,
            "H": 77.11764705882354,
            "I": 78.58823529411765,
            "J": 79.1875,
            "K": 79.5625,
            "L": 80.125,
            "A": 79.5625,
            "B": 78.4375,
            "C": 77.0625,
            "D": 77.5625
        },
        "bus3": {
            "G": 71.6470588235294,
            "H": 72.41176470588235,
            "I": 72.29411764705883,
            "J": 71.52941176470588,
            "K": 72.11764705882354,
            "L": 72.6470588235294,
            "A": 72.75,
            "B": 73.4375,
            "C": 74.375,
            "D": 74.625,
            "E": 74.375,
            "F": 75.5625
        },
        "bus4": {
            "H": 70.76470588235294,
            "I": 69,
            "J": 67.94117647058823,
            "K": 68.52941176470588,
            "L": 70.6470588235294,
            "A": 72.88235294117646,
            "B": 74.70588235294117,
            "C": 74.4375,
            "D": 74.8125,
            "E": 75.3125,
            "F": 74,
            "G": 74.25
        },
        "bus5": {
            "J": 75.47058823529412,
            "K": 74.23529411764706,
            "L": 74.70588235294117,
            "A": 76.82352941176471,
            "B": 78.3529411764706,
            "C": 78.17647058823529,
            "D": 80,
            "E": 81,
            "F": 80,
            "G": 79.5,
            "H": 77.75,
            "I": 79.125
        }
    }
}