{
    "Average_holding_time": 13.777038269550749,
    "Average_travel_time_passengers": 2560.410580361558,
    "Average_speed_busses": 0.050083333333333334,
    "Average_experienced_crowding": 76.11691837016407,
    "Average_covariation_headway": 0.1680485148819804,
    "Average_covariation_headway_stops": {
        "E": 0.14868474430380713,
        "F": 0.1433498673411208,
        "G": 0.14982171619653772,
        "I": 0.1258769112945641,
        "K": 0.10322402614346321,
        "A": 0.10613466966040853,
        "H": 0.12379157597803159,
        "L": 0.08225899271628982,
        "B": 0.08900735825331882,
        "J": 0.09926198128299106,
        "C": 0.10488056591855718,
        "D": 0.1260119259789534
    },
    "Average_excess_waiting_time": {
        "E": 42.21929711630537,
        "F": 39.99188709401369,
        "G": 39.02448645193164,
        "I": 37.21756242690765,
        "K": 35.783664925100595,
        "A": 36.102815184168605,
        "H": 38.49642488518555,
        "L": 36.31909490540011,
        "B": 36.42360974833588,
        "J": 37.05900970607627,
        "C": 38.71679406368878,
        "D": 41.244937593607176
    },
    "Holding_per_stop": {
        "G": 15.148514851485148,
        "K": 14.554455445544555,
        "A": 3.6,
        "F": 14.1,
        "I": 18.11881188118812,
        "E": 16.5,
        "H": 15.6,
        "L": 9.6,
        "B": 11.4,
        "J": 11.4,
        "C": 20.4,
        "D": 14.848484848484848
    },
    "Load_per_bus_per_stop": {
        "bus0": {
            "E": 74.82352941176471,
            "F": 75.05882352941177,
            "G": 73.76470588235294,
            "H": 74.3529411764706,
            "I": 73.6470588235294,
            "J": 73.47058823529412,
            "K": 73.41176470588235,
            "L": 72.75,
            "A": 73.3125,
            "B": 74.875,
            "C": 76.5,
            "D": 77.375
        },
        "bus1": {
            "F": 80.3529411764706,
            "G": 80.29411764705883,
            "H": 80.05882352941177,
            "I": 81.17647058823529,
            "J": 82.17647058823529,
            "K": 81.41176470588235,
            "L": 81.82352941176471,
            "A": 80.76470588235294,
            "B": 82.5,
            "C": 84.875,
            "D": 84.875,
            "E": 85.25
        },
        "bus2": {
            "G": 68.70588235294117,
            "H": 69.47058823529412,
            "I": 70.58823529411765,
            "J": 70.94117647058823,
            "K": 71.17647058823529,
            "L": 72.3529411764706,
            "A": 72.58823529411765,
            "B": 73.17647058823529,
            "C": 73.70588235294117,
            "D": 71.375,
            "E": 73.625,
            "F": 74.3125
        },
        "bus3": {
            "I": 68.41176470588235,
            "J": 71.11764705882354,
            "K": 71.6470588235294,
            "L": 74.70588235294117,
            "A": 73.41176470588235,
            "B": 72.11764705882354,
            "C": 72.58823529411765,
            "D": 72.88235294117646,
            "E": 70.82352941176471,
            "F": 72.75,
            "G": 73.25,
            "H": 73.0625
        },
        "bus4": {
            "K": 70.58823529411765,
            "L": 72.29411764705883,
            "A": 73.82352941176471,
            "B": 74.3529411764706,
            "C": 74.29411764705883,
            "D": 74.76470588235294,
            "E": 74.11764705882354,
            "F": 74.05882352941177,
            "G": 74.58823529411765,
            "H": 74.6875,
            "I": 76.1875,
            "J": 75.0625
        },
        "bus5": {
            "A": 72.70588235294117,
            "B": 76.05882352941177,
            "C": 77.05882352941177,
            "D": 77.29411764705883,
            "E": 77.94117647058823,
            "F": 78,
            "G": 78.17647058823529,
            "H": 76.70588235294117,
            "I": 76.3529411764706,
            "J": 76.3125,
            "K": 77.5,
            "L": 76.75
        }
    }
}