{
    "Average_holding_time": 33.760071620411814,
    "Average_travel_time_passengers": 2716.371667624859,
    "Average_speed_busses": 0.04654166666666667,
    "Average_experienced_crowding": 80.51243098516726,
    "Average_covariation_headway": 0.13826202753843642,
    "Average_covariation_headway_stops": {
        "F": 0.1802092754773169,
        "G": 0.1766414723004824,
        "J": 0.14203401901025936,
        "K": 0.1360977110640065,
        "L": 0.13629950984925063,
        "A": 0.13930592623426394,
        "B": 0.11683528337432211,
        "H": 0.14580655383997287,
        "I": 0.13130005371187867,
        "C": 0.11074408422392659,
        "D": 0.12271507585089618,
        "E": 0.1558099356152944
    },
    "Average_excess_waiting_time": {
        "F": 67.19820789854037,
        "G": 64.94290944930538,
        "J": 63.232674088780016,
        "K": 61.142823224277606,
        "L": 59.48913543566857,
        "A": 58.03100341242714,
        "B": 57.94601893653925,
        "H": 63.50596639494324,
        "I": 63.95279912054053,
        "C": 59.122451365093184,
        "D": 61.854846504376326,
        "E": 66.46347451824323
    },
    "Holding_per_stop": {
        "A": 28.72340425531915,
        "G": 33.87096774193548,
        "K": 36.12903225806452,
        "L": 33.51063829787234,
        "F": 34.83870967741935,
        "J": 36.45161290322581,
        "H": 33.87096774193548,
        "B": 30.638297872340427,
        "I": 32.28260869565217,
        "C": 36.774193548387096,
        "D": 34.516129032258064,
        "E": 33.58695652173913
    },
    "Load_per_bus_per_stop": {
        "bus0": {
            "F": 82,
            "G": 81.8125,
            "H": 80.5,
            "I": 80.75,
            "J": 82.25,
            "K": 83,
            "L": 84.86666666666666,
            "A": 86.46666666666667,
            "B": 86.66666666666667,
            "C": 87.93333333333334,
            "D": 87.06666666666666,
            "E": 86.33333333333333
        },
        "bus1": {
            "G": 75.6875,
            "H": 76.375,
            "I": 76.1875,
            "J": 77.625,
            "K": 78.125,
            "L": 77.5625,
            "A": 78,
            "B": 78.46666666666667,
            "C": 77.6,
            "D": 78.86666666666666,
            "E": 77.6,
            "F": 79.2
        },
        "bus2": {
            "J": 78,
            "K": 77.875,
            "L": 77.6875,
            "A": 78.4375,
            "B": 79.0625,
            "C": 80.2,
            "D": 80.13333333333334,
            "E": 78.53333333333333,
            "F": 80,
            "G": 79.06666666666666,
            "H": 80.33333333333333,
            "I": 82.26666666666667
        },
        "bus3": {
            "K": 73.75,
            "L": 75.625,
            "A": 75.8125,
            "B": 75.5625,
            "C": 76.0625,
            "D": 77.5,
            "E": 75.46666666666667,
            "F": 76.86666666666666,
            "G": 77.53333333333333,
            "H": 76.4,
            "I": 77.86666666666666,
            "J": 77.86666666666666
        },
        "bus4": {
            "L": 77.25,
            "A": 77.5625,
            "B": 76.5,
            "C": 75.4375,
            "D": 74.9375,
            "E": 74.8125,
            "F": 77.0625,
            "G": 79.46666666666667,
            "H": 79.66666666666667,
            "I": 81.6,
            "J": 83.26666666666667,
            "K": 82.93333333333334
        },
        "bus5": {
            "A": 77.625,
            "B": 76.1875,
            "C": 76.4375,
            "D": 77.0625,
            "E": 78.375,
            "F": 78.9375,
            "G": 78.375,
            "H": 79.9375,
            "I": 81.25,
            "J": 83.46666666666667,
            "K": 85,
            "L": 83
        }
    }
}