{
    "Average_holding_time": 32.91184327693678,
    "Average_travel_time_passengers": 2725.4879548822205,
    "Average_speed_busses": 0.04679166666666667,
    "Average_experienced_crowding": 80.57922776411654,
    "Average_covariation_headway": 0.102322687246559,
    "Average_covariation_headway_stops": {
        "B": 0.08357105870913058,
        "D": 0.08265321811223098,
        "F": 0.08217566567241698,
        "H": 0.08044032613291063,
        "I": 0.08974938547162652,
        "L": 0.08473109772623497,
        "J": 0.05508052864439945,
        "E": 0.0493372783296452,
        "G": 0.05102985653213041,
        "C": 0.05913038796519595,
        "A": 0.052022250086765705,
        "K": 0.05397082805948939
    },
    "Average_excess_waiting_time": {
        "B": 56.65422870088065,
        "D": 56.65435365227489,
        "F": 56.78483446885434,
        "H": 56.53526829423885,
        "I": 55.372441395422186,
        "L": 56.74788560561137,
        "J": 55.51094833779234,
        "E": 57.16034018905589,
        "G": 57.084820122366125,
        "C": 57.308201445201576,
        "A": 56.977062629748445,
        "K": 57.204225964820466
    },
    "Holding_per_stop": {
        "I": 36.702127659574465,
        "D": 33.191489361702125,
        "F": 32.87234042553192,
        "B": 30.95744680851064,
        "H": 33.51063829787234,
        "L": 32.5531914893617,
        "J": 31.595744680851062,
        "E": 33.225806451612904,
        "C": 37.096774193548384,
        "G": 34.193548387096776,
        "A": 27.096774193548388,
        "K": 31.93548387096774
    },
    "Load_per_bus_per_stop": {
        "bus0": {
            "B": 79.375,
            "C": 80.1875,
            "D": 81.1875,
            "E": 80.4375,
            "F": 80.1875,
            "G": 81.6875,
            "H": 83.75,
            "I": 82.93333333333334,
            "J": 84.93333333333334,
            "K": 83.8,
            "L": 83,
            "A": 82.73333333333333
        },
        "bus1": {
            "D": 76.375,
            "E": 78.0625,
            "F": 77.9375,
            "G": 79.5,
            "H": 78.375,
            "I": 79.6875,
            "J": 80.0625,
            "K": 79.53333333333333,
            "L": 80.66666666666667,
            "A": 79.06666666666666,
            "B": 80.13333333333334,
            "C": 80.93333333333334
        },
        "bus2": {
            "F": 76.375,
            "G": 76.5,
            "H": 77.25,
            "I": 80.125,
            "J": 79.25,
            "K": 78.1875,
            "L": 78.5,
            "A": 78.73333333333333,
            "B": 79.46666666666667,
            "C": 80.8,
            "D": 81,
            "E": 80.8
        },
        "bus3": {
            "H": 76,
            "I": 76.625,
            "J": 76.5,
            "K": 78.1875,
            "L": 78.3125,
            "A": 79.125,
            "B": 77.375,
            "C": 75.86666666666666,
            "D": 78.2,
            "E": 79.13333333333334,
            "F": 80.53333333333333,
            "G": 81.4
        },
        "bus4": {
            "I": 74.4375,
            "J": 74.5625,
            "K": 76.75,
            "L": 80.0625,
            "A": 83.875,
            "B": 85.1875,
            "C": 83.75,
            "D": 83.4375,
            "E": 83.53333333333333,
            "F": 81.4,
            "G": 80,
            "H": 81.06666666666666
        },
        "bus5": {
            "L": 76.9375,
            "A": 79.1875,
            "B": 79.4375,
            "C": 80.3125,
            "D": 80.1875,
            "E": 82,
            "F": 83.375,
            "G": 82.6,
            "H": 83.26666666666667,
            "I": 83.66666666666667,
            "J": 83.4,
            "K": 82.93333333333334
        }
    }
}      "L": 81.13333333333334
        }
    }
}