{
    "Average_holding_time": 33.55614973262032,
    "Average_travel_time_passengers": 2718.913794065241,
    "Average_speed_busses": 0.04675,
    "Average_experienced_crowding": 79.09534555021439,
    "Average_covariation_headway": 0.13058699900927423,
    "Average_covariation_headway_stops": {
        "B": 0.1599269857161894,
        "C": 0.14542900154575972,
        "D": 0.14526333352424384,
        "E": 0.14470616640542747,
        "F": 0.14079490820384424,
        "J": 0.13504166915099386,
        "G": 0.1060941453310602,
        "K": 0.11855047619994494,
        "H": 0.09165967122766257,
        "L": 0.12371953792579486,
        "I": 0.11346867181959454,
        "A": 0.14097683067790545
    },
    "Average_excess_waiting_time": {
        "B": 65.76337916054678,
        "C": 62.52150699574395,
        "D": 60.743920879861946,
        "E": 59.15113782837642,
        "F": 57.11050203936338,
        "J": 60.031682753148914,
        "G": 56.11238958067378,
        "K": 60.505440130188504,
        "H": 56.85946361047991,
        "L": 62.81762754350825,
        "I": 60.19200437833757,
        "A": 65.88388228157856
    },
    "Holding_per_stop": {
        "F": 31.894736842105264,
        "J": 43.723404255319146,
        "C": 48.38709677419355,
        "E": 30,
        "D": 24.574468085106382,
        "B": 21.29032258064516,
        "G": 33.51063829787234,
        "K": 52.58064516129032,
        "H": 37.659574468085104,
        "L": 34.83870967741935,
        "I": 40.645161290322584,
        "A": 3.260869565217391
    },
    "Load_per_bus_per_stop": {
        "bus0": {
            "B": 76.25,
            "C": 74.5,
            "D": 75.25,
            "E": 77.25,
            "F": 76.8125,
            "G": 77.4,
            "H": 80.4,
            "I": 80.73333333333333,
            "J": 80.33333333333333,
            "K": 79.86666666666666,
            "L": 80.4,
            "A": 80.33333333333333
        },
        "bus1": {
            "C": 73.375,
            "D": 75,
            "E": 74.375,
            "F": 76.375,
            "G": 76.125,
            "H": 74.5,
            "I": 73.6,
            "J": 74.46666666666667,
            "K": 74.86666666666666,
            "L": 75.13333333333334,
            "A": 76.2,
            "B": 77.26666666666667
        },
        "bus2": {
            "D": 76.1875,
            "E": 77.6875,
            "F": 80.5,
            "G": 80.25,
            "H": 81.1875,
            "I": 81.3125,
            "J": 81.6875,
            "K": 81.66666666666667,
            "L": 80.86666666666666,
            "A": 81.4,
            "B": 80.2,
            "C": 79.66666666666667
        },
        "bus3": {
            "E": 75.5625,
            "F": 78.375,
            "G": 81.25,
            "H": 81.9375,
            "I": 83.1875,
            "J": 81.8125,
            "K": 81.5625,
            "L": 79.0625,
            "A": 77.93333333333334,
            "B": 79.73333333333333,
            "C": 79.46666666666667,
            "D": 78.73333333333333
        },
        "bus4": {
            "F": 74.0625,
            "G": 74.8125,
            "H": 76.4375,
            "I": 78.25,
            "J": 79.625,
            "K": 81,
            "L": 82.0625,
            "A": 83.1875,
            "B": 81.4375,
            "C": 81.4,
            "D": 82.8,
            "E": 81
        },
        "bus5": {
            "J": 74.5625,
            "K": 73.5,
            "L": 73.25,
            "A": 75.3125,
            "B": 76.4375,
            "C": 77.4375,
            "D": 78.875,
            "E": 80.26666666666667,
            "F": 79.93333333333334,
            "G": 79.2,
            "H": 80.13333333333334,
            "I": 78.73333333333333
        }
    }
}