{
    "Average_holding_time": 14.699499165275459,
    "Average_travel_time_passengers": 2552.327219237496,
    "Average_speed_busses": 0.049916666666666665,
    "Average_experienced_crowding": 74.16012445671872,
    "Average_covariation_headway": 0.1408145643906905,
    "Average_covariation_headway_stops": {
        "B": 0.11091734727668366,
        "G": 0.17362899623225853,
        "H": 0.16434668934531146,
        "J": 0.13235883132517215,
        "L": 0.10185894414378861,
        "A": 0.09956580349821097,
        "C": 0.0927384786667432,
        "I": 0.13334462592399662,
        "K": 0.11151345995782781,
        "D": 0.09574575444301367,
        "E": 0.11370675720693238,
        "F": 0.15496153467990859
    },
    "Average_excess_waiting_time": {
        "B": 34.92468112173242,
        "G": 44.72813467122023,
        "H": 42.31851951688651,
        "J": 39.611804392975785,
        "L": 37.52131782980848,
        "A": 35.81071564740523,
        "C": 35.36983474087555,
        "I": 41.02734330619336,
        "K": 39.516885622155314,
        "D": 36.92219492396322,
        "E": 39.49134192777177,
        "F": 44.517963132727346
    },
    "Holding_per_stop": {
        "B": 10.693069306930694,
        "H": 12,
        "J": 19.5,
        "A": 3.9,
        "L": 13.8,
        "G": 20,
        "C": 12.9,
        "I": 12.6,
        "K": 33.333333333333336,
        "D": 13.2,
        "E": 12.3,
        "F": 12.424242424242424
    },
    "Load_per_bus_per_stop": {
        "bus0": {
            "B": 72.94117647058823,
            "C": 72.82352941176471,
            "D": 74.3529411764706,
            "E": 75.88235294117646,
            "F": 77.88235294117646,
            "G": 79.17647058823529,
            "H": 82.11764705882354,
            "I": 81.41176470588235,
            "J": 79.41176470588235,
            "K": 77.94117647058823,
            "L": 75.5,
            "A": 78
        },
        "bus1": {
            "G": 74.6470588235294,
            "H": 73,
            "I": 74.58823529411765,
            "J": 74.23529411764706,
            "K": 74.3529411764706,
            "L": 75.23529411764706,
            "A": 75.23529411764706,
            "B": 75.75,
            "C": 76.0625,
            "D": 76.6875,
            "E": 78.3125,
            "F": 78.875
        },
        "bus2": {
            "H": 71.47058823529412,
            "I": 71.05882352941177,
            "J": 73.70588235294117,
            "K": 73.70588235294117,
            "L": 76.17647058823529,
            "A": 76.88235294117646,
            "B": 77.23529411764706,
            "C": 76.52941176470588,
            "D": 77.5625,
            "E": 78.5,
            "F": 77.5625,
            "G": 77.875
        },
        "bus3": {
            "J": 70.58823529411765,
            "K": 70.23529411764706,
            "L": 71.88235294117646,
            "A": 69.70588235294117,
            "B": 69,
            "C": 70.94117647058823,
            "D": 70.82352941176471,
            "E": 71.17647058823529,
            "F": 73.5,
            "G": 73.125,
            "H": 74.5625,
            "I": 75.3125
        },
        "bus4": {
            "L": 69.05882352941177,
            "A": 68.47058823529412,
            "B": 67.29411764705883,
            "C": 67.17647058823529,
            "D": 68.41176470588235,
            "E": 68.3529411764706,
            "F": 67.05882352941177,
            "G": 68.6470588235294,
            "H": 68.25,
            "I": 71.6875,
            "J": 71.875,
            "K": 72
        },
        "bus5": {
            "A": 70.47058823529412,
            "B": 71.11764705882354,
            "C": 72.6470588235294,
            "D": 73.76470588235294,
            "E": 72.41176470588235,
            "F": 72.88235294117646,
            "G": 72.82352941176471,
            "H": 71.52941176470588,
            "I": 72.47058823529412,
            "J": 73.125,
            "K": 74.25,
            "L": 75
        }
    }
}