{
    "Average_holding_time": 32.211367673179396,
    "Average_travel_time_passengers": 2715.816975471332,
    "Average_speed_busses": 0.04691666666666667,
    "Average_experienced_crowding": 79.52412966846802,
    "Average_covariation_headway": 0.10783179994291975,
    "Average_covariation_headway_stops": {
        "C": 0.08991312247744236,
        "E": 0.07839340088397054,
        "H": 0.08817841012680457,
        "I": 0.09607070842925829,
        "L": 0.08895024302636453,
        "A": 0.09701472557751308,
        "F": 0.05020382127111456,
        "J": 0.06584653320770507,
        "B": 0.06168664980259564,
        "D": 0.05489580873805165,
        "K": 0.05440530239736138,
        "G": 0.05463041534033754
    },
    "Average_excess_waiting_time": {
        "C": 55.17791913054691,
        "E": 54.58655141397361,
        "H": 56.82851385921941,
        "I": 55.55280655810071,
        "L": 56.96271294418693,
        "A": 55.73339445411676,
        "F": 55.066504075404566,
        "J": 55.76636472073949,
        "B": 55.46041680079787,
        "D": 55.24846513030582,
        "K": 57.02503032926904,
        "G": 57.16760829383344
    },
    "Holding_per_stop": {
        "E": 30.95744680851064,
        "I": 43.40425531914894,
        "A": 6.0638297872340425,
        "C": 44.680851063829785,
        "L": 25.21276595744681,
        "H": 35.42553191489362,
        "J": 41.48936170212766,
        "B": 21.382978723404257,
        "F": 33.829787234042556,
        "D": 25.21276595744681,
        "K": 45.483870967741936,
        "G": 33.54838709677419
    },
    "Load_per_bus_per_stop": {
        "bus0": {
            "C": 76.0625,
            "D": 76.625,
            "E": 78.5625,
            "F": 79.5625,
            "G": 79.9375,
            "H": 78.9375,
            "I": 80.4375,
            "J": 81.9375,
            "K": 80.8,
            "L": 81.53333333333333,
            "A": 80.4,
            "B": 81.33333333333333
        },
        "bus1": {
            "E": 73.4375,
            "F": 75.125,
            "G": 75.625,
            "H": 77.875,
            "I": 78.5625,
            "J": 79.875,
            "K": 78.8125,
            "L": 80,
            "A": 80.33333333333333,
            "B": 82.46666666666667,
            "C": 80.26666666666667,
            "D": 78.4
        },
        "bus2": {
            "H": 79.9375,
            "I": 80.0625,
            "J": 81.8125,
            "K": 81.25,
            "L": 80.6875,
            "A": 80.375,
            "B": 83.125,
            "C": 84.33333333333333,
            "D": 84.33333333333333,
            "E": 85,
            "F": 83.73333333333333,
            "G": 84
        },
        "bus3": {
            "I": 78.3125,
            "J": 79.4375,
            "K": 80.9375,
            "L": 82.875,
            "A": 82.625,
            "B": 81.5,
            "C": 80.5625,
            "D": 80.3125,
            "E": 77.6,
            "F": 78.4,
            "G": 78.86666666666666,
            "H": 82.13333333333334
        },
        "bus4": {
            "L": 74.1875,
            "A": 76.125,
            "B": 75.3125,
            "C": 76.5625,
            "D": 79.5,
            "E": 77.9375,
            "F": 76.375,
            "G": 77.6,
            "H": 78.66666666666667,
            "I": 78.46666666666667,
            "J": 77.26666666666667,
            "K": 79.4
        },
        "bus5": {
            "A": 74.3125,
            "B": 73.1875,
            "C": 75.5625,
            "D": 76.875,
            "E": 77.5,
            "F": 77.1875,
            "G": 77.4375,
            "H": 77,
            "I": 76.93333333333334,
            "J": 76.46666666666667,
            "K": 78.73333333333333,
            "L": 78.33333333333333
        }
    }
}