{
    "Average_holding_time": 20.8348134991119,
    "Average_holding_actions": [
        610,
        409,
        0,
        0,
        26,
        0
    ],
    "Average_travel_time_passengers": 2046.290083196311,
    "Average_passenger_waiting_time": 327.2447912560934,
    "Average_passenger_in_vehicle_time": 1719.04529194021,
    "Average_speed_busses": 0.04691666666666667,
    "Average_experienced_crowding": 57.53387196225935,
    "Average_covariation_headway": 0.2889969043499097,
    "Average_covariation_headway_stops": {
        "H": 0.2158075053200755,
        "A": 0.20975502817326083,
        "E": 0.20273504350839233,
        "C": 0.2027180533936879,
        "D": 0.19600567636258803,
        "K": 0.21388439254931013,
        "B": 0.19443847241620116,
        "I": 0.2103507255173895,
        "F": 0.2138637656565791,
        "L": 0.21221921532129753,
        "J": 0.20309729854111447,
        "G": 0.2027369101233497
    },
    "Average_excess_waiting_time": {
        "H": 54.0876083179711,
        "A": 55.41253343572146,
        "E": 51.7735336756254,
        "C": 55.23191662590807,
        "D": 52.51027054007659,
        "K": 56.46700854454207,
        "B": 56.13444396899558,
        "I": 55.0380735629098,
        "F": 54.40690320957094,
        "L": 57.81049573079349,
        "J": 55.86242660951183,
        "G": 54.88208297370318
    },
    "Holding_per_stop": {
        "H": 20.106382978723403,
        "E": 18.94736842105263,
        "A": 21.382978723404257,
        "D": 18.51063829787234,
        "K": 18.829787234042552,
        "C": 21.382978723404257,
        "F": 18.51063829787234,
        "I": 24.25531914893617,
        "B": 20.64516129032258,
        "L": 26.129032258064516,
        "J": 19.677419354838708,
        "G": 21.70212765957447
    },
    "Actions_tfl_edges": {
        "BC": [
            94,
            0,
            0
        ],
        "CD": [
            95,
            0,
            0
        ],
        "DE": [
            95,
            0,
            0
        ],
        "GH": [
            95,
            0,
            0
        ],
        "JK": [
            94,
            0,
            0
        ],
        "LA": [
            94,
            0,
            0
        ],
        "HI": [
            94,
            0,
            0
        ],
        "EF": [
            95,
            0,
            0
        ],
        "AB": [
            94,
            0,
            0
        ],
        "KL": [
            94,
            0,
            0
        ],
        "FG": [
            94,
            0,
            0
        ],
        "IJ": [
            94,
            0,
            0
        ]
    },
    "Load_per_bus_per_stop": {
        "bus3": {
            "H": 52.375,
            "I": 52,
            "J": 55.5625,
            "K": 59.1875,
            "L": 59.8125,
            "A": 59.125,
            "B": 59.25,
            "C": 60.5625,
            "D": 59.13333333333333,
            "E": 57,
            "F": 56,
            "G": 55
        },
        "bus5": {
            "A": 51.3125,
            "B": 53.5,
            "C": 52.1875,
            "D": 53,
            "E": 52.3125,
            "F": 52.6875,
            "G": 51.625,
            "H": 50.6,
            "I": 51.2,
            "J": 51.2,
            "K": 53.4,
            "L": 54.53333333333333
        },
        "bus2": {
            "E": 58.1875,
            "F": 58.75,
            "G": 59.5,
            "H": 60.125,
            "I": 60.75,
            "J": 59.5625,
            "K": 59.375,
            "L": 60.25,
            "A": 60.9375,
            "B": 63.13333333333333,
            "C": 62.666666666666664,
            "D": 64.6
        },
        "bus0": {
            "C": 51,
            "D": 51.3125,
            "E": 52.75,
            "F": 54.3125,
            "G": 57.0625,
            "H": 57.8125,
            "I": 58.25,
            "J": 57.25,
            "K": 57.93333333333333,
            "L": 55.666666666666664,
            "A": 52.733333333333334,
            "B": 53.13333333333333
        },
        "bus1": {
            "D": 53.875,
            "E": 54.125,
            "F": 56.8125,
            "G": 56.8125,
            "H": 55.8125,
            "I": 54.3125,
            "J": 55.0625,
            "K": 54.875,
            "L": 53.666666666666664,
            "A": 53.8,
            "B": 55.4,
            "C": 55.666666666666664
        },
        "bus4": {
            "K": 50.4375,
            "L": 51.6875,
            "A": 53.3125,
            "B": 55,
            "C": 56.4375,
            "D": 56.0625,
            "E": 55.875,
            "F": 54.733333333333334,
            "G": 54.8,
            "H": 52.733333333333334,
            "I": 52.6,
            "J": 52.266666666666666
        }
    },
    "Obs_and_actions_busses": {
        "1": 102.16516548468054,
        "0": -135.64831150264126,
        "3": 229.99187964330088,
        "5": 321.2579993987317
    },
    "Obs_and_actions_tfls": {
        "0": 136.96533223388107
    }
}64811,
        "1": 98.9598097500359,
        "0": -140.21463347307397,
        "3": 230.60302710391642
    },
    "Obs_and_actions_tfls": {
        "0": 134.2430515255113
    }
} "0": 130.28621669352486
    }
}