{
    "Average_holding_time": 24.36657681940701,
    "Average_holding_actions": [
        595,
        389,
        0,
        0,
        64,
        0
    ],
    "Average_travel_time_passengers": 2086.796385255013,
    "Average_passenger_waiting_time": 330.9271705770227,
    "Average_passenger_in_vehicle_time": 1755.8692146779829,
    "Average_speed_busses": 0.046375,
    "Average_experienced_crowding": 60.42101835853402,
    "Average_covariation_headway": 0.3109414941747543,
    "Average_covariation_headway_stops": {
        "D": 0.230622910220908,
        "G": 0.2377933953220584,
        "L": 0.2469923889304932,
        "K": 0.23751091471845673,
        "B": 0.2450897491576011,
        "F": 0.22830692020961776,
        "A": 0.2309474264826723,
        "H": 0.21723921001379798,
        "E": 0.21585223568183814,
        "C": 0.2118244449223443,
        "I": 0.2002256479454026,
        "J": 0.21256805445513627
    },
    "Average_excess_waiting_time": {
        "D": 62.22745458854456,
        "G": 59.8255994698801,
        "L": 63.92692158764447,
        "K": 64.55013894983227,
        "B": 64.0534726153611,
        "F": 60.477936558534736,
        "A": 63.050631562413116,
        "H": 59.11585263736936,
        "E": 60.49902911461203,
        "C": 60.81349021521845,
        "I": 58.53629941699933,
        "J": 62.62535986447085
    },
    "Holding_per_stop": {
        "L": 19.677419354838708,
        "G": 32.234042553191486,
        "D": 23.225806451612904,
        "B": 29.032258064516128,
        "F": 26.129032258064516,
        "K": 21.847826086956523,
        "A": 22.258064516129032,
        "H": 24.193548387096776,
        "E": 26.08695652173913,
        "C": 24.130434782608695,
        "I": 21.93548387096774,
        "J": 21.52173913043478
    },
    "Actions_tfl_edges": {
        "AB": [
            93,
            0,
            0
        ],
        "CD": [
            93,
            0,
            0
        ],
        "EF": [
            93,
            0,
            0
        ],
        "FG": [
            94,
            0,
            0
        ],
        "JK": [
            93,
            0,
            0
        ],
        "KL": [
            93,
            0,
            0
        ],
        "LA": [
            93,
            0,
            0
        ],
        "GH": [
            93,
            0,
            0
        ],
        "DE": [
            93,
            0,
            0
        ],
        "BC": [
            93,
            0,
            0
        ],
        "HI": [
            93,
            0,
            0
        ],
        "IJ": [
            93,
            0,
            0
        ]
    },
    "Load_per_bus_per_stop": {
        "bus1": {
            "D": 57.5625,
            "E": 57.5625,
            "F": 60,
            "G": 61,
            "H": 60.6875,
            "I": 61.5,
            "J": 63.86666666666667,
            "K": 62.93333333333333,
            "L": 60.93333333333333,
            "A": 59.86666666666667,
            "B": 60.2,
            "C": 61.46666666666667
        },
        "bus3": {
            "G": 56.3125,
            "H": 57,
            "I": 56.875,
            "J": 56.75,
            "K": 58.1875,
            "L": 58.0625,
            "A": 56.5,
            "B": 56.333333333333336,
            "C": 55.86666666666667,
            "D": 55.8,
            "E": 56.8,
            "F": 58.53333333333333
        },
        "bus5": {
            "L": 60.6875,
            "A": 61.75,
            "B": 61.25,
            "C": 58.6875,
            "D": 57,
            "E": 56.8,
            "F": 58.06666666666667,
            "G": 59.8,
            "H": 61.333333333333336,
            "I": 61.666666666666664,
            "J": 62.86666666666667,
            "K": 64.13333333333334
        },
        "bus4": {
            "K": 54.875,
            "L": 56.375,
            "A": 57.8125,
            "B": 56.9375,
            "C": 58.75,
            "D": 58.2,
            "E": 57.93333333333333,
            "F": 57.93333333333333,
            "G": 57.53333333333333,
            "H": 56.2,
            "I": 57.86666666666667,
            "J": 57.666666666666664
        },
        "bus0": {
            "B": 59.875,
            "C": 58.875,
            "D": 58.25,
            "E": 56.9375,
            "F": 57.5625,
            "G": 57.0625,
            "H": 58.46666666666667,
            "I": 59.733333333333334,
            "J": 62.93333333333333,
            "K": 63.8,
            "L": 63.666666666666664,
            "A": 62.93333333333333
        },
        "bus2": {
            "F": 51.25,
            "G": 51.5,
            "H": 52.6875,
            "I": 51.25,
            "J": 52.375,
            "K": 53,
            "L": 55.6,
            "A": 56.266666666666666,
            "B": 59.8,
            "C": 59.666666666666664,
            "D": 58.2,
            "E": 56.86666666666667
        }
    },
    "Obs_and_actions_busses": {
        "1": 109.14846954395088,
        "3": 227.61571476993907,
        "0": -162.87308410068698,
        "5": 321.47885548949495
    },
    "Obs_and_actions_tfls": {
        "0": 133.90230438716887
    }
}