{
    "Average_holding_time": 24.101423487544483,
    "Average_holding_actions": [
        575,
        423,
        0,
        0,
        51,
        0
    ],
    "Average_travel_time_passengers": 2069.518112575668,
    "Average_passenger_waiting_time": 327.6228910785237,
    "Average_passenger_in_vehicle_time": 1741.895221497112,
    "Average_speed_busses": 0.04683333333333333,
    "Average_experienced_crowding": 59.64879954023823,
    "Average_covariation_headway": 0.31296143917301406,
    "Average_covariation_headway_stops": {
        "F": 0.22622196554339452,
        "D": 0.24488064181722266,
        "B": 0.24398226244183238,
        "K": 0.23428014508089604,
        "G": 0.22974807984305792,
        "A": 0.24116088152258786,
        "E": 0.2412533751493206,
        "C": 0.21810142552485126,
        "H": 0.253524223616842,
        "L": 0.22325314875737073,
        "I": 0.24627921567407002,
        "J": 0.24674988531457337
    },
    "Average_excess_waiting_time": {
        "F": 57.13816708498996,
        "D": 59.14288696210707,
        "B": 58.70981251172924,
        "K": 60.40723008172546,
        "G": 55.58226049678376,
        "A": 60.085970800458085,
        "E": 60.983912867057256,
        "C": 57.112693038172495,
        "H": 62.55129194746468,
        "L": 60.38407325118243,
        "I": 62.5064818610864,
        "J": 64.35459261227936
    },
    "Holding_per_stop": {
        "B": 22.659574468085108,
        "D": 24.25531914893617,
        "G": 22.736842105263158,
        "F": 23.29787234042553,
        "K": 27.096774193548388,
        "A": 24.838709677419356,
        "C": 20.425531914893618,
        "E": 23.29787234042553,
        "H": 25.851063829787233,
        "L": 24.516129032258064,
        "I": 24.193548387096776,
        "J": 26.129032258064516
    },
    "Actions_tfl_edges": {
        "AB": [
            94,
            0,
            0
        ],
        "CD": [
            95,
            0,
            0
        ],
        "EF": [
            95,
            0,
            0
        ],
        "FG": [
            95,
            0,
            0
        ],
        "JK": [
            94,
            0,
            0
        ],
        "LA": [
            94,
            0,
            0
        ],
        "BC": [
            94,
            0,
            0
        ],
        "DE": [
            94,
            0,
            0
        ],
        "GH": [
            95,
            0,
            0
        ],
        "KL": [
            93,
            0,
            0
        ],
        "HI": [
            94,
            0,
            0
        ],
        "IJ": [
            93,
            0,
            0
        ]
    },
    "Load_per_bus_per_stop": {
        "bus2": {
            "F": 54.25,
            "G": 55.0625,
            "H": 56.0625,
            "I": 55.8125,
            "J": 55.25,
            "K": 56.375,
            "L": 58.1875,
            "A": 55.4,
            "B": 55.4,
            "C": 56.53333333333333,
            "D": 54.46666666666667,
            "E": 54.2
        },
        "bus1": {
            "D": 57.4375,
            "E": 59.0625,
            "F": 59.1875,
            "G": 58.6875,
            "H": 58.1875,
            "I": 60.3125,
            "J": 61.3125,
            "K": 59.625,
            "L": 57.93333333333333,
            "A": 57.4,
            "B": 58.4,
            "C": 60.06666666666667
        },
        "bus0": {
            "B": 57.0625,
            "C": 57.6875,
            "D": 58.9375,
            "E": 58.25,
            "F": 56.875,
            "G": 56.875,
            "H": 58.875,
            "I": 59.266666666666666,
            "J": 59.46666666666667,
            "K": 61,
            "L": 59.53333333333333,
            "A": 60.53333333333333
        },
        "bus4": {
            "K": 55.375,
            "L": 55.5,
            "A": 56.125,
            "B": 57.3125,
            "C": 58.375,
            "D": 58.125,
            "E": 58.375,
            "F": 59.2,
            "G": 60.53333333333333,
            "H": 59.6,
            "I": 58.06666666666667,
            "J": 57.733333333333334
        },
        "bus3": {
            "G": 55.8125,
            "H": 55.375,
            "I": 55.3125,
            "J": 56.9375,
            "K": 58.4375,
            "L": 56.3125,
            "A": 56.0625,
            "B": 54.125,
            "C": 55.875,
            "D": 55.53333333333333,
            "E": 57,
            "F": 57.13333333333333
        },
        "bus5": {
            "A": 58.5,
            "B": 56.9375,
            "C": 57.375,
            "D": 58.3125,
            "E": 56.8125,
            "F": 56.25,
            "G": 55.9375,
            "H": 58.333333333333336,
            "I": 59.86666666666667,
            "J": 61.06666666666667,
            "K": 62.333333333333336,
            "L": 61.53333333333333
        }
    },
    "Obs_and_actions_busses": {
        "5": 354.1911433357138,
        "0": -164.77207546682948,
        "1": 102.75045678648918,
        "3": 225.56722444357092
    },
    "Obs_and_actions_tfls": {
        "0": 136.12253642192405
    }
}tions_tfls": {
        "0": 133.7610020597673
    }
}45,
        "1": 100.3146352478993,
        "5": 380.9608610311542,
        "3": 232.4328871553394
    },
    "Obs_and_actions_tfls": {
        "0": 143.5054674175698
    }
}