{
    "Average_holding_time": 25.862068965517242,
    "Average_holding_actions": [
        586,
        366,
        0,
        0,
        67,
        0
    ],
    "Average_travel_time_passengers": 2093.041981152538,
    "Average_passenger_waiting_time": 336.60886252949905,
    "Average_passenger_in_vehicle_time": 1756.4331186230397,
    "Average_speed_busses": 0.04591666666666667,
    "Average_experienced_crowding": 60.51910334648316,
    "Average_covariation_headway": 0.2978278256887289,
    "Average_covariation_headway_stops": {
        "G": 0.2148452359508238,
        "A": 0.23883322836597012,
        "H": 0.22056914341631262,
        "F": 0.23415060751571606,
        "I": 0.2432909105729546,
        "B": 0.24207838334851867,
        "C": 0.24011268314010467,
        "J": 0.24590834501769085,
        "D": 0.23105201477368564,
        "K": 0.22285611639369626,
        "E": 0.23382670364661703,
        "L": 0.2241795193959
    },
    "Average_excess_waiting_time": {
        "G": 62.76099045199203,
        "A": 66.65921997333277,
        "H": 61.78485358516417,
        "F": 67.42197607144578,
        "I": 63.255488124316,
        "B": 65.00065119437892,
        "C": 66.39878383229671,
        "J": 65.54681878093544,
        "D": 66.86407161091705,
        "K": 64.50404635940794,
        "E": 68.82615544224535,
        "L": 66.04016432498884
    },
    "Holding_per_stop": {
        "G": 24.782608695652176,
        "H": 22.5,
        "I": 23.548387096774192,
        "B": 23.152173913043477,
        "A": 26.08695652173913,
        "F": 28.681318681318682,
        "C": 26.08695652173913,
        "J": 26.41304347826087,
        "D": 27.391304347826086,
        "K": 26.41304347826087,
        "E": 28.35164835164835,
        "L": 27.032967032967033
    },
    "Actions_tfl_edges": {
        "AB": [
            93,
            0,
            0
        ],
        "EF": [
            92,
            0,
            0
        ],
        "FG": [
            92,
            0,
            0
        ],
        "GH": [
            93,
            0,
            0
        ],
        "HI": [
            93,
            0,
            0
        ],
        "LA": [
            92,
            0,
            0
        ],
        "IJ": [
            93,
            0,
            0
        ],
        "BC": [
            92,
            0,
            0
        ],
        "CD": [
            92,
            0,
            0
        ],
        "JK": [
            92,
            0,
            0
        ],
        "DE": [
            92,
            0,
            0
        ],
        "KL": [
            92,
            0,
            0
        ]
    },
    "Load_per_bus_per_stop": {
        "bus2": {
            "G": 55.4375,
            "H": 55.6875,
            "I": 57.5625,
            "J": 55.125,
            "K": 57.86666666666667,
            "L": 58.4,
            "A": 60,
            "B": 60.2,
            "C": 59,
            "D": 59.733333333333334,
            "E": 59.93333333333333,
            "F": 60.266666666666666
        },
        "bus5": {
            "A": 52.1875,
            "B": 51.4375,
            "C": 52,
            "D": 55.125,
            "E": 55.93333333333333,
            "F": 61.266666666666666,
            "G": 62.333333333333336,
            "H": 61,
            "I": 60.13333333333333,
            "J": 62.06666666666667,
            "K": 61.13333333333333,
            "L": 59.6
        },
        "bus3": {
            "H": 53.3125,
            "I": 53.1875,
            "J": 53.375,
            "K": 52.625,
            "L": 52.53333333333333,
            "A": 53.733333333333334,
            "B": 57.333333333333336,
            "C": 59.6,
            "D": 59.46666666666667,
            "E": 56.93333333333333,
            "F": 57.53333333333333,
            "G": 56.53333333333333
        },
        "bus1": {
            "F": 56,
            "G": 56.375,
            "H": 55.4,
            "I": 55.8,
            "J": 57.8,
            "K": 58,
            "L": 59.46666666666667,
            "A": 60.13333333333333,
            "B": 59.46666666666667,
            "C": 60.333333333333336,
            "D": 59.8,
            "E": 60.13333333333333
        },
        "bus4": {
            "I": 58.25,
            "J": 58.0625,
            "K": 58.25,
            "L": 58.6875,
            "A": 60.6875,
            "B": 61.266666666666666,
            "C": 63,
            "D": 62.13333333333333,
            "E": 61.46666666666667,
            "F": 63.13333333333333,
            "G": 62.733333333333334,
            "H": 63.2
        },
        "bus0": {
            "B": 59.5625,
            "C": 60.4375,
            "D": 59.0625,
            "E": 59.6875,
            "F": 59.6875,
            "G": 62.46666666666667,
            "H": 62.733333333333334,
            "I": 62.333333333333336,
            "J": 63.4,
            "K": 65.13333333333334,
            "L": 64.6,
            "A": 63.666666666666664
        }
    },
    "Obs_and_actions_busses": {
        "5": 362.2070175348915,
        "0": -167.2871384792708,
        "3": 223.42336632582976,
        "1": 94.0040543470231
    },
    "Obs_and_actions_tfls": {
        "0": 130.80405918771734
    }
}