{
    "Average_holding_time": 22.54708520179372,
    "Average_holding_actions": [
        597,
        400,
        0,
        0,
        42,
        0
    ],
    "Average_travel_time_passengers": 2076.0068902668363,
    "Average_passenger_waiting_time": 327.20949906737553,
    "Average_passenger_in_vehicle_time": 1748.797391199469,
    "Average_speed_busses": 0.04645833333333333,
    "Average_experienced_crowding": 59.340255636336494,
    "Average_covariation_headway": 0.2833855233307582,
    "Average_covariation_headway_stops": {
        "K": 0.20951165020572274,
        "J": 0.20791048727860528,
        "D": 0.23005654982993387,
        "A": 0.218641320046482,
        "F": 0.2039338192355977,
        "H": 0.20427291787106944,
        "L": 0.21499530162577882,
        "B": 0.2085322413714249,
        "E": 0.18800875299957062,
        "I": 0.1920984741448617,
        "G": 0.22184803409650372,
        "C": 0.22068349984492217
    },
    "Average_excess_waiting_time": {
        "K": 55.41283959392291,
        "J": 57.01087524408808,
        "D": 59.65998752776687,
        "A": 55.99035840762832,
        "F": 57.846129740237416,
        "H": 56.47821715258772,
        "L": 56.91370662879359,
        "B": 56.47643898580628,
        "E": 57.76636900004331,
        "I": 57.97378802955933,
        "G": 61.991530934290324,
        "C": 59.482552768872495
    },
    "Holding_per_stop": {
        "K": 22.340425531914892,
        "A": 22.340425531914892,
        "F": 23.548387096774192,
        "J": 26.129032258064516,
        "D": 20.64516129032258,
        "H": 21.612903225806452,
        "L": 23.548387096774192,
        "B": 20.64516129032258,
        "E": 16.956521739130434,
        "G": 25.434782608695652,
        "I": 21.195652173913043,
        "C": 26.129032258064516
    },
    "Actions_tfl_edges": {
        "CD": [
            94,
            0,
            0
        ],
        "EF": [
            93,
            0,
            0
        ],
        "GH": [
            93,
            0,
            0
        ],
        "IJ": [
            93,
            0,
            0
        ],
        "JK": [
            94,
            0,
            0
        ],
        "LA": [
            94,
            0,
            0
        ],
        "KL": [
            94,
            0,
            0
        ],
        "AB": [
            94,
            0,
            0
        ],
        "FG": [
            93,
            0,
            0
        ],
        "DE": [
            93,
            0,
            0
        ],
        "HI": [
            93,
            0,
            0
        ],
        "BC": [
            93,
            0,
            0
        ]
    },
    "Load_per_bus_per_stop": {
        "bus4": {
            "K": 54.3125,
            "L": 56.25,
            "A": 57.25,
            "B": 59.9375,
            "C": 59.3125,
            "D": 60.375,
            "E": 61.4375,
            "F": 58.06666666666667,
            "G": 57.13333333333333,
            "H": 56.666666666666664,
            "I": 56.46666666666667,
            "J": 56.86666666666667
        },
        "bus3": {
            "J": 55.4375,
            "K": 56.4375,
            "L": 56.1875,
            "A": 53.75,
            "B": 53.6875,
            "C": 55.8125,
            "D": 54.9375,
            "E": 57.2,
            "F": 56.46666666666667,
            "G": 60.93333333333333,
            "H": 59.46666666666667,
            "I": 59.4
        },
        "bus0": {
            "D": 56.375,
            "E": 57.0625,
            "F": 57.5625,
            "G": 56.5,
            "H": 55.375,
            "I": 55.5,
            "J": 55.86666666666667,
            "K": 57.13333333333333,
            "L": 57.8,
            "A": 61.4,
            "B": 61.93333333333333,
            "C": 61.93333333333333
        },
        "bus5": {
            "A": 58.125,
            "B": 57.8125,
            "C": 59.6875,
            "D": 59.125,
            "E": 60.5,
            "F": 60.9375,
            "G": 62.75,
            "H": 63.13333333333333,
            "I": 63.46666666666667,
            "J": 63.93333333333333,
            "K": 62.666666666666664,
            "L": 61.93333333333333
        },
        "bus1": {
            "F": 52.375,
            "G": 55.0625,
            "H": 55.4375,
            "I": 56.625,
            "J": 56.6875,
            "K": 55.5,
            "L": 55.333333333333336,
            "A": 53.46666666666667,
            "B": 54.4,
            "C": 56.06666666666667,
            "D": 54.13333333333333,
            "E": 55.266666666666666
        },
        "bus2": {
            "H": 56.9375,
            "I": 57.4375,
            "J": 58.8125,
            "K": 60.0625,
            "L": 58.8125,
            "A": 59.25,
            "B": 59.5,
            "C": 59.2,
            "D": 59.13333333333333,
            "E": 58.8,
            "F": 57.93333333333333,
            "G": 60.266666666666666
        }
    },
    "Obs_and_actions_busses": {
        "0": -136.0088344869404,
        "1": 92.2461997289667,
        "5": 316.7754948425019,
        "3": 218.80323465657463
    },
    "Obs_and_actions_tfls": {
        "0": 131.64878675732592
    }
}