{
    "Average_holding_time": 44.55357142857143,
    "Average_holding_actions": [
        373,
        63,
        432,
        128,
        11,
        0
    ],
    "Average_travel_time_passengers": 2282.8223126088005,
    "Average_passenger_waiting_time": 363.1888072748836,
    "Average_passenger_in_vehicle_time": 1919.6335053339362,
    "Average_speed_busses": 0.042,
    "Average_experienced_crowding": 91.41802264185775,
    "Average_covariation_headway": 0.29279925078476776,
    "Average_covariation_headway_stops": {
        "H": 0.20652897808395118,
        "A": 0.2046738177353594,
        "K": 0.18463377351177188,
        "E": 0.19361660810909115,
        "I": 0.1887173415228377,
        "D": 0.18205659082439593,
        "C": 0.2045306766468231,
        "B": 0.18411929720630224,
        "F": 0.19066157639216696,
        "J": 0.1718010460572928,
        "L": 0.1901212711987517,
        "G": 0.18655031293188637
    },
    "Average_excess_waiting_time": {
        "H": 90.7710035055025,
        "A": 93.20955719702857,
        "K": 89.68615583057863,
        "E": 88.22105321786046,
        "I": 90.65719866080525,
        "D": 89.01708823565315,
        "C": 93.58572550042174,
        "B": 92.5425093481403,
        "F": 89.54876944028223,
        "J": 90.57115089396052,
        "L": 92.2783913818875,
        "G": 90.23419978001215
    },
    "Holding_per_stop": {
        "H": 42.857142857142854,
        "A": 48.57142857142857,
        "E": 38.11764705882353,
        "K": 46.42857142857143,
        "I": 47.142857142857146,
        "D": 41.42857142857143,
        "C": 45,
        "L": 45.714285714285715,
        "B": 47.71084337349398,
        "F": 39.642857142857146,
        "J": 48.57142857142857,
        "G": 43.57142857142857
    },
    "Actions_tfl_edges": {
        "CD": [
            2,
            56,
            27
        ],
        "GH": [
            6,
            72,
            7
        ],
        "JK": [
            2,
            81,
            2
        ],
        "HI": [
            9,
            72,
            3
        ],
        "FG": [
            15,
            64,
            5
        ]
    },
    "Load_per_bus_per_stop": {
        "bus3": {
            "H": 113.66666666666667,
            "I": 110.64285714285714,
            "J": 104.5,
            "K": 94.92857142857143,
            "L": 85.57142857142857,
            "A": 74.35714285714286,
            "B": 62.785714285714285,
            "C": 59.357142857142854,
            "D": 55.785714285714285,
            "E": 54.357142857142854,
            "F": 78.71428571428571,
            "G": 112.5
        },
        "bus5": {
            "A": 72.57142857142857,
            "B": 61.214285714285715,
            "C": 55.07142857142857,
            "D": 54.07142857142857,
            "E": 53.5,
            "F": 81.21428571428571,
            "G": 118.71428571428571,
            "H": 126.21428571428571,
            "I": 121,
            "J": 111.21428571428571,
            "K": 101.35714285714286,
            "L": 89.85714285714286
        },
        "bus4": {
            "K": 97.28571428571429,
            "L": 86.71428571428571,
            "A": 74.64285714285714,
            "B": 65.07142857142857,
            "C": 60.285714285714285,
            "D": 56.857142857142854,
            "E": 55.642857142857146,
            "F": 82.07142857142857,
            "G": 119.42857142857143,
            "H": 128,
            "I": 124.5,
            "J": 116.35714285714286
        },
        "bus2": {
            "E": 46.333333333333336,
            "F": 72.92857142857143,
            "G": 107.28571428571429,
            "H": 118.85714285714286,
            "I": 116.92857142857143,
            "J": 109.14285714285714,
            "K": 97.21428571428571,
            "L": 87.57142857142857,
            "A": 76.42857142857143,
            "B": 65.92857142857143,
            "C": 57.92857142857143,
            "D": 52.92857142857143
        },
        "bus1": {
            "D": 46.714285714285715,
            "E": 44.42857142857143,
            "F": 68,
            "G": 100.14285714285714,
            "H": 107.42857142857143,
            "I": 101.64285714285714,
            "J": 95.64285714285714,
            "K": 89.85714285714286,
            "L": 79.71428571428571,
            "A": 71.14285714285714,
            "B": 60.42857142857143,
            "C": 54.642857142857146
        },
        "bus0": {
            "C": 52,
            "D": 49.285714285714285,
            "E": 47.92857142857143,
            "F": 74.64285714285714,
            "G": 111.71428571428571,
            "H": 120.21428571428571,
            "I": 113.64285714285714,
            "J": 106.07142857142857,
            "K": 98.42857142857143,
            "L": 84.85714285714286,
            "A": 71.5,
            "B": 61.84615384615385
        }
    },
    "Obs_and_actions_busses": {
        "2": 59.585668322762345,
        "4": 238.9333929432967,
        "0": -187.71590248952177,
        "1": -35.03629792709245,
        "5": 101.37542296023743,
        "3": 33.47178807498858
    },
    "Obs_and_actions_tfls": {
        "1": 47.15795915157456,
        "2": -315.64534370529265,
        "0": -217.0964872488855
    }
}