{
    "Average_holding_time": 43.12127236580517,
    "Average_holding_actions": [
        391,
        67,
        413,
        122,
        13,
        0
    ],
    "Average_travel_time_passengers": 2273.1318541693363,
    "Average_passenger_waiting_time": 359.35528251767,
    "Average_passenger_in_vehicle_time": 1913.7765716516496,
    "Average_speed_busses": 0.041916666666666665,
    "Average_experienced_crowding": 92.6620970472587,
    "Average_covariation_headway": 0.28827851263056264,
    "Average_covariation_headway_stops": {
        "H": 0.19503937978123867,
        "J": 0.1920320451084636,
        "A": 0.20218822877594672,
        "D": 0.21182908778489898,
        "E": 0.2054377050073209,
        "K": 0.16816847291137638,
        "I": 0.16207739546617098,
        "B": 0.17811466151336747,
        "L": 0.16163669152474203,
        "F": 0.17457641507492508,
        "G": 0.16710143307191433,
        "C": 0.19169796208715312
    },
    "Average_excess_waiting_time": {
        "H": 92.18952622843005,
        "J": 90.44632710767189,
        "A": 90.21900966486464,
        "D": 95.707227732636,
        "E": 92.39771084244029,
        "K": 85.3530541380918,
        "I": 89.87352467422198,
        "B": 90.2727445982917,
        "L": 87.33089779449301,
        "F": 89.87493080931614,
        "G": 90.94352591766051,
        "C": 94.49897154939424
    },
    "Holding_per_stop": {
        "A": 38.57142857142857,
        "H": 40.714285714285715,
        "J": 47.142857142857146,
        "K": 48.705882352941174,
        "E": 36.42857142857143,
        "D": 38.214285714285715,
        "I": 40.48192771084337,
        "B": 53.214285714285715,
        "L": 49.285714285714285,
        "F": 40,
        "G": 44.81927710843374,
        "C": 39.75903614457831
    },
    "Actions_tfl_edges": {
        "CD": [
            0,
            53,
            31
        ],
        "GH": [
            14,
            67,
            3
        ],
        "JK": [
            8,
            77,
            0
        ],
        "HI": [
            11,
            71,
            2
        ],
        "FG": [
            16,
            62,
            6
        ]
    },
    "Load_per_bus_per_stop": {
        "bus2": {
            "H": 115.35714285714286,
            "I": 110.92857142857143,
            "J": 104.57142857142857,
            "K": 96.92857142857143,
            "L": 85.5,
            "A": 76.14285714285714,
            "B": 64.78571428571429,
            "C": 59.142857142857146,
            "D": 53.285714285714285,
            "E": 52.57142857142857,
            "F": 78.42857142857143,
            "G": 114.3076923076923
        },
        "bus3": {
            "J": 94.35714285714286,
            "K": 86.64285714285714,
            "L": 77.57142857142857,
            "A": 68.64285714285714,
            "B": 58.42857142857143,
            "C": 51.857142857142854,
            "D": 48.785714285714285,
            "E": 45.142857142857146,
            "F": 67.42857142857143,
            "G": 101.42857142857143,
            "H": 110.42857142857143,
            "I": 106.57142857142857
        },
        "bus5": {
            "A": 76.71428571428571,
            "B": 65.71428571428571,
            "C": 59.42857142857143,
            "D": 56.5,
            "E": 57,
            "F": 87,
            "G": 124.07142857142857,
            "H": 132.92857142857142,
            "I": 128.35714285714286,
            "J": 119.64285714285714,
            "K": 107.42857142857143,
            "L": 95.57142857142857
        },
        "bus0": {
            "D": 48.42857142857143,
            "E": 48.785714285714285,
            "F": 74.71428571428571,
            "G": 112.71428571428571,
            "H": 121.42857142857143,
            "I": 115.21428571428571,
            "J": 108,
            "K": 100.78571428571429,
            "L": 88.57142857142857,
            "A": 75.07142857142857,
            "B": 65.21428571428571,
            "C": 56.46153846153846
        },
        "bus1": {
            "E": 49.92857142857143,
            "F": 74.21428571428571,
            "G": 114.42857142857143,
            "H": 124.92857142857143,
            "I": 122.5,
            "J": 116.42857142857143,
            "K": 107.14285714285714,
            "L": 96.64285714285714,
            "A": 84.35714285714286,
            "B": 71.85714285714286,
            "C": 64.35714285714286,
            "D": 57.357142857142854
        },
        "bus4": {
            "K": 87.73333333333333,
            "L": 76.92857142857143,
            "A": 66.85714285714286,
            "B": 56.07142857142857,
            "C": 49.92857142857143,
            "D": 48.357142857142854,
            "E": 47.5,
            "F": 72.57142857142857,
            "G": 109,
            "H": 117.71428571428571,
            "I": 112.14285714285714,
            "J": 104.35714285714286
        }
    },
    "Obs_and_actions_busses": {
        "4": 259.52046245291575,
        "0": -187.94609248212848,
        "1": -14.774151584727457,
        "2": 60.06237259875401,
        "5": 67.48485084891682
    },
    "Obs_and_actions_tfls": {
        "1": 61.993471913944234,
        "2": -273.4742675948843,
        "0": -264.6845875154275
    }
}