{
    "Average_holding_time": 45.36072144288577,
    "Average_holding_actions": [
        379,
        36,
        436,
        134,
        13,
        0
    ],
    "Average_travel_time_passengers": 2284.386316485529,
    "Average_passenger_waiting_time": 381.09693306268844,
    "Average_passenger_in_vehicle_time": 1903.2893834228385,
    "Average_speed_busses": 0.04158333333333333,
    "Average_experienced_crowding": 93.56451254593456,
    "Average_covariation_headway": 0.3339440585790793,
    "Average_covariation_headway_stops": {
        "I": 0.284439331079701,
        "K": 0.2658860795336159,
        "A": 0.25305355442872074,
        "L": 0.2455989837991448,
        "D": 0.2420480236123571,
        "C": 0.25170802446084567,
        "J": 0.26647153747599167,
        "E": 0.22452859223560515,
        "B": 0.2513352766406998,
        "F": 0.24292984425711636,
        "G": 0.23631604775396375,
        "H": 0.27296405950645414
    },
    "Average_excess_waiting_time": {
        "I": 111.9465110960225,
        "K": 107.73269068643339,
        "A": 100.86454545843748,
        "L": 101.72838339321282,
        "D": 97.47520151554272,
        "C": 100.8556995854409,
        "J": 110.36711309654225,
        "E": 96.3202911274044,
        "B": 103.04755247168771,
        "F": 101.45919596337558,
        "G": 103.61669790339909,
        "H": 112.19369301716102
    },
    "Holding_per_stop": {
        "A": 47.142857142857146,
        "D": 43.57142857142857,
        "I": 47.71084337349398,
        "L": 46.98795180722892,
        "K": 47.71084337349398,
        "C": 41.07142857142857,
        "E": 43.214285714285715,
        "J": 45.36585365853659,
        "B": 49.51807228915663,
        "F": 43.373493975903614,
        "G": 44.81927710843374,
        "H": 43.90243902439025
    },
    "Actions_tfl_edges": {
        "CD": [
            0,
            47,
            38
        ],
        "HI": [
            15,
            64,
            4
        ],
        "JK": [
            11,
            70,
            2
        ],
        "FG": [
            17,
            54,
            12
        ],
        "GH": [
            19,
            58,
            6
        ]
    },
    "Load_per_bus_per_stop": {
        "bus2": {
            "I": 118.35714285714286,
            "J": 111.78571428571429,
            "K": 99.92857142857143,
            "L": 88.57142857142857,
            "A": 77.71428571428571,
            "B": 66.64285714285714,
            "C": 59.857142857142854,
            "D": 56,
            "E": 54.642857142857146,
            "F": 82.35714285714286,
            "G": 123.76923076923077,
            "H": 133
        },
        "bus3": {
            "K": 90.64285714285714,
            "L": 80.07142857142857,
            "A": 66.92857142857143,
            "B": 57.785714285714285,
            "C": 54.5,
            "D": 51.214285714285715,
            "E": 52.214285714285715,
            "F": 78.35714285714286,
            "G": 111.42857142857143,
            "H": 119.23076923076923,
            "I": 115,
            "J": 106.38461538461539
        },
        "bus5": {
            "A": 64.5,
            "B": 56.07142857142857,
            "C": 52.857142857142854,
            "D": 50.42857142857143,
            "E": 50.714285714285715,
            "F": 75.35714285714286,
            "G": 109.21428571428571,
            "H": 116.64285714285714,
            "I": 114.21428571428571,
            "J": 104.78571428571429,
            "K": 93.21428571428571,
            "L": 79.78571428571429
        },
        "bus4": {
            "L": 82.78571428571429,
            "A": 70.78571428571429,
            "B": 61.285714285714285,
            "C": 53.57142857142857,
            "D": 49.785714285714285,
            "E": 49.57142857142857,
            "F": 77,
            "G": 114.14285714285714,
            "H": 124.92857142857143,
            "I": 119.85714285714286,
            "J": 111,
            "K": 100.76923076923077
        },
        "bus1": {
            "D": 54,
            "E": 52.42857142857143,
            "F": 76.78571428571429,
            "G": 120.92857142857143,
            "H": 130.92857142857142,
            "I": 125.5,
            "J": 118.35714285714286,
            "K": 108.07142857142857,
            "L": 95,
            "A": 82.35714285714286,
            "B": 70.21428571428571,
            "C": 62.785714285714285
        },
        "bus0": {
            "C": 48.642857142857146,
            "D": 44.714285714285715,
            "E": 44.285714285714285,
            "F": 69.21428571428571,
            "G": 104,
            "H": 111.5,
            "I": 105.92857142857143,
            "J": 98.5,
            "K": 87.57142857142857,
            "L": 77.21428571428571,
            "A": 66.71428571428571,
            "B": 59.46153846153846
        }
    },
    "Obs_and_actions_busses": {
        "4": 313.5569495321526,
        "2": 62.38939663726955,
        "0": -228.71371249620518,
        "1": -42.70324524153297,
        "5": 74.24947942731549
    },
    "Obs_and_actions_tfls": {
        "2": -363.18123185006925,
        "1": 97.72057688857662,
        "0": -226.11847890453637
    }
}