{
    "Average_holding_time": 43.88059701492537,
    "Average_holding_actions": [
        359,
        67,
        460,
        96,
        15,
        0
    ],
    "Average_travel_time_passengers": 2266.6655188939153,
    "Average_passenger_waiting_time": 361.79049313183623,
    "Average_passenger_in_vehicle_time": 1904.8750257621273,
    "Average_speed_busses": 0.041875,
    "Average_experienced_crowding": 91.82494948410499,
    "Average_covariation_headway": 0.28253431929034933,
    "Average_covariation_headway_stops": {
        "I": 0.1800612913823623,
        "F": 0.18696367179235981,
        "E": 0.18231254541523534,
        "L": 0.1884386904569835,
        "C": 0.1814992871785471,
        "D": 0.18106483079898933,
        "G": 0.17464859222783835,
        "J": 0.14803716835246586,
        "A": 0.18545527506693046,
        "H": 0.18500193754961253,
        "K": 0.1785456272890709,
        "B": 0.17509739451378076
    },
    "Average_excess_waiting_time": {
        "I": 87.16251665479928,
        "F": 86.88039347640819,
        "E": 88.07154230847704,
        "L": 89.75530400723108,
        "C": 91.87999453457815,
        "D": 89.90241724245664,
        "G": 87.05894786110821,
        "J": 85.90320422627246,
        "A": 91.58270192010002,
        "H": 90.19178398882332,
        "K": 91.288352831304,
        "B": 93.49140349120177
    },
    "Holding_per_stop": {
        "I": 42.857142857142854,
        "F": 42,
        "L": 45.714285714285715,
        "E": 39.285714285714285,
        "D": 43.214285714285715,
        "C": 43.734939759036145,
        "J": 46.42857142857143,
        "G": 42.857142857142854,
        "A": 35.06024096385542,
        "H": 40,
        "K": 48.433734939759034,
        "B": 57.10843373493976
    },
    "Actions_tfl_edges": {
        "CD": [
            0,
            58,
            26
        ],
        "HI": [
            10,
            73,
            2
        ],
        "FG": [
            15,
            65,
            5
        ],
        "JK": [
            5,
            79,
            0
        ],
        "GH": [
            11,
            72,
            1
        ]
    },
    "Load_per_bus_per_stop": {
        "bus4": {
            "I": 104.2,
            "J": 96.71428571428571,
            "K": 88.71428571428571,
            "L": 78.5,
            "A": 68.28571428571429,
            "B": 59.285714285714285,
            "C": 54.714285714285715,
            "D": 51,
            "E": 50.142857142857146,
            "F": 74.64285714285714,
            "G": 109.28571428571429,
            "H": 116.21428571428571
        },
        "bus3": {
            "F": 74.2,
            "G": 112.26666666666667,
            "H": 127.35714285714286,
            "I": 125.42857142857143,
            "J": 115.28571428571429,
            "K": 106.07142857142857,
            "L": 94.57142857142857,
            "A": 81.07142857142857,
            "B": 67.85714285714286,
            "C": 60.714285714285715,
            "D": 56.142857142857146,
            "E": 54.714285714285715
        },
        "bus2": {
            "E": 46.714285714285715,
            "F": 69.71428571428571,
            "G": 106.92857142857143,
            "H": 117.92857142857143,
            "I": 111.78571428571429,
            "J": 104,
            "K": 93.07142857142857,
            "L": 82.92857142857143,
            "A": 72.92857142857143,
            "B": 63.714285714285715,
            "C": 57.785714285714285,
            "D": 51.142857142857146
        },
        "bus5": {
            "L": 82.28571428571429,
            "A": 70,
            "B": 58.57142857142857,
            "C": 54.642857142857146,
            "D": 52.142857142857146,
            "E": 52.785714285714285,
            "F": 82.85714285714286,
            "G": 125.35714285714286,
            "H": 131.5,
            "I": 127.21428571428571,
            "J": 117.42857142857143,
            "K": 103.42857142857143
        },
        "bus0": {
            "C": 53.57142857142857,
            "D": 51.142857142857146,
            "E": 50.785714285714285,
            "F": 74.57142857142857,
            "G": 109.07142857142857,
            "H": 116.78571428571429,
            "I": 114,
            "J": 106.35714285714286,
            "K": 98.07142857142857,
            "L": 88.71428571428571,
            "A": 77.71428571428571,
            "B": 64.92307692307692
        },
        "bus1": {
            "D": 47.07142857142857,
            "E": 48.07142857142857,
            "F": 76.57142857142857,
            "G": 113.21428571428571,
            "H": 121.57142857142857,
            "I": 117.14285714285714,
            "J": 108.42857142857143,
            "K": 96.64285714285714,
            "L": 81.85714285714286,
            "A": 70,
            "B": 59.5,
            "C": 55
        }
    },
    "Obs_and_actions_busses": {
        "2": 52.001164457693676,
        "0": -179.40540230639493,
        "5": 87.66176360634012,
        "1": -38.09621160420619,
        "4": 257.5540301461578,
        "3": 41.976032450099865
    },
    "Obs_and_actions_tfls": {
        "1": 39.17466292152469,
        "2": -263.9439870985136,
        "0": -246.28986867517912
    }
}631024,
        "0": -260.47842648619667
    }
}